[
{
  "url": "https://api.github.com/repos/chef/oc_erchef/issues/comments/94011446",
  "html_url": "https://github.com/chef/oc_erchef/pull/139#issuecomment-94011446",
  "issue_url": "https://api.github.com/repos/chef/oc_erchef/issues/139",
  "id": 94011446,
  "user": {
    "login": "chef-supermarket",
    "id": 7798939,
    "avatar_url": "https://avatars.githubusercontent.com/u/7798939?v=3",
    "gravatar_id": "",
    "url": "https://api.github.com/users/chef-supermarket",
    "html_url": "https://github.com/chef-supermarket",
    "followers_url": "https://api.github.com/users/chef-supermarket/followers",
    "following_url": "https://api.github.com/users/chef-supermarket/following{/other_user}",
    "gists_url": "https://api.github.com/users/chef-supermarket/gists{/gist_id}",
    "starred_url": "https://api.github.com/users/chef-supermarket/starred{/owner}{/repo}",
    "subscriptions_url": "https://api.github.com/users/chef-supermarket/subscriptions",
    "organizations_url": "https://api.github.com/users/chef-supermarket/orgs",
    "repos_url": "https://api.github.com/users/chef-supermarket/repos",
    "events_url": "https://api.github.com/users/chef-supermarket/events{/privacy}",
    "received_events_url": "https://api.github.com/users/chef-supermarket/received_events",
    "type": "User",
    "site_admin": false
  },
  "created_at": "2015-04-17T15:39:07Z",
  "updated_at": "2015-04-17T15:39:07Z",
  "body": "Hi. I am an automated pull request bot named Curry. There are commits in this pull request whose authors are not yet authorized to contribute to Chef Software, Inc. projects or are using a non-GitHub verified email address. To become authorized to contribute, you will need to sign the Contributor License Agreement (CLA) as an individual or on behalf of your company. [You can read more on Chef's blog.](https://www.chef.io/blog/2014/06/23/changes-to-the-contributor-license-agreement-process)\n\n## Non-GitHub Verified Committers\n\nThere are 1 commit author(s) whose commits are authored by a non-GitHub verified email address. Chef will have to manually verify that they are authorized to contribute.\n\n[Please sign the CLA here.](https://supermarket.chef.io/become-a-contributor)"
}
]
