[
{
  "url": "https://api.github.com/repos/chef/oc_erchef/issues/comments/34105832",
  "html_url": "https://github.com/chef/oc_erchef/pull/36#issuecomment-34105832",
  "issue_url": "https://api.github.com/repos/chef/oc_erchef/issues/36",
  "id": 34105832,
  "user": {
    "login": "tylercloke",
    "id": 1899715,
    "avatar_url": "https://avatars.githubusercontent.com/u/1899715?v=3",
    "gravatar_id": "",
    "url": "https://api.github.com/users/tylercloke",
    "html_url": "https://github.com/tylercloke",
    "followers_url": "https://api.github.com/users/tylercloke/followers",
    "following_url": "https://api.github.com/users/tylercloke/following{/other_user}",
    "gists_url": "https://api.github.com/users/tylercloke/gists{/gist_id}",
    "starred_url": "https://api.github.com/users/tylercloke/starred{/owner}{/repo}",
    "subscriptions_url": "https://api.github.com/users/tylercloke/subscriptions",
    "organizations_url": "https://api.github.com/users/tylercloke/orgs",
    "repos_url": "https://api.github.com/users/tylercloke/repos",
    "events_url": "https://api.github.com/users/tylercloke/events{/privacy}",
    "received_events_url": "https://api.github.com/users/tylercloke/received_events",
    "type": "User",
    "site_admin": false
  },
  "created_at": "2014-02-04T20:54:02Z",
  "updated_at": "2014-02-04T20:54:02Z",
  "body": "Thanks for documenting this! It would be really nice if we exposed a way to query for a specific user / group's ACLs on a specific container or object. Pretty sure that is an easy bifrost query, its just not exposed."
}
, {
  "url": "https://api.github.com/repos/chef/oc_erchef/issues/comments/34117187",
  "html_url": "https://github.com/chef/oc_erchef/pull/36#issuecomment-34117187",
  "issue_url": "https://api.github.com/repos/chef/oc_erchef/issues/36",
  "id": 34117187,
  "user": {
    "login": "manderson26",
    "id": 253389,
    "avatar_url": "https://avatars.githubusercontent.com/u/253389?v=3",
    "gravatar_id": "",
    "url": "https://api.github.com/users/manderson26",
    "html_url": "https://github.com/manderson26",
    "followers_url": "https://api.github.com/users/manderson26/followers",
    "following_url": "https://api.github.com/users/manderson26/following{/other_user}",
    "gists_url": "https://api.github.com/users/manderson26/gists{/gist_id}",
    "starred_url": "https://api.github.com/users/manderson26/starred{/owner}{/repo}",
    "subscriptions_url": "https://api.github.com/users/manderson26/subscriptions",
    "organizations_url": "https://api.github.com/users/manderson26/orgs",
    "repos_url": "https://api.github.com/users/manderson26/repos",
    "events_url": "https://api.github.com/users/manderson26/events{/privacy}",
    "received_events_url": "https://api.github.com/users/manderson26/received_events",
    "type": "User",
    "site_admin": false
  },
  "created_at": "2014-02-04T22:48:18Z",
  "updated_at": "2014-02-04T22:52:35Z",
  "body": "Would something like this work?\r\norganizations/:orgname/:type/:objectname/\\_acl\\_check/:access_type/{users|clients}/:actorname\r\nwhich would return whether :actorname had :access_type permissions on :objectname? \r\n"
}
, {
  "url": "https://api.github.com/repos/chef/oc_erchef/issues/comments/34117887",
  "html_url": "https://github.com/chef/oc_erchef/pull/36#issuecomment-34117887",
  "issue_url": "https://api.github.com/repos/chef/oc_erchef/issues/36",
  "id": 34117887,
  "user": {
    "login": "tylercloke",
    "id": 1899715,
    "avatar_url": "https://avatars.githubusercontent.com/u/1899715?v=3",
    "gravatar_id": "",
    "url": "https://api.github.com/users/tylercloke",
    "html_url": "https://github.com/tylercloke",
    "followers_url": "https://api.github.com/users/tylercloke/followers",
    "following_url": "https://api.github.com/users/tylercloke/following{/other_user}",
    "gists_url": "https://api.github.com/users/tylercloke/gists{/gist_id}",
    "starred_url": "https://api.github.com/users/tylercloke/starred{/owner}{/repo}",
    "subscriptions_url": "https://api.github.com/users/tylercloke/subscriptions",
    "organizations_url": "https://api.github.com/users/tylercloke/orgs",
    "repos_url": "https://api.github.com/users/tylercloke/repos",
    "events_url": "https://api.github.com/users/tylercloke/events{/privacy}",
    "received_events_url": "https://api.github.com/users/tylercloke/received_events",
    "type": "User",
    "site_admin": false
  },
  "created_at": "2014-02-04T22:55:44Z",
  "updated_at": "2014-02-04T22:56:32Z",
  "body": "That would be rad. Would it be easier / possible just to return the whole acl on that object for a user/client so something like: \r\n\r\n``` organizations/:orgname/:type/:objectname/_acl_check/{users|clients}/:actorname ```\r\n\r\nWould return:\r\n\r\n```{read:true, update:false, ...}```"
}
, {
  "url": "https://api.github.com/repos/chef/oc_erchef/issues/comments/34118072",
  "html_url": "https://github.com/chef/oc_erchef/pull/36#issuecomment-34118072",
  "issue_url": "https://api.github.com/repos/chef/oc_erchef/issues/36",
  "id": 34118072,
  "user": {
    "login": "manderson26",
    "id": 253389,
    "avatar_url": "https://avatars.githubusercontent.com/u/253389?v=3",
    "gravatar_id": "",
    "url": "https://api.github.com/users/manderson26",
    "html_url": "https://github.com/manderson26",
    "followers_url": "https://api.github.com/users/manderson26/followers",
    "following_url": "https://api.github.com/users/manderson26/following{/other_user}",
    "gists_url": "https://api.github.com/users/manderson26/gists{/gist_id}",
    "starred_url": "https://api.github.com/users/manderson26/starred{/owner}{/repo}",
    "subscriptions_url": "https://api.github.com/users/manderson26/subscriptions",
    "organizations_url": "https://api.github.com/users/manderson26/orgs",
    "repos_url": "https://api.github.com/users/manderson26/repos",
    "events_url": "https://api.github.com/users/manderson26/events{/privacy}",
    "received_events_url": "https://api.github.com/users/manderson26/received_events",
    "type": "User",
    "site_admin": false
  },
  "created_at": "2014-02-04T22:57:53Z",
  "updated_at": "2014-02-04T22:57:53Z",
  "body": "I don't think there's currently a bifrost API to return the effective ACL for an actor-object pair. There is the standard can actor do action on object query. So you could 'fake' it by making five queries against bifrost. "
}
, {
  "url": "https://api.github.com/repos/chef/oc_erchef/issues/comments/34118143",
  "html_url": "https://github.com/chef/oc_erchef/pull/36#issuecomment-34118143",
  "issue_url": "https://api.github.com/repos/chef/oc_erchef/issues/36",
  "id": 34118143,
  "user": {
    "login": "tylercloke",
    "id": 1899715,
    "avatar_url": "https://avatars.githubusercontent.com/u/1899715?v=3",
    "gravatar_id": "",
    "url": "https://api.github.com/users/tylercloke",
    "html_url": "https://github.com/tylercloke",
    "followers_url": "https://api.github.com/users/tylercloke/followers",
    "following_url": "https://api.github.com/users/tylercloke/following{/other_user}",
    "gists_url": "https://api.github.com/users/tylercloke/gists{/gist_id}",
    "starred_url": "https://api.github.com/users/tylercloke/starred{/owner}{/repo}",
    "subscriptions_url": "https://api.github.com/users/tylercloke/subscriptions",
    "organizations_url": "https://api.github.com/users/tylercloke/orgs",
    "repos_url": "https://api.github.com/users/tylercloke/repos",
    "events_url": "https://api.github.com/users/tylercloke/events{/privacy}",
    "received_events_url": "https://api.github.com/users/tylercloke/received_events",
    "type": "User",
    "site_admin": false
  },
  "created_at": "2014-02-04T22:58:38Z",
  "updated_at": "2014-02-04T22:58:38Z",
  "body": "Ah, no problem. Even just having the first one you posted would be pretty sweet."
}
, {
  "url": "https://api.github.com/repos/chef/oc_erchef/issues/comments/60995066",
  "html_url": "https://github.com/chef/oc_erchef/pull/36#issuecomment-60995066",
  "issue_url": "https://api.github.com/repos/chef/oc_erchef/issues/36",
  "id": 60995066,
  "user": {
    "login": "chef-supermarket",
    "id": 7798939,
    "avatar_url": "https://avatars.githubusercontent.com/u/7798939?v=3",
    "gravatar_id": "",
    "url": "https://api.github.com/users/chef-supermarket",
    "html_url": "https://github.com/chef-supermarket",
    "followers_url": "https://api.github.com/users/chef-supermarket/followers",
    "following_url": "https://api.github.com/users/chef-supermarket/following{/other_user}",
    "gists_url": "https://api.github.com/users/chef-supermarket/gists{/gist_id}",
    "starred_url": "https://api.github.com/users/chef-supermarket/starred{/owner}{/repo}",
    "subscriptions_url": "https://api.github.com/users/chef-supermarket/subscriptions",
    "organizations_url": "https://api.github.com/users/chef-supermarket/orgs",
    "repos_url": "https://api.github.com/users/chef-supermarket/repos",
    "events_url": "https://api.github.com/users/chef-supermarket/events{/privacy}",
    "received_events_url": "https://api.github.com/users/chef-supermarket/received_events",
    "type": "User",
    "site_admin": false
  },
  "created_at": "2014-10-29T20:06:44Z",
  "updated_at": "2014-10-29T20:06:44Z",
  "body": "Hi. I am an automated pull request bot named Curry. There are commits in this pull request whose authors are not yet authorized to contribute to Chef Software, Inc. projects or are using a non-GitHub verified email address. To become authorized to contribute, you will need to sign the Contributor License Agreement (CLA) as an individual or on behalf of your company. [You can read more on Chef's blog.](http://www.getchef.com/blog/2014/06/23/changes-to-the-contributor-license-agreement-process/)\n\n## GitHub Users Who Are Not Authorized To Contribute\n\nThe following GitHub users do not appear to have signed a CLA:\n\n* @manderson26\n\n[Please sign the CLA here.](https://supermarket.getchef.com/become-a-contributor)"
}
, {
  "url": "https://api.github.com/repos/chef/oc_erchef/issues/comments/61858790",
  "html_url": "https://github.com/chef/oc_erchef/pull/36#issuecomment-61858790",
  "issue_url": "https://api.github.com/repos/chef/oc_erchef/issues/36",
  "id": 61858790,
  "user": {
    "login": "chef-supermarket",
    "id": 7798939,
    "avatar_url": "https://avatars.githubusercontent.com/u/7798939?v=3",
    "gravatar_id": "",
    "url": "https://api.github.com/users/chef-supermarket",
    "html_url": "https://github.com/chef-supermarket",
    "followers_url": "https://api.github.com/users/chef-supermarket/followers",
    "following_url": "https://api.github.com/users/chef-supermarket/following{/other_user}",
    "gists_url": "https://api.github.com/users/chef-supermarket/gists{/gist_id}",
    "starred_url": "https://api.github.com/users/chef-supermarket/starred{/owner}{/repo}",
    "subscriptions_url": "https://api.github.com/users/chef-supermarket/subscriptions",
    "organizations_url": "https://api.github.com/users/chef-supermarket/orgs",
    "repos_url": "https://api.github.com/users/chef-supermarket/repos",
    "events_url": "https://api.github.com/users/chef-supermarket/events{/privacy}",
    "received_events_url": "https://api.github.com/users/chef-supermarket/received_events",
    "type": "User",
    "site_admin": false
  },
  "created_at": "2014-11-05T18:41:33Z",
  "updated_at": "2014-11-05T18:41:33Z",
  "body": "Hi. Your friendly Curry bot here. Just letting you know that all commit authors have become authorized to contribute. I have added the \"Signed CLA\" label to this issue so it can easily be found in the future."
}
, {
  "url": "https://api.github.com/repos/chef/oc_erchef/issues/comments/68954306",
  "html_url": "https://github.com/chef/oc_erchef/pull/36#issuecomment-68954306",
  "issue_url": "https://api.github.com/repos/chef/oc_erchef/issues/36",
  "id": 68954306,
  "user": {
    "login": "marcparadise",
    "id": 1130204,
    "avatar_url": "https://avatars.githubusercontent.com/u/1130204?v=3",
    "gravatar_id": "",
    "url": "https://api.github.com/users/marcparadise",
    "html_url": "https://github.com/marcparadise",
    "followers_url": "https://api.github.com/users/marcparadise/followers",
    "following_url": "https://api.github.com/users/marcparadise/following{/other_user}",
    "gists_url": "https://api.github.com/users/marcparadise/gists{/gist_id}",
    "starred_url": "https://api.github.com/users/marcparadise/starred{/owner}{/repo}",
    "subscriptions_url": "https://api.github.com/users/marcparadise/subscriptions",
    "organizations_url": "https://api.github.com/users/marcparadise/orgs",
    "repos_url": "https://api.github.com/users/marcparadise/repos",
    "events_url": "https://api.github.com/users/marcparadise/events{/privacy}",
    "received_events_url": "https://api.github.com/users/marcparadise/received_events",
    "type": "User",
    "site_admin": false
  },
  "created_at": "2015-01-06T23:31:18Z",
  "updated_at": "2015-01-06T23:31:18Z",
  "body": "I'm closing it here, but it seems like it might be worth moving this info into the chef-server repo? \r\n"
}
, {
  "url": "https://api.github.com/repos/chef/oc_erchef/issues/comments/70035156",
  "html_url": "https://github.com/chef/oc_erchef/pull/36#issuecomment-70035156",
  "issue_url": "https://api.github.com/repos/chef/oc_erchef/issues/36",
  "id": 70035156,
  "user": {
    "login": "manderson26",
    "id": 253389,
    "avatar_url": "https://avatars.githubusercontent.com/u/253389?v=3",
    "gravatar_id": "",
    "url": "https://api.github.com/users/manderson26",
    "html_url": "https://github.com/manderson26",
    "followers_url": "https://api.github.com/users/manderson26/followers",
    "following_url": "https://api.github.com/users/manderson26/following{/other_user}",
    "gists_url": "https://api.github.com/users/manderson26/gists{/gist_id}",
    "starred_url": "https://api.github.com/users/manderson26/starred{/owner}{/repo}",
    "subscriptions_url": "https://api.github.com/users/manderson26/subscriptions",
    "organizations_url": "https://api.github.com/users/manderson26/orgs",
    "repos_url": "https://api.github.com/users/manderson26/repos",
    "events_url": "https://api.github.com/users/manderson26/events{/privacy}",
    "received_events_url": "https://api.github.com/users/manderson26/received_events",
    "type": "User",
    "site_admin": false
  },
  "created_at": "2015-01-15T03:32:41Z",
  "updated_at": "2015-01-15T03:32:41Z",
  "body": "Any reason not to merge this and move it with the rest of the API docs over? "
}
, {
  "url": "https://api.github.com/repos/chef/oc_erchef/issues/comments/70138829",
  "html_url": "https://github.com/chef/oc_erchef/pull/36#issuecomment-70138829",
  "issue_url": "https://api.github.com/repos/chef/oc_erchef/issues/36",
  "id": 70138829,
  "user": {
    "login": "marcparadise",
    "id": 1130204,
    "avatar_url": "https://avatars.githubusercontent.com/u/1130204?v=3",
    "gravatar_id": "",
    "url": "https://api.github.com/users/marcparadise",
    "html_url": "https://github.com/marcparadise",
    "followers_url": "https://api.github.com/users/marcparadise/followers",
    "following_url": "https://api.github.com/users/marcparadise/following{/other_user}",
    "gists_url": "https://api.github.com/users/marcparadise/gists{/gist_id}",
    "starred_url": "https://api.github.com/users/marcparadise/starred{/owner}{/repo}",
    "subscriptions_url": "https://api.github.com/users/marcparadise/subscriptions",
    "organizations_url": "https://api.github.com/users/marcparadise/orgs",
    "repos_url": "https://api.github.com/users/marcparadise/repos",
    "events_url": "https://api.github.com/users/marcparadise/events{/privacy}",
    "received_events_url": "https://api.github.com/users/marcparadise/received_events",
    "type": "User",
    "site_admin": false
  },
  "created_at": "2015-01-15T18:48:47Z",
  "updated_at": "2015-01-15T18:48:47Z",
  "body": "Nope, I forgot that we already had docs there."
}
]
