[
{
  "url": "https://api.github.com/repos/mongodb/mongo-python-driver/issues/comments/3207905",
  "html_url": "https://github.com/mongodb/mongo-python-driver/pull/73#issuecomment-3207905",
  "issue_url": "https://api.github.com/repos/mongodb/mongo-python-driver/issues/73",
  "id": 3207905,
  "user": {
    "login": "behackett",
    "id": 573553,
    "avatar_url": "https://avatars.githubusercontent.com/u/573553?v=3",
    "gravatar_id": "",
    "url": "https://api.github.com/users/behackett",
    "html_url": "https://github.com/behackett",
    "followers_url": "https://api.github.com/users/behackett/followers",
    "following_url": "https://api.github.com/users/behackett/following{/other_user}",
    "gists_url": "https://api.github.com/users/behackett/gists{/gist_id}",
    "starred_url": "https://api.github.com/users/behackett/starred{/owner}{/repo}",
    "subscriptions_url": "https://api.github.com/users/behackett/subscriptions",
    "organizations_url": "https://api.github.com/users/behackett/orgs",
    "repos_url": "https://api.github.com/users/behackett/repos",
    "events_url": "https://api.github.com/users/behackett/events{/privacy}",
    "received_events_url": "https://api.github.com/users/behackett/received_events",
    "type": "User",
    "site_admin": false
  },
  "created_at": "2011-12-19T19:13:57Z",
  "updated_at": "2011-12-19T19:13:57Z",
  "body": "Merged."
}
]
