[
{
  "url": "https://api.github.com/repos/chef/bento/issues/comments/41079914",
  "html_url": "https://github.com/chef/bento/pull/209#issuecomment-41079914",
  "issue_url": "https://api.github.com/repos/chef/bento/issues/209",
  "id": 41079914,
  "user": {
    "login": "juliandunn",
    "id": 841412,
    "avatar_url": "https://avatars.githubusercontent.com/u/841412?v=3",
    "gravatar_id": "",
    "url": "https://api.github.com/users/juliandunn",
    "html_url": "https://github.com/juliandunn",
    "followers_url": "https://api.github.com/users/juliandunn/followers",
    "following_url": "https://api.github.com/users/juliandunn/following{/other_user}",
    "gists_url": "https://api.github.com/users/juliandunn/gists{/gist_id}",
    "starred_url": "https://api.github.com/users/juliandunn/starred{/owner}{/repo}",
    "subscriptions_url": "https://api.github.com/users/juliandunn/subscriptions",
    "organizations_url": "https://api.github.com/users/juliandunn/orgs",
    "repos_url": "https://api.github.com/users/juliandunn/repos",
    "events_url": "https://api.github.com/users/juliandunn/events{/privacy}",
    "received_events_url": "https://api.github.com/users/juliandunn/received_events",
    "type": "User",
    "site_admin": false
  },
  "created_at": "2014-04-22T18:58:48Z",
  "updated_at": "2014-04-22T18:58:48Z",
  "body": "Thanks! I forgot this step."
}
]
