[
{
  "url": "https://api.github.com/repos/chef/bento/issues/comments/153401495",
  "html_url": "https://github.com/chef/bento/issues/486#issuecomment-153401495",
  "issue_url": "https://api.github.com/repos/chef/bento/issues/486",
  "id": 153401495,
  "user": {
    "login": "cheeseplus",
    "id": 575693,
    "avatar_url": "https://avatars.githubusercontent.com/u/575693?v=3",
    "gravatar_id": "",
    "url": "https://api.github.com/users/cheeseplus",
    "html_url": "https://github.com/cheeseplus",
    "followers_url": "https://api.github.com/users/cheeseplus/followers",
    "following_url": "https://api.github.com/users/cheeseplus/following{/other_user}",
    "gists_url": "https://api.github.com/users/cheeseplus/gists{/gist_id}",
    "starred_url": "https://api.github.com/users/cheeseplus/starred{/owner}{/repo}",
    "subscriptions_url": "https://api.github.com/users/cheeseplus/subscriptions",
    "organizations_url": "https://api.github.com/users/cheeseplus/orgs",
    "repos_url": "https://api.github.com/users/cheeseplus/repos",
    "events_url": "https://api.github.com/users/cheeseplus/events{/privacy}",
    "received_events_url": "https://api.github.com/users/cheeseplus/received_events",
    "type": "User",
    "site_admin": false
  },
  "created_at": "2015-11-03T16:13:14Z",
  "updated_at": "2015-11-03T16:13:14Z",
  "body": "Not sure how we'd accommodate these as those are baremetal services - I know they use images but we'd need the boxes themselves to build or test the images."
}
, {
  "url": "https://api.github.com/repos/chef/bento/issues/comments/153512449",
  "html_url": "https://github.com/chef/bento/issues/486#issuecomment-153512449",
  "issue_url": "https://api.github.com/repos/chef/bento/issues/486",
  "id": 153512449,
  "user": {
    "login": "jmthackett",
    "id": 844469,
    "avatar_url": "https://avatars.githubusercontent.com/u/844469?v=3",
    "gravatar_id": "",
    "url": "https://api.github.com/users/jmthackett",
    "html_url": "https://github.com/jmthackett",
    "followers_url": "https://api.github.com/users/jmthackett/followers",
    "following_url": "https://api.github.com/users/jmthackett/following{/other_user}",
    "gists_url": "https://api.github.com/users/jmthackett/gists{/gist_id}",
    "starred_url": "https://api.github.com/users/jmthackett/starred{/owner}{/repo}",
    "subscriptions_url": "https://api.github.com/users/jmthackett/subscriptions",
    "organizations_url": "https://api.github.com/users/jmthackett/orgs",
    "repos_url": "https://api.github.com/users/jmthackett/repos",
    "events_url": "https://api.github.com/users/jmthackett/events{/privacy}",
    "received_events_url": "https://api.github.com/users/jmthackett/received_events",
    "type": "User",
    "site_admin": false
  },
  "created_at": "2015-11-03T22:42:47Z",
  "updated_at": "2015-11-03T22:42:47Z",
  "body": "To be a bit more specific, it'd be nice if this worked on ARM in general. I'm not sure how portable between flavours of ARM an image like this can be, though.\r\n\r\nThere are *some* things that can be done using qemu for emulation - it has various types of ARM available for emulation, which if you install QEMU (I'm on debian 8.2) you can see by doing `qemu-system-arm -machines list`\r\n\r\nI've tried this - so far unsuccessfully - and the result is here:\r\nhttps://github.com/tethra/bento/blob/debian-armhf-build/debian-8.2-armhf.json\r\n\r\nThe issue I'm having is that packer isn't being helpful in logging the output of its commands, or very clear on what it is doing. I'm watching netstat while the VM boots and the VNC console comes up and see it getting to opening up VNC, but I've not succeeded in getting any output from the VM and packer hangs forever. I'm a bit new to packer, so I've not managed to pry any useful information out of it about whether it uses extra qemu flags I'm not supplying etc. \r\n\r\nScaleway have their own images (eg https://github.com/scaleway/image-debian ) which appear to be based on docker images (eg https://hub.docker.com/r/armbuild/debian/ ), which might be useful to look at.\r\n\r\nAlternatively, I'd be happy to provide access to a box to build / test on :)"
}
, {
  "url": "https://api.github.com/repos/chef/bento/issues/comments/157169052",
  "html_url": "https://github.com/chef/bento/issues/486#issuecomment-157169052",
  "issue_url": "https://api.github.com/repos/chef/bento/issues/486",
  "id": 157169052,
  "user": {
    "login": "cheeseplus",
    "id": 575693,
    "avatar_url": "https://avatars.githubusercontent.com/u/575693?v=3",
    "gravatar_id": "",
    "url": "https://api.github.com/users/cheeseplus",
    "html_url": "https://github.com/cheeseplus",
    "followers_url": "https://api.github.com/users/cheeseplus/followers",
    "following_url": "https://api.github.com/users/cheeseplus/following{/other_user}",
    "gists_url": "https://api.github.com/users/cheeseplus/gists{/gist_id}",
    "starred_url": "https://api.github.com/users/cheeseplus/starred{/owner}{/repo}",
    "subscriptions_url": "https://api.github.com/users/cheeseplus/subscriptions",
    "organizations_url": "https://api.github.com/users/cheeseplus/orgs",
    "repos_url": "https://api.github.com/users/cheeseplus/repos",
    "events_url": "https://api.github.com/users/cheeseplus/events{/privacy}",
    "received_events_url": "https://api.github.com/users/cheeseplus/received_events",
    "type": "User",
    "site_admin": false
  },
  "created_at": "2015-11-16T21:01:41Z",
  "updated_at": "2015-11-16T21:01:41Z",
  "body": "I feel like the idiosyncracies of ARM and the services/emulators that support it may prevent this from being broadly useful but I'd be happy to accept PRs. That said I can't see it being a viable artifact to maintain in our CI/CD at this time although I am definitely open to the possibility."
}
, {
  "url": "https://api.github.com/repos/chef/bento/issues/comments/157735678",
  "html_url": "https://github.com/chef/bento/issues/486#issuecomment-157735678",
  "issue_url": "https://api.github.com/repos/chef/bento/issues/486",
  "id": 157735678,
  "user": {
    "login": "cheeseplus",
    "id": 575693,
    "avatar_url": "https://avatars.githubusercontent.com/u/575693?v=3",
    "gravatar_id": "",
    "url": "https://api.github.com/users/cheeseplus",
    "html_url": "https://github.com/cheeseplus",
    "followers_url": "https://api.github.com/users/cheeseplus/followers",
    "following_url": "https://api.github.com/users/cheeseplus/following{/other_user}",
    "gists_url": "https://api.github.com/users/cheeseplus/gists{/gist_id}",
    "starred_url": "https://api.github.com/users/cheeseplus/starred{/owner}{/repo}",
    "subscriptions_url": "https://api.github.com/users/cheeseplus/subscriptions",
    "organizations_url": "https://api.github.com/users/cheeseplus/orgs",
    "repos_url": "https://api.github.com/users/cheeseplus/repos",
    "events_url": "https://api.github.com/users/cheeseplus/events{/privacy}",
    "received_events_url": "https://api.github.com/users/cheeseplus/received_events",
    "type": "User",
    "site_admin": false
  },
  "created_at": "2015-11-18T14:46:27Z",
  "updated_at": "2015-11-18T14:46:27Z",
  "body": "It also looks like the VNC and networking blockers have been hit by others as well https://github.com/annonymouse/rpi-qemu-up#why-not-packerio"
}
, {
  "url": "https://api.github.com/repos/chef/bento/issues/comments/168316913",
  "html_url": "https://github.com/chef/bento/issues/486#issuecomment-168316913",
  "issue_url": "https://api.github.com/repos/chef/bento/issues/486",
  "id": 168316913,
  "user": {
    "login": "cheeseplus",
    "id": 575693,
    "avatar_url": "https://avatars.githubusercontent.com/u/575693?v=3",
    "gravatar_id": "",
    "url": "https://api.github.com/users/cheeseplus",
    "html_url": "https://github.com/cheeseplus",
    "followers_url": "https://api.github.com/users/cheeseplus/followers",
    "following_url": "https://api.github.com/users/cheeseplus/following{/other_user}",
    "gists_url": "https://api.github.com/users/cheeseplus/gists{/gist_id}",
    "starred_url": "https://api.github.com/users/cheeseplus/starred{/owner}{/repo}",
    "subscriptions_url": "https://api.github.com/users/cheeseplus/subscriptions",
    "organizations_url": "https://api.github.com/users/cheeseplus/orgs",
    "repos_url": "https://api.github.com/users/cheeseplus/repos",
    "events_url": "https://api.github.com/users/cheeseplus/events{/privacy}",
    "received_events_url": "https://api.github.com/users/cheeseplus/received_events",
    "type": "User",
    "site_admin": false
  },
  "created_at": "2016-01-01T16:52:49Z",
  "updated_at": "2016-01-01T16:52:49Z",
  "body": "Closing this for now but still open to idea and PRs - just don't think it's viable as part of a stable build pipeline for us but we could add definitions if we had easy (free) ways to test them."
}
]
