{
  "id": 19011047,
  "name": "python-jenkins",
  "full_name": "openstack/python-jenkins",
  "owner": {
    "login": "openstack",
    "id": 324574,
    "avatar_url": "https://avatars.githubusercontent.com/u/324574?v=3",
    "gravatar_id": "",
    "url": "https://api.github.com/users/openstack",
    "html_url": "https://github.com/openstack",
    "followers_url": "https://api.github.com/users/openstack/followers",
    "following_url": "https://api.github.com/users/openstack/following{/other_user}",
    "gists_url": "https://api.github.com/users/openstack/gists{/gist_id}",
    "starred_url": "https://api.github.com/users/openstack/starred{/owner}{/repo}",
    "subscriptions_url": "https://api.github.com/users/openstack/subscriptions",
    "organizations_url": "https://api.github.com/users/openstack/orgs",
    "repos_url": "https://api.github.com/users/openstack/repos",
    "events_url": "https://api.github.com/users/openstack/events{/privacy}",
    "received_events_url": "https://api.github.com/users/openstack/received_events",
    "type": "Organization",
    "site_admin": false
  },
  "private": false,
  "html_url": "https://github.com/openstack/python-jenkins",
  "description": "Python API for managing jobs and nodes in a Jenkins CI instance",
  "fork": false,
  "url": "https://api.github.com/repos/openstack/python-jenkins",
  "forks_url": "https://api.github.com/repos/openstack/python-jenkins/forks",
  "keys_url": "https://api.github.com/repos/openstack/python-jenkins/keys{/key_id}",
  "collaborators_url": "https://api.github.com/repos/openstack/python-jenkins/collaborators{/collaborator}",
  "teams_url": "https://api.github.com/repos/openstack/python-jenkins/teams",
  "hooks_url": "https://api.github.com/repos/openstack/python-jenkins/hooks",
  "issue_events_url": "https://api.github.com/repos/openstack/python-jenkins/issues/events{/number}",
  "events_url": "https://api.github.com/repos/openstack/python-jenkins/events",
  "assignees_url": "https://api.github.com/repos/openstack/python-jenkins/assignees{/user}",
  "branches_url": "https://api.github.com/repos/openstack/python-jenkins/branches{/branch}",
  "tags_url": "https://api.github.com/repos/openstack/python-jenkins/tags",
  "blobs_url": "https://api.github.com/repos/openstack/python-jenkins/git/blobs{/sha}",
  "git_tags_url": "https://api.github.com/repos/openstack/python-jenkins/git/tags{/sha}",
  "git_refs_url": "https://api.github.com/repos/openstack/python-jenkins/git/refs{/sha}",
  "trees_url": "https://api.github.com/repos/openstack/python-jenkins/git/trees{/sha}",
  "statuses_url": "https://api.github.com/repos/openstack/python-jenkins/statuses/{sha}",
  "languages_url": "https://api.github.com/repos/openstack/python-jenkins/languages",
  "stargazers_url": "https://api.github.com/repos/openstack/python-jenkins/stargazers",
  "contributors_url": "https://api.github.com/repos/openstack/python-jenkins/contributors",
  "subscribers_url": "https://api.github.com/repos/openstack/python-jenkins/subscribers",
  "subscription_url": "https://api.github.com/repos/openstack/python-jenkins/subscription",
  "commits_url": "https://api.github.com/repos/openstack/python-jenkins/commits{/sha}",
  "git_commits_url": "https://api.github.com/repos/openstack/python-jenkins/git/commits{/sha}",
  "comments_url": "https://api.github.com/repos/openstack/python-jenkins/comments{/number}",
  "issue_comment_url": "https://api.github.com/repos/openstack/python-jenkins/issues/comments{/number}",
  "contents_url": "https://api.github.com/repos/openstack/python-jenkins/contents/{+path}",
  "compare_url": "https://api.github.com/repos/openstack/python-jenkins/compare/{base}...{head}",
  "merges_url": "https://api.github.com/repos/openstack/python-jenkins/merges",
  "archive_url": "https://api.github.com/repos/openstack/python-jenkins/{archive_format}{/ref}",
  "downloads_url": "https://api.github.com/repos/openstack/python-jenkins/downloads",
  "issues_url": "https://api.github.com/repos/openstack/python-jenkins/issues{/number}",
  "pulls_url": "https://api.github.com/repos/openstack/python-jenkins/pulls{/number}",
  "milestones_url": "https://api.github.com/repos/openstack/python-jenkins/milestones{/number}",
  "notifications_url": "https://api.github.com/repos/openstack/python-jenkins/notifications{?since,all,participating}",
  "labels_url": "https://api.github.com/repos/openstack/python-jenkins/labels{/name}",
  "releases_url": "https://api.github.com/repos/openstack/python-jenkins/releases{/id}",
  "deployments_url": "https://api.github.com/repos/openstack/python-jenkins/deployments",
  "created_at": "2014-04-21T23:59:08Z",
  "updated_at": "2016-01-18T07:23:04Z",
  "pushed_at": "2016-01-25T19:31:43Z",
  "git_url": "git://github.com/openstack/python-jenkins.git",
  "ssh_url": "git@github.com:openstack/python-jenkins.git",
  "clone_url": "https://github.com/openstack/python-jenkins.git",
  "svn_url": "https://github.com/openstack/python-jenkins",
  "homepage": "http://openstack.org",
  "size": 691,
  "stargazers_count": 58,
  "watchers_count": 58,
  "language": "Python",
  "has_issues": false,
  "has_downloads": false,
  "has_wiki": false,
  "has_pages": false,
  "forks_count": 28,
  "mirror_url": null,
  "open_issues_count": 0,
  "forks": 28,
  "open_issues": 0,
  "watchers": 58,
  "default_branch": "master",
  "master_branch": "master",
  "permissions": {
    "admin": false,
    "push": false,
    "pull": true
  },
  "license": {
    "key": "bsd-3-clause",
    "name": "BSD 3-clause \"New\" or \"Revised\" License",
    "url": "https://api.github.com/licenses/bsd-3-clause",
    "featured": false
  },
  "organization": {
    "login": "openstack",
    "id": 324574,
    "avatar_url": "https://avatars.githubusercontent.com/u/324574?v=3",
    "gravatar_id": "",
    "url": "https://api.github.com/users/openstack",
    "html_url": "https://github.com/openstack",
    "followers_url": "https://api.github.com/users/openstack/followers",
    "following_url": "https://api.github.com/users/openstack/following{/other_user}",
    "gists_url": "https://api.github.com/users/openstack/gists{/gist_id}",
    "starred_url": "https://api.github.com/users/openstack/starred{/owner}{/repo}",
    "subscriptions_url": "https://api.github.com/users/openstack/subscriptions",
    "organizations_url": "https://api.github.com/users/openstack/orgs",
    "repos_url": "https://api.github.com/users/openstack/repos",
    "events_url": "https://api.github.com/users/openstack/events{/privacy}",
    "received_events_url": "https://api.github.com/users/openstack/received_events",
    "type": "Organization",
    "site_admin": false
  },
  "network_count": 28,
  "subscribers_count": 11
}
