[
{
  "url": "https://api.github.com/repos/spotify/apps-tutorial/issues/comments/29229827",
  "html_url": "https://github.com/spotify/apps-tutorial/issues/32#issuecomment-29229827",
  "issue_url": "https://api.github.com/repos/spotify/apps-tutorial/issues/32",
  "id": 29229827,
  "user": {
    "login": "thelinmichael",
    "id": 714409,
    "avatar_url": "https://avatars.githubusercontent.com/u/714409?v=3",
    "gravatar_id": "",
    "url": "https://api.github.com/users/thelinmichael",
    "html_url": "https://github.com/thelinmichael",
    "followers_url": "https://api.github.com/users/thelinmichael/followers",
    "following_url": "https://api.github.com/users/thelinmichael/following{/other_user}",
    "gists_url": "https://api.github.com/users/thelinmichael/gists{/gist_id}",
    "starred_url": "https://api.github.com/users/thelinmichael/starred{/owner}{/repo}",
    "subscriptions_url": "https://api.github.com/users/thelinmichael/subscriptions",
    "organizations_url": "https://api.github.com/users/thelinmichael/orgs",
    "repos_url": "https://api.github.com/users/thelinmichael/repos",
    "events_url": "https://api.github.com/users/thelinmichael/events{/privacy}",
    "received_events_url": "https://api.github.com/users/thelinmichael/received_events",
    "type": "User",
    "site_admin": false
  },
  "created_at": "2013-11-25T18:49:25Z",
  "updated_at": "2013-11-25T18:49:25Z",
  "body": "Unfortunately, the location part of the API is is not supported at this point, and the documentation hasn't caught up yet. Thanks for addressing it though, @corny1."
}
]
