[
{
  "url": "https://api.github.com/repos/facebook/react/issues/comments/144847315",
  "html_url": "https://github.com/facebook/react/issues/5033#issuecomment-144847315",
  "issue_url": "https://api.github.com/repos/facebook/react/issues/5033",
  "id": 144847315,
  "user": {
    "login": "jimfb",
    "id": 9595985,
    "avatar_url": "https://avatars.githubusercontent.com/u/9595985?v=3",
    "gravatar_id": "",
    "url": "https://api.github.com/users/jimfb",
    "html_url": "https://github.com/jimfb",
    "followers_url": "https://api.github.com/users/jimfb/followers",
    "following_url": "https://api.github.com/users/jimfb/following{/other_user}",
    "gists_url": "https://api.github.com/users/jimfb/gists{/gist_id}",
    "starred_url": "https://api.github.com/users/jimfb/starred{/owner}{/repo}",
    "subscriptions_url": "https://api.github.com/users/jimfb/subscriptions",
    "organizations_url": "https://api.github.com/users/jimfb/orgs",
    "repos_url": "https://api.github.com/users/jimfb/repos",
    "events_url": "https://api.github.com/users/jimfb/events{/privacy}",
    "received_events_url": "https://api.github.com/users/jimfb/received_events",
    "type": "User",
    "site_admin": false
  },
  "created_at": "2015-10-01T21:02:34Z",
  "updated_at": "2015-10-01T21:04:43Z",
  "body": "I think this is related to https://github.com/facebook/react/issues/5031\r\n\r\nYour owner is the bigGpsButtonElement component, and then you are expecting the ref to appear on that component's parent.  The ref is attached to the owner, as Ben mentioned in the other issue you opened.\r\n\r\nClosing out as not a bug in React.  You can read more about refs in the [documentation](https://facebook.github.io/react/docs/more-about-refs.html#completing-the-example). Please ask usage questions like this on StackOverflow.  Github issues are reserved for tracking bugs in the React core."
}
, {
  "url": "https://api.github.com/repos/facebook/react/issues/comments/144848349",
  "html_url": "https://github.com/facebook/react/issues/5033#issuecomment-144848349",
  "issue_url": "https://api.github.com/repos/facebook/react/issues/5033",
  "id": 144848349,
  "user": {
    "login": "trusktr",
    "id": 297678,
    "avatar_url": "https://avatars.githubusercontent.com/u/297678?v=3",
    "gravatar_id": "",
    "url": "https://api.github.com/users/trusktr",
    "html_url": "https://github.com/trusktr",
    "followers_url": "https://api.github.com/users/trusktr/followers",
    "following_url": "https://api.github.com/users/trusktr/following{/other_user}",
    "gists_url": "https://api.github.com/users/trusktr/gists{/gist_id}",
    "starred_url": "https://api.github.com/users/trusktr/starred{/owner}{/repo}",
    "subscriptions_url": "https://api.github.com/users/trusktr/subscriptions",
    "organizations_url": "https://api.github.com/users/trusktr/orgs",
    "repos_url": "https://api.github.com/users/trusktr/repos",
    "events_url": "https://api.github.com/users/trusktr/events{/privacy}",
    "received_events_url": "https://api.github.com/users/trusktr/received_events",
    "type": "User",
    "site_admin": false
  },
  "created_at": "2015-10-01T21:04:43Z",
  "updated_at": "2015-10-01T21:04:43Z",
  "body": "Aha! In a class that extends the above class, I'm doing\r\n\r\n```js\r\n    render() {\r\n        return (\r\n            <Node _famousParent={this}>\r\n                ...\r\n                {this.bigGpsButtonElement}\r\n                ...\r\n            </Node>\r\n        )\r\n    }\r\n```\r\n\r\nIn order to fix it, I changed the extending class to also do\r\n\r\n```js\r\n    render() {\r\n        return (\r\n            <Node _famousParent={this}>\r\n                ...\r\n                <this.bigGpsButtonElement ref=\"bigGpsButtonElement\" />\r\n                ...\r\n            </Node>\r\n        )\r\n    }\r\n```\r\n"
}
, {
  "url": "https://api.github.com/repos/facebook/react/issues/comments/144848607",
  "html_url": "https://github.com/facebook/react/issues/5033#issuecomment-144848607",
  "issue_url": "https://api.github.com/repos/facebook/react/issues/5033",
  "id": 144848607,
  "user": {
    "login": "trusktr",
    "id": 297678,
    "avatar_url": "https://avatars.githubusercontent.com/u/297678?v=3",
    "gravatar_id": "",
    "url": "https://api.github.com/users/trusktr",
    "html_url": "https://github.com/trusktr",
    "followers_url": "https://api.github.com/users/trusktr/followers",
    "following_url": "https://api.github.com/users/trusktr/following{/other_user}",
    "gists_url": "https://api.github.com/users/trusktr/gists{/gist_id}",
    "starred_url": "https://api.github.com/users/trusktr/starred{/owner}{/repo}",
    "subscriptions_url": "https://api.github.com/users/trusktr/subscriptions",
    "organizations_url": "https://api.github.com/users/trusktr/orgs",
    "repos_url": "https://api.github.com/users/trusktr/repos",
    "events_url": "https://api.github.com/users/trusktr/events{/privacy}",
    "received_events_url": "https://api.github.com/users/trusktr/received_events",
    "type": "User",
    "site_admin": false
  },
  "created_at": "2015-10-01T21:05:05Z",
  "updated_at": "2015-10-01T21:06:20Z",
  "body": "@jimfb ^ Are there docs on the function that the `ref` property can accept?"
}
]
