[
{
  "url": "https://api.github.com/repos/facebook/react/issues/comments/128681703",
  "html_url": "https://github.com/facebook/react/issues/4582#issuecomment-128681703",
  "issue_url": "https://api.github.com/repos/facebook/react/issues/4582",
  "id": 128681703,
  "user": {
    "login": "Dakuan",
    "id": 633621,
    "avatar_url": "https://avatars.githubusercontent.com/u/633621?v=3",
    "gravatar_id": "",
    "url": "https://api.github.com/users/Dakuan",
    "html_url": "https://github.com/Dakuan",
    "followers_url": "https://api.github.com/users/Dakuan/followers",
    "following_url": "https://api.github.com/users/Dakuan/following{/other_user}",
    "gists_url": "https://api.github.com/users/Dakuan/gists{/gist_id}",
    "starred_url": "https://api.github.com/users/Dakuan/starred{/owner}{/repo}",
    "subscriptions_url": "https://api.github.com/users/Dakuan/subscriptions",
    "organizations_url": "https://api.github.com/users/Dakuan/orgs",
    "repos_url": "https://api.github.com/users/Dakuan/repos",
    "events_url": "https://api.github.com/users/Dakuan/events{/privacy}",
    "received_events_url": "https://api.github.com/users/Dakuan/received_events",
    "type": "User",
    "site_admin": false
  },
  "created_at": "2015-08-07T11:48:23Z",
  "updated_at": "2015-08-07T11:48:23Z",
  "body": "+1"
}
]
