[
{
  "url": "https://api.github.com/repos/facebook/react/issues/comments/161063455",
  "html_url": "https://github.com/facebook/react/issues/5578#issuecomment-161063455",
  "issue_url": "https://api.github.com/repos/facebook/react/issues/5578",
  "id": 161063455,
  "user": {
    "login": "zpao",
    "id": 8445,
    "avatar_url": "https://avatars.githubusercontent.com/u/8445?v=3",
    "gravatar_id": "",
    "url": "https://api.github.com/users/zpao",
    "html_url": "https://github.com/zpao",
    "followers_url": "https://api.github.com/users/zpao/followers",
    "following_url": "https://api.github.com/users/zpao/following{/other_user}",
    "gists_url": "https://api.github.com/users/zpao/gists{/gist_id}",
    "starred_url": "https://api.github.com/users/zpao/starred{/owner}{/repo}",
    "subscriptions_url": "https://api.github.com/users/zpao/subscriptions",
    "organizations_url": "https://api.github.com/users/zpao/orgs",
    "repos_url": "https://api.github.com/users/zpao/repos",
    "events_url": "https://api.github.com/users/zpao/events{/privacy}",
    "received_events_url": "https://api.github.com/users/zpao/received_events",
    "type": "User",
    "site_admin": false
  },
  "created_at": "2015-12-01T19:02:04Z",
  "updated_at": "2015-12-01T19:02:04Z",
  "body": "Ah, sorry about that. The directions in there are for Babel 5 but Babel 6 has different behavior.\r\n\r\nWe'll get that updated but in the meantime, http://facebook.github.io/react/docs/getting-started.html#offline-transform has up to date directions (you need the `react` preset to transform JSX)."
}
, {
  "url": "https://api.github.com/repos/facebook/react/issues/comments/161084886",
  "html_url": "https://github.com/facebook/react/issues/5578#issuecomment-161084886",
  "issue_url": "https://api.github.com/repos/facebook/react/issues/5578",
  "id": 161084886,
  "user": {
    "login": "LukePettway",
    "id": 3654512,
    "avatar_url": "https://avatars.githubusercontent.com/u/3654512?v=3",
    "gravatar_id": "",
    "url": "https://api.github.com/users/LukePettway",
    "html_url": "https://github.com/LukePettway",
    "followers_url": "https://api.github.com/users/LukePettway/followers",
    "following_url": "https://api.github.com/users/LukePettway/following{/other_user}",
    "gists_url": "https://api.github.com/users/LukePettway/gists{/gist_id}",
    "starred_url": "https://api.github.com/users/LukePettway/starred{/owner}{/repo}",
    "subscriptions_url": "https://api.github.com/users/LukePettway/subscriptions",
    "organizations_url": "https://api.github.com/users/LukePettway/orgs",
    "repos_url": "https://api.github.com/users/LukePettway/repos",
    "events_url": "https://api.github.com/users/LukePettway/events{/privacy}",
    "received_events_url": "https://api.github.com/users/LukePettway/received_events",
    "type": "User",
    "site_admin": false
  },
  "created_at": "2015-12-01T20:23:33Z",
  "updated_at": "2015-12-01T20:23:33Z",
  "body": "Thanks!"
}
, {
  "url": "https://api.github.com/repos/facebook/react/issues/comments/173827303",
  "html_url": "https://github.com/facebook/react/issues/5578#issuecomment-173827303",
  "issue_url": "https://api.github.com/repos/facebook/react/issues/5578",
  "id": 173827303,
  "user": {
    "login": "ChrisRus",
    "id": 1718987,
    "avatar_url": "https://avatars.githubusercontent.com/u/1718987?v=3",
    "gravatar_id": "",
    "url": "https://api.github.com/users/ChrisRus",
    "html_url": "https://github.com/ChrisRus",
    "followers_url": "https://api.github.com/users/ChrisRus/followers",
    "following_url": "https://api.github.com/users/ChrisRus/following{/other_user}",
    "gists_url": "https://api.github.com/users/ChrisRus/gists{/gist_id}",
    "starred_url": "https://api.github.com/users/ChrisRus/starred{/owner}{/repo}",
    "subscriptions_url": "https://api.github.com/users/ChrisRus/subscriptions",
    "organizations_url": "https://api.github.com/users/ChrisRus/orgs",
    "repos_url": "https://api.github.com/users/ChrisRus/repos",
    "events_url": "https://api.github.com/users/ChrisRus/events{/privacy}",
    "received_events_url": "https://api.github.com/users/ChrisRus/received_events",
    "type": "User",
    "site_admin": false
  },
  "created_at": "2016-01-22T06:48:32Z",
  "updated_at": "2016-01-22T06:49:37Z",
  "body": "+1 \r\n\r\nw/babel 6.4.5 this works for me:\r\n\r\n```sh\r\n$ babel --presets react example.js --out-dir=build\r\nexample.js -> build/example.js\r\n$ babel --version\r\n6.4.5 (babel-core 6.4.5)\r\n```\r\n\r\nI presume babel locates the preset in cwd and so installed `babel-preset-react` package in the `examples/basic-precompiled-jsx`.\r\n\r\nThanks."
}
, {
  "url": "https://api.github.com/repos/facebook/react/issues/comments/173993723",
  "html_url": "https://github.com/facebook/react/issues/5578#issuecomment-173993723",
  "issue_url": "https://api.github.com/repos/facebook/react/issues/5578",
  "id": 173993723,
  "user": {
    "login": "zpao",
    "id": 8445,
    "avatar_url": "https://avatars.githubusercontent.com/u/8445?v=3",
    "gravatar_id": "",
    "url": "https://api.github.com/users/zpao",
    "html_url": "https://github.com/zpao",
    "followers_url": "https://api.github.com/users/zpao/followers",
    "following_url": "https://api.github.com/users/zpao/following{/other_user}",
    "gists_url": "https://api.github.com/users/zpao/gists{/gist_id}",
    "starred_url": "https://api.github.com/users/zpao/starred{/owner}{/repo}",
    "subscriptions_url": "https://api.github.com/users/zpao/subscriptions",
    "organizations_url": "https://api.github.com/users/zpao/orgs",
    "repos_url": "https://api.github.com/users/zpao/repos",
    "events_url": "https://api.github.com/users/zpao/events{/privacy}",
    "received_events_url": "https://api.github.com/users/zpao/received_events",
    "type": "User",
    "site_admin": false
  },
  "created_at": "2016-01-22T18:00:56Z",
  "updated_at": "2016-01-22T18:00:56Z",
  "body": "The instructions in the example are updated (#5387) but we didn't update the starter kit for 0.14.x. I updated that PR so that if we do another release we'll get it updated. Thanks for the reminder."
}
]
