[
{
  "url": "https://api.github.com/repos/facebook/react/issues/comments/167155290",
  "html_url": "https://github.com/facebook/react/issues/5726#issuecomment-167155290",
  "issue_url": "https://api.github.com/repos/facebook/react/issues/5726",
  "id": 167155290,
  "user": {
    "login": "gaearon",
    "id": 810438,
    "avatar_url": "https://avatars.githubusercontent.com/u/810438?v=3",
    "gravatar_id": "",
    "url": "https://api.github.com/users/gaearon",
    "html_url": "https://github.com/gaearon",
    "followers_url": "https://api.github.com/users/gaearon/followers",
    "following_url": "https://api.github.com/users/gaearon/following{/other_user}",
    "gists_url": "https://api.github.com/users/gaearon/gists{/gist_id}",
    "starred_url": "https://api.github.com/users/gaearon/starred{/owner}{/repo}",
    "subscriptions_url": "https://api.github.com/users/gaearon/subscriptions",
    "organizations_url": "https://api.github.com/users/gaearon/orgs",
    "repos_url": "https://api.github.com/users/gaearon/repos",
    "events_url": "https://api.github.com/users/gaearon/events{/privacy}",
    "received_events_url": "https://api.github.com/users/gaearon/received_events",
    "type": "User",
    "site_admin": false
  },
  "created_at": "2015-12-24T20:10:14Z",
  "updated_at": "2015-12-24T20:10:14Z",
  "body": "We are currently addressing this in #5714 once and for all, so I'll close this issue. I will leave your PR (#5727) open until #5714 is merged and will make sure this property works before closing it. Thank you!"
}
]
