[
{
  "url": "https://api.github.com/repos/facebook/react/issues/comments/36732923",
  "html_url": "https://github.com/facebook/react/pull/1219#issuecomment-36732923",
  "issue_url": "https://api.github.com/repos/facebook/react/issues/1219",
  "id": 36732923,
  "user": {
    "login": "syranide",
    "id": 1714255,
    "avatar_url": "https://avatars.githubusercontent.com/u/1714255?v=3",
    "gravatar_id": "",
    "url": "https://api.github.com/users/syranide",
    "html_url": "https://github.com/syranide",
    "followers_url": "https://api.github.com/users/syranide/followers",
    "following_url": "https://api.github.com/users/syranide/following{/other_user}",
    "gists_url": "https://api.github.com/users/syranide/gists{/gist_id}",
    "starred_url": "https://api.github.com/users/syranide/starred{/owner}{/repo}",
    "subscriptions_url": "https://api.github.com/users/syranide/subscriptions",
    "organizations_url": "https://api.github.com/users/syranide/orgs",
    "repos_url": "https://api.github.com/users/syranide/repos",
    "events_url": "https://api.github.com/users/syranide/events{/privacy}",
    "received_events_url": "https://api.github.com/users/syranide/received_events",
    "type": "User",
    "site_admin": false
  },
  "created_at": "2014-03-05T11:24:23Z",
  "updated_at": "2014-03-05T11:24:23Z",
  "body": "cc @jeffmo "
}
, {
  "url": "https://api.github.com/repos/facebook/react/issues/comments/36782268",
  "html_url": "https://github.com/facebook/react/pull/1219#issuecomment-36782268",
  "issue_url": "https://api.github.com/repos/facebook/react/issues/1219",
  "id": 36782268,
  "user": {
    "login": "parshap",
    "id": 332258,
    "avatar_url": "https://avatars.githubusercontent.com/u/332258?v=3",
    "gravatar_id": "",
    "url": "https://api.github.com/users/parshap",
    "html_url": "https://github.com/parshap",
    "followers_url": "https://api.github.com/users/parshap/followers",
    "following_url": "https://api.github.com/users/parshap/following{/other_user}",
    "gists_url": "https://api.github.com/users/parshap/gists{/gist_id}",
    "starred_url": "https://api.github.com/users/parshap/starred{/owner}{/repo}",
    "subscriptions_url": "https://api.github.com/users/parshap/subscriptions",
    "organizations_url": "https://api.github.com/users/parshap/orgs",
    "repos_url": "https://api.github.com/users/parshap/repos",
    "events_url": "https://api.github.com/users/parshap/events{/privacy}",
    "received_events_url": "https://api.github.com/users/parshap/received_events",
    "type": "User",
    "site_admin": false
  },
  "created_at": "2014-03-05T19:23:41Z",
  "updated_at": "2014-03-05T19:23:41Z",
  "body": ":+1: "
}
, {
  "url": "https://api.github.com/repos/facebook/react/issues/comments/36849881",
  "html_url": "https://github.com/facebook/react/pull/1219#issuecomment-36849881",
  "issue_url": "https://api.github.com/repos/facebook/react/issues/1219",
  "id": 36849881,
  "user": {
    "login": "syranide",
    "id": 1714255,
    "avatar_url": "https://avatars.githubusercontent.com/u/1714255?v=3",
    "gravatar_id": "",
    "url": "https://api.github.com/users/syranide",
    "html_url": "https://github.com/syranide",
    "followers_url": "https://api.github.com/users/syranide/followers",
    "following_url": "https://api.github.com/users/syranide/following{/other_user}",
    "gists_url": "https://api.github.com/users/syranide/gists{/gist_id}",
    "starred_url": "https://api.github.com/users/syranide/starred{/owner}{/repo}",
    "subscriptions_url": "https://api.github.com/users/syranide/subscriptions",
    "organizations_url": "https://api.github.com/users/syranide/orgs",
    "repos_url": "https://api.github.com/users/syranide/repos",
    "events_url": "https://api.github.com/users/syranide/events{/privacy}",
    "received_events_url": "https://api.github.com/users/syranide/received_events",
    "type": "User",
    "site_admin": false
  },
  "created_at": "2014-03-06T12:02:12Z",
  "updated_at": "2014-03-06T12:03:19Z",
  "body": "I was being stupid, thinking I had to take care of the comments, but esprima takes care of it by design. Code simplified.\r\n\r\nMinor question, is that the correct style for multi-line conditions? I was under the impression that the logical operators go at the end of the line, not the front."
}
, {
  "url": "https://api.github.com/repos/facebook/react/issues/comments/37089725",
  "html_url": "https://github.com/facebook/react/pull/1219#issuecomment-37089725",
  "issue_url": "https://api.github.com/repos/facebook/react/issues/1219",
  "id": 37089725,
  "user": {
    "login": "jeffmo",
    "id": 498293,
    "avatar_url": "https://avatars.githubusercontent.com/u/498293?v=3",
    "gravatar_id": "",
    "url": "https://api.github.com/users/jeffmo",
    "html_url": "https://github.com/jeffmo",
    "followers_url": "https://api.github.com/users/jeffmo/followers",
    "following_url": "https://api.github.com/users/jeffmo/following{/other_user}",
    "gists_url": "https://api.github.com/users/jeffmo/gists{/gist_id}",
    "starred_url": "https://api.github.com/users/jeffmo/starred{/owner}{/repo}",
    "subscriptions_url": "https://api.github.com/users/jeffmo/subscriptions",
    "organizations_url": "https://api.github.com/users/jeffmo/orgs",
    "repos_url": "https://api.github.com/users/jeffmo/repos",
    "events_url": "https://api.github.com/users/jeffmo/events{/privacy}",
    "received_events_url": "https://api.github.com/users/jeffmo/received_events",
    "type": "User",
    "site_admin": false
  },
  "created_at": "2014-03-08T05:23:47Z",
  "updated_at": "2014-03-08T05:23:47Z",
  "body": "Awesome. We *really* need to get our transform tests out in the open so tests can be added for stuff like this (cc @zpao)"
}
, {
  "url": "https://api.github.com/repos/facebook/react/issues/comments/37246057",
  "html_url": "https://github.com/facebook/react/pull/1219#issuecomment-37246057",
  "issue_url": "https://api.github.com/repos/facebook/react/issues/1219",
  "id": 37246057,
  "user": {
    "login": "jeffmo",
    "id": 498293,
    "avatar_url": "https://avatars.githubusercontent.com/u/498293?v=3",
    "gravatar_id": "",
    "url": "https://api.github.com/users/jeffmo",
    "html_url": "https://github.com/jeffmo",
    "followers_url": "https://api.github.com/users/jeffmo/followers",
    "following_url": "https://api.github.com/users/jeffmo/following{/other_user}",
    "gists_url": "https://api.github.com/users/jeffmo/gists{/gist_id}",
    "starred_url": "https://api.github.com/users/jeffmo/starred{/owner}{/repo}",
    "subscriptions_url": "https://api.github.com/users/jeffmo/subscriptions",
    "organizations_url": "https://api.github.com/users/jeffmo/orgs",
    "repos_url": "https://api.github.com/users/jeffmo/repos",
    "events_url": "https://api.github.com/users/jeffmo/events{/privacy}",
    "received_events_url": "https://api.github.com/users/jeffmo/received_events",
    "type": "User",
    "site_admin": false
  },
  "created_at": "2014-03-10T23:08:40Z",
  "updated_at": "2014-03-10T23:08:40Z",
  "body": "Oops, I found a bug after patching this locally:\r\n\r\nThis:\r\n```\r\n/**\r\n * @jsx React.DOM\r\n */\r\n<div>\r\n  {/* A comment! */}\r\n</div>;\r\n```\r\n\r\nNow seems to transform to this:\r\n```\r\n/**\r\n * @jsx React.DOM\r\n */\r\nReact.DOM.div(null\r\n  {/* A comment! */}\r\n);\r\n```\r\n\r\n(note the braces around the comment now)"
}
]
