[
{
  "url": "https://api.github.com/repos/facebook/react/issues/comments/53777544",
  "html_url": "https://github.com/facebook/react/pull/2106#issuecomment-53777544",
  "issue_url": "https://api.github.com/repos/facebook/react/issues/2106",
  "id": 53777544,
  "user": {
    "login": "spicyj",
    "id": 6820,
    "avatar_url": "https://avatars.githubusercontent.com/u/6820?v=3",
    "gravatar_id": "",
    "url": "https://api.github.com/users/spicyj",
    "html_url": "https://github.com/spicyj",
    "followers_url": "https://api.github.com/users/spicyj/followers",
    "following_url": "https://api.github.com/users/spicyj/following{/other_user}",
    "gists_url": "https://api.github.com/users/spicyj/gists{/gist_id}",
    "starred_url": "https://api.github.com/users/spicyj/starred{/owner}{/repo}",
    "subscriptions_url": "https://api.github.com/users/spicyj/subscriptions",
    "organizations_url": "https://api.github.com/users/spicyj/orgs",
    "repos_url": "https://api.github.com/users/spicyj/repos",
    "events_url": "https://api.github.com/users/spicyj/events{/privacy}",
    "received_events_url": "https://api.github.com/users/spicyj/received_events",
    "type": "User",
    "site_admin": false
  },
  "created_at": "2014-08-28T18:54:00Z",
  "updated_at": "2014-08-28T18:54:00Z",
  "body": "In ReactCompositeComponent mixSpecIntoComponent, we join them by underscores – which I assume we would have done only if there were a problem with using a dot? :+1: otherwise though."
}
, {
  "url": "https://api.github.com/repos/facebook/react/issues/comments/53778475",
  "html_url": "https://github.com/facebook/react/pull/2106#issuecomment-53778475",
  "issue_url": "https://api.github.com/repos/facebook/react/issues/2106",
  "id": 53778475,
  "user": {
    "login": "subtleGradient",
    "id": 4117,
    "avatar_url": "https://avatars.githubusercontent.com/u/4117?v=3",
    "gravatar_id": "",
    "url": "https://api.github.com/users/subtleGradient",
    "html_url": "https://github.com/subtleGradient",
    "followers_url": "https://api.github.com/users/subtleGradient/followers",
    "following_url": "https://api.github.com/users/subtleGradient/following{/other_user}",
    "gists_url": "https://api.github.com/users/subtleGradient/gists{/gist_id}",
    "starred_url": "https://api.github.com/users/subtleGradient/starred{/owner}{/repo}",
    "subscriptions_url": "https://api.github.com/users/subtleGradient/subscriptions",
    "organizations_url": "https://api.github.com/users/subtleGradient/orgs",
    "repos_url": "https://api.github.com/users/subtleGradient/repos",
    "events_url": "https://api.github.com/users/subtleGradient/events{/privacy}",
    "received_events_url": "https://api.github.com/users/subtleGradient/received_events",
    "type": "User",
    "site_admin": false
  },
  "created_at": "2014-08-28T18:59:57Z",
  "updated_at": "2014-08-28T18:59:57Z",
  "body": "No harm in being consistent"
}
, {
  "url": "https://api.github.com/repos/facebook/react/issues/comments/53779562",
  "html_url": "https://github.com/facebook/react/pull/2106#issuecomment-53779562",
  "issue_url": "https://api.github.com/repos/facebook/react/issues/2106",
  "id": 53779562,
  "user": {
    "login": "spicyj",
    "id": 6820,
    "avatar_url": "https://avatars.githubusercontent.com/u/6820?v=3",
    "gravatar_id": "",
    "url": "https://api.github.com/users/spicyj",
    "html_url": "https://github.com/spicyj",
    "followers_url": "https://api.github.com/users/spicyj/followers",
    "following_url": "https://api.github.com/users/spicyj/following{/other_user}",
    "gists_url": "https://api.github.com/users/spicyj/gists{/gist_id}",
    "starred_url": "https://api.github.com/users/spicyj/starred{/owner}{/repo}",
    "subscriptions_url": "https://api.github.com/users/spicyj/subscriptions",
    "organizations_url": "https://api.github.com/users/spicyj/orgs",
    "repos_url": "https://api.github.com/users/spicyj/repos",
    "events_url": "https://api.github.com/users/spicyj/events{/privacy}",
    "received_events_url": "https://api.github.com/users/spicyj/received_events",
    "type": "User",
    "site_admin": false
  },
  "created_at": "2014-08-28T19:06:20Z",
  "updated_at": "2014-08-28T19:06:20Z",
  "body": "lgtm :+1: "
}
]
