[
{
  "url": "https://api.github.com/repos/facebook/react/issues/comments/43797611",
  "html_url": "https://github.com/facebook/react/pull/1579#issuecomment-43797611",
  "issue_url": "https://api.github.com/repos/facebook/react/issues/1579",
  "id": 43797611,
  "user": {
    "login": "spicyj",
    "id": 6820,
    "avatar_url": "https://avatars.githubusercontent.com/u/6820?v=3",
    "gravatar_id": "",
    "url": "https://api.github.com/users/spicyj",
    "html_url": "https://github.com/spicyj",
    "followers_url": "https://api.github.com/users/spicyj/followers",
    "following_url": "https://api.github.com/users/spicyj/following{/other_user}",
    "gists_url": "https://api.github.com/users/spicyj/gists{/gist_id}",
    "starred_url": "https://api.github.com/users/spicyj/starred{/owner}{/repo}",
    "subscriptions_url": "https://api.github.com/users/spicyj/subscriptions",
    "organizations_url": "https://api.github.com/users/spicyj/orgs",
    "repos_url": "https://api.github.com/users/spicyj/repos",
    "events_url": "https://api.github.com/users/spicyj/events{/privacy}",
    "received_events_url": "https://api.github.com/users/spicyj/received_events",
    "type": "User",
    "site_admin": false
  },
  "created_at": "2014-05-21T18:41:22Z",
  "updated_at": "2014-05-21T18:41:22Z",
  "body": "The spacing here looks a little wonky.\r\n\r\n![image](https://cloud.githubusercontent.com/assets/6820/3044955/7e1b3918-e117-11e3-890e-9d4b6bcb6e7a.png)\r\n"
}
, {
  "url": "https://api.github.com/repos/facebook/react/issues/comments/43803012",
  "html_url": "https://github.com/facebook/react/pull/1579#issuecomment-43803012",
  "issue_url": "https://api.github.com/repos/facebook/react/issues/1579",
  "id": 43803012,
  "user": {
    "login": "gscottolson",
    "id": 220979,
    "avatar_url": "https://avatars.githubusercontent.com/u/220979?v=3",
    "gravatar_id": "",
    "url": "https://api.github.com/users/gscottolson",
    "html_url": "https://github.com/gscottolson",
    "followers_url": "https://api.github.com/users/gscottolson/followers",
    "following_url": "https://api.github.com/users/gscottolson/following{/other_user}",
    "gists_url": "https://api.github.com/users/gscottolson/gists{/gist_id}",
    "starred_url": "https://api.github.com/users/gscottolson/starred{/owner}{/repo}",
    "subscriptions_url": "https://api.github.com/users/gscottolson/subscriptions",
    "organizations_url": "https://api.github.com/users/gscottolson/orgs",
    "repos_url": "https://api.github.com/users/gscottolson/repos",
    "events_url": "https://api.github.com/users/gscottolson/events{/privacy}",
    "received_events_url": "https://api.github.com/users/gscottolson/received_events",
    "type": "User",
    "site_admin": false
  },
  "created_at": "2014-05-21T19:29:20Z",
  "updated_at": "2014-05-21T19:29:20Z",
  "body": "Thanks for the note, Ben. I was so fixated on the TIPS section, that I missed the nested ULs. My latest commit addresses these, too.\r\n  \r\n![screen shot 2014-05-21 at 3 27 00 pm](https://cloud.githubusercontent.com/assets/220979/3045530/010dc6fa-e11e-11e3-8d3e-19922cd5727d.png)\r\n"
}
, {
  "url": "https://api.github.com/repos/facebook/react/issues/comments/43803144",
  "html_url": "https://github.com/facebook/react/pull/1579#issuecomment-43803144",
  "issue_url": "https://api.github.com/repos/facebook/react/issues/1579",
  "id": 43803144,
  "user": {
    "login": "spicyj",
    "id": 6820,
    "avatar_url": "https://avatars.githubusercontent.com/u/6820?v=3",
    "gravatar_id": "",
    "url": "https://api.github.com/users/spicyj",
    "html_url": "https://github.com/spicyj",
    "followers_url": "https://api.github.com/users/spicyj/followers",
    "following_url": "https://api.github.com/users/spicyj/following{/other_user}",
    "gists_url": "https://api.github.com/users/spicyj/gists{/gist_id}",
    "starred_url": "https://api.github.com/users/spicyj/starred{/owner}{/repo}",
    "subscriptions_url": "https://api.github.com/users/spicyj/subscriptions",
    "organizations_url": "https://api.github.com/users/spicyj/orgs",
    "repos_url": "https://api.github.com/users/spicyj/repos",
    "events_url": "https://api.github.com/users/spicyj/events{/privacy}",
    "received_events_url": "https://api.github.com/users/spicyj/received_events",
    "type": "User",
    "site_admin": false
  },
  "created_at": "2014-05-21T19:30:30Z",
  "updated_at": "2014-05-21T19:30:30Z",
  "body": "Thanks!"
}
]
