[
{
  "url": "https://api.github.com/repos/facebook/react/issues/comments/130327428",
  "html_url": "https://github.com/facebook/react/issues/4614#issuecomment-130327428",
  "issue_url": "https://api.github.com/repos/facebook/react/issues/4614",
  "id": 130327428,
  "user": {
    "login": "jimfb",
    "id": 9595985,
    "avatar_url": "https://avatars.githubusercontent.com/u/9595985?v=3",
    "gravatar_id": "",
    "url": "https://api.github.com/users/jimfb",
    "html_url": "https://github.com/jimfb",
    "followers_url": "https://api.github.com/users/jimfb/followers",
    "following_url": "https://api.github.com/users/jimfb/following{/other_user}",
    "gists_url": "https://api.github.com/users/jimfb/gists{/gist_id}",
    "starred_url": "https://api.github.com/users/jimfb/starred{/owner}{/repo}",
    "subscriptions_url": "https://api.github.com/users/jimfb/subscriptions",
    "organizations_url": "https://api.github.com/users/jimfb/orgs",
    "repos_url": "https://api.github.com/users/jimfb/repos",
    "events_url": "https://api.github.com/users/jimfb/events{/privacy}",
    "received_events_url": "https://api.github.com/users/jimfb/received_events",
    "type": "User",
    "site_admin": false
  },
  "created_at": "2015-08-12T14:46:36Z",
  "updated_at": "2015-08-12T14:46:36Z",
  "body": "cc @zpao since he is the one who manages this stuff.\r\n\r\nOur pages are mostly static (maybe with the exception of a little javascript), but...  Seems like the ideal thing would be to detect the user's preferred language from the browser headers, and if it's one of the translated languages, let them know that the translated docs are available and nudge them in that direction (put up a notice banner or something with a link to the appropriate translation).  This way, users see the translated docs regardless of how they reach the site (search engine results, links from forums, etc)."
}
, {
  "url": "https://api.github.com/repos/facebook/react/issues/comments/130419536",
  "html_url": "https://github.com/facebook/react/issues/4614#issuecomment-130419536",
  "issue_url": "https://api.github.com/repos/facebook/react/issues/4614",
  "id": 130419536,
  "user": {
    "login": "zpao",
    "id": 8445,
    "avatar_url": "https://avatars.githubusercontent.com/u/8445?v=3",
    "gravatar_id": "",
    "url": "https://api.github.com/users/zpao",
    "html_url": "https://github.com/zpao",
    "followers_url": "https://api.github.com/users/zpao/followers",
    "following_url": "https://api.github.com/users/zpao/following{/other_user}",
    "gists_url": "https://api.github.com/users/zpao/gists{/gist_id}",
    "starred_url": "https://api.github.com/users/zpao/starred{/owner}{/repo}",
    "subscriptions_url": "https://api.github.com/users/zpao/subscriptions",
    "organizations_url": "https://api.github.com/users/zpao/orgs",
    "repos_url": "https://api.github.com/users/zpao/repos",
    "events_url": "https://api.github.com/users/zpao/events{/privacy}",
    "received_events_url": "https://api.github.com/users/zpao/received_events",
    "type": "User",
    "site_admin": false
  },
  "created_at": "2015-08-12T19:30:18Z",
  "updated_at": "2015-08-12T19:30:18Z",
  "body": "This is definitely high on my list of things to do for the docs. I've actually been looking into this recently. Right now the situation isn't awesome and I'd like to get us to a slightly better place before we do this. My biggest problem is that even if you get to the Japanese/Korean/Chinese docs, it's hard to stay there. The sidebar only links to the English docs. It works if you click through the next buttons but that's fragile. #2876 started to solve this but never got got traction, and it's also really fragile (design changes need to be made in 4 places!)\r\n\r\nSo I'm looking into alternatives and will keep you updated."
}
]
