[
{
  "url": "https://api.github.com/repos/facebook/react/issues/comments/132262673",
  "html_url": "https://github.com/facebook/react/issues/4650#issuecomment-132262673",
  "issue_url": "https://api.github.com/repos/facebook/react/issues/4650",
  "id": 132262673,
  "user": {
    "login": "zpao",
    "id": 8445,
    "avatar_url": "https://avatars.githubusercontent.com/u/8445?v=3",
    "gravatar_id": "",
    "url": "https://api.github.com/users/zpao",
    "html_url": "https://github.com/zpao",
    "followers_url": "https://api.github.com/users/zpao/followers",
    "following_url": "https://api.github.com/users/zpao/following{/other_user}",
    "gists_url": "https://api.github.com/users/zpao/gists{/gist_id}",
    "starred_url": "https://api.github.com/users/zpao/starred{/owner}{/repo}",
    "subscriptions_url": "https://api.github.com/users/zpao/subscriptions",
    "organizations_url": "https://api.github.com/users/zpao/orgs",
    "repos_url": "https://api.github.com/users/zpao/repos",
    "events_url": "https://api.github.com/users/zpao/events{/privacy}",
    "received_events_url": "https://api.github.com/users/zpao/received_events",
    "type": "User",
    "site_admin": false
  },
  "created_at": "2015-08-18T16:10:48Z",
  "updated_at": "2015-08-18T16:10:48Z",
  "body": "No we're not going to do that (keeping 2 documents in sync is not worth the trouble) but we could do a better job of making that message at the top easier to see. Sorry you had trouble though!"
}
, {
  "url": "https://api.github.com/repos/facebook/react/issues/comments/132263415",
  "html_url": "https://github.com/facebook/react/issues/4650#issuecomment-132263415",
  "issue_url": "https://api.github.com/repos/facebook/react/issues/4650",
  "id": 132263415,
  "user": {
    "login": "AndrewBestbier",
    "id": 6062416,
    "avatar_url": "https://avatars.githubusercontent.com/u/6062416?v=3",
    "gravatar_id": "",
    "url": "https://api.github.com/users/AndrewBestbier",
    "html_url": "https://github.com/AndrewBestbier",
    "followers_url": "https://api.github.com/users/AndrewBestbier/followers",
    "following_url": "https://api.github.com/users/AndrewBestbier/following{/other_user}",
    "gists_url": "https://api.github.com/users/AndrewBestbier/gists{/gist_id}",
    "starred_url": "https://api.github.com/users/AndrewBestbier/starred{/owner}{/repo}",
    "subscriptions_url": "https://api.github.com/users/AndrewBestbier/subscriptions",
    "organizations_url": "https://api.github.com/users/AndrewBestbier/orgs",
    "repos_url": "https://api.github.com/users/AndrewBestbier/repos",
    "events_url": "https://api.github.com/users/AndrewBestbier/events{/privacy}",
    "received_events_url": "https://api.github.com/users/AndrewBestbier/received_events",
    "type": "User",
    "site_admin": false
  },
  "created_at": "2015-08-18T16:14:08Z",
  "updated_at": "2015-08-18T16:14:08Z",
  "body": "No worries and fair enough about it being tricky to keep two documents in sync. Another possibility would be deleting the article content and just provide the link? It seems unusual to keep outdated content on the website."
}
, {
  "url": "https://api.github.com/repos/facebook/react/issues/comments/132287097",
  "html_url": "https://github.com/facebook/react/issues/4650#issuecomment-132287097",
  "issue_url": "https://api.github.com/repos/facebook/react/issues/4650",
  "id": 132287097,
  "user": {
    "login": "spicyj",
    "id": 6820,
    "avatar_url": "https://avatars.githubusercontent.com/u/6820?v=3",
    "gravatar_id": "",
    "url": "https://api.github.com/users/spicyj",
    "html_url": "https://github.com/spicyj",
    "followers_url": "https://api.github.com/users/spicyj/followers",
    "following_url": "https://api.github.com/users/spicyj/following{/other_user}",
    "gists_url": "https://api.github.com/users/spicyj/gists{/gist_id}",
    "starred_url": "https://api.github.com/users/spicyj/starred{/owner}{/repo}",
    "subscriptions_url": "https://api.github.com/users/spicyj/subscriptions",
    "organizations_url": "https://api.github.com/users/spicyj/orgs",
    "repos_url": "https://api.github.com/users/spicyj/repos",
    "events_url": "https://api.github.com/users/spicyj/events{/privacy}",
    "received_events_url": "https://api.github.com/users/spicyj/received_events",
    "type": "User",
    "site_admin": false
  },
  "created_at": "2015-08-18T17:25:04Z",
  "updated_at": "2015-08-18T17:25:04Z",
  "body": "May as well just delete it and set up a redirect? That's what we did for Thinking in React."
}
]
