[
{
  "url": "https://api.github.com/repos/facebook/react/issues/comments/159753738",
  "html_url": "https://github.com/facebook/react/pull/2340#issuecomment-159753738",
  "issue_url": "https://api.github.com/repos/facebook/react/issues/2340",
  "id": 159753738,
  "user": {
    "login": "spicyj",
    "id": 6820,
    "avatar_url": "https://avatars.githubusercontent.com/u/6820?v=3",
    "gravatar_id": "",
    "url": "https://api.github.com/users/spicyj",
    "html_url": "https://github.com/spicyj",
    "followers_url": "https://api.github.com/users/spicyj/followers",
    "following_url": "https://api.github.com/users/spicyj/following{/other_user}",
    "gists_url": "https://api.github.com/users/spicyj/gists{/gist_id}",
    "starred_url": "https://api.github.com/users/spicyj/starred{/owner}{/repo}",
    "subscriptions_url": "https://api.github.com/users/spicyj/subscriptions",
    "organizations_url": "https://api.github.com/users/spicyj/orgs",
    "repos_url": "https://api.github.com/users/spicyj/repos",
    "events_url": "https://api.github.com/users/spicyj/events{/privacy}",
    "received_events_url": "https://api.github.com/users/spicyj/received_events",
    "type": "User",
    "site_admin": false
  },
  "created_at": "2015-11-25T23:22:08Z",
  "updated_at": "2015-11-25T23:22:08Z",
  "body": "We're moving away from HTML except for server rendering so this is moot."
}
]
