[
{
  "url": "https://api.github.com/repos/facebook/react/issues/comments/33264108",
  "html_url": "https://github.com/facebook/react/pull/969#issuecomment-33264108",
  "issue_url": "https://api.github.com/repos/facebook/react/issues/969",
  "id": 33264108,
  "user": {
    "login": "zpao",
    "id": 8445,
    "avatar_url": "https://avatars.githubusercontent.com/u/8445?v=3",
    "gravatar_id": "",
    "url": "https://api.github.com/users/zpao",
    "html_url": "https://github.com/zpao",
    "followers_url": "https://api.github.com/users/zpao/followers",
    "following_url": "https://api.github.com/users/zpao/following{/other_user}",
    "gists_url": "https://api.github.com/users/zpao/gists{/gist_id}",
    "starred_url": "https://api.github.com/users/zpao/starred{/owner}{/repo}",
    "subscriptions_url": "https://api.github.com/users/zpao/subscriptions",
    "organizations_url": "https://api.github.com/users/zpao/orgs",
    "repos_url": "https://api.github.com/users/zpao/repos",
    "events_url": "https://api.github.com/users/zpao/events{/privacy}",
    "received_events_url": "https://api.github.com/users/zpao/received_events",
    "type": "User",
    "site_admin": false
  },
  "created_at": "2014-01-24T21:42:13Z",
  "updated_at": "2014-01-24T21:42:13Z",
  "body": ":thumbsup: I'll stamp internal"
}
]
