[
{
  "login": "westei",
  "id": 401665,
  "avatar_url": "https://avatars.githubusercontent.com/u/401665?v=3",
  "gravatar_id": "",
  "url": "https://api.github.com/users/westei",
  "html_url": "https://github.com/westei",
  "followers_url": "https://api.github.com/users/westei/followers",
  "following_url": "https://api.github.com/users/westei/following{/other_user}",
  "gists_url": "https://api.github.com/users/westei/gists{/gist_id}",
  "starred_url": "https://api.github.com/users/westei/starred{/owner}{/repo}",
  "subscriptions_url": "https://api.github.com/users/westei/subscriptions",
  "organizations_url": "https://api.github.com/users/westei/orgs",
  "repos_url": "https://api.github.com/users/westei/repos",
  "events_url": "https://api.github.com/users/westei/events{/privacy}",
  "received_events_url": "https://api.github.com/users/westei/received_events",
  "type": "User",
  "site_admin": false,
  "contributions": 1117
}
, {
  "login": "retog",
  "id": 110756,
  "avatar_url": "https://avatars.githubusercontent.com/u/110756?v=3",
  "gravatar_id": "",
  "url": "https://api.github.com/users/retog",
  "html_url": "https://github.com/retog",
  "followers_url": "https://api.github.com/users/retog/followers",
  "following_url": "https://api.github.com/users/retog/following{/other_user}",
  "gists_url": "https://api.github.com/users/retog/gists{/gist_id}",
  "starred_url": "https://api.github.com/users/retog/starred{/owner}{/repo}",
  "subscriptions_url": "https://api.github.com/users/retog/subscriptions",
  "organizations_url": "https://api.github.com/users/retog/orgs",
  "repos_url": "https://api.github.com/users/retog/repos",
  "events_url": "https://api.github.com/users/retog/events{/privacy}",
  "received_events_url": "https://api.github.com/users/retog/received_events",
  "type": "User",
  "site_admin": false,
  "contributions": 270
}
, {
  "login": "alexdma",
  "id": 3514338,
  "avatar_url": "https://avatars.githubusercontent.com/u/3514338?v=3",
  "gravatar_id": "",
  "url": "https://api.github.com/users/alexdma",
  "html_url": "https://github.com/alexdma",
  "followers_url": "https://api.github.com/users/alexdma/followers",
  "following_url": "https://api.github.com/users/alexdma/following{/other_user}",
  "gists_url": "https://api.github.com/users/alexdma/gists{/gist_id}",
  "starred_url": "https://api.github.com/users/alexdma/starred{/owner}{/repo}",
  "subscriptions_url": "https://api.github.com/users/alexdma/subscriptions",
  "organizations_url": "https://api.github.com/users/alexdma/orgs",
  "repos_url": "https://api.github.com/users/alexdma/repos",
  "events_url": "https://api.github.com/users/alexdma/events{/privacy}",
  "received_events_url": "https://api.github.com/users/alexdma/received_events",
  "type": "User",
  "site_admin": false,
  "contributions": 267
}
, {
  "login": "enridaga",
  "id": 642064,
  "avatar_url": "https://avatars.githubusercontent.com/u/642064?v=3",
  "gravatar_id": "",
  "url": "https://api.github.com/users/enridaga",
  "html_url": "https://github.com/enridaga",
  "followers_url": "https://api.github.com/users/enridaga/followers",
  "following_url": "https://api.github.com/users/enridaga/following{/other_user}",
  "gists_url": "https://api.github.com/users/enridaga/gists{/gist_id}",
  "starred_url": "https://api.github.com/users/enridaga/starred{/owner}{/repo}",
  "subscriptions_url": "https://api.github.com/users/enridaga/subscriptions",
  "organizations_url": "https://api.github.com/users/enridaga/orgs",
  "repos_url": "https://api.github.com/users/enridaga/repos",
  "events_url": "https://api.github.com/users/enridaga/events{/privacy}",
  "received_events_url": "https://api.github.com/users/enridaga/received_events",
  "type": "User",
  "site_admin": false,
  "contributions": 104
}
, {
  "login": "bdelacretaz",
  "id": 81101,
  "avatar_url": "https://avatars.githubusercontent.com/u/81101?v=3",
  "gravatar_id": "",
  "url": "https://api.github.com/users/bdelacretaz",
  "html_url": "https://github.com/bdelacretaz",
  "followers_url": "https://api.github.com/users/bdelacretaz/followers",
  "following_url": "https://api.github.com/users/bdelacretaz/following{/other_user}",
  "gists_url": "https://api.github.com/users/bdelacretaz/gists{/gist_id}",
  "starred_url": "https://api.github.com/users/bdelacretaz/starred{/owner}{/repo}",
  "subscriptions_url": "https://api.github.com/users/bdelacretaz/subscriptions",
  "organizations_url": "https://api.github.com/users/bdelacretaz/orgs",
  "repos_url": "https://api.github.com/users/bdelacretaz/repos",
  "events_url": "https://api.github.com/users/bdelacretaz/events{/privacy}",
  "received_events_url": "https://api.github.com/users/bdelacretaz/received_events",
  "type": "User",
  "site_admin": false,
  "contributions": 80
}
, {
  "login": "florent-andre",
  "id": 837462,
  "avatar_url": "https://avatars.githubusercontent.com/u/837462?v=3",
  "gravatar_id": "",
  "url": "https://api.github.com/users/florent-andre",
  "html_url": "https://github.com/florent-andre",
  "followers_url": "https://api.github.com/users/florent-andre/followers",
  "following_url": "https://api.github.com/users/florent-andre/following{/other_user}",
  "gists_url": "https://api.github.com/users/florent-andre/gists{/gist_id}",
  "starred_url": "https://api.github.com/users/florent-andre/starred{/owner}{/repo}",
  "subscriptions_url": "https://api.github.com/users/florent-andre/subscriptions",
  "organizations_url": "https://api.github.com/users/florent-andre/orgs",
  "repos_url": "https://api.github.com/users/florent-andre/repos",
  "events_url": "https://api.github.com/users/florent-andre/events{/privacy}",
  "received_events_url": "https://api.github.com/users/florent-andre/received_events",
  "type": "User",
  "site_admin": false,
  "contributions": 21
}
, {
  "login": "tteofili",
  "id": 512815,
  "avatar_url": "https://avatars.githubusercontent.com/u/512815?v=3",
  "gravatar_id": "",
  "url": "https://api.github.com/users/tteofili",
  "html_url": "https://github.com/tteofili",
  "followers_url": "https://api.github.com/users/tteofili/followers",
  "following_url": "https://api.github.com/users/tteofili/following{/other_user}",
  "gists_url": "https://api.github.com/users/tteofili/gists{/gist_id}",
  "starred_url": "https://api.github.com/users/tteofili/starred{/owner}{/repo}",
  "subscriptions_url": "https://api.github.com/users/tteofili/subscriptions",
  "organizations_url": "https://api.github.com/users/tteofili/orgs",
  "repos_url": "https://api.github.com/users/tteofili/repos",
  "events_url": "https://api.github.com/users/tteofili/events{/privacy}",
  "received_events_url": "https://api.github.com/users/tteofili/received_events",
  "type": "User",
  "site_admin": false,
  "contributions": 19
}
, {
  "login": "rafaharo",
  "id": 835613,
  "avatar_url": "https://avatars.githubusercontent.com/u/835613?v=3",
  "gravatar_id": "",
  "url": "https://api.github.com/users/rafaharo",
  "html_url": "https://github.com/rafaharo",
  "followers_url": "https://api.github.com/users/rafaharo/followers",
  "following_url": "https://api.github.com/users/rafaharo/following{/other_user}",
  "gists_url": "https://api.github.com/users/rafaharo/gists{/gist_id}",
  "starred_url": "https://api.github.com/users/rafaharo/starred{/owner}{/repo}",
  "subscriptions_url": "https://api.github.com/users/rafaharo/subscriptions",
  "organizations_url": "https://api.github.com/users/rafaharo/orgs",
  "repos_url": "https://api.github.com/users/rafaharo/repos",
  "events_url": "https://api.github.com/users/rafaharo/events{/privacy}",
  "received_events_url": "https://api.github.com/users/rafaharo/received_events",
  "type": "User",
  "site_admin": false,
  "contributions": 10
}
, {
  "login": "wikier",
  "id": 812223,
  "avatar_url": "https://avatars.githubusercontent.com/u/812223?v=3",
  "gravatar_id": "",
  "url": "https://api.github.com/users/wikier",
  "html_url": "https://github.com/wikier",
  "followers_url": "https://api.github.com/users/wikier/followers",
  "following_url": "https://api.github.com/users/wikier/following{/other_user}",
  "gists_url": "https://api.github.com/users/wikier/gists{/gist_id}",
  "starred_url": "https://api.github.com/users/wikier/starred{/owner}{/repo}",
  "subscriptions_url": "https://api.github.com/users/wikier/subscriptions",
  "organizations_url": "https://api.github.com/users/wikier/orgs",
  "repos_url": "https://api.github.com/users/wikier/repos",
  "events_url": "https://api.github.com/users/wikier/events{/privacy}",
  "received_events_url": "https://api.github.com/users/wikier/received_events",
  "type": "User",
  "site_admin": false,
  "contributions": 6
}
]
