[
{
  "url": "https://api.github.com/repos/docker/boot2docker/issues/comments/162120315",
  "html_url": "https://github.com/docker/boot2docker/pull/16#issuecomment-162120315",
  "issue_url": "https://api.github.com/repos/docker/boot2docker/issues/16",
  "id": 162120315,
  "user": {
    "login": "tianon",
    "id": 161631,
    "avatar_url": "https://avatars.githubusercontent.com/u/161631?v=3",
    "gravatar_id": "",
    "url": "https://api.github.com/users/tianon",
    "html_url": "https://github.com/tianon",
    "followers_url": "https://api.github.com/users/tianon/followers",
    "following_url": "https://api.github.com/users/tianon/following{/other_user}",
    "gists_url": "https://api.github.com/users/tianon/gists{/gist_id}",
    "starred_url": "https://api.github.com/users/tianon/starred{/owner}{/repo}",
    "subscriptions_url": "https://api.github.com/users/tianon/subscriptions",
    "organizations_url": "https://api.github.com/users/tianon/orgs",
    "repos_url": "https://api.github.com/users/tianon/repos",
    "events_url": "https://api.github.com/users/tianon/events{/privacy}",
    "received_events_url": "https://api.github.com/users/tianon/received_events",
    "type": "User",
    "site_admin": false
  },
  "created_at": "2015-12-05T00:57:14Z",
  "updated_at": "2015-12-05T00:57:14Z",
  "body": "This hyper-verbose format makes me sad inside, but begrudging LGTM :disappointed:\r\n\r\ncc @ehazlett"
}
, {
  "url": "https://api.github.com/repos/docker/boot2docker/issues/comments/162120419",
  "html_url": "https://github.com/docker/boot2docker/pull/16#issuecomment-162120419",
  "issue_url": "https://api.github.com/repos/docker/boot2docker/issues/16",
  "id": 162120419,
  "user": {
    "login": "ehazlett",
    "id": 260642,
    "avatar_url": "https://avatars.githubusercontent.com/u/260642?v=3",
    "gravatar_id": "",
    "url": "https://api.github.com/users/ehazlett",
    "html_url": "https://github.com/ehazlett",
    "followers_url": "https://api.github.com/users/ehazlett/followers",
    "following_url": "https://api.github.com/users/ehazlett/following{/other_user}",
    "gists_url": "https://api.github.com/users/ehazlett/gists{/gist_id}",
    "starred_url": "https://api.github.com/users/ehazlett/starred{/owner}{/repo}",
    "subscriptions_url": "https://api.github.com/users/ehazlett/subscriptions",
    "organizations_url": "https://api.github.com/users/ehazlett/orgs",
    "repos_url": "https://api.github.com/users/ehazlett/repos",
    "events_url": "https://api.github.com/users/ehazlett/events{/privacy}",
    "received_events_url": "https://api.github.com/users/ehazlett/received_events",
    "type": "User",
    "site_admin": false
  },
  "created_at": "2015-12-05T00:58:15Z",
  "updated_at": "2015-12-05T00:58:15Z",
  "body": "Ya it's for the greater good :)  LGTM"
}
, {
  "url": "https://api.github.com/repos/docker/boot2docker/issues/comments/162122910",
  "html_url": "https://github.com/docker/boot2docker/pull/16#issuecomment-162122910",
  "issue_url": "https://api.github.com/repos/docker/boot2docker/issues/16",
  "id": 162122910,
  "user": {
    "login": "thaJeztah",
    "id": 1804568,
    "avatar_url": "https://avatars.githubusercontent.com/u/1804568?v=3",
    "gravatar_id": "",
    "url": "https://api.github.com/users/thaJeztah",
    "html_url": "https://github.com/thaJeztah",
    "followers_url": "https://api.github.com/users/thaJeztah/followers",
    "following_url": "https://api.github.com/users/thaJeztah/following{/other_user}",
    "gists_url": "https://api.github.com/users/thaJeztah/gists{/gist_id}",
    "starred_url": "https://api.github.com/users/thaJeztah/starred{/owner}{/repo}",
    "subscriptions_url": "https://api.github.com/users/thaJeztah/subscriptions",
    "organizations_url": "https://api.github.com/users/thaJeztah/orgs",
    "repos_url": "https://api.github.com/users/thaJeztah/repos",
    "events_url": "https://api.github.com/users/thaJeztah/events{/privacy}",
    "received_events_url": "https://api.github.com/users/thaJeztah/received_events",
    "type": "User",
    "site_admin": false
  },
  "created_at": "2015-12-05T01:21:57Z",
  "updated_at": "2015-12-05T01:21:57Z",
  "body": "@tianon yup, it's quite a lot more boilerplating, I agree. We can add more fun stuff to those files those, so. yeah, meh. :heart:"
}
]
