{
  "id": 4656882,
  "name": "RxJS-Contrib",
  "full_name": "Reactive-Extensions/RxJS-Contrib",
  "owner": {
    "login": "Reactive-Extensions",
    "id": 984368,
    "avatar_url": "https://avatars.githubusercontent.com/u/984368?v=3",
    "gravatar_id": "",
    "url": "https://api.github.com/users/Reactive-Extensions",
    "html_url": "https://github.com/Reactive-Extensions",
    "followers_url": "https://api.github.com/users/Reactive-Extensions/followers",
    "following_url": "https://api.github.com/users/Reactive-Extensions/following{/other_user}",
    "gists_url": "https://api.github.com/users/Reactive-Extensions/gists{/gist_id}",
    "starred_url": "https://api.github.com/users/Reactive-Extensions/starred{/owner}{/repo}",
    "subscriptions_url": "https://api.github.com/users/Reactive-Extensions/subscriptions",
    "organizations_url": "https://api.github.com/users/Reactive-Extensions/orgs",
    "repos_url": "https://api.github.com/users/Reactive-Extensions/repos",
    "events_url": "https://api.github.com/users/Reactive-Extensions/events{/privacy}",
    "received_events_url": "https://api.github.com/users/Reactive-Extensions/received_events",
    "type": "Organization",
    "site_admin": false
  },
  "private": false,
  "html_url": "https://github.com/Reactive-Extensions/RxJS-Contrib",
  "description": "The Reactive Extensions for JavaScript Contrib Project",
  "fork": false,
  "url": "https://api.github.com/repos/Reactive-Extensions/RxJS-Contrib",
  "forks_url": "https://api.github.com/repos/Reactive-Extensions/RxJS-Contrib/forks",
  "keys_url": "https://api.github.com/repos/Reactive-Extensions/RxJS-Contrib/keys{/key_id}",
  "collaborators_url": "https://api.github.com/repos/Reactive-Extensions/RxJS-Contrib/collaborators{/collaborator}",
  "teams_url": "https://api.github.com/repos/Reactive-Extensions/RxJS-Contrib/teams",
  "hooks_url": "https://api.github.com/repos/Reactive-Extensions/RxJS-Contrib/hooks",
  "issue_events_url": "https://api.github.com/repos/Reactive-Extensions/RxJS-Contrib/issues/events{/number}",
  "events_url": "https://api.github.com/repos/Reactive-Extensions/RxJS-Contrib/events",
  "assignees_url": "https://api.github.com/repos/Reactive-Extensions/RxJS-Contrib/assignees{/user}",
  "branches_url": "https://api.github.com/repos/Reactive-Extensions/RxJS-Contrib/branches{/branch}",
  "tags_url": "https://api.github.com/repos/Reactive-Extensions/RxJS-Contrib/tags",
  "blobs_url": "https://api.github.com/repos/Reactive-Extensions/RxJS-Contrib/git/blobs{/sha}",
  "git_tags_url": "https://api.github.com/repos/Reactive-Extensions/RxJS-Contrib/git/tags{/sha}",
  "git_refs_url": "https://api.github.com/repos/Reactive-Extensions/RxJS-Contrib/git/refs{/sha}",
  "trees_url": "https://api.github.com/repos/Reactive-Extensions/RxJS-Contrib/git/trees{/sha}",
  "statuses_url": "https://api.github.com/repos/Reactive-Extensions/RxJS-Contrib/statuses/{sha}",
  "languages_url": "https://api.github.com/repos/Reactive-Extensions/RxJS-Contrib/languages",
  "stargazers_url": "https://api.github.com/repos/Reactive-Extensions/RxJS-Contrib/stargazers",
  "contributors_url": "https://api.github.com/repos/Reactive-Extensions/RxJS-Contrib/contributors",
  "subscribers_url": "https://api.github.com/repos/Reactive-Extensions/RxJS-Contrib/subscribers",
  "subscription_url": "https://api.github.com/repos/Reactive-Extensions/RxJS-Contrib/subscription",
  "commits_url": "https://api.github.com/repos/Reactive-Extensions/RxJS-Contrib/commits{/sha}",
  "git_commits_url": "https://api.github.com/repos/Reactive-Extensions/RxJS-Contrib/git/commits{/sha}",
  "comments_url": "https://api.github.com/repos/Reactive-Extensions/RxJS-Contrib/comments{/number}",
  "issue_comment_url": "https://api.github.com/repos/Reactive-Extensions/RxJS-Contrib/issues/comments{/number}",
  "contents_url": "https://api.github.com/repos/Reactive-Extensions/RxJS-Contrib/contents/{+path}",
  "compare_url": "https://api.github.com/repos/Reactive-Extensions/RxJS-Contrib/compare/{base}...{head}",
  "merges_url": "https://api.github.com/repos/Reactive-Extensions/RxJS-Contrib/merges",
  "archive_url": "https://api.github.com/repos/Reactive-Extensions/RxJS-Contrib/{archive_format}{/ref}",
  "downloads_url": "https://api.github.com/repos/Reactive-Extensions/RxJS-Contrib/downloads",
  "issues_url": "https://api.github.com/repos/Reactive-Extensions/RxJS-Contrib/issues{/number}",
  "pulls_url": "https://api.github.com/repos/Reactive-Extensions/RxJS-Contrib/pulls{/number}",
  "milestones_url": "https://api.github.com/repos/Reactive-Extensions/RxJS-Contrib/milestones{/number}",
  "notifications_url": "https://api.github.com/repos/Reactive-Extensions/RxJS-Contrib/notifications{?since,all,participating}",
  "labels_url": "https://api.github.com/repos/Reactive-Extensions/RxJS-Contrib/labels{/name}",
  "releases_url": "https://api.github.com/repos/Reactive-Extensions/RxJS-Contrib/releases{/id}",
  "deployments_url": "https://api.github.com/repos/Reactive-Extensions/RxJS-Contrib/deployments",
  "created_at": "2012-06-13T22:29:39Z",
  "updated_at": "2014-03-14T19:02:07Z",
  "pushed_at": "2015-09-17T09:18:37Z",
  "git_url": "git://github.com/Reactive-Extensions/RxJS-Contrib.git",
  "ssh_url": "git@github.com:Reactive-Extensions/RxJS-Contrib.git",
  "clone_url": "https://github.com/Reactive-Extensions/RxJS-Contrib.git",
  "svn_url": "https://github.com/Reactive-Extensions/RxJS-Contrib",
  "homepage": null,
  "size": 191,
  "stargazers_count": 12,
  "watchers_count": 12,
  "language": "JavaScript",
  "has_issues": true,
  "has_downloads": true,
  "has_wiki": true,
  "has_pages": false,
  "forks_count": 5,
  "mirror_url": null,
  "open_issues_count": 1,
  "forks": 5,
  "open_issues": 1,
  "watchers": 12,
  "default_branch": "master",
  "master_branch": "master",
  "permissions": {
    "admin": false,
    "push": false,
    "pull": true
  },
  "license": {
    "key": "mit",
    "name": "MIT License",
    "url": "https://api.github.com/licenses/mit",
    "featured": true
  },
  "organization": {
    "login": "Reactive-Extensions",
    "id": 984368,
    "avatar_url": "https://avatars.githubusercontent.com/u/984368?v=3",
    "gravatar_id": "",
    "url": "https://api.github.com/users/Reactive-Extensions",
    "html_url": "https://github.com/Reactive-Extensions",
    "followers_url": "https://api.github.com/users/Reactive-Extensions/followers",
    "following_url": "https://api.github.com/users/Reactive-Extensions/following{/other_user}",
    "gists_url": "https://api.github.com/users/Reactive-Extensions/gists{/gist_id}",
    "starred_url": "https://api.github.com/users/Reactive-Extensions/starred{/owner}{/repo}",
    "subscriptions_url": "https://api.github.com/users/Reactive-Extensions/subscriptions",
    "organizations_url": "https://api.github.com/users/Reactive-Extensions/orgs",
    "repos_url": "https://api.github.com/users/Reactive-Extensions/repos",
    "events_url": "https://api.github.com/users/Reactive-Extensions/events{/privacy}",
    "received_events_url": "https://api.github.com/users/Reactive-Extensions/received_events",
    "type": "Organization",
    "site_admin": false
  },
  "network_count": 5,
  "subscribers_count": 1
}
