[
{
  "url": "https://api.github.com/repos/docker/docker-py/issues/comments/57987077",
  "html_url": "https://github.com/docker/docker-py/pull/336#issuecomment-57987077",
  "issue_url": "https://api.github.com/repos/docker/docker-py/issues/336",
  "id": 57987077,
  "user": {
    "login": "leth",
    "id": 52370,
    "avatar_url": "https://avatars.githubusercontent.com/u/52370?v=3",
    "gravatar_id": "",
    "url": "https://api.github.com/users/leth",
    "html_url": "https://github.com/leth",
    "followers_url": "https://api.github.com/users/leth/followers",
    "following_url": "https://api.github.com/users/leth/following{/other_user}",
    "gists_url": "https://api.github.com/users/leth/gists{/gist_id}",
    "starred_url": "https://api.github.com/users/leth/starred{/owner}{/repo}",
    "subscriptions_url": "https://api.github.com/users/leth/subscriptions",
    "organizations_url": "https://api.github.com/users/leth/orgs",
    "repos_url": "https://api.github.com/users/leth/repos",
    "events_url": "https://api.github.com/users/leth/events{/privacy}",
    "received_events_url": "https://api.github.com/users/leth/received_events",
    "type": "User",
    "site_admin": false
  },
  "created_at": "2014-10-06T08:24:13Z",
  "updated_at": "2014-10-06T08:24:13Z",
  "body": "It looks like these codepaths are untested and broken on python 3, even without my changes.\r\n\r\nAs an aisde: the reason why this test harness does not hang is that we close the connection after sending the response"
}
, {
  "url": "https://api.github.com/repos/docker/docker-py/issues/comments/59844164",
  "html_url": "https://github.com/docker/docker-py/pull/336#issuecomment-59844164",
  "issue_url": "https://api.github.com/repos/docker/docker-py/issues/336",
  "id": 59844164,
  "user": {
    "login": "micahhausler",
    "id": 791000,
    "avatar_url": "https://avatars.githubusercontent.com/u/791000?v=3",
    "gravatar_id": "",
    "url": "https://api.github.com/users/micahhausler",
    "html_url": "https://github.com/micahhausler",
    "followers_url": "https://api.github.com/users/micahhausler/followers",
    "following_url": "https://api.github.com/users/micahhausler/following{/other_user}",
    "gists_url": "https://api.github.com/users/micahhausler/gists{/gist_id}",
    "starred_url": "https://api.github.com/users/micahhausler/starred{/owner}{/repo}",
    "subscriptions_url": "https://api.github.com/users/micahhausler/subscriptions",
    "organizations_url": "https://api.github.com/users/micahhausler/orgs",
    "repos_url": "https://api.github.com/users/micahhausler/repos",
    "events_url": "https://api.github.com/users/micahhausler/events{/privacy}",
    "received_events_url": "https://api.github.com/users/micahhausler/received_events",
    "type": "User",
    "site_admin": false
  },
  "created_at": "2014-10-20T21:38:38Z",
  "updated_at": "2014-10-20T21:38:38Z",
  "body": "@leth are you going to try to fix those broken paths? I can make a stab at it, but I didn't want to duplicate any work you'd already done."
}
, {
  "url": "https://api.github.com/repos/docker/docker-py/issues/comments/59892831",
  "html_url": "https://github.com/docker/docker-py/pull/336#issuecomment-59892831",
  "issue_url": "https://api.github.com/repos/docker/docker-py/issues/336",
  "id": 59892831,
  "user": {
    "login": "leth",
    "id": 52370,
    "avatar_url": "https://avatars.githubusercontent.com/u/52370?v=3",
    "gravatar_id": "",
    "url": "https://api.github.com/users/leth",
    "html_url": "https://github.com/leth",
    "followers_url": "https://api.github.com/users/leth/followers",
    "following_url": "https://api.github.com/users/leth/following{/other_user}",
    "gists_url": "https://api.github.com/users/leth/gists{/gist_id}",
    "starred_url": "https://api.github.com/users/leth/starred{/owner}{/repo}",
    "subscriptions_url": "https://api.github.com/users/leth/subscriptions",
    "organizations_url": "https://api.github.com/users/leth/orgs",
    "repos_url": "https://api.github.com/users/leth/repos",
    "events_url": "https://api.github.com/users/leth/events{/privacy}",
    "received_events_url": "https://api.github.com/users/leth/received_events",
    "type": "User",
    "site_admin": false
  },
  "created_at": "2014-10-21T08:07:51Z",
  "updated_at": "2014-10-21T08:07:51Z",
  "body": "@micahhausler Go for it! I was hoping for some input from the core devs because the cleanest solutions would probably involve API changes. I'm a bit busy at the moment as well, so not likely to get anywhere with it."
}
, {
  "url": "https://api.github.com/repos/docker/docker-py/issues/comments/61094279",
  "html_url": "https://github.com/docker/docker-py/pull/336#issuecomment-61094279",
  "issue_url": "https://api.github.com/repos/docker/docker-py/issues/336",
  "id": 61094279,
  "user": {
    "login": "shin-",
    "id": 1086876,
    "avatar_url": "https://avatars.githubusercontent.com/u/1086876?v=3",
    "gravatar_id": "",
    "url": "https://api.github.com/users/shin-",
    "html_url": "https://github.com/shin-",
    "followers_url": "https://api.github.com/users/shin-/followers",
    "following_url": "https://api.github.com/users/shin-/following{/other_user}",
    "gists_url": "https://api.github.com/users/shin-/gists{/gist_id}",
    "starred_url": "https://api.github.com/users/shin-/starred{/owner}{/repo}",
    "subscriptions_url": "https://api.github.com/users/shin-/subscriptions",
    "organizations_url": "https://api.github.com/users/shin-/orgs",
    "repos_url": "https://api.github.com/users/shin-/repos",
    "events_url": "https://api.github.com/users/shin-/events{/privacy}",
    "received_events_url": "https://api.github.com/users/shin-/received_events",
    "type": "User",
    "site_admin": false
  },
  "created_at": "2014-10-30T13:52:36Z",
  "updated_at": "2014-10-30T13:52:36Z",
  "body": "@leth Can you rebase this? Thanks! =)"
}
, {
  "url": "https://api.github.com/repos/docker/docker-py/issues/comments/61101628",
  "html_url": "https://github.com/docker/docker-py/pull/336#issuecomment-61101628",
  "issue_url": "https://api.github.com/repos/docker/docker-py/issues/336",
  "id": 61101628,
  "user": {
    "login": "leth",
    "id": 52370,
    "avatar_url": "https://avatars.githubusercontent.com/u/52370?v=3",
    "gravatar_id": "",
    "url": "https://api.github.com/users/leth",
    "html_url": "https://github.com/leth",
    "followers_url": "https://api.github.com/users/leth/followers",
    "following_url": "https://api.github.com/users/leth/following{/other_user}",
    "gists_url": "https://api.github.com/users/leth/gists{/gist_id}",
    "starred_url": "https://api.github.com/users/leth/starred{/owner}{/repo}",
    "subscriptions_url": "https://api.github.com/users/leth/subscriptions",
    "organizations_url": "https://api.github.com/users/leth/orgs",
    "repos_url": "https://api.github.com/users/leth/repos",
    "events_url": "https://api.github.com/users/leth/events{/privacy}",
    "received_events_url": "https://api.github.com/users/leth/received_events",
    "type": "User",
    "site_admin": false
  },
  "created_at": "2014-10-30T14:36:05Z",
  "updated_at": "2014-10-30T14:36:05Z",
  "body": "I've rebased, but my code is still broken in python3.\r\n\r\nIn python3 there's no way to inject the data back into the underlying buffer, and the code for this in python2 is pretty ugly anyway.\r\n\r\nIt'd be better to refactor this whole raw socket thing to return the original buffer objects; which would fix the garbage collection workaround too."
}
, {
  "url": "https://api.github.com/repos/docker/docker-py/issues/comments/61102335",
  "html_url": "https://github.com/docker/docker-py/pull/336#issuecomment-61102335",
  "issue_url": "https://api.github.com/repos/docker/docker-py/issues/336",
  "id": 61102335,
  "user": {
    "login": "leth",
    "id": 52370,
    "avatar_url": "https://avatars.githubusercontent.com/u/52370?v=3",
    "gravatar_id": "",
    "url": "https://api.github.com/users/leth",
    "html_url": "https://github.com/leth",
    "followers_url": "https://api.github.com/users/leth/followers",
    "following_url": "https://api.github.com/users/leth/following{/other_user}",
    "gists_url": "https://api.github.com/users/leth/gists{/gist_id}",
    "starred_url": "https://api.github.com/users/leth/starred{/owner}{/repo}",
    "subscriptions_url": "https://api.github.com/users/leth/subscriptions",
    "organizations_url": "https://api.github.com/users/leth/orgs",
    "repos_url": "https://api.github.com/users/leth/repos",
    "events_url": "https://api.github.com/users/leth/events{/privacy}",
    "received_events_url": "https://api.github.com/users/leth/received_events",
    "type": "User",
    "site_admin": false
  },
  "created_at": "2014-10-30T14:40:19Z",
  "updated_at": "2014-10-30T14:40:19Z",
  "body": "Sorry I should make it clear that I don't have time to do this right now, so please feel free to take this as a starting point and finish it off."
}
, {
  "url": "https://api.github.com/repos/docker/docker-py/issues/comments/61497180",
  "html_url": "https://github.com/docker/docker-py/pull/336#issuecomment-61497180",
  "issue_url": "https://api.github.com/repos/docker/docker-py/issues/336",
  "id": 61497180,
  "user": {
    "login": "leth",
    "id": 52370,
    "avatar_url": "https://avatars.githubusercontent.com/u/52370?v=3",
    "gravatar_id": "",
    "url": "https://api.github.com/users/leth",
    "html_url": "https://github.com/leth",
    "followers_url": "https://api.github.com/users/leth/followers",
    "following_url": "https://api.github.com/users/leth/following{/other_user}",
    "gists_url": "https://api.github.com/users/leth/gists{/gist_id}",
    "starred_url": "https://api.github.com/users/leth/starred{/owner}{/repo}",
    "subscriptions_url": "https://api.github.com/users/leth/subscriptions",
    "organizations_url": "https://api.github.com/users/leth/orgs",
    "repos_url": "https://api.github.com/users/leth/repos",
    "events_url": "https://api.github.com/users/leth/events{/privacy}",
    "received_events_url": "https://api.github.com/users/leth/received_events",
    "type": "User",
    "site_admin": false
  },
  "created_at": "2014-11-03T15:46:26Z",
  "updated_at": "2014-11-03T15:46:26Z",
  "body": "This issue will cause hangs most often when consuming from very short streams, i.e. short builds or log streams."
}
, {
  "url": "https://api.github.com/repos/docker/docker-py/issues/comments/61538420",
  "html_url": "https://github.com/docker/docker-py/pull/336#issuecomment-61538420",
  "issue_url": "https://api.github.com/repos/docker/docker-py/issues/336",
  "id": 61538420,
  "user": {
    "login": "shin-",
    "id": 1086876,
    "avatar_url": "https://avatars.githubusercontent.com/u/1086876?v=3",
    "gravatar_id": "",
    "url": "https://api.github.com/users/shin-",
    "html_url": "https://github.com/shin-",
    "followers_url": "https://api.github.com/users/shin-/followers",
    "following_url": "https://api.github.com/users/shin-/following{/other_user}",
    "gists_url": "https://api.github.com/users/shin-/gists{/gist_id}",
    "starred_url": "https://api.github.com/users/shin-/starred{/owner}{/repo}",
    "subscriptions_url": "https://api.github.com/users/shin-/subscriptions",
    "organizations_url": "https://api.github.com/users/shin-/orgs",
    "repos_url": "https://api.github.com/users/shin-/repos",
    "events_url": "https://api.github.com/users/shin-/events{/privacy}",
    "received_events_url": "https://api.github.com/users/shin-/received_events",
    "type": "User",
    "site_admin": false
  },
  "created_at": "2014-11-03T19:59:09Z",
  "updated_at": "2014-11-03T19:59:09Z",
  "body": "I need to have 0.6.0 out the door, but I'll make sure to look into this for the next release. Sorry for those affected."
}
, {
  "url": "https://api.github.com/repos/docker/docker-py/issues/comments/62608013",
  "html_url": "https://github.com/docker/docker-py/pull/336#issuecomment-62608013",
  "issue_url": "https://api.github.com/repos/docker/docker-py/issues/336",
  "id": 62608013,
  "user": {
    "login": "sigmavirus24",
    "id": 240830,
    "avatar_url": "https://avatars.githubusercontent.com/u/240830?v=3",
    "gravatar_id": "",
    "url": "https://api.github.com/users/sigmavirus24",
    "html_url": "https://github.com/sigmavirus24",
    "followers_url": "https://api.github.com/users/sigmavirus24/followers",
    "following_url": "https://api.github.com/users/sigmavirus24/following{/other_user}",
    "gists_url": "https://api.github.com/users/sigmavirus24/gists{/gist_id}",
    "starred_url": "https://api.github.com/users/sigmavirus24/starred{/owner}{/repo}",
    "subscriptions_url": "https://api.github.com/users/sigmavirus24/subscriptions",
    "organizations_url": "https://api.github.com/users/sigmavirus24/orgs",
    "repos_url": "https://api.github.com/users/sigmavirus24/repos",
    "events_url": "https://api.github.com/users/sigmavirus24/events{/privacy}",
    "received_events_url": "https://api.github.com/users/sigmavirus24/received_events",
    "type": "User",
    "site_admin": false
  },
  "created_at": "2014-11-11T19:47:42Z",
  "updated_at": "2014-11-11T19:47:42Z",
  "body": "Hi! requests core developer here. One quick question: Why is this code digging into implementation details in **urllib3**? Specifically what necessity do you have to be using `response.raw._fp.fp`?"
}
, {
  "url": "https://api.github.com/repos/docker/docker-py/issues/comments/62762791",
  "html_url": "https://github.com/docker/docker-py/pull/336#issuecomment-62762791",
  "issue_url": "https://api.github.com/repos/docker/docker-py/issues/336",
  "id": 62762791,
  "user": {
    "login": "leth",
    "id": 52370,
    "avatar_url": "https://avatars.githubusercontent.com/u/52370?v=3",
    "gravatar_id": "",
    "url": "https://api.github.com/users/leth",
    "html_url": "https://github.com/leth",
    "followers_url": "https://api.github.com/users/leth/followers",
    "following_url": "https://api.github.com/users/leth/following{/other_user}",
    "gists_url": "https://api.github.com/users/leth/gists{/gist_id}",
    "starred_url": "https://api.github.com/users/leth/starred{/owner}{/repo}",
    "subscriptions_url": "https://api.github.com/users/leth/subscriptions",
    "organizations_url": "https://api.github.com/users/leth/orgs",
    "repos_url": "https://api.github.com/users/leth/repos",
    "events_url": "https://api.github.com/users/leth/events{/privacy}",
    "received_events_url": "https://api.github.com/users/leth/received_events",
    "type": "User",
    "site_admin": false
  },
  "created_at": "2014-11-12T18:03:23Z",
  "updated_at": "2014-11-12T18:03:23Z",
  "body": "@sigmavirus24 the response is one of two custom stream protocols (see [attach](https://docs.docker.com/reference/api/docker_remote_api_v1.15/#attach-to-a-container) for one, the other is a JSON stream? I can't find any good docs for it. IIRC it's a line-based protocol where each message is a pair of lines, the first line is a message length, and the second is the JSON message)\r\n\r\nIt has no known content-length, and the remote side does not close the connection, so when reading it one needs to be careful not to attempt to read more data than is present, else we might block.\r\nThat said, I've not tried setting \"Connection: close\" on the request.\r\n\r\nAs I said above, I think this code needs a refactor, because fixing it to work as-is just keeps getting uglier.\r\nDo you have any suggestions as to how this might be done better?"
}
, {
  "url": "https://api.github.com/repos/docker/docker-py/issues/comments/62829011",
  "html_url": "https://github.com/docker/docker-py/pull/336#issuecomment-62829011",
  "issue_url": "https://api.github.com/repos/docker/docker-py/issues/336",
  "id": 62829011,
  "user": {
    "login": "sigmavirus24",
    "id": 240830,
    "avatar_url": "https://avatars.githubusercontent.com/u/240830?v=3",
    "gravatar_id": "",
    "url": "https://api.github.com/users/sigmavirus24",
    "html_url": "https://github.com/sigmavirus24",
    "followers_url": "https://api.github.com/users/sigmavirus24/followers",
    "following_url": "https://api.github.com/users/sigmavirus24/following{/other_user}",
    "gists_url": "https://api.github.com/users/sigmavirus24/gists{/gist_id}",
    "starred_url": "https://api.github.com/users/sigmavirus24/starred{/owner}{/repo}",
    "subscriptions_url": "https://api.github.com/users/sigmavirus24/subscriptions",
    "organizations_url": "https://api.github.com/users/sigmavirus24/orgs",
    "repos_url": "https://api.github.com/users/sigmavirus24/repos",
    "events_url": "https://api.github.com/users/sigmavirus24/events{/privacy}",
    "received_events_url": "https://api.github.com/users/sigmavirus24/received_events",
    "type": "User",
    "site_admin": false
  },
  "created_at": "2014-11-13T02:00:21Z",
  "updated_at": "2014-11-13T02:00:21Z",
  "body": "So I'm still at a loss for why it's necessary to access `r.raw.fp._fp` when `r.raw` supports read operations like a file-like object.\r\n\r\nThat said, what you're dealing with is a chunked transfer-encoding on the response side. Those are far less common so requests won't handle them for you. We *could* add it to the requests-toolbelt to take it off your back if you'd like me to. It would look something like:\r\n\r\n```python\r\nfrom requests_toolbelt import iter_chunked_response\r\n\r\nr = requests.get('https://our-url.com')\r\nfor chunk in iter_chunked_response(r):\r\n    # do stuff with chunk\r\n```\r\n\r\nIt would just yield to you the actual data."
}
, {
  "url": "https://api.github.com/repos/docker/docker-py/issues/comments/62988118",
  "html_url": "https://github.com/docker/docker-py/pull/336#issuecomment-62988118",
  "issue_url": "https://api.github.com/repos/docker/docker-py/issues/336",
  "id": 62988118,
  "user": {
    "login": "shin-",
    "id": 1086876,
    "avatar_url": "https://avatars.githubusercontent.com/u/1086876?v=3",
    "gravatar_id": "",
    "url": "https://api.github.com/users/shin-",
    "html_url": "https://github.com/shin-",
    "followers_url": "https://api.github.com/users/shin-/followers",
    "following_url": "https://api.github.com/users/shin-/following{/other_user}",
    "gists_url": "https://api.github.com/users/shin-/gists{/gist_id}",
    "starred_url": "https://api.github.com/users/shin-/starred{/owner}{/repo}",
    "subscriptions_url": "https://api.github.com/users/shin-/subscriptions",
    "organizations_url": "https://api.github.com/users/shin-/orgs",
    "repos_url": "https://api.github.com/users/shin-/repos",
    "events_url": "https://api.github.com/users/shin-/events{/privacy}",
    "received_events_url": "https://api.github.com/users/shin-/received_events",
    "type": "User",
    "site_admin": false
  },
  "created_at": "2014-11-13T23:47:18Z",
  "updated_at": "2014-11-13T23:47:18Z",
  "body": "Hi @sigmavirus24 , thank you for taking the time to look at this!\r\n\r\nTo comment on our usage of internal objects like `resp.raw.fp._fp`, we've actually had quite a history with those streaming methods. The first version used a simple `response.iter_lines()` loop, but issues arised as new versions of Docker (pre-1.0) were released and we ended up going for the fix that seemed to work for most people. It'd be interesting to see if, with the docker API being more stable now, we could make our way back to something less complex (i.e. using `resp.raw` as you suggest)\r\n\r\nTo answer your other question, anything that can make these methods simpler would be huge for us. Let me know if I can help in any way to make this happen."
}
, {
  "url": "https://api.github.com/repos/docker/docker-py/issues/comments/63174290",
  "html_url": "https://github.com/docker/docker-py/pull/336#issuecomment-63174290",
  "issue_url": "https://api.github.com/repos/docker/docker-py/issues/336",
  "id": 63174290,
  "user": {
    "login": "sigmavirus24",
    "id": 240830,
    "avatar_url": "https://avatars.githubusercontent.com/u/240830?v=3",
    "gravatar_id": "",
    "url": "https://api.github.com/users/sigmavirus24",
    "html_url": "https://github.com/sigmavirus24",
    "followers_url": "https://api.github.com/users/sigmavirus24/followers",
    "following_url": "https://api.github.com/users/sigmavirus24/following{/other_user}",
    "gists_url": "https://api.github.com/users/sigmavirus24/gists{/gist_id}",
    "starred_url": "https://api.github.com/users/sigmavirus24/starred{/owner}{/repo}",
    "subscriptions_url": "https://api.github.com/users/sigmavirus24/subscriptions",
    "organizations_url": "https://api.github.com/users/sigmavirus24/orgs",
    "repos_url": "https://api.github.com/users/sigmavirus24/repos",
    "events_url": "https://api.github.com/users/sigmavirus24/events{/privacy}",
    "received_events_url": "https://api.github.com/users/sigmavirus24/received_events",
    "type": "User",
    "site_admin": false
  },
  "created_at": "2014-11-15T14:35:35Z",
  "updated_at": "2014-11-15T14:35:35Z",
  "body": "So I've looked into this and spoken with the other core developer of requests on the toolbelt issue that GitHub auto-linked to this issue. The real problem is `httplib` strips out the chunk headers (the numbers that indicate the length of the next chunk). With that said, when I last skimmed the code in the repo (and this PR) I don't see any use of that value other than to break the loop, which I'm not sure is necessary. I don't have a docker API to test against honestly (nor am I very familiar with it) but I've been testing with `https://httpbin.org/stream/100` and each chunk should be separated by a single `\\n` after httplib processes it. The way to detect that the stream is finished (as best as I can tell) is to read until the next \"line\" is `''`. I'll need to read up on the docker API more but I think this might work."
}
, {
  "url": "https://api.github.com/repos/docker/docker-py/issues/comments/64734494",
  "html_url": "https://github.com/docker/docker-py/pull/336#issuecomment-64734494",
  "issue_url": "https://api.github.com/repos/docker/docker-py/issues/336",
  "id": 64734494,
  "user": {
    "login": "shin-",
    "id": 1086876,
    "avatar_url": "https://avatars.githubusercontent.com/u/1086876?v=3",
    "gravatar_id": "",
    "url": "https://api.github.com/users/shin-",
    "html_url": "https://github.com/shin-",
    "followers_url": "https://api.github.com/users/shin-/followers",
    "following_url": "https://api.github.com/users/shin-/following{/other_user}",
    "gists_url": "https://api.github.com/users/shin-/gists{/gist_id}",
    "starred_url": "https://api.github.com/users/shin-/starred{/owner}{/repo}",
    "subscriptions_url": "https://api.github.com/users/shin-/subscriptions",
    "organizations_url": "https://api.github.com/users/shin-/orgs",
    "repos_url": "https://api.github.com/users/shin-/repos",
    "events_url": "https://api.github.com/users/shin-/events{/privacy}",
    "received_events_url": "https://api.github.com/users/shin-/received_events",
    "type": "User",
    "site_admin": false
  },
  "created_at": "2014-11-27T01:29:04Z",
  "updated_at": "2014-11-27T01:29:04Z",
  "body": "Sorry for the late update, I've had some time to look into this today, I've replaced the `_stream_helper` method by a simple `response.raw.readline()` loop:\r\n```python\r\n    def _stream_helper(self, response):\r\n        \"\"\"Generator for data coming from a chunked-encoded HTTP response.\"\"\"\r\n        reader = response.raw\r\n        while True:\r\n            data = reader.readline()\r\n            if not data:\r\n                break\r\n            yield data\r\n```\r\n but running the integration tests it seems that I'm getting multiple lines at once.\r\n\r\n\r\n\r\n```\r\n======================================================================\r\nERROR: runTest (__main__.TestBuildStream)\r\n----------------------------------------------------------------------\r\nTraceback (most recent call last):\r\n  File \"integration_test.py\", line 889, in runTest\r\n    json.loads(chunk)  # ensure chunk is a single, valid JSON blob\r\n  File \"/usr/lib/python2.7/json/__init__.py\", line 338, in loads\r\n    return _default_decoder.decode(s)\r\n  File \"/usr/lib/python2.7/json/decoder.py\", line 369, in decode\r\n    raise ValueError(errmsg(\"Extra data\", s, end, len(s)))\r\nValueError: Extra data: line 1 column 112 - line 2 column 1 (char 111 - 115)\r\n\r\n======================================================================\r\nERROR: runTest (__main__.TestPullStream)\r\n----------------------------------------------------------------------\r\nTraceback (most recent call last):\r\n  File \"integration_test.py\", line 796, in runTest\r\n    json.loads(chunk)  # ensure chunk is a single, valid JSON blob\r\n  File \"/usr/lib/python2.7/json/__init__.py\", line 338, in loads\r\n    return _default_decoder.decode(s)\r\n  File \"/usr/lib/python2.7/json/decoder.py\", line 369, in decode\r\n    raise ValueError(errmsg(\"Extra data\", s, end, len(s)))\r\nValueError: Extra data: line 1 column 97 - line 2 column 1 (char 96 - 16658)\r\n```"
}
, {
  "url": "https://api.github.com/repos/docker/docker-py/issues/comments/64773085",
  "html_url": "https://github.com/docker/docker-py/pull/336#issuecomment-64773085",
  "issue_url": "https://api.github.com/repos/docker/docker-py/issues/336",
  "id": 64773085,
  "user": {
    "login": "leth",
    "id": 52370,
    "avatar_url": "https://avatars.githubusercontent.com/u/52370?v=3",
    "gravatar_id": "",
    "url": "https://api.github.com/users/leth",
    "html_url": "https://github.com/leth",
    "followers_url": "https://api.github.com/users/leth/followers",
    "following_url": "https://api.github.com/users/leth/following{/other_user}",
    "gists_url": "https://api.github.com/users/leth/gists{/gist_id}",
    "starred_url": "https://api.github.com/users/leth/starred{/owner}{/repo}",
    "subscriptions_url": "https://api.github.com/users/leth/subscriptions",
    "organizations_url": "https://api.github.com/users/leth/orgs",
    "repos_url": "https://api.github.com/users/leth/repos",
    "events_url": "https://api.github.com/users/leth/events{/privacy}",
    "received_events_url": "https://api.github.com/users/leth/received_events",
    "type": "User",
    "site_admin": false
  },
  "created_at": "2014-11-27T10:34:51Z",
  "updated_at": "2014-11-27T10:34:51Z",
  "body": "@shin-: `response.raw` is a `requests.packages.urllib3.response.HTTPResponse instance`, and readline comes from `io.IOBase` so it won't be decoding the chunks for you.\r\nI've updated this MR with a version that works on 2.7"
}
, {
  "url": "https://api.github.com/repos/docker/docker-py/issues/comments/64773341",
  "html_url": "https://github.com/docker/docker-py/pull/336#issuecomment-64773341",
  "issue_url": "https://api.github.com/repos/docker/docker-py/issues/336",
  "id": 64773341,
  "user": {
    "login": "leth",
    "id": 52370,
    "avatar_url": "https://avatars.githubusercontent.com/u/52370?v=3",
    "gravatar_id": "",
    "url": "https://api.github.com/users/leth",
    "html_url": "https://github.com/leth",
    "followers_url": "https://api.github.com/users/leth/followers",
    "following_url": "https://api.github.com/users/leth/following{/other_user}",
    "gists_url": "https://api.github.com/users/leth/gists{/gist_id}",
    "starred_url": "https://api.github.com/users/leth/starred{/owner}{/repo}",
    "subscriptions_url": "https://api.github.com/users/leth/subscriptions",
    "organizations_url": "https://api.github.com/users/leth/orgs",
    "repos_url": "https://api.github.com/users/leth/repos",
    "events_url": "https://api.github.com/users/leth/events{/privacy}",
    "received_events_url": "https://api.github.com/users/leth/received_events",
    "type": "User",
    "site_admin": false
  },
  "created_at": "2014-11-27T10:36:53Z",
  "updated_at": "2014-11-27T10:36:53Z",
  "body": "@sigmavirus24: This simplified version fails my early-response test on python 3.x. Do you think there could be something different in urllib3's buffer handling?"
}
, {
  "url": "https://api.github.com/repos/docker/docker-py/issues/comments/65268274",
  "html_url": "https://github.com/docker/docker-py/pull/336#issuecomment-65268274",
  "issue_url": "https://api.github.com/repos/docker/docker-py/issues/336",
  "id": 65268274,
  "user": {
    "login": "leth",
    "id": 52370,
    "avatar_url": "https://avatars.githubusercontent.com/u/52370?v=3",
    "gravatar_id": "",
    "url": "https://api.github.com/users/leth",
    "html_url": "https://github.com/leth",
    "followers_url": "https://api.github.com/users/leth/followers",
    "following_url": "https://api.github.com/users/leth/following{/other_user}",
    "gists_url": "https://api.github.com/users/leth/gists{/gist_id}",
    "starred_url": "https://api.github.com/users/leth/starred{/owner}{/repo}",
    "subscriptions_url": "https://api.github.com/users/leth/subscriptions",
    "organizations_url": "https://api.github.com/users/leth/orgs",
    "repos_url": "https://api.github.com/users/leth/repos",
    "events_url": "https://api.github.com/users/leth/events{/privacy}",
    "received_events_url": "https://api.github.com/users/leth/received_events",
    "type": "User",
    "site_admin": false
  },
  "created_at": "2014-12-02T17:22:06Z",
  "updated_at": "2014-12-02T17:22:06Z",
  "body": "Okay, the good news is I have something that works on all python versions. Bad news is that it still pokes into the requests internals.\r\n@sigmavirus24: I couldn't find a nice way to consume each chunk separately without that digging, since `http.client` hides the transfer encoding."
}
, {
  "url": "https://api.github.com/repos/docker/docker-py/issues/comments/67083786",
  "html_url": "https://github.com/docker/docker-py/pull/336#issuecomment-67083786",
  "issue_url": "https://api.github.com/repos/docker/docker-py/issues/336",
  "id": 67083786,
  "user": {
    "login": "shin-",
    "id": 1086876,
    "avatar_url": "https://avatars.githubusercontent.com/u/1086876?v=3",
    "gravatar_id": "",
    "url": "https://api.github.com/users/shin-",
    "html_url": "https://github.com/shin-",
    "followers_url": "https://api.github.com/users/shin-/followers",
    "following_url": "https://api.github.com/users/shin-/following{/other_user}",
    "gists_url": "https://api.github.com/users/shin-/gists{/gist_id}",
    "starred_url": "https://api.github.com/users/shin-/starred{/owner}{/repo}",
    "subscriptions_url": "https://api.github.com/users/shin-/subscriptions",
    "organizations_url": "https://api.github.com/users/shin-/orgs",
    "repos_url": "https://api.github.com/users/shin-/repos",
    "events_url": "https://api.github.com/users/shin-/events{/privacy}",
    "received_events_url": "https://api.github.com/users/shin-/received_events",
    "type": "User",
    "site_admin": false
  },
  "created_at": "2014-12-15T23:06:55Z",
  "updated_at": "2014-12-15T23:06:55Z",
  "body": "LGTM so far. @leth and others watching this PR, is this in a satisfying state to be merged and be an improvement over the way things are done in the current stable?"
}
, {
  "url": "https://api.github.com/repos/docker/docker-py/issues/comments/67084377",
  "html_url": "https://github.com/docker/docker-py/pull/336#issuecomment-67084377",
  "issue_url": "https://api.github.com/repos/docker/docker-py/issues/336",
  "id": 67084377,
  "user": {
    "login": "leth",
    "id": 52370,
    "avatar_url": "https://avatars.githubusercontent.com/u/52370?v=3",
    "gravatar_id": "",
    "url": "https://api.github.com/users/leth",
    "html_url": "https://github.com/leth",
    "followers_url": "https://api.github.com/users/leth/followers",
    "following_url": "https://api.github.com/users/leth/following{/other_user}",
    "gists_url": "https://api.github.com/users/leth/gists{/gist_id}",
    "starred_url": "https://api.github.com/users/leth/starred{/owner}{/repo}",
    "subscriptions_url": "https://api.github.com/users/leth/subscriptions",
    "organizations_url": "https://api.github.com/users/leth/orgs",
    "repos_url": "https://api.github.com/users/leth/repos",
    "events_url": "https://api.github.com/users/leth/events{/privacy}",
    "received_events_url": "https://api.github.com/users/leth/received_events",
    "type": "User",
    "site_admin": false
  },
  "created_at": "2014-12-15T23:11:25Z",
  "updated_at": "2014-12-15T23:11:25Z",
  "body": "I'll look at updating this tomorrow for the case where the chunk length was 1\r\n\r\nOn 15 December 2014 23:06:59 GMT+00:00, Joffrey F <notifications@github.com> wrote:\r\n>LGTM so far. @leth and others watching this PR, is this in a satisfying\r\n>state to be merged and be an improvement over the way things are done\r\n>in the current stable?\r\n>\r\n>---\r\n>Reply to this email directly or view it on GitHub:\r\n>https://github.com/docker/docker-py/pull/336#issuecomment-67083786\r\n\r\n-- \r\nSent from my Phone. Please excuse my brevity."
}
, {
  "url": "https://api.github.com/repos/docker/docker-py/issues/comments/67085239",
  "html_url": "https://github.com/docker/docker-py/pull/336#issuecomment-67085239",
  "issue_url": "https://api.github.com/repos/docker/docker-py/issues/336",
  "id": 67085239,
  "user": {
    "login": "shin-",
    "id": 1086876,
    "avatar_url": "https://avatars.githubusercontent.com/u/1086876?v=3",
    "gravatar_id": "",
    "url": "https://api.github.com/users/shin-",
    "html_url": "https://github.com/shin-",
    "followers_url": "https://api.github.com/users/shin-/followers",
    "following_url": "https://api.github.com/users/shin-/following{/other_user}",
    "gists_url": "https://api.github.com/users/shin-/gists{/gist_id}",
    "starred_url": "https://api.github.com/users/shin-/starred{/owner}{/repo}",
    "subscriptions_url": "https://api.github.com/users/shin-/subscriptions",
    "organizations_url": "https://api.github.com/users/shin-/orgs",
    "repos_url": "https://api.github.com/users/shin-/repos",
    "events_url": "https://api.github.com/users/shin-/events{/privacy}",
    "received_events_url": "https://api.github.com/users/shin-/received_events",
    "type": "User",
    "site_admin": false
  },
  "created_at": "2014-12-15T23:18:39Z",
  "updated_at": "2014-12-15T23:18:39Z",
  "body": "Sounds good, thank you!"
}
, {
  "url": "https://api.github.com/repos/docker/docker-py/issues/comments/67126544",
  "html_url": "https://github.com/docker/docker-py/pull/336#issuecomment-67126544",
  "issue_url": "https://api.github.com/repos/docker/docker-py/issues/336",
  "id": 67126544,
  "user": {
    "login": "leth",
    "id": 52370,
    "avatar_url": "https://avatars.githubusercontent.com/u/52370?v=3",
    "gravatar_id": "",
    "url": "https://api.github.com/users/leth",
    "html_url": "https://github.com/leth",
    "followers_url": "https://api.github.com/users/leth/followers",
    "following_url": "https://api.github.com/users/leth/following{/other_user}",
    "gists_url": "https://api.github.com/users/leth/gists{/gist_id}",
    "starred_url": "https://api.github.com/users/leth/starred{/owner}{/repo}",
    "subscriptions_url": "https://api.github.com/users/leth/subscriptions",
    "organizations_url": "https://api.github.com/users/leth/orgs",
    "repos_url": "https://api.github.com/users/leth/repos",
    "events_url": "https://api.github.com/users/leth/events{/privacy}",
    "received_events_url": "https://api.github.com/users/leth/received_events",
    "type": "User",
    "site_admin": false
  },
  "created_at": "2014-12-16T08:25:19Z",
  "updated_at": "2014-12-16T08:25:19Z",
  "body": "Looking at it again, I'm happy for the fixes for stream handling to be merged, but the raw socket attach stuff still needs some love.\r\n\r\nI'll rebase all of this, split them in two, and raise a new MR for the raw socket stuff.\r\n\r\nLet me know if you'd rather do things differently\r\n\r\nOn 15 December 2014 23:18:42 GMT+00:00, Joffrey F <notifications@github.com> wrote:\r\n>Sounds good, thank you!\r\n>\r\n>---\r\n>Reply to this email directly or view it on GitHub:\r\n>https://github.com/docker/docker-py/pull/336#issuecomment-67085239\r\n\r\n-- \r\nSent from my Phone. Please excuse my brevity."
}
, {
  "url": "https://api.github.com/repos/docker/docker-py/issues/comments/67208287",
  "html_url": "https://github.com/docker/docker-py/pull/336#issuecomment-67208287",
  "issue_url": "https://api.github.com/repos/docker/docker-py/issues/336",
  "id": 67208287,
  "user": {
    "login": "shin-",
    "id": 1086876,
    "avatar_url": "https://avatars.githubusercontent.com/u/1086876?v=3",
    "gravatar_id": "",
    "url": "https://api.github.com/users/shin-",
    "html_url": "https://github.com/shin-",
    "followers_url": "https://api.github.com/users/shin-/followers",
    "following_url": "https://api.github.com/users/shin-/following{/other_user}",
    "gists_url": "https://api.github.com/users/shin-/gists{/gist_id}",
    "starred_url": "https://api.github.com/users/shin-/starred{/owner}{/repo}",
    "subscriptions_url": "https://api.github.com/users/shin-/subscriptions",
    "organizations_url": "https://api.github.com/users/shin-/orgs",
    "repos_url": "https://api.github.com/users/shin-/repos",
    "events_url": "https://api.github.com/users/shin-/events{/privacy}",
    "received_events_url": "https://api.github.com/users/shin-/received_events",
    "type": "User",
    "site_admin": false
  },
  "created_at": "2014-12-16T18:36:05Z",
  "updated_at": "2014-12-16T18:36:05Z",
  "body": "That's fine by me. Let me know if I can help in any way. "
}
, {
  "url": "https://api.github.com/repos/docker/docker-py/issues/comments/67383221",
  "html_url": "https://github.com/docker/docker-py/pull/336#issuecomment-67383221",
  "issue_url": "https://api.github.com/repos/docker/docker-py/issues/336",
  "id": 67383221,
  "user": {
    "login": "shin-",
    "id": 1086876,
    "avatar_url": "https://avatars.githubusercontent.com/u/1086876?v=3",
    "gravatar_id": "",
    "url": "https://api.github.com/users/shin-",
    "html_url": "https://github.com/shin-",
    "followers_url": "https://api.github.com/users/shin-/followers",
    "following_url": "https://api.github.com/users/shin-/following{/other_user}",
    "gists_url": "https://api.github.com/users/shin-/gists{/gist_id}",
    "starred_url": "https://api.github.com/users/shin-/starred{/owner}{/repo}",
    "subscriptions_url": "https://api.github.com/users/shin-/subscriptions",
    "organizations_url": "https://api.github.com/users/shin-/orgs",
    "repos_url": "https://api.github.com/users/shin-/repos",
    "events_url": "https://api.github.com/users/shin-/events{/privacy}",
    "received_events_url": "https://api.github.com/users/shin-/received_events",
    "type": "User",
    "site_admin": false
  },
  "created_at": "2014-12-17T19:58:06Z",
  "updated_at": "2014-12-17T19:58:06Z",
  "body": "Thank you! :)"
}
, {
  "url": "https://api.github.com/repos/docker/docker-py/issues/comments/67388070",
  "html_url": "https://github.com/docker/docker-py/pull/336#issuecomment-67388070",
  "issue_url": "https://api.github.com/repos/docker/docker-py/issues/336",
  "id": 67388070,
  "user": {
    "login": "shin-",
    "id": 1086876,
    "avatar_url": "https://avatars.githubusercontent.com/u/1086876?v=3",
    "gravatar_id": "",
    "url": "https://api.github.com/users/shin-",
    "html_url": "https://github.com/shin-",
    "followers_url": "https://api.github.com/users/shin-/followers",
    "following_url": "https://api.github.com/users/shin-/following{/other_user}",
    "gists_url": "https://api.github.com/users/shin-/gists{/gist_id}",
    "starred_url": "https://api.github.com/users/shin-/starred{/owner}{/repo}",
    "subscriptions_url": "https://api.github.com/users/shin-/subscriptions",
    "organizations_url": "https://api.github.com/users/shin-/orgs",
    "repos_url": "https://api.github.com/users/shin-/repos",
    "events_url": "https://api.github.com/users/shin-/events{/privacy}",
    "received_events_url": "https://api.github.com/users/shin-/received_events",
    "type": "User",
    "site_admin": false
  },
  "created_at": "2014-12-17T20:30:20Z",
  "updated_at": "2014-12-17T20:30:20Z",
  "body": "Umm, looks like we may have an issue still.\r\n\r\nhttps://travis-ci.org/docker/docker-py/builds/44372370\r\n\r\nDo you have an idea on what could be the cause?"
}
, {
  "url": "https://api.github.com/repos/docker/docker-py/issues/comments/67429159",
  "html_url": "https://github.com/docker/docker-py/pull/336#issuecomment-67429159",
  "issue_url": "https://api.github.com/repos/docker/docker-py/issues/336",
  "id": 67429159,
  "user": {
    "login": "shin-",
    "id": 1086876,
    "avatar_url": "https://avatars.githubusercontent.com/u/1086876?v=3",
    "gravatar_id": "",
    "url": "https://api.github.com/users/shin-",
    "html_url": "https://github.com/shin-",
    "followers_url": "https://api.github.com/users/shin-/followers",
    "following_url": "https://api.github.com/users/shin-/following{/other_user}",
    "gists_url": "https://api.github.com/users/shin-/gists{/gist_id}",
    "starred_url": "https://api.github.com/users/shin-/starred{/owner}{/repo}",
    "subscriptions_url": "https://api.github.com/users/shin-/subscriptions",
    "organizations_url": "https://api.github.com/users/shin-/orgs",
    "repos_url": "https://api.github.com/users/shin-/repos",
    "events_url": "https://api.github.com/users/shin-/events{/privacy}",
    "received_events_url": "https://api.github.com/users/shin-/received_events",
    "type": "User",
    "site_admin": false
  },
  "created_at": "2014-12-18T01:41:36Z",
  "updated_at": "2014-12-18T01:41:36Z",
  "body": "I have implemented a simple retry-on-fail mechanism in the test itself for now. I would like to determine whether the bug is in the test itself or the result of a race condition in the new streaming code.\r\n\r\nIt looks like a race condition of some sort and I can't reproduce it at all locally, but on Travis it seems to happen more frequently.\r\n\r\nI've held off on the 0.7 release until we can figure this out, whether through a fix or a rollback."
}
, {
  "url": "https://api.github.com/repos/docker/docker-py/issues/comments/67454746",
  "html_url": "https://github.com/docker/docker-py/pull/336#issuecomment-67454746",
  "issue_url": "https://api.github.com/repos/docker/docker-py/issues/336",
  "id": 67454746,
  "user": {
    "login": "leth",
    "id": 52370,
    "avatar_url": "https://avatars.githubusercontent.com/u/52370?v=3",
    "gravatar_id": "",
    "url": "https://api.github.com/users/leth",
    "html_url": "https://github.com/leth",
    "followers_url": "https://api.github.com/users/leth/followers",
    "following_url": "https://api.github.com/users/leth/following{/other_user}",
    "gists_url": "https://api.github.com/users/leth/gists{/gist_id}",
    "starred_url": "https://api.github.com/users/leth/starred{/owner}{/repo}",
    "subscriptions_url": "https://api.github.com/users/leth/subscriptions",
    "organizations_url": "https://api.github.com/users/leth/orgs",
    "repos_url": "https://api.github.com/users/leth/repos",
    "events_url": "https://api.github.com/users/leth/events{/privacy}",
    "received_events_url": "https://api.github.com/users/leth/received_events",
    "type": "User",
    "site_admin": false
  },
  "created_at": "2014-12-18T08:22:31Z",
  "updated_at": "2014-12-18T08:22:31Z",
  "body": "Ah. It's in the test I think. I start a thread to listen on a Unix socket, but it might not be have opened it in time perhaps. I tried to fix a race around there but clearly failed\r\n\r\nOn 18 December 2014 01:41:40 GMT+00:00, Joffrey F <notifications@github.com> wrote:\r\n>I have implemented a simple retry-on-fail mechanism in the test itself\r\n>for now. I would like to determine whether the bug is in the test\r\n>itself or the result of a race condition in the new streaming code.\r\n>\r\n>It looks like a race condition of some sort and I can't reproduce it at\r\n>all locally, but on Travis it seems to happen more frequently.\r\n>\r\n>I've held off on the 0.7 release until we can figure this out, whether\r\n>through a fix or a rollback.\r\n>\r\n>---\r\n>Reply to this email directly or view it on GitHub:\r\n>https://github.com/docker/docker-py/pull/336#issuecomment-67429159\r\n\r\n-- \r\nSent from my Phone. Please excuse my brevity."
}
, {
  "url": "https://api.github.com/repos/docker/docker-py/issues/comments/67454849",
  "html_url": "https://github.com/docker/docker-py/pull/336#issuecomment-67454849",
  "issue_url": "https://api.github.com/repos/docker/docker-py/issues/336",
  "id": 67454849,
  "user": {
    "login": "leth",
    "id": 52370,
    "avatar_url": "https://avatars.githubusercontent.com/u/52370?v=3",
    "gravatar_id": "",
    "url": "https://api.github.com/users/leth",
    "html_url": "https://github.com/leth",
    "followers_url": "https://api.github.com/users/leth/followers",
    "following_url": "https://api.github.com/users/leth/following{/other_user}",
    "gists_url": "https://api.github.com/users/leth/gists{/gist_id}",
    "starred_url": "https://api.github.com/users/leth/starred{/owner}{/repo}",
    "subscriptions_url": "https://api.github.com/users/leth/subscriptions",
    "organizations_url": "https://api.github.com/users/leth/orgs",
    "repos_url": "https://api.github.com/users/leth/repos",
    "events_url": "https://api.github.com/users/leth/events{/privacy}",
    "received_events_url": "https://api.github.com/users/leth/received_events",
    "type": "User",
    "site_admin": false
  },
  "created_at": "2014-12-18T08:23:36Z",
  "updated_at": "2014-12-18T08:23:36Z",
  "body": "You can probably reproduce it by putting a sleep at the start of the thread method\r\n\r\nOn 18 December 2014 01:41:40 GMT+00:00, Joffrey F <notifications@github.com> wrote:\r\n>I have implemented a simple retry-on-fail mechanism in the test itself\r\n>for now. I would like to determine whether the bug is in the test\r\n>itself or the result of a race condition in the new streaming code.\r\n>\r\n>It looks like a race condition of some sort and I can't reproduce it at\r\n>all locally, but on Travis it seems to happen more frequently.\r\n>\r\n>I've held off on the 0.7 release until we can figure this out, whether\r\n>through a fix or a rollback.\r\n>\r\n>---\r\n>Reply to this email directly or view it on GitHub:\r\n>https://github.com/docker/docker-py/pull/336#issuecomment-67429159\r\n\r\n-- \r\nSent from my Phone. Please excuse my brevity."
}
]
