[
{
  "url": "https://api.github.com/repos/docker/docker-py/issues/comments/27774768",
  "html_url": "https://github.com/docker/docker-py/pull/76#issuecomment-27774768",
  "issue_url": "https://api.github.com/repos/docker/docker-py/issues/76",
  "id": 27774768,
  "user": {
    "login": "denibertovic",
    "id": 807660,
    "avatar_url": "https://avatars.githubusercontent.com/u/807660?v=3",
    "gravatar_id": "",
    "url": "https://api.github.com/users/denibertovic",
    "html_url": "https://github.com/denibertovic",
    "followers_url": "https://api.github.com/users/denibertovic/followers",
    "following_url": "https://api.github.com/users/denibertovic/following{/other_user}",
    "gists_url": "https://api.github.com/users/denibertovic/gists{/gist_id}",
    "starred_url": "https://api.github.com/users/denibertovic/starred{/owner}{/repo}",
    "subscriptions_url": "https://api.github.com/users/denibertovic/subscriptions",
    "organizations_url": "https://api.github.com/users/denibertovic/orgs",
    "repos_url": "https://api.github.com/users/denibertovic/repos",
    "events_url": "https://api.github.com/users/denibertovic/events{/privacy}",
    "received_events_url": "https://api.github.com/users/denibertovic/received_events",
    "type": "User",
    "site_admin": false
  },
  "created_at": "2013-11-05T14:08:02Z",
  "updated_at": "2013-11-05T14:08:02Z",
  "body": "LGTM"
}
, {
  "url": "https://api.github.com/repos/docker/docker-py/issues/comments/27786974",
  "html_url": "https://github.com/docker/docker-py/pull/76#issuecomment-27786974",
  "issue_url": "https://api.github.com/repos/docker/docker-py/issues/76",
  "id": 27786974,
  "user": {
    "login": "shin-",
    "id": 1086876,
    "avatar_url": "https://avatars.githubusercontent.com/u/1086876?v=3",
    "gravatar_id": "",
    "url": "https://api.github.com/users/shin-",
    "html_url": "https://github.com/shin-",
    "followers_url": "https://api.github.com/users/shin-/followers",
    "following_url": "https://api.github.com/users/shin-/following{/other_user}",
    "gists_url": "https://api.github.com/users/shin-/gists{/gist_id}",
    "starred_url": "https://api.github.com/users/shin-/starred{/owner}{/repo}",
    "subscriptions_url": "https://api.github.com/users/shin-/subscriptions",
    "organizations_url": "https://api.github.com/users/shin-/orgs",
    "repos_url": "https://api.github.com/users/shin-/repos",
    "events_url": "https://api.github.com/users/shin-/events{/privacy}",
    "received_events_url": "https://api.github.com/users/shin-/received_events",
    "type": "User",
    "site_admin": false
  },
  "created_at": "2013-11-05T16:19:40Z",
  "updated_at": "2013-11-05T16:19:40Z",
  "body": "Do we want to try and stay backward compatible with versions prior to 0.6.5?"
}
, {
  "url": "https://api.github.com/repos/docker/docker-py/issues/comments/27794390",
  "html_url": "https://github.com/docker/docker-py/pull/76#issuecomment-27794390",
  "issue_url": "https://api.github.com/repos/docker/docker-py/issues/76",
  "id": 27794390,
  "user": {
    "login": "rca",
    "id": 53537,
    "avatar_url": "https://avatars.githubusercontent.com/u/53537?v=3",
    "gravatar_id": "",
    "url": "https://api.github.com/users/rca",
    "html_url": "https://github.com/rca",
    "followers_url": "https://api.github.com/users/rca/followers",
    "following_url": "https://api.github.com/users/rca/following{/other_user}",
    "gists_url": "https://api.github.com/users/rca/gists{/gist_id}",
    "starred_url": "https://api.github.com/users/rca/starred{/owner}{/repo}",
    "subscriptions_url": "https://api.github.com/users/rca/subscriptions",
    "organizations_url": "https://api.github.com/users/rca/orgs",
    "repos_url": "https://api.github.com/users/rca/repos",
    "events_url": "https://api.github.com/users/rca/events{/privacy}",
    "received_events_url": "https://api.github.com/users/rca/received_events",
    "type": "User",
    "site_admin": false
  },
  "created_at": "2013-11-05T17:35:15Z",
  "updated_at": "2013-11-05T17:35:15Z",
  "body": "Here's what I learned while working on this feature.  Note, my understanding of how things work under the Docker hood are still a bit fuzzy.\r\n\r\nMaking ports available on the host system is a two-step process across two function calls.  The `ports` argument in `create_container()` exposes the port within the container, but does not setup a port on the host.  The `port_bindings` param in the `start()` method does that.\r\n\r\nI think the client would need a mechanism to maintain state across these two calls in order to maintain backwards compatibility.  This may also introduce some magic; what if you really just wanted to expose the port in the container without making it available via the host system (I believe this is what the links feature does).\r\n\r\nThe `docker run` command gets away with backwards compatibility because it performs the create and the start action atomically.  The python client doesn't have such call.\r\n\r\nMy take is that backwards compat is doable, but there's some wiring and potential unintended side effects.  What is the general user expectation here?  Personally, I know I'm an early adopter and have subscribed to getting the rug pulled from under me.  But I do appreciate keeping the rug pulls to a minimum."
}
, {
  "url": "https://api.github.com/repos/docker/docker-py/issues/comments/27797461",
  "html_url": "https://github.com/docker/docker-py/pull/76#issuecomment-27797461",
  "issue_url": "https://api.github.com/repos/docker/docker-py/issues/76",
  "id": 27797461,
  "user": {
    "login": "shin-",
    "id": 1086876,
    "avatar_url": "https://avatars.githubusercontent.com/u/1086876?v=3",
    "gravatar_id": "",
    "url": "https://api.github.com/users/shin-",
    "html_url": "https://github.com/shin-",
    "followers_url": "https://api.github.com/users/shin-/followers",
    "following_url": "https://api.github.com/users/shin-/following{/other_user}",
    "gists_url": "https://api.github.com/users/shin-/gists{/gist_id}",
    "starred_url": "https://api.github.com/users/shin-/starred{/owner}{/repo}",
    "subscriptions_url": "https://api.github.com/users/shin-/subscriptions",
    "organizations_url": "https://api.github.com/users/shin-/orgs",
    "repos_url": "https://api.github.com/users/shin-/repos",
    "events_url": "https://api.github.com/users/shin-/events{/privacy}",
    "received_events_url": "https://api.github.com/users/shin-/received_events",
    "type": "User",
    "site_admin": false
  },
  "created_at": "2013-11-05T18:11:36Z",
  "updated_at": "2013-11-05T18:11:36Z",
  "body": "Alright, here's what I suggest we do -- I'll merge this as is now, and when I've got some time to spare, and before releasing the next version, I'll look into making it backward compatible if it's possible. =)\r\n\r\nThanks a lot for the contribution, and the additional thoughts!"
}
, {
  "url": "https://api.github.com/repos/docker/docker-py/issues/comments/27812685",
  "html_url": "https://github.com/docker/docker-py/pull/76#issuecomment-27812685",
  "issue_url": "https://api.github.com/repos/docker/docker-py/issues/76",
  "id": 27812685,
  "user": {
    "login": "denibertovic",
    "id": 807660,
    "avatar_url": "https://avatars.githubusercontent.com/u/807660?v=3",
    "gravatar_id": "",
    "url": "https://api.github.com/users/denibertovic",
    "html_url": "https://github.com/denibertovic",
    "followers_url": "https://api.github.com/users/denibertovic/followers",
    "following_url": "https://api.github.com/users/denibertovic/following{/other_user}",
    "gists_url": "https://api.github.com/users/denibertovic/gists{/gist_id}",
    "starred_url": "https://api.github.com/users/denibertovic/starred{/owner}{/repo}",
    "subscriptions_url": "https://api.github.com/users/denibertovic/subscriptions",
    "organizations_url": "https://api.github.com/users/denibertovic/orgs",
    "repos_url": "https://api.github.com/users/denibertovic/repos",
    "events_url": "https://api.github.com/users/denibertovic/events{/privacy}",
    "received_events_url": "https://api.github.com/users/denibertovic/received_events",
    "type": "User",
    "site_admin": false
  },
  "created_at": "2013-11-05T21:11:46Z",
  "updated_at": "2013-11-05T21:11:46Z",
  "body": "@shin-  I didn't wan't to bring anything up in this pull request as it's offtopic but I was wondering do we really need a create and start method? Can't we just emulate the run method from the cli and make that command create *and* start the container?\r\n\r\nWhat are the benefits from having 2 separate commands for this? (I'm unfamiliar with the early design decisions so i might me talking nonsense :))\r\n\r\nAlso, do we really need to worry all that much about backwards compatibility before docker 1.0? Because, odds are there will be more breaking changes, and realistically people will upgrade to the newest versions (they can always hold of on upgrading, and user frozen versions of docker and docker-py until they are ready to upgrade). I see no point in complicating/cluttering the codebase if 1.0 if considered somewhat a stable(ish) release and everything before that is just something that's building up to that release. \r\n\r\nI vote, that we consider maintaining backwards compatibility after docker 1.0, or even better we follow docker as is. Meaning, when docker breaks backwards compatibility so does docker-py (at least before 1.0).\r\n\r\nFeel free to correct me if I'm wrong, I'm just thinking out loud here... \r\n\r\nP.S. I can open a separate issue for this so we can discuss it further."
}
, {
  "url": "https://api.github.com/repos/docker/docker-py/issues/comments/27813405",
  "html_url": "https://github.com/docker/docker-py/pull/76#issuecomment-27813405",
  "issue_url": "https://api.github.com/repos/docker/docker-py/issues/76",
  "id": 27813405,
  "user": {
    "login": "rca",
    "id": 53537,
    "avatar_url": "https://avatars.githubusercontent.com/u/53537?v=3",
    "gravatar_id": "",
    "url": "https://api.github.com/users/rca",
    "html_url": "https://github.com/rca",
    "followers_url": "https://api.github.com/users/rca/followers",
    "following_url": "https://api.github.com/users/rca/following{/other_user}",
    "gists_url": "https://api.github.com/users/rca/gists{/gist_id}",
    "starred_url": "https://api.github.com/users/rca/starred{/owner}{/repo}",
    "subscriptions_url": "https://api.github.com/users/rca/subscriptions",
    "organizations_url": "https://api.github.com/users/rca/orgs",
    "repos_url": "https://api.github.com/users/rca/repos",
    "events_url": "https://api.github.com/users/rca/events{/privacy}",
    "received_events_url": "https://api.github.com/users/rca/received_events",
    "type": "User",
    "site_admin": false
  },
  "created_at": "2013-11-05T21:20:21Z",
  "updated_at": "2013-11-05T21:20:21Z",
  "body": "I agree with @denibertovic on the backwards compatibility issue.  Put effort into backwards compat once a stable version is released.\r\n\r\nFrom what I see, there is are separate `create` and `start` methods to have parity with Docker's internal API.  Docker's `run` command is actually calling these two for you.  Maybe docker-py could have a  `run()` convenience function that emulates the behavior."
}
, {
  "url": "https://api.github.com/repos/docker/docker-py/issues/comments/27813794",
  "html_url": "https://github.com/docker/docker-py/pull/76#issuecomment-27813794",
  "issue_url": "https://api.github.com/repos/docker/docker-py/issues/76",
  "id": 27813794,
  "user": {
    "login": "shin-",
    "id": 1086876,
    "avatar_url": "https://avatars.githubusercontent.com/u/1086876?v=3",
    "gravatar_id": "",
    "url": "https://api.github.com/users/shin-",
    "html_url": "https://github.com/shin-",
    "followers_url": "https://api.github.com/users/shin-/followers",
    "following_url": "https://api.github.com/users/shin-/following{/other_user}",
    "gists_url": "https://api.github.com/users/shin-/gists{/gist_id}",
    "starred_url": "https://api.github.com/users/shin-/starred{/owner}{/repo}",
    "subscriptions_url": "https://api.github.com/users/shin-/subscriptions",
    "organizations_url": "https://api.github.com/users/shin-/orgs",
    "repos_url": "https://api.github.com/users/shin-/repos",
    "events_url": "https://api.github.com/users/shin-/events{/privacy}",
    "received_events_url": "https://api.github.com/users/shin-/received_events",
    "type": "User",
    "site_admin": false
  },
  "created_at": "2013-11-05T21:25:02Z",
  "updated_at": "2013-11-05T21:25:02Z",
  "body": "Re: backward compatibility, I'd say that I agree in theory, but in practice, there are people out here using docker in production, so I feel that maintaining it is at least something we should aim for (although it's no big deal if we fail sometimes)\r\n\r\nRe: `create` and `run`, as @rca said, it's how the remote API was designed. Also, the fact that both these commands already have a huge list of arguments and do a lot of things makes me want to keep them separate. If someone wants to wrap them in a single function in their own code, it shouldn't be too difficult. Finally, I think preserving atomicity (i.e. one method call = one API request) is a good thing."
}
, {
  "url": "https://api.github.com/repos/docker/docker-py/issues/comments/27858777",
  "html_url": "https://github.com/docker/docker-py/pull/76#issuecomment-27858777",
  "issue_url": "https://api.github.com/repos/docker/docker-py/issues/76",
  "id": 27858777,
  "user": {
    "login": "denibertovic",
    "id": 807660,
    "avatar_url": "https://avatars.githubusercontent.com/u/807660?v=3",
    "gravatar_id": "",
    "url": "https://api.github.com/users/denibertovic",
    "html_url": "https://github.com/denibertovic",
    "followers_url": "https://api.github.com/users/denibertovic/followers",
    "following_url": "https://api.github.com/users/denibertovic/following{/other_user}",
    "gists_url": "https://api.github.com/users/denibertovic/gists{/gist_id}",
    "starred_url": "https://api.github.com/users/denibertovic/starred{/owner}{/repo}",
    "subscriptions_url": "https://api.github.com/users/denibertovic/subscriptions",
    "organizations_url": "https://api.github.com/users/denibertovic/orgs",
    "repos_url": "https://api.github.com/users/denibertovic/repos",
    "events_url": "https://api.github.com/users/denibertovic/events{/privacy}",
    "received_events_url": "https://api.github.com/users/denibertovic/received_events",
    "type": "User",
    "site_admin": false
  },
  "created_at": "2013-11-06T10:04:24Z",
  "updated_at": "2013-11-06T10:04:24Z",
  "body": "@shin- Regarding run (create, start) I agree that seeing the remote API is designed this way that we should ad hear to that. And yes, it's fairly easy to wrap that in a single run command in my own code, if need be.\r\n\r\nRegarding backwards compatibility, I'm thinking that if people upgrade docker on their systems then they will also upgrade docker-py...if they continue to use and older version they can use the freezed version of docker-py that works with that version....I don't see a scenario where they would wan't to use the newest docker-py but use an old docker version on their system (at least before 1.0). Yes I agree that we should strive not to carelessly break backwards compatibility but I would argue that docker is in a state of flux before 1.0 so I'm not seeing any benefits from maintaining backwards compatibility for version that people will be upgrading soon anyway, and stop using them. I may be missing some edge cases though...I don't know, In my mind everyone  updates when docker releases the new version :D\r\n\r\n"
}
, {
  "url": "https://api.github.com/repos/docker/docker-py/issues/comments/29230548",
  "html_url": "https://github.com/docker/docker-py/pull/76#issuecomment-29230548",
  "issue_url": "https://api.github.com/repos/docker/docker-py/issues/76",
  "id": 29230548,
  "user": {
    "login": "joshuaconner",
    "id": 1056986,
    "avatar_url": "https://avatars.githubusercontent.com/u/1056986?v=3",
    "gravatar_id": "",
    "url": "https://api.github.com/users/joshuaconner",
    "html_url": "https://github.com/joshuaconner",
    "followers_url": "https://api.github.com/users/joshuaconner/followers",
    "following_url": "https://api.github.com/users/joshuaconner/following{/other_user}",
    "gists_url": "https://api.github.com/users/joshuaconner/gists{/gist_id}",
    "starred_url": "https://api.github.com/users/joshuaconner/starred{/owner}{/repo}",
    "subscriptions_url": "https://api.github.com/users/joshuaconner/subscriptions",
    "organizations_url": "https://api.github.com/users/joshuaconner/orgs",
    "repos_url": "https://api.github.com/users/joshuaconner/repos",
    "events_url": "https://api.github.com/users/joshuaconner/events{/privacy}",
    "received_events_url": "https://api.github.com/users/joshuaconner/received_events",
    "type": "User",
    "site_admin": false
  },
  "created_at": "2013-11-25T18:57:07Z",
  "updated_at": "2013-11-25T18:57:07Z",
  "body": "+1 to not preserving backwards compatibility. 0.6.5 broke backwards compatibility so I'd expect docker-py to have done the same to track the upstream changes."
}
]
