[
{
  "url": "https://api.github.com/repos/docker/docker-py/issues/comments/53049242",
  "html_url": "https://github.com/docker/docker-py/pull/284#issuecomment-53049242",
  "issue_url": "https://api.github.com/repos/docker/docker-py/issues/284",
  "id": 53049242,
  "user": {
    "login": "shin-",
    "id": 1086876,
    "avatar_url": "https://avatars.githubusercontent.com/u/1086876?v=3",
    "gravatar_id": "",
    "url": "https://api.github.com/users/shin-",
    "html_url": "https://github.com/shin-",
    "followers_url": "https://api.github.com/users/shin-/followers",
    "following_url": "https://api.github.com/users/shin-/following{/other_user}",
    "gists_url": "https://api.github.com/users/shin-/gists{/gist_id}",
    "starred_url": "https://api.github.com/users/shin-/starred{/owner}{/repo}",
    "subscriptions_url": "https://api.github.com/users/shin-/subscriptions",
    "organizations_url": "https://api.github.com/users/shin-/orgs",
    "repos_url": "https://api.github.com/users/shin-/repos",
    "events_url": "https://api.github.com/users/shin-/events{/privacy}",
    "received_events_url": "https://api.github.com/users/shin-/received_events",
    "type": "User",
    "site_admin": false
  },
  "created_at": "2014-08-22T11:18:39Z",
  "updated_at": "2014-08-22T11:18:39Z",
  "body": "I'm not fond of the idea, I really would rather have all public methods of client be primitives of docker. If one really needs to change the timeout \"in flight\", changing the `_timeout` attribute directly should be fine. WDYT?"
}
, {
  "url": "https://api.github.com/repos/docker/docker-py/issues/comments/53090088",
  "html_url": "https://github.com/docker/docker-py/pull/284#issuecomment-53090088",
  "issue_url": "https://api.github.com/repos/docker/docker-py/issues/284",
  "id": 53090088,
  "user": {
    "login": "wt",
    "id": 416255,
    "avatar_url": "https://avatars.githubusercontent.com/u/416255?v=3",
    "gravatar_id": "",
    "url": "https://api.github.com/users/wt",
    "html_url": "https://github.com/wt",
    "followers_url": "https://api.github.com/users/wt/followers",
    "following_url": "https://api.github.com/users/wt/following{/other_user}",
    "gists_url": "https://api.github.com/users/wt/gists{/gist_id}",
    "starred_url": "https://api.github.com/users/wt/starred{/owner}{/repo}",
    "subscriptions_url": "https://api.github.com/users/wt/subscriptions",
    "organizations_url": "https://api.github.com/users/wt/orgs",
    "repos_url": "https://api.github.com/users/wt/repos",
    "events_url": "https://api.github.com/users/wt/events{/privacy}",
    "received_events_url": "https://api.github.com/users/wt/received_events",
    "type": "User",
    "site_admin": false
  },
  "created_at": "2014-08-22T17:05:13Z",
  "updated_at": "2014-08-22T17:05:13Z",
  "body": "I am not a huge fan of modifying an _ attr since I understood those attrs are conventionally not supposed to be altered from the outside. I would prefer to have a public api to do it, be it a property or a method."
}
, {
  "url": "https://api.github.com/repos/docker/docker-py/issues/comments/72965116",
  "html_url": "https://github.com/docker/docker-py/pull/284#issuecomment-72965116",
  "issue_url": "https://api.github.com/repos/docker/docker-py/issues/284",
  "id": 72965116,
  "user": {
    "login": "gtaylor",
    "id": 75556,
    "avatar_url": "https://avatars.githubusercontent.com/u/75556?v=3",
    "gravatar_id": "",
    "url": "https://api.github.com/users/gtaylor",
    "html_url": "https://github.com/gtaylor",
    "followers_url": "https://api.github.com/users/gtaylor/followers",
    "following_url": "https://api.github.com/users/gtaylor/following{/other_user}",
    "gists_url": "https://api.github.com/users/gtaylor/gists{/gist_id}",
    "starred_url": "https://api.github.com/users/gtaylor/starred{/owner}{/repo}",
    "subscriptions_url": "https://api.github.com/users/gtaylor/subscriptions",
    "organizations_url": "https://api.github.com/users/gtaylor/orgs",
    "repos_url": "https://api.github.com/users/gtaylor/repos",
    "events_url": "https://api.github.com/users/gtaylor/events{/privacy}",
    "received_events_url": "https://api.github.com/users/gtaylor/received_events",
    "type": "User",
    "site_admin": false
  },
  "created_at": "2015-02-04T23:43:50Z",
  "updated_at": "2015-02-04T23:43:50Z",
  "body": "@wt Agreed. Referencing a private attribute gets flagged as a warning in Pylint and PEP8, IIRC. \r\n\r\nPerhaps we could rename ``_timeout`` to ``timeout``, thus bringing it public? Probably not enough going on here to warrant a full method. A property or a public attrib would be peachy.\r\n\r\nI don't know if docker-py has a policy on this yet, but Django and many other projects offer no backwards compatibility guarantees for private vars/attribs/funcs/methods. Worst case, we could easily alias ``_timeout`` to ``timeout`` if we were concerned."
}
, {
  "url": "https://api.github.com/repos/docker/docker-py/issues/comments/74154795",
  "html_url": "https://github.com/docker/docker-py/pull/284#issuecomment-74154795",
  "issue_url": "https://api.github.com/repos/docker/docker-py/issues/284",
  "id": 74154795,
  "user": {
    "login": "shin-",
    "id": 1086876,
    "avatar_url": "https://avatars.githubusercontent.com/u/1086876?v=3",
    "gravatar_id": "",
    "url": "https://api.github.com/users/shin-",
    "html_url": "https://github.com/shin-",
    "followers_url": "https://api.github.com/users/shin-/followers",
    "following_url": "https://api.github.com/users/shin-/following{/other_user}",
    "gists_url": "https://api.github.com/users/shin-/gists{/gist_id}",
    "starred_url": "https://api.github.com/users/shin-/starred{/owner}{/repo}",
    "subscriptions_url": "https://api.github.com/users/shin-/subscriptions",
    "organizations_url": "https://api.github.com/users/shin-/orgs",
    "repos_url": "https://api.github.com/users/shin-/repos",
    "events_url": "https://api.github.com/users/shin-/events{/privacy}",
    "received_events_url": "https://api.github.com/users/shin-/received_events",
    "type": "User",
    "site_admin": false
  },
  "created_at": "2015-02-12T21:19:26Z",
  "updated_at": "2015-02-12T21:19:26Z",
  "body": "WIth #475 merged, we can now close this. Thanks!"
}
]
