[
{
  "url": "https://api.github.com/repos/docker/docker-py/issues/comments/95287409",
  "html_url": "https://github.com/docker/docker-py/pull/537#issuecomment-95287409",
  "issue_url": "https://api.github.com/repos/docker/docker-py/issues/537",
  "id": 95287409,
  "user": {
    "login": "shin-",
    "id": 1086876,
    "avatar_url": "https://avatars.githubusercontent.com/u/1086876?v=3",
    "gravatar_id": "",
    "url": "https://api.github.com/users/shin-",
    "html_url": "https://github.com/shin-",
    "followers_url": "https://api.github.com/users/shin-/followers",
    "following_url": "https://api.github.com/users/shin-/following{/other_user}",
    "gists_url": "https://api.github.com/users/shin-/gists{/gist_id}",
    "starred_url": "https://api.github.com/users/shin-/starred{/owner}{/repo}",
    "subscriptions_url": "https://api.github.com/users/shin-/subscriptions",
    "organizations_url": "https://api.github.com/users/shin-/orgs",
    "repos_url": "https://api.github.com/users/shin-/repos",
    "events_url": "https://api.github.com/users/shin-/events{/privacy}",
    "received_events_url": "https://api.github.com/users/shin-/received_events",
    "type": "User",
    "site_admin": false
  },
  "created_at": "2015-04-22T18:09:01Z",
  "updated_at": "2015-04-22T18:09:01Z",
  "body": "Thanks! =]"
}
]
