[
{
  "url": "https://api.github.com/repos/github/markup/issues/comments/61528172",
  "html_url": "https://github.com/github/markup/issues/386#issuecomment-61528172",
  "issue_url": "https://api.github.com/repos/github/markup/issues/386",
  "id": 61528172,
  "user": {
    "login": "bkeepers",
    "id": 173,
    "avatar_url": "https://avatars.githubusercontent.com/u/173?v=3",
    "gravatar_id": "",
    "url": "https://api.github.com/users/bkeepers",
    "html_url": "https://github.com/bkeepers",
    "followers_url": "https://api.github.com/users/bkeepers/followers",
    "following_url": "https://api.github.com/users/bkeepers/following{/other_user}",
    "gists_url": "https://api.github.com/users/bkeepers/gists{/gist_id}",
    "starred_url": "https://api.github.com/users/bkeepers/starred{/owner}{/repo}",
    "subscriptions_url": "https://api.github.com/users/bkeepers/subscriptions",
    "organizations_url": "https://api.github.com/users/bkeepers/orgs",
    "repos_url": "https://api.github.com/users/bkeepers/repos",
    "events_url": "https://api.github.com/users/bkeepers/events{/privacy}",
    "received_events_url": "https://api.github.com/users/bkeepers/received_events",
    "type": "User",
    "site_admin": true
  },
  "created_at": "2014-11-03T18:55:28Z",
  "updated_at": "2014-11-03T18:55:28Z",
  "body": "If you add the `github-markdown` gem to you project, then you should get the same rendering as GitHub. Let me know if that doesn't work."
}
, {
  "url": "https://api.github.com/repos/github/markup/issues/comments/61616995",
  "html_url": "https://github.com/github/markup/issues/386#issuecomment-61616995",
  "issue_url": "https://api.github.com/repos/github/markup/issues/386",
  "id": 61616995,
  "user": {
    "login": "mdio",
    "id": 8616698,
    "avatar_url": "https://avatars.githubusercontent.com/u/8616698?v=3",
    "gravatar_id": "",
    "url": "https://api.github.com/users/mdio",
    "html_url": "https://github.com/mdio",
    "followers_url": "https://api.github.com/users/mdio/followers",
    "following_url": "https://api.github.com/users/mdio/following{/other_user}",
    "gists_url": "https://api.github.com/users/mdio/gists{/gist_id}",
    "starred_url": "https://api.github.com/users/mdio/starred{/owner}{/repo}",
    "subscriptions_url": "https://api.github.com/users/mdio/subscriptions",
    "organizations_url": "https://api.github.com/users/mdio/orgs",
    "repos_url": "https://api.github.com/users/mdio/repos",
    "events_url": "https://api.github.com/users/mdio/events{/privacy}",
    "received_events_url": "https://api.github.com/users/mdio/received_events",
    "type": "User",
    "site_admin": false
  },
  "created_at": "2014-11-04T10:00:01Z",
  "updated_at": "2014-11-04T10:00:01Z",
  "body": "That did the trick. Thank you!"
}
]
