{
  "id": 16195085,
  "name": "ngSocket",
  "full_name": "angular/ngSocket",
  "owner": {
    "login": "angular",
    "id": 139426,
    "avatar_url": "https://avatars.githubusercontent.com/u/139426?v=3",
    "gravatar_id": "",
    "url": "https://api.github.com/users/angular",
    "html_url": "https://github.com/angular",
    "followers_url": "https://api.github.com/users/angular/followers",
    "following_url": "https://api.github.com/users/angular/following{/other_user}",
    "gists_url": "https://api.github.com/users/angular/gists{/gist_id}",
    "starred_url": "https://api.github.com/users/angular/starred{/owner}{/repo}",
    "subscriptions_url": "https://api.github.com/users/angular/subscriptions",
    "organizations_url": "https://api.github.com/users/angular/orgs",
    "repos_url": "https://api.github.com/users/angular/repos",
    "events_url": "https://api.github.com/users/angular/events{/privacy}",
    "received_events_url": "https://api.github.com/users/angular/received_events",
    "type": "Organization",
    "site_admin": false
  },
  "private": false,
  "html_url": "https://github.com/angular/ngSocket",
  "description": "WebSocket support for angular",
  "fork": false,
  "url": "https://api.github.com/repos/angular/ngSocket",
  "forks_url": "https://api.github.com/repos/angular/ngSocket/forks",
  "keys_url": "https://api.github.com/repos/angular/ngSocket/keys{/key_id}",
  "collaborators_url": "https://api.github.com/repos/angular/ngSocket/collaborators{/collaborator}",
  "teams_url": "https://api.github.com/repos/angular/ngSocket/teams",
  "hooks_url": "https://api.github.com/repos/angular/ngSocket/hooks",
  "issue_events_url": "https://api.github.com/repos/angular/ngSocket/issues/events{/number}",
  "events_url": "https://api.github.com/repos/angular/ngSocket/events",
  "assignees_url": "https://api.github.com/repos/angular/ngSocket/assignees{/user}",
  "branches_url": "https://api.github.com/repos/angular/ngSocket/branches{/branch}",
  "tags_url": "https://api.github.com/repos/angular/ngSocket/tags",
  "blobs_url": "https://api.github.com/repos/angular/ngSocket/git/blobs{/sha}",
  "git_tags_url": "https://api.github.com/repos/angular/ngSocket/git/tags{/sha}",
  "git_refs_url": "https://api.github.com/repos/angular/ngSocket/git/refs{/sha}",
  "trees_url": "https://api.github.com/repos/angular/ngSocket/git/trees{/sha}",
  "statuses_url": "https://api.github.com/repos/angular/ngSocket/statuses/{sha}",
  "languages_url": "https://api.github.com/repos/angular/ngSocket/languages",
  "stargazers_url": "https://api.github.com/repos/angular/ngSocket/stargazers",
  "contributors_url": "https://api.github.com/repos/angular/ngSocket/contributors",
  "subscribers_url": "https://api.github.com/repos/angular/ngSocket/subscribers",
  "subscription_url": "https://api.github.com/repos/angular/ngSocket/subscription",
  "commits_url": "https://api.github.com/repos/angular/ngSocket/commits{/sha}",
  "git_commits_url": "https://api.github.com/repos/angular/ngSocket/git/commits{/sha}",
  "comments_url": "https://api.github.com/repos/angular/ngSocket/comments{/number}",
  "issue_comment_url": "https://api.github.com/repos/angular/ngSocket/issues/comments{/number}",
  "contents_url": "https://api.github.com/repos/angular/ngSocket/contents/{+path}",
  "compare_url": "https://api.github.com/repos/angular/ngSocket/compare/{base}...{head}",
  "merges_url": "https://api.github.com/repos/angular/ngSocket/merges",
  "archive_url": "https://api.github.com/repos/angular/ngSocket/{archive_format}{/ref}",
  "downloads_url": "https://api.github.com/repos/angular/ngSocket/downloads",
  "issues_url": "https://api.github.com/repos/angular/ngSocket/issues{/number}",
  "pulls_url": "https://api.github.com/repos/angular/ngSocket/pulls{/number}",
  "milestones_url": "https://api.github.com/repos/angular/ngSocket/milestones{/number}",
  "notifications_url": "https://api.github.com/repos/angular/ngSocket/notifications{?since,all,participating}",
  "labels_url": "https://api.github.com/repos/angular/ngSocket/labels{/name}",
  "releases_url": "https://api.github.com/repos/angular/ngSocket/releases{/id}",
  "deployments_url": "https://api.github.com/repos/angular/ngSocket/deployments",
  "created_at": "2014-01-24T04:35:50Z",
  "updated_at": "2016-01-08T05:42:02Z",
  "pushed_at": "2015-06-26T05:42:26Z",
  "git_url": "git://github.com/angular/ngSocket.git",
  "ssh_url": "git@github.com:angular/ngSocket.git",
  "clone_url": "https://github.com/angular/ngSocket.git",
  "svn_url": "https://github.com/angular/ngSocket",
  "homepage": "",
  "size": 326,
  "stargazers_count": 197,
  "watchers_count": 197,
  "language": "JavaScript",
  "has_issues": true,
  "has_downloads": true,
  "has_wiki": true,
  "has_pages": false,
  "forks_count": 28,
  "mirror_url": null,
  "open_issues_count": 19,
  "forks": 28,
  "open_issues": 19,
  "watchers": 197,
  "default_branch": "master",
  "master_branch": "master",
  "permissions": {
    "admin": false,
    "push": false,
    "pull": true
  },
  "license": {
    "key": "apache-2.0",
    "name": "Apache License 2.0",
    "url": "https://api.github.com/licenses/apache-2.0",
    "featured": true
  },
  "organization": {
    "login": "angular",
    "id": 139426,
    "avatar_url": "https://avatars.githubusercontent.com/u/139426?v=3",
    "gravatar_id": "",
    "url": "https://api.github.com/users/angular",
    "html_url": "https://github.com/angular",
    "followers_url": "https://api.github.com/users/angular/followers",
    "following_url": "https://api.github.com/users/angular/following{/other_user}",
    "gists_url": "https://api.github.com/users/angular/gists{/gist_id}",
    "starred_url": "https://api.github.com/users/angular/starred{/owner}{/repo}",
    "subscriptions_url": "https://api.github.com/users/angular/subscriptions",
    "organizations_url": "https://api.github.com/users/angular/orgs",
    "repos_url": "https://api.github.com/users/angular/repos",
    "events_url": "https://api.github.com/users/angular/events{/privacy}",
    "received_events_url": "https://api.github.com/users/angular/received_events",
    "type": "Organization",
    "site_admin": false
  },
  "network_count": 28,
  "subscribers_count": 23
}
