[
{
  "url": "https://api.github.com/repos/facebook/AsyncDisplayKit/issues/comments/70111347",
  "html_url": "https://github.com/facebook/AsyncDisplayKit/issues/226#issuecomment-70111347",
  "issue_url": "https://api.github.com/repos/facebook/AsyncDisplayKit/issues/226",
  "id": 70111347,
  "user": {
    "login": "kylehickinson",
    "id": 529104,
    "avatar_url": "https://avatars.githubusercontent.com/u/529104?v=3",
    "gravatar_id": "",
    "url": "https://api.github.com/users/kylehickinson",
    "html_url": "https://github.com/kylehickinson",
    "followers_url": "https://api.github.com/users/kylehickinson/followers",
    "following_url": "https://api.github.com/users/kylehickinson/following{/other_user}",
    "gists_url": "https://api.github.com/users/kylehickinson/gists{/gist_id}",
    "starred_url": "https://api.github.com/users/kylehickinson/starred{/owner}{/repo}",
    "subscriptions_url": "https://api.github.com/users/kylehickinson/subscriptions",
    "organizations_url": "https://api.github.com/users/kylehickinson/orgs",
    "repos_url": "https://api.github.com/users/kylehickinson/repos",
    "events_url": "https://api.github.com/users/kylehickinson/events{/privacy}",
    "received_events_url": "https://api.github.com/users/kylehickinson/received_events",
    "type": "User",
    "site_admin": false
  },
  "created_at": "2015-01-15T16:17:53Z",
  "updated_at": "2015-01-15T16:17:53Z",
  "body": "They make GitHub releases: https://github.com/facebook/AsyncDisplayKit/releases\r\n\r\nThese include major and minor changes"
}
, {
  "url": "https://api.github.com/repos/facebook/AsyncDisplayKit/issues/comments/70142139",
  "html_url": "https://github.com/facebook/AsyncDisplayKit/issues/226#issuecomment-70142139",
  "issue_url": "https://api.github.com/repos/facebook/AsyncDisplayKit/issues/226",
  "id": 70142139,
  "user": {
    "login": "debug29",
    "id": 722071,
    "avatar_url": "https://avatars.githubusercontent.com/u/722071?v=3",
    "gravatar_id": "",
    "url": "https://api.github.com/users/debug29",
    "html_url": "https://github.com/debug29",
    "followers_url": "https://api.github.com/users/debug29/followers",
    "following_url": "https://api.github.com/users/debug29/following{/other_user}",
    "gists_url": "https://api.github.com/users/debug29/gists{/gist_id}",
    "starred_url": "https://api.github.com/users/debug29/starred{/owner}{/repo}",
    "subscriptions_url": "https://api.github.com/users/debug29/subscriptions",
    "organizations_url": "https://api.github.com/users/debug29/orgs",
    "repos_url": "https://api.github.com/users/debug29/repos",
    "events_url": "https://api.github.com/users/debug29/events{/privacy}",
    "received_events_url": "https://api.github.com/users/debug29/received_events",
    "type": "User",
    "site_admin": false
  },
  "created_at": "2015-01-15T19:07:30Z",
  "updated_at": "2015-01-15T19:07:49Z",
  "body": "Ok, nice. Doesn't know this feature.\r\n\r\n"
}
]
