[
{
  "url": "https://api.github.com/repos/docker/go-redis-server/issues/comments/36511086",
  "html_url": "https://github.com/docker/go-redis-server/issues/19#issuecomment-36511086",
  "issue_url": "https://api.github.com/repos/docker/go-redis-server/issues/19",
  "id": 36511086,
  "user": {
    "login": "dim",
    "id": 16614,
    "avatar_url": "https://avatars.githubusercontent.com/u/16614?v=3",
    "gravatar_id": "",
    "url": "https://api.github.com/users/dim",
    "html_url": "https://github.com/dim",
    "followers_url": "https://api.github.com/users/dim/followers",
    "following_url": "https://api.github.com/users/dim/following{/other_user}",
    "gists_url": "https://api.github.com/users/dim/gists{/gist_id}",
    "starred_url": "https://api.github.com/users/dim/starred{/owner}{/repo}",
    "subscriptions_url": "https://api.github.com/users/dim/subscriptions",
    "organizations_url": "https://api.github.com/users/dim/orgs",
    "repos_url": "https://api.github.com/users/dim/repos",
    "events_url": "https://api.github.com/users/dim/events{/privacy}",
    "received_events_url": "https://api.github.com/users/dim/received_events",
    "type": "User",
    "site_admin": false
  },
  "created_at": "2014-03-03T13:49:32Z",
  "updated_at": "2014-03-03T13:49:32Z",
  "body": "Added pull request in #20 "
}
]
