[
{
  "url": "https://api.github.com/repos/twitter/algebird/issues/comments/35663130",
  "html_url": "https://github.com/twitter/algebird/pull/267#issuecomment-35663130",
  "issue_url": "https://api.github.com/repos/twitter/algebird/issues/267",
  "id": 35663130,
  "user": {
    "login": "avibryant",
    "id": 9892,
    "avatar_url": "https://avatars.githubusercontent.com/u/9892?v=3",
    "gravatar_id": "",
    "url": "https://api.github.com/users/avibryant",
    "html_url": "https://github.com/avibryant",
    "followers_url": "https://api.github.com/users/avibryant/followers",
    "following_url": "https://api.github.com/users/avibryant/following{/other_user}",
    "gists_url": "https://api.github.com/users/avibryant/gists{/gist_id}",
    "starred_url": "https://api.github.com/users/avibryant/starred{/owner}{/repo}",
    "subscriptions_url": "https://api.github.com/users/avibryant/subscriptions",
    "organizations_url": "https://api.github.com/users/avibryant/orgs",
    "repos_url": "https://api.github.com/users/avibryant/repos",
    "events_url": "https://api.github.com/users/avibryant/events{/privacy}",
    "received_events_url": "https://api.github.com/users/avibryant/received_events",
    "type": "User",
    "site_admin": false
  },
  "created_at": "2014-02-20T20:06:48Z",
  "updated_at": "2014-02-20T20:06:48Z",
  "body": "I don't understand why this would be. What's the reasoning behind it? (In particular, it should still be true that if you have two sketchmaps, each maintaining N distinct heavy hitters, but where the N+1st would be the same for each of them, and you merge them, the correct answer would include that N+1st element in the heavy hitters list but the merge will not)."
}
, {
  "url": "https://api.github.com/repos/twitter/algebird/issues/comments/35664764",
  "html_url": "https://github.com/twitter/algebird/pull/267#issuecomment-35664764",
  "issue_url": "https://api.github.com/repos/twitter/algebird/issues/267",
  "id": 35664764,
  "user": {
    "login": "cheecheeo",
    "id": 175882,
    "avatar_url": "https://avatars.githubusercontent.com/u/175882?v=3",
    "gravatar_id": "",
    "url": "https://api.github.com/users/cheecheeo",
    "html_url": "https://github.com/cheecheeo",
    "followers_url": "https://api.github.com/users/cheecheeo/followers",
    "following_url": "https://api.github.com/users/cheecheeo/following{/other_user}",
    "gists_url": "https://api.github.com/users/cheecheeo/gists{/gist_id}",
    "starred_url": "https://api.github.com/users/cheecheeo/starred{/owner}{/repo}",
    "subscriptions_url": "https://api.github.com/users/cheecheeo/subscriptions",
    "organizations_url": "https://api.github.com/users/cheecheeo/orgs",
    "repos_url": "https://api.github.com/users/cheecheeo/repos",
    "events_url": "https://api.github.com/users/cheecheeo/events{/privacy}",
    "received_events_url": "https://api.github.com/users/cheecheeo/received_events",
    "type": "User",
    "site_admin": false
  },
  "created_at": "2014-02-20T20:24:05Z",
  "updated_at": "2014-02-20T20:24:05Z",
  "body": "The reasoning is for tie-breaking.\r\n\r\nMy understanding is that depending on the order of evaluation:\r\n\r\nList((\"a\", 3), (\"b\", 4)) + List((\"a\", 1), (\"c\", 4)) + List((\"a\", 1), (\"d\", 4))\r\n\r\nWill produce one of List((\"a\", 5), (\"b\", 4)) or List((\"a\", 5), (\"c\", 4)), with the ordering on the key, we will always get List((\"a\", 5), (\"b\", 4))"
}
, {
  "url": "https://api.github.com/repos/twitter/algebird/issues/comments/35671658",
  "html_url": "https://github.com/twitter/algebird/pull/267#issuecomment-35671658",
  "issue_url": "https://api.github.com/repos/twitter/algebird/issues/267",
  "id": 35671658,
  "user": {
    "login": "johnynek",
    "id": 67958,
    "avatar_url": "https://avatars.githubusercontent.com/u/67958?v=3",
    "gravatar_id": "",
    "url": "https://api.github.com/users/johnynek",
    "html_url": "https://github.com/johnynek",
    "followers_url": "https://api.github.com/users/johnynek/followers",
    "following_url": "https://api.github.com/users/johnynek/following{/other_user}",
    "gists_url": "https://api.github.com/users/johnynek/gists{/gist_id}",
    "starred_url": "https://api.github.com/users/johnynek/starred{/owner}{/repo}",
    "subscriptions_url": "https://api.github.com/users/johnynek/subscriptions",
    "organizations_url": "https://api.github.com/users/johnynek/orgs",
    "repos_url": "https://api.github.com/users/johnynek/repos",
    "events_url": "https://api.github.com/users/johnynek/events{/privacy}",
    "received_events_url": "https://api.github.com/users/johnynek/received_events",
    "type": "User",
    "site_admin": false
  },
  "created_at": "2014-02-20T21:34:21Z",
  "updated_at": "2014-02-20T21:34:21Z",
  "body": "It's not a monoid at all, the way we do the heavy hitters. Consider the heaviest hitter:\r\n\r\n`(a,1) + (b,2) + (a,1) + (c, 2) + (a, 1) + (d, 2)`\r\n\r\nThe winner should be a, but if we do:\r\n```\r\n((a,1) + (b,2)) + ((a,1) + (c, 2)) + ((a, 1) + (d, 2)) = \r\n(b,2) + (c, 2) + (d, 2) // heavy hitters only\r\n// but consider this ordering:\r\n(a,1) + (((b,2) + (a,1)) + ((c, 2) + (a, 1)) + (d, 2))) // when we add a, we will see that its count is the max\r\n```\r\nThe only way I know to resolve this is to use the algorithm in CountMinSketch, but people like that on less: keep all K with frequency > f * Total for some f. Clearly this keeps a max of at most 1/f keys, but maybe it keeps none, also."
}
, {
  "url": "https://api.github.com/repos/twitter/algebird/issues/comments/35682985",
  "html_url": "https://github.com/twitter/algebird/pull/267#issuecomment-35682985",
  "issue_url": "https://api.github.com/repos/twitter/algebird/issues/267",
  "id": 35682985,
  "user": {
    "login": "avibryant",
    "id": 9892,
    "avatar_url": "https://avatars.githubusercontent.com/u/9892?v=3",
    "gravatar_id": "",
    "url": "https://api.github.com/users/avibryant",
    "html_url": "https://github.com/avibryant",
    "followers_url": "https://api.github.com/users/avibryant/followers",
    "following_url": "https://api.github.com/users/avibryant/following{/other_user}",
    "gists_url": "https://api.github.com/users/avibryant/gists{/gist_id}",
    "starred_url": "https://api.github.com/users/avibryant/starred{/owner}{/repo}",
    "subscriptions_url": "https://api.github.com/users/avibryant/subscriptions",
    "organizations_url": "https://api.github.com/users/avibryant/orgs",
    "repos_url": "https://api.github.com/users/avibryant/repos",
    "events_url": "https://api.github.com/users/avibryant/events{/privacy}",
    "received_events_url": "https://api.github.com/users/avibryant/received_events",
    "type": "User",
    "site_admin": false
  },
  "created_at": "2014-02-20T23:36:09Z",
  "updated_at": "2014-02-20T23:36:09Z",
  "body": "Well, we could also use https://github.com/twitter/algebird/pull/259, which would not actually fix the problem, but would allow us to detect it when it occurs.\r\n\r\nI feel like the right solution here is to actually parameterize SketchMapMonoid to take a HeavyHittersMonoid, and we can provide multiple implementations with different approaches."
}
, {
  "url": "https://api.github.com/repos/twitter/algebird/issues/comments/35683219",
  "html_url": "https://github.com/twitter/algebird/pull/267#issuecomment-35683219",
  "issue_url": "https://api.github.com/repos/twitter/algebird/issues/267",
  "id": 35683219,
  "user": {
    "login": "cheecheeo",
    "id": 175882,
    "avatar_url": "https://avatars.githubusercontent.com/u/175882?v=3",
    "gravatar_id": "",
    "url": "https://api.github.com/users/cheecheeo",
    "html_url": "https://github.com/cheecheeo",
    "followers_url": "https://api.github.com/users/cheecheeo/followers",
    "following_url": "https://api.github.com/users/cheecheeo/following{/other_user}",
    "gists_url": "https://api.github.com/users/cheecheeo/gists{/gist_id}",
    "starred_url": "https://api.github.com/users/cheecheeo/starred{/owner}{/repo}",
    "subscriptions_url": "https://api.github.com/users/cheecheeo/subscriptions",
    "organizations_url": "https://api.github.com/users/cheecheeo/orgs",
    "repos_url": "https://api.github.com/users/cheecheeo/repos",
    "events_url": "https://api.github.com/users/cheecheeo/events{/privacy}",
    "received_events_url": "https://api.github.com/users/cheecheeo/received_events",
    "type": "User",
    "site_admin": false
  },
  "created_at": "2014-02-20T23:39:19Z",
  "updated_at": "2014-02-20T23:39:19Z",
  "body": "@johnynek thanks for the additional counterexamples.\r\n\r\n@avibryant that's another fine option."
}
]
