[
{
  "login": "mattpodwysocki",
  "id": 49051,
  "avatar_url": "https://avatars.githubusercontent.com/u/49051?v=3",
  "gravatar_id": "",
  "url": "https://api.github.com/users/mattpodwysocki",
  "html_url": "https://github.com/mattpodwysocki",
  "followers_url": "https://api.github.com/users/mattpodwysocki/followers",
  "following_url": "https://api.github.com/users/mattpodwysocki/following{/other_user}",
  "gists_url": "https://api.github.com/users/mattpodwysocki/gists{/gist_id}",
  "starred_url": "https://api.github.com/users/mattpodwysocki/starred{/owner}{/repo}",
  "subscriptions_url": "https://api.github.com/users/mattpodwysocki/subscriptions",
  "organizations_url": "https://api.github.com/users/mattpodwysocki/orgs",
  "repos_url": "https://api.github.com/users/mattpodwysocki/repos",
  "events_url": "https://api.github.com/users/mattpodwysocki/events{/privacy}",
  "received_events_url": "https://api.github.com/users/mattpodwysocki/received_events",
  "type": "User",
  "site_admin": false,
  "contributions": 5
}
]
