[
{
  "url": "https://api.github.com/repos/chef/omnibus/issues/comments/46918408",
  "html_url": "https://github.com/chef/omnibus/pull/206#issuecomment-46918408",
  "issue_url": "https://api.github.com/repos/chef/omnibus/issues/206",
  "id": 46918408,
  "user": {
    "login": "schisamo",
    "id": 6164,
    "avatar_url": "https://avatars.githubusercontent.com/u/6164?v=3",
    "gravatar_id": "",
    "url": "https://api.github.com/users/schisamo",
    "html_url": "https://github.com/schisamo",
    "followers_url": "https://api.github.com/users/schisamo/followers",
    "following_url": "https://api.github.com/users/schisamo/following{/other_user}",
    "gists_url": "https://api.github.com/users/schisamo/gists{/gist_id}",
    "starred_url": "https://api.github.com/users/schisamo/starred{/owner}{/repo}",
    "subscriptions_url": "https://api.github.com/users/schisamo/subscriptions",
    "organizations_url": "https://api.github.com/users/schisamo/orgs",
    "repos_url": "https://api.github.com/users/schisamo/repos",
    "events_url": "https://api.github.com/users/schisamo/events{/privacy}",
    "received_events_url": "https://api.github.com/users/schisamo/received_events",
    "type": "User",
    "site_admin": false
  },
  "created_at": "2014-06-24T00:17:37Z",
  "updated_at": "2014-06-24T00:17:37Z",
  "body": ":thumbsup: Great work! Nice to see this getting cleaned up."
}
]
