[
{
  "url": "https://api.github.com/repos/Microsoft/PTVS/issues/comments/106111400",
  "html_url": "https://github.com/Microsoft/PTVS/pull/265#issuecomment-106111400",
  "issue_url": "https://api.github.com/repos/Microsoft/PTVS/issues/265",
  "id": 106111400,
  "user": {
    "login": "zooba",
    "id": 1693688,
    "avatar_url": "https://avatars.githubusercontent.com/u/1693688?v=3",
    "gravatar_id": "",
    "url": "https://api.github.com/users/zooba",
    "html_url": "https://github.com/zooba",
    "followers_url": "https://api.github.com/users/zooba/followers",
    "following_url": "https://api.github.com/users/zooba/following{/other_user}",
    "gists_url": "https://api.github.com/users/zooba/gists{/gist_id}",
    "starred_url": "https://api.github.com/users/zooba/starred{/owner}{/repo}",
    "subscriptions_url": "https://api.github.com/users/zooba/subscriptions",
    "organizations_url": "https://api.github.com/users/zooba/orgs",
    "repos_url": "https://api.github.com/users/zooba/repos",
    "events_url": "https://api.github.com/users/zooba/events{/privacy}",
    "received_events_url": "https://api.github.com/users/zooba/received_events",
    "type": "User",
    "site_admin": false
  },
  "created_at": "2015-05-27T23:44:15Z",
  "updated_at": "2015-05-27T23:44:15Z",
  "body": "+1"
}
]
