[
{
  "url": "https://api.github.com/repos/Microsoft/PTVS/issues/comments/99180502",
  "html_url": "https://github.com/Microsoft/PTVS/issues/81#issuecomment-99180502",
  "issue_url": "https://api.github.com/repos/Microsoft/PTVS/issues/81",
  "id": 99180502,
  "user": {
    "login": "denfromufa",
    "id": 7870949,
    "avatar_url": "https://avatars.githubusercontent.com/u/7870949?v=3",
    "gravatar_id": "",
    "url": "https://api.github.com/users/denfromufa",
    "html_url": "https://github.com/denfromufa",
    "followers_url": "https://api.github.com/users/denfromufa/followers",
    "following_url": "https://api.github.com/users/denfromufa/following{/other_user}",
    "gists_url": "https://api.github.com/users/denfromufa/gists{/gist_id}",
    "starred_url": "https://api.github.com/users/denfromufa/starred{/owner}{/repo}",
    "subscriptions_url": "https://api.github.com/users/denfromufa/subscriptions",
    "organizations_url": "https://api.github.com/users/denfromufa/orgs",
    "repos_url": "https://api.github.com/users/denfromufa/repos",
    "events_url": "https://api.github.com/users/denfromufa/events{/privacy}",
    "received_events_url": "https://api.github.com/users/denfromufa/received_events",
    "type": "User",
    "site_admin": false
  },
  "created_at": "2015-05-05T18:52:53Z",
  "updated_at": "2015-05-05T18:52:53Z",
  "body": "Is this for debugger or REPL?"
}
, {
  "url": "https://api.github.com/repos/Microsoft/PTVS/issues/comments/99182118",
  "html_url": "https://github.com/Microsoft/PTVS/issues/81#issuecomment-99182118",
  "issue_url": "https://api.github.com/repos/Microsoft/PTVS/issues/81",
  "id": 99182118,
  "user": {
    "login": "zooba",
    "id": 1693688,
    "avatar_url": "https://avatars.githubusercontent.com/u/1693688?v=3",
    "gravatar_id": "",
    "url": "https://api.github.com/users/zooba",
    "html_url": "https://github.com/zooba",
    "followers_url": "https://api.github.com/users/zooba/followers",
    "following_url": "https://api.github.com/users/zooba/following{/other_user}",
    "gists_url": "https://api.github.com/users/zooba/gists{/gist_id}",
    "starred_url": "https://api.github.com/users/zooba/starred{/owner}{/repo}",
    "subscriptions_url": "https://api.github.com/users/zooba/subscriptions",
    "organizations_url": "https://api.github.com/users/zooba/orgs",
    "repos_url": "https://api.github.com/users/zooba/repos",
    "events_url": "https://api.github.com/users/zooba/events{/privacy}",
    "received_events_url": "https://api.github.com/users/zooba/received_events",
    "type": "User",
    "site_admin": false
  },
  "created_at": "2015-05-05T18:58:46Z",
  "updated_at": "2015-05-05T18:58:46Z",
  "body": "Good question. Probably REPL initially, and then it's pretty easy to hook it up to the debug REPL which will cover debugging (could actually be totally trivial to hook it up if it's done right)."
}
, {
  "url": "https://api.github.com/repos/Microsoft/PTVS/issues/comments/99819557",
  "html_url": "https://github.com/Microsoft/PTVS/issues/81#issuecomment-99819557",
  "issue_url": "https://api.github.com/repos/Microsoft/PTVS/issues/81",
  "id": 99819557,
  "user": {
    "login": "houz42",
    "id": 4497443,
    "avatar_url": "https://avatars.githubusercontent.com/u/4497443?v=3",
    "gravatar_id": "",
    "url": "https://api.github.com/users/houz42",
    "html_url": "https://github.com/houz42",
    "followers_url": "https://api.github.com/users/houz42/followers",
    "following_url": "https://api.github.com/users/houz42/following{/other_user}",
    "gists_url": "https://api.github.com/users/houz42/gists{/gist_id}",
    "starred_url": "https://api.github.com/users/houz42/starred{/owner}{/repo}",
    "subscriptions_url": "https://api.github.com/users/houz42/subscriptions",
    "organizations_url": "https://api.github.com/users/houz42/orgs",
    "repos_url": "https://api.github.com/users/houz42/repos",
    "events_url": "https://api.github.com/users/houz42/events{/privacy}",
    "received_events_url": "https://api.github.com/users/houz42/received_events",
    "type": "User",
    "site_admin": false
  },
  "created_at": "2015-05-07T11:20:01Z",
  "updated_at": "2015-05-07T11:35:21Z",
  "body": "Then PTVS would be the best choice for scientific computing python environment. \r\n\r\nSo... When could we see this?..."
}
, {
  "url": "https://api.github.com/repos/Microsoft/PTVS/issues/comments/134663356",
  "html_url": "https://github.com/Microsoft/PTVS/issues/81#issuecomment-134663356",
  "issue_url": "https://api.github.com/repos/Microsoft/PTVS/issues/81",
  "id": 134663356,
  "user": {
    "login": "zooba",
    "id": 1693688,
    "avatar_url": "https://avatars.githubusercontent.com/u/1693688?v=3",
    "gravatar_id": "",
    "url": "https://api.github.com/users/zooba",
    "html_url": "https://github.com/zooba",
    "followers_url": "https://api.github.com/users/zooba/followers",
    "following_url": "https://api.github.com/users/zooba/following{/other_user}",
    "gists_url": "https://api.github.com/users/zooba/gists{/gist_id}",
    "starred_url": "https://api.github.com/users/zooba/starred{/owner}{/repo}",
    "subscriptions_url": "https://api.github.com/users/zooba/subscriptions",
    "organizations_url": "https://api.github.com/users/zooba/orgs",
    "repos_url": "https://api.github.com/users/zooba/repos",
    "events_url": "https://api.github.com/users/zooba/events{/privacy}",
    "received_events_url": "https://api.github.com/users/zooba/received_events",
    "type": "User",
    "site_admin": false
  },
  "created_at": "2015-08-25T16:32:58Z",
  "updated_at": "2015-08-27T23:08:50Z",
  "body": "Some implementation notes I came up with while thinking about this (note: not real code):\r\n\r\nAdd Variable Window for \"Watch\"-like functionality when not debugging.\r\nAdd Data Visualizers for pop-out value watch (modeless debug visualizers)\r\n\r\n```csharp\r\n// a MEF contract\r\ninterface IVariableSessionProvider {\r\n    IEnumerable<IVariableSession> GetSessions();\r\n    event OnNewSession;\r\n}\r\n\r\ninterface IVariableSession {\r\n    string SessionName;\r\n    Task<IVariableCollection> GetVariablesAsync();\r\n    Task<IVariable> GetExpressionAsync(string);\r\n    event OnVariablesChanged; // (includes specific change details)\r\n    event OnEndSession;\r\n}\r\n\r\ninterface IVariable {\r\n    string DisplayType;\r\n    string Expression; // - only settable if obtained from GetExpression()\r\n    bool IsReadOnly;\r\n    Task SetValueAsync(string valueExpression);\r\n    Task<IVariableCollection> GetChildrenAsync();\r\n    Task<string> ToPlainTextAsync(int maxLength=-1);\r\n    event OnValueChanged;\r\n    event OnVariableDestroyed;\r\n}\r\n\r\ninterface IVariableCollection {\r\n    Task<IVariable> GetAsync(int index);\r\n    Task<ICollection<IVariable>> GetManyAsync(int firstIndex, int count);\r\n    int Count;\r\n}\r\n\r\n// a MEF contract\r\ninterface IVariableViewProvider {\r\n    string DisplayName;\r\n    int Priority;\r\n    Task<bool> IsApplicableAsync(IVariable);\r\n    Task<UIElement> GetUIElementAsync(IVariable, Size bounds);\r\n}\r\n```\r\n\r\nA session provider may be something like:\r\n* The debugger\r\n* Python REPL provider\r\n* Other REPL providers\r\n\r\nA session may be something like:\r\n* Each stack frame (or just the current stack frame)\r\n* Each active REPL\r\n\r\n`IVariable` instances are displayed in the variable window as small, non-interactive views, initially clamped to one line of text high, with an \"expand\" button for extra height.\r\n\r\nThe variable collection is expected to be virtualized, and will only be enumerated far enough to satisfy the list. However, its `Count` property needs to be valid. (Same applies for `GetChildrenAsync`.)\r\n\r\nThe Variable Window allows values to be popped out into Data Visualizers - probably always via `GetExpression`. `IVariable` instances are displayed in Data Visualizers as resizable, interactive views, and expressions can be edited. When the variable is no longer valid (because the session is closed, or whatever conditions the session determines), `OnVariableDestroyed` is raised and the visualizer is invalidated.\r\n\r\n`IVariable.SetValueAsync` is used when the user updates the entire expression, for example, through the Variables Window. Changes made via an interactive aspect in a Data Visualizer should be handled by the visualizer implementation and not through this method.\r\n\r\nWhen `OnValueChanged` is raised, it implies that view providers needs to be reevaluated and `GetUIElement` called again. Interactions handled by the UIElement do not need to re-raise the event.\r\n"
}
, {
  "url": "https://api.github.com/repos/Microsoft/PTVS/issues/comments/135577653",
  "html_url": "https://github.com/Microsoft/PTVS/issues/81#issuecomment-135577653",
  "issue_url": "https://api.github.com/repos/Microsoft/PTVS/issues/81",
  "id": 135577653,
  "user": {
    "login": "zooba",
    "id": 1693688,
    "avatar_url": "https://avatars.githubusercontent.com/u/1693688?v=3",
    "gravatar_id": "",
    "url": "https://api.github.com/users/zooba",
    "html_url": "https://github.com/zooba",
    "followers_url": "https://api.github.com/users/zooba/followers",
    "following_url": "https://api.github.com/users/zooba/following{/other_user}",
    "gists_url": "https://api.github.com/users/zooba/gists{/gist_id}",
    "starred_url": "https://api.github.com/users/zooba/starred{/owner}{/repo}",
    "subscriptions_url": "https://api.github.com/users/zooba/subscriptions",
    "organizations_url": "https://api.github.com/users/zooba/orgs",
    "repos_url": "https://api.github.com/users/zooba/repos",
    "events_url": "https://api.github.com/users/zooba/events{/privacy}",
    "received_events_url": "https://api.github.com/users/zooba/received_events",
    "type": "User",
    "site_admin": false
  },
  "created_at": "2015-08-27T22:56:21Z",
  "updated_at": "2015-08-27T23:09:07Z",
  "body": "We may want to include a shared interface like this, so that views have some common infrastructure for types they don't already know about.:\r\n\r\n```csharp\r\ninterface IVariableData : IVariable {\r\n    string ContentType;\r\n    Encoding ContentEncoding;\r\n    Task<byte[]> GetDataAsync();\r\n}\r\n```"
}
, {
  "url": "https://api.github.com/repos/Microsoft/PTVS/issues/comments/136817346",
  "html_url": "https://github.com/Microsoft/PTVS/issues/81#issuecomment-136817346",
  "issue_url": "https://api.github.com/repos/Microsoft/PTVS/issues/81",
  "id": 136817346,
  "user": {
    "login": "int19h",
    "id": 1175142,
    "avatar_url": "https://avatars.githubusercontent.com/u/1175142?v=3",
    "gravatar_id": "",
    "url": "https://api.github.com/users/int19h",
    "html_url": "https://github.com/int19h",
    "followers_url": "https://api.github.com/users/int19h/followers",
    "following_url": "https://api.github.com/users/int19h/following{/other_user}",
    "gists_url": "https://api.github.com/users/int19h/gists{/gist_id}",
    "starred_url": "https://api.github.com/users/int19h/starred{/owner}{/repo}",
    "subscriptions_url": "https://api.github.com/users/int19h/subscriptions",
    "organizations_url": "https://api.github.com/users/int19h/orgs",
    "repos_url": "https://api.github.com/users/int19h/repos",
    "events_url": "https://api.github.com/users/int19h/events{/privacy}",
    "received_events_url": "https://api.github.com/users/int19h/received_events",
    "type": "User",
    "site_admin": false
  },
  "created_at": "2015-09-01T18:19:05Z",
  "updated_at": "2015-09-01T18:19:05Z",
  "body": "For `GetDataAsync`, I would prefer that it returned a `Stream` instead. Reasons:\r\n\r\n- Avoid mandatory copying, since with `byte[]` the caller can then modify the array. If it's a stream, multiple streams can be created over the same backing data. If caller absolutely needs an array, they can do the copy themselves, and no-one else pays the cost of it.\r\n\r\n- Avoid copying altogether if the data is present in that exact format in the debuggee. In this case the stream implementation can lazily load data as requested. \r\n\r\n- Most parsers expect a stream or a text reader as input, anyway. So in most cases caller will just take that array and wrap it into a `MemoryStream`.\r\n\r\n - Conversely, it doesn't make the baseline implementation any harder, because it can do the same exact thing if all it has is a bunch of bytes.\r\n"
}
, {
  "url": "https://api.github.com/repos/Microsoft/PTVS/issues/comments/136820230",
  "html_url": "https://github.com/Microsoft/PTVS/issues/81#issuecomment-136820230",
  "issue_url": "https://api.github.com/repos/Microsoft/PTVS/issues/81",
  "id": 136820230,
  "user": {
    "login": "int19h",
    "id": 1175142,
    "avatar_url": "https://avatars.githubusercontent.com/u/1175142?v=3",
    "gravatar_id": "",
    "url": "https://api.github.com/users/int19h",
    "html_url": "https://github.com/int19h",
    "followers_url": "https://api.github.com/users/int19h/followers",
    "following_url": "https://api.github.com/users/int19h/following{/other_user}",
    "gists_url": "https://api.github.com/users/int19h/gists{/gist_id}",
    "starred_url": "https://api.github.com/users/int19h/starred{/owner}{/repo}",
    "subscriptions_url": "https://api.github.com/users/int19h/subscriptions",
    "organizations_url": "https://api.github.com/users/int19h/orgs",
    "repos_url": "https://api.github.com/users/int19h/repos",
    "events_url": "https://api.github.com/users/int19h/events{/privacy}",
    "received_events_url": "https://api.github.com/users/int19h/received_events",
    "type": "User",
    "site_admin": false
  },
  "created_at": "2015-09-01T18:26:47Z",
  "updated_at": "2015-09-01T18:26:47Z",
  "body": "Here's another interesting aspect. For plots, we've discussed the need to have a switch that would make the plot visualizer \"detached\" from the mutable state, such that it no longer reflects any changes - I'm going to refer to this as \"snapshotting\" from here on. Now, since we've also decided to use the same universal visualizer toolwindow for plots and grids (and other stuff like images), it makes sense that the snapshot functionality is a top-level feature in that visualizer, probably a toolbar button or some such.\r\n\r\nNow the question becomes: how do we implement snapshotting for visualizers that lazily load data? In particular, grid is in that position. If the user decides to snapshot it, it somehow needs to acquire the snapshot of the data backing it; otherwise, when the original context goes away, scrolling stops working. \r\n\r\nThis can be done on a case-by-case basis with different types of views. E.g. if we have a view interface for 2D data, we could also have an implementation of it that takes another instance and snapshots it. But it feels like this would have to be manually repeated whenever we need it, even though the functionality really is common.\r\n\r\nAlternatively, we can change the interface for variables to allow creation of snapshots. Basically, a snapshot of a variable is another variable that guarantees that the data backing it will not suddenly go away (the precise definition of \"suddenly\" here is something that's dialable - e.g. if we say that it can go away at the end of debug session or at REPL reset, the implementation can just make a copy inside of debuggee, instead of transmitting all that data to debugger over the wire). The tricky part here is specifying the semantics of snapshotting with respect to other objects, i.e. `GetChildrenAsync`. This would either be disabled, which would complicate visualizer code since it can't treat snapshot the same; or else `GetSnapshot` would have to allow the caller to specify whether and which children are included. "
}
, {
  "url": "https://api.github.com/repos/Microsoft/PTVS/issues/comments/136831979",
  "html_url": "https://github.com/Microsoft/PTVS/issues/81#issuecomment-136831979",
  "issue_url": "https://api.github.com/repos/Microsoft/PTVS/issues/81",
  "id": 136831979,
  "user": {
    "login": "zooba",
    "id": 1693688,
    "avatar_url": "https://avatars.githubusercontent.com/u/1693688?v=3",
    "gravatar_id": "",
    "url": "https://api.github.com/users/zooba",
    "html_url": "https://github.com/zooba",
    "followers_url": "https://api.github.com/users/zooba/followers",
    "following_url": "https://api.github.com/users/zooba/following{/other_user}",
    "gists_url": "https://api.github.com/users/zooba/gists{/gist_id}",
    "starred_url": "https://api.github.com/users/zooba/starred{/owner}{/repo}",
    "subscriptions_url": "https://api.github.com/users/zooba/subscriptions",
    "organizations_url": "https://api.github.com/users/zooba/orgs",
    "repos_url": "https://api.github.com/users/zooba/repos",
    "events_url": "https://api.github.com/users/zooba/events{/privacy}",
    "received_events_url": "https://api.github.com/users/zooba/received_events",
    "type": "User",
    "site_admin": false
  },
  "created_at": "2015-09-01T19:17:05Z",
  "updated_at": "2015-09-01T19:17:05Z",
  "body": "Agreed on `GetDataAsync`.\r\n\r\nFor snapshotting, I think that's going on behind these interfaces through some agreement between the visualizer and the variable session. Since that's where the lazy data acquisition is implemented, it really needs to be the place to make that eager and retained in memory. I don't think it's actually common to all visualizers (if the debuggee terminates, how do we use matplotlib to regenerate the plot from raw data? We can't - it needs to generate a full plot before terminating, whereas the table needs to acquire all the data before terminating).\r\n\r\nWhat we may want to provide here though is some way to flow that setting into custom visualizers. Maybe this could also be an attached property that is available to the UIElement after it's put into the parent control? We'll probably also need to provide commands (export/reset/etc.) that bubble up via the custom UI so that they can be overridden by custom UI, so maybe this is a \"get all state and detach\" command. That way we can also prevent the `VariableDestroyed` event from disabling the UI (but I'm thinking we may just disable expression modification on that and let the UI disable itself if it can't remain interactive without the actual variable existing)."
}
, {
  "url": "https://api.github.com/repos/Microsoft/PTVS/issues/comments/138394271",
  "html_url": "https://github.com/Microsoft/PTVS/issues/81#issuecomment-138394271",
  "issue_url": "https://api.github.com/repos/Microsoft/PTVS/issues/81",
  "id": 138394271,
  "user": {
    "login": "alexranaldi",
    "id": 14004625,
    "avatar_url": "https://avatars.githubusercontent.com/u/14004625?v=3",
    "gravatar_id": "",
    "url": "https://api.github.com/users/alexranaldi",
    "html_url": "https://github.com/alexranaldi",
    "followers_url": "https://api.github.com/users/alexranaldi/followers",
    "following_url": "https://api.github.com/users/alexranaldi/following{/other_user}",
    "gists_url": "https://api.github.com/users/alexranaldi/gists{/gist_id}",
    "starred_url": "https://api.github.com/users/alexranaldi/starred{/owner}{/repo}",
    "subscriptions_url": "https://api.github.com/users/alexranaldi/subscriptions",
    "organizations_url": "https://api.github.com/users/alexranaldi/orgs",
    "repos_url": "https://api.github.com/users/alexranaldi/repos",
    "events_url": "https://api.github.com/users/alexranaldi/events{/privacy}",
    "received_events_url": "https://api.github.com/users/alexranaldi/received_events",
    "type": "User",
    "site_admin": false
  },
  "created_at": "2015-09-08T00:04:10Z",
  "updated_at": "2015-09-08T00:04:10Z",
  "body": "I was just going to file an issue for this, but I found this one.  Having the \"Autos\" window and \"Call stack\" window work outside of debugging (for example, with a given interactive console) is critical IMHO."
}
, {
  "url": "https://api.github.com/repos/Microsoft/PTVS/issues/comments/138734047",
  "html_url": "https://github.com/Microsoft/PTVS/issues/81#issuecomment-138734047",
  "issue_url": "https://api.github.com/repos/Microsoft/PTVS/issues/81",
  "id": 138734047,
  "user": {
    "login": "int19h",
    "id": 1175142,
    "avatar_url": "https://avatars.githubusercontent.com/u/1175142?v=3",
    "gravatar_id": "",
    "url": "https://api.github.com/users/int19h",
    "html_url": "https://github.com/int19h",
    "followers_url": "https://api.github.com/users/int19h/followers",
    "following_url": "https://api.github.com/users/int19h/following{/other_user}",
    "gists_url": "https://api.github.com/users/int19h/gists{/gist_id}",
    "starred_url": "https://api.github.com/users/int19h/starred{/owner}{/repo}",
    "subscriptions_url": "https://api.github.com/users/int19h/subscriptions",
    "organizations_url": "https://api.github.com/users/int19h/orgs",
    "repos_url": "https://api.github.com/users/int19h/repos",
    "events_url": "https://api.github.com/users/int19h/events{/privacy}",
    "received_events_url": "https://api.github.com/users/int19h/received_events",
    "type": "User",
    "site_admin": false
  },
  "created_at": "2015-09-08T23:55:23Z",
  "updated_at": "2015-09-08T23:56:06Z",
  "body": "One thing of note. The equivalent in RStudio has grouping according to the (broadly defined) type of variable, separating them into values and functions:\r\n\r\n![image](https://cloud.githubusercontent.com/assets/1175142/9750233/dea855ce-5649-11e5-834f-516741f68379.png)\r\n\r\nThis might be handy to have for Python as well, especially in global/REPL scope, where it's common to have a lot of variables. Generally speaking, function-typed variables are not as interesting, as well as types and imported modules, and segregating them like that (and putting \"Values\" on top) would emphasize that. Right now a typical view of Locals in the global scope of script after it had imported a bunch of modules and defined some functions is not exactly pretty; and REPL after `$attach` is even less so.\r\n\r\nSpeaking more generically, we can define the notion of category for variables (e.g. values, types, functions and modules for Python), and add UI to Variable Explorer to enable grouping by it. Other languages can then define it in ways more appropriate to them.\r\n"
}
]
