[
{
  "url": "https://api.github.com/repos/google/error-prone/issues/comments/61285919",
  "html_url": "https://github.com/google/error-prone/issues/222#issuecomment-61285919",
  "issue_url": "https://api.github.com/repos/google/error-prone/issues/222",
  "id": 61285919,
  "user": {
    "login": "cushon",
    "id": 478458,
    "avatar_url": "https://avatars.githubusercontent.com/u/478458?v=3",
    "gravatar_id": "",
    "url": "https://api.github.com/users/cushon",
    "html_url": "https://github.com/cushon",
    "followers_url": "https://api.github.com/users/cushon/followers",
    "following_url": "https://api.github.com/users/cushon/following{/other_user}",
    "gists_url": "https://api.github.com/users/cushon/gists{/gist_id}",
    "starred_url": "https://api.github.com/users/cushon/starred{/owner}{/repo}",
    "subscriptions_url": "https://api.github.com/users/cushon/subscriptions",
    "organizations_url": "https://api.github.com/users/cushon/orgs",
    "repos_url": "https://api.github.com/users/cushon/repos",
    "events_url": "https://api.github.com/users/cushon/events{/privacy}",
    "received_events_url": "https://api.github.com/users/cushon/received_events",
    "type": "User",
    "site_admin": false
  },
  "created_at": "2014-10-31T16:18:30Z",
  "updated_at": "2014-10-31T16:18:30Z",
  "body": "_[Original comment](https://code.google.com/p/error-prone/issues/detail?id=222#c1) posted by **amshali@google.com** on 2013-12-17 at 02:37 AM_\n\n---\n\nThanks for the bug report. Will fix soon.\n\n---\n\n**Status:** Accepted\n**Owner:** amshali@google.com\n"
}
, {
  "url": "https://api.github.com/repos/google/error-prone/issues/comments/61286279",
  "html_url": "https://github.com/google/error-prone/issues/222#issuecomment-61286279",
  "issue_url": "https://api.github.com/repos/google/error-prone/issues/222",
  "id": 61286279,
  "user": {
    "login": "cushon",
    "id": 478458,
    "avatar_url": "https://avatars.githubusercontent.com/u/478458?v=3",
    "gravatar_id": "",
    "url": "https://api.github.com/users/cushon",
    "html_url": "https://github.com/cushon",
    "followers_url": "https://api.github.com/users/cushon/followers",
    "following_url": "https://api.github.com/users/cushon/following{/other_user}",
    "gists_url": "https://api.github.com/users/cushon/gists{/gist_id}",
    "starred_url": "https://api.github.com/users/cushon/starred{/owner}{/repo}",
    "subscriptions_url": "https://api.github.com/users/cushon/subscriptions",
    "organizations_url": "https://api.github.com/users/cushon/orgs",
    "repos_url": "https://api.github.com/users/cushon/repos",
    "events_url": "https://api.github.com/users/cushon/events{/privacy}",
    "received_events_url": "https://api.github.com/users/cushon/received_events",
    "type": "User",
    "site_admin": false
  },
  "created_at": "2014-10-31T16:20:31Z",
  "updated_at": "2014-10-31T16:20:31Z",
  "body": "_[Original comment](https://code.google.com/p/error-prone/issues/detail?id=222#c2) posted by **eaftan@google.com** on 2014-03-04 at 01:00 AM_\n\n---\n\nAmin, have you had a chance to look at this?"
}
, {
  "url": "https://api.github.com/repos/google/error-prone/issues/comments/61286289",
  "html_url": "https://github.com/google/error-prone/issues/222#issuecomment-61286289",
  "issue_url": "https://api.github.com/repos/google/error-prone/issues/222",
  "id": 61286289,
  "user": {
    "login": "cushon",
    "id": 478458,
    "avatar_url": "https://avatars.githubusercontent.com/u/478458?v=3",
    "gravatar_id": "",
    "url": "https://api.github.com/users/cushon",
    "html_url": "https://github.com/cushon",
    "followers_url": "https://api.github.com/users/cushon/followers",
    "following_url": "https://api.github.com/users/cushon/following{/other_user}",
    "gists_url": "https://api.github.com/users/cushon/gists{/gist_id}",
    "starred_url": "https://api.github.com/users/cushon/starred{/owner}{/repo}",
    "subscriptions_url": "https://api.github.com/users/cushon/subscriptions",
    "organizations_url": "https://api.github.com/users/cushon/orgs",
    "repos_url": "https://api.github.com/users/cushon/repos",
    "events_url": "https://api.github.com/users/cushon/events{/privacy}",
    "received_events_url": "https://api.github.com/users/cushon/received_events",
    "type": "User",
    "site_admin": false
  },
  "created_at": "2014-10-31T16:20:36Z",
  "updated_at": "2014-10-31T16:20:36Z",
  "body": "_[Original comment](https://code.google.com/p/error-prone/issues/detail?id=222#c3) posted by **amshali@google.com** on 2014-03-04 at 01:04 AM_\n\n---\n\nNo, but I will by the end of this week. Unless this is it is urgent, then\nsomeone else must take over because I am very busy right now.\n\n\n\nΛMIN シ | Grok Team | amshali@ &lt;amshali@google.com> | Google Inc."
}
, {
  "url": "https://api.github.com/repos/google/error-prone/issues/comments/61286300",
  "html_url": "https://github.com/google/error-prone/issues/222#issuecomment-61286300",
  "issue_url": "https://api.github.com/repos/google/error-prone/issues/222",
  "id": 61286300,
  "user": {
    "login": "cushon",
    "id": 478458,
    "avatar_url": "https://avatars.githubusercontent.com/u/478458?v=3",
    "gravatar_id": "",
    "url": "https://api.github.com/users/cushon",
    "html_url": "https://github.com/cushon",
    "followers_url": "https://api.github.com/users/cushon/followers",
    "following_url": "https://api.github.com/users/cushon/following{/other_user}",
    "gists_url": "https://api.github.com/users/cushon/gists{/gist_id}",
    "starred_url": "https://api.github.com/users/cushon/starred{/owner}{/repo}",
    "subscriptions_url": "https://api.github.com/users/cushon/subscriptions",
    "organizations_url": "https://api.github.com/users/cushon/orgs",
    "repos_url": "https://api.github.com/users/cushon/repos",
    "events_url": "https://api.github.com/users/cushon/events{/privacy}",
    "received_events_url": "https://api.github.com/users/cushon/received_events",
    "type": "User",
    "site_admin": false
  },
  "created_at": "2014-10-31T16:20:38Z",
  "updated_at": "2014-10-31T16:20:38Z",
  "body": "_[Original comment](https://code.google.com/p/error-prone/issues/detail?id=222#c4) posted by **eaftan@google.com** on 2014-03-04 at 04:16 AM_\n\n---\n\nThat's fine, no rush."
}
, {
  "url": "https://api.github.com/repos/google/error-prone/issues/comments/61286369",
  "html_url": "https://github.com/google/error-prone/issues/222#issuecomment-61286369",
  "issue_url": "https://api.github.com/repos/google/error-prone/issues/222",
  "id": 61286369,
  "user": {
    "login": "cushon",
    "id": 478458,
    "avatar_url": "https://avatars.githubusercontent.com/u/478458?v=3",
    "gravatar_id": "",
    "url": "https://api.github.com/users/cushon",
    "html_url": "https://github.com/cushon",
    "followers_url": "https://api.github.com/users/cushon/followers",
    "following_url": "https://api.github.com/users/cushon/following{/other_user}",
    "gists_url": "https://api.github.com/users/cushon/gists{/gist_id}",
    "starred_url": "https://api.github.com/users/cushon/starred{/owner}{/repo}",
    "subscriptions_url": "https://api.github.com/users/cushon/subscriptions",
    "organizations_url": "https://api.github.com/users/cushon/orgs",
    "repos_url": "https://api.github.com/users/cushon/repos",
    "events_url": "https://api.github.com/users/cushon/events{/privacy}",
    "received_events_url": "https://api.github.com/users/cushon/received_events",
    "type": "User",
    "site_admin": false
  },
  "created_at": "2014-10-31T16:20:55Z",
  "updated_at": "2014-10-31T16:20:55Z",
  "body": "_[Original comment](https://code.google.com/p/error-prone/issues/detail?id=222#c5) posted by **amshali@google.com** on 2014-03-21 at 12:03 AM_\n\n---\n\nFix on its way."
}
, {
  "url": "https://api.github.com/repos/google/error-prone/issues/comments/61286374",
  "html_url": "https://github.com/google/error-prone/issues/222#issuecomment-61286374",
  "issue_url": "https://api.github.com/repos/google/error-prone/issues/222",
  "id": 61286374,
  "user": {
    "login": "cushon",
    "id": 478458,
    "avatar_url": "https://avatars.githubusercontent.com/u/478458?v=3",
    "gravatar_id": "",
    "url": "https://api.github.com/users/cushon",
    "html_url": "https://github.com/cushon",
    "followers_url": "https://api.github.com/users/cushon/followers",
    "following_url": "https://api.github.com/users/cushon/following{/other_user}",
    "gists_url": "https://api.github.com/users/cushon/gists{/gist_id}",
    "starred_url": "https://api.github.com/users/cushon/starred{/owner}{/repo}",
    "subscriptions_url": "https://api.github.com/users/cushon/subscriptions",
    "organizations_url": "https://api.github.com/users/cushon/orgs",
    "repos_url": "https://api.github.com/users/cushon/repos",
    "events_url": "https://api.github.com/users/cushon/events{/privacy}",
    "received_events_url": "https://api.github.com/users/cushon/received_events",
    "type": "User",
    "site_admin": false
  },
  "created_at": "2014-10-31T16:20:58Z",
  "updated_at": "2014-10-31T16:20:58Z",
  "body": "_[Original comment](https://code.google.com/p/error-prone/issues/detail?id=222#c6) posted by **amshali@google.com** on 2014-03-25 at 01:24 AM_\n\n---\n\nThis issue was closed by revision a1a18e98a13b.\n\n---\n\n**Status:** Fixed\n"
}
, {
  "url": "https://api.github.com/repos/google/error-prone/issues/comments/61286382",
  "html_url": "https://github.com/google/error-prone/issues/222#issuecomment-61286382",
  "issue_url": "https://api.github.com/repos/google/error-prone/issues/222",
  "id": 61286382,
  "user": {
    "login": "cushon",
    "id": 478458,
    "avatar_url": "https://avatars.githubusercontent.com/u/478458?v=3",
    "gravatar_id": "",
    "url": "https://api.github.com/users/cushon",
    "html_url": "https://github.com/cushon",
    "followers_url": "https://api.github.com/users/cushon/followers",
    "following_url": "https://api.github.com/users/cushon/following{/other_user}",
    "gists_url": "https://api.github.com/users/cushon/gists{/gist_id}",
    "starred_url": "https://api.github.com/users/cushon/starred{/owner}{/repo}",
    "subscriptions_url": "https://api.github.com/users/cushon/subscriptions",
    "organizations_url": "https://api.github.com/users/cushon/orgs",
    "repos_url": "https://api.github.com/users/cushon/repos",
    "events_url": "https://api.github.com/users/cushon/events{/privacy}",
    "received_events_url": "https://api.github.com/users/cushon/received_events",
    "type": "User",
    "site_admin": false
  },
  "created_at": "2014-10-31T16:21:00Z",
  "updated_at": "2014-10-31T16:21:00Z",
  "body": "_[Original comment](https://code.google.com/p/error-prone/issues/detail?id=222#c7) posted by **amshali@google.com** on 2014-03-25 at 06:03 PM_\n\n---\n\nThank you for your elaborate bug report. I used your provided test data to make sure we are doing the right thing. \nIf you could, please verify that this works for you. "
}
]
