[
{
  "url": "https://api.github.com/repos/google/error-prone/issues/comments/61286737",
  "html_url": "https://github.com/google/error-prone/issues/253#issuecomment-61286737",
  "issue_url": "https://api.github.com/repos/google/error-prone/issues/253",
  "id": 61286737,
  "user": {
    "login": "cushon",
    "id": 478458,
    "avatar_url": "https://avatars.githubusercontent.com/u/478458?v=3",
    "gravatar_id": "",
    "url": "https://api.github.com/users/cushon",
    "html_url": "https://github.com/cushon",
    "followers_url": "https://api.github.com/users/cushon/followers",
    "following_url": "https://api.github.com/users/cushon/following{/other_user}",
    "gists_url": "https://api.github.com/users/cushon/gists{/gist_id}",
    "starred_url": "https://api.github.com/users/cushon/starred{/owner}{/repo}",
    "subscriptions_url": "https://api.github.com/users/cushon/subscriptions",
    "organizations_url": "https://api.github.com/users/cushon/orgs",
    "repos_url": "https://api.github.com/users/cushon/repos",
    "events_url": "https://api.github.com/users/cushon/events{/privacy}",
    "received_events_url": "https://api.github.com/users/cushon/received_events",
    "type": "User",
    "site_admin": false
  },
  "created_at": "2014-10-31T16:22:42Z",
  "updated_at": "2014-10-31T16:22:42Z",
  "body": "_[Original comment](https://code.google.com/p/error-prone/issues/detail?id=253#c1) posted by **eaftan@google.com** on 2014-08-22 at 05:43 PM_\n\n---\n\nWe've been thinking about these rawtypes problems, and we feel that if we as a company really want to address these problems, we should probably do something principled and come up with a coherent plan, rather than addressing subproblems individually.  I filed an internal bug and CCed you.\n\n---\n\n**Status:** WontFix\n"
}
]
