[
{
  "url": "https://api.github.com/repos/owncloud/activity/issues/comments/148705867",
  "html_url": "https://github.com/owncloud/activity/pull/416#issuecomment-148705867",
  "issue_url": "https://api.github.com/repos/owncloud/activity/issues/416",
  "id": 148705867,
  "user": {
    "login": "karlitschek",
    "id": 867445,
    "avatar_url": "https://avatars.githubusercontent.com/u/867445?v=3",
    "gravatar_id": "",
    "url": "https://api.github.com/users/karlitschek",
    "html_url": "https://github.com/karlitschek",
    "followers_url": "https://api.github.com/users/karlitschek/followers",
    "following_url": "https://api.github.com/users/karlitschek/following{/other_user}",
    "gists_url": "https://api.github.com/users/karlitschek/gists{/gist_id}",
    "starred_url": "https://api.github.com/users/karlitschek/starred{/owner}{/repo}",
    "subscriptions_url": "https://api.github.com/users/karlitschek/subscriptions",
    "organizations_url": "https://api.github.com/users/karlitschek/orgs",
    "repos_url": "https://api.github.com/users/karlitschek/repos",
    "events_url": "https://api.github.com/users/karlitschek/events{/privacy}",
    "received_events_url": "https://api.github.com/users/karlitschek/received_events",
    "type": "User",
    "site_admin": false
  },
  "created_at": "2015-10-16T12:39:31Z",
  "updated_at": "2015-10-16T12:39:31Z",
  "body": "good :+1: "
}
]
