[
{
  "url": "https://api.github.com/repos/Microsoft/ChakraCore/issues/comments/171463026",
  "html_url": "https://github.com/Microsoft/ChakraCore/pull/81#issuecomment-171463026",
  "issue_url": "https://api.github.com/repos/Microsoft/ChakraCore/issues/81",
  "id": 171463026,
  "user": {
    "login": "msftclas",
    "id": 9287708,
    "avatar_url": "https://avatars.githubusercontent.com/u/9287708?v=3",
    "gravatar_id": "",
    "url": "https://api.github.com/users/msftclas",
    "html_url": "https://github.com/msftclas",
    "followers_url": "https://api.github.com/users/msftclas/followers",
    "following_url": "https://api.github.com/users/msftclas/following{/other_user}",
    "gists_url": "https://api.github.com/users/msftclas/gists{/gist_id}",
    "starred_url": "https://api.github.com/users/msftclas/starred{/owner}{/repo}",
    "subscriptions_url": "https://api.github.com/users/msftclas/subscriptions",
    "organizations_url": "https://api.github.com/users/msftclas/orgs",
    "repos_url": "https://api.github.com/users/msftclas/repos",
    "events_url": "https://api.github.com/users/msftclas/events{/privacy}",
    "received_events_url": "https://api.github.com/users/msftclas/received_events",
    "type": "User",
    "site_admin": false
  },
  "created_at": "2016-01-13T22:53:22Z",
  "updated_at": "2016-01-13T22:53:22Z",
  "body": "Hi __@leirocks__, I'm your friendly neighborhood Microsoft Pull Request Bot (You can call me MSBOT). Thanks for your contribution!\r\n    <p>\r\n        It looks like you're a Microsoft contributor (Lei Shi). If you're full-time, we DON'T require a Contribution License Agreement. If you are a vendor, please DO sign the electronic Contribution License Agreement. It will take 2 minutes and there's no faxing! https://cla.microsoft.com.\r\n    </p>\r\n\r\nTTYL, MSBOT;\r\n"
}
, {
  "url": "https://api.github.com/repos/Microsoft/ChakraCore/issues/comments/171463238",
  "html_url": "https://github.com/Microsoft/ChakraCore/pull/81#issuecomment-171463238",
  "issue_url": "https://api.github.com/repos/Microsoft/ChakraCore/issues/81",
  "id": 171463238,
  "user": {
    "login": "dilijev",
    "id": 494055,
    "avatar_url": "https://avatars.githubusercontent.com/u/494055?v=3",
    "gravatar_id": "",
    "url": "https://api.github.com/users/dilijev",
    "html_url": "https://github.com/dilijev",
    "followers_url": "https://api.github.com/users/dilijev/followers",
    "following_url": "https://api.github.com/users/dilijev/following{/other_user}",
    "gists_url": "https://api.github.com/users/dilijev/gists{/gist_id}",
    "starred_url": "https://api.github.com/users/dilijev/starred{/owner}{/repo}",
    "subscriptions_url": "https://api.github.com/users/dilijev/subscriptions",
    "organizations_url": "https://api.github.com/users/dilijev/orgs",
    "repos_url": "https://api.github.com/users/dilijev/repos",
    "events_url": "https://api.github.com/users/dilijev/events{/privacy}",
    "received_events_url": "https://api.github.com/users/dilijev/received_events",
    "type": "User",
    "site_admin": false
  },
  "created_at": "2016-01-13T22:54:21Z",
  "updated_at": "2016-01-13T22:54:21Z",
  "body": "Replaces https://github.com/Microsoft/ChakraCore/pull/34. See previous discussion there."
}
]
