[
{
  "url": "https://api.github.com/repos/Microsoft/CRM-Performance-Toolkit/issues/comments/160444689",
  "html_url": "https://github.com/Microsoft/CRM-Performance-Toolkit/issues/12#issuecomment-160444689",
  "issue_url": "https://api.github.com/repos/Microsoft/CRM-Performance-Toolkit/issues/12",
  "id": 160444689,
  "user": {
    "login": "jeffreyzhzhang",
    "id": 14827719,
    "avatar_url": "https://avatars.githubusercontent.com/u/14827719?v=3",
    "gravatar_id": "",
    "url": "https://api.github.com/users/jeffreyzhzhang",
    "html_url": "https://github.com/jeffreyzhzhang",
    "followers_url": "https://api.github.com/users/jeffreyzhzhang/followers",
    "following_url": "https://api.github.com/users/jeffreyzhzhang/following{/other_user}",
    "gists_url": "https://api.github.com/users/jeffreyzhzhang/gists{/gist_id}",
    "starred_url": "https://api.github.com/users/jeffreyzhzhang/starred{/owner}{/repo}",
    "subscriptions_url": "https://api.github.com/users/jeffreyzhzhang/subscriptions",
    "organizations_url": "https://api.github.com/users/jeffreyzhzhang/orgs",
    "repos_url": "https://api.github.com/users/jeffreyzhzhang/repos",
    "events_url": "https://api.github.com/users/jeffreyzhzhang/events{/privacy}",
    "received_events_url": "https://api.github.com/users/jeffreyzhzhang/received_events",
    "type": "User",
    "site_admin": false
  },
  "created_at": "2015-11-29T18:33:09Z",
  "updated_at": "2015-11-29T18:33:09Z",
  "body": "Hi,\r\n\r\nCan you remove from HierarchyDataService from Toolkit\\Setup\\WSDL\\ServiceList.txt and try it again?\r\n\r\nRegards,\r\nJeffrey\r\n\r\nFrom: Padmananabanmsc [mailto:notifications@github.com]\r\nSent: Thursday, November 26, 2015 6:23 PM\r\nTo: Microsoft/CRM-Performance-Toolkit <CRM-Performance-Toolkit@noreply.github.com>\r\nSubject: [CRM-Performance-Toolkit] CRM Performance toolkit validated in CRM 2013 (#12)\r\n\r\n\r\nDocumentation menteiond tool should work for CRM 2013 but powershell command retunrs the error. Is the tool tested on CRM 2013SP1 ..and we are bit pressure to complete the performance test for one of our clients with in a week. if this tool is not tested or may not work for CRM 2013. is there any recommendation?\r\n\r\nError details:\r\n\r\nRunning command - C:\\Program Files (x86)\\Microsoft SDKs\\Windows\\v7.0A\\Bin\\wsdl.exe /n:HierarchyDataService C:\\CRMToolkit\r\n\\CRMToolkit\\Setup\\WSDL\\WSDL\\HierarchyDataService.wsdl /out:C:\\CRMToolkit\\CRMToolkit\\CRM_Perf_Toolkit\\CRM_Perf_BenchMark\\\r\nWSDL\r\nMicrosoft (R) Web Services Description Language Utility\r\n[Microsoft (R) .NET Framework, Version 2.0.50727.3038]\r\nCopyright (C) Microsoft Corporation. All rights reserved.\r\nError: There was an error processing 'file:///C:/CRMToolkit/CRMToolkit/Setup/WSDL/WSDL/HierarchyDataService.wsdl'.\r\n\r\nThere was an error downloading 'file:///C:/CRMToolkit/CRMToolkit/Setup/WSDL/WSDL/HierarchyDataService.wsdl'.\r\nCould not find file 'C:\\CRMToolkit\\CRMToolkit\\Setup\\WSDL\\WSDL\\HierarchyDataService.wsdl'.\r\nCould not find file 'C:\\CRMToolkit\\CRMToolkit\\Setup\\WSDL\\WSDL\\HierarchyDataService.wsdl'.\r\nCould not find file 'C:\\CRMToolkit\\CRMToolkit\\Setup\\WSDL\\WSDL\\HierarchyDataService.wsdl'.\r\n\r\n—\r\nReply to this email directly or view it on GitHub<https://github.com/Microsoft/CRM-Performance-Toolkit/issues/12>.\r\n"
}
, {
  "url": "https://api.github.com/repos/Microsoft/CRM-Performance-Toolkit/issues/comments/160445122",
  "html_url": "https://github.com/Microsoft/CRM-Performance-Toolkit/issues/12#issuecomment-160445122",
  "issue_url": "https://api.github.com/repos/Microsoft/CRM-Performance-Toolkit/issues/12",
  "id": 160445122,
  "user": {
    "login": "jeffreyzhzhang",
    "id": 14827719,
    "avatar_url": "https://avatars.githubusercontent.com/u/14827719?v=3",
    "gravatar_id": "",
    "url": "https://api.github.com/users/jeffreyzhzhang",
    "html_url": "https://github.com/jeffreyzhzhang",
    "followers_url": "https://api.github.com/users/jeffreyzhzhang/followers",
    "following_url": "https://api.github.com/users/jeffreyzhzhang/following{/other_user}",
    "gists_url": "https://api.github.com/users/jeffreyzhzhang/gists{/gist_id}",
    "starred_url": "https://api.github.com/users/jeffreyzhzhang/starred{/owner}{/repo}",
    "subscriptions_url": "https://api.github.com/users/jeffreyzhzhang/subscriptions",
    "organizations_url": "https://api.github.com/users/jeffreyzhzhang/orgs",
    "repos_url": "https://api.github.com/users/jeffreyzhzhang/repos",
    "events_url": "https://api.github.com/users/jeffreyzhzhang/events{/privacy}",
    "received_events_url": "https://api.github.com/users/jeffreyzhzhang/received_events",
    "type": "User",
    "site_admin": false
  },
  "created_at": "2015-11-29T18:34:19Z",
  "updated_at": "2015-11-29T18:34:19Z",
  "body": "The reason why is that HierarchyDataService is a web service introduced post CRM2013.\r\n\r\nFrom: Jeffrey Zhang\r\nSent: Sunday, November 29, 2015 10:33 AM\r\nTo: 'Microsoft/CRM-Performance-Toolkit' <reply@reply.github.com>\r\nSubject: RE: [CRM-Performance-Toolkit] CRM Performance toolkit validated in CRM 2013 (#12)\r\n\r\nHi,\r\n\r\nCan you remove from HierarchyDataService from Toolkit\\Setup\\WSDL\\ServiceList.txt and try it again?\r\n\r\nRegards,\r\nJeffrey\r\n\r\nFrom: Padmananabanmsc [mailto:notifications@github.com]\r\nSent: Thursday, November 26, 2015 6:23 PM\r\nTo: Microsoft/CRM-Performance-Toolkit <CRM-Performance-Toolkit@noreply.github.com<mailto:CRM-Performance-Toolkit@noreply.github.com>>\r\nSubject: [CRM-Performance-Toolkit] CRM Performance toolkit validated in CRM 2013 (#12)\r\n\r\n\r\nDocumentation menteiond tool should work for CRM 2013 but powershell command retunrs the error. Is the tool tested on CRM 2013SP1 ..and we are bit pressure to complete the performance test for one of our clients with in a week. if this tool is not tested or may not work for CRM 2013. is there any recommendation?\r\n\r\nError details:\r\n\r\nRunning command - C:\\Program Files (x86)\\Microsoft SDKs\\Windows\\v7.0A\\Bin\\wsdl.exe /n:HierarchyDataService C:\\CRMToolkit\r\n\\CRMToolkit\\Setup\\WSDL\\WSDL\\HierarchyDataService.wsdl /out:C:\\CRMToolkit\\CRMToolkit\\CRM_Perf_Toolkit\\CRM_Perf_BenchMark\\\r\nWSDL\r\nMicrosoft (R) Web Services Description Language Utility\r\n[Microsoft (R) .NET Framework, Version 2.0.50727.3038]\r\nCopyright (C) Microsoft Corporation. All rights reserved.\r\nError: There was an error processing 'file:///C:/CRMToolkit/CRMToolkit/Setup/WSDL/WSDL/HierarchyDataService.wsdl'.\r\n\r\nThere was an error downloading 'file:///C:/CRMToolkit/CRMToolkit/Setup/WSDL/WSDL/HierarchyDataService.wsdl'.\r\nCould not find file 'C:\\CRMToolkit\\CRMToolkit\\Setup\\WSDL\\WSDL\\HierarchyDataService.wsdl'.\r\nCould not find file 'C:\\CRMToolkit\\CRMToolkit\\Setup\\WSDL\\WSDL\\HierarchyDataService.wsdl'.\r\nCould not find file 'C:\\CRMToolkit\\CRMToolkit\\Setup\\WSDL\\WSDL\\HierarchyDataService.wsdl'.\r\n\r\n—\r\nReply to this email directly or view it on GitHub<https://github.com/Microsoft/CRM-Performance-Toolkit/issues/12>.\r\n"
}
]
