[
{
  "url": "https://api.github.com/repos/github/gitignore/issues/comments/68981018",
  "html_url": "https://github.com/github/gitignore/pull/1343#issuecomment-68981018",
  "issue_url": "https://api.github.com/repos/github/gitignore/issues/1343",
  "id": 68981018,
  "user": {
    "login": "arcresu",
    "id": 322256,
    "avatar_url": "https://avatars.githubusercontent.com/u/322256?v=3",
    "gravatar_id": "",
    "url": "https://api.github.com/users/arcresu",
    "html_url": "https://github.com/arcresu",
    "followers_url": "https://api.github.com/users/arcresu/followers",
    "following_url": "https://api.github.com/users/arcresu/following{/other_user}",
    "gists_url": "https://api.github.com/users/arcresu/gists{/gist_id}",
    "starred_url": "https://api.github.com/users/arcresu/starred{/owner}{/repo}",
    "subscriptions_url": "https://api.github.com/users/arcresu/subscriptions",
    "organizations_url": "https://api.github.com/users/arcresu/orgs",
    "repos_url": "https://api.github.com/users/arcresu/repos",
    "events_url": "https://api.github.com/users/arcresu/events{/privacy}",
    "received_events_url": "https://api.github.com/users/arcresu/received_events",
    "type": "User",
    "site_admin": false
  },
  "created_at": "2015-01-07T05:35:34Z",
  "updated_at": "2015-01-07T05:35:34Z",
  "body": "Thanks!"
}
, {
  "url": "https://api.github.com/repos/github/gitignore/issues/comments/71298278",
  "html_url": "https://github.com/github/gitignore/pull/1343#issuecomment-71298278",
  "issue_url": "https://api.github.com/repos/github/gitignore/issues/1343",
  "id": 71298278,
  "user": {
    "login": "sscotth",
    "id": 1010488,
    "avatar_url": "https://avatars.githubusercontent.com/u/1010488?v=3",
    "gravatar_id": "",
    "url": "https://api.github.com/users/sscotth",
    "html_url": "https://github.com/sscotth",
    "followers_url": "https://api.github.com/users/sscotth/followers",
    "following_url": "https://api.github.com/users/sscotth/following{/other_user}",
    "gists_url": "https://api.github.com/users/sscotth/gists{/gist_id}",
    "starred_url": "https://api.github.com/users/sscotth/starred{/owner}{/repo}",
    "subscriptions_url": "https://api.github.com/users/sscotth/subscriptions",
    "organizations_url": "https://api.github.com/users/sscotth/orgs",
    "repos_url": "https://api.github.com/users/sscotth/repos",
    "events_url": "https://api.github.com/users/sscotth/events{/privacy}",
    "received_events_url": "https://api.github.com/users/sscotth/received_events",
    "type": "User",
    "site_admin": false
  },
  "created_at": "2015-01-24T03:24:42Z",
  "updated_at": "2015-01-24T03:24:42Z",
  "body": "Removed for redundancy in #830. Also referenced in #598, #761, #881, & #918."
}
, {
  "url": "https://api.github.com/repos/github/gitignore/issues/comments/71300277",
  "html_url": "https://github.com/github/gitignore/pull/1343#issuecomment-71300277",
  "issue_url": "https://api.github.com/repos/github/gitignore/issues/1343",
  "id": 71300277,
  "user": {
    "login": "arcresu",
    "id": 322256,
    "avatar_url": "https://avatars.githubusercontent.com/u/322256?v=3",
    "gravatar_id": "",
    "url": "https://api.github.com/users/arcresu",
    "html_url": "https://github.com/arcresu",
    "followers_url": "https://api.github.com/users/arcresu/followers",
    "following_url": "https://api.github.com/users/arcresu/following{/other_user}",
    "gists_url": "https://api.github.com/users/arcresu/gists{/gist_id}",
    "starred_url": "https://api.github.com/users/arcresu/starred{/owner}{/repo}",
    "subscriptions_url": "https://api.github.com/users/arcresu/subscriptions",
    "organizations_url": "https://api.github.com/users/arcresu/orgs",
    "repos_url": "https://api.github.com/users/arcresu/repos",
    "events_url": "https://api.github.com/users/arcresu/events{/privacy}",
    "received_events_url": "https://api.github.com/users/arcresu/received_events",
    "type": "User",
    "site_admin": false
  },
  "created_at": "2015-01-24T04:45:06Z",
  "updated_at": "2015-01-24T04:45:06Z",
  "body": "@sscotth You're right, I didn't check properly before merging and I've reverted the change."
}
, {
  "url": "https://api.github.com/repos/github/gitignore/issues/comments/71300835",
  "html_url": "https://github.com/github/gitignore/pull/1343#issuecomment-71300835",
  "issue_url": "https://api.github.com/repos/github/gitignore/issues/1343",
  "id": 71300835,
  "user": {
    "login": "sscotth",
    "id": 1010488,
    "avatar_url": "https://avatars.githubusercontent.com/u/1010488?v=3",
    "gravatar_id": "",
    "url": "https://api.github.com/users/sscotth",
    "html_url": "https://github.com/sscotth",
    "followers_url": "https://api.github.com/users/sscotth/followers",
    "following_url": "https://api.github.com/users/sscotth/following{/other_user}",
    "gists_url": "https://api.github.com/users/sscotth/gists{/gist_id}",
    "starred_url": "https://api.github.com/users/sscotth/starred{/owner}{/repo}",
    "subscriptions_url": "https://api.github.com/users/sscotth/subscriptions",
    "organizations_url": "https://api.github.com/users/sscotth/orgs",
    "repos_url": "https://api.github.com/users/sscotth/repos",
    "events_url": "https://api.github.com/users/sscotth/events{/privacy}",
    "received_events_url": "https://api.github.com/users/sscotth/received_events",
    "type": "User",
    "site_admin": false
  },
  "created_at": "2015-01-24T05:09:48Z",
  "updated_at": "2015-01-24T05:09:48Z",
  "body": ":+1:"
}
]
