[
{
  "url": "https://api.github.com/repos/github/gitignore/issues/comments/27683836",
  "html_url": "https://github.com/github/gitignore/pull/405#issuecomment-27683836",
  "issue_url": "https://api.github.com/repos/github/gitignore/issues/405",
  "id": 27683836,
  "user": {
    "login": "aroben",
    "id": 917945,
    "avatar_url": "https://avatars.githubusercontent.com/u/917945?v=3",
    "gravatar_id": "",
    "url": "https://api.github.com/users/aroben",
    "html_url": "https://github.com/aroben",
    "followers_url": "https://api.github.com/users/aroben/followers",
    "following_url": "https://api.github.com/users/aroben/following{/other_user}",
    "gists_url": "https://api.github.com/users/aroben/gists{/gist_id}",
    "starred_url": "https://api.github.com/users/aroben/starred{/owner}{/repo}",
    "subscriptions_url": "https://api.github.com/users/aroben/subscriptions",
    "organizations_url": "https://api.github.com/users/aroben/orgs",
    "repos_url": "https://api.github.com/users/aroben/repos",
    "events_url": "https://api.github.com/users/aroben/events{/privacy}",
    "received_events_url": "https://api.github.com/users/aroben/received_events",
    "type": "User",
    "site_admin": true
  },
  "created_at": "2013-11-04T13:17:22Z",
  "updated_at": "2013-11-04T13:17:22Z",
  "body": "Thanks @malleor, this looks great! Sorry it took so long to get this merged. :speak_no_evil: "
}
]
