[
{
  "url": "https://api.github.com/repos/github/gitignore/issues/comments/103697424",
  "html_url": "https://github.com/github/gitignore/pull/1529#issuecomment-103697424",
  "issue_url": "https://api.github.com/repos/github/gitignore/issues/1529",
  "id": 103697424,
  "user": {
    "login": "shiftkey",
    "id": 359239,
    "avatar_url": "https://avatars.githubusercontent.com/u/359239?v=3",
    "gravatar_id": "",
    "url": "https://api.github.com/users/shiftkey",
    "html_url": "https://github.com/shiftkey",
    "followers_url": "https://api.github.com/users/shiftkey/followers",
    "following_url": "https://api.github.com/users/shiftkey/following{/other_user}",
    "gists_url": "https://api.github.com/users/shiftkey/gists{/gist_id}",
    "starred_url": "https://api.github.com/users/shiftkey/starred{/owner}{/repo}",
    "subscriptions_url": "https://api.github.com/users/shiftkey/subscriptions",
    "organizations_url": "https://api.github.com/users/shiftkey/orgs",
    "repos_url": "https://api.github.com/users/shiftkey/repos",
    "events_url": "https://api.github.com/users/shiftkey/events{/privacy}",
    "received_events_url": "https://api.github.com/users/shiftkey/received_events",
    "type": "User",
    "site_admin": true
  },
  "created_at": "2015-05-19T23:31:55Z",
  "updated_at": "2015-05-19T23:31:55Z",
  "body": "@sayedihashimi I've found [this advice](http://addyosmani.com/blog/checking-in-front-end-dependencies/) about it, but do you have a more official URL handy for us to point to?"
}
, {
  "url": "https://api.github.com/repos/github/gitignore/issues/comments/103954919",
  "html_url": "https://github.com/github/gitignore/pull/1529#issuecomment-103954919",
  "issue_url": "https://api.github.com/repos/github/gitignore/issues/1529",
  "id": 103954919,
  "user": {
    "login": "sayedihashimi",
    "id": 1283154,
    "avatar_url": "https://avatars.githubusercontent.com/u/1283154?v=3",
    "gravatar_id": "",
    "url": "https://api.github.com/users/sayedihashimi",
    "html_url": "https://github.com/sayedihashimi",
    "followers_url": "https://api.github.com/users/sayedihashimi/followers",
    "following_url": "https://api.github.com/users/sayedihashimi/following{/other_user}",
    "gists_url": "https://api.github.com/users/sayedihashimi/gists{/gist_id}",
    "starred_url": "https://api.github.com/users/sayedihashimi/starred{/owner}{/repo}",
    "subscriptions_url": "https://api.github.com/users/sayedihashimi/subscriptions",
    "organizations_url": "https://api.github.com/users/sayedihashimi/orgs",
    "repos_url": "https://api.github.com/users/sayedihashimi/repos",
    "events_url": "https://api.github.com/users/sayedihashimi/events{/privacy}",
    "received_events_url": "https://api.github.com/users/sayedihashimi/received_events",
    "type": "User",
    "site_admin": false
  },
  "created_at": "2015-05-20T16:43:47Z",
  "updated_at": "2015-05-20T16:43:47Z",
  "body": "Adding @madskristensen and @DamianEdwards who were more involved in the discussion regarding this than I was."
}
, {
  "url": "https://api.github.com/repos/github/gitignore/issues/comments/104106241",
  "html_url": "https://github.com/github/gitignore/pull/1529#issuecomment-104106241",
  "issue_url": "https://api.github.com/repos/github/gitignore/issues/1529",
  "id": 104106241,
  "user": {
    "login": "sayedihashimi",
    "id": 1283154,
    "avatar_url": "https://avatars.githubusercontent.com/u/1283154?v=3",
    "gravatar_id": "",
    "url": "https://api.github.com/users/sayedihashimi",
    "html_url": "https://github.com/sayedihashimi",
    "followers_url": "https://api.github.com/users/sayedihashimi/followers",
    "following_url": "https://api.github.com/users/sayedihashimi/following{/other_user}",
    "gists_url": "https://api.github.com/users/sayedihashimi/gists{/gist_id}",
    "starred_url": "https://api.github.com/users/sayedihashimi/starred{/owner}{/repo}",
    "subscriptions_url": "https://api.github.com/users/sayedihashimi/subscriptions",
    "organizations_url": "https://api.github.com/users/sayedihashimi/orgs",
    "repos_url": "https://api.github.com/users/sayedihashimi/repos",
    "events_url": "https://api.github.com/users/sayedihashimi/events{/privacy}",
    "received_events_url": "https://api.github.com/users/sayedihashimi/received_events",
    "type": "User",
    "site_admin": false
  },
  "created_at": "2015-05-21T02:39:41Z",
  "updated_at": "2015-05-21T02:40:47Z",
  "body": "Accidently hit the close button."
}
, {
  "url": "https://api.github.com/repos/github/gitignore/issues/comments/104372622",
  "html_url": "https://github.com/github/gitignore/pull/1529#issuecomment-104372622",
  "issue_url": "https://api.github.com/repos/github/gitignore/issues/1529",
  "id": 104372622,
  "user": {
    "login": "barrytang",
    "id": 1648865,
    "avatar_url": "https://avatars.githubusercontent.com/u/1648865?v=3",
    "gravatar_id": "",
    "url": "https://api.github.com/users/barrytang",
    "html_url": "https://github.com/barrytang",
    "followers_url": "https://api.github.com/users/barrytang/followers",
    "following_url": "https://api.github.com/users/barrytang/following{/other_user}",
    "gists_url": "https://api.github.com/users/barrytang/gists{/gist_id}",
    "starred_url": "https://api.github.com/users/barrytang/starred{/owner}{/repo}",
    "subscriptions_url": "https://api.github.com/users/barrytang/subscriptions",
    "organizations_url": "https://api.github.com/users/barrytang/orgs",
    "repos_url": "https://api.github.com/users/barrytang/repos",
    "events_url": "https://api.github.com/users/barrytang/events{/privacy}",
    "received_events_url": "https://api.github.com/users/barrytang/received_events",
    "type": "User",
    "site_admin": false
  },
  "created_at": "2015-05-21T18:01:05Z",
  "updated_at": "2015-05-21T18:01:05Z",
  "body": "There are basically two workflows we want to support going forward:\r\n \r\n1.      People reference ./wwwroot/lib/bower_components directly (this is also how our default template is configured too)\r\n2.      People use build steps to copy files under bower_components to ./wwwroot \r\n \r\nWe don’t want to special case bower_components for SCC since for workflow #1, people would want to check in ./wwwroot/lib/bower_components.\r\n"
}
, {
  "url": "https://api.github.com/repos/github/gitignore/issues/comments/105698882",
  "html_url": "https://github.com/github/gitignore/pull/1529#issuecomment-105698882",
  "issue_url": "https://api.github.com/repos/github/gitignore/issues/1529",
  "id": 105698882,
  "user": {
    "login": "balachir",
    "id": 8246794,
    "avatar_url": "https://avatars.githubusercontent.com/u/8246794?v=3",
    "gravatar_id": "",
    "url": "https://api.github.com/users/balachir",
    "html_url": "https://github.com/balachir",
    "followers_url": "https://api.github.com/users/balachir/followers",
    "following_url": "https://api.github.com/users/balachir/following{/other_user}",
    "gists_url": "https://api.github.com/users/balachir/gists{/gist_id}",
    "starred_url": "https://api.github.com/users/balachir/starred{/owner}{/repo}",
    "subscriptions_url": "https://api.github.com/users/balachir/subscriptions",
    "organizations_url": "https://api.github.com/users/balachir/orgs",
    "repos_url": "https://api.github.com/users/balachir/repos",
    "events_url": "https://api.github.com/users/balachir/events{/privacy}",
    "received_events_url": "https://api.github.com/users/balachir/received_events",
    "type": "User",
    "site_admin": false
  },
  "created_at": "2015-05-26T23:44:35Z",
  "updated_at": "2015-05-26T23:44:35Z",
  "body": "@shiftkey, does Barry's comment  address your concerns?"
}
, {
  "url": "https://api.github.com/repos/github/gitignore/issues/comments/105699103",
  "html_url": "https://github.com/github/gitignore/pull/1529#issuecomment-105699103",
  "issue_url": "https://api.github.com/repos/github/gitignore/issues/1529",
  "id": 105699103,
  "user": {
    "login": "shiftkey",
    "id": 359239,
    "avatar_url": "https://avatars.githubusercontent.com/u/359239?v=3",
    "gravatar_id": "",
    "url": "https://api.github.com/users/shiftkey",
    "html_url": "https://github.com/shiftkey",
    "followers_url": "https://api.github.com/users/shiftkey/followers",
    "following_url": "https://api.github.com/users/shiftkey/following{/other_user}",
    "gists_url": "https://api.github.com/users/shiftkey/gists{/gist_id}",
    "starred_url": "https://api.github.com/users/shiftkey/starred{/owner}{/repo}",
    "subscriptions_url": "https://api.github.com/users/shiftkey/subscriptions",
    "organizations_url": "https://api.github.com/users/shiftkey/orgs",
    "repos_url": "https://api.github.com/users/shiftkey/repos",
    "events_url": "https://api.github.com/users/shiftkey/events{/privacy}",
    "received_events_url": "https://api.github.com/users/shiftkey/received_events",
    "type": "User",
    "site_admin": true
  },
  "created_at": "2015-05-26T23:46:45Z",
  "updated_at": "2015-05-26T23:46:45Z",
  "body": "@balachir :thumbsup:"
}
]
