[
{
  "url": "https://api.github.com/repos/github/gitignore/issues/comments/57968910",
  "html_url": "https://github.com/github/gitignore/pull/1238#issuecomment-57968910",
  "issue_url": "https://api.github.com/repos/github/gitignore/issues/1238",
  "id": 57968910,
  "user": {
    "login": "arcresu",
    "id": 322256,
    "avatar_url": "https://avatars.githubusercontent.com/u/322256?v=3",
    "gravatar_id": "",
    "url": "https://api.github.com/users/arcresu",
    "html_url": "https://github.com/arcresu",
    "followers_url": "https://api.github.com/users/arcresu/followers",
    "following_url": "https://api.github.com/users/arcresu/following{/other_user}",
    "gists_url": "https://api.github.com/users/arcresu/gists{/gist_id}",
    "starred_url": "https://api.github.com/users/arcresu/starred{/owner}{/repo}",
    "subscriptions_url": "https://api.github.com/users/arcresu/subscriptions",
    "organizations_url": "https://api.github.com/users/arcresu/orgs",
    "repos_url": "https://api.github.com/users/arcresu/repos",
    "events_url": "https://api.github.com/users/arcresu/events{/privacy}",
    "received_events_url": "https://api.github.com/users/arcresu/received_events",
    "type": "User",
    "site_admin": false
  },
  "created_at": "2014-10-06T03:00:40Z",
  "updated_at": "2014-10-06T03:00:40Z",
  "body": "Thanks, but we have `Global/Cloud9.gitignore` for this."
}
, {
  "url": "https://api.github.com/repos/github/gitignore/issues/comments/58131439",
  "html_url": "https://github.com/github/gitignore/pull/1238#issuecomment-58131439",
  "issue_url": "https://api.github.com/repos/github/gitignore/issues/1238",
  "id": 58131439,
  "user": {
    "login": "grimley517",
    "id": 1910463,
    "avatar_url": "https://avatars.githubusercontent.com/u/1910463?v=3",
    "gravatar_id": "",
    "url": "https://api.github.com/users/grimley517",
    "html_url": "https://github.com/grimley517",
    "followers_url": "https://api.github.com/users/grimley517/followers",
    "following_url": "https://api.github.com/users/grimley517/following{/other_user}",
    "gists_url": "https://api.github.com/users/grimley517/gists{/gist_id}",
    "starred_url": "https://api.github.com/users/grimley517/starred{/owner}{/repo}",
    "subscriptions_url": "https://api.github.com/users/grimley517/subscriptions",
    "organizations_url": "https://api.github.com/users/grimley517/orgs",
    "repos_url": "https://api.github.com/users/grimley517/repos",
    "events_url": "https://api.github.com/users/grimley517/events{/privacy}",
    "received_events_url": "https://api.github.com/users/grimley517/received_events",
    "type": "User",
    "site_admin": false
  },
  "created_at": "2014-10-07T03:20:57Z",
  "updated_at": "2014-10-07T03:20:57Z",
  "body": "ok cool\r\n\r\nSo how does that work - can you have more than one .gitignore in a project, or do you import the global gitignore, into the framework gitignore list?"
}
, {
  "url": "https://api.github.com/repos/github/gitignore/issues/comments/58132751",
  "html_url": "https://github.com/github/gitignore/pull/1238#issuecomment-58132751",
  "issue_url": "https://api.github.com/repos/github/gitignore/issues/1238",
  "id": 58132751,
  "user": {
    "login": "arcresu",
    "id": 322256,
    "avatar_url": "https://avatars.githubusercontent.com/u/322256?v=3",
    "gravatar_id": "",
    "url": "https://api.github.com/users/arcresu",
    "html_url": "https://github.com/arcresu",
    "followers_url": "https://api.github.com/users/arcresu/followers",
    "following_url": "https://api.github.com/users/arcresu/following{/other_user}",
    "gists_url": "https://api.github.com/users/arcresu/gists{/gist_id}",
    "starred_url": "https://api.github.com/users/arcresu/starred{/owner}{/repo}",
    "subscriptions_url": "https://api.github.com/users/arcresu/subscriptions",
    "organizations_url": "https://api.github.com/users/arcresu/orgs",
    "repos_url": "https://api.github.com/users/arcresu/repos",
    "events_url": "https://api.github.com/users/arcresu/events{/privacy}",
    "received_events_url": "https://api.github.com/users/arcresu/received_events",
    "type": "User",
    "site_admin": false
  },
  "created_at": "2014-10-07T03:45:00Z",
  "updated_at": "2014-10-07T03:45:00Z",
  "body": "The `Global/` templates are meant to go in your global git configuration (e.g. `~/.config/git/ignore` by default on recent versions). They generally shouldn't go in the project's gitignore since they relate to developer-specific toolsets rather than things intrinsically part of the project. Check out the `DESCRIPTION` section of [`man gitignore`](http://git-scm.com/docs/gitignore)."
}
]
