[
{
  "url": "https://api.github.com/repos/github/gitignore/issues/comments/46923419",
  "html_url": "https://github.com/github/gitignore/pull/1104#issuecomment-46923419",
  "issue_url": "https://api.github.com/repos/github/gitignore/issues/1104",
  "id": 46923419,
  "user": {
    "login": "arcresu",
    "id": 322256,
    "avatar_url": "https://avatars.githubusercontent.com/u/322256?v=3",
    "gravatar_id": "",
    "url": "https://api.github.com/users/arcresu",
    "html_url": "https://github.com/arcresu",
    "followers_url": "https://api.github.com/users/arcresu/followers",
    "following_url": "https://api.github.com/users/arcresu/following{/other_user}",
    "gists_url": "https://api.github.com/users/arcresu/gists{/gist_id}",
    "starred_url": "https://api.github.com/users/arcresu/starred{/owner}{/repo}",
    "subscriptions_url": "https://api.github.com/users/arcresu/subscriptions",
    "organizations_url": "https://api.github.com/users/arcresu/orgs",
    "repos_url": "https://api.github.com/users/arcresu/repos",
    "events_url": "https://api.github.com/users/arcresu/events{/privacy}",
    "received_events_url": "https://api.github.com/users/arcresu/received_events",
    "type": "User",
    "site_admin": false
  },
  "created_at": "2014-06-24T01:44:26Z",
  "updated_at": "2014-06-24T01:44:26Z",
  "body": "As much as I love minecraft, the rules in this template look very familiar. There's a lot of duplication with other similar templates, and there seem to be some IDE rules like `*.iml` which are covered elsewhere (`Global/JetBrains.gitignore` in that case). If you'd still like to go ahead with this, then I'd suggest stripping out the generic IDE stuff which already exists in global templates."
}
, {
  "url": "https://api.github.com/repos/github/gitignore/issues/comments/52304924",
  "html_url": "https://github.com/github/gitignore/pull/1104#issuecomment-52304924",
  "issue_url": "https://api.github.com/repos/github/gitignore/issues/1104",
  "id": 52304924,
  "user": {
    "login": "arcresu",
    "id": 322256,
    "avatar_url": "https://avatars.githubusercontent.com/u/322256?v=3",
    "gravatar_id": "",
    "url": "https://api.github.com/users/arcresu",
    "html_url": "https://github.com/arcresu",
    "followers_url": "https://api.github.com/users/arcresu/followers",
    "following_url": "https://api.github.com/users/arcresu/following{/other_user}",
    "gists_url": "https://api.github.com/users/arcresu/gists{/gist_id}",
    "starred_url": "https://api.github.com/users/arcresu/starred{/owner}{/repo}",
    "subscriptions_url": "https://api.github.com/users/arcresu/subscriptions",
    "organizations_url": "https://api.github.com/users/arcresu/orgs",
    "repos_url": "https://api.github.com/users/arcresu/repos",
    "events_url": "https://api.github.com/users/arcresu/events{/privacy}",
    "received_events_url": "https://api.github.com/users/arcresu/received_events",
    "type": "User",
    "site_admin": false
  },
  "created_at": "2014-08-15T13:25:52Z",
  "updated_at": "2014-08-15T13:25:52Z",
  "body": "I'll close this for now, but if you still think it's worth it's own template, we can potentially revisit this later. Thanks anyway!"
}
]
