[
{
  "url": "https://api.github.com/repos/thoughtbot/Runes/issues/comments/172034929",
  "html_url": "https://github.com/thoughtbot/Runes/issues/60#issuecomment-172034929",
  "issue_url": "https://api.github.com/repos/thoughtbot/Runes/issues/60",
  "id": 172034929,
  "user": {
    "login": "gfontenot",
    "id": 124499,
    "avatar_url": "https://avatars.githubusercontent.com/u/124499?v=3",
    "gravatar_id": "",
    "url": "https://api.github.com/users/gfontenot",
    "html_url": "https://github.com/gfontenot",
    "followers_url": "https://api.github.com/users/gfontenot/followers",
    "following_url": "https://api.github.com/users/gfontenot/following{/other_user}",
    "gists_url": "https://api.github.com/users/gfontenot/gists{/gist_id}",
    "starred_url": "https://api.github.com/users/gfontenot/starred{/owner}{/repo}",
    "subscriptions_url": "https://api.github.com/users/gfontenot/subscriptions",
    "organizations_url": "https://api.github.com/users/gfontenot/orgs",
    "repos_url": "https://api.github.com/users/gfontenot/repos",
    "events_url": "https://api.github.com/users/gfontenot/events{/privacy}",
    "received_events_url": "https://api.github.com/users/gfontenot/received_events",
    "type": "User",
    "site_admin": false
  },
  "created_at": "2016-01-15T17:57:52Z",
  "updated_at": "2016-01-15T17:57:52Z",
  "body": "Kachow. Released."
}
, {
  "url": "https://api.github.com/repos/thoughtbot/Runes/issues/comments/172073694",
  "html_url": "https://github.com/thoughtbot/Runes/issues/60#issuecomment-172073694",
  "issue_url": "https://api.github.com/repos/thoughtbot/Runes/issues/60",
  "id": 172073694,
  "user": {
    "login": "sharplet",
    "id": 147686,
    "avatar_url": "https://avatars.githubusercontent.com/u/147686?v=3",
    "gravatar_id": "",
    "url": "https://api.github.com/users/sharplet",
    "html_url": "https://github.com/sharplet",
    "followers_url": "https://api.github.com/users/sharplet/followers",
    "following_url": "https://api.github.com/users/sharplet/following{/other_user}",
    "gists_url": "https://api.github.com/users/sharplet/gists{/gist_id}",
    "starred_url": "https://api.github.com/users/sharplet/starred{/owner}{/repo}",
    "subscriptions_url": "https://api.github.com/users/sharplet/subscriptions",
    "organizations_url": "https://api.github.com/users/sharplet/orgs",
    "repos_url": "https://api.github.com/users/sharplet/repos",
    "events_url": "https://api.github.com/users/sharplet/events{/privacy}",
    "received_events_url": "https://api.github.com/users/sharplet/received_events",
    "type": "User",
    "site_admin": false
  },
  "created_at": "2016-01-15T20:08:50Z",
  "updated_at": "2016-01-15T20:08:50Z",
  "body": "🎉✨"
}
]
