[
{
  "url": "https://api.github.com/repos/docker/compose/issues/comments/33043727",
  "html_url": "https://github.com/docker/compose/issues/41#issuecomment-33043727",
  "issue_url": "https://api.github.com/repos/docker/compose/issues/41",
  "id": 33043727,
  "user": {
    "login": "aanand",
    "id": 1062,
    "avatar_url": "https://avatars.githubusercontent.com/u/1062?v=3",
    "gravatar_id": "",
    "url": "https://api.github.com/users/aanand",
    "html_url": "https://github.com/aanand",
    "followers_url": "https://api.github.com/users/aanand/followers",
    "following_url": "https://api.github.com/users/aanand/following{/other_user}",
    "gists_url": "https://api.github.com/users/aanand/gists{/gist_id}",
    "starred_url": "https://api.github.com/users/aanand/starred{/owner}{/repo}",
    "subscriptions_url": "https://api.github.com/users/aanand/subscriptions",
    "organizations_url": "https://api.github.com/users/aanand/orgs",
    "repos_url": "https://api.github.com/users/aanand/repos",
    "events_url": "https://api.github.com/users/aanand/events{/privacy}",
    "received_events_url": "https://api.github.com/users/aanand/received_events",
    "type": "User",
    "site_admin": false
  },
  "created_at": "2014-01-22T17:05:47Z",
  "updated_at": "2014-01-22T17:05:47Z",
  "body": "Really strange that we get blank lines - might be a bug in `split_buffer`.\r\n\r\nI'm also sometimes seeing an error where the first line from a Ruby backtrace (i.e. the filename & line number where the error originated, plus the error class and description) don't appear. Might be caused by the same thing.\r\n\r\nInvestigating."
}
, {
  "url": "https://api.github.com/repos/docker/compose/issues/comments/33043856",
  "html_url": "https://github.com/docker/compose/issues/41#issuecomment-33043856",
  "issue_url": "https://api.github.com/repos/docker/compose/issues/41",
  "id": 33043856,
  "user": {
    "login": "bfirsh",
    "id": 40906,
    "avatar_url": "https://avatars.githubusercontent.com/u/40906?v=3",
    "gravatar_id": "",
    "url": "https://api.github.com/users/bfirsh",
    "html_url": "https://github.com/bfirsh",
    "followers_url": "https://api.github.com/users/bfirsh/followers",
    "following_url": "https://api.github.com/users/bfirsh/following{/other_user}",
    "gists_url": "https://api.github.com/users/bfirsh/gists{/gist_id}",
    "starred_url": "https://api.github.com/users/bfirsh/starred{/owner}{/repo}",
    "subscriptions_url": "https://api.github.com/users/bfirsh/subscriptions",
    "organizations_url": "https://api.github.com/users/bfirsh/orgs",
    "repos_url": "https://api.github.com/users/bfirsh/repos",
    "events_url": "https://api.github.com/users/bfirsh/events{/privacy}",
    "received_events_url": "https://api.github.com/users/bfirsh/received_events",
    "type": "User",
    "site_admin": false
  },
  "created_at": "2014-01-22T17:06:50Z",
  "updated_at": "2014-01-22T17:06:50Z",
  "body": "Yep, I see that. Sometimes I get half the line."
}
]
