[
{
  "url": "https://api.github.com/repos/docker/compose/issues/comments/141557162",
  "html_url": "https://github.com/docker/compose/issues/698#issuecomment-141557162",
  "issue_url": "https://api.github.com/repos/docker/compose/issues/698",
  "id": 141557162,
  "user": {
    "login": "dnephin",
    "id": 442180,
    "avatar_url": "https://avatars.githubusercontent.com/u/442180?v=3",
    "gravatar_id": "",
    "url": "https://api.github.com/users/dnephin",
    "html_url": "https://github.com/dnephin",
    "followers_url": "https://api.github.com/users/dnephin/followers",
    "following_url": "https://api.github.com/users/dnephin/following{/other_user}",
    "gists_url": "https://api.github.com/users/dnephin/gists{/gist_id}",
    "starred_url": "https://api.github.com/users/dnephin/starred{/owner}{/repo}",
    "subscriptions_url": "https://api.github.com/users/dnephin/subscriptions",
    "organizations_url": "https://api.github.com/users/dnephin/orgs",
    "repos_url": "https://api.github.com/users/dnephin/repos",
    "events_url": "https://api.github.com/users/dnephin/events{/privacy}",
    "received_events_url": "https://api.github.com/users/dnephin/received_events",
    "type": "User",
    "site_admin": false
  },
  "created_at": "2015-09-18T20:23:18Z",
  "updated_at": "2015-09-18T20:23:18Z",
  "body": "1) See #790\r\n2) See #213\r\n3) These are intermediate images, they are created by `docker build` as well."
}
]
