[
{
  "url": "https://api.github.com/repos/docker/compose/issues/comments/158253125",
  "html_url": "https://github.com/docker/compose/pull/2364#issuecomment-158253125",
  "issue_url": "https://api.github.com/repos/docker/compose/issues/2364",
  "id": 158253125,
  "user": {
    "login": "shin-",
    "id": 1086876,
    "avatar_url": "https://avatars.githubusercontent.com/u/1086876?v=3",
    "gravatar_id": "",
    "url": "https://api.github.com/users/shin-",
    "html_url": "https://github.com/shin-",
    "followers_url": "https://api.github.com/users/shin-/followers",
    "following_url": "https://api.github.com/users/shin-/following{/other_user}",
    "gists_url": "https://api.github.com/users/shin-/gists{/gist_id}",
    "starred_url": "https://api.github.com/users/shin-/starred{/owner}{/repo}",
    "subscriptions_url": "https://api.github.com/users/shin-/subscriptions",
    "organizations_url": "https://api.github.com/users/shin-/orgs",
    "repos_url": "https://api.github.com/users/shin-/repos",
    "events_url": "https://api.github.com/users/shin-/events{/privacy}",
    "received_events_url": "https://api.github.com/users/shin-/received_events",
    "type": "User",
    "site_admin": false
  },
  "created_at": "2015-11-20T01:29:59Z",
  "updated_at": "2015-11-20T01:29:59Z",
  "body": "LGTM :+1: "
}
, {
  "url": "https://api.github.com/repos/docker/compose/issues/comments/158459354",
  "html_url": "https://github.com/docker/compose/pull/2364#issuecomment-158459354",
  "issue_url": "https://api.github.com/repos/docker/compose/issues/2364",
  "id": 158459354,
  "user": {
    "login": "dnephin",
    "id": 442180,
    "avatar_url": "https://avatars.githubusercontent.com/u/442180?v=3",
    "gravatar_id": "",
    "url": "https://api.github.com/users/dnephin",
    "html_url": "https://github.com/dnephin",
    "followers_url": "https://api.github.com/users/dnephin/followers",
    "following_url": "https://api.github.com/users/dnephin/following{/other_user}",
    "gists_url": "https://api.github.com/users/dnephin/gists{/gist_id}",
    "starred_url": "https://api.github.com/users/dnephin/starred{/owner}{/repo}",
    "subscriptions_url": "https://api.github.com/users/dnephin/subscriptions",
    "organizations_url": "https://api.github.com/users/dnephin/orgs",
    "repos_url": "https://api.github.com/users/dnephin/repos",
    "events_url": "https://api.github.com/users/dnephin/events{/privacy}",
    "received_events_url": "https://api.github.com/users/dnephin/received_events",
    "type": "User",
    "site_admin": false
  },
  "created_at": "2015-11-20T16:57:52Z",
  "updated_at": "2015-11-20T16:57:52Z",
  "body": "cc @aanand, you expressed some interest in this issue when we talked about it last time\r\n"
}
]
