[
{
  "url": "https://api.github.com/repos/docker/compose/issues/comments/154212151",
  "html_url": "https://github.com/docker/compose/issues/2332#issuecomment-154212151",
  "issue_url": "https://api.github.com/repos/docker/compose/issues/2332",
  "id": 154212151,
  "user": {
    "login": "dnephin",
    "id": 442180,
    "avatar_url": "https://avatars.githubusercontent.com/u/442180?v=3",
    "gravatar_id": "",
    "url": "https://api.github.com/users/dnephin",
    "html_url": "https://github.com/dnephin",
    "followers_url": "https://api.github.com/users/dnephin/followers",
    "following_url": "https://api.github.com/users/dnephin/following{/other_user}",
    "gists_url": "https://api.github.com/users/dnephin/gists{/gist_id}",
    "starred_url": "https://api.github.com/users/dnephin/starred{/owner}{/repo}",
    "subscriptions_url": "https://api.github.com/users/dnephin/subscriptions",
    "organizations_url": "https://api.github.com/users/dnephin/orgs",
    "repos_url": "https://api.github.com/users/dnephin/repos",
    "events_url": "https://api.github.com/users/dnephin/events{/privacy}",
    "received_events_url": "https://api.github.com/users/dnephin/received_events",
    "type": "User",
    "site_admin": false
  },
  "created_at": "2015-11-05T22:14:45Z",
  "updated_at": "2015-11-05T22:14:45Z",
  "body": "This was the only breaking change in 1.5.0 (unfortunate, but there wasn't really any way around it). The [release notes](https://github.com/docker/compose/releases/1.5.0) include a warning about it.\r\n\r\n\r\nYou can escape the `$` with another `$`: http://docs.docker.com/compose/compose-file/#variable-substitution\r\n\r\nSo `$${ETCD_PORT_2379_TCP_ADDR}`, etc"
}
, {
  "url": "https://api.github.com/repos/docker/compose/issues/comments/154212499",
  "html_url": "https://github.com/docker/compose/issues/2332#issuecomment-154212499",
  "issue_url": "https://api.github.com/repos/docker/compose/issues/2332",
  "id": 154212499,
  "user": {
    "login": "dnephin",
    "id": 442180,
    "avatar_url": "https://avatars.githubusercontent.com/u/442180?v=3",
    "gravatar_id": "",
    "url": "https://api.github.com/users/dnephin",
    "html_url": "https://github.com/dnephin",
    "followers_url": "https://api.github.com/users/dnephin/followers",
    "following_url": "https://api.github.com/users/dnephin/following{/other_user}",
    "gists_url": "https://api.github.com/users/dnephin/gists{/gist_id}",
    "starred_url": "https://api.github.com/users/dnephin/starred{/owner}{/repo}",
    "subscriptions_url": "https://api.github.com/users/dnephin/subscriptions",
    "organizations_url": "https://api.github.com/users/dnephin/orgs",
    "repos_url": "https://api.github.com/users/dnephin/repos",
    "events_url": "https://api.github.com/users/dnephin/events{/privacy}",
    "received_events_url": "https://api.github.com/users/dnephin/received_events",
    "type": "User",
    "site_admin": false
  },
  "created_at": "2015-11-05T22:16:14Z",
  "updated_at": "2015-11-05T22:16:14Z",
  "body": "Although, I think in your case, you could also use the link name?\r\n\r\n```yaml\r\nenvironment:\r\n    DATASTORE_URL=http://etcd:2379\r\n    KUBERNETES_URL=http://kubernetes:8080\r\n```"
}
, {
  "url": "https://api.github.com/repos/docker/compose/issues/comments/154306166",
  "html_url": "https://github.com/docker/compose/issues/2332#issuecomment-154306166",
  "issue_url": "https://api.github.com/repos/docker/compose/issues/2332",
  "id": 154306166,
  "user": {
    "login": "alunduil",
    "id": 169249,
    "avatar_url": "https://avatars.githubusercontent.com/u/169249?v=3",
    "gravatar_id": "",
    "url": "https://api.github.com/users/alunduil",
    "html_url": "https://github.com/alunduil",
    "followers_url": "https://api.github.com/users/alunduil/followers",
    "following_url": "https://api.github.com/users/alunduil/following{/other_user}",
    "gists_url": "https://api.github.com/users/alunduil/gists{/gist_id}",
    "starred_url": "https://api.github.com/users/alunduil/starred{/owner}{/repo}",
    "subscriptions_url": "https://api.github.com/users/alunduil/subscriptions",
    "organizations_url": "https://api.github.com/users/alunduil/orgs",
    "repos_url": "https://api.github.com/users/alunduil/repos",
    "events_url": "https://api.github.com/users/alunduil/events{/privacy}",
    "received_events_url": "https://api.github.com/users/alunduil/received_events",
    "type": "User",
    "site_admin": false
  },
  "created_at": "2015-11-06T05:52:29Z",
  "updated_at": "2015-11-06T05:52:29Z",
  "body": "Interesting. I'll have to give that a shot.  \r\n\r\nWhy was the new behavior required?  It doesn't seem like it's actually of use unless you need to pass through values (which doesn't seem like a case that would come up very frequently).\r\n\r\nThe release notes also indicate that only specific fields are affected by this change (see quote below). Is it a bug that environment variables are also affected by this?\r\n\r\n> With the introduction of variable substitution support in the Compose file, any Compose file that uses an environment variable ($VAR or ${VAR}) in the command: or entrypoint: field will break."
}
, {
  "url": "https://api.github.com/repos/docker/compose/issues/comments/154452676",
  "html_url": "https://github.com/docker/compose/issues/2332#issuecomment-154452676",
  "issue_url": "https://api.github.com/repos/docker/compose/issues/2332",
  "id": 154452676,
  "user": {
    "login": "dnephin",
    "id": 442180,
    "avatar_url": "https://avatars.githubusercontent.com/u/442180?v=3",
    "gravatar_id": "",
    "url": "https://api.github.com/users/dnephin",
    "html_url": "https://github.com/dnephin",
    "followers_url": "https://api.github.com/users/dnephin/followers",
    "following_url": "https://api.github.com/users/dnephin/following{/other_user}",
    "gists_url": "https://api.github.com/users/dnephin/gists{/gist_id}",
    "starred_url": "https://api.github.com/users/dnephin/starred{/owner}{/repo}",
    "subscriptions_url": "https://api.github.com/users/dnephin/subscriptions",
    "organizations_url": "https://api.github.com/users/dnephin/orgs",
    "repos_url": "https://api.github.com/users/dnephin/repos",
    "events_url": "https://api.github.com/users/dnephin/events{/privacy}",
    "received_events_url": "https://api.github.com/users/dnephin/received_events",
    "type": "User",
    "site_admin": false
  },
  "created_at": "2015-11-06T16:11:49Z",
  "updated_at": "2015-11-06T16:11:49Z",
  "body": "> Why was the new behavior required?\r\n\r\nSupport for variables in the Compose file was one of our most requested features.\r\n\r\nIt allows users to customize the compose file for different users or environments without having to edit the file directly.\r\n\r\n> The release notes also indicate that only specific fields are affected by this change \r\n\r\nThat's my fault.  We expected that the only place users would have existing environment variables for the container would be the `command` and `entrypoint` fields, but apparently `environment` could have also contained them.\r\n\r\nIt's not a bug, every field now supports variables."
}
, {
  "url": "https://api.github.com/repos/docker/compose/issues/comments/154456920",
  "html_url": "https://github.com/docker/compose/issues/2332#issuecomment-154456920",
  "issue_url": "https://api.github.com/repos/docker/compose/issues/2332",
  "id": 154456920,
  "user": {
    "login": "alunduil",
    "id": 169249,
    "avatar_url": "https://avatars.githubusercontent.com/u/169249?v=3",
    "gravatar_id": "",
    "url": "https://api.github.com/users/alunduil",
    "html_url": "https://github.com/alunduil",
    "followers_url": "https://api.github.com/users/alunduil/followers",
    "following_url": "https://api.github.com/users/alunduil/following{/other_user}",
    "gists_url": "https://api.github.com/users/alunduil/gists{/gist_id}",
    "starred_url": "https://api.github.com/users/alunduil/starred{/owner}{/repo}",
    "subscriptions_url": "https://api.github.com/users/alunduil/subscriptions",
    "organizations_url": "https://api.github.com/users/alunduil/orgs",
    "repos_url": "https://api.github.com/users/alunduil/repos",
    "events_url": "https://api.github.com/users/alunduil/events{/privacy}",
    "received_events_url": "https://api.github.com/users/alunduil/received_events",
    "type": "User",
    "site_admin": false
  },
  "created_at": "2015-11-06T16:21:25Z",
  "updated_at": "2015-11-06T16:21:25Z",
  "body": "@dnephin Can you provide a summary or links to the requests with use cases for the interpolation?  I'm curious as to how people will be using this feature (in case we want to integrate those strategies)."
}
, {
  "url": "https://api.github.com/repos/docker/compose/issues/comments/154458084",
  "html_url": "https://github.com/docker/compose/issues/2332#issuecomment-154458084",
  "issue_url": "https://api.github.com/repos/docker/compose/issues/2332",
  "id": 154458084,
  "user": {
    "login": "dnephin",
    "id": 442180,
    "avatar_url": "https://avatars.githubusercontent.com/u/442180?v=3",
    "gravatar_id": "",
    "url": "https://api.github.com/users/dnephin",
    "html_url": "https://github.com/dnephin",
    "followers_url": "https://api.github.com/users/dnephin/followers",
    "following_url": "https://api.github.com/users/dnephin/following{/other_user}",
    "gists_url": "https://api.github.com/users/dnephin/gists{/gist_id}",
    "starred_url": "https://api.github.com/users/dnephin/starred{/owner}{/repo}",
    "subscriptions_url": "https://api.github.com/users/dnephin/subscriptions",
    "organizations_url": "https://api.github.com/users/dnephin/orgs",
    "repos_url": "https://api.github.com/users/dnephin/repos",
    "events_url": "https://api.github.com/users/dnephin/events{/privacy}",
    "received_events_url": "https://api.github.com/users/dnephin/received_events",
    "type": "User",
    "site_admin": false
  },
  "created_at": "2015-11-06T16:24:48Z",
  "updated_at": "2015-11-06T16:24:48Z",
  "body": "The PR is #1765, there are ~15-20 linked issues, most of which talk about use cases."
}
, {
  "url": "https://api.github.com/repos/docker/compose/issues/comments/154561293",
  "html_url": "https://github.com/docker/compose/issues/2332#issuecomment-154561293",
  "issue_url": "https://api.github.com/repos/docker/compose/issues/2332",
  "id": 154561293,
  "user": {
    "login": "alunduil",
    "id": 169249,
    "avatar_url": "https://avatars.githubusercontent.com/u/169249?v=3",
    "gravatar_id": "",
    "url": "https://api.github.com/users/alunduil",
    "html_url": "https://github.com/alunduil",
    "followers_url": "https://api.github.com/users/alunduil/followers",
    "following_url": "https://api.github.com/users/alunduil/following{/other_user}",
    "gists_url": "https://api.github.com/users/alunduil/gists{/gist_id}",
    "starred_url": "https://api.github.com/users/alunduil/starred{/owner}{/repo}",
    "subscriptions_url": "https://api.github.com/users/alunduil/subscriptions",
    "organizations_url": "https://api.github.com/users/alunduil/orgs",
    "repos_url": "https://api.github.com/users/alunduil/repos",
    "events_url": "https://api.github.com/users/alunduil/events{/privacy}",
    "received_events_url": "https://api.github.com/users/alunduil/received_events",
    "type": "User",
    "site_admin": false
  },
  "created_at": "2015-11-06T22:25:23Z",
  "updated_at": "2015-11-06T22:25:23Z",
  "body": "For future reference, using the service name in the docker-compose file does not work.  Also, using the link variables doesn't appear to actually link containers anymore.  Is there more information that must be passed with the new docker-compose (or docker-1.9.0) to ensure that links work as written?"
}
, {
  "url": "https://api.github.com/repos/docker/compose/issues/comments/155124874",
  "html_url": "https://github.com/docker/compose/issues/2332#issuecomment-155124874",
  "issue_url": "https://api.github.com/repos/docker/compose/issues/2332",
  "id": 155124874,
  "user": {
    "login": "dnephin",
    "id": 442180,
    "avatar_url": "https://avatars.githubusercontent.com/u/442180?v=3",
    "gravatar_id": "",
    "url": "https://api.github.com/users/dnephin",
    "html_url": "https://github.com/dnephin",
    "followers_url": "https://api.github.com/users/dnephin/followers",
    "following_url": "https://api.github.com/users/dnephin/following{/other_user}",
    "gists_url": "https://api.github.com/users/dnephin/gists{/gist_id}",
    "starred_url": "https://api.github.com/users/dnephin/starred{/owner}{/repo}",
    "subscriptions_url": "https://api.github.com/users/dnephin/subscriptions",
    "organizations_url": "https://api.github.com/users/dnephin/orgs",
    "repos_url": "https://api.github.com/users/dnephin/repos",
    "events_url": "https://api.github.com/users/dnephin/events{/privacy}",
    "received_events_url": "https://api.github.com/users/dnephin/received_events",
    "type": "User",
    "site_admin": false
  },
  "created_at": "2015-11-09T17:02:03Z",
  "updated_at": "2015-11-09T17:02:03Z",
  "body": "Using the project name as an environment variable works, as long as you set it in the host environment.\r\n\r\nLinks are networking are different implementations and they don't work together. If you use `--x-networking` to use the new networking feature it will put the hostname into `/etc/hosts`, but I don't think it will set environment variables for you, because those have been deprecated for a while now.  That's why I was suggesting using the hostname and static port."
}
, {
  "url": "https://api.github.com/repos/docker/compose/issues/comments/155131868",
  "html_url": "https://github.com/docker/compose/issues/2332#issuecomment-155131868",
  "issue_url": "https://api.github.com/repos/docker/compose/issues/2332",
  "id": 155131868,
  "user": {
    "login": "alunduil",
    "id": 169249,
    "avatar_url": "https://avatars.githubusercontent.com/u/169249?v=3",
    "gravatar_id": "",
    "url": "https://api.github.com/users/alunduil",
    "html_url": "https://github.com/alunduil",
    "followers_url": "https://api.github.com/users/alunduil/followers",
    "following_url": "https://api.github.com/users/alunduil/following{/other_user}",
    "gists_url": "https://api.github.com/users/alunduil/gists{/gist_id}",
    "starred_url": "https://api.github.com/users/alunduil/starred{/owner}{/repo}",
    "subscriptions_url": "https://api.github.com/users/alunduil/subscriptions",
    "organizations_url": "https://api.github.com/users/alunduil/orgs",
    "repos_url": "https://api.github.com/users/alunduil/repos",
    "events_url": "https://api.github.com/users/alunduil/events{/privacy}",
    "received_events_url": "https://api.github.com/users/alunduil/received_events",
    "type": "User",
    "site_admin": false
  },
  "created_at": "2015-11-09T17:25:26Z",
  "updated_at": "2015-11-09T17:25:26Z",
  "body": "@dnephin where do I pass `--x-networking` so I can use these magical hostnames?\r\n\r\nAre you suggesting that the docker link mechanism is deprecated and using the given environment variables provided by linking will go away?  I'm probably just reading your statement incorrectly."
}
, {
  "url": "https://api.github.com/repos/docker/compose/issues/comments/155137540",
  "html_url": "https://github.com/docker/compose/issues/2332#issuecomment-155137540",
  "issue_url": "https://api.github.com/repos/docker/compose/issues/2332",
  "id": 155137540,
  "user": {
    "login": "dnephin",
    "id": 442180,
    "avatar_url": "https://avatars.githubusercontent.com/u/442180?v=3",
    "gravatar_id": "",
    "url": "https://api.github.com/users/dnephin",
    "html_url": "https://github.com/dnephin",
    "followers_url": "https://api.github.com/users/dnephin/followers",
    "following_url": "https://api.github.com/users/dnephin/following{/other_user}",
    "gists_url": "https://api.github.com/users/dnephin/gists{/gist_id}",
    "starred_url": "https://api.github.com/users/dnephin/starred{/owner}{/repo}",
    "subscriptions_url": "https://api.github.com/users/dnephin/subscriptions",
    "organizations_url": "https://api.github.com/users/dnephin/orgs",
    "repos_url": "https://api.github.com/users/dnephin/repos",
    "events_url": "https://api.github.com/users/dnephin/events{/privacy}",
    "received_events_url": "https://api.github.com/users/dnephin/received_events",
    "type": "User",
    "site_admin": false
  },
  "created_at": "2015-11-09T17:47:22Z",
  "updated_at": "2015-11-09T17:47:22Z",
  "body": "http://docs.docker.com/compose/env/\r\n\r\nhttp://docs.docker.com/compose/compose-file/#links or\r\nhttp://docs.docker.com/compose/networking/\r\n\r\nboth set the hostname (but unfortunately to different things right now #2312)"
}
, {
  "url": "https://api.github.com/repos/docker/compose/issues/comments/179538205",
  "html_url": "https://github.com/docker/compose/issues/2332#issuecomment-179538205",
  "issue_url": "https://api.github.com/repos/docker/compose/issues/2332",
  "id": 179538205,
  "user": {
    "login": "dnephin",
    "id": 442180,
    "avatar_url": "https://avatars.githubusercontent.com/u/442180?v=3",
    "gravatar_id": "",
    "url": "https://api.github.com/users/dnephin",
    "html_url": "https://github.com/dnephin",
    "followers_url": "https://api.github.com/users/dnephin/followers",
    "following_url": "https://api.github.com/users/dnephin/following{/other_user}",
    "gists_url": "https://api.github.com/users/dnephin/gists{/gist_id}",
    "starred_url": "https://api.github.com/users/dnephin/starred{/owner}{/repo}",
    "subscriptions_url": "https://api.github.com/users/dnephin/subscriptions",
    "organizations_url": "https://api.github.com/users/dnephin/orgs",
    "repos_url": "https://api.github.com/users/dnephin/repos",
    "events_url": "https://api.github.com/users/dnephin/events{/privacy}",
    "received_events_url": "https://api.github.com/users/dnephin/received_events",
    "type": "User",
    "site_admin": false
  },
  "created_at": "2016-02-03T23:53:41Z",
  "updated_at": "2016-02-03T23:53:41Z",
  "body": "As of docker 1.10 these `ETCD_PORT_2379_TCP_ADDR` link variables are completely removed (they've been deprecated for a while now).\r\n\r\nUse the hostname provided by links (in `/etc/hosts` in docker 1.9, and from dns in docker 1.10)."
}
]
