[
{
  "url": "https://api.github.com/repos/docker/compose/issues/comments/41421951",
  "html_url": "https://github.com/docker/compose/issues/197#issuecomment-41421951",
  "issue_url": "https://api.github.com/repos/docker/compose/issues/197",
  "id": 41421951,
  "user": {
    "login": "aanand",
    "id": 1062,
    "avatar_url": "https://avatars.githubusercontent.com/u/1062?v=3",
    "gravatar_id": "",
    "url": "https://api.github.com/users/aanand",
    "html_url": "https://github.com/aanand",
    "followers_url": "https://api.github.com/users/aanand/followers",
    "following_url": "https://api.github.com/users/aanand/following{/other_user}",
    "gists_url": "https://api.github.com/users/aanand/gists{/gist_id}",
    "starred_url": "https://api.github.com/users/aanand/starred{/owner}{/repo}",
    "subscriptions_url": "https://api.github.com/users/aanand/subscriptions",
    "organizations_url": "https://api.github.com/users/aanand/orgs",
    "repos_url": "https://api.github.com/users/aanand/repos",
    "events_url": "https://api.github.com/users/aanand/events{/privacy}",
    "received_events_url": "https://api.github.com/users/aanand/received_events",
    "type": "User",
    "site_admin": false
  },
  "created_at": "2014-04-25T18:03:17Z",
  "updated_at": "2014-04-25T18:03:17Z",
  "body": "Agreed!"
}
, {
  "url": "https://api.github.com/repos/docker/compose/issues/comments/64832609",
  "html_url": "https://github.com/docker/compose/issues/197#issuecomment-64832609",
  "issue_url": "https://api.github.com/repos/docker/compose/issues/197",
  "id": 64832609,
  "user": {
    "login": "matleh",
    "id": 84861,
    "avatar_url": "https://avatars.githubusercontent.com/u/84861?v=3",
    "gravatar_id": "",
    "url": "https://api.github.com/users/matleh",
    "html_url": "https://github.com/matleh",
    "followers_url": "https://api.github.com/users/matleh/followers",
    "following_url": "https://api.github.com/users/matleh/following{/other_user}",
    "gists_url": "https://api.github.com/users/matleh/gists{/gist_id}",
    "starred_url": "https://api.github.com/users/matleh/starred{/owner}{/repo}",
    "subscriptions_url": "https://api.github.com/users/matleh/subscriptions",
    "organizations_url": "https://api.github.com/users/matleh/orgs",
    "repos_url": "https://api.github.com/users/matleh/repos",
    "events_url": "https://api.github.com/users/matleh/events{/privacy}",
    "received_events_url": "https://api.github.com/users/matleh/received_events",
    "type": "User",
    "site_admin": false
  },
  "created_at": "2014-11-27T21:52:25Z",
  "updated_at": "2014-11-27T22:01:13Z",
  "body": "This does not work any more.\r\n\r\n``` sh\r\ndocker run -it --rm busybox \"false\"\r\necho $?\r\n```\r\ngives 1, as it should.\r\n\r\nBut\r\n\r\n``` yaml\r\n# fig.yml\r\nfoo:\r\n  image: busybox\r\n  command: \"false\"\r\n```\r\n\r\n``` sh\r\nfig up\r\necho $?\r\n```\r\ngives 0, even though fig outputs something like `test_foo_1 exited with code 1`.\r\n\r\nCan somebody re-open this issue, or should I open up a new one?"
}
, {
  "url": "https://api.github.com/repos/docker/compose/issues/comments/64892422",
  "html_url": "https://github.com/docker/compose/issues/197#issuecomment-64892422",
  "issue_url": "https://api.github.com/repos/docker/compose/issues/197",
  "id": 64892422,
  "user": {
    "login": "bfirsh",
    "id": 40906,
    "avatar_url": "https://avatars.githubusercontent.com/u/40906?v=3",
    "gravatar_id": "",
    "url": "https://api.github.com/users/bfirsh",
    "html_url": "https://github.com/bfirsh",
    "followers_url": "https://api.github.com/users/bfirsh/followers",
    "following_url": "https://api.github.com/users/bfirsh/following{/other_user}",
    "gists_url": "https://api.github.com/users/bfirsh/gists{/gist_id}",
    "starred_url": "https://api.github.com/users/bfirsh/starred{/owner}{/repo}",
    "subscriptions_url": "https://api.github.com/users/bfirsh/subscriptions",
    "organizations_url": "https://api.github.com/users/bfirsh/orgs",
    "repos_url": "https://api.github.com/users/bfirsh/repos",
    "events_url": "https://api.github.com/users/bfirsh/events{/privacy}",
    "received_events_url": "https://api.github.com/users/bfirsh/received_events",
    "type": "User",
    "site_admin": false
  },
  "created_at": "2014-11-28T13:11:38Z",
  "updated_at": "2014-11-28T13:11:59Z",
  "body": "@matleh Thanks for the report! It would be great if you could open a new issue just so it doesn't get lost in the backlog."
}
, {
  "url": "https://api.github.com/repos/docker/compose/issues/comments/64892581",
  "html_url": "https://github.com/docker/compose/issues/197#issuecomment-64892581",
  "issue_url": "https://api.github.com/repos/docker/compose/issues/197",
  "id": 64892581,
  "user": {
    "login": "bfirsh",
    "id": 40906,
    "avatar_url": "https://avatars.githubusercontent.com/u/40906?v=3",
    "gravatar_id": "",
    "url": "https://api.github.com/users/bfirsh",
    "html_url": "https://github.com/bfirsh",
    "followers_url": "https://api.github.com/users/bfirsh/followers",
    "following_url": "https://api.github.com/users/bfirsh/following{/other_user}",
    "gists_url": "https://api.github.com/users/bfirsh/gists{/gist_id}",
    "starred_url": "https://api.github.com/users/bfirsh/starred{/owner}{/repo}",
    "subscriptions_url": "https://api.github.com/users/bfirsh/subscriptions",
    "organizations_url": "https://api.github.com/users/bfirsh/orgs",
    "repos_url": "https://api.github.com/users/bfirsh/repos",
    "events_url": "https://api.github.com/users/bfirsh/events{/privacy}",
    "received_events_url": "https://api.github.com/users/bfirsh/received_events",
    "type": "User",
    "site_admin": false
  },
  "created_at": "2014-11-28T13:13:19Z",
  "updated_at": "2014-11-28T13:13:19Z",
  "body": "Actually this is a new issue – this issue is about the `fig run` command. `fig run foo` should work as expected, I think.\r\n\r\nThe issue is that `fig up` returns a 0 exit code if one of the processes fails. I think you'r eright – `fig run` should fail if one the processes fails."
}
, {
  "url": "https://api.github.com/repos/docker/compose/issues/comments/64921278",
  "html_url": "https://github.com/docker/compose/issues/197#issuecomment-64921278",
  "issue_url": "https://api.github.com/repos/docker/compose/issues/197",
  "id": 64921278,
  "user": {
    "login": "matleh",
    "id": 84861,
    "avatar_url": "https://avatars.githubusercontent.com/u/84861?v=3",
    "gravatar_id": "",
    "url": "https://api.github.com/users/matleh",
    "html_url": "https://github.com/matleh",
    "followers_url": "https://api.github.com/users/matleh/followers",
    "following_url": "https://api.github.com/users/matleh/following{/other_user}",
    "gists_url": "https://api.github.com/users/matleh/gists{/gist_id}",
    "starred_url": "https://api.github.com/users/matleh/starred{/owner}{/repo}",
    "subscriptions_url": "https://api.github.com/users/matleh/subscriptions",
    "organizations_url": "https://api.github.com/users/matleh/orgs",
    "repos_url": "https://api.github.com/users/matleh/repos",
    "events_url": "https://api.github.com/users/matleh/events{/privacy}",
    "received_events_url": "https://api.github.com/users/matleh/received_events",
    "type": "User",
    "site_admin": false
  },
  "created_at": "2014-11-28T18:55:04Z",
  "updated_at": "2014-11-28T18:55:04Z",
  "body": "Oh, I am sorry, you are right. This is a new issue - I just created #683."
}
]
