[
{
  "url": "https://api.github.com/repos/docker/compose/issues/comments/139059873",
  "html_url": "https://github.com/docker/compose/pull/1569#issuecomment-139059873",
  "issue_url": "https://api.github.com/repos/docker/compose/issues/1569",
  "id": 139059873,
  "user": {
    "login": "ekristen",
    "id": 48329,
    "avatar_url": "https://avatars.githubusercontent.com/u/48329?v=3",
    "gravatar_id": "",
    "url": "https://api.github.com/users/ekristen",
    "html_url": "https://github.com/ekristen",
    "followers_url": "https://api.github.com/users/ekristen/followers",
    "following_url": "https://api.github.com/users/ekristen/following{/other_user}",
    "gists_url": "https://api.github.com/users/ekristen/gists{/gist_id}",
    "starred_url": "https://api.github.com/users/ekristen/starred{/owner}{/repo}",
    "subscriptions_url": "https://api.github.com/users/ekristen/subscriptions",
    "organizations_url": "https://api.github.com/users/ekristen/orgs",
    "repos_url": "https://api.github.com/users/ekristen/repos",
    "events_url": "https://api.github.com/users/ekristen/events{/privacy}",
    "received_events_url": "https://api.github.com/users/ekristen/received_events",
    "type": "User",
    "site_admin": false
  },
  "created_at": "2015-09-09T22:11:20Z",
  "updated_at": "2015-09-09T22:11:20Z",
  "body": "Can we get this updated and merged? Docker Compose needs to support TLS without client authentication. Thanks!"
}
, {
  "url": "https://api.github.com/repos/docker/compose/issues/comments/139066431",
  "html_url": "https://github.com/docker/compose/pull/1569#issuecomment-139066431",
  "issue_url": "https://api.github.com/repos/docker/compose/issues/1569",
  "id": 139066431,
  "user": {
    "login": "dnephin",
    "id": 442180,
    "avatar_url": "https://avatars.githubusercontent.com/u/442180?v=3",
    "gravatar_id": "",
    "url": "https://api.github.com/users/dnephin",
    "html_url": "https://github.com/dnephin",
    "followers_url": "https://api.github.com/users/dnephin/followers",
    "following_url": "https://api.github.com/users/dnephin/following{/other_user}",
    "gists_url": "https://api.github.com/users/dnephin/gists{/gist_id}",
    "starred_url": "https://api.github.com/users/dnephin/starred{/owner}{/repo}",
    "subscriptions_url": "https://api.github.com/users/dnephin/subscriptions",
    "organizations_url": "https://api.github.com/users/dnephin/orgs",
    "repos_url": "https://api.github.com/users/dnephin/repos",
    "events_url": "https://api.github.com/users/dnephin/events{/privacy}",
    "received_events_url": "https://api.github.com/users/dnephin/received_events",
    "type": "User",
    "site_admin": false
  },
  "created_at": "2015-09-09T22:52:19Z",
  "updated_at": "2015-09-09T22:52:19Z",
  "body": "Thanks for the contribution!\r\n\r\nNeeds a rebase, and I've made a couple comments"
}
, {
  "url": "https://api.github.com/repos/docker/compose/issues/comments/139066518",
  "html_url": "https://github.com/docker/compose/pull/1569#issuecomment-139066518",
  "issue_url": "https://api.github.com/repos/docker/compose/issues/1569",
  "id": 139066518,
  "user": {
    "login": "dnephin",
    "id": 442180,
    "avatar_url": "https://avatars.githubusercontent.com/u/442180?v=3",
    "gravatar_id": "",
    "url": "https://api.github.com/users/dnephin",
    "html_url": "https://github.com/dnephin",
    "followers_url": "https://api.github.com/users/dnephin/followers",
    "following_url": "https://api.github.com/users/dnephin/following{/other_user}",
    "gists_url": "https://api.github.com/users/dnephin/gists{/gist_id}",
    "starred_url": "https://api.github.com/users/dnephin/starred{/owner}{/repo}",
    "subscriptions_url": "https://api.github.com/users/dnephin/subscriptions",
    "organizations_url": "https://api.github.com/users/dnephin/orgs",
    "repos_url": "https://api.github.com/users/dnephin/repos",
    "events_url": "https://api.github.com/users/dnephin/events{/privacy}",
    "received_events_url": "https://api.github.com/users/dnephin/received_events",
    "type": "User",
    "site_admin": false
  },
  "created_at": "2015-09-09T22:53:08Z",
  "updated_at": "2015-09-09T22:53:08Z",
  "body": "Oh, and docs"
}
, {
  "url": "https://api.github.com/repos/docker/compose/issues/comments/171991668",
  "html_url": "https://github.com/docker/compose/pull/1569#issuecomment-171991668",
  "issue_url": "https://api.github.com/repos/docker/compose/issues/1569",
  "id": 171991668,
  "user": {
    "login": "dnephin",
    "id": 442180,
    "avatar_url": "https://avatars.githubusercontent.com/u/442180?v=3",
    "gravatar_id": "",
    "url": "https://api.github.com/users/dnephin",
    "html_url": "https://github.com/dnephin",
    "followers_url": "https://api.github.com/users/dnephin/followers",
    "following_url": "https://api.github.com/users/dnephin/following{/other_user}",
    "gists_url": "https://api.github.com/users/dnephin/gists{/gist_id}",
    "starred_url": "https://api.github.com/users/dnephin/starred{/owner}{/repo}",
    "subscriptions_url": "https://api.github.com/users/dnephin/subscriptions",
    "organizations_url": "https://api.github.com/users/dnephin/orgs",
    "repos_url": "https://api.github.com/users/dnephin/repos",
    "events_url": "https://api.github.com/users/dnephin/events{/privacy}",
    "received_events_url": "https://api.github.com/users/dnephin/received_events",
    "type": "User",
    "site_admin": false
  },
  "created_at": "2016-01-15T15:29:38Z",
  "updated_at": "2016-01-15T15:29:38Z",
  "body": "Thanks for the PR!\r\n\r\nI'm going to close this due to lack of activity. If you're still interesting in contributing please rebase, and re-open this PR."
}
, {
  "url": "https://api.github.com/repos/docker/compose/issues/comments/172046839",
  "html_url": "https://github.com/docker/compose/pull/1569#issuecomment-172046839",
  "issue_url": "https://api.github.com/repos/docker/compose/issues/1569",
  "id": 172046839,
  "user": {
    "login": "ekristen",
    "id": 48329,
    "avatar_url": "https://avatars.githubusercontent.com/u/48329?v=3",
    "gravatar_id": "",
    "url": "https://api.github.com/users/ekristen",
    "html_url": "https://github.com/ekristen",
    "followers_url": "https://api.github.com/users/ekristen/followers",
    "following_url": "https://api.github.com/users/ekristen/following{/other_user}",
    "gists_url": "https://api.github.com/users/ekristen/gists{/gist_id}",
    "starred_url": "https://api.github.com/users/ekristen/starred{/owner}{/repo}",
    "subscriptions_url": "https://api.github.com/users/ekristen/subscriptions",
    "organizations_url": "https://api.github.com/users/ekristen/orgs",
    "repos_url": "https://api.github.com/users/ekristen/repos",
    "events_url": "https://api.github.com/users/ekristen/events{/privacy}",
    "received_events_url": "https://api.github.com/users/ekristen/received_events",
    "type": "User",
    "site_admin": false
  },
  "created_at": "2016-01-15T18:39:59Z",
  "updated_at": "2016-01-15T18:39:59Z",
  "body": "@dnephin can we just get an official maintainer to implement this? This is a much needed feature."
}
, {
  "url": "https://api.github.com/repos/docker/compose/issues/comments/172061061",
  "html_url": "https://github.com/docker/compose/pull/1569#issuecomment-172061061",
  "issue_url": "https://api.github.com/repos/docker/compose/issues/1569",
  "id": 172061061,
  "user": {
    "login": "dnephin",
    "id": 442180,
    "avatar_url": "https://avatars.githubusercontent.com/u/442180?v=3",
    "gravatar_id": "",
    "url": "https://api.github.com/users/dnephin",
    "html_url": "https://github.com/dnephin",
    "followers_url": "https://api.github.com/users/dnephin/followers",
    "following_url": "https://api.github.com/users/dnephin/following{/other_user}",
    "gists_url": "https://api.github.com/users/dnephin/gists{/gist_id}",
    "starred_url": "https://api.github.com/users/dnephin/starred{/owner}{/repo}",
    "subscriptions_url": "https://api.github.com/users/dnephin/subscriptions",
    "organizations_url": "https://api.github.com/users/dnephin/orgs",
    "repos_url": "https://api.github.com/users/dnephin/repos",
    "events_url": "https://api.github.com/users/dnephin/events{/privacy}",
    "received_events_url": "https://api.github.com/users/dnephin/received_events",
    "type": "User",
    "site_admin": false
  },
  "created_at": "2016-01-15T19:28:52Z",
  "updated_at": "2016-01-15T19:34:22Z",
  "body": "I believe we already support this from environment variables, don't we?\r\n\r\nEdit: we have an issue to track this: #1716"
}
]
