[
{
  "url": "https://api.github.com/repos/docker/compose/issues/comments/47848053",
  "html_url": "https://github.com/docker/compose/issues/285#issuecomment-47848053",
  "issue_url": "https://api.github.com/repos/docker/compose/issues/285",
  "id": 47848053,
  "user": {
    "login": "d11wtq",
    "id": 37948,
    "avatar_url": "https://avatars.githubusercontent.com/u/37948?v=3",
    "gravatar_id": "",
    "url": "https://api.github.com/users/d11wtq",
    "html_url": "https://github.com/d11wtq",
    "followers_url": "https://api.github.com/users/d11wtq/followers",
    "following_url": "https://api.github.com/users/d11wtq/following{/other_user}",
    "gists_url": "https://api.github.com/users/d11wtq/gists{/gist_id}",
    "starred_url": "https://api.github.com/users/d11wtq/starred{/owner}{/repo}",
    "subscriptions_url": "https://api.github.com/users/d11wtq/subscriptions",
    "organizations_url": "https://api.github.com/users/d11wtq/orgs",
    "repos_url": "https://api.github.com/users/d11wtq/repos",
    "events_url": "https://api.github.com/users/d11wtq/events{/privacy}",
    "received_events_url": "https://api.github.com/users/d11wtq/received_events",
    "type": "User",
    "site_admin": false
  },
  "created_at": "2014-07-02T23:00:42Z",
  "updated_at": "2014-07-02T23:00:42Z",
  "body": ":+1: release early release often. I think more or less any change that's passing the build should be released. And perhaps more focus needs to be out on ensuring contributors provide tests for new features."
}
, {
  "url": "https://api.github.com/repos/docker/compose/issues/comments/48755951",
  "html_url": "https://github.com/docker/compose/issues/285#issuecomment-48755951",
  "issue_url": "https://api.github.com/repos/docker/compose/issues/285",
  "id": 48755951,
  "user": {
    "login": "bfirsh",
    "id": 40906,
    "avatar_url": "https://avatars.githubusercontent.com/u/40906?v=3",
    "gravatar_id": "",
    "url": "https://api.github.com/users/bfirsh",
    "html_url": "https://github.com/bfirsh",
    "followers_url": "https://api.github.com/users/bfirsh/followers",
    "following_url": "https://api.github.com/users/bfirsh/following{/other_user}",
    "gists_url": "https://api.github.com/users/bfirsh/gists{/gist_id}",
    "starred_url": "https://api.github.com/users/bfirsh/starred{/owner}{/repo}",
    "subscriptions_url": "https://api.github.com/users/bfirsh/subscriptions",
    "organizations_url": "https://api.github.com/users/bfirsh/orgs",
    "repos_url": "https://api.github.com/users/bfirsh/repos",
    "events_url": "https://api.github.com/users/bfirsh/events{/privacy}",
    "received_events_url": "https://api.github.com/users/bfirsh/received_events",
    "type": "User",
    "site_admin": false
  },
  "created_at": "2014-07-11T17:00:24Z",
  "updated_at": "2014-07-11T17:00:24Z",
  "body": "Yeah, we should roll another release.\r\n\r\nA big bit of friction to releasing is building the OS X binary, which I need to do on a Mountain Lion VM on my machine. It doesn't work on any version more recent that Mountain Lion. Any suggestions for automating gladly accepted. I thought Sauce Labs might work, but they don't run Mountain Lion."
}
, {
  "url": "https://api.github.com/repos/docker/compose/issues/comments/48757454",
  "html_url": "https://github.com/docker/compose/issues/285#issuecomment-48757454",
  "issue_url": "https://api.github.com/repos/docker/compose/issues/285",
  "id": 48757454,
  "user": {
    "login": "ryanbrainard",
    "id": 966764,
    "avatar_url": "https://avatars.githubusercontent.com/u/966764?v=3",
    "gravatar_id": "",
    "url": "https://api.github.com/users/ryanbrainard",
    "html_url": "https://github.com/ryanbrainard",
    "followers_url": "https://api.github.com/users/ryanbrainard/followers",
    "following_url": "https://api.github.com/users/ryanbrainard/following{/other_user}",
    "gists_url": "https://api.github.com/users/ryanbrainard/gists{/gist_id}",
    "starred_url": "https://api.github.com/users/ryanbrainard/starred{/owner}{/repo}",
    "subscriptions_url": "https://api.github.com/users/ryanbrainard/subscriptions",
    "organizations_url": "https://api.github.com/users/ryanbrainard/orgs",
    "repos_url": "https://api.github.com/users/ryanbrainard/repos",
    "events_url": "https://api.github.com/users/ryanbrainard/events{/privacy}",
    "received_events_url": "https://api.github.com/users/ryanbrainard/received_events",
    "type": "User",
    "site_admin": false
  },
  "created_at": "2014-07-11T17:14:10Z",
  "updated_at": "2014-07-11T17:14:10Z",
  "body": "+1"
}
, {
  "url": "https://api.github.com/repos/docker/compose/issues/comments/48757695",
  "html_url": "https://github.com/docker/compose/issues/285#issuecomment-48757695",
  "issue_url": "https://api.github.com/repos/docker/compose/issues/285",
  "id": 48757695,
  "user": {
    "login": "bfirsh",
    "id": 40906,
    "avatar_url": "https://avatars.githubusercontent.com/u/40906?v=3",
    "gravatar_id": "",
    "url": "https://api.github.com/users/bfirsh",
    "html_url": "https://github.com/bfirsh",
    "followers_url": "https://api.github.com/users/bfirsh/followers",
    "following_url": "https://api.github.com/users/bfirsh/following{/other_user}",
    "gists_url": "https://api.github.com/users/bfirsh/gists{/gist_id}",
    "starred_url": "https://api.github.com/users/bfirsh/starred{/owner}{/repo}",
    "subscriptions_url": "https://api.github.com/users/bfirsh/subscriptions",
    "organizations_url": "https://api.github.com/users/bfirsh/orgs",
    "repos_url": "https://api.github.com/users/bfirsh/repos",
    "events_url": "https://api.github.com/users/bfirsh/events{/privacy}",
    "received_events_url": "https://api.github.com/users/bfirsh/received_events",
    "type": "User",
    "site_admin": false
  },
  "created_at": "2014-07-11T17:16:16Z",
  "updated_at": "2014-07-11T17:16:16Z",
  "body": "Will roll 0.5.0 when #297 is in, because that's pretty cool. ;)"
}
, {
  "url": "https://api.github.com/repos/docker/compose/issues/comments/48763960",
  "html_url": "https://github.com/docker/compose/issues/285#issuecomment-48763960",
  "issue_url": "https://api.github.com/repos/docker/compose/issues/285",
  "id": 48763960,
  "user": {
    "login": "nicgrayson",
    "id": 793886,
    "avatar_url": "https://avatars.githubusercontent.com/u/793886?v=3",
    "gravatar_id": "",
    "url": "https://api.github.com/users/nicgrayson",
    "html_url": "https://github.com/nicgrayson",
    "followers_url": "https://api.github.com/users/nicgrayson/followers",
    "following_url": "https://api.github.com/users/nicgrayson/following{/other_user}",
    "gists_url": "https://api.github.com/users/nicgrayson/gists{/gist_id}",
    "starred_url": "https://api.github.com/users/nicgrayson/starred{/owner}{/repo}",
    "subscriptions_url": "https://api.github.com/users/nicgrayson/subscriptions",
    "organizations_url": "https://api.github.com/users/nicgrayson/orgs",
    "repos_url": "https://api.github.com/users/nicgrayson/repos",
    "events_url": "https://api.github.com/users/nicgrayson/events{/privacy}",
    "received_events_url": "https://api.github.com/users/nicgrayson/received_events",
    "type": "User",
    "site_admin": false
  },
  "created_at": "2014-07-11T18:11:46Z",
  "updated_at": "2014-07-11T18:11:46Z",
  "body": "I was able to run a build fine on my mavericks machine."
}
, {
  "url": "https://api.github.com/repos/docker/compose/issues/comments/48765095",
  "html_url": "https://github.com/docker/compose/issues/285#issuecomment-48765095",
  "issue_url": "https://api.github.com/repos/docker/compose/issues/285",
  "id": 48765095,
  "user": {
    "login": "bfirsh",
    "id": 40906,
    "avatar_url": "https://avatars.githubusercontent.com/u/40906?v=3",
    "gravatar_id": "",
    "url": "https://api.github.com/users/bfirsh",
    "html_url": "https://github.com/bfirsh",
    "followers_url": "https://api.github.com/users/bfirsh/followers",
    "following_url": "https://api.github.com/users/bfirsh/following{/other_user}",
    "gists_url": "https://api.github.com/users/bfirsh/gists{/gist_id}",
    "starred_url": "https://api.github.com/users/bfirsh/starred{/owner}{/repo}",
    "subscriptions_url": "https://api.github.com/users/bfirsh/subscriptions",
    "organizations_url": "https://api.github.com/users/bfirsh/orgs",
    "repos_url": "https://api.github.com/users/bfirsh/repos",
    "events_url": "https://api.github.com/users/bfirsh/events{/privacy}",
    "received_events_url": "https://api.github.com/users/bfirsh/received_events",
    "type": "User",
    "site_admin": false
  },
  "created_at": "2014-07-11T18:21:07Z",
  "updated_at": "2014-07-11T18:21:07Z",
  "body": "#307 tada"
}
, {
  "url": "https://api.github.com/repos/docker/compose/issues/comments/128986443",
  "html_url": "https://github.com/docker/compose/issues/285#issuecomment-128986443",
  "issue_url": "https://api.github.com/repos/docker/compose/issues/285",
  "id": 128986443,
  "user": {
    "login": "dnephin",
    "id": 442180,
    "avatar_url": "https://avatars.githubusercontent.com/u/442180?v=3",
    "gravatar_id": "",
    "url": "https://api.github.com/users/dnephin",
    "html_url": "https://github.com/dnephin",
    "followers_url": "https://api.github.com/users/dnephin/followers",
    "following_url": "https://api.github.com/users/dnephin/following{/other_user}",
    "gists_url": "https://api.github.com/users/dnephin/gists{/gist_id}",
    "starred_url": "https://api.github.com/users/dnephin/starred{/owner}{/repo}",
    "subscriptions_url": "https://api.github.com/users/dnephin/subscriptions",
    "organizations_url": "https://api.github.com/users/dnephin/orgs",
    "repos_url": "https://api.github.com/users/dnephin/repos",
    "events_url": "https://api.github.com/users/dnephin/events{/privacy}",
    "received_events_url": "https://api.github.com/users/dnephin/received_events",
    "type": "User",
    "site_admin": false
  },
  "created_at": "2015-08-08T14:23:03Z",
  "updated_at": "2015-08-08T14:23:03Z",
  "body": "Compose is now released on a regular schedule (every 2 months I believe), and the version is bumped to a dev version between releases."
}
]
