[
{
  "login": "Roguelazer",
  "id": 263424,
  "avatar_url": "https://avatars.githubusercontent.com/u/263424?v=3",
  "gravatar_id": "",
  "url": "https://api.github.com/users/Roguelazer",
  "html_url": "https://github.com/Roguelazer",
  "followers_url": "https://api.github.com/users/Roguelazer/followers",
  "following_url": "https://api.github.com/users/Roguelazer/following{/other_user}",
  "gists_url": "https://api.github.com/users/Roguelazer/gists{/gist_id}",
  "starred_url": "https://api.github.com/users/Roguelazer/starred{/owner}{/repo}",
  "subscriptions_url": "https://api.github.com/users/Roguelazer/subscriptions",
  "organizations_url": "https://api.github.com/users/Roguelazer/orgs",
  "repos_url": "https://api.github.com/users/Roguelazer/repos",
  "events_url": "https://api.github.com/users/Roguelazer/events{/privacy}",
  "received_events_url": "https://api.github.com/users/Roguelazer/received_events",
  "type": "User",
  "site_admin": false
}
, {
  "login": "alxerg",
  "id": 496608,
  "avatar_url": "https://avatars.githubusercontent.com/u/496608?v=3",
  "gravatar_id": "",
  "url": "https://api.github.com/users/alxerg",
  "html_url": "https://github.com/alxerg",
  "followers_url": "https://api.github.com/users/alxerg/followers",
  "following_url": "https://api.github.com/users/alxerg/following{/other_user}",
  "gists_url": "https://api.github.com/users/alxerg/gists{/gist_id}",
  "starred_url": "https://api.github.com/users/alxerg/starred{/owner}{/repo}",
  "subscriptions_url": "https://api.github.com/users/alxerg/subscriptions",
  "organizations_url": "https://api.github.com/users/alxerg/orgs",
  "repos_url": "https://api.github.com/users/alxerg/repos",
  "events_url": "https://api.github.com/users/alxerg/events{/privacy}",
  "received_events_url": "https://api.github.com/users/alxerg/received_events",
  "type": "User",
  "site_admin": false
}
, {
  "login": "dvirsky",
  "id": 503226,
  "avatar_url": "https://avatars.githubusercontent.com/u/503226?v=3",
  "gravatar_id": "",
  "url": "https://api.github.com/users/dvirsky",
  "html_url": "https://github.com/dvirsky",
  "followers_url": "https://api.github.com/users/dvirsky/followers",
  "following_url": "https://api.github.com/users/dvirsky/following{/other_user}",
  "gists_url": "https://api.github.com/users/dvirsky/gists{/gist_id}",
  "starred_url": "https://api.github.com/users/dvirsky/starred{/owner}{/repo}",
  "subscriptions_url": "https://api.github.com/users/dvirsky/subscriptions",
  "organizations_url": "https://api.github.com/users/dvirsky/orgs",
  "repos_url": "https://api.github.com/users/dvirsky/repos",
  "events_url": "https://api.github.com/users/dvirsky/events{/privacy}",
  "received_events_url": "https://api.github.com/users/dvirsky/received_events",
  "type": "User",
  "site_admin": false
}
, {
  "login": "xupeng",
  "id": 259658,
  "avatar_url": "https://avatars.githubusercontent.com/u/259658?v=3",
  "gravatar_id": "",
  "url": "https://api.github.com/users/xupeng",
  "html_url": "https://github.com/xupeng",
  "followers_url": "https://api.github.com/users/xupeng/followers",
  "following_url": "https://api.github.com/users/xupeng/following{/other_user}",
  "gists_url": "https://api.github.com/users/xupeng/gists{/gist_id}",
  "starred_url": "https://api.github.com/users/xupeng/starred{/owner}{/repo}",
  "subscriptions_url": "https://api.github.com/users/xupeng/subscriptions",
  "organizations_url": "https://api.github.com/users/xupeng/orgs",
  "repos_url": "https://api.github.com/users/xupeng/repos",
  "events_url": "https://api.github.com/users/xupeng/events{/privacy}",
  "received_events_url": "https://api.github.com/users/xupeng/received_events",
  "type": "User",
  "site_admin": false
}
, {
  "login": "dnephin",
  "id": 442180,
  "avatar_url": "https://avatars.githubusercontent.com/u/442180?v=3",
  "gravatar_id": "",
  "url": "https://api.github.com/users/dnephin",
  "html_url": "https://github.com/dnephin",
  "followers_url": "https://api.github.com/users/dnephin/followers",
  "following_url": "https://api.github.com/users/dnephin/following{/other_user}",
  "gists_url": "https://api.github.com/users/dnephin/gists{/gist_id}",
  "starred_url": "https://api.github.com/users/dnephin/starred{/owner}{/repo}",
  "subscriptions_url": "https://api.github.com/users/dnephin/subscriptions",
  "organizations_url": "https://api.github.com/users/dnephin/orgs",
  "repos_url": "https://api.github.com/users/dnephin/repos",
  "events_url": "https://api.github.com/users/dnephin/events{/privacy}",
  "received_events_url": "https://api.github.com/users/dnephin/received_events",
  "type": "User",
  "site_admin": false
}
, {
  "login": "sinopower",
  "id": 33787,
  "avatar_url": "https://avatars.githubusercontent.com/u/33787?v=3",
  "gravatar_id": "",
  "url": "https://api.github.com/users/sinopower",
  "html_url": "https://github.com/sinopower",
  "followers_url": "https://api.github.com/users/sinopower/followers",
  "following_url": "https://api.github.com/users/sinopower/following{/other_user}",
  "gists_url": "https://api.github.com/users/sinopower/gists{/gist_id}",
  "starred_url": "https://api.github.com/users/sinopower/starred{/owner}{/repo}",
  "subscriptions_url": "https://api.github.com/users/sinopower/subscriptions",
  "organizations_url": "https://api.github.com/users/sinopower/orgs",
  "repos_url": "https://api.github.com/users/sinopower/repos",
  "events_url": "https://api.github.com/users/sinopower/events{/privacy}",
  "received_events_url": "https://api.github.com/users/sinopower/received_events",
  "type": "User",
  "site_admin": false
}
, {
  "login": "hashbrowncipher",
  "id": 124699,
  "avatar_url": "https://avatars.githubusercontent.com/u/124699?v=3",
  "gravatar_id": "",
  "url": "https://api.github.com/users/hashbrowncipher",
  "html_url": "https://github.com/hashbrowncipher",
  "followers_url": "https://api.github.com/users/hashbrowncipher/followers",
  "following_url": "https://api.github.com/users/hashbrowncipher/following{/other_user}",
  "gists_url": "https://api.github.com/users/hashbrowncipher/gists{/gist_id}",
  "starred_url": "https://api.github.com/users/hashbrowncipher/starred{/owner}{/repo}",
  "subscriptions_url": "https://api.github.com/users/hashbrowncipher/subscriptions",
  "organizations_url": "https://api.github.com/users/hashbrowncipher/orgs",
  "repos_url": "https://api.github.com/users/hashbrowncipher/repos",
  "events_url": "https://api.github.com/users/hashbrowncipher/events{/privacy}",
  "received_events_url": "https://api.github.com/users/hashbrowncipher/received_events",
  "type": "User",
  "site_admin": false
}
, {
  "login": "linfan-",
  "id": 1996677,
  "avatar_url": "https://avatars.githubusercontent.com/u/1996677?v=3",
  "gravatar_id": "",
  "url": "https://api.github.com/users/linfan-",
  "html_url": "https://github.com/linfan-",
  "followers_url": "https://api.github.com/users/linfan-/followers",
  "following_url": "https://api.github.com/users/linfan-/following{/other_user}",
  "gists_url": "https://api.github.com/users/linfan-/gists{/gist_id}",
  "starred_url": "https://api.github.com/users/linfan-/starred{/owner}{/repo}",
  "subscriptions_url": "https://api.github.com/users/linfan-/subscriptions",
  "organizations_url": "https://api.github.com/users/linfan-/orgs",
  "repos_url": "https://api.github.com/users/linfan-/repos",
  "events_url": "https://api.github.com/users/linfan-/events{/privacy}",
  "received_events_url": "https://api.github.com/users/linfan-/received_events",
  "type": "User",
  "site_admin": false
}
, {
  "login": "napoleonu",
  "id": 406618,
  "avatar_url": "https://avatars.githubusercontent.com/u/406618?v=3",
  "gravatar_id": "",
  "url": "https://api.github.com/users/napoleonu",
  "html_url": "https://github.com/napoleonu",
  "followers_url": "https://api.github.com/users/napoleonu/followers",
  "following_url": "https://api.github.com/users/napoleonu/following{/other_user}",
  "gists_url": "https://api.github.com/users/napoleonu/gists{/gist_id}",
  "starred_url": "https://api.github.com/users/napoleonu/starred{/owner}{/repo}",
  "subscriptions_url": "https://api.github.com/users/napoleonu/subscriptions",
  "organizations_url": "https://api.github.com/users/napoleonu/orgs",
  "repos_url": "https://api.github.com/users/napoleonu/repos",
  "events_url": "https://api.github.com/users/napoleonu/events{/privacy}",
  "received_events_url": "https://api.github.com/users/napoleonu/received_events",
  "type": "User",
  "site_admin": false
}
, {
  "login": "analogue",
  "id": 26757,
  "avatar_url": "https://avatars.githubusercontent.com/u/26757?v=3",
  "gravatar_id": "",
  "url": "https://api.github.com/users/analogue",
  "html_url": "https://github.com/analogue",
  "followers_url": "https://api.github.com/users/analogue/followers",
  "following_url": "https://api.github.com/users/analogue/following{/other_user}",
  "gists_url": "https://api.github.com/users/analogue/gists{/gist_id}",
  "starred_url": "https://api.github.com/users/analogue/starred{/owner}{/repo}",
  "subscriptions_url": "https://api.github.com/users/analogue/subscriptions",
  "organizations_url": "https://api.github.com/users/analogue/orgs",
  "repos_url": "https://api.github.com/users/analogue/repos",
  "events_url": "https://api.github.com/users/analogue/events{/privacy}",
  "received_events_url": "https://api.github.com/users/analogue/received_events",
  "type": "User",
  "site_admin": false
}
, {
  "login": "patricklucas",
  "id": 95053,
  "avatar_url": "https://avatars.githubusercontent.com/u/95053?v=3",
  "gravatar_id": "",
  "url": "https://api.github.com/users/patricklucas",
  "html_url": "https://github.com/patricklucas",
  "followers_url": "https://api.github.com/users/patricklucas/followers",
  "following_url": "https://api.github.com/users/patricklucas/following{/other_user}",
  "gists_url": "https://api.github.com/users/patricklucas/gists{/gist_id}",
  "starred_url": "https://api.github.com/users/patricklucas/starred{/owner}{/repo}",
  "subscriptions_url": "https://api.github.com/users/patricklucas/subscriptions",
  "organizations_url": "https://api.github.com/users/patricklucas/orgs",
  "repos_url": "https://api.github.com/users/patricklucas/repos",
  "events_url": "https://api.github.com/users/patricklucas/events{/privacy}",
  "received_events_url": "https://api.github.com/users/patricklucas/received_events",
  "type": "User",
  "site_admin": false
}
, {
  "login": "zachm",
  "id": 229114,
  "avatar_url": "https://avatars.githubusercontent.com/u/229114?v=3",
  "gravatar_id": "",
  "url": "https://api.github.com/users/zachm",
  "html_url": "https://github.com/zachm",
  "followers_url": "https://api.github.com/users/zachm/followers",
  "following_url": "https://api.github.com/users/zachm/following{/other_user}",
  "gists_url": "https://api.github.com/users/zachm/gists{/gist_id}",
  "starred_url": "https://api.github.com/users/zachm/starred{/owner}{/repo}",
  "subscriptions_url": "https://api.github.com/users/zachm/subscriptions",
  "organizations_url": "https://api.github.com/users/zachm/orgs",
  "repos_url": "https://api.github.com/users/zachm/repos",
  "events_url": "https://api.github.com/users/zachm/events{/privacy}",
  "received_events_url": "https://api.github.com/users/zachm/received_events",
  "type": "User",
  "site_admin": false
}
, {
  "login": "ecanzonieri",
  "id": 1931314,
  "avatar_url": "https://avatars.githubusercontent.com/u/1931314?v=3",
  "gravatar_id": "",
  "url": "https://api.github.com/users/ecanzonieri",
  "html_url": "https://github.com/ecanzonieri",
  "followers_url": "https://api.github.com/users/ecanzonieri/followers",
  "following_url": "https://api.github.com/users/ecanzonieri/following{/other_user}",
  "gists_url": "https://api.github.com/users/ecanzonieri/gists{/gist_id}",
  "starred_url": "https://api.github.com/users/ecanzonieri/starred{/owner}{/repo}",
  "subscriptions_url": "https://api.github.com/users/ecanzonieri/subscriptions",
  "organizations_url": "https://api.github.com/users/ecanzonieri/orgs",
  "repos_url": "https://api.github.com/users/ecanzonieri/repos",
  "events_url": "https://api.github.com/users/ecanzonieri/events{/privacy}",
  "received_events_url": "https://api.github.com/users/ecanzonieri/received_events",
  "type": "User",
  "site_admin": false
}
, {
  "login": "smallredbean",
  "id": 3681205,
  "avatar_url": "https://avatars.githubusercontent.com/u/3681205?v=3",
  "gravatar_id": "",
  "url": "https://api.github.com/users/smallredbean",
  "html_url": "https://github.com/smallredbean",
  "followers_url": "https://api.github.com/users/smallredbean/followers",
  "following_url": "https://api.github.com/users/smallredbean/following{/other_user}",
  "gists_url": "https://api.github.com/users/smallredbean/gists{/gist_id}",
  "starred_url": "https://api.github.com/users/smallredbean/starred{/owner}{/repo}",
  "subscriptions_url": "https://api.github.com/users/smallredbean/subscriptions",
  "organizations_url": "https://api.github.com/users/smallredbean/orgs",
  "repos_url": "https://api.github.com/users/smallredbean/repos",
  "events_url": "https://api.github.com/users/smallredbean/events{/privacy}",
  "received_events_url": "https://api.github.com/users/smallredbean/received_events",
  "type": "User",
  "site_admin": false
}
, {
  "login": "yyejun",
  "id": 5640582,
  "avatar_url": "https://avatars.githubusercontent.com/u/5640582?v=3",
  "gravatar_id": "",
  "url": "https://api.github.com/users/yyejun",
  "html_url": "https://github.com/yyejun",
  "followers_url": "https://api.github.com/users/yyejun/followers",
  "following_url": "https://api.github.com/users/yyejun/following{/other_user}",
  "gists_url": "https://api.github.com/users/yyejun/gists{/gist_id}",
  "starred_url": "https://api.github.com/users/yyejun/starred{/owner}{/repo}",
  "subscriptions_url": "https://api.github.com/users/yyejun/subscriptions",
  "organizations_url": "https://api.github.com/users/yyejun/orgs",
  "repos_url": "https://api.github.com/users/yyejun/repos",
  "events_url": "https://api.github.com/users/yyejun/events{/privacy}",
  "received_events_url": "https://api.github.com/users/yyejun/received_events",
  "type": "User",
  "site_admin": false
}
, {
  "login": "dolphinsboy",
  "id": 4864391,
  "avatar_url": "https://avatars.githubusercontent.com/u/4864391?v=3",
  "gravatar_id": "",
  "url": "https://api.github.com/users/dolphinsboy",
  "html_url": "https://github.com/dolphinsboy",
  "followers_url": "https://api.github.com/users/dolphinsboy/followers",
  "following_url": "https://api.github.com/users/dolphinsboy/following{/other_user}",
  "gists_url": "https://api.github.com/users/dolphinsboy/gists{/gist_id}",
  "starred_url": "https://api.github.com/users/dolphinsboy/starred{/owner}{/repo}",
  "subscriptions_url": "https://api.github.com/users/dolphinsboy/subscriptions",
  "organizations_url": "https://api.github.com/users/dolphinsboy/orgs",
  "repos_url": "https://api.github.com/users/dolphinsboy/repos",
  "events_url": "https://api.github.com/users/dolphinsboy/events{/privacy}",
  "received_events_url": "https://api.github.com/users/dolphinsboy/received_events",
  "type": "User",
  "site_admin": false
}
, {
  "login": "keymone",
  "id": 7057,
  "avatar_url": "https://avatars.githubusercontent.com/u/7057?v=3",
  "gravatar_id": "",
  "url": "https://api.github.com/users/keymone",
  "html_url": "https://github.com/keymone",
  "followers_url": "https://api.github.com/users/keymone/followers",
  "following_url": "https://api.github.com/users/keymone/following{/other_user}",
  "gists_url": "https://api.github.com/users/keymone/gists{/gist_id}",
  "starred_url": "https://api.github.com/users/keymone/starred{/owner}{/repo}",
  "subscriptions_url": "https://api.github.com/users/keymone/subscriptions",
  "organizations_url": "https://api.github.com/users/keymone/orgs",
  "repos_url": "https://api.github.com/users/keymone/repos",
  "events_url": "https://api.github.com/users/keymone/events{/privacy}",
  "received_events_url": "https://api.github.com/users/keymone/received_events",
  "type": "User",
  "site_admin": false
}
, {
  "login": "bobtfish",
  "id": 42338,
  "avatar_url": "https://avatars.githubusercontent.com/u/42338?v=3",
  "gravatar_id": "",
  "url": "https://api.github.com/users/bobtfish",
  "html_url": "https://github.com/bobtfish",
  "followers_url": "https://api.github.com/users/bobtfish/followers",
  "following_url": "https://api.github.com/users/bobtfish/following{/other_user}",
  "gists_url": "https://api.github.com/users/bobtfish/gists{/gist_id}",
  "starred_url": "https://api.github.com/users/bobtfish/starred{/owner}{/repo}",
  "subscriptions_url": "https://api.github.com/users/bobtfish/subscriptions",
  "organizations_url": "https://api.github.com/users/bobtfish/orgs",
  "repos_url": "https://api.github.com/users/bobtfish/repos",
  "events_url": "https://api.github.com/users/bobtfish/events{/privacy}",
  "received_events_url": "https://api.github.com/users/bobtfish/received_events",
  "type": "User",
  "site_admin": false
}
, {
  "login": "juliankrause",
  "id": 50288,
  "avatar_url": "https://avatars.githubusercontent.com/u/50288?v=3",
  "gravatar_id": "",
  "url": "https://api.github.com/users/juliankrause",
  "html_url": "https://github.com/juliankrause",
  "followers_url": "https://api.github.com/users/juliankrause/followers",
  "following_url": "https://api.github.com/users/juliankrause/following{/other_user}",
  "gists_url": "https://api.github.com/users/juliankrause/gists{/gist_id}",
  "starred_url": "https://api.github.com/users/juliankrause/starred{/owner}{/repo}",
  "subscriptions_url": "https://api.github.com/users/juliankrause/subscriptions",
  "organizations_url": "https://api.github.com/users/juliankrause/orgs",
  "repos_url": "https://api.github.com/users/juliankrause/repos",
  "events_url": "https://api.github.com/users/juliankrause/events{/privacy}",
  "received_events_url": "https://api.github.com/users/juliankrause/received_events",
  "type": "User",
  "site_admin": false
}
, {
  "login": "yeled",
  "id": 200421,
  "avatar_url": "https://avatars.githubusercontent.com/u/200421?v=3",
  "gravatar_id": "",
  "url": "https://api.github.com/users/yeled",
  "html_url": "https://github.com/yeled",
  "followers_url": "https://api.github.com/users/yeled/followers",
  "following_url": "https://api.github.com/users/yeled/following{/other_user}",
  "gists_url": "https://api.github.com/users/yeled/gists{/gist_id}",
  "starred_url": "https://api.github.com/users/yeled/starred{/owner}{/repo}",
  "subscriptions_url": "https://api.github.com/users/yeled/subscriptions",
  "organizations_url": "https://api.github.com/users/yeled/orgs",
  "repos_url": "https://api.github.com/users/yeled/repos",
  "events_url": "https://api.github.com/users/yeled/events{/privacy}",
  "received_events_url": "https://api.github.com/users/yeled/received_events",
  "type": "User",
  "site_admin": false
}
, {
  "login": "EvanKrall",
  "id": 233961,
  "avatar_url": "https://avatars.githubusercontent.com/u/233961?v=3",
  "gravatar_id": "",
  "url": "https://api.github.com/users/EvanKrall",
  "html_url": "https://github.com/EvanKrall",
  "followers_url": "https://api.github.com/users/EvanKrall/followers",
  "following_url": "https://api.github.com/users/EvanKrall/following{/other_user}",
  "gists_url": "https://api.github.com/users/EvanKrall/gists{/gist_id}",
  "starred_url": "https://api.github.com/users/EvanKrall/starred{/owner}{/repo}",
  "subscriptions_url": "https://api.github.com/users/EvanKrall/subscriptions",
  "organizations_url": "https://api.github.com/users/EvanKrall/orgs",
  "repos_url": "https://api.github.com/users/EvanKrall/repos",
  "events_url": "https://api.github.com/users/EvanKrall/events{/privacy}",
  "received_events_url": "https://api.github.com/users/EvanKrall/received_events",
  "type": "User",
  "site_admin": false
}
, {
  "login": "lmovsesjan",
  "id": 243738,
  "avatar_url": "https://avatars.githubusercontent.com/u/243738?v=3",
  "gravatar_id": "",
  "url": "https://api.github.com/users/lmovsesjan",
  "html_url": "https://github.com/lmovsesjan",
  "followers_url": "https://api.github.com/users/lmovsesjan/followers",
  "following_url": "https://api.github.com/users/lmovsesjan/following{/other_user}",
  "gists_url": "https://api.github.com/users/lmovsesjan/gists{/gist_id}",
  "starred_url": "https://api.github.com/users/lmovsesjan/starred{/owner}{/repo}",
  "subscriptions_url": "https://api.github.com/users/lmovsesjan/subscriptions",
  "organizations_url": "https://api.github.com/users/lmovsesjan/orgs",
  "repos_url": "https://api.github.com/users/lmovsesjan/repos",
  "events_url": "https://api.github.com/users/lmovsesjan/events{/privacy}",
  "received_events_url": "https://api.github.com/users/lmovsesjan/received_events",
  "type": "User",
  "site_admin": false
}
, {
  "login": "solarkennedy",
  "id": 370205,
  "avatar_url": "https://avatars.githubusercontent.com/u/370205?v=3",
  "gravatar_id": "",
  "url": "https://api.github.com/users/solarkennedy",
  "html_url": "https://github.com/solarkennedy",
  "followers_url": "https://api.github.com/users/solarkennedy/followers",
  "following_url": "https://api.github.com/users/solarkennedy/following{/other_user}",
  "gists_url": "https://api.github.com/users/solarkennedy/gists{/gist_id}",
  "starred_url": "https://api.github.com/users/solarkennedy/starred{/owner}{/repo}",
  "subscriptions_url": "https://api.github.com/users/solarkennedy/subscriptions",
  "organizations_url": "https://api.github.com/users/solarkennedy/orgs",
  "repos_url": "https://api.github.com/users/solarkennedy/repos",
  "events_url": "https://api.github.com/users/solarkennedy/events{/privacy}",
  "received_events_url": "https://api.github.com/users/solarkennedy/received_events",
  "type": "User",
  "site_admin": false
}
, {
  "login": "fhats",
  "id": 374945,
  "avatar_url": "https://avatars.githubusercontent.com/u/374945?v=3",
  "gravatar_id": "",
  "url": "https://api.github.com/users/fhats",
  "html_url": "https://github.com/fhats",
  "followers_url": "https://api.github.com/users/fhats/followers",
  "following_url": "https://api.github.com/users/fhats/following{/other_user}",
  "gists_url": "https://api.github.com/users/fhats/gists{/gist_id}",
  "starred_url": "https://api.github.com/users/fhats/starred{/owner}{/repo}",
  "subscriptions_url": "https://api.github.com/users/fhats/subscriptions",
  "organizations_url": "https://api.github.com/users/fhats/orgs",
  "repos_url": "https://api.github.com/users/fhats/repos",
  "events_url": "https://api.github.com/users/fhats/events{/privacy}",
  "received_events_url": "https://api.github.com/users/fhats/received_events",
  "type": "User",
  "site_admin": false
}
, {
  "login": "pauloconnor",
  "id": 465717,
  "avatar_url": "https://avatars.githubusercontent.com/u/465717?v=3",
  "gravatar_id": "",
  "url": "https://api.github.com/users/pauloconnor",
  "html_url": "https://github.com/pauloconnor",
  "followers_url": "https://api.github.com/users/pauloconnor/followers",
  "following_url": "https://api.github.com/users/pauloconnor/following{/other_user}",
  "gists_url": "https://api.github.com/users/pauloconnor/gists{/gist_id}",
  "starred_url": "https://api.github.com/users/pauloconnor/starred{/owner}{/repo}",
  "subscriptions_url": "https://api.github.com/users/pauloconnor/subscriptions",
  "organizations_url": "https://api.github.com/users/pauloconnor/orgs",
  "repos_url": "https://api.github.com/users/pauloconnor/repos",
  "events_url": "https://api.github.com/users/pauloconnor/events{/privacy}",
  "received_events_url": "https://api.github.com/users/pauloconnor/received_events",
  "type": "User",
  "site_admin": false
}
, {
  "login": "kmosher",
  "id": 834089,
  "avatar_url": "https://avatars.githubusercontent.com/u/834089?v=3",
  "gravatar_id": "",
  "url": "https://api.github.com/users/kmosher",
  "html_url": "https://github.com/kmosher",
  "followers_url": "https://api.github.com/users/kmosher/followers",
  "following_url": "https://api.github.com/users/kmosher/following{/other_user}",
  "gists_url": "https://api.github.com/users/kmosher/gists{/gist_id}",
  "starred_url": "https://api.github.com/users/kmosher/starred{/owner}{/repo}",
  "subscriptions_url": "https://api.github.com/users/kmosher/subscriptions",
  "organizations_url": "https://api.github.com/users/kmosher/orgs",
  "repos_url": "https://api.github.com/users/kmosher/repos",
  "events_url": "https://api.github.com/users/kmosher/events{/privacy}",
  "received_events_url": "https://api.github.com/users/kmosher/received_events",
  "type": "User",
  "site_admin": false
}
, {
  "login": "jolynch",
  "id": 1420460,
  "avatar_url": "https://avatars.githubusercontent.com/u/1420460?v=3",
  "gravatar_id": "",
  "url": "https://api.github.com/users/jolynch",
  "html_url": "https://github.com/jolynch",
  "followers_url": "https://api.github.com/users/jolynch/followers",
  "following_url": "https://api.github.com/users/jolynch/following{/other_user}",
  "gists_url": "https://api.github.com/users/jolynch/gists{/gist_id}",
  "starred_url": "https://api.github.com/users/jolynch/starred{/owner}{/repo}",
  "subscriptions_url": "https://api.github.com/users/jolynch/subscriptions",
  "organizations_url": "https://api.github.com/users/jolynch/orgs",
  "repos_url": "https://api.github.com/users/jolynch/repos",
  "events_url": "https://api.github.com/users/jolynch/events{/privacy}",
  "received_events_url": "https://api.github.com/users/jolynch/received_events",
  "type": "User",
  "site_admin": false
}
, {
  "login": "trumpcard",
  "id": 4053727,
  "avatar_url": "https://avatars.githubusercontent.com/u/4053727?v=3",
  "gravatar_id": "",
  "url": "https://api.github.com/users/trumpcard",
  "html_url": "https://github.com/trumpcard",
  "followers_url": "https://api.github.com/users/trumpcard/followers",
  "following_url": "https://api.github.com/users/trumpcard/following{/other_user}",
  "gists_url": "https://api.github.com/users/trumpcard/gists{/gist_id}",
  "starred_url": "https://api.github.com/users/trumpcard/starred{/owner}{/repo}",
  "subscriptions_url": "https://api.github.com/users/trumpcard/subscriptions",
  "organizations_url": "https://api.github.com/users/trumpcard/orgs",
  "repos_url": "https://api.github.com/users/trumpcard/repos",
  "events_url": "https://api.github.com/users/trumpcard/events{/privacy}",
  "received_events_url": "https://api.github.com/users/trumpcard/received_events",
  "type": "User",
  "site_admin": false
}
, {
  "login": "mos94109",
  "id": 8270259,
  "avatar_url": "https://avatars.githubusercontent.com/u/8270259?v=3",
  "gravatar_id": "",
  "url": "https://api.github.com/users/mos94109",
  "html_url": "https://github.com/mos94109",
  "followers_url": "https://api.github.com/users/mos94109/followers",
  "following_url": "https://api.github.com/users/mos94109/following{/other_user}",
  "gists_url": "https://api.github.com/users/mos94109/gists{/gist_id}",
  "starred_url": "https://api.github.com/users/mos94109/starred{/owner}{/repo}",
  "subscriptions_url": "https://api.github.com/users/mos94109/subscriptions",
  "organizations_url": "https://api.github.com/users/mos94109/orgs",
  "repos_url": "https://api.github.com/users/mos94109/repos",
  "events_url": "https://api.github.com/users/mos94109/events{/privacy}",
  "received_events_url": "https://api.github.com/users/mos94109/received_events",
  "type": "User",
  "site_admin": false
}
, {
  "login": "somic",
  "id": 16408,
  "avatar_url": "https://avatars.githubusercontent.com/u/16408?v=3",
  "gravatar_id": "",
  "url": "https://api.github.com/users/somic",
  "html_url": "https://github.com/somic",
  "followers_url": "https://api.github.com/users/somic/followers",
  "following_url": "https://api.github.com/users/somic/following{/other_user}",
  "gists_url": "https://api.github.com/users/somic/gists{/gist_id}",
  "starred_url": "https://api.github.com/users/somic/starred{/owner}{/repo}",
  "subscriptions_url": "https://api.github.com/users/somic/subscriptions",
  "organizations_url": "https://api.github.com/users/somic/orgs",
  "repos_url": "https://api.github.com/users/somic/repos",
  "events_url": "https://api.github.com/users/somic/events{/privacy}",
  "received_events_url": "https://api.github.com/users/somic/received_events",
  "type": "User",
  "site_admin": false
}
, {
  "login": "georgebashi",
  "id": 172470,
  "avatar_url": "https://avatars.githubusercontent.com/u/172470?v=3",
  "gravatar_id": "",
  "url": "https://api.github.com/users/georgebashi",
  "html_url": "https://github.com/georgebashi",
  "followers_url": "https://api.github.com/users/georgebashi/followers",
  "following_url": "https://api.github.com/users/georgebashi/following{/other_user}",
  "gists_url": "https://api.github.com/users/georgebashi/gists{/gist_id}",
  "starred_url": "https://api.github.com/users/georgebashi/starred{/owner}{/repo}",
  "subscriptions_url": "https://api.github.com/users/georgebashi/subscriptions",
  "organizations_url": "https://api.github.com/users/georgebashi/orgs",
  "repos_url": "https://api.github.com/users/georgebashi/repos",
  "events_url": "https://api.github.com/users/georgebashi/events{/privacy}",
  "received_events_url": "https://api.github.com/users/georgebashi/received_events",
  "type": "User",
  "site_admin": false
}
, {
  "login": "thomasco",
  "id": 333602,
  "avatar_url": "https://avatars.githubusercontent.com/u/333602?v=3",
  "gravatar_id": "",
  "url": "https://api.github.com/users/thomasco",
  "html_url": "https://github.com/thomasco",
  "followers_url": "https://api.github.com/users/thomasco/followers",
  "following_url": "https://api.github.com/users/thomasco/following{/other_user}",
  "gists_url": "https://api.github.com/users/thomasco/gists{/gist_id}",
  "starred_url": "https://api.github.com/users/thomasco/starred{/owner}{/repo}",
  "subscriptions_url": "https://api.github.com/users/thomasco/subscriptions",
  "organizations_url": "https://api.github.com/users/thomasco/orgs",
  "repos_url": "https://api.github.com/users/thomasco/repos",
  "events_url": "https://api.github.com/users/thomasco/events{/privacy}",
  "received_events_url": "https://api.github.com/users/thomasco/received_events",
  "type": "User",
  "site_admin": false
}
, {
  "login": "jowala",
  "id": 8526857,
  "avatar_url": "https://avatars.githubusercontent.com/u/8526857?v=3",
  "gravatar_id": "",
  "url": "https://api.github.com/users/jowala",
  "html_url": "https://github.com/jowala",
  "followers_url": "https://api.github.com/users/jowala/followers",
  "following_url": "https://api.github.com/users/jowala/following{/other_user}",
  "gists_url": "https://api.github.com/users/jowala/gists{/gist_id}",
  "starred_url": "https://api.github.com/users/jowala/starred{/owner}{/repo}",
  "subscriptions_url": "https://api.github.com/users/jowala/subscriptions",
  "organizations_url": "https://api.github.com/users/jowala/orgs",
  "repos_url": "https://api.github.com/users/jowala/repos",
  "events_url": "https://api.github.com/users/jowala/events{/privacy}",
  "received_events_url": "https://api.github.com/users/jowala/received_events",
  "type": "User",
  "site_admin": false
}
, {
  "login": "shahsaifi",
  "id": 790419,
  "avatar_url": "https://avatars.githubusercontent.com/u/790419?v=3",
  "gravatar_id": "",
  "url": "https://api.github.com/users/shahsaifi",
  "html_url": "https://github.com/shahsaifi",
  "followers_url": "https://api.github.com/users/shahsaifi/followers",
  "following_url": "https://api.github.com/users/shahsaifi/following{/other_user}",
  "gists_url": "https://api.github.com/users/shahsaifi/gists{/gist_id}",
  "starred_url": "https://api.github.com/users/shahsaifi/starred{/owner}{/repo}",
  "subscriptions_url": "https://api.github.com/users/shahsaifi/subscriptions",
  "organizations_url": "https://api.github.com/users/shahsaifi/orgs",
  "repos_url": "https://api.github.com/users/shahsaifi/repos",
  "events_url": "https://api.github.com/users/shahsaifi/events{/privacy}",
  "received_events_url": "https://api.github.com/users/shahsaifi/received_events",
  "type": "User",
  "site_admin": false
}
, {
  "login": "jnb",
  "id": 514311,
  "avatar_url": "https://avatars.githubusercontent.com/u/514311?v=3",
  "gravatar_id": "",
  "url": "https://api.github.com/users/jnb",
  "html_url": "https://github.com/jnb",
  "followers_url": "https://api.github.com/users/jnb/followers",
  "following_url": "https://api.github.com/users/jnb/following{/other_user}",
  "gists_url": "https://api.github.com/users/jnb/gists{/gist_id}",
  "starred_url": "https://api.github.com/users/jnb/starred{/owner}{/repo}",
  "subscriptions_url": "https://api.github.com/users/jnb/subscriptions",
  "organizations_url": "https://api.github.com/users/jnb/orgs",
  "repos_url": "https://api.github.com/users/jnb/repos",
  "events_url": "https://api.github.com/users/jnb/events{/privacy}",
  "received_events_url": "https://api.github.com/users/jnb/received_events",
  "type": "User",
  "site_admin": false
}
, {
  "login": "queeno",
  "id": 1544527,
  "avatar_url": "https://avatars.githubusercontent.com/u/1544527?v=3",
  "gravatar_id": "",
  "url": "https://api.github.com/users/queeno",
  "html_url": "https://github.com/queeno",
  "followers_url": "https://api.github.com/users/queeno/followers",
  "following_url": "https://api.github.com/users/queeno/following{/other_user}",
  "gists_url": "https://api.github.com/users/queeno/gists{/gist_id}",
  "starred_url": "https://api.github.com/users/queeno/starred{/owner}{/repo}",
  "subscriptions_url": "https://api.github.com/users/queeno/subscriptions",
  "organizations_url": "https://api.github.com/users/queeno/orgs",
  "repos_url": "https://api.github.com/users/queeno/repos",
  "events_url": "https://api.github.com/users/queeno/events{/privacy}",
  "received_events_url": "https://api.github.com/users/queeno/received_events",
  "type": "User",
  "site_admin": false
}
, {
  "login": "jglukasik",
  "id": 6445082,
  "avatar_url": "https://avatars.githubusercontent.com/u/6445082?v=3",
  "gravatar_id": "",
  "url": "https://api.github.com/users/jglukasik",
  "html_url": "https://github.com/jglukasik",
  "followers_url": "https://api.github.com/users/jglukasik/followers",
  "following_url": "https://api.github.com/users/jglukasik/following{/other_user}",
  "gists_url": "https://api.github.com/users/jglukasik/gists{/gist_id}",
  "starred_url": "https://api.github.com/users/jglukasik/starred{/owner}{/repo}",
  "subscriptions_url": "https://api.github.com/users/jglukasik/subscriptions",
  "organizations_url": "https://api.github.com/users/jglukasik/orgs",
  "repos_url": "https://api.github.com/users/jglukasik/repos",
  "events_url": "https://api.github.com/users/jglukasik/events{/privacy}",
  "received_events_url": "https://api.github.com/users/jglukasik/received_events",
  "type": "User",
  "site_admin": false
}
, {
  "login": "zeldinha",
  "id": 5545052,
  "avatar_url": "https://avatars.githubusercontent.com/u/5545052?v=3",
  "gravatar_id": "",
  "url": "https://api.github.com/users/zeldinha",
  "html_url": "https://github.com/zeldinha",
  "followers_url": "https://api.github.com/users/zeldinha/followers",
  "following_url": "https://api.github.com/users/zeldinha/following{/other_user}",
  "gists_url": "https://api.github.com/users/zeldinha/gists{/gist_id}",
  "starred_url": "https://api.github.com/users/zeldinha/starred{/owner}{/repo}",
  "subscriptions_url": "https://api.github.com/users/zeldinha/subscriptions",
  "organizations_url": "https://api.github.com/users/zeldinha/orgs",
  "repos_url": "https://api.github.com/users/zeldinha/repos",
  "events_url": "https://api.github.com/users/zeldinha/events{/privacy}",
  "received_events_url": "https://api.github.com/users/zeldinha/received_events",
  "type": "User",
  "site_admin": false
}
, {
  "login": "Rob-Johnson",
  "id": 1389671,
  "avatar_url": "https://avatars.githubusercontent.com/u/1389671?v=3",
  "gravatar_id": "",
  "url": "https://api.github.com/users/Rob-Johnson",
  "html_url": "https://github.com/Rob-Johnson",
  "followers_url": "https://api.github.com/users/Rob-Johnson/followers",
  "following_url": "https://api.github.com/users/Rob-Johnson/following{/other_user}",
  "gists_url": "https://api.github.com/users/Rob-Johnson/gists{/gist_id}",
  "starred_url": "https://api.github.com/users/Rob-Johnson/starred{/owner}{/repo}",
  "subscriptions_url": "https://api.github.com/users/Rob-Johnson/subscriptions",
  "organizations_url": "https://api.github.com/users/Rob-Johnson/orgs",
  "repos_url": "https://api.github.com/users/Rob-Johnson/repos",
  "events_url": "https://api.github.com/users/Rob-Johnson/events{/privacy}",
  "received_events_url": "https://api.github.com/users/Rob-Johnson/received_events",
  "type": "User",
  "site_admin": false
}
, {
  "login": "vulpine",
  "id": 1384718,
  "avatar_url": "https://avatars.githubusercontent.com/u/1384718?v=3",
  "gravatar_id": "",
  "url": "https://api.github.com/users/vulpine",
  "html_url": "https://github.com/vulpine",
  "followers_url": "https://api.github.com/users/vulpine/followers",
  "following_url": "https://api.github.com/users/vulpine/following{/other_user}",
  "gists_url": "https://api.github.com/users/vulpine/gists{/gist_id}",
  "starred_url": "https://api.github.com/users/vulpine/starred{/owner}{/repo}",
  "subscriptions_url": "https://api.github.com/users/vulpine/subscriptions",
  "organizations_url": "https://api.github.com/users/vulpine/orgs",
  "repos_url": "https://api.github.com/users/vulpine/repos",
  "events_url": "https://api.github.com/users/vulpine/events{/privacy}",
  "received_events_url": "https://api.github.com/users/vulpine/received_events",
  "type": "User",
  "site_admin": false
}
, {
  "login": "sarguru",
  "id": 828926,
  "avatar_url": "https://avatars.githubusercontent.com/u/828926?v=3",
  "gravatar_id": "",
  "url": "https://api.github.com/users/sarguru",
  "html_url": "https://github.com/sarguru",
  "followers_url": "https://api.github.com/users/sarguru/followers",
  "following_url": "https://api.github.com/users/sarguru/following{/other_user}",
  "gists_url": "https://api.github.com/users/sarguru/gists{/gist_id}",
  "starred_url": "https://api.github.com/users/sarguru/starred{/owner}{/repo}",
  "subscriptions_url": "https://api.github.com/users/sarguru/subscriptions",
  "organizations_url": "https://api.github.com/users/sarguru/orgs",
  "repos_url": "https://api.github.com/users/sarguru/repos",
  "events_url": "https://api.github.com/users/sarguru/events{/privacy}",
  "received_events_url": "https://api.github.com/users/sarguru/received_events",
  "type": "User",
  "site_admin": false
}
, {
  "login": "jaxxstorm",
  "id": 1622940,
  "avatar_url": "https://avatars.githubusercontent.com/u/1622940?v=3",
  "gravatar_id": "",
  "url": "https://api.github.com/users/jaxxstorm",
  "html_url": "https://github.com/jaxxstorm",
  "followers_url": "https://api.github.com/users/jaxxstorm/followers",
  "following_url": "https://api.github.com/users/jaxxstorm/following{/other_user}",
  "gists_url": "https://api.github.com/users/jaxxstorm/gists{/gist_id}",
  "starred_url": "https://api.github.com/users/jaxxstorm/starred{/owner}{/repo}",
  "subscriptions_url": "https://api.github.com/users/jaxxstorm/subscriptions",
  "organizations_url": "https://api.github.com/users/jaxxstorm/orgs",
  "repos_url": "https://api.github.com/users/jaxxstorm/repos",
  "events_url": "https://api.github.com/users/jaxxstorm/events{/privacy}",
  "received_events_url": "https://api.github.com/users/jaxxstorm/received_events",
  "type": "User",
  "site_admin": false
}
, {
  "login": "gkayling",
  "id": 1427707,
  "avatar_url": "https://avatars.githubusercontent.com/u/1427707?v=3",
  "gravatar_id": "",
  "url": "https://api.github.com/users/gkayling",
  "html_url": "https://github.com/gkayling",
  "followers_url": "https://api.github.com/users/gkayling/followers",
  "following_url": "https://api.github.com/users/gkayling/following{/other_user}",
  "gists_url": "https://api.github.com/users/gkayling/gists{/gist_id}",
  "starred_url": "https://api.github.com/users/gkayling/starred{/owner}{/repo}",
  "subscriptions_url": "https://api.github.com/users/gkayling/subscriptions",
  "organizations_url": "https://api.github.com/users/gkayling/orgs",
  "repos_url": "https://api.github.com/users/gkayling/repos",
  "events_url": "https://api.github.com/users/gkayling/events{/privacy}",
  "received_events_url": "https://api.github.com/users/gkayling/received_events",
  "type": "User",
  "site_admin": false
}
, {
  "login": "nhandler",
  "id": 102499,
  "avatar_url": "https://avatars.githubusercontent.com/u/102499?v=3",
  "gravatar_id": "",
  "url": "https://api.github.com/users/nhandler",
  "html_url": "https://github.com/nhandler",
  "followers_url": "https://api.github.com/users/nhandler/followers",
  "following_url": "https://api.github.com/users/nhandler/following{/other_user}",
  "gists_url": "https://api.github.com/users/nhandler/gists{/gist_id}",
  "starred_url": "https://api.github.com/users/nhandler/starred{/owner}{/repo}",
  "subscriptions_url": "https://api.github.com/users/nhandler/subscriptions",
  "organizations_url": "https://api.github.com/users/nhandler/orgs",
  "repos_url": "https://api.github.com/users/nhandler/repos",
  "events_url": "https://api.github.com/users/nhandler/events{/privacy}",
  "received_events_url": "https://api.github.com/users/nhandler/received_events",
  "type": "User",
  "site_admin": false
}
, {
  "login": "thebostik",
  "id": 715986,
  "avatar_url": "https://avatars.githubusercontent.com/u/715986?v=3",
  "gravatar_id": "",
  "url": "https://api.github.com/users/thebostik",
  "html_url": "https://github.com/thebostik",
  "followers_url": "https://api.github.com/users/thebostik/followers",
  "following_url": "https://api.github.com/users/thebostik/following{/other_user}",
  "gists_url": "https://api.github.com/users/thebostik/gists{/gist_id}",
  "starred_url": "https://api.github.com/users/thebostik/starred{/owner}{/repo}",
  "subscriptions_url": "https://api.github.com/users/thebostik/subscriptions",
  "organizations_url": "https://api.github.com/users/thebostik/orgs",
  "repos_url": "https://api.github.com/users/thebostik/repos",
  "events_url": "https://api.github.com/users/thebostik/events{/privacy}",
  "received_events_url": "https://api.github.com/users/thebostik/received_events",
  "type": "User",
  "site_admin": false
}
, {
  "login": "giuliano108",
  "id": 615907,
  "avatar_url": "https://avatars.githubusercontent.com/u/615907?v=3",
  "gravatar_id": "",
  "url": "https://api.github.com/users/giuliano108",
  "html_url": "https://github.com/giuliano108",
  "followers_url": "https://api.github.com/users/giuliano108/followers",
  "following_url": "https://api.github.com/users/giuliano108/following{/other_user}",
  "gists_url": "https://api.github.com/users/giuliano108/gists{/gist_id}",
  "starred_url": "https://api.github.com/users/giuliano108/starred{/owner}{/repo}",
  "subscriptions_url": "https://api.github.com/users/giuliano108/subscriptions",
  "organizations_url": "https://api.github.com/users/giuliano108/orgs",
  "repos_url": "https://api.github.com/users/giuliano108/repos",
  "events_url": "https://api.github.com/users/giuliano108/events{/privacy}",
  "received_events_url": "https://api.github.com/users/giuliano108/received_events",
  "type": "User",
  "site_admin": false
}
, {
  "login": "akanak",
  "id": 15271542,
  "avatar_url": "https://avatars.githubusercontent.com/u/15271542?v=3",
  "gravatar_id": "",
  "url": "https://api.github.com/users/akanak",
  "html_url": "https://github.com/akanak",
  "followers_url": "https://api.github.com/users/akanak/followers",
  "following_url": "https://api.github.com/users/akanak/following{/other_user}",
  "gists_url": "https://api.github.com/users/akanak/gists{/gist_id}",
  "starred_url": "https://api.github.com/users/akanak/starred{/owner}{/repo}",
  "subscriptions_url": "https://api.github.com/users/akanak/subscriptions",
  "organizations_url": "https://api.github.com/users/akanak/orgs",
  "repos_url": "https://api.github.com/users/akanak/repos",
  "events_url": "https://api.github.com/users/akanak/events{/privacy}",
  "received_events_url": "https://api.github.com/users/akanak/received_events",
  "type": "User",
  "site_admin": false
}
, {
  "login": "avadhutp",
  "id": 244408,
  "avatar_url": "https://avatars.githubusercontent.com/u/244408?v=3",
  "gravatar_id": "",
  "url": "https://api.github.com/users/avadhutp",
  "html_url": "https://github.com/avadhutp",
  "followers_url": "https://api.github.com/users/avadhutp/followers",
  "following_url": "https://api.github.com/users/avadhutp/following{/other_user}",
  "gists_url": "https://api.github.com/users/avadhutp/gists{/gist_id}",
  "starred_url": "https://api.github.com/users/avadhutp/starred{/owner}{/repo}",
  "subscriptions_url": "https://api.github.com/users/avadhutp/subscriptions",
  "organizations_url": "https://api.github.com/users/avadhutp/orgs",
  "repos_url": "https://api.github.com/users/avadhutp/repos",
  "events_url": "https://api.github.com/users/avadhutp/events{/privacy}",
  "received_events_url": "https://api.github.com/users/avadhutp/received_events",
  "type": "User",
  "site_admin": false
}
, {
  "login": "matt-ullmer",
  "id": 5551291,
  "avatar_url": "https://avatars.githubusercontent.com/u/5551291?v=3",
  "gravatar_id": "",
  "url": "https://api.github.com/users/matt-ullmer",
  "html_url": "https://github.com/matt-ullmer",
  "followers_url": "https://api.github.com/users/matt-ullmer/followers",
  "following_url": "https://api.github.com/users/matt-ullmer/following{/other_user}",
  "gists_url": "https://api.github.com/users/matt-ullmer/gists{/gist_id}",
  "starred_url": "https://api.github.com/users/matt-ullmer/starred{/owner}{/repo}",
  "subscriptions_url": "https://api.github.com/users/matt-ullmer/subscriptions",
  "organizations_url": "https://api.github.com/users/matt-ullmer/orgs",
  "repos_url": "https://api.github.com/users/matt-ullmer/repos",
  "events_url": "https://api.github.com/users/matt-ullmer/events{/privacy}",
  "received_events_url": "https://api.github.com/users/matt-ullmer/received_events",
  "type": "User",
  "site_admin": false
}
, {
  "login": "gnufied",
  "id": 278,
  "avatar_url": "https://avatars.githubusercontent.com/u/278?v=3",
  "gravatar_id": "",
  "url": "https://api.github.com/users/gnufied",
  "html_url": "https://github.com/gnufied",
  "followers_url": "https://api.github.com/users/gnufied/followers",
  "following_url": "https://api.github.com/users/gnufied/following{/other_user}",
  "gists_url": "https://api.github.com/users/gnufied/gists{/gist_id}",
  "starred_url": "https://api.github.com/users/gnufied/starred{/owner}{/repo}",
  "subscriptions_url": "https://api.github.com/users/gnufied/subscriptions",
  "organizations_url": "https://api.github.com/users/gnufied/orgs",
  "repos_url": "https://api.github.com/users/gnufied/repos",
  "events_url": "https://api.github.com/users/gnufied/events{/privacy}",
  "received_events_url": "https://api.github.com/users/gnufied/received_events",
  "type": "User",
  "site_admin": false
}
, {
  "login": "dichiarafrancesco",
  "id": 10674587,
  "avatar_url": "https://avatars.githubusercontent.com/u/10674587?v=3",
  "gravatar_id": "",
  "url": "https://api.github.com/users/dichiarafrancesco",
  "html_url": "https://github.com/dichiarafrancesco",
  "followers_url": "https://api.github.com/users/dichiarafrancesco/followers",
  "following_url": "https://api.github.com/users/dichiarafrancesco/following{/other_user}",
  "gists_url": "https://api.github.com/users/dichiarafrancesco/gists{/gist_id}",
  "starred_url": "https://api.github.com/users/dichiarafrancesco/starred{/owner}{/repo}",
  "subscriptions_url": "https://api.github.com/users/dichiarafrancesco/subscriptions",
  "organizations_url": "https://api.github.com/users/dichiarafrancesco/orgs",
  "repos_url": "https://api.github.com/users/dichiarafrancesco/repos",
  "events_url": "https://api.github.com/users/dichiarafrancesco/events{/privacy}",
  "received_events_url": "https://api.github.com/users/dichiarafrancesco/received_events",
  "type": "User",
  "site_admin": false
}
, {
  "login": "ronin13",
  "id": 271234,
  "avatar_url": "https://avatars.githubusercontent.com/u/271234?v=3",
  "gravatar_id": "",
  "url": "https://api.github.com/users/ronin13",
  "html_url": "https://github.com/ronin13",
  "followers_url": "https://api.github.com/users/ronin13/followers",
  "following_url": "https://api.github.com/users/ronin13/following{/other_user}",
  "gists_url": "https://api.github.com/users/ronin13/gists{/gist_id}",
  "starred_url": "https://api.github.com/users/ronin13/starred{/owner}{/repo}",
  "subscriptions_url": "https://api.github.com/users/ronin13/subscriptions",
  "organizations_url": "https://api.github.com/users/ronin13/orgs",
  "repos_url": "https://api.github.com/users/ronin13/repos",
  "events_url": "https://api.github.com/users/ronin13/events{/privacy}",
  "received_events_url": "https://api.github.com/users/ronin13/received_events",
  "type": "User",
  "site_admin": false
}
]
