[
{
  "url": "https://api.github.com/repos/square/dagger/issues/comments/29241174",
  "html_url": "https://github.com/square/dagger/pull/360#issuecomment-29241174",
  "issue_url": "https://api.github.com/repos/square/dagger/issues/360",
  "id": 29241174,
  "user": {
    "login": "JakeWharton",
    "id": 66577,
    "avatar_url": "https://avatars.githubusercontent.com/u/66577?v=3",
    "gravatar_id": "",
    "url": "https://api.github.com/users/JakeWharton",
    "html_url": "https://github.com/JakeWharton",
    "followers_url": "https://api.github.com/users/JakeWharton/followers",
    "following_url": "https://api.github.com/users/JakeWharton/following{/other_user}",
    "gists_url": "https://api.github.com/users/JakeWharton/gists{/gist_id}",
    "starred_url": "https://api.github.com/users/JakeWharton/starred{/owner}{/repo}",
    "subscriptions_url": "https://api.github.com/users/JakeWharton/subscriptions",
    "organizations_url": "https://api.github.com/users/JakeWharton/orgs",
    "repos_url": "https://api.github.com/users/JakeWharton/repos",
    "events_url": "https://api.github.com/users/JakeWharton/events{/privacy}",
    "received_events_url": "https://api.github.com/users/JakeWharton/received_events",
    "type": "User",
    "site_admin": false
  },
  "created_at": "2013-11-25T20:55:40Z",
  "updated_at": "2013-11-25T20:55:40Z",
  "body": "This is especially useful now that we have three dependencies in the compiler."
}
, {
  "url": "https://api.github.com/repos/square/dagger/issues/comments/29562006",
  "html_url": "https://github.com/square/dagger/pull/360#issuecomment-29562006",
  "issue_url": "https://api.github.com/repos/square/dagger/issues/360",
  "id": 29562006,
  "user": {
    "login": "JakeWharton",
    "id": 66577,
    "avatar_url": "https://avatars.githubusercontent.com/u/66577?v=3",
    "gravatar_id": "",
    "url": "https://api.github.com/users/JakeWharton",
    "html_url": "https://github.com/JakeWharton",
    "followers_url": "https://api.github.com/users/JakeWharton/followers",
    "following_url": "https://api.github.com/users/JakeWharton/following{/other_user}",
    "gists_url": "https://api.github.com/users/JakeWharton/gists{/gist_id}",
    "starred_url": "https://api.github.com/users/JakeWharton/starred{/owner}{/repo}",
    "subscriptions_url": "https://api.github.com/users/JakeWharton/subscriptions",
    "organizations_url": "https://api.github.com/users/JakeWharton/orgs",
    "repos_url": "https://api.github.com/users/JakeWharton/repos",
    "events_url": "https://api.github.com/users/JakeWharton/events{/privacy}",
    "received_events_url": "https://api.github.com/users/JakeWharton/received_events",
    "type": "User",
    "site_admin": false
  },
  "created_at": "2013-11-30T21:59:27Z",
  "updated_at": "2013-11-30T21:59:27Z",
  "body": "Ping @cgruber @swankjesse "
}
, {
  "url": "https://api.github.com/repos/square/dagger/issues/comments/29651393",
  "html_url": "https://github.com/square/dagger/pull/360#issuecomment-29651393",
  "issue_url": "https://api.github.com/repos/square/dagger/issues/360",
  "id": 29651393,
  "user": {
    "login": "pforhan",
    "id": 331925,
    "avatar_url": "https://avatars.githubusercontent.com/u/331925?v=3",
    "gravatar_id": "",
    "url": "https://api.github.com/users/pforhan",
    "html_url": "https://github.com/pforhan",
    "followers_url": "https://api.github.com/users/pforhan/followers",
    "following_url": "https://api.github.com/users/pforhan/following{/other_user}",
    "gists_url": "https://api.github.com/users/pforhan/gists{/gist_id}",
    "starred_url": "https://api.github.com/users/pforhan/starred{/owner}{/repo}",
    "subscriptions_url": "https://api.github.com/users/pforhan/subscriptions",
    "organizations_url": "https://api.github.com/users/pforhan/orgs",
    "repos_url": "https://api.github.com/users/pforhan/repos",
    "events_url": "https://api.github.com/users/pforhan/events{/privacy}",
    "received_events_url": "https://api.github.com/users/pforhan/received_events",
    "type": "User",
    "site_admin": false
  },
  "created_at": "2013-12-02T19:53:52Z",
  "updated_at": "2013-12-02T19:53:52Z",
  "body": "LGTM.\r\n\r\nHaven't heard \"far JAR\" as a term before."
}
, {
  "url": "https://api.github.com/repos/square/dagger/issues/comments/29674941",
  "html_url": "https://github.com/square/dagger/pull/360#issuecomment-29674941",
  "issue_url": "https://api.github.com/repos/square/dagger/issues/360",
  "id": 29674941,
  "user": {
    "login": "JakeWharton",
    "id": 66577,
    "avatar_url": "https://avatars.githubusercontent.com/u/66577?v=3",
    "gravatar_id": "",
    "url": "https://api.github.com/users/JakeWharton",
    "html_url": "https://github.com/JakeWharton",
    "followers_url": "https://api.github.com/users/JakeWharton/followers",
    "following_url": "https://api.github.com/users/JakeWharton/following{/other_user}",
    "gists_url": "https://api.github.com/users/JakeWharton/gists{/gist_id}",
    "starred_url": "https://api.github.com/users/JakeWharton/starred{/owner}{/repo}",
    "subscriptions_url": "https://api.github.com/users/JakeWharton/subscriptions",
    "organizations_url": "https://api.github.com/users/JakeWharton/orgs",
    "repos_url": "https://api.github.com/users/JakeWharton/repos",
    "events_url": "https://api.github.com/users/JakeWharton/events{/privacy}",
    "received_events_url": "https://api.github.com/users/JakeWharton/received_events",
    "type": "User",
    "site_admin": false
  },
  "created_at": "2013-12-03T01:10:15Z",
  "updated_at": "2013-12-03T01:10:15Z",
  "body": "fat JAR"
}
, {
  "url": "https://api.github.com/repos/square/dagger/issues/comments/29677114",
  "html_url": "https://github.com/square/dagger/pull/360#issuecomment-29677114",
  "issue_url": "https://api.github.com/repos/square/dagger/issues/360",
  "id": 29677114,
  "user": {
    "login": "swankjesse",
    "id": 133019,
    "avatar_url": "https://avatars.githubusercontent.com/u/133019?v=3",
    "gravatar_id": "",
    "url": "https://api.github.com/users/swankjesse",
    "html_url": "https://github.com/swankjesse",
    "followers_url": "https://api.github.com/users/swankjesse/followers",
    "following_url": "https://api.github.com/users/swankjesse/following{/other_user}",
    "gists_url": "https://api.github.com/users/swankjesse/gists{/gist_id}",
    "starred_url": "https://api.github.com/users/swankjesse/starred{/owner}{/repo}",
    "subscriptions_url": "https://api.github.com/users/swankjesse/subscriptions",
    "organizations_url": "https://api.github.com/users/swankjesse/orgs",
    "repos_url": "https://api.github.com/users/swankjesse/repos",
    "events_url": "https://api.github.com/users/swankjesse/events{/privacy}",
    "received_events_url": "https://api.github.com/users/swankjesse/received_events",
    "type": "User",
    "site_admin": false
  },
  "created_at": "2013-12-03T01:55:39Z",
  "updated_at": "2013-12-03T01:55:39Z",
  "body": "LGTM"
}
]
