[
{
  "url": "https://api.github.com/repos/owncloud/tasks/issues/comments/113883495",
  "html_url": "https://github.com/owncloud/tasks/pull/199#issuecomment-113883495",
  "issue_url": "https://api.github.com/repos/owncloud/tasks/issues/199",
  "id": 113883495,
  "user": {
    "login": "raimund-schluessler",
    "id": 2496460,
    "avatar_url": "https://avatars.githubusercontent.com/u/2496460?v=3",
    "gravatar_id": "",
    "url": "https://api.github.com/users/raimund-schluessler",
    "html_url": "https://github.com/raimund-schluessler",
    "followers_url": "https://api.github.com/users/raimund-schluessler/followers",
    "following_url": "https://api.github.com/users/raimund-schluessler/following{/other_user}",
    "gists_url": "https://api.github.com/users/raimund-schluessler/gists{/gist_id}",
    "starred_url": "https://api.github.com/users/raimund-schluessler/starred{/owner}{/repo}",
    "subscriptions_url": "https://api.github.com/users/raimund-schluessler/subscriptions",
    "organizations_url": "https://api.github.com/users/raimund-schluessler/orgs",
    "repos_url": "https://api.github.com/users/raimund-schluessler/repos",
    "events_url": "https://api.github.com/users/raimund-schluessler/events{/privacy}",
    "received_events_url": "https://api.github.com/users/raimund-schluessler/received_events",
    "type": "User",
    "site_admin": false
  },
  "created_at": "2015-06-21T10:42:10Z",
  "updated_at": "2015-06-21T10:42:10Z",
  "body": "@Henni @jancborchardt  Should be good to merge now. Maybe you can have a look."
}
, {
  "url": "https://api.github.com/repos/owncloud/tasks/issues/comments/113885241",
  "html_url": "https://github.com/owncloud/tasks/pull/199#issuecomment-113885241",
  "issue_url": "https://api.github.com/repos/owncloud/tasks/issues/199",
  "id": 113885241,
  "user": {
    "login": "raimund-schluessler",
    "id": 2496460,
    "avatar_url": "https://avatars.githubusercontent.com/u/2496460?v=3",
    "gravatar_id": "",
    "url": "https://api.github.com/users/raimund-schluessler",
    "html_url": "https://github.com/raimund-schluessler",
    "followers_url": "https://api.github.com/users/raimund-schluessler/followers",
    "following_url": "https://api.github.com/users/raimund-schluessler/following{/other_user}",
    "gists_url": "https://api.github.com/users/raimund-schluessler/gists{/gist_id}",
    "starred_url": "https://api.github.com/users/raimund-schluessler/starred{/owner}{/repo}",
    "subscriptions_url": "https://api.github.com/users/raimund-schluessler/subscriptions",
    "organizations_url": "https://api.github.com/users/raimund-schluessler/orgs",
    "repos_url": "https://api.github.com/users/raimund-schluessler/repos",
    "events_url": "https://api.github.com/users/raimund-schluessler/events{/privacy}",
    "received_events_url": "https://api.github.com/users/raimund-schluessler/received_events",
    "type": "User",
    "site_admin": false
  },
  "created_at": "2015-06-21T11:03:11Z",
  "updated_at": "2015-06-21T11:03:11Z",
  "body": "Going to merge this now so I can work on the next feature. Please create new issues if anything is not good."
}
]
