[
{
  "url": "https://api.github.com/repos/Shopify/active_fulfillment/issues/comments/20884488",
  "html_url": "https://github.com/Shopify/active_fulfillment/pull/21#issuecomment-20884488",
  "issue_url": "https://api.github.com/repos/Shopify/active_fulfillment/issues/21",
  "id": 20884488,
  "user": {
    "login": "csaunders",
    "id": 82491,
    "avatar_url": "https://avatars.githubusercontent.com/u/82491?v=3",
    "gravatar_id": "",
    "url": "https://api.github.com/users/csaunders",
    "html_url": "https://github.com/csaunders",
    "followers_url": "https://api.github.com/users/csaunders/followers",
    "following_url": "https://api.github.com/users/csaunders/following{/other_user}",
    "gists_url": "https://api.github.com/users/csaunders/gists{/gist_id}",
    "starred_url": "https://api.github.com/users/csaunders/starred{/owner}{/repo}",
    "subscriptions_url": "https://api.github.com/users/csaunders/subscriptions",
    "organizations_url": "https://api.github.com/users/csaunders/orgs",
    "repos_url": "https://api.github.com/users/csaunders/repos",
    "events_url": "https://api.github.com/users/csaunders/events{/privacy}",
    "received_events_url": "https://api.github.com/users/csaunders/received_events",
    "type": "User",
    "site_admin": false
  },
  "created_at": "2013-07-12T15:39:54Z",
  "updated_at": "2013-07-12T15:39:54Z",
  "body": "![poke](http://24.media.tumblr.com/tumblr_m6e6hbIxtC1ryj6qoo1_500.gif)"
}
, {
  "url": "https://api.github.com/repos/Shopify/active_fulfillment/issues/comments/20966919",
  "html_url": "https://github.com/Shopify/active_fulfillment/pull/21#issuecomment-20966919",
  "issue_url": "https://api.github.com/repos/Shopify/active_fulfillment/issues/21",
  "id": 20966919,
  "user": {
    "login": "jduff",
    "id": 441,
    "avatar_url": "https://avatars.githubusercontent.com/u/441?v=3",
    "gravatar_id": "",
    "url": "https://api.github.com/users/jduff",
    "html_url": "https://github.com/jduff",
    "followers_url": "https://api.github.com/users/jduff/followers",
    "following_url": "https://api.github.com/users/jduff/following{/other_user}",
    "gists_url": "https://api.github.com/users/jduff/gists{/gist_id}",
    "starred_url": "https://api.github.com/users/jduff/starred{/owner}{/repo}",
    "subscriptions_url": "https://api.github.com/users/jduff/subscriptions",
    "organizations_url": "https://api.github.com/users/jduff/orgs",
    "repos_url": "https://api.github.com/users/jduff/repos",
    "events_url": "https://api.github.com/users/jduff/events{/privacy}",
    "received_events_url": "https://api.github.com/users/jduff/received_events",
    "type": "User",
    "site_admin": false
  },
  "created_at": "2013-07-15T12:43:55Z",
  "updated_at": "2013-07-15T12:43:55Z",
  "body": ":shipit: we can refine it later if needed."
}
]
