[
{
  "url": "https://api.github.com/repos/google/FreeBuilder/issues/comments/76560864",
  "html_url": "https://github.com/google/FreeBuilder/pull/31#issuecomment-76560864",
  "issue_url": "https://api.github.com/repos/google/FreeBuilder/issues/31",
  "id": 76560864,
  "user": {
    "login": "cjp39",
    "id": 979369,
    "avatar_url": "https://avatars.githubusercontent.com/u/979369?v=3",
    "gravatar_id": "",
    "url": "https://api.github.com/users/cjp39",
    "html_url": "https://github.com/cjp39",
    "followers_url": "https://api.github.com/users/cjp39/followers",
    "following_url": "https://api.github.com/users/cjp39/following{/other_user}",
    "gists_url": "https://api.github.com/users/cjp39/gists{/gist_id}",
    "starred_url": "https://api.github.com/users/cjp39/starred{/owner}{/repo}",
    "subscriptions_url": "https://api.github.com/users/cjp39/subscriptions",
    "organizations_url": "https://api.github.com/users/cjp39/orgs",
    "repos_url": "https://api.github.com/users/cjp39/repos",
    "events_url": "https://api.github.com/users/cjp39/events{/privacy}",
    "received_events_url": "https://api.github.com/users/cjp39/received_events",
    "type": "User",
    "site_admin": false
  },
  "created_at": "2015-03-01T00:26:03Z",
  "updated_at": "2015-03-01T00:26:03Z",
  "body": "Crap. Turns out GitHub doesn't support rebasing of pull requests. So...going to just go ahead and land this, to avoid spamming you more than I already have :("
}
]
