[
{
  "url": "https://api.github.com/repos/google/cadvisor/issues/comments/49338723",
  "html_url": "https://github.com/google/cadvisor/pull/93#issuecomment-49338723",
  "issue_url": "https://api.github.com/repos/google/cadvisor/issues/93",
  "id": 49338723,
  "user": {
    "login": "vmarmol",
    "id": 985208,
    "avatar_url": "https://avatars.githubusercontent.com/u/985208?v=3",
    "gravatar_id": "",
    "url": "https://api.github.com/users/vmarmol",
    "html_url": "https://github.com/vmarmol",
    "followers_url": "https://api.github.com/users/vmarmol/followers",
    "following_url": "https://api.github.com/users/vmarmol/following{/other_user}",
    "gists_url": "https://api.github.com/users/vmarmol/gists{/gist_id}",
    "starred_url": "https://api.github.com/users/vmarmol/starred{/owner}{/repo}",
    "subscriptions_url": "https://api.github.com/users/vmarmol/subscriptions",
    "organizations_url": "https://api.github.com/users/vmarmol/orgs",
    "repos_url": "https://api.github.com/users/vmarmol/repos",
    "events_url": "https://api.github.com/users/vmarmol/events{/privacy}",
    "received_events_url": "https://api.github.com/users/vmarmol/received_events",
    "type": "User",
    "site_admin": false
  },
  "created_at": "2014-07-17T17:35:33Z",
  "updated_at": "2014-07-17T17:35:33Z",
  "body": "Ping @monnand "
}
, {
  "url": "https://api.github.com/repos/google/cadvisor/issues/comments/49345449",
  "html_url": "https://github.com/google/cadvisor/pull/93#issuecomment-49345449",
  "issue_url": "https://api.github.com/repos/google/cadvisor/issues/93",
  "id": 49345449,
  "user": {
    "login": "monnand",
    "id": 379562,
    "avatar_url": "https://avatars.githubusercontent.com/u/379562?v=3",
    "gravatar_id": "",
    "url": "https://api.github.com/users/monnand",
    "html_url": "https://github.com/monnand",
    "followers_url": "https://api.github.com/users/monnand/followers",
    "following_url": "https://api.github.com/users/monnand/following{/other_user}",
    "gists_url": "https://api.github.com/users/monnand/gists{/gist_id}",
    "starred_url": "https://api.github.com/users/monnand/starred{/owner}{/repo}",
    "subscriptions_url": "https://api.github.com/users/monnand/subscriptions",
    "organizations_url": "https://api.github.com/users/monnand/orgs",
    "repos_url": "https://api.github.com/users/monnand/repos",
    "events_url": "https://api.github.com/users/monnand/events{/privacy}",
    "received_events_url": "https://api.github.com/users/monnand/received_events",
    "type": "User",
    "site_admin": false
  },
  "created_at": "2014-07-17T18:30:43Z",
  "updated_at": "2014-07-17T18:30:43Z",
  "body": "LGTM. Merging."
}
]
