[
{
  "url": "https://api.github.com/repos/google/cadvisor/issues/comments/160720547",
  "html_url": "https://github.com/google/cadvisor/issues/988#issuecomment-160720547",
  "issue_url": "https://api.github.com/repos/google/cadvisor/issues/988",
  "id": 160720547,
  "user": {
    "login": "vishh",
    "id": 7063592,
    "avatar_url": "https://avatars.githubusercontent.com/u/7063592?v=3",
    "gravatar_id": "",
    "url": "https://api.github.com/users/vishh",
    "html_url": "https://github.com/vishh",
    "followers_url": "https://api.github.com/users/vishh/followers",
    "following_url": "https://api.github.com/users/vishh/following{/other_user}",
    "gists_url": "https://api.github.com/users/vishh/gists{/gist_id}",
    "starred_url": "https://api.github.com/users/vishh/starred{/owner}{/repo}",
    "subscriptions_url": "https://api.github.com/users/vishh/subscriptions",
    "organizations_url": "https://api.github.com/users/vishh/orgs",
    "repos_url": "https://api.github.com/users/vishh/repos",
    "events_url": "https://api.github.com/users/vishh/events{/privacy}",
    "received_events_url": "https://api.github.com/users/vishh/received_events",
    "type": "User",
    "site_admin": false
  },
  "created_at": "2015-11-30T18:46:27Z",
  "updated_at": "2015-11-30T18:46:27Z",
  "body": "cAdvisor supports `start` and `end` times. Look [here](https://github.com/google/cadvisor/blob/master/info/v1/container.go#L100). You will have to POST a json query object though. "
}
, {
  "url": "https://api.github.com/repos/google/cadvisor/issues/comments/160827445",
  "html_url": "https://github.com/google/cadvisor/issues/988#issuecomment-160827445",
  "issue_url": "https://api.github.com/repos/google/cadvisor/issues/988",
  "id": 160827445,
  "user": {
    "login": "xautjzd",
    "id": 2144697,
    "avatar_url": "https://avatars.githubusercontent.com/u/2144697?v=3",
    "gravatar_id": "",
    "url": "https://api.github.com/users/xautjzd",
    "html_url": "https://github.com/xautjzd",
    "followers_url": "https://api.github.com/users/xautjzd/followers",
    "following_url": "https://api.github.com/users/xautjzd/following{/other_user}",
    "gists_url": "https://api.github.com/users/xautjzd/gists{/gist_id}",
    "starred_url": "https://api.github.com/users/xautjzd/starred{/owner}{/repo}",
    "subscriptions_url": "https://api.github.com/users/xautjzd/subscriptions",
    "organizations_url": "https://api.github.com/users/xautjzd/orgs",
    "repos_url": "https://api.github.com/users/xautjzd/repos",
    "events_url": "https://api.github.com/users/xautjzd/events{/privacy}",
    "received_events_url": "https://api.github.com/users/xautjzd/received_events",
    "type": "User",
    "site_admin": false
  },
  "created_at": "2015-12-01T02:24:44Z",
  "updated_at": "2015-12-01T07:30:17Z",
  "body": "@vishh I'm very happy to get your answer, Thank you!  But I can't still understand how to use. Can you give me an POST example?\r\n\r\nI have try to post like this, but failed:\r\n```\r\nPOST /api/v1.0/containers/{containerId}\r\n\r\nBody:\r\n{\"start\": \"xxxx\", \"end\": \"xxxx\"}\r\n```\r\n\r\n"
}
]
