[
{
  "url": "https://api.github.com/repos/google/cadvisor/issues/comments/45909459",
  "html_url": "https://github.com/google/cadvisor/issues/13#issuecomment-45909459",
  "issue_url": "https://api.github.com/repos/google/cadvisor/issues/13",
  "id": 45909459,
  "user": {
    "login": "vmarmol",
    "id": 985208,
    "avatar_url": "https://avatars.githubusercontent.com/u/985208?v=3",
    "gravatar_id": "",
    "url": "https://api.github.com/users/vmarmol",
    "html_url": "https://github.com/vmarmol",
    "followers_url": "https://api.github.com/users/vmarmol/followers",
    "following_url": "https://api.github.com/users/vmarmol/following{/other_user}",
    "gists_url": "https://api.github.com/users/vmarmol/gists{/gist_id}",
    "starred_url": "https://api.github.com/users/vmarmol/starred{/owner}{/repo}",
    "subscriptions_url": "https://api.github.com/users/vmarmol/subscriptions",
    "organizations_url": "https://api.github.com/users/vmarmol/orgs",
    "repos_url": "https://api.github.com/users/vmarmol/repos",
    "events_url": "https://api.github.com/users/vmarmol/events{/privacy}",
    "received_events_url": "https://api.github.com/users/vmarmol/received_events",
    "type": "User",
    "site_admin": false
  },
  "created_at": "2014-06-12T15:47:22Z",
  "updated_at": "2014-06-12T15:47:22Z",
  "body": "We had someone run into this issue yesterday too and I think we had a few issues:\r\n- Kernel version: Docker officially supports 3.8+ and lmctfy 3.3+ (although it can probably work with much older ones too) and I think this is running 2.6.* no?\r\n- We don't currently support the LXC execution driver for Docker (sorry!), we should add an issue for that, but we'll probably go for raw support over that (thus support all users).\r\n- Cgroups were not mounted. Check /proc/mounts and see whether they are."
}
, {
  "url": "https://api.github.com/repos/google/cadvisor/issues/comments/45914282",
  "html_url": "https://github.com/google/cadvisor/issues/13#issuecomment-45914282",
  "issue_url": "https://api.github.com/repos/google/cadvisor/issues/13",
  "id": 45914282,
  "user": {
    "login": "cgonzalez",
    "id": 66578,
    "avatar_url": "https://avatars.githubusercontent.com/u/66578?v=3",
    "gravatar_id": "",
    "url": "https://api.github.com/users/cgonzalez",
    "html_url": "https://github.com/cgonzalez",
    "followers_url": "https://api.github.com/users/cgonzalez/followers",
    "following_url": "https://api.github.com/users/cgonzalez/following{/other_user}",
    "gists_url": "https://api.github.com/users/cgonzalez/gists{/gist_id}",
    "starred_url": "https://api.github.com/users/cgonzalez/starred{/owner}{/repo}",
    "subscriptions_url": "https://api.github.com/users/cgonzalez/subscriptions",
    "organizations_url": "https://api.github.com/users/cgonzalez/orgs",
    "repos_url": "https://api.github.com/users/cgonzalez/repos",
    "events_url": "https://api.github.com/users/cgonzalez/events{/privacy}",
    "received_events_url": "https://api.github.com/users/cgonzalez/received_events",
    "type": "User",
    "site_admin": false
  },
  "created_at": "2014-06-12T16:23:30Z",
  "updated_at": "2014-06-12T16:23:30Z",
  "body": "* I'm using kernel 2.6.32-431.17.1.el6.x86_64.\r\n* :(\r\n* \"cat /proc/mounts\" shows this:\r\n```\r\n[root@iridio sgc]# cat /proc/mounts \r\nrootfs / rootfs rw 0 0\r\nproc /proc proc rw,relatime 0 0\r\nsysfs /sys sysfs rw,seclabel,relatime 0 0\r\ndevtmpfs /dev devtmpfs rw,seclabel,relatime,size=8155256k,nr_inodes=2038814,mode=755 0 0\r\ndevpts /dev/pts devpts rw,seclabel,relatime,gid=5,mode=620,ptmxmode=000 0 0\r\ntmpfs /dev/shm tmpfs rw,seclabel,relatime 0 0\r\n/dev/mapper/vg_iridio-lv_root / ext4 rw,seclabel,relatime,barrier=1,data=ordered 0 0\r\nnone /selinux selinuxfs rw,relatime 0 0\r\ndevtmpfs /dev devtmpfs rw,seclabel,relatime,size=8155256k,nr_inodes=2038814,mode=755 0 0\r\n/proc/bus/usb /proc/bus/usb usbfs rw,relatime 0 0\r\n/dev/sda1 /boot ext4 rw,seclabel,relatime,barrier=1,data=ordered 0 0\r\nnone /proc/sys/fs/binfmt_misc binfmt_misc rw,relatime 0 0\r\ncgroup /cgroup/cpuset cgroup rw,relatime,cpuset 0 0\r\ncgroup /cgroup/cpu cgroup rw,relatime,cpu 0 0\r\ncgroup /cgroup/cpuacct cgroup rw,relatime,cpuacct 0 0\r\ncgroup /cgroup/memory cgroup rw,relatime,memory 0 0\r\ncgroup /cgroup/devices cgroup rw,relatime,devices 0 0\r\ncgroup /cgroup/freezer cgroup rw,relatime,freezer 0 0\r\ncgroup /cgroup/net_cls cgroup rw,relatime,net_cls 0 0\r\ncgroup /cgroup/blkio cgroup rw,relatime,blkio 0 0\r\n/dev/mapper/vg_iridio-lv_root /var/lib/docker ext4 rw,seclabel,relatime,barrier=1,data=ordered 0 0\r\n/dev/mapper/docker-253:0-52822119-cbb46300a6950bde8ceae153329c5a0577380d58be4ddd36267e52baa6373a16 /var/lib/docker/devicemapper/mnt/cbb46300a6950bde8ceae153329c5a0577380d58be4ddd36267e52baa6373a16 ext4 rw,seclabel,relatime,barrier=1,stripe=16,data=ordered,discard 0 0\r\n/dev/mapper/docker-253:0-52822119-d9ccfc866c89e28cbe81596976cdbb6c850aa8922fc7bf01b6eee7d08ab22efa /var/lib/docker/devicemapper/mnt/d9ccfc866c89e28cbe81596976cdbb6c850aa8922fc7bf01b6eee7d08ab22efa ext4 rw,seclabel,relatime,barrier=1,stripe=16,data=ordered,discard 0 0\r\n/dev/mapper/docker-253:0-52822119-625f30a1b59191a9f46f20afaf49d9c78dc897f0761e84c3f773a48f95aecfbd /var/lib/docker/devicemapper/mnt/625f30a1b59191a9f46f20afaf49d9c78dc897f0761e84c3f773a48f95aecfbd ext4 rw,seclabel,relatime,barrier=1,stripe=16,data=ordered,discard 0 0\r\n/dev/mapper/docker-253:0-52822119-9950040f0876f237525ddd9d8495be2e23ca4c754a5c34bc02db95196b43e6fd /var/lib/docker/devicemapper/mnt/9950040f0876f237525ddd9d8495be2e23ca4c754a5c34bc02db95196b43e6fd ext4 rw,seclabel,relatime,barrier=1,stripe=16,data=ordered,discard 0 0\r\n/dev/mapper/docker-253:0-52822119-1db0be156c1f2ca17c9c5eff4ba5526eb96007f576c771a0008b09c89a352dfc /var/lib/docker/devicemapper/mnt/1db0be156c1f2ca17c9c5eff4ba5526eb96007f576c771a0008b09c89a352dfc ext4 rw,seclabel,relatime,barrier=1,stripe=16,data=ordered,discard 0 0\r\n/dev/mapper/docker-253:0-52822119-f71b1800c7753db9e6defab26ec07da74599bb5f89c76fb172d9f0917acbfec8 /var/lib/docker/devicemapper/mnt/f71b1800c7753db9e6defab26ec07da74599bb5f89c76fb172d9f0917acbfec8 ext4 rw,seclabel,relatime,barrier=1,stripe=16,data=ordered,discard 0 0\r\n/dev/mapper/docker-253:0-52822119-a6d4bb084b3b459e93f3016c32f2c66b46acd820952e08bf476b37ede7d671ab /var/lib/docker/devicemapper/mnt/a6d4bb084b3b459e93f3016c32f2c66b46acd820952e08bf476b37ede7d671ab ext4 rw,seclabel,relatime,barrier=1,stripe=16,data=ordered,discard 0 0\r\n```\r\nI'm not sure whether this shows that cgroups are mounted."
}
, {
  "url": "https://api.github.com/repos/google/cadvisor/issues/comments/45915283",
  "html_url": "https://github.com/google/cadvisor/issues/13#issuecomment-45915283",
  "issue_url": "https://api.github.com/repos/google/cadvisor/issues/13",
  "id": 45915283,
  "user": {
    "login": "vmarmol",
    "id": 985208,
    "avatar_url": "https://avatars.githubusercontent.com/u/985208?v=3",
    "gravatar_id": "",
    "url": "https://api.github.com/users/vmarmol",
    "html_url": "https://github.com/vmarmol",
    "followers_url": "https://api.github.com/users/vmarmol/followers",
    "following_url": "https://api.github.com/users/vmarmol/following{/other_user}",
    "gists_url": "https://api.github.com/users/vmarmol/gists{/gist_id}",
    "starred_url": "https://api.github.com/users/vmarmol/starred{/owner}{/repo}",
    "subscriptions_url": "https://api.github.com/users/vmarmol/subscriptions",
    "organizations_url": "https://api.github.com/users/vmarmol/orgs",
    "repos_url": "https://api.github.com/users/vmarmol/repos",
    "events_url": "https://api.github.com/users/vmarmol/events{/privacy}",
    "received_events_url": "https://api.github.com/users/vmarmol/received_events",
    "type": "User",
    "site_admin": false
  },
  "created_at": "2014-06-12T16:31:48Z",
  "updated_at": "2014-06-12T16:31:48Z",
  "body": "You do seem to have cgroups mounted:\r\n\r\n```\r\ncgroup /cgroup/cpuset cgroup rw,relatime,cpuset 0 0\r\ncgroup /cgroup/cpu cgroup rw,relatime,cpu 0 0\r\ncgroup /cgroup/cpuacct cgroup rw,relatime,cpuacct 0 0\r\ncgroup /cgroup/memory cgroup rw,relatime,memory 0 0\r\ncgroup /cgroup/devices cgroup rw,relatime,devices 0 0\r\ncgroup /cgroup/freezer cgroup rw,relatime,freezer 0 0\r\ncgroup /cgroup/net_cls cgroup rw,relatime,net_cls 0 0\r\ncgroup /cgroup/blkio cgroup rw,relatime,blkio 0 0\r\n```\r\n\r\nThere is one issue in lmctfy which we can fix to allow this to work, but you'd only get machine-wide stats. For per-container stats we're gonna need the generic cgroup driver unfortunately. I opened #14 to track it."
}
, {
  "url": "https://api.github.com/repos/google/cadvisor/issues/comments/45915656",
  "html_url": "https://github.com/google/cadvisor/issues/13#issuecomment-45915656",
  "issue_url": "https://api.github.com/repos/google/cadvisor/issues/13",
  "id": 45915656,
  "user": {
    "login": "cgonzalez",
    "id": 66578,
    "avatar_url": "https://avatars.githubusercontent.com/u/66578?v=3",
    "gravatar_id": "",
    "url": "https://api.github.com/users/cgonzalez",
    "html_url": "https://github.com/cgonzalez",
    "followers_url": "https://api.github.com/users/cgonzalez/followers",
    "following_url": "https://api.github.com/users/cgonzalez/following{/other_user}",
    "gists_url": "https://api.github.com/users/cgonzalez/gists{/gist_id}",
    "starred_url": "https://api.github.com/users/cgonzalez/starred{/owner}{/repo}",
    "subscriptions_url": "https://api.github.com/users/cgonzalez/subscriptions",
    "organizations_url": "https://api.github.com/users/cgonzalez/orgs",
    "repos_url": "https://api.github.com/users/cgonzalez/repos",
    "events_url": "https://api.github.com/users/cgonzalez/events{/privacy}",
    "received_events_url": "https://api.github.com/users/cgonzalez/received_events",
    "type": "User",
    "site_admin": false
  },
  "created_at": "2014-06-12T16:34:52Z",
  "updated_at": "2014-06-12T16:34:52Z",
  "body": "OK, I'll keep an eye on #14. Thanks for your answer."
}
, {
  "url": "https://api.github.com/repos/google/cadvisor/issues/comments/45916668",
  "html_url": "https://github.com/google/cadvisor/issues/13#issuecomment-45916668",
  "issue_url": "https://api.github.com/repos/google/cadvisor/issues/13",
  "id": 45916668,
  "user": {
    "login": "crosbymichael",
    "id": 749551,
    "avatar_url": "https://avatars.githubusercontent.com/u/749551?v=3",
    "gravatar_id": "",
    "url": "https://api.github.com/users/crosbymichael",
    "html_url": "https://github.com/crosbymichael",
    "followers_url": "https://api.github.com/users/crosbymichael/followers",
    "following_url": "https://api.github.com/users/crosbymichael/following{/other_user}",
    "gists_url": "https://api.github.com/users/crosbymichael/gists{/gist_id}",
    "starred_url": "https://api.github.com/users/crosbymichael/starred{/owner}{/repo}",
    "subscriptions_url": "https://api.github.com/users/crosbymichael/subscriptions",
    "organizations_url": "https://api.github.com/users/crosbymichael/orgs",
    "repos_url": "https://api.github.com/users/crosbymichael/repos",
    "events_url": "https://api.github.com/users/crosbymichael/events{/privacy}",
    "received_events_url": "https://api.github.com/users/crosbymichael/received_events",
    "type": "User",
    "site_admin": false
  },
  "created_at": "2014-06-12T16:43:05Z",
  "updated_at": "2014-06-12T16:43:05Z",
  "body": "You also need docker 1.0.0 because most of the cgroup stats work was merged in for that release"
}
, {
  "url": "https://api.github.com/repos/google/cadvisor/issues/comments/45916849",
  "html_url": "https://github.com/google/cadvisor/issues/13#issuecomment-45916849",
  "issue_url": "https://api.github.com/repos/google/cadvisor/issues/13",
  "id": 45916849,
  "user": {
    "login": "vmarmol",
    "id": 985208,
    "avatar_url": "https://avatars.githubusercontent.com/u/985208?v=3",
    "gravatar_id": "",
    "url": "https://api.github.com/users/vmarmol",
    "html_url": "https://github.com/vmarmol",
    "followers_url": "https://api.github.com/users/vmarmol/followers",
    "following_url": "https://api.github.com/users/vmarmol/following{/other_user}",
    "gists_url": "https://api.github.com/users/vmarmol/gists{/gist_id}",
    "starred_url": "https://api.github.com/users/vmarmol/starred{/owner}{/repo}",
    "subscriptions_url": "https://api.github.com/users/vmarmol/subscriptions",
    "organizations_url": "https://api.github.com/users/vmarmol/orgs",
    "repos_url": "https://api.github.com/users/vmarmol/repos",
    "events_url": "https://api.github.com/users/vmarmol/events{/privacy}",
    "received_events_url": "https://api.github.com/users/vmarmol/received_events",
    "type": "User",
    "site_admin": false
  },
  "created_at": "2014-06-12T16:44:18Z",
  "updated_at": "2014-06-12T16:44:18Z",
  "body": "+1 and @crosbymichael I'm surprised Docker runs in 2.6.32..."
}
, {
  "url": "https://api.github.com/repos/google/cadvisor/issues/comments/45937278",
  "html_url": "https://github.com/google/cadvisor/issues/13#issuecomment-45937278",
  "issue_url": "https://api.github.com/repos/google/cadvisor/issues/13",
  "id": 45937278,
  "user": {
    "login": "vmarmol",
    "id": 985208,
    "avatar_url": "https://avatars.githubusercontent.com/u/985208?v=3",
    "gravatar_id": "",
    "url": "https://api.github.com/users/vmarmol",
    "html_url": "https://github.com/vmarmol",
    "followers_url": "https://api.github.com/users/vmarmol/followers",
    "following_url": "https://api.github.com/users/vmarmol/following{/other_user}",
    "gists_url": "https://api.github.com/users/vmarmol/gists{/gist_id}",
    "starred_url": "https://api.github.com/users/vmarmol/starred{/owner}{/repo}",
    "subscriptions_url": "https://api.github.com/users/vmarmol/subscriptions",
    "organizations_url": "https://api.github.com/users/vmarmol/orgs",
    "repos_url": "https://api.github.com/users/vmarmol/repos",
    "events_url": "https://api.github.com/users/vmarmol/events{/privacy}",
    "received_events_url": "https://api.github.com/users/vmarmol/received_events",
    "type": "User",
    "site_admin": false
  },
  "created_at": "2014-06-12T19:30:43Z",
  "updated_at": "2014-06-12T19:30:43Z",
  "body": "I'm gonna close this in favor of #14, feel free to re-open if you run into any other issues."
}
, {
  "url": "https://api.github.com/repos/google/cadvisor/issues/comments/50057151",
  "html_url": "https://github.com/google/cadvisor/issues/13#issuecomment-50057151",
  "issue_url": "https://api.github.com/repos/google/cadvisor/issues/13",
  "id": 50057151,
  "user": {
    "login": "tpires",
    "id": 1906333,
    "avatar_url": "https://avatars.githubusercontent.com/u/1906333?v=3",
    "gravatar_id": "",
    "url": "https://api.github.com/users/tpires",
    "html_url": "https://github.com/tpires",
    "followers_url": "https://api.github.com/users/tpires/followers",
    "following_url": "https://api.github.com/users/tpires/following{/other_user}",
    "gists_url": "https://api.github.com/users/tpires/gists{/gist_id}",
    "starred_url": "https://api.github.com/users/tpires/starred{/owner}{/repo}",
    "subscriptions_url": "https://api.github.com/users/tpires/subscriptions",
    "organizations_url": "https://api.github.com/users/tpires/orgs",
    "repos_url": "https://api.github.com/users/tpires/repos",
    "events_url": "https://api.github.com/users/tpires/events{/privacy}",
    "received_events_url": "https://api.github.com/users/tpires/received_events",
    "type": "User",
    "site_admin": false
  },
  "created_at": "2014-07-24T18:20:49Z",
  "updated_at": "2014-07-24T18:20:49Z",
  "body": "Tried to run on RHEL 6.5 and got this:\r\n\r\n```\r\n$ sudo docker run --name cadvisor  --volume=/var/run:/var/run:rw   --volume=/cgroup/:/cgroup:ro   --volume=/var/lib/docker/:/var/lib/docker:ro   --publish=8080:8080  --detach=true google/cadvisor:latest\r\n04f0fc120f11fe660f98c4af8d3f200c7c1380d2e40191af3fa162bd43b154e2\r\n$ sudo docker logs cadvisor\r\n2014/07/24 17:53:43 Machine: {NumCores:4 MemoryCapacity:8254861312}\r\n2014/07/24 17:53:43 Version: {KernelVersion:2.6.32-431.20.3.el6.x86_64 ContainerOsVersion:Debian GNU/Linux 7 (wheezy) DockerVersion:1.0.0 CadvisorVersion:0.1.0}\r\n2014/07/24 17:53:43 register lmctfy under /\r\n2014/07/24 17:53:43 Starting cAdvisor version: \"0.1.0\"\r\n2014/07/24 17:53:43 About to serve on port 8080\r\n2014/07/24 17:53:43 Container handler factory for / is lmctfy\r\n2014/07/24 17:53:43 Added container: / (aliases: [])\r\n2014/07/24 17:53:43 Start housekeeping for container \"/\"\r\n2014/07/24 17:53:43 Starting recovery of all containers\r\n2014/07/24 17:53:43 Container handler factory for /docker is docker\r\n2014/07/24 17:53:43 Added container: /docker (aliases: [])\r\n2014/07/24 17:53:43 Start housekeeping for container \"/docker\"\r\n2014/07/24 17:53:43 Container handler factory for /docker/04f0fc120f11fe660f98c4af8d3f200c7c1380d2e40191af3fa162bd43b154e2 is docker\r\n2014/07/24 17:53:43 Added container: /docker/04f0fc120f11fe660f98c4af8d3f200c7c1380d2e40191af3fa162bd43b154e2 (aliases: [/docker/cadvisor])\r\n2014/07/24 17:53:43 Failed to update stats for container \"/docker/04f0fc120f11fe660f98c4af8d3f200c7c1380d2e40191af3fa162bd43b154e2\": getting stats for system \"blkio\" open /cgroup/blkio/docker/04f0fc120f11fe660f98c4af8d3f200c7c1380d2e40191af3fa162bd43b154e2/blkio.sectors_recursive: no such file or directory\r\n2014/07/24 17:53:43 Start housekeeping for container \"/docker/04f0fc120f11fe660f98c4af8d3f200c7c1380d2e40191af3fa162bd43b154e2\"\r\n2014/07/24 17:53:43 Container handler factory for /docker/338d75e69ccda0129a40fb0afe6c7ff10a347dac1826badbcc5e5756b4f53bd9 is docker\r\n2014/07/24 17:53:43 Added container: /docker/338d75e69ccda0129a40fb0afe6c7ff10a347dac1826badbcc5e5756b4f53bd9 (aliases: [/docker/jenkins])\r\n2014/07/24 17:53:43 Failed to update stats for container \"/docker/338d75e69ccda0129a40fb0afe6c7ff10a347dac1826badbcc5e5756b4f53bd9\": getting stats for system \"blkio\" open /cgroup/blkio/docker/338d75e69ccda0129a40fb0afe6c7ff10a347dac1826badbcc5e5756b4f53bd9/blkio.sectors_recursive: no such file or directory\r\n```"
}
, {
  "url": "https://api.github.com/repos/google/cadvisor/issues/comments/50057531",
  "html_url": "https://github.com/google/cadvisor/issues/13#issuecomment-50057531",
  "issue_url": "https://api.github.com/repos/google/cadvisor/issues/13",
  "id": 50057531,
  "user": {
    "login": "vmarmol",
    "id": 985208,
    "avatar_url": "https://avatars.githubusercontent.com/u/985208?v=3",
    "gravatar_id": "",
    "url": "https://api.github.com/users/vmarmol",
    "html_url": "https://github.com/vmarmol",
    "followers_url": "https://api.github.com/users/vmarmol/followers",
    "following_url": "https://api.github.com/users/vmarmol/following{/other_user}",
    "gists_url": "https://api.github.com/users/vmarmol/gists{/gist_id}",
    "starred_url": "https://api.github.com/users/vmarmol/starred{/owner}{/repo}",
    "subscriptions_url": "https://api.github.com/users/vmarmol/subscriptions",
    "organizations_url": "https://api.github.com/users/vmarmol/orgs",
    "repos_url": "https://api.github.com/users/vmarmol/repos",
    "events_url": "https://api.github.com/users/vmarmol/events{/privacy}",
    "received_events_url": "https://api.github.com/users/vmarmol/received_events",
    "type": "User",
    "site_admin": false
  },
  "created_at": "2014-07-24T18:23:41Z",
  "updated_at": "2014-07-24T18:23:41Z",
  "body": "The version that supports this is the canary: google/cadvisor:canary not :latest. We should be making it latest later today.\r\n\r\nSorry, I should only update this after we mark :latest :)"
}
, {
  "url": "https://api.github.com/repos/google/cadvisor/issues/comments/50058552",
  "html_url": "https://github.com/google/cadvisor/issues/13#issuecomment-50058552",
  "issue_url": "https://api.github.com/repos/google/cadvisor/issues/13",
  "id": 50058552,
  "user": {
    "login": "tpires",
    "id": 1906333,
    "avatar_url": "https://avatars.githubusercontent.com/u/1906333?v=3",
    "gravatar_id": "",
    "url": "https://api.github.com/users/tpires",
    "html_url": "https://github.com/tpires",
    "followers_url": "https://api.github.com/users/tpires/followers",
    "following_url": "https://api.github.com/users/tpires/following{/other_user}",
    "gists_url": "https://api.github.com/users/tpires/gists{/gist_id}",
    "starred_url": "https://api.github.com/users/tpires/starred{/owner}{/repo}",
    "subscriptions_url": "https://api.github.com/users/tpires/subscriptions",
    "organizations_url": "https://api.github.com/users/tpires/orgs",
    "repos_url": "https://api.github.com/users/tpires/repos",
    "events_url": "https://api.github.com/users/tpires/events{/privacy}",
    "received_events_url": "https://api.github.com/users/tpires/received_events",
    "type": "User",
    "site_admin": false
  },
  "created_at": "2014-07-24T18:31:22Z",
  "updated_at": "2014-07-24T18:31:22Z",
  "body": "Sorry, my bad!! I read latest instead of canary! Going to test it after it's marked to :latest!"
}
, {
  "url": "https://api.github.com/repos/google/cadvisor/issues/comments/50075166",
  "html_url": "https://github.com/google/cadvisor/issues/13#issuecomment-50075166",
  "issue_url": "https://api.github.com/repos/google/cadvisor/issues/13",
  "id": 50075166,
  "user": {
    "login": "vmarmol",
    "id": 985208,
    "avatar_url": "https://avatars.githubusercontent.com/u/985208?v=3",
    "gravatar_id": "",
    "url": "https://api.github.com/users/vmarmol",
    "html_url": "https://github.com/vmarmol",
    "followers_url": "https://api.github.com/users/vmarmol/followers",
    "following_url": "https://api.github.com/users/vmarmol/following{/other_user}",
    "gists_url": "https://api.github.com/users/vmarmol/gists{/gist_id}",
    "starred_url": "https://api.github.com/users/vmarmol/starred{/owner}{/repo}",
    "subscriptions_url": "https://api.github.com/users/vmarmol/subscriptions",
    "organizations_url": "https://api.github.com/users/vmarmol/orgs",
    "repos_url": "https://api.github.com/users/vmarmol/repos",
    "events_url": "https://api.github.com/users/vmarmol/events{/privacy}",
    "received_events_url": "https://api.github.com/users/vmarmol/received_events",
    "type": "User",
    "site_admin": false
  },
  "created_at": "2014-07-24T20:42:51Z",
  "updated_at": "2014-07-24T20:42:51Z",
  "body": "@tpires just upgraded to :latest. Let us know how it goes!"
}
, {
  "url": "https://api.github.com/repos/google/cadvisor/issues/comments/50124898",
  "html_url": "https://github.com/google/cadvisor/issues/13#issuecomment-50124898",
  "issue_url": "https://api.github.com/repos/google/cadvisor/issues/13",
  "id": 50124898,
  "user": {
    "login": "tpires",
    "id": 1906333,
    "avatar_url": "https://avatars.githubusercontent.com/u/1906333?v=3",
    "gravatar_id": "",
    "url": "https://api.github.com/users/tpires",
    "html_url": "https://github.com/tpires",
    "followers_url": "https://api.github.com/users/tpires/followers",
    "following_url": "https://api.github.com/users/tpires/following{/other_user}",
    "gists_url": "https://api.github.com/users/tpires/gists{/gist_id}",
    "starred_url": "https://api.github.com/users/tpires/starred{/owner}{/repo}",
    "subscriptions_url": "https://api.github.com/users/tpires/subscriptions",
    "organizations_url": "https://api.github.com/users/tpires/orgs",
    "repos_url": "https://api.github.com/users/tpires/repos",
    "events_url": "https://api.github.com/users/tpires/events{/privacy}",
    "received_events_url": "https://api.github.com/users/tpires/received_events",
    "type": "User",
    "site_admin": false
  },
  "created_at": "2014-07-25T09:02:00Z",
  "updated_at": "2014-07-25T09:02:00Z",
  "body": "Got it up and running with:\r\n\r\n```\r\n$ sudo docker run --volume=/var/run:/var/run:rw --volume=/cgroup:/cgroup:ro --volume=/var/lib/docker/:/var/lib/docker:ro --publish=8080:8080 --detach=true --name=cadvisor   google/cadvisor:latest\r\n```\r\n\r\nBut when visualizing sub-containers, cadvisor freezes:\r\n```\r\n$ sudo docker logs -f cadvisor\r\n2014/07/25 08:59:20 Machine: {NumCores:4 MemoryCapacity:8254861312}\r\n2014/07/25 08:59:20 Version: {KernelVersion:2.6.32-431.20.3.el6.x86_64 ContainerOsVersion:Unknown DockerVersion:1.0.0 CadvisorVersion:0.2.0}\r\n2014/07/25 08:59:20 Registering Docker factory\r\n2014/07/25 08:59:20 Registering Raw factory\r\n2014/07/25 08:59:20 Starting cAdvisor version: \"0.2.0\"\r\n2014/07/25 08:59:20 About to serve on port 8080\r\n2014/07/25 08:59:20 Using factory \"raw\" for container \"/\"\r\n2014/07/25 08:59:20 Added container: / (aliases: [])\r\n2014/07/25 08:59:20 Start housekeeping for container \"/\"\r\n2014/07/25 08:59:20 Starting recovery of all containers\r\n2014/07/25 08:59:20 Using factory \"docker\" for container \"/docker/cdbdf0ca926803e74c3eef8f283aec8e2abb48a117f7aeec9d8246cc77013085\"\r\n2014/07/25 08:59:20 Added container: /docker/cdbdf0ca926803e74c3eef8f283aec8e2abb48a117f7aeec9d8246cc77013085 (aliases: [/docker/nagios])\r\n2014/07/25 08:59:20 Start housekeeping for container \"/docker/cdbdf0ca926803e74c3eef8f283aec8e2abb48a117f7aeec9d8246cc77013085\"\r\n2014/07/25 08:59:20 Using factory \"docker\" for container \"/docker/338d75e69ccda0129a40fb0afe6c7ff10a347dac1826badbcc5e5756b4f53bd9\"\r\n2014/07/25 08:59:20 Added container: /docker/338d75e69ccda0129a40fb0afe6c7ff10a347dac1826badbcc5e5756b4f53bd9 (aliases: [/docker/jenkins])\r\n2014/07/25 08:59:20 Start housekeeping for container \"/docker/338d75e69ccda0129a40fb0afe6c7ff10a347dac1826badbcc5e5756b4f53bd9\"\r\n2014/07/25 08:59:20 Using factory \"docker\" for container \"/docker\"\r\n2014/07/25 08:59:20 Added container: /docker (aliases: [])\r\n2014/07/25 08:59:20 Start housekeeping for container \"/docker\"\r\n2014/07/25 08:59:20 Using factory \"docker\" for container \"/docker/72f6e89d3ab234e30aab45e6f7669c34f85eb2f29d064fc385ab4149427770e0\"\r\n2014/07/25 08:59:20 Added container: /docker/72f6e89d3ab234e30aab45e6f7669c34f85eb2f29d064fc385ab4149427770e0 (aliases: [/docker/postfix])\r\n2014/07/25 08:59:20 Start housekeeping for container \"/docker/72f6e89d3ab234e30aab45e6f7669c34f85eb2f29d064fc385ab4149427770e0\"\r\n2014/07/25 08:59:20 Using factory \"docker\" for container \"/docker/23acc760e53bb93717e1b578b84a8cf05f83ce59020af1cb6e316d3b0558ab24\"\r\n2014/07/25 08:59:20 Added container: /docker/23acc760e53bb93717e1b578b84a8cf05f83ce59020af1cb6e316d3b0558ab24 (aliases: [/docker/cadvisor])\r\n2014/07/25 08:59:20 Start housekeeping for container \"/docker/23acc760e53bb93717e1b578b84a8cf05f83ce59020af1cb6e316d3b0558ab24\"\r\n2014/07/25 08:59:20 Recovery completed\r\n2014/07/25 08:59:26 Get(/); &{NumStats:60 NumSamples:60 CpuUsagePercentiles:[] MemoryUsagePercentiles:[]}\r\n2014/07/25 08:59:26 Request took 5.694966ms\r\n2014/07/25 08:59:26 Api - Machine\r\n2014/07/25 08:59:26 Request took 402.798us\r\n2014/07/25 08:59:27 Get(/); &{NumStats:60 NumSamples:60 CpuUsagePercentiles:[] MemoryUsagePercentiles:[]}\r\n2014/07/25 08:59:27 Request took 4.027077ms\r\n2014/07/25 08:59:27 Api - Container(/)\r\n2014/07/25 08:59:27 Get(/); &{NumStats:60 NumSamples:0 CpuUsagePercentiles:[] MemoryUsagePercentiles:[]}\r\n2014/07/25 08:59:27 Request took 3.855463ms\r\n2014/07/25 08:59:28 Api - Container(/)\r\n2014/07/25 08:59:28 Get(/); &{NumStats:60 NumSamples:0 CpuUsagePercentiles:[] MemoryUsagePercentiles:[]}\r\n2014/07/25 08:59:28 Request took 3.390134ms\r\n2014/07/25 08:59:29 Api - Container(/)\r\n2014/07/25 08:59:29 Get(/); &{NumStats:60 NumSamples:0 CpuUsagePercentiles:[] MemoryUsagePercentiles:[]}\r\n2014/07/25 08:59:29 Request took 3.162591ms\r\n2014/07/25 08:59:30 Api - Container(/)\r\n2014/07/25 08:59:30 Get(/); &{NumStats:60 NumSamples:0 CpuUsagePercentiles:[] MemoryUsagePercentiles:[]}\r\n2014/07/25 08:59:30 Request took 5.509357ms\r\n2014/07/25 08:59:31 Api - Container(/)\r\n2014/07/25 08:59:31 Get(/); &{NumStats:60 NumSamples:0 CpuUsagePercentiles:[] MemoryUsagePercentiles:[]}\r\n2014/07/25 08:59:31 Request took 3.988355ms\r\n2014/07/25 08:59:32 Api - Container(/)\r\n2014/07/25 08:59:32 Get(/); &{NumStats:60 NumSamples:0 CpuUsagePercentiles:[] MemoryUsagePercentiles:[]}\r\n2014/07/25 08:59:32 Request took 2.047968ms\r\n2014/07/25 08:59:33 Api - Container(/)\r\n2014/07/25 08:59:33 Get(/); &{NumStats:60 NumSamples:0 CpuUsagePercentiles:[] MemoryUsagePercentiles:[]}\r\n2014/07/25 08:59:33 Request took 2.614232ms\r\n2014/07/25 08:59:34 Api - Container(/)\r\n2014/07/25 08:59:34 Get(/); &{NumStats:60 NumSamples:0 CpuUsagePercentiles:[] MemoryUsagePercentiles:[]}\r\n2014/07/25 08:59:34 Request took 3.060807ms\r\n2014/07/25 08:59:35 Api - Container(/)\r\n2014/07/25 08:59:35 Get(/); &{NumStats:60 NumSamples:0 CpuUsagePercentiles:[] MemoryUsagePercentiles:[]}\r\n2014/07/25 08:59:35 Request took 3.632048ms\r\n2014/07/25 08:59:36 Api - Container(/)\r\n2014/07/25 08:59:36 Get(/); &{NumStats:60 NumSamples:0 CpuUsagePercentiles:[] MemoryUsagePercentiles:[]}\r\n2014/07/25 08:59:36 Request took 3.740146ms\r\n2014/07/25 08:59:37 Api - Container(/)\r\n2014/07/25 08:59:37 Get(/); &{NumStats:60 NumSamples:0 CpuUsagePercentiles:[] MemoryUsagePercentiles:[]}\r\n2014/07/25 08:59:37 Request took 5.529119ms\r\n2014/07/25 08:59:38 Api - Container(/)\r\n2014/07/25 08:59:38 Get(/); &{NumStats:60 NumSamples:0 CpuUsagePercentiles:[] MemoryUsagePercentiles:[]}\r\n2014/07/25 08:59:38 Request took 3.542173ms\r\n2014/07/25 08:59:39 Get(/docker); &{NumStats:60 NumSamples:60 CpuUsagePercentiles:[] MemoryUsagePercentiles:[]}\r\n2014/07/25 08:59:39 Request took 6.937376ms\r\n2014/07/25 08:59:39 Get(/); &{NumStats:60 NumSamples:60 CpuUsagePercentiles:[] MemoryUsagePercentiles:[]}\r\n2014/07/25 08:59:39 Request took 2.907233ms\r\n2014/07/25 08:59:41 Get(/docker/23acc760e53bb93717e1b578b84a8cf05f83ce59020af1cb6e316d3b0558ab24); &{NumStats:60 NumSamples:60 CpuUsagePercentiles:[] MemoryUsagePercentiles:[]}\r\n2014/07/25 08:59:41 http: panic serving 10.112.210.230:51345: runtime error: invalid memory address or nil pointer dereference\r\ngoroutine 31 [running]:\r\nnet/http.func·011()\r\n\t/usr/lib/google-golang/src/pkg/net/http/server.go:1100 +0xb7\r\nruntime.panic(0x8f3a00, 0xe0d853)\r\n\t/usr/lib/google-golang/src/pkg/runtime/panic.c:248 +0x18d\r\ntext/template.errRecover(0x4c20811f870)\r\n\t/usr/lib/google-golang/src/pkg/text/template/exec.go:100 +0xb9\r\nruntime.panic(0x8f3a00, 0xe0d853)\r\n\t/usr/lib/google-golang/src/pkg/runtime/panic.c:248 +0x18d\r\ngithub.com/google/cadvisor/pages.getHotMemoryPercent(0x4c208119f50, 0x4c208022e70, 0x16, 0x16, 0x4c208119fa0, 0x0)\r\n\t/usr/local/google/home/vmarmol/go/src/github.com/google/cadvisor/pages/containers.go:173 +0x39\r\nreflect.Value.call(0x892de0, 0xa457b8, 0x0, 0x130, 0x949040, 0x4, 0x4c2080d7800, 0x3, 0x3, 0x0, ...)\r\n\t/usr/lib/google-golang/src/pkg/reflect/value.go:563 +0x1210\r\nreflect.Value.Call(0x892de0, 0xa457b8, 0x0, 0x130, 0x4c2080d7800, 0x3, 0x3, 0x0, 0x0, 0x0)\r\n\t/usr/lib/google-golang/src/pkg/reflect/value.go:411 +0xd7\r\ntext/template.(*state).evalCall(0x4c2081201c0, 0x7e7980, 0x4c208029f10, 0x0, 0x160, 0x892de0, 0xa457b8, 0x0, 0x130, 0x7f9d31197c20, ...)\r\n\t/usr/lib/google-golang/src/pkg/text/template/exec.go:563 +0x9d4\r\ntext/template.(*state).evalFunction(0x4c2081201c0, 0x7e7980, 0x4c208029f10, 0x0, 0x160, 0x4c20803ecc0, 0x7f9d31197c20, 0x4c208084d50, 0x4c208057180, 0x4, ...)\r\n\t/usr/lib/google-golang/src/pkg/text/template/exec.go:455 +0x343\r\ntext/template.(*state).evalCommand(0x4c2081201c0, 0x7e7980, 0x4c208029f10, 0x0, 0x160, 0x4c208084d50, 0x0, 0x0, 0x0, 0x0, ...)\r\n\t/usr/lib/google-golang/src/pkg/text/template/exec.go:359 +0x23e\r\ntext/template.(*state).evalPipeline(0x4c2081201c0, 0x7e7980, 0x4c208029f10, 0x0, 0x160, 0x4c208019220, 0x0, 0x0, 0x0, 0x0)\r\n\t/usr/lib/google-golang/src/pkg/text/template/exec.go:332 +0x1be\r\ntext/template.(*state).walk(0x4c2081201c0, 0x7e7980, 0x4c208029f10, 0x0, 0x160, 0x7f9d3118fd60, 0x4c20803ed00)\r\n\t/usr/lib/google-golang/src/pkg/text/template/exec.go:167 +0x133\r\ntext/template.(*state).walk(0x4c2081201c0, 0x7e7980, 0x4c208029f10, 0x0, 0x160, 0x7f9d31197b90, 0x4c208084cf0)\r\n\t/usr/lib/google-golang/src/pkg/text/template/exec.go:175 +0x848\r\ntext/template.(*state).walkIfOrWith(0x4c2081201c0, 0xa, 0x7e7980, 0x4c208029f10, 0x0, 0x160, 0x4c2080191d0, 0x4c208084cf0, 0x0)\r\n\t/usr/lib/google-golang/src/pkg/text/template/exec.go:205 +0x355\r\ntext/template.(*state).walk(0x4c2081201c0, 0x7e7980, 0x4c208029f10, 0x0, 0x160, 0x7f9d3118ff58, 0x4c2080850b0)\r\n\t/usr/lib/google-golang/src/pkg/text/template/exec.go:172 +0x5d3\r\ntext/template.(*state).walk(0x4c2081201c0, 0x7e7980, 0x4c208029f10, 0x0, 0x160, 0x7f9d31197b90, 0x4c20800f9b0)\r\n\t/usr/lib/google-golang/src/pkg/text/template/exec.go:175 +0x848\r\ntext/template.(*state).walkIfOrWith(0x4c2081201c0, 0xa, 0x7e7980, 0x4c208029f10, 0x0, 0x160, 0x4c208018c30, 0x4c20800f9b0, 0x0)\r\n\t/usr/lib/google-golang/src/pkg/text/template/exec.go:205 +0x355\r\ntext/template.(*state).walk(0x4c2081201c0, 0x7e7980, 0x4c208029f10, 0x0, 0x160, 0x7f9d3118ff58, 0x4c208085230)\r\n\t/usr/lib/google-golang/src/pkg/text/template/exec.go:172 +0x5d3\r\ntext/template.(*state).walk(0x4c2081201c0, 0x7e7980, 0x4c208029f10, 0x0, 0x160, 0x7f9d31197b90, 0x4c20800f260)\r\n\t/usr/lib/google-golang/src/pkg/text/template/exec.go:175 +0x848\r\ntext/template.(*Template).Execute(0x4c208056040, 0x7f9d31197a68, 0x4c2080ad900, 0x7e7980, 0x4c208029f10, 0x0, 0x0)\r\n\t/usr/lib/google-golang/src/pkg/text/template/exec.go:155 +0x332\r\nhtml/template.(*Template).Execute(0x4c20803e080, 0x7f9d31197a68, 0x4c2080ad900, 0x7e7980, 0x4c208029f10, 0x0, 0x0)\r\n\t/usr/lib/google-golang/src/pkg/html/template/template.go:73 +0xa7\r\ngithub.com/google/cadvisor/pages.ServerContainersPage(0x7f9d31191718, 0x4c20805e700, 0x7f9d31197a08, 0x4c2080ad900, 0x4c208029a40, 0x0, 0x0)\r\n\t/usr/local/google/home/vmarmol/go/src/github.com/google/cadvisor/pages/containers.go:251 +0x798\r\nmain.func·003(0x7f9d31197a08, 0x4c2080ad900, 0x4c208197450)\r\n\t/usr/local/google/home/vmarmol/go/src/github.com/google/cadvisor/cadvisor.go:80 +0x60\r\nnet/http.HandlerFunc.ServeHTTP(0x4c2080d26e0, 0x7f9d31197a08, 0x4c2080ad900, 0x4c208197450)\r\n\t/usr/lib/google-golang/src/pkg/net/http/server.go:1235 +0x40\r\nnet/http.(*ServeMux).ServeHTTP(0x4c20800e720, 0x7f9d31197a08, 0x4c2080ad900, 0x4c208197450)\r\n\t/usr/lib/google-golang/src/pkg/net/http/server.go:1511 +0x1a3\r\nnet/http.serverHandler.ServeHTTP(0x4c208004300, 0x7f9d31197a08, 0x4c2080ad900, 0x4c208197450)\r\n\t/usr/lib/google-golang/src/pkg/net/http/server.go:1673 +0x19f\r\nnet/http.(*conn).serve(0x4c20805f780)\r\n\t/usr/lib/google-golang/src/pkg/net/http/server.go:1174 +0xa7e\r\ncreated by net/http.(*Server).Serve\r\n\t/usr/lib/google-golang/src/pkg/net/http/server.go:1721 +0x313\r\n2014/07/25 08:59:41 Get(/); &{NumStats:60 NumSamples:60 CpuUsagePercentiles:[] MemoryUsagePercentiles:[]}\r\n2014/07/25 08:59:41 Request took 3.195288ms\r\n\r\n```"
}
, {
  "url": "https://api.github.com/repos/google/cadvisor/issues/comments/50162631",
  "html_url": "https://github.com/google/cadvisor/issues/13#issuecomment-50162631",
  "issue_url": "https://api.github.com/repos/google/cadvisor/issues/13",
  "id": 50162631,
  "user": {
    "login": "vmarmol",
    "id": 985208,
    "avatar_url": "https://avatars.githubusercontent.com/u/985208?v=3",
    "gravatar_id": "",
    "url": "https://api.github.com/users/vmarmol",
    "html_url": "https://github.com/vmarmol",
    "followers_url": "https://api.github.com/users/vmarmol/followers",
    "following_url": "https://api.github.com/users/vmarmol/following{/other_user}",
    "gists_url": "https://api.github.com/users/vmarmol/gists{/gist_id}",
    "starred_url": "https://api.github.com/users/vmarmol/starred{/owner}{/repo}",
    "subscriptions_url": "https://api.github.com/users/vmarmol/subscriptions",
    "organizations_url": "https://api.github.com/users/vmarmol/orgs",
    "repos_url": "https://api.github.com/users/vmarmol/repos",
    "events_url": "https://api.github.com/users/vmarmol/events{/privacy}",
    "received_events_url": "https://api.github.com/users/vmarmol/received_events",
    "type": "User",
    "site_admin": false
  },
  "created_at": "2014-07-25T15:09:20Z",
  "updated_at": "2014-07-25T15:09:20Z",
  "body": "@tpires this is a compatability problem with old versions of Docker. If you upgrade to 1.1.1 it should work. We're working on a fix for older version of Docker today."
}
, {
  "url": "https://api.github.com/repos/google/cadvisor/issues/comments/50163059",
  "html_url": "https://github.com/google/cadvisor/issues/13#issuecomment-50163059",
  "issue_url": "https://api.github.com/repos/google/cadvisor/issues/13",
  "id": 50163059,
  "user": {
    "login": "vmarmol",
    "id": 985208,
    "avatar_url": "https://avatars.githubusercontent.com/u/985208?v=3",
    "gravatar_id": "",
    "url": "https://api.github.com/users/vmarmol",
    "html_url": "https://github.com/vmarmol",
    "followers_url": "https://api.github.com/users/vmarmol/followers",
    "following_url": "https://api.github.com/users/vmarmol/following{/other_user}",
    "gists_url": "https://api.github.com/users/vmarmol/gists{/gist_id}",
    "starred_url": "https://api.github.com/users/vmarmol/starred{/owner}{/repo}",
    "subscriptions_url": "https://api.github.com/users/vmarmol/subscriptions",
    "organizations_url": "https://api.github.com/users/vmarmol/orgs",
    "repos_url": "https://api.github.com/users/vmarmol/repos",
    "events_url": "https://api.github.com/users/vmarmol/events{/privacy}",
    "received_events_url": "https://api.github.com/users/vmarmol/received_events",
    "type": "User",
    "site_admin": false
  },
  "created_at": "2014-07-25T15:12:44Z",
  "updated_at": "2014-07-25T15:12:44Z",
  "body": "Specifically: https://github.com/google/cadvisor/issues/127"
}
, {
  "url": "https://api.github.com/repos/google/cadvisor/issues/comments/50181135",
  "html_url": "https://github.com/google/cadvisor/issues/13#issuecomment-50181135",
  "issue_url": "https://api.github.com/repos/google/cadvisor/issues/13",
  "id": 50181135,
  "user": {
    "login": "vmarmol",
    "id": 985208,
    "avatar_url": "https://avatars.githubusercontent.com/u/985208?v=3",
    "gravatar_id": "",
    "url": "https://api.github.com/users/vmarmol",
    "html_url": "https://github.com/vmarmol",
    "followers_url": "https://api.github.com/users/vmarmol/followers",
    "following_url": "https://api.github.com/users/vmarmol/following{/other_user}",
    "gists_url": "https://api.github.com/users/vmarmol/gists{/gist_id}",
    "starred_url": "https://api.github.com/users/vmarmol/starred{/owner}{/repo}",
    "subscriptions_url": "https://api.github.com/users/vmarmol/subscriptions",
    "organizations_url": "https://api.github.com/users/vmarmol/orgs",
    "repos_url": "https://api.github.com/users/vmarmol/repos",
    "events_url": "https://api.github.com/users/vmarmol/events{/privacy}",
    "received_events_url": "https://api.github.com/users/vmarmol/received_events",
    "type": "User",
    "site_admin": false
  },
  "created_at": "2014-07-25T17:41:14Z",
  "updated_at": "2014-07-25T17:41:14Z",
  "body": "Fixed and pushed to latest"
}
, {
  "url": "https://api.github.com/repos/google/cadvisor/issues/comments/50313906",
  "html_url": "https://github.com/google/cadvisor/issues/13#issuecomment-50313906",
  "issue_url": "https://api.github.com/repos/google/cadvisor/issues/13",
  "id": 50313906,
  "user": {
    "login": "tpires",
    "id": 1906333,
    "avatar_url": "https://avatars.githubusercontent.com/u/1906333?v=3",
    "gravatar_id": "",
    "url": "https://api.github.com/users/tpires",
    "html_url": "https://github.com/tpires",
    "followers_url": "https://api.github.com/users/tpires/followers",
    "following_url": "https://api.github.com/users/tpires/following{/other_user}",
    "gists_url": "https://api.github.com/users/tpires/gists{/gist_id}",
    "starred_url": "https://api.github.com/users/tpires/starred{/owner}{/repo}",
    "subscriptions_url": "https://api.github.com/users/tpires/subscriptions",
    "organizations_url": "https://api.github.com/users/tpires/orgs",
    "repos_url": "https://api.github.com/users/tpires/repos",
    "events_url": "https://api.github.com/users/tpires/events{/privacy}",
    "received_events_url": "https://api.github.com/users/tpires/received_events",
    "type": "User",
    "site_admin": false
  },
  "created_at": "2014-07-28T08:55:41Z",
  "updated_at": "2014-07-28T08:55:41Z",
  "body": "@vmarmol it's up and running for the last 3 days ;) thanks!"
}
, {
  "url": "https://api.github.com/repos/google/cadvisor/issues/comments/50354204",
  "html_url": "https://github.com/google/cadvisor/issues/13#issuecomment-50354204",
  "issue_url": "https://api.github.com/repos/google/cadvisor/issues/13",
  "id": 50354204,
  "user": {
    "login": "vmarmol",
    "id": 985208,
    "avatar_url": "https://avatars.githubusercontent.com/u/985208?v=3",
    "gravatar_id": "",
    "url": "https://api.github.com/users/vmarmol",
    "html_url": "https://github.com/vmarmol",
    "followers_url": "https://api.github.com/users/vmarmol/followers",
    "following_url": "https://api.github.com/users/vmarmol/following{/other_user}",
    "gists_url": "https://api.github.com/users/vmarmol/gists{/gist_id}",
    "starred_url": "https://api.github.com/users/vmarmol/starred{/owner}{/repo}",
    "subscriptions_url": "https://api.github.com/users/vmarmol/subscriptions",
    "organizations_url": "https://api.github.com/users/vmarmol/orgs",
    "repos_url": "https://api.github.com/users/vmarmol/repos",
    "events_url": "https://api.github.com/users/vmarmol/events{/privacy}",
    "received_events_url": "https://api.github.com/users/vmarmol/received_events",
    "type": "User",
    "site_admin": false
  },
  "created_at": "2014-07-28T15:30:28Z",
  "updated_at": "2014-07-28T15:30:28Z",
  "body": "Great to hear :)"
}
]
