[
{
  "url": "https://api.github.com/repos/Azure/azure-xplat-cli/issues/comments/48676737",
  "html_url": "https://github.com/Azure/azure-xplat-cli/pull/1278#issuecomment-48676737",
  "issue_url": "https://api.github.com/repos/Azure/azure-xplat-cli/issues/1278",
  "id": 48676737,
  "user": {
    "login": "christav",
    "id": 1987321,
    "avatar_url": "https://avatars.githubusercontent.com/u/1987321?v=3",
    "gravatar_id": "",
    "url": "https://api.github.com/users/christav",
    "html_url": "https://github.com/christav",
    "followers_url": "https://api.github.com/users/christav/followers",
    "following_url": "https://api.github.com/users/christav/following{/other_user}",
    "gists_url": "https://api.github.com/users/christav/gists{/gist_id}",
    "starred_url": "https://api.github.com/users/christav/starred{/owner}{/repo}",
    "subscriptions_url": "https://api.github.com/users/christav/subscriptions",
    "organizations_url": "https://api.github.com/users/christav/orgs",
    "repos_url": "https://api.github.com/users/christav/repos",
    "events_url": "https://api.github.com/users/christav/events{/privacy}",
    "received_events_url": "https://api.github.com/users/christav/received_events",
    "type": "User",
    "site_admin": false
  },
  "created_at": "2014-07-10T23:14:56Z",
  "updated_at": "2014-07-10T23:14:56Z",
  "body": "LGTM"
}
]
