[
{
  "url": "https://api.github.com/repos/Azure/azure-xplat-cli/issues/comments/132535717",
  "html_url": "https://github.com/Azure/azure-xplat-cli/pull/2044#issuecomment-132535717",
  "issue_url": "https://api.github.com/repos/Azure/azure-xplat-cli/issues/2044",
  "id": 132535717,
  "user": {
    "login": "azurecla",
    "id": 8030856,
    "avatar_url": "https://avatars.githubusercontent.com/u/8030856?v=3",
    "gravatar_id": "",
    "url": "https://api.github.com/users/azurecla",
    "html_url": "https://github.com/azurecla",
    "followers_url": "https://api.github.com/users/azurecla/followers",
    "following_url": "https://api.github.com/users/azurecla/following{/other_user}",
    "gists_url": "https://api.github.com/users/azurecla/gists{/gist_id}",
    "starred_url": "https://api.github.com/users/azurecla/starred{/owner}{/repo}",
    "subscriptions_url": "https://api.github.com/users/azurecla/subscriptions",
    "organizations_url": "https://api.github.com/users/azurecla/orgs",
    "repos_url": "https://api.github.com/users/azurecla/repos",
    "events_url": "https://api.github.com/users/azurecla/events{/privacy}",
    "received_events_url": "https://api.github.com/users/azurecla/received_events",
    "type": "User",
    "site_admin": false
  },
  "created_at": "2015-08-19T10:42:50Z",
  "updated_at": "2015-08-19T10:42:50Z",
  "body": "Hi __@sachevl__, I'm your friendly neighborhood Azure Pull Request Bot (You can call me AZPRBOT). Thanks for your contribution!\n    <span>\n        This seems like a small (but important) contribution, so no contribution license agreement is required at this point. Real humans will now evaluate your PR.\n    </span>\n\nTTYL, AZPRBOT;\n"
}
]
