[
{
  "url": "https://api.github.com/repos/Azure/azure-xplat-cli/issues/comments/12342799",
  "html_url": "https://github.com/Azure/azure-xplat-cli/issues/96#issuecomment-12342799",
  "issue_url": "https://api.github.com/repos/Azure/azure-xplat-cli/issues/96",
  "id": 12342799,
  "user": {
    "login": "markcowl",
    "id": 1054056,
    "avatar_url": "https://avatars.githubusercontent.com/u/1054056?v=3",
    "gravatar_id": "",
    "url": "https://api.github.com/users/markcowl",
    "html_url": "https://github.com/markcowl",
    "followers_url": "https://api.github.com/users/markcowl/followers",
    "following_url": "https://api.github.com/users/markcowl/following{/other_user}",
    "gists_url": "https://api.github.com/users/markcowl/gists{/gist_id}",
    "starred_url": "https://api.github.com/users/markcowl/starred{/owner}{/repo}",
    "subscriptions_url": "https://api.github.com/users/markcowl/subscriptions",
    "organizations_url": "https://api.github.com/users/markcowl/orgs",
    "repos_url": "https://api.github.com/users/markcowl/repos",
    "events_url": "https://api.github.com/users/markcowl/events{/privacy}",
    "received_events_url": "https://api.github.com/users/markcowl/received_events",
    "type": "User",
    "site_admin": false
  },
  "created_at": "2013-01-16T22:02:14Z",
  "updated_at": "2013-01-16T22:02:14Z",
  "body": "it should have the actual namespace name instead of the generic \"namespace\""
}
, {
  "url": "https://api.github.com/repos/Azure/azure-xplat-cli/issues/comments/12816030",
  "html_url": "https://github.com/Azure/azure-xplat-cli/issues/96#issuecomment-12816030",
  "issue_url": "https://api.github.com/repos/Azure/azure-xplat-cli/issues/96",
  "id": 12816030,
  "user": {
    "login": "andrerod",
    "id": 457481,
    "avatar_url": "https://avatars.githubusercontent.com/u/457481?v=3",
    "gravatar_id": "",
    "url": "https://api.github.com/users/andrerod",
    "html_url": "https://github.com/andrerod",
    "followers_url": "https://api.github.com/users/andrerod/followers",
    "following_url": "https://api.github.com/users/andrerod/following{/other_user}",
    "gists_url": "https://api.github.com/users/andrerod/gists{/gist_id}",
    "starred_url": "https://api.github.com/users/andrerod/starred{/owner}{/repo}",
    "subscriptions_url": "https://api.github.com/users/andrerod/subscriptions",
    "organizations_url": "https://api.github.com/users/andrerod/orgs",
    "repos_url": "https://api.github.com/users/andrerod/repos",
    "events_url": "https://api.github.com/users/andrerod/events{/privacy}",
    "received_events_url": "https://api.github.com/users/andrerod/received_events",
    "type": "User",
    "site_admin": false
  },
  "created_at": "2013-01-29T01:36:39Z",
  "updated_at": "2013-01-29T01:36:39Z",
  "body": "This is actually fixed"
}
, {
  "url": "https://api.github.com/repos/Azure/azure-xplat-cli/issues/comments/13148955",
  "html_url": "https://github.com/Azure/azure-xplat-cli/issues/96#issuecomment-13148955",
  "issue_url": "https://api.github.com/repos/Azure/azure-xplat-cli/issues/96",
  "id": 13148955,
  "user": {
    "login": "maying",
    "id": 1380587,
    "avatar_url": "https://avatars.githubusercontent.com/u/1380587?v=3",
    "gravatar_id": "",
    "url": "https://api.github.com/users/maying",
    "html_url": "https://github.com/maying",
    "followers_url": "https://api.github.com/users/maying/followers",
    "following_url": "https://api.github.com/users/maying/following{/other_user}",
    "gists_url": "https://api.github.com/users/maying/gists{/gist_id}",
    "starred_url": "https://api.github.com/users/maying/starred{/owner}{/repo}",
    "subscriptions_url": "https://api.github.com/users/maying/subscriptions",
    "organizations_url": "https://api.github.com/users/maying/orgs",
    "repos_url": "https://api.github.com/users/maying/repos",
    "events_url": "https://api.github.com/users/maying/events{/privacy}",
    "received_events_url": "https://api.github.com/users/maying/received_events",
    "type": "User",
    "site_admin": false
  },
  "created_at": "2013-02-05T20:05:14Z",
  "updated_at": "2013-02-05T20:05:14Z",
  "body": "Verified.\r\n\r\n>azure sb namespace delete sample-sb1\r\ninfo:    Executing command sb namespace delete\r\n+ deleting namespace sample-sb1\r\ninfo:    sb namespace delete command OK\r\n"
}
]
