[
{
  "url": "https://api.github.com/repos/Azure/azure-xplat-cli/issues/comments/55456529",
  "html_url": "https://github.com/Azure/azure-xplat-cli/issues/520#issuecomment-55456529",
  "issue_url": "https://api.github.com/repos/Azure/azure-xplat-cli/issues/520",
  "id": 55456529,
  "user": {
    "login": "yugangw-msft",
    "id": 6014209,
    "avatar_url": "https://avatars.githubusercontent.com/u/6014209?v=3",
    "gravatar_id": "",
    "url": "https://api.github.com/users/yugangw-msft",
    "html_url": "https://github.com/yugangw-msft",
    "followers_url": "https://api.github.com/users/yugangw-msft/followers",
    "following_url": "https://api.github.com/users/yugangw-msft/following{/other_user}",
    "gists_url": "https://api.github.com/users/yugangw-msft/gists{/gist_id}",
    "starred_url": "https://api.github.com/users/yugangw-msft/starred{/owner}{/repo}",
    "subscriptions_url": "https://api.github.com/users/yugangw-msft/subscriptions",
    "organizations_url": "https://api.github.com/users/yugangw-msft/orgs",
    "repos_url": "https://api.github.com/users/yugangw-msft/repos",
    "events_url": "https://api.github.com/users/yugangw-msft/events{/privacy}",
    "received_events_url": "https://api.github.com/users/yugangw-msft/received_events",
    "type": "User",
    "site_admin": false
  },
  "created_at": "2014-09-12T20:29:06Z",
  "updated_at": "2014-09-12T20:29:06Z",
  "body": "closing as part of xplat backlog scrub"
}
]
