[
{
  "url": "https://api.github.com/repos/Azure/azure-xplat-cli/issues/comments/19181455",
  "html_url": "https://github.com/Azure/azure-xplat-cli/issues/561#issuecomment-19181455",
  "issue_url": "https://api.github.com/repos/Azure/azure-xplat-cli/issues/561",
  "id": 19181455,
  "user": {
    "login": "jeffwilcox",
    "id": 427913,
    "avatar_url": "https://avatars.githubusercontent.com/u/427913?v=3",
    "gravatar_id": "",
    "url": "https://api.github.com/users/jeffwilcox",
    "html_url": "https://github.com/jeffwilcox",
    "followers_url": "https://api.github.com/users/jeffwilcox/followers",
    "following_url": "https://api.github.com/users/jeffwilcox/following{/other_user}",
    "gists_url": "https://api.github.com/users/jeffwilcox/gists{/gist_id}",
    "starred_url": "https://api.github.com/users/jeffwilcox/starred{/owner}{/repo}",
    "subscriptions_url": "https://api.github.com/users/jeffwilcox/subscriptions",
    "organizations_url": "https://api.github.com/users/jeffwilcox/orgs",
    "repos_url": "https://api.github.com/users/jeffwilcox/repos",
    "events_url": "https://api.github.com/users/jeffwilcox/events{/privacy}",
    "received_events_url": "https://api.github.com/users/jeffwilcox/received_events",
    "type": "User",
    "site_admin": false
  },
  "created_at": "2013-06-10T05:35:44Z",
  "updated_at": "2013-06-10T05:35:44Z",
  "body": "+1 ;-)"
}
, {
  "url": "https://api.github.com/repos/Azure/azure-xplat-cli/issues/comments/44516974",
  "html_url": "https://github.com/Azure/azure-xplat-cli/issues/561#issuecomment-44516974",
  "issue_url": "https://api.github.com/repos/Azure/azure-xplat-cli/issues/561",
  "id": 44516974,
  "user": {
    "login": "nzthiago",
    "id": 1563288,
    "avatar_url": "https://avatars.githubusercontent.com/u/1563288?v=3",
    "gravatar_id": "",
    "url": "https://api.github.com/users/nzthiago",
    "html_url": "https://github.com/nzthiago",
    "followers_url": "https://api.github.com/users/nzthiago/followers",
    "following_url": "https://api.github.com/users/nzthiago/following{/other_user}",
    "gists_url": "https://api.github.com/users/nzthiago/gists{/gist_id}",
    "starred_url": "https://api.github.com/users/nzthiago/starred{/owner}{/repo}",
    "subscriptions_url": "https://api.github.com/users/nzthiago/subscriptions",
    "organizations_url": "https://api.github.com/users/nzthiago/orgs",
    "repos_url": "https://api.github.com/users/nzthiago/repos",
    "events_url": "https://api.github.com/users/nzthiago/events{/privacy}",
    "received_events_url": "https://api.github.com/users/nzthiago/received_events",
    "type": "User",
    "site_admin": false
  },
  "created_at": "2014-05-29T10:00:16Z",
  "updated_at": "2014-05-29T10:00:16Z",
  "body": "Would be great to have this indeed"
}
, {
  "url": "https://api.github.com/repos/Azure/azure-xplat-cli/issues/comments/45336293",
  "html_url": "https://github.com/Azure/azure-xplat-cli/issues/561#issuecomment-45336293",
  "issue_url": "https://api.github.com/repos/Azure/azure-xplat-cli/issues/561",
  "id": 45336293,
  "user": {
    "login": "lararubbelke",
    "id": 3812338,
    "avatar_url": "https://avatars.githubusercontent.com/u/3812338?v=3",
    "gravatar_id": "",
    "url": "https://api.github.com/users/lararubbelke",
    "html_url": "https://github.com/lararubbelke",
    "followers_url": "https://api.github.com/users/lararubbelke/followers",
    "following_url": "https://api.github.com/users/lararubbelke/following{/other_user}",
    "gists_url": "https://api.github.com/users/lararubbelke/gists{/gist_id}",
    "starred_url": "https://api.github.com/users/lararubbelke/starred{/owner}{/repo}",
    "subscriptions_url": "https://api.github.com/users/lararubbelke/subscriptions",
    "organizations_url": "https://api.github.com/users/lararubbelke/orgs",
    "repos_url": "https://api.github.com/users/lararubbelke/repos",
    "events_url": "https://api.github.com/users/lararubbelke/events{/privacy}",
    "received_events_url": "https://api.github.com/users/lararubbelke/received_events",
    "type": "User",
    "site_admin": false
  },
  "created_at": "2014-06-06T13:30:04Z",
  "updated_at": "2014-06-06T13:30:04Z",
  "body": "Is there an update to this request?  I need this functionality too\r\n"
}
, {
  "url": "https://api.github.com/repos/Azure/azure-xplat-cli/issues/comments/48278970",
  "html_url": "https://github.com/Azure/azure-xplat-cli/issues/561#issuecomment-48278970",
  "issue_url": "https://api.github.com/repos/Azure/azure-xplat-cli/issues/561",
  "id": 48278970,
  "user": {
    "login": "takekazuomi",
    "id": 73158,
    "avatar_url": "https://avatars.githubusercontent.com/u/73158?v=3",
    "gravatar_id": "",
    "url": "https://api.github.com/users/takekazuomi",
    "html_url": "https://github.com/takekazuomi",
    "followers_url": "https://api.github.com/users/takekazuomi/followers",
    "following_url": "https://api.github.com/users/takekazuomi/following{/other_user}",
    "gists_url": "https://api.github.com/users/takekazuomi/gists{/gist_id}",
    "starred_url": "https://api.github.com/users/takekazuomi/starred{/owner}{/repo}",
    "subscriptions_url": "https://api.github.com/users/takekazuomi/subscriptions",
    "organizations_url": "https://api.github.com/users/takekazuomi/orgs",
    "repos_url": "https://api.github.com/users/takekazuomi/repos",
    "events_url": "https://api.github.com/users/takekazuomi/events{/privacy}",
    "received_events_url": "https://api.github.com/users/takekazuomi/received_events",
    "type": "User",
    "site_admin": false
  },
  "created_at": "2014-07-08T07:09:24Z",
  "updated_at": "2014-07-08T07:09:24Z",
  "body": "+1"
}
, {
  "url": "https://api.github.com/repos/Azure/azure-xplat-cli/issues/comments/48279182",
  "html_url": "https://github.com/Azure/azure-xplat-cli/issues/561#issuecomment-48279182",
  "issue_url": "https://api.github.com/repos/Azure/azure-xplat-cli/issues/561",
  "id": 48279182,
  "user": {
    "login": "kuniteru",
    "id": 668692,
    "avatar_url": "https://avatars.githubusercontent.com/u/668692?v=3",
    "gravatar_id": "",
    "url": "https://api.github.com/users/kuniteru",
    "html_url": "https://github.com/kuniteru",
    "followers_url": "https://api.github.com/users/kuniteru/followers",
    "following_url": "https://api.github.com/users/kuniteru/following{/other_user}",
    "gists_url": "https://api.github.com/users/kuniteru/gists{/gist_id}",
    "starred_url": "https://api.github.com/users/kuniteru/starred{/owner}{/repo}",
    "subscriptions_url": "https://api.github.com/users/kuniteru/subscriptions",
    "organizations_url": "https://api.github.com/users/kuniteru/orgs",
    "repos_url": "https://api.github.com/users/kuniteru/repos",
    "events_url": "https://api.github.com/users/kuniteru/events{/privacy}",
    "received_events_url": "https://api.github.com/users/kuniteru/received_events",
    "type": "User",
    "site_admin": false
  },
  "created_at": "2014-07-08T07:11:49Z",
  "updated_at": "2014-07-08T07:11:49Z",
  "body": "+1"
}
, {
  "url": "https://api.github.com/repos/Azure/azure-xplat-cli/issues/comments/58076715",
  "html_url": "https://github.com/Azure/azure-xplat-cli/issues/561#issuecomment-58076715",
  "issue_url": "https://api.github.com/repos/Azure/azure-xplat-cli/issues/561",
  "id": 58076715,
  "user": {
    "login": "babumuralidharan",
    "id": 1501823,
    "avatar_url": "https://avatars.githubusercontent.com/u/1501823?v=3",
    "gravatar_id": "",
    "url": "https://api.github.com/users/babumuralidharan",
    "html_url": "https://github.com/babumuralidharan",
    "followers_url": "https://api.github.com/users/babumuralidharan/followers",
    "following_url": "https://api.github.com/users/babumuralidharan/following{/other_user}",
    "gists_url": "https://api.github.com/users/babumuralidharan/gists{/gist_id}",
    "starred_url": "https://api.github.com/users/babumuralidharan/starred{/owner}{/repo}",
    "subscriptions_url": "https://api.github.com/users/babumuralidharan/subscriptions",
    "organizations_url": "https://api.github.com/users/babumuralidharan/orgs",
    "repos_url": "https://api.github.com/users/babumuralidharan/repos",
    "events_url": "https://api.github.com/users/babumuralidharan/events{/privacy}",
    "received_events_url": "https://api.github.com/users/babumuralidharan/received_events",
    "type": "User",
    "site_admin": false
  },
  "created_at": "2014-10-06T19:16:36Z",
  "updated_at": "2014-10-06T19:16:36Z",
  "body": "Adding this as part of our enhancement list. Will update this thread once we have an update in place. \r\n\r\nThanks @fbejarano for requesting this feature."
}
, {
  "url": "https://api.github.com/repos/Azure/azure-xplat-cli/issues/comments/62240307",
  "html_url": "https://github.com/Azure/azure-xplat-cli/issues/561#issuecomment-62240307",
  "issue_url": "https://api.github.com/repos/Azure/azure-xplat-cli/issues/561",
  "id": 62240307,
  "user": {
    "login": "anuchandy",
    "id": 1471612,
    "avatar_url": "https://avatars.githubusercontent.com/u/1471612?v=3",
    "gravatar_id": "",
    "url": "https://api.github.com/users/anuchandy",
    "html_url": "https://github.com/anuchandy",
    "followers_url": "https://api.github.com/users/anuchandy/followers",
    "following_url": "https://api.github.com/users/anuchandy/following{/other_user}",
    "gists_url": "https://api.github.com/users/anuchandy/gists{/gist_id}",
    "starred_url": "https://api.github.com/users/anuchandy/starred{/owner}{/repo}",
    "subscriptions_url": "https://api.github.com/users/anuchandy/subscriptions",
    "organizations_url": "https://api.github.com/users/anuchandy/orgs",
    "repos_url": "https://api.github.com/users/anuchandy/repos",
    "events_url": "https://api.github.com/users/anuchandy/events{/privacy}",
    "received_events_url": "https://api.github.com/users/anuchandy/received_events",
    "type": "User",
    "site_admin": false
  },
  "created_at": "2014-11-08T01:47:30Z",
  "updated_at": "2014-11-08T01:47:30Z",
  "body": "Closing this as we are tracking this here https://github.com/MSOpenTech/azure-sdk-tools-xplat/issues/78"
}
]
