[
{
  "url": "https://api.github.com/repos/google/material-design-lite/issues/comments/138335185",
  "html_url": "https://github.com/google/material-design-lite/issues/1560#issuecomment-138335185",
  "issue_url": "https://api.github.com/repos/google/material-design-lite/issues/1560",
  "id": 138335185,
  "user": {
    "login": "surma",
    "id": 234957,
    "avatar_url": "https://avatars.githubusercontent.com/u/234957?v=3",
    "gravatar_id": "",
    "url": "https://api.github.com/users/surma",
    "html_url": "https://github.com/surma",
    "followers_url": "https://api.github.com/users/surma/followers",
    "following_url": "https://api.github.com/users/surma/following{/other_user}",
    "gists_url": "https://api.github.com/users/surma/gists{/gist_id}",
    "starred_url": "https://api.github.com/users/surma/starred{/owner}{/repo}",
    "subscriptions_url": "https://api.github.com/users/surma/subscriptions",
    "organizations_url": "https://api.github.com/users/surma/orgs",
    "repos_url": "https://api.github.com/users/surma/repos",
    "events_url": "https://api.github.com/users/surma/events{/privacy}",
    "received_events_url": "https://api.github.com/users/surma/received_events",
    "type": "User",
    "site_admin": false
  },
  "created_at": "2015-09-07T16:23:31Z",
  "updated_at": "2015-09-07T16:23:31Z",
  "body": "Yup, agreed. Totally missed that in the review. [This section](https://github.com/google/material-design-lite/blob/master/src/data-table/data-table.js#L113-L117) needs a little cleanup. Nothing major, though."
}
, {
  "url": "https://api.github.com/repos/google/material-design-lite/issues/comments/138338630",
  "html_url": "https://github.com/google/material-design-lite/issues/1560#issuecomment-138338630",
  "issue_url": "https://api.github.com/repos/google/material-design-lite/issues/1560",
  "id": 138338630,
  "user": {
    "login": "MikeMitterer",
    "id": 116654,
    "avatar_url": "https://avatars.githubusercontent.com/u/116654?v=3",
    "gravatar_id": "",
    "url": "https://api.github.com/users/MikeMitterer",
    "html_url": "https://github.com/MikeMitterer",
    "followers_url": "https://api.github.com/users/MikeMitterer/followers",
    "following_url": "https://api.github.com/users/MikeMitterer/following{/other_user}",
    "gists_url": "https://api.github.com/users/MikeMitterer/gists{/gist_id}",
    "starred_url": "https://api.github.com/users/MikeMitterer/starred{/owner}{/repo}",
    "subscriptions_url": "https://api.github.com/users/MikeMitterer/subscriptions",
    "organizations_url": "https://api.github.com/users/MikeMitterer/orgs",
    "repos_url": "https://api.github.com/users/MikeMitterer/repos",
    "events_url": "https://api.github.com/users/MikeMitterer/events{/privacy}",
    "received_events_url": "https://api.github.com/users/MikeMitterer/received_events",
    "type": "User",
    "site_admin": false
  },
  "created_at": "2015-09-07T16:42:24Z",
  "updated_at": "2015-09-07T16:42:24Z",
  "body": "+ there are some other css-classes like mdl-checkbox__input aso. \r\n> Nothing major, though.\r\nNo, I just stumbled across these classes while porting some things over to Dart...\r\n\r\nIf you are checking data-table maybe you can check something else:\r\nIf I check all checkboxes by selecting the header-checkbox and if I deselect one of the child checkboxes shouldn't the header-checkbox also deselect?\r\n![checkboxes](https://cloud.githubusercontent.com/assets/116654/9720622/0dc663a6-5590-11e5-83b0-0c92eb6c2fc6.gif)\r\n "
}
, {
  "url": "https://api.github.com/repos/google/material-design-lite/issues/comments/138339141",
  "html_url": "https://github.com/google/material-design-lite/issues/1560#issuecomment-138339141",
  "issue_url": "https://api.github.com/repos/google/material-design-lite/issues/1560",
  "id": 138339141,
  "user": {
    "login": "surma",
    "id": 234957,
    "avatar_url": "https://avatars.githubusercontent.com/u/234957?v=3",
    "gravatar_id": "",
    "url": "https://api.github.com/users/surma",
    "html_url": "https://github.com/surma",
    "followers_url": "https://api.github.com/users/surma/followers",
    "following_url": "https://api.github.com/users/surma/following{/other_user}",
    "gists_url": "https://api.github.com/users/surma/gists{/gist_id}",
    "starred_url": "https://api.github.com/users/surma/starred{/owner}{/repo}",
    "subscriptions_url": "https://api.github.com/users/surma/subscriptions",
    "organizations_url": "https://api.github.com/users/surma/orgs",
    "repos_url": "https://api.github.com/users/surma/repos",
    "events_url": "https://api.github.com/users/surma/events{/privacy}",
    "received_events_url": "https://api.github.com/users/surma/received_events",
    "type": "User",
    "site_admin": false
  },
  "created_at": "2015-09-07T16:44:21Z",
  "updated_at": "2015-09-07T16:44:21Z",
  "body": "@MikeMitterer You mind turning that into a separate issue? It’s probably a bug as well"
}
, {
  "url": "https://api.github.com/repos/google/material-design-lite/issues/comments/138340825",
  "html_url": "https://github.com/google/material-design-lite/issues/1560#issuecomment-138340825",
  "issue_url": "https://api.github.com/repos/google/material-design-lite/issues/1560",
  "id": 138340825,
  "user": {
    "login": "MikeMitterer",
    "id": 116654,
    "avatar_url": "https://avatars.githubusercontent.com/u/116654?v=3",
    "gravatar_id": "",
    "url": "https://api.github.com/users/MikeMitterer",
    "html_url": "https://github.com/MikeMitterer",
    "followers_url": "https://api.github.com/users/MikeMitterer/followers",
    "following_url": "https://api.github.com/users/MikeMitterer/following{/other_user}",
    "gists_url": "https://api.github.com/users/MikeMitterer/gists{/gist_id}",
    "starred_url": "https://api.github.com/users/MikeMitterer/starred{/owner}{/repo}",
    "subscriptions_url": "https://api.github.com/users/MikeMitterer/subscriptions",
    "organizations_url": "https://api.github.com/users/MikeMitterer/orgs",
    "repos_url": "https://api.github.com/users/MikeMitterer/repos",
    "events_url": "https://api.github.com/users/MikeMitterer/events{/privacy}",
    "received_events_url": "https://api.github.com/users/MikeMitterer/received_events",
    "type": "User",
    "site_admin": false
  },
  "created_at": "2015-09-07T17:02:00Z",
  "updated_at": "2015-09-07T17:02:00Z",
  "body": "OK - I file another issue. (If I'm back from biking... ;-))"
}
, {
  "url": "https://api.github.com/repos/google/material-design-lite/issues/comments/149038070",
  "html_url": "https://github.com/google/material-design-lite/issues/1560#issuecomment-149038070",
  "issue_url": "https://api.github.com/repos/google/material-design-lite/issues/1560",
  "id": 149038070,
  "user": {
    "login": "Garbee",
    "id": 868301,
    "avatar_url": "https://avatars.githubusercontent.com/u/868301?v=3",
    "gravatar_id": "",
    "url": "https://api.github.com/users/Garbee",
    "html_url": "https://github.com/Garbee",
    "followers_url": "https://api.github.com/users/Garbee/followers",
    "following_url": "https://api.github.com/users/Garbee/following{/other_user}",
    "gists_url": "https://api.github.com/users/Garbee/gists{/gist_id}",
    "starred_url": "https://api.github.com/users/Garbee/starred{/owner}{/repo}",
    "subscriptions_url": "https://api.github.com/users/Garbee/subscriptions",
    "organizations_url": "https://api.github.com/users/Garbee/orgs",
    "repos_url": "https://api.github.com/users/Garbee/repos",
    "events_url": "https://api.github.com/users/Garbee/events{/privacy}",
    "received_events_url": "https://api.github.com/users/Garbee/received_events",
    "type": "User",
    "site_admin": false
  },
  "created_at": "2015-10-18T18:50:01Z",
  "updated_at": "2015-10-18T18:50:01Z",
  "body": "I'll handle this for 1.0.6. I don't see any reason to hold of fixing this to the minor version."
}
]
