[
{
  "url": "https://api.github.com/repos/google/material-design-lite/issues/comments/100568669",
  "html_url": "https://github.com/google/material-design-lite/pull/289#issuecomment-100568669",
  "issue_url": "https://api.github.com/repos/google/material-design-lite/issues/289",
  "id": 100568669,
  "user": {
    "login": "addyosmani",
    "id": 110953,
    "avatar_url": "https://avatars.githubusercontent.com/u/110953?v=3",
    "gravatar_id": "",
    "url": "https://api.github.com/users/addyosmani",
    "html_url": "https://github.com/addyosmani",
    "followers_url": "https://api.github.com/users/addyosmani/followers",
    "following_url": "https://api.github.com/users/addyosmani/following{/other_user}",
    "gists_url": "https://api.github.com/users/addyosmani/gists{/gist_id}",
    "starred_url": "https://api.github.com/users/addyosmani/starred{/owner}{/repo}",
    "subscriptions_url": "https://api.github.com/users/addyosmani/subscriptions",
    "organizations_url": "https://api.github.com/users/addyosmani/orgs",
    "repos_url": "https://api.github.com/users/addyosmani/repos",
    "events_url": "https://api.github.com/users/addyosmani/events{/privacy}",
    "received_events_url": "https://api.github.com/users/addyosmani/received_events",
    "type": "User",
    "site_admin": false
  },
  "created_at": "2015-05-10T01:15:10Z",
  "updated_at": "2015-05-10T01:15:10Z",
  "body": ":+1: "
}
]
