[
{
  "url": "https://api.github.com/repos/google/material-design-lite/issues/comments/136057671",
  "html_url": "https://github.com/google/material-design-lite/pull/1503#issuecomment-136057671",
  "issue_url": "https://api.github.com/repos/google/material-design-lite/issues/1503",
  "id": 136057671,
  "user": {
    "login": "googlebot",
    "id": 5384588,
    "avatar_url": "https://avatars.githubusercontent.com/u/5384588?v=3",
    "gravatar_id": "",
    "url": "https://api.github.com/users/googlebot",
    "html_url": "https://github.com/googlebot",
    "followers_url": "https://api.github.com/users/googlebot/followers",
    "following_url": "https://api.github.com/users/googlebot/following{/other_user}",
    "gists_url": "https://api.github.com/users/googlebot/gists{/gist_id}",
    "starred_url": "https://api.github.com/users/googlebot/starred{/owner}{/repo}",
    "subscriptions_url": "https://api.github.com/users/googlebot/subscriptions",
    "organizations_url": "https://api.github.com/users/googlebot/orgs",
    "repos_url": "https://api.github.com/users/googlebot/repos",
    "events_url": "https://api.github.com/users/googlebot/events{/privacy}",
    "received_events_url": "https://api.github.com/users/googlebot/received_events",
    "type": "User",
    "site_admin": false
  },
  "created_at": "2015-08-29T22:27:26Z",
  "updated_at": "2015-08-29T22:27:26Z",
  "body": "Thanks for your pull request.  It looks like this may be your first contribution to a Google open source project, in which case you'll need to sign a Contributor License Agreement (CLA).\n\n:memo: **Please visit <https://cla.developers.google.com/> to sign.**\n\nOnce you've signed, please reply here (e.g. `I signed it!`) and we'll verify.  Thanks.\n\n---\n\n- If you've already signed a CLA, it's possible we don't have your GitHub username or you're using a different email address.  Check [your existing CLA data](https://cla.developers.google.com/clas) and verify that your [email is set on your git commits](https://help.github.com/articles/setting-your-email-in-git/).\n- If you signed the CLA as a corporation, please let us know the company's name.\n\n<!-- need_sender_cla -->"
}
, {
  "url": "https://api.github.com/repos/google/material-design-lite/issues/comments/136057742",
  "html_url": "https://github.com/google/material-design-lite/pull/1503#issuecomment-136057742",
  "issue_url": "https://api.github.com/repos/google/material-design-lite/issues/1503",
  "id": 136057742,
  "user": {
    "login": "rzr999",
    "id": 6120806,
    "avatar_url": "https://avatars.githubusercontent.com/u/6120806?v=3",
    "gravatar_id": "",
    "url": "https://api.github.com/users/rzr999",
    "html_url": "https://github.com/rzr999",
    "followers_url": "https://api.github.com/users/rzr999/followers",
    "following_url": "https://api.github.com/users/rzr999/following{/other_user}",
    "gists_url": "https://api.github.com/users/rzr999/gists{/gist_id}",
    "starred_url": "https://api.github.com/users/rzr999/starred{/owner}{/repo}",
    "subscriptions_url": "https://api.github.com/users/rzr999/subscriptions",
    "organizations_url": "https://api.github.com/users/rzr999/orgs",
    "repos_url": "https://api.github.com/users/rzr999/repos",
    "events_url": "https://api.github.com/users/rzr999/events{/privacy}",
    "received_events_url": "https://api.github.com/users/rzr999/received_events",
    "type": "User",
    "site_admin": false
  },
  "created_at": "2015-08-29T22:29:02Z",
  "updated_at": "2015-08-29T22:29:02Z",
  "body": "I signed it!"
}
, {
  "url": "https://api.github.com/repos/google/material-design-lite/issues/comments/136057743",
  "html_url": "https://github.com/google/material-design-lite/pull/1503#issuecomment-136057743",
  "issue_url": "https://api.github.com/repos/google/material-design-lite/issues/1503",
  "id": 136057743,
  "user": {
    "login": "googlebot",
    "id": 5384588,
    "avatar_url": "https://avatars.githubusercontent.com/u/5384588?v=3",
    "gravatar_id": "",
    "url": "https://api.github.com/users/googlebot",
    "html_url": "https://github.com/googlebot",
    "followers_url": "https://api.github.com/users/googlebot/followers",
    "following_url": "https://api.github.com/users/googlebot/following{/other_user}",
    "gists_url": "https://api.github.com/users/googlebot/gists{/gist_id}",
    "starred_url": "https://api.github.com/users/googlebot/starred{/owner}{/repo}",
    "subscriptions_url": "https://api.github.com/users/googlebot/subscriptions",
    "organizations_url": "https://api.github.com/users/googlebot/orgs",
    "repos_url": "https://api.github.com/users/googlebot/repos",
    "events_url": "https://api.github.com/users/googlebot/events{/privacy}",
    "received_events_url": "https://api.github.com/users/googlebot/received_events",
    "type": "User",
    "site_admin": false
  },
  "created_at": "2015-08-29T22:29:03Z",
  "updated_at": "2015-08-29T22:29:03Z",
  "body": "CLAs look good, thanks!\n\n<!-- ok -->"
}
, {
  "url": "https://api.github.com/repos/google/material-design-lite/issues/comments/136065026",
  "html_url": "https://github.com/google/material-design-lite/pull/1503#issuecomment-136065026",
  "issue_url": "https://api.github.com/repos/google/material-design-lite/issues/1503",
  "id": 136065026,
  "user": {
    "login": "surma",
    "id": 234957,
    "avatar_url": "https://avatars.githubusercontent.com/u/234957?v=3",
    "gravatar_id": "",
    "url": "https://api.github.com/users/surma",
    "html_url": "https://github.com/surma",
    "followers_url": "https://api.github.com/users/surma/followers",
    "following_url": "https://api.github.com/users/surma/following{/other_user}",
    "gists_url": "https://api.github.com/users/surma/gists{/gist_id}",
    "starred_url": "https://api.github.com/users/surma/starred{/owner}{/repo}",
    "subscriptions_url": "https://api.github.com/users/surma/subscriptions",
    "organizations_url": "https://api.github.com/users/surma/orgs",
    "repos_url": "https://api.github.com/users/surma/repos",
    "events_url": "https://api.github.com/users/surma/events{/privacy}",
    "received_events_url": "https://api.github.com/users/surma/received_events",
    "type": "User",
    "site_admin": false
  },
  "created_at": "2015-08-30T00:14:04Z",
  "updated_at": "2015-08-30T00:14:04Z",
  "body": "@rzr999 Thanks for the PR! I have one remark, after that this LGTM. I’m going to need another ACK to make sure I am not missing any implications of this :)\r\n\r\n@Garbee @sgomes PTAL"
}
, {
  "url": "https://api.github.com/repos/google/material-design-lite/issues/comments/136092613",
  "html_url": "https://github.com/google/material-design-lite/pull/1503#issuecomment-136092613",
  "issue_url": "https://api.github.com/repos/google/material-design-lite/issues/1503",
  "id": 136092613,
  "user": {
    "login": "rzr999",
    "id": 6120806,
    "avatar_url": "https://avatars.githubusercontent.com/u/6120806?v=3",
    "gravatar_id": "",
    "url": "https://api.github.com/users/rzr999",
    "html_url": "https://github.com/rzr999",
    "followers_url": "https://api.github.com/users/rzr999/followers",
    "following_url": "https://api.github.com/users/rzr999/following{/other_user}",
    "gists_url": "https://api.github.com/users/rzr999/gists{/gist_id}",
    "starred_url": "https://api.github.com/users/rzr999/starred{/owner}{/repo}",
    "subscriptions_url": "https://api.github.com/users/rzr999/subscriptions",
    "organizations_url": "https://api.github.com/users/rzr999/orgs",
    "repos_url": "https://api.github.com/users/rzr999/repos",
    "events_url": "https://api.github.com/users/rzr999/events{/privacy}",
    "received_events_url": "https://api.github.com/users/rzr999/received_events",
    "type": "User",
    "site_admin": false
  },
  "created_at": "2015-08-30T06:47:57Z",
  "updated_at": "2015-08-30T06:47:57Z",
  "body": "Yes, thank you for correcting it. By all means, yes, please check any implications. Maybe there is even a nicer way to do this.\r\n\r\nThe idea is, that visually the error class should not appear when you first open the form but once you interact with it. After the first interaction - even if the field is empty and required the error class should not go away."
}
, {
  "url": "https://api.github.com/repos/google/material-design-lite/issues/comments/136129341",
  "html_url": "https://github.com/google/material-design-lite/pull/1503#issuecomment-136129341",
  "issue_url": "https://api.github.com/repos/google/material-design-lite/issues/1503",
  "id": 136129341,
  "user": {
    "login": "rzr999",
    "id": 6120806,
    "avatar_url": "https://avatars.githubusercontent.com/u/6120806?v=3",
    "gravatar_id": "",
    "url": "https://api.github.com/users/rzr999",
    "html_url": "https://github.com/rzr999",
    "followers_url": "https://api.github.com/users/rzr999/followers",
    "following_url": "https://api.github.com/users/rzr999/following{/other_user}",
    "gists_url": "https://api.github.com/users/rzr999/gists{/gist_id}",
    "starred_url": "https://api.github.com/users/rzr999/starred{/owner}{/repo}",
    "subscriptions_url": "https://api.github.com/users/rzr999/subscriptions",
    "organizations_url": "https://api.github.com/users/rzr999/orgs",
    "repos_url": "https://api.github.com/users/rzr999/repos",
    "events_url": "https://api.github.com/users/rzr999/events{/privacy}",
    "received_events_url": "https://api.github.com/users/rzr999/received_events",
    "type": "User",
    "site_admin": false
  },
  "created_at": "2015-08-30T11:16:50Z",
  "updated_at": "2015-08-30T12:18:41Z",
  "body": "Ok I found this is not exactly right. In case you \r\n* don't have a pattern and \r\n* have required enabled \r\n\r\nthe field doesn't turn red after the first interaction."
}
, {
  "url": "https://api.github.com/repos/google/material-design-lite/issues/comments/136131398",
  "html_url": "https://github.com/google/material-design-lite/pull/1503#issuecomment-136131398",
  "issue_url": "https://api.github.com/repos/google/material-design-lite/issues/1503",
  "id": 136131398,
  "user": {
    "login": "Garbee",
    "id": 868301,
    "avatar_url": "https://avatars.githubusercontent.com/u/868301?v=3",
    "gravatar_id": "",
    "url": "https://api.github.com/users/Garbee",
    "html_url": "https://github.com/Garbee",
    "followers_url": "https://api.github.com/users/Garbee/followers",
    "following_url": "https://api.github.com/users/Garbee/following{/other_user}",
    "gists_url": "https://api.github.com/users/Garbee/gists{/gist_id}",
    "starred_url": "https://api.github.com/users/Garbee/starred{/owner}{/repo}",
    "subscriptions_url": "https://api.github.com/users/Garbee/subscriptions",
    "organizations_url": "https://api.github.com/users/Garbee/orgs",
    "repos_url": "https://api.github.com/users/Garbee/repos",
    "events_url": "https://api.github.com/users/Garbee/events{/privacy}",
    "received_events_url": "https://api.github.com/users/Garbee/received_events",
    "type": "User",
    "site_admin": false
  },
  "created_at": "2015-08-30T12:11:15Z",
  "updated_at": "2015-08-30T12:11:15Z",
  "body": ":-1: to the implementation. This should not be handled in `checkValidity()` since it may also be a BC break on top of just being the wrong place. Any modification here should be done in the `init()` method. Further, it should be done across all form components so everything is brought up to speed at the same time."
}
, {
  "url": "https://api.github.com/repos/google/material-design-lite/issues/comments/136131858",
  "html_url": "https://github.com/google/material-design-lite/pull/1503#issuecomment-136131858",
  "issue_url": "https://api.github.com/repos/google/material-design-lite/issues/1503",
  "id": 136131858,
  "user": {
    "login": "rzr999",
    "id": 6120806,
    "avatar_url": "https://avatars.githubusercontent.com/u/6120806?v=3",
    "gravatar_id": "",
    "url": "https://api.github.com/users/rzr999",
    "html_url": "https://github.com/rzr999",
    "followers_url": "https://api.github.com/users/rzr999/followers",
    "following_url": "https://api.github.com/users/rzr999/following{/other_user}",
    "gists_url": "https://api.github.com/users/rzr999/gists{/gist_id}",
    "starred_url": "https://api.github.com/users/rzr999/starred{/owner}{/repo}",
    "subscriptions_url": "https://api.github.com/users/rzr999/subscriptions",
    "organizations_url": "https://api.github.com/users/rzr999/orgs",
    "repos_url": "https://api.github.com/users/rzr999/repos",
    "events_url": "https://api.github.com/users/rzr999/events{/privacy}",
    "received_events_url": "https://api.github.com/users/rzr999/received_events",
    "type": "User",
    "site_admin": false
  },
  "created_at": "2015-08-30T12:17:31Z",
  "updated_at": "2015-08-30T12:17:31Z",
  "body": "@Garbee Thanks for the input, let me dig into that."
}
, {
  "url": "https://api.github.com/repos/google/material-design-lite/issues/comments/136138138",
  "html_url": "https://github.com/google/material-design-lite/pull/1503#issuecomment-136138138",
  "issue_url": "https://api.github.com/repos/google/material-design-lite/issues/1503",
  "id": 136138138,
  "user": {
    "login": "rzr999",
    "id": 6120806,
    "avatar_url": "https://avatars.githubusercontent.com/u/6120806?v=3",
    "gravatar_id": "",
    "url": "https://api.github.com/users/rzr999",
    "html_url": "https://github.com/rzr999",
    "followers_url": "https://api.github.com/users/rzr999/followers",
    "following_url": "https://api.github.com/users/rzr999/following{/other_user}",
    "gists_url": "https://api.github.com/users/rzr999/gists{/gist_id}",
    "starred_url": "https://api.github.com/users/rzr999/starred{/owner}{/repo}",
    "subscriptions_url": "https://api.github.com/users/rzr999/subscriptions",
    "organizations_url": "https://api.github.com/users/rzr999/orgs",
    "repos_url": "https://api.github.com/users/rzr999/repos",
    "events_url": "https://api.github.com/users/rzr999/events{/privacy}",
    "received_events_url": "https://api.github.com/users/rzr999/received_events",
    "type": "User",
    "site_admin": false
  },
  "created_at": "2015-08-30T13:23:31Z",
  "updated_at": "2015-08-30T13:23:31Z",
  "body": "@Garbee ok, this seems to do the trick.\r\nWhich other elements are affected in this way? I don't seem to find any others with this particular issue."
}
, {
  "url": "https://api.github.com/repos/google/material-design-lite/issues/comments/136368514",
  "html_url": "https://github.com/google/material-design-lite/pull/1503#issuecomment-136368514",
  "issue_url": "https://api.github.com/repos/google/material-design-lite/issues/1503",
  "id": 136368514,
  "user": {
    "login": "Garbee",
    "id": 868301,
    "avatar_url": "https://avatars.githubusercontent.com/u/868301?v=3",
    "gravatar_id": "",
    "url": "https://api.github.com/users/Garbee",
    "html_url": "https://github.com/Garbee",
    "followers_url": "https://api.github.com/users/Garbee/followers",
    "following_url": "https://api.github.com/users/Garbee/following{/other_user}",
    "gists_url": "https://api.github.com/users/Garbee/gists{/gist_id}",
    "starred_url": "https://api.github.com/users/Garbee/starred{/owner}{/repo}",
    "subscriptions_url": "https://api.github.com/users/Garbee/subscriptions",
    "organizations_url": "https://api.github.com/users/Garbee/orgs",
    "repos_url": "https://api.github.com/users/Garbee/repos",
    "events_url": "https://api.github.com/users/Garbee/events{/privacy}",
    "received_events_url": "https://api.github.com/users/Garbee/received_events",
    "type": "User",
    "site_admin": false
  },
  "created_at": "2015-08-31T13:18:03Z",
  "updated_at": "2015-08-31T13:18:03Z",
  "body": "The latest update to outright remove the class is also incorrect. This is directly going to ignore issue #1463. Ideally, we **should** ignore the requirement of the current spec to only show errors after interaction. Instead we should urge the spec team to rewrite it so forms are validated as early as possible which would mean our current implementation is proper as it follows what the native web provides.\r\n\r\nCheckboxes and radios also need this kind of check, since they can have a required state and be invalid on load."
}
, {
  "url": "https://api.github.com/repos/google/material-design-lite/issues/comments/136369669",
  "html_url": "https://github.com/google/material-design-lite/pull/1503#issuecomment-136369669",
  "issue_url": "https://api.github.com/repos/google/material-design-lite/issues/1503",
  "id": 136369669,
  "user": {
    "login": "rzr999",
    "id": 6120806,
    "avatar_url": "https://avatars.githubusercontent.com/u/6120806?v=3",
    "gravatar_id": "",
    "url": "https://api.github.com/users/rzr999",
    "html_url": "https://github.com/rzr999",
    "followers_url": "https://api.github.com/users/rzr999/followers",
    "following_url": "https://api.github.com/users/rzr999/following{/other_user}",
    "gists_url": "https://api.github.com/users/rzr999/gists{/gist_id}",
    "starred_url": "https://api.github.com/users/rzr999/starred{/owner}{/repo}",
    "subscriptions_url": "https://api.github.com/users/rzr999/subscriptions",
    "organizations_url": "https://api.github.com/users/rzr999/orgs",
    "repos_url": "https://api.github.com/users/rzr999/repos",
    "events_url": "https://api.github.com/users/rzr999/events{/privacy}",
    "received_events_url": "https://api.github.com/users/rzr999/received_events",
    "type": "User",
    "site_admin": false
  },
  "created_at": "2015-08-31T13:23:53Z",
  "updated_at": "2015-08-31T13:23:53Z",
  "body": "You are right, this is currently a collision.\r\n\r\nIf this is to be implemented then the optimal way to do this would be to store a state for each button to check whether it's already been interacted with.\r\nShould I cancel the pull request?"
}
, {
  "url": "https://api.github.com/repos/google/material-design-lite/issues/comments/136371412",
  "html_url": "https://github.com/google/material-design-lite/pull/1503#issuecomment-136371412",
  "issue_url": "https://api.github.com/repos/google/material-design-lite/issues/1503",
  "id": 136371412,
  "user": {
    "login": "Garbee",
    "id": 868301,
    "avatar_url": "https://avatars.githubusercontent.com/u/868301?v=3",
    "gravatar_id": "",
    "url": "https://api.github.com/users/Garbee",
    "html_url": "https://github.com/Garbee",
    "followers_url": "https://api.github.com/users/Garbee/followers",
    "following_url": "https://api.github.com/users/Garbee/following{/other_user}",
    "gists_url": "https://api.github.com/users/Garbee/gists{/gist_id}",
    "starred_url": "https://api.github.com/users/Garbee/starred{/owner}{/repo}",
    "subscriptions_url": "https://api.github.com/users/Garbee/subscriptions",
    "organizations_url": "https://api.github.com/users/Garbee/orgs",
    "repos_url": "https://api.github.com/users/Garbee/repos",
    "events_url": "https://api.github.com/users/Garbee/events{/privacy}",
    "received_events_url": "https://api.github.com/users/Garbee/received_events",
    "type": "User",
    "site_admin": false
  },
  "created_at": "2015-08-31T13:29:25Z",
  "updated_at": "2015-08-31T13:29:25Z",
  "body": "Yup, let's close this out since it isn't going to solve the problem.\r\n\r\nI'd also prefer we touch base with the MD team on getting the spec changed before digging any deeper into this problem. If we can get the spec changed to provide the best UX with the least amount of custom code, then that is a bigger win then adding in more code to fit a case which can provide a worse experience to users."
}
]
