[
{
  "url": "https://api.github.com/repos/Shopify/liquid/issues/comments/47809695",
  "html_url": "https://github.com/Shopify/liquid/pull/376#issuecomment-47809695",
  "issue_url": "https://api.github.com/repos/Shopify/liquid/issues/376",
  "id": 47809695,
  "user": {
    "login": "byroot",
    "id": 44640,
    "avatar_url": "https://avatars.githubusercontent.com/u/44640?v=3",
    "gravatar_id": "",
    "url": "https://api.github.com/users/byroot",
    "html_url": "https://github.com/byroot",
    "followers_url": "https://api.github.com/users/byroot/followers",
    "following_url": "https://api.github.com/users/byroot/following{/other_user}",
    "gists_url": "https://api.github.com/users/byroot/gists{/gist_id}",
    "starred_url": "https://api.github.com/users/byroot/starred{/owner}{/repo}",
    "subscriptions_url": "https://api.github.com/users/byroot/subscriptions",
    "organizations_url": "https://api.github.com/users/byroot/orgs",
    "repos_url": "https://api.github.com/users/byroot/repos",
    "events_url": "https://api.github.com/users/byroot/events{/privacy}",
    "received_events_url": "https://api.github.com/users/byroot/received_events",
    "type": "User",
    "site_admin": false
  },
  "created_at": "2014-07-02T17:36:58Z",
  "updated_at": "2014-07-02T17:36:58Z",
  "body": ":heart: this is currently driving me insane. I have to reload my server after almost every requests.\r\n\r\nSome would argue that this change might impact performance though. Maybe it should be conditioned by a configuration variable.\r\n\r\n@dylanahsmith @fw42 thoughts?\r\n\r\n"
}
, {
  "url": "https://api.github.com/repos/Shopify/liquid/issues/comments/47810052",
  "html_url": "https://github.com/Shopify/liquid/pull/376#issuecomment-47810052",
  "issue_url": "https://api.github.com/repos/Shopify/liquid/issues/376",
  "id": 47810052,
  "user": {
    "login": "parkr",
    "id": 237985,
    "avatar_url": "https://avatars.githubusercontent.com/u/237985?v=3",
    "gravatar_id": "",
    "url": "https://api.github.com/users/parkr",
    "html_url": "https://github.com/parkr",
    "followers_url": "https://api.github.com/users/parkr/followers",
    "following_url": "https://api.github.com/users/parkr/following{/other_user}",
    "gists_url": "https://api.github.com/users/parkr/gists{/gist_id}",
    "starred_url": "https://api.github.com/users/parkr/starred{/owner}{/repo}",
    "subscriptions_url": "https://api.github.com/users/parkr/subscriptions",
    "organizations_url": "https://api.github.com/users/parkr/orgs",
    "repos_url": "https://api.github.com/users/parkr/repos",
    "events_url": "https://api.github.com/users/parkr/events{/privacy}",
    "received_events_url": "https://api.github.com/users/parkr/received_events",
    "type": "User",
    "site_admin": true
  },
  "created_at": "2014-07-02T17:40:03Z",
  "updated_at": "2014-07-02T17:40:03Z",
  "body": "> Some would argue that this change might impact performance though\r\n\r\nRun benchmarks!\r\n\r\n> Maybe it should be conditioned by a configuration variable.\r\n\r\nThat would certainly be the easiest route."
}
, {
  "url": "https://api.github.com/repos/Shopify/liquid/issues/comments/47810316",
  "html_url": "https://github.com/Shopify/liquid/pull/376#issuecomment-47810316",
  "issue_url": "https://api.github.com/repos/Shopify/liquid/issues/376",
  "id": 47810316,
  "user": {
    "login": "fw42",
    "id": 2072686,
    "avatar_url": "https://avatars.githubusercontent.com/u/2072686?v=3",
    "gravatar_id": "",
    "url": "https://api.github.com/users/fw42",
    "html_url": "https://github.com/fw42",
    "followers_url": "https://api.github.com/users/fw42/followers",
    "following_url": "https://api.github.com/users/fw42/following{/other_user}",
    "gists_url": "https://api.github.com/users/fw42/gists{/gist_id}",
    "starred_url": "https://api.github.com/users/fw42/starred{/owner}{/repo}",
    "subscriptions_url": "https://api.github.com/users/fw42/subscriptions",
    "organizations_url": "https://api.github.com/users/fw42/orgs",
    "repos_url": "https://api.github.com/users/fw42/repos",
    "events_url": "https://api.github.com/users/fw42/events{/privacy}",
    "received_events_url": "https://api.github.com/users/fw42/received_events",
    "type": "User",
    "site_admin": false
  },
  "created_at": "2014-07-02T17:42:16Z",
  "updated_at": "2014-07-02T17:42:16Z",
  "body": "What do you mean by \"which causes any reloaded tag classes to break\"?"
}
, {
  "url": "https://api.github.com/repos/Shopify/liquid/issues/comments/47810726",
  "html_url": "https://github.com/Shopify/liquid/pull/376#issuecomment-47810726",
  "issue_url": "https://api.github.com/repos/Shopify/liquid/issues/376",
  "id": 47810726,
  "user": {
    "login": "byroot",
    "id": 44640,
    "avatar_url": "https://avatars.githubusercontent.com/u/44640?v=3",
    "gravatar_id": "",
    "url": "https://api.github.com/users/byroot",
    "html_url": "https://github.com/byroot",
    "followers_url": "https://api.github.com/users/byroot/followers",
    "following_url": "https://api.github.com/users/byroot/following{/other_user}",
    "gists_url": "https://api.github.com/users/byroot/gists{/gist_id}",
    "starred_url": "https://api.github.com/users/byroot/starred{/owner}{/repo}",
    "subscriptions_url": "https://api.github.com/users/byroot/subscriptions",
    "organizations_url": "https://api.github.com/users/byroot/orgs",
    "repos_url": "https://api.github.com/users/byroot/repos",
    "events_url": "https://api.github.com/users/byroot/events{/privacy}",
    "received_events_url": "https://api.github.com/users/byroot/received_events",
    "type": "User",
    "site_admin": false
  },
  "created_at": "2014-07-02T17:45:38Z",
  "updated_at": "2014-07-02T17:45:38Z",
  "body": "We mean that:\r\n\r\n![capture decran 2014-07-02 a 13 45 00](https://cloud.githubusercontent.com/assets/44640/3459805/ab2e88a0-0210-11e4-9082-b1042a7c16b1.png)\r\n"
}
, {
  "url": "https://api.github.com/repos/Shopify/liquid/issues/comments/47810771",
  "html_url": "https://github.com/Shopify/liquid/pull/376#issuecomment-47810771",
  "issue_url": "https://api.github.com/repos/Shopify/liquid/issues/376",
  "id": 47810771,
  "user": {
    "login": "davidcornu",
    "id": 325821,
    "avatar_url": "https://avatars.githubusercontent.com/u/325821?v=3",
    "gravatar_id": "",
    "url": "https://api.github.com/users/davidcornu",
    "html_url": "https://github.com/davidcornu",
    "followers_url": "https://api.github.com/users/davidcornu/followers",
    "following_url": "https://api.github.com/users/davidcornu/following{/other_user}",
    "gists_url": "https://api.github.com/users/davidcornu/gists{/gist_id}",
    "starred_url": "https://api.github.com/users/davidcornu/starred{/owner}{/repo}",
    "subscriptions_url": "https://api.github.com/users/davidcornu/subscriptions",
    "organizations_url": "https://api.github.com/users/davidcornu/orgs",
    "repos_url": "https://api.github.com/users/davidcornu/repos",
    "events_url": "https://api.github.com/users/davidcornu/events{/privacy}",
    "received_events_url": "https://api.github.com/users/davidcornu/received_events",
    "type": "User",
    "site_admin": false
  },
  "created_at": "2014-07-02T17:45:54Z",
  "updated_at": "2014-07-02T17:46:20Z",
  "body": "@fw42 \r\n\r\n```ruby\r\nclass User; end\r\nklass = User\r\nObject.send(:remove_const, :User)\r\nclass User; end\r\nklass.new # => Old class\r\nUser.new # => New class\r\n```"
}
, {
  "url": "https://api.github.com/repos/Shopify/liquid/issues/comments/47810987",
  "html_url": "https://github.com/Shopify/liquid/pull/376#issuecomment-47810987",
  "issue_url": "https://api.github.com/repos/Shopify/liquid/issues/376",
  "id": 47810987,
  "user": {
    "login": "byroot",
    "id": 44640,
    "avatar_url": "https://avatars.githubusercontent.com/u/44640?v=3",
    "gravatar_id": "",
    "url": "https://api.github.com/users/byroot",
    "html_url": "https://github.com/byroot",
    "followers_url": "https://api.github.com/users/byroot/followers",
    "following_url": "https://api.github.com/users/byroot/following{/other_user}",
    "gists_url": "https://api.github.com/users/byroot/gists{/gist_id}",
    "starred_url": "https://api.github.com/users/byroot/starred{/owner}{/repo}",
    "subscriptions_url": "https://api.github.com/users/byroot/subscriptions",
    "organizations_url": "https://api.github.com/users/byroot/orgs",
    "repos_url": "https://api.github.com/users/byroot/repos",
    "events_url": "https://api.github.com/users/byroot/events{/privacy}",
    "received_events_url": "https://api.github.com/users/byroot/received_events",
    "type": "User",
    "site_admin": false
  },
  "created_at": "2014-07-02T17:47:40Z",
  "updated_at": "2014-07-02T17:47:40Z",
  "body": "As discussed offline, `Liquid.cache_classes = true` to mirror ActiveSupport would be good IMO."
}
, {
  "url": "https://api.github.com/repos/Shopify/liquid/issues/comments/47810995",
  "html_url": "https://github.com/Shopify/liquid/pull/376#issuecomment-47810995",
  "issue_url": "https://api.github.com/repos/Shopify/liquid/issues/376",
  "id": 47810995,
  "user": {
    "login": "fw42",
    "id": 2072686,
    "avatar_url": "https://avatars.githubusercontent.com/u/2072686?v=3",
    "gravatar_id": "",
    "url": "https://api.github.com/users/fw42",
    "html_url": "https://github.com/fw42",
    "followers_url": "https://api.github.com/users/fw42/followers",
    "following_url": "https://api.github.com/users/fw42/following{/other_user}",
    "gists_url": "https://api.github.com/users/fw42/gists{/gist_id}",
    "starred_url": "https://api.github.com/users/fw42/starred{/owner}{/repo}",
    "subscriptions_url": "https://api.github.com/users/fw42/subscriptions",
    "organizations_url": "https://api.github.com/users/fw42/orgs",
    "repos_url": "https://api.github.com/users/fw42/repos",
    "events_url": "https://api.github.com/users/fw42/events{/privacy}",
    "received_events_url": "https://api.github.com/users/fw42/received_events",
    "type": "User",
    "site_admin": false
  },
  "created_at": "2014-07-02T17:47:43Z",
  "updated_at": "2014-07-02T17:47:43Z",
  "body": "I don't understand. When does this happen? How do I reproduce this?"
}
, {
  "url": "https://api.github.com/repos/Shopify/liquid/issues/comments/47811329",
  "html_url": "https://github.com/Shopify/liquid/pull/376#issuecomment-47811329",
  "issue_url": "https://api.github.com/repos/Shopify/liquid/issues/376",
  "id": 47811329,
  "user": {
    "login": "davidcornu",
    "id": 325821,
    "avatar_url": "https://avatars.githubusercontent.com/u/325821?v=3",
    "gravatar_id": "",
    "url": "https://api.github.com/users/davidcornu",
    "html_url": "https://github.com/davidcornu",
    "followers_url": "https://api.github.com/users/davidcornu/followers",
    "following_url": "https://api.github.com/users/davidcornu/following{/other_user}",
    "gists_url": "https://api.github.com/users/davidcornu/gists{/gist_id}",
    "starred_url": "https://api.github.com/users/davidcornu/starred{/owner}{/repo}",
    "subscriptions_url": "https://api.github.com/users/davidcornu/subscriptions",
    "organizations_url": "https://api.github.com/users/davidcornu/orgs",
    "repos_url": "https://api.github.com/users/davidcornu/repos",
    "events_url": "https://api.github.com/users/davidcornu/events{/privacy}",
    "received_events_url": "https://api.github.com/users/davidcornu/received_events",
    "type": "User",
    "site_admin": false
  },
  "created_at": "2014-07-02T17:50:29Z",
  "updated_at": "2014-07-02T17:50:29Z",
  "body": "@fw42 \r\n\r\nSay your custom tags are in the autoload paths (as is the case for Shopify), when Rails decides to reload them (if you touch the file or something vaguely related to it), Liquid keeps a reference to the old ones which causes rendering issues (see @byroot's screenshot)."
}
, {
  "url": "https://api.github.com/repos/Shopify/liquid/issues/comments/47811486",
  "html_url": "https://github.com/Shopify/liquid/pull/376#issuecomment-47811486",
  "issue_url": "https://api.github.com/repos/Shopify/liquid/issues/376",
  "id": 47811486,
  "user": {
    "login": "fw42",
    "id": 2072686,
    "avatar_url": "https://avatars.githubusercontent.com/u/2072686?v=3",
    "gravatar_id": "",
    "url": "https://api.github.com/users/fw42",
    "html_url": "https://github.com/fw42",
    "followers_url": "https://api.github.com/users/fw42/followers",
    "following_url": "https://api.github.com/users/fw42/following{/other_user}",
    "gists_url": "https://api.github.com/users/fw42/gists{/gist_id}",
    "starred_url": "https://api.github.com/users/fw42/starred{/owner}{/repo}",
    "subscriptions_url": "https://api.github.com/users/fw42/subscriptions",
    "organizations_url": "https://api.github.com/users/fw42/orgs",
    "repos_url": "https://api.github.com/users/fw42/repos",
    "events_url": "https://api.github.com/users/fw42/events{/privacy}",
    "received_events_url": "https://api.github.com/users/fw42/received_events",
    "type": "User",
    "site_admin": false
  },
  "created_at": "2014-07-02T17:51:46Z",
  "updated_at": "2014-07-02T17:51:46Z",
  "body": "Ah I see. Thanks for the explanation."
}
, {
  "url": "https://api.github.com/repos/Shopify/liquid/issues/comments/47812469",
  "html_url": "https://github.com/Shopify/liquid/pull/376#issuecomment-47812469",
  "issue_url": "https://api.github.com/repos/Shopify/liquid/issues/376",
  "id": 47812469,
  "user": {
    "login": "davidcornu",
    "id": 325821,
    "avatar_url": "https://avatars.githubusercontent.com/u/325821?v=3",
    "gravatar_id": "",
    "url": "https://api.github.com/users/davidcornu",
    "html_url": "https://github.com/davidcornu",
    "followers_url": "https://api.github.com/users/davidcornu/followers",
    "following_url": "https://api.github.com/users/davidcornu/following{/other_user}",
    "gists_url": "https://api.github.com/users/davidcornu/gists{/gist_id}",
    "starred_url": "https://api.github.com/users/davidcornu/starred{/owner}{/repo}",
    "subscriptions_url": "https://api.github.com/users/davidcornu/subscriptions",
    "organizations_url": "https://api.github.com/users/davidcornu/orgs",
    "repos_url": "https://api.github.com/users/davidcornu/repos",
    "events_url": "https://api.github.com/users/davidcornu/events{/privacy}",
    "received_events_url": "https://api.github.com/users/davidcornu/received_events",
    "type": "User",
    "site_admin": false
  },
  "created_at": "2014-07-02T17:59:16Z",
  "updated_at": "2014-07-02T17:59:16Z",
  "body": "Ran `ruby ./performance/benchmark.rb`.\r\n\r\nThis branch\r\n\r\n```\r\n                   user     system      total        real\r\nparse:         2.160000   0.000000   2.160000 (  2.162523)\r\nparse & run:   4.650000   0.000000   4.650000 (  4.644418)\r\n```\r\n\r\nMaster\r\n\r\n```\r\n                   user     system      total        real\r\nparse:         2.050000   0.000000   2.050000 (  2.055617)\r\nparse & run:   4.560000   0.010000   4.570000 (  4.565345)\r\n```"
}
, {
  "url": "https://api.github.com/repos/Shopify/liquid/issues/comments/47828353",
  "html_url": "https://github.com/Shopify/liquid/pull/376#issuecomment-47828353",
  "issue_url": "https://api.github.com/repos/Shopify/liquid/issues/376",
  "id": 47828353,
  "user": {
    "login": "davidcornu",
    "id": 325821,
    "avatar_url": "https://avatars.githubusercontent.com/u/325821?v=3",
    "gravatar_id": "",
    "url": "https://api.github.com/users/davidcornu",
    "html_url": "https://github.com/davidcornu",
    "followers_url": "https://api.github.com/users/davidcornu/followers",
    "following_url": "https://api.github.com/users/davidcornu/following{/other_user}",
    "gists_url": "https://api.github.com/users/davidcornu/gists{/gist_id}",
    "starred_url": "https://api.github.com/users/davidcornu/starred{/owner}{/repo}",
    "subscriptions_url": "https://api.github.com/users/davidcornu/subscriptions",
    "organizations_url": "https://api.github.com/users/davidcornu/orgs",
    "repos_url": "https://api.github.com/users/davidcornu/repos",
    "events_url": "https://api.github.com/users/davidcornu/events{/privacy}",
    "received_events_url": "https://api.github.com/users/davidcornu/received_events",
    "type": "User",
    "site_admin": false
  },
  "created_at": "2014-07-02T20:03:38Z",
  "updated_at": "2014-07-02T20:03:38Z",
  "body": "Squashed & rebased against latest master"
}
, {
  "url": "https://api.github.com/repos/Shopify/liquid/issues/comments/47828871",
  "html_url": "https://github.com/Shopify/liquid/pull/376#issuecomment-47828871",
  "issue_url": "https://api.github.com/repos/Shopify/liquid/issues/376",
  "id": 47828871,
  "user": {
    "login": "davidcornu",
    "id": 325821,
    "avatar_url": "https://avatars.githubusercontent.com/u/325821?v=3",
    "gravatar_id": "",
    "url": "https://api.github.com/users/davidcornu",
    "html_url": "https://github.com/davidcornu",
    "followers_url": "https://api.github.com/users/davidcornu/followers",
    "following_url": "https://api.github.com/users/davidcornu/following{/other_user}",
    "gists_url": "https://api.github.com/users/davidcornu/gists{/gist_id}",
    "starred_url": "https://api.github.com/users/davidcornu/starred{/owner}{/repo}",
    "subscriptions_url": "https://api.github.com/users/davidcornu/subscriptions",
    "organizations_url": "https://api.github.com/users/davidcornu/orgs",
    "repos_url": "https://api.github.com/users/davidcornu/repos",
    "events_url": "https://api.github.com/users/davidcornu/events{/privacy}",
    "received_events_url": "https://api.github.com/users/davidcornu/received_events",
    "type": "User",
    "site_admin": false
  },
  "created_at": "2014-07-02T20:08:20Z",
  "updated_at": "2014-07-02T20:08:20Z",
  "body": "@parkr you good with this?"
}
, {
  "url": "https://api.github.com/repos/Shopify/liquid/issues/comments/47949285",
  "html_url": "https://github.com/Shopify/liquid/pull/376#issuecomment-47949285",
  "issue_url": "https://api.github.com/repos/Shopify/liquid/issues/376",
  "id": 47949285,
  "user": {
    "login": "davidcornu",
    "id": 325821,
    "avatar_url": "https://avatars.githubusercontent.com/u/325821?v=3",
    "gravatar_id": "",
    "url": "https://api.github.com/users/davidcornu",
    "html_url": "https://github.com/davidcornu",
    "followers_url": "https://api.github.com/users/davidcornu/followers",
    "following_url": "https://api.github.com/users/davidcornu/following{/other_user}",
    "gists_url": "https://api.github.com/users/davidcornu/gists{/gist_id}",
    "starred_url": "https://api.github.com/users/davidcornu/starred{/owner}{/repo}",
    "subscriptions_url": "https://api.github.com/users/davidcornu/subscriptions",
    "organizations_url": "https://api.github.com/users/davidcornu/orgs",
    "repos_url": "https://api.github.com/users/davidcornu/repos",
    "events_url": "https://api.github.com/users/davidcornu/events{/privacy}",
    "received_events_url": "https://api.github.com/users/davidcornu/received_events",
    "type": "User",
    "site_admin": false
  },
  "created_at": "2014-07-03T16:01:48Z",
  "updated_at": "2014-07-03T16:01:48Z",
  "body": "Ran the Shopify test suite with this branch and got a green. Merging."
}
]
