[
{
  "url": "https://api.github.com/repos/intridea/hashie/issues/comments/53049361",
  "html_url": "https://github.com/intridea/hashie/issues/208#issuecomment-53049361",
  "issue_url": "https://api.github.com/repos/intridea/hashie/issues/208",
  "id": 53049361,
  "user": {
    "login": "dblock",
    "id": 542335,
    "avatar_url": "https://avatars.githubusercontent.com/u/542335?v=3",
    "gravatar_id": "",
    "url": "https://api.github.com/users/dblock",
    "html_url": "https://github.com/dblock",
    "followers_url": "https://api.github.com/users/dblock/followers",
    "following_url": "https://api.github.com/users/dblock/following{/other_user}",
    "gists_url": "https://api.github.com/users/dblock/gists{/gist_id}",
    "starred_url": "https://api.github.com/users/dblock/starred{/owner}{/repo}",
    "subscriptions_url": "https://api.github.com/users/dblock/subscriptions",
    "organizations_url": "https://api.github.com/users/dblock/orgs",
    "repos_url": "https://api.github.com/users/dblock/repos",
    "events_url": "https://api.github.com/users/dblock/events{/privacy}",
    "received_events_url": "https://api.github.com/users/dblock/received_events",
    "type": "User",
    "site_admin": false
  },
  "created_at": "2014-08-22T11:20:32Z",
  "updated_at": "2014-08-22T11:20:32Z",
  "body": "I think this could be useful, indeed."
}
, {
  "url": "https://api.github.com/repos/intridea/hashie/issues/comments/53422357",
  "html_url": "https://github.com/intridea/hashie/issues/208#issuecomment-53422357",
  "issue_url": "https://api.github.com/repos/intridea/hashie/issues/208",
  "id": 53422357,
  "user": {
    "login": "antulik",
    "id": 831942,
    "avatar_url": "https://avatars.githubusercontent.com/u/831942?v=3",
    "gravatar_id": "",
    "url": "https://api.github.com/users/antulik",
    "html_url": "https://github.com/antulik",
    "followers_url": "https://api.github.com/users/antulik/followers",
    "following_url": "https://api.github.com/users/antulik/following{/other_user}",
    "gists_url": "https://api.github.com/users/antulik/gists{/gist_id}",
    "starred_url": "https://api.github.com/users/antulik/starred{/owner}{/repo}",
    "subscriptions_url": "https://api.github.com/users/antulik/subscriptions",
    "organizations_url": "https://api.github.com/users/antulik/orgs",
    "repos_url": "https://api.github.com/users/antulik/repos",
    "events_url": "https://api.github.com/users/antulik/events{/privacy}",
    "received_events_url": "https://api.github.com/users/antulik/received_events",
    "type": "User",
    "site_admin": false
  },
  "created_at": "2014-08-26T13:48:31Z",
  "updated_at": "2014-08-26T13:48:58Z",
  "body": "This is a way to get nested hash\r\n\r\n```ruby\r\n> nested_hash = Hash.new { |hash, key| hash[key] = Hash.new(&hash.default_proc) }\r\n=> {}\r\n> nested_hash[:x][:y][:z] = :xyz\r\n=> :xyz\r\n> nested_hash \r\n=> {:x=>{:y=>{:z=>:xyz}}}\r\n```\r\n\r\nbut this does not work for Hashie\r\n\r\n```ruby\r\nh = Hashie::Mash.new { |mash, key| mash[key] = mash.class.new(&mash.default_proc) }\r\n=> {}\r\n> h[:x][:y][:z] = :xyz\r\n=> :xyz\r\n> h\r\n=> {\"x\"=>{}}\r\n```"
}
, {
  "url": "https://api.github.com/repos/intridea/hashie/issues/comments/53886433",
  "html_url": "https://github.com/intridea/hashie/issues/208#issuecomment-53886433",
  "issue_url": "https://api.github.com/repos/intridea/hashie/issues/208",
  "id": 53886433,
  "user": {
    "login": "michaelherold",
    "id": 424833,
    "avatar_url": "https://avatars.githubusercontent.com/u/424833?v=3",
    "gravatar_id": "",
    "url": "https://api.github.com/users/michaelherold",
    "html_url": "https://github.com/michaelherold",
    "followers_url": "https://api.github.com/users/michaelherold/followers",
    "following_url": "https://api.github.com/users/michaelherold/following{/other_user}",
    "gists_url": "https://api.github.com/users/michaelherold/gists{/gist_id}",
    "starred_url": "https://api.github.com/users/michaelherold/starred{/owner}{/repo}",
    "subscriptions_url": "https://api.github.com/users/michaelherold/subscriptions",
    "organizations_url": "https://api.github.com/users/michaelherold/orgs",
    "repos_url": "https://api.github.com/users/michaelherold/repos",
    "events_url": "https://api.github.com/users/michaelherold/events{/privacy}",
    "received_events_url": "https://api.github.com/users/michaelherold/received_events",
    "type": "User",
    "site_admin": false
  },
  "created_at": "2014-08-29T14:53:51Z",
  "updated_at": "2014-08-29T14:53:51Z",
  "body": "Seems like this might be a duplicate of #60. I agree that it's useful and I think implementing this would also handle the other case!"
}
]
