[
{
  "url": "https://api.github.com/repos/heroku/heroku/issues/comments/57239805",
  "html_url": "https://github.com/heroku/heroku/pull/1218#issuecomment-57239805",
  "issue_url": "https://api.github.com/repos/heroku/heroku/issues/1218",
  "id": 57239805,
  "user": {
    "login": "dickeyxxx",
    "id": 216188,
    "avatar_url": "https://avatars.githubusercontent.com/u/216188?v=3",
    "gravatar_id": "",
    "url": "https://api.github.com/users/dickeyxxx",
    "html_url": "https://github.com/dickeyxxx",
    "followers_url": "https://api.github.com/users/dickeyxxx/followers",
    "following_url": "https://api.github.com/users/dickeyxxx/following{/other_user}",
    "gists_url": "https://api.github.com/users/dickeyxxx/gists{/gist_id}",
    "starred_url": "https://api.github.com/users/dickeyxxx/starred{/owner}{/repo}",
    "subscriptions_url": "https://api.github.com/users/dickeyxxx/subscriptions",
    "organizations_url": "https://api.github.com/users/dickeyxxx/orgs",
    "repos_url": "https://api.github.com/users/dickeyxxx/repos",
    "events_url": "https://api.github.com/users/dickeyxxx/events{/privacy}",
    "received_events_url": "https://api.github.com/users/dickeyxxx/received_events",
    "type": "User",
    "site_admin": false
  },
  "created_at": "2014-09-29T22:22:09Z",
  "updated_at": "2014-09-29T22:22:09Z",
  "body": "lgtm! afaik the only thing that domain was for was future work, and a quick search on the project yielded no results for it"
}
, {
  "url": "https://api.github.com/repos/heroku/heroku/issues/comments/57245541",
  "html_url": "https://github.com/heroku/heroku/pull/1218#issuecomment-57245541",
  "issue_url": "https://api.github.com/repos/heroku/heroku/issues/1218",
  "id": 57245541,
  "user": {
    "login": "ryanbrainard",
    "id": 966764,
    "avatar_url": "https://avatars.githubusercontent.com/u/966764?v=3",
    "gravatar_id": "",
    "url": "https://api.github.com/users/ryanbrainard",
    "html_url": "https://github.com/ryanbrainard",
    "followers_url": "https://api.github.com/users/ryanbrainard/followers",
    "following_url": "https://api.github.com/users/ryanbrainard/following{/other_user}",
    "gists_url": "https://api.github.com/users/ryanbrainard/gists{/gist_id}",
    "starred_url": "https://api.github.com/users/ryanbrainard/starred{/owner}{/repo}",
    "subscriptions_url": "https://api.github.com/users/ryanbrainard/subscriptions",
    "organizations_url": "https://api.github.com/users/ryanbrainard/orgs",
    "repos_url": "https://api.github.com/users/ryanbrainard/repos",
    "events_url": "https://api.github.com/users/ryanbrainard/events{/privacy}",
    "received_events_url": "https://api.github.com/users/ryanbrainard/received_events",
    "type": "User",
    "site_admin": false
  },
  "created_at": "2014-09-29T23:22:58Z",
  "updated_at": "2014-09-29T23:22:58Z",
  "body": "@friism FYI"
}
, {
  "url": "https://api.github.com/repos/heroku/heroku/issues/comments/57245819",
  "html_url": "https://github.com/heroku/heroku/pull/1218#issuecomment-57245819",
  "issue_url": "https://api.github.com/repos/heroku/heroku/issues/1218",
  "id": 57245819,
  "user": {
    "login": "friism",
    "id": 126104,
    "avatar_url": "https://avatars.githubusercontent.com/u/126104?v=3",
    "gravatar_id": "",
    "url": "https://api.github.com/users/friism",
    "html_url": "https://github.com/friism",
    "followers_url": "https://api.github.com/users/friism/followers",
    "following_url": "https://api.github.com/users/friism/following{/other_user}",
    "gists_url": "https://api.github.com/users/friism/gists{/gist_id}",
    "starred_url": "https://api.github.com/users/friism/starred{/owner}{/repo}",
    "subscriptions_url": "https://api.github.com/users/friism/subscriptions",
    "organizations_url": "https://api.github.com/users/friism/orgs",
    "repos_url": "https://api.github.com/users/friism/repos",
    "events_url": "https://api.github.com/users/friism/events{/privacy}",
    "received_events_url": "https://api.github.com/users/friism/received_events",
    "type": "User",
    "site_admin": false
  },
  "created_at": "2014-09-29T23:25:52Z",
  "updated_at": "2014-09-29T23:25:52Z",
  "body": "Sweet, thanks @ryanbrainard \r\n\r\n@dickeyxxx I don't know if you're cutting a new release any time soon, but it'd be awesome to get this out."
}
, {
  "url": "https://api.github.com/repos/heroku/heroku/issues/comments/57254116",
  "html_url": "https://github.com/heroku/heroku/pull/1218#issuecomment-57254116",
  "issue_url": "https://api.github.com/repos/heroku/heroku/issues/1218",
  "id": 57254116,
  "user": {
    "login": "markpundsack",
    "id": 319891,
    "avatar_url": "https://avatars.githubusercontent.com/u/319891?v=3",
    "gravatar_id": "",
    "url": "https://api.github.com/users/markpundsack",
    "html_url": "https://github.com/markpundsack",
    "followers_url": "https://api.github.com/users/markpundsack/followers",
    "following_url": "https://api.github.com/users/markpundsack/following{/other_user}",
    "gists_url": "https://api.github.com/users/markpundsack/gists{/gist_id}",
    "starred_url": "https://api.github.com/users/markpundsack/starred{/owner}{/repo}",
    "subscriptions_url": "https://api.github.com/users/markpundsack/subscriptions",
    "organizations_url": "https://api.github.com/users/markpundsack/orgs",
    "repos_url": "https://api.github.com/users/markpundsack/repos",
    "events_url": "https://api.github.com/users/markpundsack/events{/privacy}",
    "received_events_url": "https://api.github.com/users/markpundsack/received_events",
    "type": "User",
    "site_admin": false
  },
  "created_at": "2014-09-30T01:10:18Z",
  "updated_at": "2014-09-30T01:10:18Z",
  "body": "@ryanbrainard Will this leave code.heroku.com in the .netrc? If so, it feels a little weird to not clean it up."
}
, {
  "url": "https://api.github.com/repos/heroku/heroku/issues/comments/57254721",
  "html_url": "https://github.com/heroku/heroku/pull/1218#issuecomment-57254721",
  "issue_url": "https://api.github.com/repos/heroku/heroku/issues/1218",
  "id": 57254721,
  "user": {
    "login": "dickeyxxx",
    "id": 216188,
    "avatar_url": "https://avatars.githubusercontent.com/u/216188?v=3",
    "gravatar_id": "",
    "url": "https://api.github.com/users/dickeyxxx",
    "html_url": "https://github.com/dickeyxxx",
    "followers_url": "https://api.github.com/users/dickeyxxx/followers",
    "following_url": "https://api.github.com/users/dickeyxxx/following{/other_user}",
    "gists_url": "https://api.github.com/users/dickeyxxx/gists{/gist_id}",
    "starred_url": "https://api.github.com/users/dickeyxxx/starred{/owner}{/repo}",
    "subscriptions_url": "https://api.github.com/users/dickeyxxx/subscriptions",
    "organizations_url": "https://api.github.com/users/dickeyxxx/orgs",
    "repos_url": "https://api.github.com/users/dickeyxxx/repos",
    "events_url": "https://api.github.com/users/dickeyxxx/events{/privacy}",
    "received_events_url": "https://api.github.com/users/dickeyxxx/received_events",
    "type": "User",
    "site_admin": false
  },
  "created_at": "2014-09-30T01:18:26Z",
  "updated_at": "2014-09-30T01:18:26Z",
  "body": "I'd rather not put code in to delete it, then we'll just have to deal with that cruft in the codebase"
}
, {
  "url": "https://api.github.com/repos/heroku/heroku/issues/comments/57254987",
  "html_url": "https://github.com/heroku/heroku/pull/1218#issuecomment-57254987",
  "issue_url": "https://api.github.com/repos/heroku/heroku/issues/1218",
  "id": 57254987,
  "user": {
    "login": "friism",
    "id": 126104,
    "avatar_url": "https://avatars.githubusercontent.com/u/126104?v=3",
    "gravatar_id": "",
    "url": "https://api.github.com/users/friism",
    "html_url": "https://github.com/friism",
    "followers_url": "https://api.github.com/users/friism/followers",
    "following_url": "https://api.github.com/users/friism/following{/other_user}",
    "gists_url": "https://api.github.com/users/friism/gists{/gist_id}",
    "starred_url": "https://api.github.com/users/friism/starred{/owner}{/repo}",
    "subscriptions_url": "https://api.github.com/users/friism/subscriptions",
    "organizations_url": "https://api.github.com/users/friism/orgs",
    "repos_url": "https://api.github.com/users/friism/repos",
    "events_url": "https://api.github.com/users/friism/events{/privacy}",
    "received_events_url": "https://api.github.com/users/friism/received_events",
    "type": "User",
    "site_admin": false
  },
  "created_at": "2014-09-30T01:22:11Z",
  "updated_at": "2014-09-30T01:22:11Z",
  "body": "+1, the old entry is not related to what we're trying to do here."
}
, {
  "url": "https://api.github.com/repos/heroku/heroku/issues/comments/57259430",
  "html_url": "https://github.com/heroku/heroku/pull/1218#issuecomment-57259430",
  "issue_url": "https://api.github.com/repos/heroku/heroku/issues/1218",
  "id": 57259430,
  "user": {
    "login": "markpundsack",
    "id": 319891,
    "avatar_url": "https://avatars.githubusercontent.com/u/319891?v=3",
    "gravatar_id": "",
    "url": "https://api.github.com/users/markpundsack",
    "html_url": "https://github.com/markpundsack",
    "followers_url": "https://api.github.com/users/markpundsack/followers",
    "following_url": "https://api.github.com/users/markpundsack/following{/other_user}",
    "gists_url": "https://api.github.com/users/markpundsack/gists{/gist_id}",
    "starred_url": "https://api.github.com/users/markpundsack/starred{/owner}{/repo}",
    "subscriptions_url": "https://api.github.com/users/markpundsack/subscriptions",
    "organizations_url": "https://api.github.com/users/markpundsack/orgs",
    "repos_url": "https://api.github.com/users/markpundsack/repos",
    "events_url": "https://api.github.com/users/markpundsack/events{/privacy}",
    "received_events_url": "https://api.github.com/users/markpundsack/received_events",
    "type": "User",
    "site_admin": false
  },
  "created_at": "2014-09-30T02:32:20Z",
  "updated_at": "2014-09-30T02:32:20Z",
  "body": "What is the old entry related to? And if it's unrelated, why does this PR remove it?\r\n\r\n> On Sep 29, 2014, at 6:22 PM, Michael Friis <notifications@github.com> wrote:\r\n> \r\n> +1, the old entry is not related to what we're trying to do here.\r\n> \r\n> —\r\n> Reply to this email directly or view it on GitHub."
}
, {
  "url": "https://api.github.com/repos/heroku/heroku/issues/comments/57259520",
  "html_url": "https://github.com/heroku/heroku/pull/1218#issuecomment-57259520",
  "issue_url": "https://api.github.com/repos/heroku/heroku/issues/1218",
  "id": 57259520,
  "user": {
    "login": "friism",
    "id": 126104,
    "avatar_url": "https://avatars.githubusercontent.com/u/126104?v=3",
    "gravatar_id": "",
    "url": "https://api.github.com/users/friism",
    "html_url": "https://github.com/friism",
    "followers_url": "https://api.github.com/users/friism/followers",
    "following_url": "https://api.github.com/users/friism/following{/other_user}",
    "gists_url": "https://api.github.com/users/friism/gists{/gist_id}",
    "starred_url": "https://api.github.com/users/friism/starred{/owner}{/repo}",
    "subscriptions_url": "https://api.github.com/users/friism/subscriptions",
    "organizations_url": "https://api.github.com/users/friism/orgs",
    "repos_url": "https://api.github.com/users/friism/repos",
    "events_url": "https://api.github.com/users/friism/events{/privacy}",
    "received_events_url": "https://api.github.com/users/friism/received_events",
    "type": "User",
    "site_admin": false
  },
  "created_at": "2014-09-30T02:34:08Z",
  "updated_at": "2014-09-30T02:34:08Z",
  "body": "I don't know what the old entry is related to, but I think it's an old attempt at introducing HTTP Git from more than two years ago (before I started at Heroku)."
}
, {
  "url": "https://api.github.com/repos/heroku/heroku/issues/comments/57259611",
  "html_url": "https://github.com/heroku/heroku/pull/1218#issuecomment-57259611",
  "issue_url": "https://api.github.com/repos/heroku/heroku/issues/1218",
  "id": 57259611,
  "user": {
    "login": "markpundsack",
    "id": 319891,
    "avatar_url": "https://avatars.githubusercontent.com/u/319891?v=3",
    "gravatar_id": "",
    "url": "https://api.github.com/users/markpundsack",
    "html_url": "https://github.com/markpundsack",
    "followers_url": "https://api.github.com/users/markpundsack/followers",
    "following_url": "https://api.github.com/users/markpundsack/following{/other_user}",
    "gists_url": "https://api.github.com/users/markpundsack/gists{/gist_id}",
    "starred_url": "https://api.github.com/users/markpundsack/starred{/owner}{/repo}",
    "subscriptions_url": "https://api.github.com/users/markpundsack/subscriptions",
    "organizations_url": "https://api.github.com/users/markpundsack/orgs",
    "repos_url": "https://api.github.com/users/markpundsack/repos",
    "events_url": "https://api.github.com/users/markpundsack/events{/privacy}",
    "received_events_url": "https://api.github.com/users/markpundsack/received_events",
    "type": "User",
    "site_admin": false
  },
  "created_at": "2014-09-30T02:35:40Z",
  "updated_at": "2014-09-30T02:35:40Z",
  "body": "Exactly. Isn't that related?\r\n\r\n> On Sep 29, 2014, at 7:34 PM, Michael Friis <notifications@github.com> wrote:\r\n> \r\n> I don't know what the old entry is related to, but I think it's an old attempt at introducing HTTP Git from more than two years ago (before I started at Heroku).\r\n> \r\n> —\r\n> Reply to this email directly or view it on GitHub."
}
, {
  "url": "https://api.github.com/repos/heroku/heroku/issues/comments/57259843",
  "html_url": "https://github.com/heroku/heroku/pull/1218#issuecomment-57259843",
  "issue_url": "https://api.github.com/repos/heroku/heroku/issues/1218",
  "id": 57259843,
  "user": {
    "login": "friism",
    "id": 126104,
    "avatar_url": "https://avatars.githubusercontent.com/u/126104?v=3",
    "gravatar_id": "",
    "url": "https://api.github.com/users/friism",
    "html_url": "https://github.com/friism",
    "followers_url": "https://api.github.com/users/friism/followers",
    "following_url": "https://api.github.com/users/friism/following{/other_user}",
    "gists_url": "https://api.github.com/users/friism/gists{/gist_id}",
    "starred_url": "https://api.github.com/users/friism/starred{/owner}{/repo}",
    "subscriptions_url": "https://api.github.com/users/friism/subscriptions",
    "organizations_url": "https://api.github.com/users/friism/orgs",
    "repos_url": "https://api.github.com/users/friism/repos",
    "events_url": "https://api.github.com/users/friism/events{/privacy}",
    "received_events_url": "https://api.github.com/users/friism/received_events",
    "type": "User",
    "site_admin": false
  },
  "created_at": "2014-09-30T02:39:39Z",
  "updated_at": "2014-09-30T02:39:39Z",
  "body": "No, it's not related. It's from some other unrelated abandoned project that was not wrapped up cleanly.\r\n\r\nWhy do you care about the `code.heroku.com` entry in a file that nobody looks in? I don't think it's worth adding complexity to remove it."
}
, {
  "url": "https://api.github.com/repos/heroku/heroku/issues/comments/57384430",
  "html_url": "https://github.com/heroku/heroku/pull/1218#issuecomment-57384430",
  "issue_url": "https://api.github.com/repos/heroku/heroku/issues/1218",
  "id": 57384430,
  "user": {
    "login": "nzoschke",
    "id": 147410,
    "avatar_url": "https://avatars.githubusercontent.com/u/147410?v=3",
    "gravatar_id": "",
    "url": "https://api.github.com/users/nzoschke",
    "html_url": "https://github.com/nzoschke",
    "followers_url": "https://api.github.com/users/nzoschke/followers",
    "following_url": "https://api.github.com/users/nzoschke/following{/other_user}",
    "gists_url": "https://api.github.com/users/nzoschke/gists{/gist_id}",
    "starred_url": "https://api.github.com/users/nzoschke/starred{/owner}{/repo}",
    "subscriptions_url": "https://api.github.com/users/nzoschke/subscriptions",
    "organizations_url": "https://api.github.com/users/nzoschke/orgs",
    "repos_url": "https://api.github.com/users/nzoschke/repos",
    "events_url": "https://api.github.com/users/nzoschke/events{/privacy}",
    "received_events_url": "https://api.github.com/users/nzoschke/received_events",
    "type": "User",
    "site_admin": false
  },
  "created_at": "2014-09-30T21:17:39Z",
  "updated_at": "2014-09-30T21:17:39Z",
  "body": "Wow, 2 years? Sorry for that.\r\n\r\nBig +1 to just never referencing `code` in the code base, even for cleanup reasons. The legacy entries cause no trouble, and will naturally disappear over time.\r\n"
}
]
