[
{
  "url": "https://api.github.com/repos/heroku/heroku/issues/comments/7235810",
  "html_url": "https://github.com/heroku/heroku/issues/473#issuecomment-7235810",
  "issue_url": "https://api.github.com/repos/heroku/heroku/issues/473",
  "id": 7235810,
  "user": {
    "login": "geemus",
    "id": 4138,
    "avatar_url": "https://avatars.githubusercontent.com/u/4138?v=3",
    "gravatar_id": "",
    "url": "https://api.github.com/users/geemus",
    "html_url": "https://github.com/geemus",
    "followers_url": "https://api.github.com/users/geemus/followers",
    "following_url": "https://api.github.com/users/geemus/following{/other_user}",
    "gists_url": "https://api.github.com/users/geemus/gists{/gist_id}",
    "starred_url": "https://api.github.com/users/geemus/starred{/owner}{/repo}",
    "subscriptions_url": "https://api.github.com/users/geemus/subscriptions",
    "organizations_url": "https://api.github.com/users/geemus/orgs",
    "repos_url": "https://api.github.com/users/geemus/repos",
    "events_url": "https://api.github.com/users/geemus/events{/privacy}",
    "received_events_url": "https://api.github.com/users/geemus/received_events",
    "type": "User",
    "site_admin": false
  },
  "created_at": "2012-07-24T22:44:08Z",
  "updated_at": "2012-07-24T22:44:08Z",
  "body": "@mattonrails - sorry about that, there was temporarily a bug in the update logic.  It has been fixed, but unfortunately you'll have to manually reinstall to bypass the bug.  You can do that by simply downloading and reinstalling from https://toolbelt.heroku.com.  Once you've done that you should be back on track (and better tests have been added, so this shouldn't recur).  Just let me know if you have further questions or concerns.  Thanks!"
}
, {
  "url": "https://api.github.com/repos/heroku/heroku/issues/comments/7235828",
  "html_url": "https://github.com/heroku/heroku/issues/473#issuecomment-7235828",
  "issue_url": "https://api.github.com/repos/heroku/heroku/issues/473",
  "id": 7235828,
  "user": {
    "login": "mattreduce",
    "id": 66427,
    "avatar_url": "https://avatars.githubusercontent.com/u/66427?v=3",
    "gravatar_id": "",
    "url": "https://api.github.com/users/mattreduce",
    "html_url": "https://github.com/mattreduce",
    "followers_url": "https://api.github.com/users/mattreduce/followers",
    "following_url": "https://api.github.com/users/mattreduce/following{/other_user}",
    "gists_url": "https://api.github.com/users/mattreduce/gists{/gist_id}",
    "starred_url": "https://api.github.com/users/mattreduce/starred{/owner}{/repo}",
    "subscriptions_url": "https://api.github.com/users/mattreduce/subscriptions",
    "organizations_url": "https://api.github.com/users/mattreduce/orgs",
    "repos_url": "https://api.github.com/users/mattreduce/repos",
    "events_url": "https://api.github.com/users/mattreduce/events{/privacy}",
    "received_events_url": "https://api.github.com/users/mattreduce/received_events",
    "type": "User",
    "site_admin": false
  },
  "created_at": "2012-07-24T22:45:02Z",
  "updated_at": "2012-07-24T22:45:02Z",
  "body": "After manually reinstalling, I did not have the issue anymore as you said. Thank you! :)"
}
, {
  "url": "https://api.github.com/repos/heroku/heroku/issues/comments/7236003",
  "html_url": "https://github.com/heroku/heroku/issues/473#issuecomment-7236003",
  "issue_url": "https://api.github.com/repos/heroku/heroku/issues/473",
  "id": 7236003,
  "user": {
    "login": "geemus",
    "id": 4138,
    "avatar_url": "https://avatars.githubusercontent.com/u/4138?v=3",
    "gravatar_id": "",
    "url": "https://api.github.com/users/geemus",
    "html_url": "https://github.com/geemus",
    "followers_url": "https://api.github.com/users/geemus/followers",
    "following_url": "https://api.github.com/users/geemus/following{/other_user}",
    "gists_url": "https://api.github.com/users/geemus/gists{/gist_id}",
    "starred_url": "https://api.github.com/users/geemus/starred{/owner}{/repo}",
    "subscriptions_url": "https://api.github.com/users/geemus/subscriptions",
    "organizations_url": "https://api.github.com/users/geemus/orgs",
    "repos_url": "https://api.github.com/users/geemus/repos",
    "events_url": "https://api.github.com/users/geemus/events{/privacy}",
    "received_events_url": "https://api.github.com/users/geemus/received_events",
    "type": "User",
    "site_admin": false
  },
  "created_at": "2012-07-24T22:54:47Z",
  "updated_at": "2012-07-24T22:54:47Z",
  "body": "@mattonrails - sure thing, thanks for the update!"
}
]
