[
{
  "url": "https://api.github.com/repos/heroku/heroku/issues/comments/146080116",
  "html_url": "https://github.com/heroku/heroku/issues/1758#issuecomment-146080116",
  "issue_url": "https://api.github.com/repos/heroku/heroku/issues/1758",
  "id": 146080116,
  "user": {
    "login": "learning",
    "id": 354626,
    "avatar_url": "https://avatars.githubusercontent.com/u/354626?v=3",
    "gravatar_id": "",
    "url": "https://api.github.com/users/learning",
    "html_url": "https://github.com/learning",
    "followers_url": "https://api.github.com/users/learning/followers",
    "following_url": "https://api.github.com/users/learning/following{/other_user}",
    "gists_url": "https://api.github.com/users/learning/gists{/gist_id}",
    "starred_url": "https://api.github.com/users/learning/starred{/owner}{/repo}",
    "subscriptions_url": "https://api.github.com/users/learning/subscriptions",
    "organizations_url": "https://api.github.com/users/learning/orgs",
    "repos_url": "https://api.github.com/users/learning/repos",
    "events_url": "https://api.github.com/users/learning/events{/privacy}",
    "received_events_url": "https://api.github.com/users/learning/received_events",
    "type": "User",
    "site_admin": false
  },
  "created_at": "2015-10-07T05:25:35Z",
  "updated_at": "2015-10-07T05:25:35Z",
  "body": "I got this error too.\r\n\r\n```\r\nError:       read timeout reached (Excon::Errors::Timeout)\r\nCommand:     heroku login\r\nVersion:     heroku-toolbelt/3.42.15 (x86_64-darwin10.8.0) ruby/1.9.3\r\nError ID:    da10bfd8f16540959bc4d102e5965ddb\r\n```\r\n\r\nerror log:\r\n```\r\nHeroku client internal error.\r\nread timeout reached\r\n/usr/local/heroku/vendor/gems/excon-0.45.4/lib/excon/socket.rb:299:in `raise_timeout_error'\r\n/usr/local/heroku/vendor/gems/excon-0.45.4/lib/excon/socket.rb:178:in `rescue in read_nonblock'\r\n/usr/local/heroku/vendor/gems/excon-0.45.4/lib/excon/socket.rb:165:in `read_nonblock'\r\n/usr/local/heroku/vendor/gems/excon-0.45.4/lib/excon/socket.rb:35:in `read'\r\n/usr/local/heroku/vendor/gems/excon-0.45.4/lib/excon/response.rb:140:in `parse'\r\n/usr/local/heroku/vendor/gems/excon-0.45.4/lib/excon/middlewares/response_parser.rb:6:in `response_call'\r\n/usr/local/heroku/vendor/gems/excon-0.45.4/lib/excon/connection.rb:372:in `response'\r\n/usr/local/heroku/vendor/gems/excon-0.45.4/lib/excon/connection.rb:236:in `request'\r\n/usr/local/heroku/vendor/gems/excon-0.45.4/lib/excon.rb:229:in `get'\r\n/usr/local/heroku/lib/heroku/jsplugin.rb:129:in `setup'\r\n/usr/local/heroku/lib/heroku/cli.rb:23:in `start'\r\n/usr/local/bin/heroku:24:in `<main>'\r\n```\r\n\r\nAnd I try to debug it...\r\n```\r\n# Generic non-persistent HTTP methods\r\nHTTP_VERBS.each do |method|\r\n  module_eval <<-DEF, __FILE__, __LINE__ + 1\r\n    def #{method}(url, params = {}, &block)\r\n      puts url # print the url\r\n      new(url, params).request(:method => :#{method}, &block)\r\n    end\r\n  DEF\r\nend\r\n```\r\n\r\nI found this url cause the error:\r\n`https://api.rollbar.com/api/1/item/`\r\n\r\nThe params body is\r\n```\r\n{\r\n  \"access_token\": \"488f0c3af3d6450cb5b5827c8099dbff\",\r\n  \"data\": {\r\n    \"platform\": \"client\",\r\n    \"environment\": \"production\",\r\n    \"code_version\": \"3.42.15\",\r\n    \"client\": {\r\n      \"platform\": \"x86_64-darwin10.8.0\",\r\n      \"ruby\": \"1.9.3\"\r\n    },\r\n    \"request\": {\r\n      \"command\": \"login\"\r\n    },\r\n    \"body\": {\r\n      \"trace\": {\r\n        \"frames\": [{\r\n          \"filename\": \"/usr/local/heroku/vendor/gems/excon-0.45.4/lib/excon/ssl_socket.rb\",\r\n          \"lineno\": 120,\r\n          \"method\": \"connect_nonblock\"\r\n        }, {\r\n          \"filename\": \"/usr/local/heroku/vendor/gems/excon-0.45.4/lib/excon/ssl_socket.rb\",\r\n          \"lineno\": 120,\r\n          \"method\": \"initialize\"\r\n        }, {\r\n          \"filename\": \"/usr/local/heroku/vendor/gems/excon-0.45.4/lib/excon/connection.rb\",\r\n          \"lineno\": 387,\r\n          \"method\": \"new\"\r\n        }, {\r\n          \"filename\": \"/usr/local/heroku/vendor/gems/excon-0.45.4/lib/excon/connection.rb\",\r\n          \"lineno\": 387,\r\n          \"method\": \"socket\"\r\n        }, {\r\n          \"filename\": \"/usr/local/heroku/vendor/gems/excon-0.45.4/lib/excon/connection.rb\",\r\n          \"lineno\": 106,\r\n          \"method\": \"request_call\"\r\n        }, {\r\n          \"filename\": \"/usr/local/heroku/vendor/gems/excon-0.45.4/lib/excon/middlewares/decompress.rb\",\r\n          \"lineno\": 11,\r\n          \"method\": \"request_call\"\r\n        }, {\r\n          \"filename\": \"/usr/local/heroku/vendor/gems/excon-0.45.4/lib/excon/middlewares/mock.rb\",\r\n          \"lineno\": 47,\r\n          \"method\": \"request_call\"\r\n        }, {\r\n          \"filename\": \"/usr/local/heroku/vendor/gems/excon-0.45.4/lib/excon/middlewares/instrumentor.rb\",\r\n          \"lineno\": 22,\r\n          \"method\": \"request_call\"\r\n        }, {\r\n          \"filename\": \"/usr/local/heroku/vendor/gems/excon-0.45.4/lib/excon/middlewares/base.rb\",\r\n          \"lineno\": 15,\r\n          \"method\": \"request_call\"\r\n        }, {\r\n          \"filename\": \"/usr/local/heroku/vendor/gems/excon-0.45.4/lib/excon/middlewares/base.rb\",\r\n          \"lineno\": 15,\r\n          \"method\": \"request_call\"\r\n        }, {\r\n          \"filename\": \"/usr/local/heroku/vendor/gems/excon-0.45.4/lib/excon/middlewares/base.rb\",\r\n          \"lineno\": 15,\r\n          \"method\": \"request_call\"\r\n        }, {\r\n          \"filename\": \"/usr/local/heroku/vendor/gems/excon-0.45.4/lib/excon/connection.rb\",\r\n          \"lineno\": 233,\r\n          \"method\": \"request\"\r\n        }, {\r\n          \"filename\": \"/usr/local/heroku/vendor/gems/excon-0.45.4/lib/excon.rb\",\r\n          \"lineno\": 231,\r\n          \"method\": \"get\"\r\n        }, {\r\n          \"filename\": \"/usr/local/heroku/lib/heroku/jsplugin.rb\",\r\n          \"lineno\": 129,\r\n          \"method\": \"setup\"\r\n        }, {\r\n          \"filename\": \"/usr/local/heroku/lib/heroku/cli.rb\",\r\n          \"lineno\": 23,\r\n          \"method\": \"start\"\r\n        }, {\r\n          \"filename\": \"/usr/local/bin/heroku\",\r\n          \"lineno\": 24,\r\n          \"method\": \"<main>\"\r\n        }],\r\n        \"exception\": {\r\n          \"class\": \"Excon::Errors::SocketError\",\r\n          \"message\": \"SSL_connect SYSCALL returned=5 errno=0 state=SSLv2/v3 read server hello A (OpenSSL::SSL::SSLError)\"\r\n        }\r\n      }\r\n    }\r\n  }\r\n}\r\n```\r\n\r\nThere's no connection problem when access to `https://api.rollbar.com/api/1/item/`\r\n```\r\n$ curl https://api.rollbar.com/api/1/item/\r\n{\r\n  \"err\": 1,\r\n  \"message\": \"access token required\"\r\n}%\r\n```"
}
, {
  "url": "https://api.github.com/repos/heroku/heroku/issues/comments/146684589",
  "html_url": "https://github.com/heroku/heroku/issues/1758#issuecomment-146684589",
  "issue_url": "https://api.github.com/repos/heroku/heroku/issues/1758",
  "id": 146684589,
  "user": {
    "login": "dickeyxxx",
    "id": 216188,
    "avatar_url": "https://avatars.githubusercontent.com/u/216188?v=3",
    "gravatar_id": "",
    "url": "https://api.github.com/users/dickeyxxx",
    "html_url": "https://github.com/dickeyxxx",
    "followers_url": "https://api.github.com/users/dickeyxxx/followers",
    "following_url": "https://api.github.com/users/dickeyxxx/following{/other_user}",
    "gists_url": "https://api.github.com/users/dickeyxxx/gists{/gist_id}",
    "starred_url": "https://api.github.com/users/dickeyxxx/starred{/owner}{/repo}",
    "subscriptions_url": "https://api.github.com/users/dickeyxxx/subscriptions",
    "organizations_url": "https://api.github.com/users/dickeyxxx/orgs",
    "repos_url": "https://api.github.com/users/dickeyxxx/repos",
    "events_url": "https://api.github.com/users/dickeyxxx/events{/privacy}",
    "received_events_url": "https://api.github.com/users/dickeyxxx/received_events",
    "type": "User",
    "site_admin": false
  },
  "created_at": "2015-10-08T21:05:07Z",
  "updated_at": "2015-10-08T21:05:07Z",
  "body": "There should be a 60 second timeout when connecting. Is it taking that long?"
}
, {
  "url": "https://api.github.com/repos/heroku/heroku/issues/comments/146737751",
  "html_url": "https://github.com/heroku/heroku/issues/1758#issuecomment-146737751",
  "issue_url": "https://api.github.com/repos/heroku/heroku/issues/1758",
  "id": 146737751,
  "user": {
    "login": "learning",
    "id": 354626,
    "avatar_url": "https://avatars.githubusercontent.com/u/354626?v=3",
    "gravatar_id": "",
    "url": "https://api.github.com/users/learning",
    "html_url": "https://github.com/learning",
    "followers_url": "https://api.github.com/users/learning/followers",
    "following_url": "https://api.github.com/users/learning/following{/other_user}",
    "gists_url": "https://api.github.com/users/learning/gists{/gist_id}",
    "starred_url": "https://api.github.com/users/learning/starred{/owner}{/repo}",
    "subscriptions_url": "https://api.github.com/users/learning/subscriptions",
    "organizations_url": "https://api.github.com/users/learning/orgs",
    "repos_url": "https://api.github.com/users/learning/repos",
    "events_url": "https://api.github.com/users/learning/events{/privacy}",
    "received_events_url": "https://api.github.com/users/learning/received_events",
    "type": "User",
    "site_admin": false
  },
  "created_at": "2015-10-09T02:15:25Z",
  "updated_at": "2015-10-09T12:33:57Z",
  "body": "Yes, every time is timeout, toolbelt 3.42.15 works well, but what's wrong with v4?"
}
, {
  "url": "https://api.github.com/repos/heroku/heroku/issues/comments/146874740",
  "html_url": "https://github.com/heroku/heroku/issues/1758#issuecomment-146874740",
  "issue_url": "https://api.github.com/repos/heroku/heroku/issues/1758",
  "id": 146874740,
  "user": {
    "login": "learning",
    "id": 354626,
    "avatar_url": "https://avatars.githubusercontent.com/u/354626?v=3",
    "gravatar_id": "",
    "url": "https://api.github.com/users/learning",
    "html_url": "https://github.com/learning",
    "followers_url": "https://api.github.com/users/learning/followers",
    "following_url": "https://api.github.com/users/learning/following{/other_user}",
    "gists_url": "https://api.github.com/users/learning/gists{/gist_id}",
    "starred_url": "https://api.github.com/users/learning/starred{/owner}{/repo}",
    "subscriptions_url": "https://api.github.com/users/learning/subscriptions",
    "organizations_url": "https://api.github.com/users/learning/orgs",
    "repos_url": "https://api.github.com/users/learning/repos",
    "events_url": "https://api.github.com/users/learning/events{/privacy}",
    "received_events_url": "https://api.github.com/users/learning/received_events",
    "type": "User",
    "site_admin": false
  },
  "created_at": "2015-10-09T13:43:48Z",
  "updated_at": "2015-10-09T13:43:48Z",
  "body": "Hey @gmahajan31 , I add this to `/usr/local/heroku/lib/heroku/jsplugin.rb` before line 129, and now toolbelt v4 has been installed.\r\n\r\n```ruby\r\nExcon.defaults[:read_timeout] = 3600\r\n```"
}
, {
  "url": "https://api.github.com/repos/heroku/heroku/issues/comments/146961942",
  "html_url": "https://github.com/heroku/heroku/issues/1758#issuecomment-146961942",
  "issue_url": "https://api.github.com/repos/heroku/heroku/issues/1758",
  "id": 146961942,
  "user": {
    "login": "dickeyxxx",
    "id": 216188,
    "avatar_url": "https://avatars.githubusercontent.com/u/216188?v=3",
    "gravatar_id": "",
    "url": "https://api.github.com/users/dickeyxxx",
    "html_url": "https://github.com/dickeyxxx",
    "followers_url": "https://api.github.com/users/dickeyxxx/followers",
    "following_url": "https://api.github.com/users/dickeyxxx/following{/other_user}",
    "gists_url": "https://api.github.com/users/dickeyxxx/gists{/gist_id}",
    "starred_url": "https://api.github.com/users/dickeyxxx/starred{/owner}{/repo}",
    "subscriptions_url": "https://api.github.com/users/dickeyxxx/subscriptions",
    "organizations_url": "https://api.github.com/users/dickeyxxx/orgs",
    "repos_url": "https://api.github.com/users/dickeyxxx/repos",
    "events_url": "https://api.github.com/users/dickeyxxx/events{/privacy}",
    "received_events_url": "https://api.github.com/users/dickeyxxx/received_events",
    "type": "User",
    "site_admin": false
  },
  "created_at": "2015-10-09T19:01:53Z",
  "updated_at": "2015-10-09T19:01:53Z",
  "body": "I suppose I could increase the timeout a bit, but that's a pretty high time. Any idea how long it took to connect on your connection? This file is served over cloudfront so it's a bit strange it took that long."
}
, {
  "url": "https://api.github.com/repos/heroku/heroku/issues/comments/146962231",
  "html_url": "https://github.com/heroku/heroku/issues/1758#issuecomment-146962231",
  "issue_url": "https://api.github.com/repos/heroku/heroku/issues/1758",
  "id": 146962231,
  "user": {
    "login": "dickeyxxx",
    "id": 216188,
    "avatar_url": "https://avatars.githubusercontent.com/u/216188?v=3",
    "gravatar_id": "",
    "url": "https://api.github.com/users/dickeyxxx",
    "html_url": "https://github.com/dickeyxxx",
    "followers_url": "https://api.github.com/users/dickeyxxx/followers",
    "following_url": "https://api.github.com/users/dickeyxxx/following{/other_user}",
    "gists_url": "https://api.github.com/users/dickeyxxx/gists{/gist_id}",
    "starred_url": "https://api.github.com/users/dickeyxxx/starred{/owner}{/repo}",
    "subscriptions_url": "https://api.github.com/users/dickeyxxx/subscriptions",
    "organizations_url": "https://api.github.com/users/dickeyxxx/orgs",
    "repos_url": "https://api.github.com/users/dickeyxxx/repos",
    "events_url": "https://api.github.com/users/dickeyxxx/events{/privacy}",
    "received_events_url": "https://api.github.com/users/dickeyxxx/received_events",
    "type": "User",
    "site_admin": false
  },
  "created_at": "2015-10-09T19:03:21Z",
  "updated_at": "2015-10-09T19:03:21Z",
  "body": "You could run `time curl https://cli-assets.heroku.com/master/4.25.2-beb750a/darwin/amd64/heroku-cli > /dev/null`"
}
, {
  "url": "https://api.github.com/repos/heroku/heroku/issues/comments/147031420",
  "html_url": "https://github.com/heroku/heroku/issues/1758#issuecomment-147031420",
  "issue_url": "https://api.github.com/repos/heroku/heroku/issues/1758",
  "id": 147031420,
  "user": {
    "login": "learning",
    "id": 354626,
    "avatar_url": "https://avatars.githubusercontent.com/u/354626?v=3",
    "gravatar_id": "",
    "url": "https://api.github.com/users/learning",
    "html_url": "https://github.com/learning",
    "followers_url": "https://api.github.com/users/learning/followers",
    "following_url": "https://api.github.com/users/learning/following{/other_user}",
    "gists_url": "https://api.github.com/users/learning/gists{/gist_id}",
    "starred_url": "https://api.github.com/users/learning/starred{/owner}{/repo}",
    "subscriptions_url": "https://api.github.com/users/learning/subscriptions",
    "organizations_url": "https://api.github.com/users/learning/orgs",
    "repos_url": "https://api.github.com/users/learning/repos",
    "events_url": "https://api.github.com/users/learning/events{/privacy}",
    "received_events_url": "https://api.github.com/users/learning/received_events",
    "type": "User",
    "site_admin": false
  },
  "created_at": "2015-10-10T04:00:26Z",
  "updated_at": "2015-10-10T04:00:26Z",
  "body": "Maybe it's cause by cloudfront? Are they deploy some nodes in China or Asia? My location is Beijing, China.\r\n\r\nBut, toolbelt v3 works fine...\r\n\r\n\r\n```\r\ntime curl https://cli-assets.heroku.com/master/4.25.2-beb750a/darwin/amd64/heroku-cli > /dev/null\r\n  % Total    % Received % Xferd  Average Speed   Time    Time     Time  Current\r\n                                 Dload  Upload   Total   Spent    Left  Speed\r\n100 8183k  100 8183k    0     0   464k      0  0:00:17  0:00:17 --:--:--  606k\r\ncurl  > /dev/null  0.06s user 0.08s system 0% cpu 17.643 total\r\n```"
}
, {
  "url": "https://api.github.com/repos/heroku/heroku/issues/comments/147112685",
  "html_url": "https://github.com/heroku/heroku/issues/1758#issuecomment-147112685",
  "issue_url": "https://api.github.com/repos/heroku/heroku/issues/1758",
  "id": 147112685,
  "user": {
    "login": "dickeyxxx",
    "id": 216188,
    "avatar_url": "https://avatars.githubusercontent.com/u/216188?v=3",
    "gravatar_id": "",
    "url": "https://api.github.com/users/dickeyxxx",
    "html_url": "https://github.com/dickeyxxx",
    "followers_url": "https://api.github.com/users/dickeyxxx/followers",
    "following_url": "https://api.github.com/users/dickeyxxx/following{/other_user}",
    "gists_url": "https://api.github.com/users/dickeyxxx/gists{/gist_id}",
    "starred_url": "https://api.github.com/users/dickeyxxx/starred{/owner}{/repo}",
    "subscriptions_url": "https://api.github.com/users/dickeyxxx/subscriptions",
    "organizations_url": "https://api.github.com/users/dickeyxxx/orgs",
    "repos_url": "https://api.github.com/users/dickeyxxx/repos",
    "events_url": "https://api.github.com/users/dickeyxxx/events{/privacy}",
    "received_events_url": "https://api.github.com/users/dickeyxxx/received_events",
    "type": "User",
    "site_admin": false
  },
  "created_at": "2015-10-10T17:54:48Z",
  "updated_at": "2015-10-10T17:54:48Z",
  "body": "The next release will have a longer timeout for this request"
}
, {
  "url": "https://api.github.com/repos/heroku/heroku/issues/comments/147112830",
  "html_url": "https://github.com/heroku/heroku/issues/1758#issuecomment-147112830",
  "issue_url": "https://api.github.com/repos/heroku/heroku/issues/1758",
  "id": 147112830,
  "user": {
    "login": "TimAstier",
    "id": 8555097,
    "avatar_url": "https://avatars.githubusercontent.com/u/8555097?v=3",
    "gravatar_id": "",
    "url": "https://api.github.com/users/TimAstier",
    "html_url": "https://github.com/TimAstier",
    "followers_url": "https://api.github.com/users/TimAstier/followers",
    "following_url": "https://api.github.com/users/TimAstier/following{/other_user}",
    "gists_url": "https://api.github.com/users/TimAstier/gists{/gist_id}",
    "starred_url": "https://api.github.com/users/TimAstier/starred{/owner}{/repo}",
    "subscriptions_url": "https://api.github.com/users/TimAstier/subscriptions",
    "organizations_url": "https://api.github.com/users/TimAstier/orgs",
    "repos_url": "https://api.github.com/users/TimAstier/repos",
    "events_url": "https://api.github.com/users/TimAstier/events{/privacy}",
    "received_events_url": "https://api.github.com/users/TimAstier/received_events",
    "type": "User",
    "site_admin": false
  },
  "created_at": "2015-10-10T17:58:02Z",
  "updated_at": "2015-10-11T03:26:14Z",
  "body": "I am also in Beijing, China and have the same timeout error\r\nEdit: It worked this morning "
}
, {
  "url": "https://api.github.com/repos/heroku/heroku/issues/comments/147817216",
  "html_url": "https://github.com/heroku/heroku/issues/1758#issuecomment-147817216",
  "issue_url": "https://api.github.com/repos/heroku/heroku/issues/1758",
  "id": 147817216,
  "user": {
    "login": "dickeyxxx",
    "id": 216188,
    "avatar_url": "https://avatars.githubusercontent.com/u/216188?v=3",
    "gravatar_id": "",
    "url": "https://api.github.com/users/dickeyxxx",
    "html_url": "https://github.com/dickeyxxx",
    "followers_url": "https://api.github.com/users/dickeyxxx/followers",
    "following_url": "https://api.github.com/users/dickeyxxx/following{/other_user}",
    "gists_url": "https://api.github.com/users/dickeyxxx/gists{/gist_id}",
    "starred_url": "https://api.github.com/users/dickeyxxx/starred{/owner}{/repo}",
    "subscriptions_url": "https://api.github.com/users/dickeyxxx/subscriptions",
    "organizations_url": "https://api.github.com/users/dickeyxxx/orgs",
    "repos_url": "https://api.github.com/users/dickeyxxx/repos",
    "events_url": "https://api.github.com/users/dickeyxxx/events{/privacy}",
    "received_events_url": "https://api.github.com/users/dickeyxxx/received_events",
    "type": "User",
    "site_admin": false
  },
  "created_at": "2015-10-13T19:09:39Z",
  "updated_at": "2015-10-13T19:09:39Z",
  "body": "Timeout increased"
}
, {
  "url": "https://api.github.com/repos/heroku/heroku/issues/comments/148663049",
  "html_url": "https://github.com/heroku/heroku/issues/1758#issuecomment-148663049",
  "issue_url": "https://api.github.com/repos/heroku/heroku/issues/1758",
  "id": 148663049,
  "user": {
    "login": "saadbinakhlaq",
    "id": 1243433,
    "avatar_url": "https://avatars.githubusercontent.com/u/1243433?v=3",
    "gravatar_id": "",
    "url": "https://api.github.com/users/saadbinakhlaq",
    "html_url": "https://github.com/saadbinakhlaq",
    "followers_url": "https://api.github.com/users/saadbinakhlaq/followers",
    "following_url": "https://api.github.com/users/saadbinakhlaq/following{/other_user}",
    "gists_url": "https://api.github.com/users/saadbinakhlaq/gists{/gist_id}",
    "starred_url": "https://api.github.com/users/saadbinakhlaq/starred{/owner}{/repo}",
    "subscriptions_url": "https://api.github.com/users/saadbinakhlaq/subscriptions",
    "organizations_url": "https://api.github.com/users/saadbinakhlaq/orgs",
    "repos_url": "https://api.github.com/users/saadbinakhlaq/repos",
    "events_url": "https://api.github.com/users/saadbinakhlaq/events{/privacy}",
    "received_events_url": "https://api.github.com/users/saadbinakhlaq/received_events",
    "type": "User",
    "site_admin": false
  },
  "created_at": "2015-10-16T09:15:49Z",
  "updated_at": "2015-10-16T09:15:49Z",
  "body": "I am still getting this error, I have increased the timeout but still there are errors, I did increase the timeout in jsplugin.rb file, but no success\r\n\r\n```\r\n    opts = excon_opts.merge(\r\n      :middlewares  => Excon.defaults[:middlewares] + [Excon::Middleware::Decompress],\r\n      :read_timeout => 3600,\r\n    )\r\n```"
}
, {
  "url": "https://api.github.com/repos/heroku/heroku/issues/comments/148738944",
  "html_url": "https://github.com/heroku/heroku/issues/1758#issuecomment-148738944",
  "issue_url": "https://api.github.com/repos/heroku/heroku/issues/1758",
  "id": 148738944,
  "user": {
    "login": "dickeyxxx",
    "id": 216188,
    "avatar_url": "https://avatars.githubusercontent.com/u/216188?v=3",
    "gravatar_id": "",
    "url": "https://api.github.com/users/dickeyxxx",
    "html_url": "https://github.com/dickeyxxx",
    "followers_url": "https://api.github.com/users/dickeyxxx/followers",
    "following_url": "https://api.github.com/users/dickeyxxx/following{/other_user}",
    "gists_url": "https://api.github.com/users/dickeyxxx/gists{/gist_id}",
    "starred_url": "https://api.github.com/users/dickeyxxx/starred{/owner}{/repo}",
    "subscriptions_url": "https://api.github.com/users/dickeyxxx/subscriptions",
    "organizations_url": "https://api.github.com/users/dickeyxxx/orgs",
    "repos_url": "https://api.github.com/users/dickeyxxx/repos",
    "events_url": "https://api.github.com/users/dickeyxxx/events{/privacy}",
    "received_events_url": "https://api.github.com/users/dickeyxxx/received_events",
    "type": "User",
    "site_admin": false
  },
  "created_at": "2015-10-16T14:56:03Z",
  "updated_at": "2015-10-16T14:56:03Z",
  "body": "Is it taking a full hour?"
}
, {
  "url": "https://api.github.com/repos/heroku/heroku/issues/comments/148748965",
  "html_url": "https://github.com/heroku/heroku/issues/1758#issuecomment-148748965",
  "issue_url": "https://api.github.com/repos/heroku/heroku/issues/1758",
  "id": 148748965,
  "user": {
    "login": "saadbinakhlaq",
    "id": 1243433,
    "avatar_url": "https://avatars.githubusercontent.com/u/1243433?v=3",
    "gravatar_id": "",
    "url": "https://api.github.com/users/saadbinakhlaq",
    "html_url": "https://github.com/saadbinakhlaq",
    "followers_url": "https://api.github.com/users/saadbinakhlaq/followers",
    "following_url": "https://api.github.com/users/saadbinakhlaq/following{/other_user}",
    "gists_url": "https://api.github.com/users/saadbinakhlaq/gists{/gist_id}",
    "starred_url": "https://api.github.com/users/saadbinakhlaq/starred{/owner}{/repo}",
    "subscriptions_url": "https://api.github.com/users/saadbinakhlaq/subscriptions",
    "organizations_url": "https://api.github.com/users/saadbinakhlaq/orgs",
    "repos_url": "https://api.github.com/users/saadbinakhlaq/repos",
    "events_url": "https://api.github.com/users/saadbinakhlaq/events{/privacy}",
    "received_events_url": "https://api.github.com/users/saadbinakhlaq/received_events",
    "type": "User",
    "site_admin": false
  },
  "created_at": "2015-10-16T15:36:58Z",
  "updated_at": "2015-10-16T15:36:58Z",
  "body": "Hey @dickeyxxx I tried once again and finally it did get upgraded. Thanks"
}
, {
  "url": "https://api.github.com/repos/heroku/heroku/issues/comments/162585163",
  "html_url": "https://github.com/heroku/heroku/issues/1758#issuecomment-162585163",
  "issue_url": "https://api.github.com/repos/heroku/heroku/issues/1758",
  "id": 162585163,
  "user": {
    "login": "liango2",
    "id": 5696817,
    "avatar_url": "https://avatars.githubusercontent.com/u/5696817?v=3",
    "gravatar_id": "",
    "url": "https://api.github.com/users/liango2",
    "html_url": "https://github.com/liango2",
    "followers_url": "https://api.github.com/users/liango2/followers",
    "following_url": "https://api.github.com/users/liango2/following{/other_user}",
    "gists_url": "https://api.github.com/users/liango2/gists{/gist_id}",
    "starred_url": "https://api.github.com/users/liango2/starred{/owner}{/repo}",
    "subscriptions_url": "https://api.github.com/users/liango2/subscriptions",
    "organizations_url": "https://api.github.com/users/liango2/orgs",
    "repos_url": "https://api.github.com/users/liango2/repos",
    "events_url": "https://api.github.com/users/liango2/events{/privacy}",
    "received_events_url": "https://api.github.com/users/liango2/received_events",
    "type": "User",
    "site_admin": false
  },
  "created_at": "2015-12-07T16:40:16Z",
  "updated_at": "2015-12-07T16:40:16Z",
  "body": "I am in Nanjing, China and I got this error too.\r\n\r\n```\r\nF:\\l\\c\\c\\c>heroku create --stack cedar\r\nheroku-cli: Installing Toolbelt v4...connect timeout reached\r\nC:/RailsInstaller/Ruby2.1.0/lib/ruby/gems/2.1.0/gems/excon-0.45.4/lib/excon/socket.rb:139:in `rescue in block in connect'\r\nC:/RailsInstaller/Ruby2.1.0/lib/ruby/gems/2.1.0/gems/excon-0.45.4/lib/excon/socket.rb:119:in `block in connect'\r\nC:/RailsInstaller/Ruby2.1.0/lib/ruby/gems/2.1.0/gems/excon-0.45.4/lib/excon/socket.rb:110:in `each'\r\nC:/RailsInstaller/Ruby2.1.0/lib/ruby/gems/2.1.0/gems/excon-0.45.4/lib/excon/socket.rb:110:in `connect'\r\nC:/RailsInstaller/Ruby2.1.0/lib/ruby/gems/2.1.0/gems/excon-0.45.4/lib/excon/ssl_socket.rb:148:in `connect'\r\nC:/RailsInstaller/Ruby2.1.0/lib/ruby/gems/2.1.0/gems/excon-0.45.4/lib/excon/socket.rb:28:in `initialize'\r\nC:/RailsInstaller/Ruby2.1.0/lib/ruby/gems/2.1.0/gems/excon-0.45.4/lib/excon/ssl_socket.rb:8:in `initialize'\r\nC:/RailsInstaller/Ruby2.1.0/lib/ruby/gems/2.1.0/gems/excon-0.45.4/lib/excon/connection.rb:387:in `new'\r\nC:/RailsInstaller/Ruby2.1.0/lib/ruby/gems/2.1.0/gems/excon-0.45.4/lib/excon/connection.rb:387:in `socket'\r\nC:/RailsInstaller/Ruby2.1.0/lib/ruby/gems/2.1.0/gems/excon-0.45.4/lib/excon/connection.rb:106:in `request_call'\r\nC:/RailsInstaller/Ruby2.1.0/lib/ruby/gems/2.1.0/gems/excon-0.45.4/lib/excon/middlewares/mock.rb:47:in `request_call'\r\nC:/RailsInstaller/Ruby2.1.0/lib/ruby/gems/2.1.0/gems/excon-0.45.4/lib/excon/middlewares/instrumentor.rb:22:in `request_call'\r\nC:/RailsInstaller/Ruby2.1.0/lib/ruby/gems/2.1.0/gems/excon-0.45.4/lib/excon/middlewares/base.rb:15:in `request_call'\r\nC:/RailsInstaller/Ruby2.1.0/lib/ruby/gems/2.1.0/gems/excon-0.45.4/lib/excon/middlewares/base.rb:15:in `request_call'\r\nC:/RailsInstaller/Ruby2.1.0/lib/ruby/gems/2.1.0/gems/excon-0.45.4/lib/excon/middlewares/base.rb:15:in `request_call'\r\nC:/RailsInstaller/Ruby2.1.0/lib/ruby/gems/2.1.0/gems/excon-0.45.4/lib/excon/connection.rb:233:in `request'\r\nC:/RailsInstaller/Ruby2.1.0/lib/ruby/gems/2.1.0/gems/excon-0.45.4/lib/excon.rb:229:in `get'\r\nC:/RailsInstaller/Ruby2.1.0/lib/ruby/gems/2.1.0/gems/heroku-3.42.24/lib/heroku/jsplugin.rb:231:in `manifest'\r\nC:/RailsInstaller/Ruby2.1.0/lib/ruby/gems/2.1.0/gems/heroku-3.42.24/lib/heroku/jsplugin.rb:244:in `url'\r\nC:/RailsInstaller/Ruby2.1.0/lib/ruby/gems/2.1.0/gems/heroku-3.42.24/lib/heroku/jsplugin.rb:139:in `setup'\r\nC:/RailsInstaller/Ruby2.1.0/lib/ruby/gems/2.1.0/gems/heroku-3.42.24/lib/heroku/cli.rb:24:in `start'\r\nC:/RailsInstaller/Ruby2.1.0/lib/ruby/gems/2.1.0/gems/heroku-3.42.24/bin/heroku:17:in `<top (required)>'\r\nC:/RailsInstaller/Ruby2.1.0/bin/heroku:23:in `load'\r\nC:/RailsInstaller/Ruby2.1.0/bin/heroku:23:in `<main>'\r\n !    Heroku client internal error.\r\n !    Search for help at: https://help.heroku.com\r\n !    Or report a bug at: https://github.com/heroku/heroku/issues/new\r\n\r\n    Error:       connect timeout reached (Excon::Errors::Timeout)\r\n    Command:     heroku create --stack cedar\r\n    HTTP Proxy:  http://localhost:8580\r\n    Version:     heroku-gem/3.42.24 (i386-mingw32) ruby/2.1.5\r\n\r\n\r\n    More information in C:/Users/liango/.heroku/error.log\r\n\r\n```"
}
, {
  "url": "https://api.github.com/repos/heroku/heroku/issues/comments/168918377",
  "html_url": "https://github.com/heroku/heroku/issues/1758#issuecomment-168918377",
  "issue_url": "https://api.github.com/repos/heroku/heroku/issues/1758",
  "id": 168918377,
  "user": {
    "login": "neekey",
    "id": 499870,
    "avatar_url": "https://avatars.githubusercontent.com/u/499870?v=3",
    "gravatar_id": "",
    "url": "https://api.github.com/users/neekey",
    "html_url": "https://github.com/neekey",
    "followers_url": "https://api.github.com/users/neekey/followers",
    "following_url": "https://api.github.com/users/neekey/following{/other_user}",
    "gists_url": "https://api.github.com/users/neekey/gists{/gist_id}",
    "starred_url": "https://api.github.com/users/neekey/starred{/owner}{/repo}",
    "subscriptions_url": "https://api.github.com/users/neekey/subscriptions",
    "organizations_url": "https://api.github.com/users/neekey/orgs",
    "repos_url": "https://api.github.com/users/neekey/repos",
    "events_url": "https://api.github.com/users/neekey/events{/privacy}",
    "received_events_url": "https://api.github.com/users/neekey/received_events",
    "type": "User",
    "site_admin": false
  },
  "created_at": "2016-01-05T06:48:29Z",
  "updated_at": "2016-01-05T06:48:29Z",
  "body": "Location Hangzhou China, seems like it needs hours to download:\r\n\r\n```\r\ntime curl https://cli-assets.heroku.com/master/4.25.2-beb750a/darwin/amd64/heroku-cli > /dev/null\r\n  % Total    % Received % Xferd  Average Speed   Time    Time     Time  Current\r\n                                 Dload  Upload   Total   Spent    Left  Speed\r\n  0 8183k    0 51814    0     0    433      0  5:22:33  0:01:59  5:20:34     0\r\n\r\n```"
}
, {
  "url": "https://api.github.com/repos/heroku/heroku/issues/comments/169155719",
  "html_url": "https://github.com/heroku/heroku/issues/1758#issuecomment-169155719",
  "issue_url": "https://api.github.com/repos/heroku/heroku/issues/1758",
  "id": 169155719,
  "user": {
    "login": "dickeyxxx",
    "id": 216188,
    "avatar_url": "https://avatars.githubusercontent.com/u/216188?v=3",
    "gravatar_id": "",
    "url": "https://api.github.com/users/dickeyxxx",
    "html_url": "https://github.com/dickeyxxx",
    "followers_url": "https://api.github.com/users/dickeyxxx/followers",
    "following_url": "https://api.github.com/users/dickeyxxx/following{/other_user}",
    "gists_url": "https://api.github.com/users/dickeyxxx/gists{/gist_id}",
    "starred_url": "https://api.github.com/users/dickeyxxx/starred{/owner}{/repo}",
    "subscriptions_url": "https://api.github.com/users/dickeyxxx/subscriptions",
    "organizations_url": "https://api.github.com/users/dickeyxxx/orgs",
    "repos_url": "https://api.github.com/users/dickeyxxx/repos",
    "events_url": "https://api.github.com/users/dickeyxxx/events{/privacy}",
    "received_events_url": "https://api.github.com/users/dickeyxxx/received_events",
    "type": "User",
    "site_admin": false
  },
  "created_at": "2016-01-05T22:31:33Z",
  "updated_at": "2016-01-05T22:31:33Z",
  "body": "There isn't anything we can do to deliver that file more quickly, it's already served by a CDN."
}
]
