[
{
  "url": "https://api.github.com/repos/owncloud/files_texteditor/issues/comments/62930036",
  "html_url": "https://github.com/owncloud/files_texteditor/issues/1#issuecomment-62930036",
  "issue_url": "https://api.github.com/repos/owncloud/files_texteditor/issues/1",
  "id": 62930036,
  "user": {
    "login": "PVince81",
    "id": 277525,
    "avatar_url": "https://avatars.githubusercontent.com/u/277525?v=3",
    "gravatar_id": "",
    "url": "https://api.github.com/users/PVince81",
    "html_url": "https://github.com/PVince81",
    "followers_url": "https://api.github.com/users/PVince81/followers",
    "following_url": "https://api.github.com/users/PVince81/following{/other_user}",
    "gists_url": "https://api.github.com/users/PVince81/gists{/gist_id}",
    "starred_url": "https://api.github.com/users/PVince81/starred{/owner}{/repo}",
    "subscriptions_url": "https://api.github.com/users/PVince81/subscriptions",
    "organizations_url": "https://api.github.com/users/PVince81/orgs",
    "repos_url": "https://api.github.com/users/PVince81/repos",
    "events_url": "https://api.github.com/users/PVince81/events{/privacy}",
    "received_events_url": "https://api.github.com/users/PVince81/received_events",
    "type": "User",
    "site_admin": false
  },
  "created_at": "2014-11-13T17:18:35Z",
  "updated_at": "2014-11-13T17:18:35Z",
  "body": "Any update ? :wink: \r\n\r\nReminds me that we might need to update all bundled apps to work with the new `addTranslations` call."
}
, {
  "url": "https://api.github.com/repos/owncloud/files_texteditor/issues/comments/73371545",
  "html_url": "https://github.com/owncloud/files_texteditor/issues/1#issuecomment-73371545",
  "issue_url": "https://api.github.com/repos/owncloud/files_texteditor/issues/1",
  "id": 73371545,
  "user": {
    "login": "vgezer",
    "id": 231068,
    "avatar_url": "https://avatars.githubusercontent.com/u/231068?v=3",
    "gravatar_id": "",
    "url": "https://api.github.com/users/vgezer",
    "html_url": "https://github.com/vgezer",
    "followers_url": "https://api.github.com/users/vgezer/followers",
    "following_url": "https://api.github.com/users/vgezer/following{/other_user}",
    "gists_url": "https://api.github.com/users/vgezer/gists{/gist_id}",
    "starred_url": "https://api.github.com/users/vgezer/starred{/owner}{/repo}",
    "subscriptions_url": "https://api.github.com/users/vgezer/subscriptions",
    "organizations_url": "https://api.github.com/users/vgezer/orgs",
    "repos_url": "https://api.github.com/users/vgezer/repos",
    "events_url": "https://api.github.com/users/vgezer/events{/privacy}",
    "received_events_url": "https://api.github.com/users/vgezer/received_events",
    "type": "User",
    "site_admin": false
  },
  "created_at": "2015-02-07T16:41:29Z",
  "updated_at": "2015-02-07T16:41:29Z",
  "body": "Any update on this?"
}
, {
  "url": "https://api.github.com/repos/owncloud/files_texteditor/issues/comments/73731610",
  "html_url": "https://github.com/owncloud/files_texteditor/issues/1#issuecomment-73731610",
  "issue_url": "https://api.github.com/repos/owncloud/files_texteditor/issues/1",
  "id": 73731610,
  "user": {
    "login": "DeepDiver1975",
    "id": 1005065,
    "avatar_url": "https://avatars.githubusercontent.com/u/1005065?v=3",
    "gravatar_id": "",
    "url": "https://api.github.com/users/DeepDiver1975",
    "html_url": "https://github.com/DeepDiver1975",
    "followers_url": "https://api.github.com/users/DeepDiver1975/followers",
    "following_url": "https://api.github.com/users/DeepDiver1975/following{/other_user}",
    "gists_url": "https://api.github.com/users/DeepDiver1975/gists{/gist_id}",
    "starred_url": "https://api.github.com/users/DeepDiver1975/starred{/owner}{/repo}",
    "subscriptions_url": "https://api.github.com/users/DeepDiver1975/subscriptions",
    "organizations_url": "https://api.github.com/users/DeepDiver1975/orgs",
    "repos_url": "https://api.github.com/users/DeepDiver1975/repos",
    "events_url": "https://api.github.com/users/DeepDiver1975/events{/privacy}",
    "received_events_url": "https://api.github.com/users/DeepDiver1975/received_events",
    "type": "User",
    "site_admin": false
  },
  "created_at": "2015-02-10T16:31:28Z",
  "updated_at": "2015-02-10T16:31:28Z",
  "body": "https://ci.owncloud.org/view/translation-sync/job/translation-sync-files_texteditor/\r\n\r\nfinally ... after all these years"
}
]
