{
  "login": "kriasoft",
  "id": 773036,
  "url": "https://api.github.com/orgs/kriasoft",
  "repos_url": "https://api.github.com/orgs/kriasoft/repos",
  "events_url": "https://api.github.com/orgs/kriasoft/events",
  "members_url": "https://api.github.com/orgs/kriasoft/members{/member}",
  "public_members_url": "https://api.github.com/orgs/kriasoft/public_members{/member}",
  "avatar_url": "https://avatars.githubusercontent.com/u/773036?v=3",
  "description": "We help startups take their next steps",
  "name": "Kriasoft",
  "company": null,
  "blog": "http://www.kriasoft.com",
  "location": "",
  "email": "hello@kriasoft.com",
  "public_repos": 33,
  "public_gists": 0,
  "followers": 0,
  "following": 0,
  "html_url": "https://github.com/kriasoft",
  "created_at": "2011-05-06T21:34:58Z",
  "updated_at": "2015-12-12T18:59:58Z",
  "type": "Organization"
}
