{
  "login": "mininet",
  "id": 744275,
  "url": "https://api.github.com/orgs/mininet",
  "repos_url": "https://api.github.com/orgs/mininet/repos",
  "events_url": "https://api.github.com/orgs/mininet/events",
  "members_url": "https://api.github.com/orgs/mininet/members{/member}",
  "public_members_url": "https://api.github.com/orgs/mininet/public_members{/member}",
  "avatar_url": "https://avatars.githubusercontent.com/u/744275?v=3",
  "description": null,
  "name": "Mininet",
  "company": null,
  "blog": "mininet.org",
  "location": null,
  "email": null,
  "public_repos": 9,
  "public_gists": 0,
  "followers": 0,
  "following": 0,
  "html_url": "https://github.com/mininet",
  "created_at": "2011-04-21T17:18:16Z",
  "updated_at": "2015-04-27T01:05:58Z",
  "type": "Organization"
}
