{
  "login": "pixie-lang",
  "id": 8930965,
  "url": "https://api.github.com/orgs/pixie-lang",
  "repos_url": "https://api.github.com/orgs/pixie-lang/repos",
  "events_url": "https://api.github.com/orgs/pixie-lang/events",
  "members_url": "https://api.github.com/orgs/pixie-lang/members{/member}",
  "public_members_url": "https://api.github.com/orgs/pixie-lang/public_members{/member}",
  "avatar_url": "https://avatars.githubusercontent.com/u/8930965?v=3",
  "description": null,
  "public_repos": 6,
  "public_gists": 0,
  "followers": 0,
  "following": 0,
  "html_url": "https://github.com/pixie-lang",
  "created_at": "2014-09-26T16:34:43Z",
  "updated_at": "2015-10-06T11:56:46Z",
  "type": "Organization"
}
