{
  "login": "quantmind",
  "id": 144099,
  "url": "https://api.github.com/orgs/quantmind",
  "repos_url": "https://api.github.com/orgs/quantmind/repos",
  "events_url": "https://api.github.com/orgs/quantmind/events",
  "members_url": "https://api.github.com/orgs/quantmind/members{/member}",
  "public_members_url": "https://api.github.com/orgs/quantmind/public_members{/member}",
  "avatar_url": "https://avatars.githubusercontent.com/u/144099?v=3",
  "description": "Quantitative data analysis - Quantitative Finance - Visualizations - Web application development",
  "name": "Quantmind",
  "company": null,
  "blog": "http://quantmind.com",
  "location": "London UK",
  "email": "info@quantmind.com",
  "public_repos": 13,
  "public_gists": 1,
  "followers": 0,
  "following": 0,
  "html_url": "https://github.com/quantmind",
  "created_at": "2009-10-24T15:33:37Z",
  "updated_at": "2015-12-30T09:53:06Z",
  "type": "Organization"
}
