{
  "login": "TencentOpen",
  "id": 4698016,
  "url": "https://api.github.com/orgs/TencentOpen",
  "repos_url": "https://api.github.com/orgs/TencentOpen/repos",
  "events_url": "https://api.github.com/orgs/TencentOpen/events",
  "members_url": "https://api.github.com/orgs/TencentOpen/members{/member}",
  "public_members_url": "https://api.github.com/orgs/TencentOpen/public_members{/member}",
  "avatar_url": "https://avatars.githubusercontent.com/u/4698016?v=3",
  "description": null,
  "public_repos": 11,
  "public_gists": 0,
  "followers": 0,
  "following": 0,
  "html_url": "https://github.com/TencentOpen",
  "created_at": "2013-06-14T12:54:49Z",
  "updated_at": "2015-11-27T07:59:02Z",
  "type": "Organization"
}
