[
{
  "url": "https://api.github.com/repos/heroku/heroku-django-template/issues/comments/59598693",
  "html_url": "https://github.com/heroku/heroku-django-template/issues/2#issuecomment-59598693",
  "issue_url": "https://api.github.com/repos/heroku/heroku-django-template/issues/2",
  "id": 59598693,
  "user": {
    "login": "pydanny",
    "id": 62857,
    "avatar_url": "https://avatars.githubusercontent.com/u/62857?v=3",
    "gravatar_id": "",
    "url": "https://api.github.com/users/pydanny",
    "html_url": "https://github.com/pydanny",
    "followers_url": "https://api.github.com/users/pydanny/followers",
    "following_url": "https://api.github.com/users/pydanny/following{/other_user}",
    "gists_url": "https://api.github.com/users/pydanny/gists{/gist_id}",
    "starred_url": "https://api.github.com/users/pydanny/starred{/owner}{/repo}",
    "subscriptions_url": "https://api.github.com/users/pydanny/subscriptions",
    "organizations_url": "https://api.github.com/users/pydanny/orgs",
    "repos_url": "https://api.github.com/users/pydanny/repos",
    "events_url": "https://api.github.com/users/pydanny/events{/privacy}",
    "received_events_url": "https://api.github.com/users/pydanny/received_events",
    "type": "User",
    "site_admin": false
  },
  "created_at": "2014-10-18T04:26:11Z",
  "updated_at": "2014-10-18T04:26:11Z",
  "body": "Heroku promotes the 12 Factor model, which encourages a single settings/requirements file. For service-oriented architecture like what Heroku promotes, a single setting/requirements file is often all that you need.\r\n\r\nAlso, best practices evolve over time. Without exploration and experimentation, how do we know what will be best practices in the future?"
}
, {
  "url": "https://api.github.com/repos/heroku/heroku-django-template/issues/comments/59621203",
  "html_url": "https://github.com/heroku/heroku-django-template/issues/2#issuecomment-59621203",
  "issue_url": "https://api.github.com/repos/heroku/heroku-django-template/issues/2",
  "id": 59621203,
  "user": {
    "login": "kennethreitz",
    "id": 119893,
    "avatar_url": "https://avatars.githubusercontent.com/u/119893?v=3",
    "gravatar_id": "",
    "url": "https://api.github.com/users/kennethreitz",
    "html_url": "https://github.com/kennethreitz",
    "followers_url": "https://api.github.com/users/kennethreitz/followers",
    "following_url": "https://api.github.com/users/kennethreitz/following{/other_user}",
    "gists_url": "https://api.github.com/users/kennethreitz/gists{/gist_id}",
    "starred_url": "https://api.github.com/users/kennethreitz/starred{/owner}{/repo}",
    "subscriptions_url": "https://api.github.com/users/kennethreitz/subscriptions",
    "organizations_url": "https://api.github.com/users/kennethreitz/orgs",
    "repos_url": "https://api.github.com/users/kennethreitz/repos",
    "events_url": "https://api.github.com/users/kennethreitz/events{/privacy}",
    "received_events_url": "https://api.github.com/users/kennethreitz/received_events",
    "type": "User",
    "site_admin": false
  },
  "created_at": "2014-10-18T16:48:18Z",
  "updated_at": "2014-10-18T16:48:26Z",
  "body": "@pydanny is correct — also, I have the perspective of dealing with all sorts of customer issues that arise from having the confusing and unnecessary multiple file structure. \r\n\r\n### Simple is better than complex.\r\n### Complex is better than complicated."
}
, {
  "url": "https://api.github.com/repos/heroku/heroku-django-template/issues/comments/60011440",
  "html_url": "https://github.com/heroku/heroku-django-template/issues/2#issuecomment-60011440",
  "issue_url": "https://api.github.com/repos/heroku/heroku-django-template/issues/2",
  "id": 60011440,
  "user": {
    "login": "rdegges",
    "id": 90247,
    "avatar_url": "https://avatars.githubusercontent.com/u/90247?v=3",
    "gravatar_id": "",
    "url": "https://api.github.com/users/rdegges",
    "html_url": "https://github.com/rdegges",
    "followers_url": "https://api.github.com/users/rdegges/followers",
    "following_url": "https://api.github.com/users/rdegges/following{/other_user}",
    "gists_url": "https://api.github.com/users/rdegges/gists{/gist_id}",
    "starred_url": "https://api.github.com/users/rdegges/starred{/owner}{/repo}",
    "subscriptions_url": "https://api.github.com/users/rdegges/subscriptions",
    "organizations_url": "https://api.github.com/users/rdegges/orgs",
    "repos_url": "https://api.github.com/users/rdegges/repos",
    "events_url": "https://api.github.com/users/rdegges/events{/privacy}",
    "received_events_url": "https://api.github.com/users/rdegges/received_events",
    "type": "User",
    "site_admin": false
  },
  "created_at": "2014-10-21T22:47:16Z",
  "updated_at": "2014-10-21T22:47:16Z",
  "body": "I agree with everyone else ^^\r\n\r\n<33333\r\n\r\n"
}
]
