[
{
  "url": "https://api.github.com/repos/thoughtbot/carnival/issues/comments/90594836",
  "html_url": "https://github.com/thoughtbot/carnival/pull/212#issuecomment-90594836",
  "issue_url": "https://api.github.com/repos/thoughtbot/carnival/issues/212",
  "id": 90594836,
  "user": {
    "login": "pbrisbin",
    "id": 50812,
    "avatar_url": "https://avatars.githubusercontent.com/u/50812?v=3",
    "gravatar_id": "",
    "url": "https://api.github.com/users/pbrisbin",
    "html_url": "https://github.com/pbrisbin",
    "followers_url": "https://api.github.com/users/pbrisbin/followers",
    "following_url": "https://api.github.com/users/pbrisbin/following{/other_user}",
    "gists_url": "https://api.github.com/users/pbrisbin/gists{/gist_id}",
    "starred_url": "https://api.github.com/users/pbrisbin/starred{/owner}{/repo}",
    "subscriptions_url": "https://api.github.com/users/pbrisbin/subscriptions",
    "organizations_url": "https://api.github.com/users/pbrisbin/orgs",
    "repos_url": "https://api.github.com/users/pbrisbin/repos",
    "events_url": "https://api.github.com/users/pbrisbin/events{/privacy}",
    "received_events_url": "https://api.github.com/users/pbrisbin/received_events",
    "type": "User",
    "site_admin": false
  },
  "created_at": "2015-04-07T14:56:03Z",
  "updated_at": "2015-04-07T14:56:03Z",
  "body": "Ping @smharley for the design work on Login/Homepage"
}
, {
  "url": "https://api.github.com/repos/thoughtbot/carnival/issues/comments/91042809",
  "html_url": "https://github.com/thoughtbot/carnival/pull/212#issuecomment-91042809",
  "issue_url": "https://api.github.com/repos/thoughtbot/carnival/issues/212",
  "id": 91042809,
  "user": {
    "login": "jferris",
    "id": 7591,
    "avatar_url": "https://avatars.githubusercontent.com/u/7591?v=3",
    "gravatar_id": "",
    "url": "https://api.github.com/users/jferris",
    "html_url": "https://github.com/jferris",
    "followers_url": "https://api.github.com/users/jferris/followers",
    "following_url": "https://api.github.com/users/jferris/following{/other_user}",
    "gists_url": "https://api.github.com/users/jferris/gists{/gist_id}",
    "starred_url": "https://api.github.com/users/jferris/starred{/owner}{/repo}",
    "subscriptions_url": "https://api.github.com/users/jferris/subscriptions",
    "organizations_url": "https://api.github.com/users/jferris/orgs",
    "repos_url": "https://api.github.com/users/jferris/repos",
    "events_url": "https://api.github.com/users/jferris/events{/privacy}",
    "received_events_url": "https://api.github.com/users/jferris/received_events",
    "type": "User",
    "site_admin": false
  },
  "created_at": "2015-04-08T21:34:08Z",
  "updated_at": "2015-04-08T21:34:08Z",
  "body": "This looks good from a development perspective."
}
, {
  "url": "https://api.github.com/repos/thoughtbot/carnival/issues/comments/91254882",
  "html_url": "https://github.com/thoughtbot/carnival/pull/212#issuecomment-91254882",
  "issue_url": "https://api.github.com/repos/thoughtbot/carnival/issues/212",
  "id": 91254882,
  "user": {
    "login": "pbrisbin",
    "id": 50812,
    "avatar_url": "https://avatars.githubusercontent.com/u/50812?v=3",
    "gravatar_id": "",
    "url": "https://api.github.com/users/pbrisbin",
    "html_url": "https://github.com/pbrisbin",
    "followers_url": "https://api.github.com/users/pbrisbin/followers",
    "following_url": "https://api.github.com/users/pbrisbin/following{/other_user}",
    "gists_url": "https://api.github.com/users/pbrisbin/gists{/gist_id}",
    "starred_url": "https://api.github.com/users/pbrisbin/starred{/owner}{/repo}",
    "subscriptions_url": "https://api.github.com/users/pbrisbin/subscriptions",
    "organizations_url": "https://api.github.com/users/pbrisbin/orgs",
    "repos_url": "https://api.github.com/users/pbrisbin/repos",
    "events_url": "https://api.github.com/users/pbrisbin/events{/privacy}",
    "received_events_url": "https://api.github.com/users/pbrisbin/received_events",
    "type": "User",
    "site_admin": false
  },
  "created_at": "2015-04-09T14:56:27Z",
  "updated_at": "2015-04-09T14:56:27Z",
  "body": "Thoughts on merging this as-is?\r\n\r\n- Keep the Homepage and Embed going direct to GitHub\r\n- The only difference would be if someone ends up on /auth/login directly, there will be a Google option there\r\n- Follow up separately with design work and change it so users go to login and not directly to GitHub"
}
, {
  "url": "https://api.github.com/repos/thoughtbot/carnival/issues/comments/91255353",
  "html_url": "https://github.com/thoughtbot/carnival/pull/212#issuecomment-91255353",
  "issue_url": "https://api.github.com/repos/thoughtbot/carnival/issues/212",
  "id": 91255353,
  "user": {
    "login": "jferris",
    "id": 7591,
    "avatar_url": "https://avatars.githubusercontent.com/u/7591?v=3",
    "gravatar_id": "",
    "url": "https://api.github.com/users/jferris",
    "html_url": "https://github.com/jferris",
    "followers_url": "https://api.github.com/users/jferris/followers",
    "following_url": "https://api.github.com/users/jferris/following{/other_user}",
    "gists_url": "https://api.github.com/users/jferris/gists{/gist_id}",
    "starred_url": "https://api.github.com/users/jferris/starred{/owner}{/repo}",
    "subscriptions_url": "https://api.github.com/users/jferris/subscriptions",
    "organizations_url": "https://api.github.com/users/jferris/orgs",
    "repos_url": "https://api.github.com/users/jferris/repos",
    "events_url": "https://api.github.com/users/jferris/events{/privacy}",
    "received_events_url": "https://api.github.com/users/jferris/received_events",
    "type": "User",
    "site_admin": false
  },
  "created_at": "2015-04-09T14:58:23Z",
  "updated_at": "2015-04-09T14:58:23Z",
  "body": "That sounds like a good plan to me."
}
]
