[
{
  "url": "https://api.github.com/repos/facebook/relay/issues/comments/142137429",
  "html_url": "https://github.com/facebook/relay/pull/363#issuecomment-142137429",
  "issue_url": "https://api.github.com/repos/facebook/relay/issues/363",
  "id": 142137429,
  "user": {
    "login": "kassens",
    "id": 11849,
    "avatar_url": "https://avatars.githubusercontent.com/u/11849?v=3",
    "gravatar_id": "",
    "url": "https://api.github.com/users/kassens",
    "html_url": "https://github.com/kassens",
    "followers_url": "https://api.github.com/users/kassens/followers",
    "following_url": "https://api.github.com/users/kassens/following{/other_user}",
    "gists_url": "https://api.github.com/users/kassens/gists{/gist_id}",
    "starred_url": "https://api.github.com/users/kassens/starred{/owner}{/repo}",
    "subscriptions_url": "https://api.github.com/users/kassens/subscriptions",
    "organizations_url": "https://api.github.com/users/kassens/orgs",
    "repos_url": "https://api.github.com/users/kassens/repos",
    "events_url": "https://api.github.com/users/kassens/events{/privacy}",
    "received_events_url": "https://api.github.com/users/kassens/received_events",
    "type": "User",
    "site_admin": false
  },
  "created_at": "2015-09-21T23:31:20Z",
  "updated_at": "2015-09-21T23:31:20Z",
  "body": "@facebook-github-bot import"
}
, {
  "url": "https://api.github.com/repos/facebook/relay/issues/comments/142137491",
  "html_url": "https://github.com/facebook/relay/pull/363#issuecomment-142137491",
  "issue_url": "https://api.github.com/repos/facebook/relay/issues/363",
  "id": 142137491,
  "user": {
    "login": "facebook-github-bot",
    "id": 6422482,
    "avatar_url": "https://avatars.githubusercontent.com/u/6422482?v=3",
    "gravatar_id": "",
    "url": "https://api.github.com/users/facebook-github-bot",
    "html_url": "https://github.com/facebook-github-bot",
    "followers_url": "https://api.github.com/users/facebook-github-bot/followers",
    "following_url": "https://api.github.com/users/facebook-github-bot/following{/other_user}",
    "gists_url": "https://api.github.com/users/facebook-github-bot/gists{/gist_id}",
    "starred_url": "https://api.github.com/users/facebook-github-bot/starred{/owner}{/repo}",
    "subscriptions_url": "https://api.github.com/users/facebook-github-bot/subscriptions",
    "organizations_url": "https://api.github.com/users/facebook-github-bot/orgs",
    "repos_url": "https://api.github.com/users/facebook-github-bot/repos",
    "events_url": "https://api.github.com/users/facebook-github-bot/events{/privacy}",
    "received_events_url": "https://api.github.com/users/facebook-github-bot/received_events",
    "type": "User",
    "site_admin": false
  },
  "created_at": "2015-09-21T23:31:51Z",
  "updated_at": "2015-09-21T23:31:51Z",
  "body": "Thanks for importing. If you are an FB employee go to https://our.intern.facebook.com/intern/opensource/github/pull_request/874332789288950/int_phab to review."
}
]
