[
{
  "url": "https://api.github.com/repos/owncloud/mail/issues/comments/140776533",
  "html_url": "https://github.com/owncloud/mail/pull/1092#issuecomment-140776533",
  "issue_url": "https://api.github.com/repos/owncloud/mail/issues/1092",
  "id": 140776533,
  "user": {
    "login": "raghunayyar",
    "id": 992488,
    "avatar_url": "https://avatars.githubusercontent.com/u/992488?v=3",
    "gravatar_id": "",
    "url": "https://api.github.com/users/raghunayyar",
    "html_url": "https://github.com/raghunayyar",
    "followers_url": "https://api.github.com/users/raghunayyar/followers",
    "following_url": "https://api.github.com/users/raghunayyar/following{/other_user}",
    "gists_url": "https://api.github.com/users/raghunayyar/gists{/gist_id}",
    "starred_url": "https://api.github.com/users/raghunayyar/starred{/owner}{/repo}",
    "subscriptions_url": "https://api.github.com/users/raghunayyar/subscriptions",
    "organizations_url": "https://api.github.com/users/raghunayyar/orgs",
    "repos_url": "https://api.github.com/users/raghunayyar/repos",
    "events_url": "https://api.github.com/users/raghunayyar/events{/privacy}",
    "received_events_url": "https://api.github.com/users/raghunayyar/received_events",
    "type": "User",
    "site_admin": false
  },
  "created_at": "2015-09-16T15:27:43Z",
  "updated_at": "2015-09-16T15:27:43Z",
  "body": ":+1:"
}
, {
  "url": "https://api.github.com/repos/owncloud/mail/issues/comments/140776759",
  "html_url": "https://github.com/owncloud/mail/pull/1092#issuecomment-140776759",
  "issue_url": "https://api.github.com/repos/owncloud/mail/issues/1092",
  "id": 140776759,
  "user": {
    "login": "raghunayyar",
    "id": 992488,
    "avatar_url": "https://avatars.githubusercontent.com/u/992488?v=3",
    "gravatar_id": "",
    "url": "https://api.github.com/users/raghunayyar",
    "html_url": "https://github.com/raghunayyar",
    "followers_url": "https://api.github.com/users/raghunayyar/followers",
    "following_url": "https://api.github.com/users/raghunayyar/following{/other_user}",
    "gists_url": "https://api.github.com/users/raghunayyar/gists{/gist_id}",
    "starred_url": "https://api.github.com/users/raghunayyar/starred{/owner}{/repo}",
    "subscriptions_url": "https://api.github.com/users/raghunayyar/subscriptions",
    "organizations_url": "https://api.github.com/users/raghunayyar/orgs",
    "repos_url": "https://api.github.com/users/raghunayyar/repos",
    "events_url": "https://api.github.com/users/raghunayyar/events{/privacy}",
    "received_events_url": "https://api.github.com/users/raghunayyar/received_events",
    "type": "User",
    "site_admin": false
  },
  "created_at": "2015-09-16T15:28:33Z",
  "updated_at": "2015-09-16T15:28:33Z",
  "body": "@jancborchardt why is the opacity tweaked in the svg? Ideally, it should be set by CSS. Am I missing something?"
}
, {
  "url": "https://api.github.com/repos/owncloud/mail/issues/comments/140783180",
  "html_url": "https://github.com/owncloud/mail/pull/1092#issuecomment-140783180",
  "issue_url": "https://api.github.com/repos/owncloud/mail/issues/1092",
  "id": 140783180,
  "user": {
    "login": "jancborchardt",
    "id": 925062,
    "avatar_url": "https://avatars.githubusercontent.com/u/925062?v=3",
    "gravatar_id": "",
    "url": "https://api.github.com/users/jancborchardt",
    "html_url": "https://github.com/jancborchardt",
    "followers_url": "https://api.github.com/users/jancborchardt/followers",
    "following_url": "https://api.github.com/users/jancborchardt/following{/other_user}",
    "gists_url": "https://api.github.com/users/jancborchardt/gists{/gist_id}",
    "starred_url": "https://api.github.com/users/jancborchardt/starred{/owner}{/repo}",
    "subscriptions_url": "https://api.github.com/users/jancborchardt/subscriptions",
    "organizations_url": "https://api.github.com/users/jancborchardt/orgs",
    "repos_url": "https://api.github.com/users/jancborchardt/repos",
    "events_url": "https://api.github.com/users/jancborchardt/events{/privacy}",
    "received_events_url": "https://api.github.com/users/jancborchardt/received_events",
    "type": "User",
    "site_admin": false
  },
  "created_at": "2015-09-16T15:48:27Z",
  "updated_at": "2015-09-16T15:48:27Z",
  "body": "It was tweaked in the SVG before. That’s why I’m fixing it."
}
, {
  "url": "https://api.github.com/repos/owncloud/mail/issues/comments/140784266",
  "html_url": "https://github.com/owncloud/mail/pull/1092#issuecomment-140784266",
  "issue_url": "https://api.github.com/repos/owncloud/mail/issues/1092",
  "id": 140784266,
  "user": {
    "login": "enoch85",
    "id": 4511254,
    "avatar_url": "https://avatars.githubusercontent.com/u/4511254?v=3",
    "gravatar_id": "",
    "url": "https://api.github.com/users/enoch85",
    "html_url": "https://github.com/enoch85",
    "followers_url": "https://api.github.com/users/enoch85/followers",
    "following_url": "https://api.github.com/users/enoch85/following{/other_user}",
    "gists_url": "https://api.github.com/users/enoch85/gists{/gist_id}",
    "starred_url": "https://api.github.com/users/enoch85/starred{/owner}{/repo}",
    "subscriptions_url": "https://api.github.com/users/enoch85/subscriptions",
    "organizations_url": "https://api.github.com/users/enoch85/orgs",
    "repos_url": "https://api.github.com/users/enoch85/repos",
    "events_url": "https://api.github.com/users/enoch85/events{/privacy}",
    "received_events_url": "https://api.github.com/users/enoch85/received_events",
    "type": "User",
    "site_admin": false
  },
  "created_at": "2015-09-16T15:52:53Z",
  "updated_at": "2015-09-16T15:52:53Z",
  "body": "@jancborchardt Does this close https://github.com/owncloud/mail/issues/1073 ?"
}
, {
  "url": "https://api.github.com/repos/owncloud/mail/issues/comments/140789613",
  "html_url": "https://github.com/owncloud/mail/pull/1092#issuecomment-140789613",
  "issue_url": "https://api.github.com/repos/owncloud/mail/issues/1092",
  "id": 140789613,
  "user": {
    "login": "jancborchardt",
    "id": 925062,
    "avatar_url": "https://avatars.githubusercontent.com/u/925062?v=3",
    "gravatar_id": "",
    "url": "https://api.github.com/users/jancborchardt",
    "html_url": "https://github.com/jancborchardt",
    "followers_url": "https://api.github.com/users/jancborchardt/followers",
    "following_url": "https://api.github.com/users/jancborchardt/following{/other_user}",
    "gists_url": "https://api.github.com/users/jancborchardt/gists{/gist_id}",
    "starred_url": "https://api.github.com/users/jancborchardt/starred{/owner}{/repo}",
    "subscriptions_url": "https://api.github.com/users/jancborchardt/subscriptions",
    "organizations_url": "https://api.github.com/users/jancborchardt/orgs",
    "repos_url": "https://api.github.com/users/jancborchardt/repos",
    "events_url": "https://api.github.com/users/jancborchardt/events{/privacy}",
    "received_events_url": "https://api.github.com/users/jancborchardt/received_events",
    "type": "User",
    "site_admin": false
  },
  "created_at": "2015-09-16T16:07:07Z",
  "updated_at": "2015-09-16T16:07:07Z",
  "body": "No, this is about the icons of the special folders in the navigation sidebar on the left."
}
]
