[
{
  "url": "https://api.github.com/repos/twitter/CocoaSPDY/issues/comments/131199197",
  "html_url": "https://github.com/twitter/CocoaSPDY/pull/128#issuecomment-131199197",
  "issue_url": "https://api.github.com/repos/twitter/CocoaSPDY/issues/128",
  "id": 131199197,
  "user": {
    "login": "NSProgrammer",
    "id": 1816176,
    "avatar_url": "https://avatars.githubusercontent.com/u/1816176?v=3",
    "gravatar_id": "",
    "url": "https://api.github.com/users/NSProgrammer",
    "html_url": "https://github.com/NSProgrammer",
    "followers_url": "https://api.github.com/users/NSProgrammer/followers",
    "following_url": "https://api.github.com/users/NSProgrammer/following{/other_user}",
    "gists_url": "https://api.github.com/users/NSProgrammer/gists{/gist_id}",
    "starred_url": "https://api.github.com/users/NSProgrammer/starred{/owner}{/repo}",
    "subscriptions_url": "https://api.github.com/users/NSProgrammer/subscriptions",
    "organizations_url": "https://api.github.com/users/NSProgrammer/orgs",
    "repos_url": "https://api.github.com/users/NSProgrammer/repos",
    "events_url": "https://api.github.com/users/NSProgrammer/events{/privacy}",
    "received_events_url": "https://api.github.com/users/NSProgrammer/received_events",
    "type": "User",
    "site_admin": false
  },
  "created_at": "2015-08-14T18:15:38Z",
  "updated_at": "2015-08-14T18:15:38Z",
  "body": "+2"
}
, {
  "url": "https://api.github.com/repos/twitter/CocoaSPDY/issues/comments/131199611",
  "html_url": "https://github.com/twitter/CocoaSPDY/pull/128#issuecomment-131199611",
  "issue_url": "https://api.github.com/repos/twitter/CocoaSPDY/issues/128",
  "id": 131199611,
  "user": {
    "login": "niw",
    "id": 13096,
    "avatar_url": "https://avatars.githubusercontent.com/u/13096?v=3",
    "gravatar_id": "",
    "url": "https://api.github.com/users/niw",
    "html_url": "https://github.com/niw",
    "followers_url": "https://api.github.com/users/niw/followers",
    "following_url": "https://api.github.com/users/niw/following{/other_user}",
    "gists_url": "https://api.github.com/users/niw/gists{/gist_id}",
    "starred_url": "https://api.github.com/users/niw/starred{/owner}{/repo}",
    "subscriptions_url": "https://api.github.com/users/niw/subscriptions",
    "organizations_url": "https://api.github.com/users/niw/orgs",
    "repos_url": "https://api.github.com/users/niw/repos",
    "events_url": "https://api.github.com/users/niw/events{/privacy}",
    "received_events_url": "https://api.github.com/users/niw/received_events",
    "type": "User",
    "site_admin": false
  },
  "created_at": "2015-08-14T18:16:48Z",
  "updated_at": "2015-08-14T18:16:48Z",
  "body": "+1"
}
, {
  "url": "https://api.github.com/repos/twitter/CocoaSPDY/issues/comments/131199850",
  "html_url": "https://github.com/twitter/CocoaSPDY/pull/128#issuecomment-131199850",
  "issue_url": "https://api.github.com/repos/twitter/CocoaSPDY/issues/128",
  "id": 131199850,
  "user": {
    "login": "johnkdoe",
    "id": 1656737,
    "avatar_url": "https://avatars.githubusercontent.com/u/1656737?v=3",
    "gravatar_id": "",
    "url": "https://api.github.com/users/johnkdoe",
    "html_url": "https://github.com/johnkdoe",
    "followers_url": "https://api.github.com/users/johnkdoe/followers",
    "following_url": "https://api.github.com/users/johnkdoe/following{/other_user}",
    "gists_url": "https://api.github.com/users/johnkdoe/gists{/gist_id}",
    "starred_url": "https://api.github.com/users/johnkdoe/starred{/owner}{/repo}",
    "subscriptions_url": "https://api.github.com/users/johnkdoe/subscriptions",
    "organizations_url": "https://api.github.com/users/johnkdoe/orgs",
    "repos_url": "https://api.github.com/users/johnkdoe/repos",
    "events_url": "https://api.github.com/users/johnkdoe/events{/privacy}",
    "received_events_url": "https://api.github.com/users/johnkdoe/received_events",
    "type": "User",
    "site_admin": false
  },
  "created_at": "2015-08-14T18:18:03Z",
  "updated_at": "2015-08-14T18:18:03Z",
  "body": "+2"
}
]
