[
{
  "url": "https://api.github.com/repos/cesanta/fossa/issues/comments/97163550",
  "html_url": "https://github.com/cesanta/fossa/issues/289#issuecomment-97163550",
  "issue_url": "https://api.github.com/repos/cesanta/fossa/issues/289",
  "id": 97163550,
  "user": {
    "login": "cpq",
    "id": 601816,
    "avatar_url": "https://avatars.githubusercontent.com/u/601816?v=3",
    "gravatar_id": "",
    "url": "https://api.github.com/users/cpq",
    "html_url": "https://github.com/cpq",
    "followers_url": "https://api.github.com/users/cpq/followers",
    "following_url": "https://api.github.com/users/cpq/following{/other_user}",
    "gists_url": "https://api.github.com/users/cpq/gists{/gist_id}",
    "starred_url": "https://api.github.com/users/cpq/starred{/owner}{/repo}",
    "subscriptions_url": "https://api.github.com/users/cpq/subscriptions",
    "organizations_url": "https://api.github.com/users/cpq/orgs",
    "repos_url": "https://api.github.com/users/cpq/repos",
    "events_url": "https://api.github.com/users/cpq/events{/privacy}",
    "received_events_url": "https://api.github.com/users/cpq/received_events",
    "type": "User",
    "site_admin": false
  },
  "created_at": "2015-04-28T18:30:12Z",
  "updated_at": "2015-04-28T18:30:12Z",
  "body": "Fixed.\r\nhttp://cesanta.com/docs/fossa/#_ns_connect_http\r\n\r\n"
}
]
