[
{
  "url": "https://api.github.com/repos/chef/knife-windows/issues/comments/175093463",
  "html_url": "https://github.com/chef/knife-windows/issues/339#issuecomment-175093463",
  "issue_url": "https://api.github.com/repos/chef/knife-windows/issues/339",
  "id": 175093463,
  "user": {
    "login": "mwrock",
    "id": 655165,
    "avatar_url": "https://avatars.githubusercontent.com/u/655165?v=3",
    "gravatar_id": "",
    "url": "https://api.github.com/users/mwrock",
    "html_url": "https://github.com/mwrock",
    "followers_url": "https://api.github.com/users/mwrock/followers",
    "following_url": "https://api.github.com/users/mwrock/following{/other_user}",
    "gists_url": "https://api.github.com/users/mwrock/gists{/gist_id}",
    "starred_url": "https://api.github.com/users/mwrock/starred{/owner}{/repo}",
    "subscriptions_url": "https://api.github.com/users/mwrock/subscriptions",
    "organizations_url": "https://api.github.com/users/mwrock/orgs",
    "repos_url": "https://api.github.com/users/mwrock/repos",
    "events_url": "https://api.github.com/users/mwrock/events{/privacy}",
    "received_events_url": "https://api.github.com/users/mwrock/received_events",
    "type": "User",
    "site_admin": false
  },
  "created_at": "2016-01-26T16:06:55Z",
  "updated_at": "2016-01-26T16:06:55Z",
  "body": "would I be correct to assume the workstation is not a windows machine? If so, knife-windows 1.1.x cannot use the same auth protocol on linux/mac and it instead uses basic auth which requires some special config on the node. knife-windows 1.2 released just yesterday addresses this. Your best option is to `gem install` that."
}
, {
  "url": "https://api.github.com/repos/chef/knife-windows/issues/comments/175495515",
  "html_url": "https://github.com/chef/knife-windows/issues/339#issuecomment-175495515",
  "issue_url": "https://api.github.com/repos/chef/knife-windows/issues/339",
  "id": 175495515,
  "user": {
    "login": "mlckha",
    "id": 4509437,
    "avatar_url": "https://avatars.githubusercontent.com/u/4509437?v=3",
    "gravatar_id": "",
    "url": "https://api.github.com/users/mlckha",
    "html_url": "https://github.com/mlckha",
    "followers_url": "https://api.github.com/users/mlckha/followers",
    "following_url": "https://api.github.com/users/mlckha/following{/other_user}",
    "gists_url": "https://api.github.com/users/mlckha/gists{/gist_id}",
    "starred_url": "https://api.github.com/users/mlckha/starred{/owner}{/repo}",
    "subscriptions_url": "https://api.github.com/users/mlckha/subscriptions",
    "organizations_url": "https://api.github.com/users/mlckha/orgs",
    "repos_url": "https://api.github.com/users/mlckha/repos",
    "events_url": "https://api.github.com/users/mlckha/events{/privacy}",
    "received_events_url": "https://api.github.com/users/mlckha/received_events",
    "type": "User",
    "site_admin": false
  },
  "created_at": "2016-01-27T09:02:30Z",
  "updated_at": "2016-01-27T09:29:39Z",
  "body": "Hi,\r\nIndeed, my workstration in a RHEL 7.\r\nI have updated the knife-windows tools in 1.2 but i have always the same authenticate error.\r\n\r\nBelow, my Winrm configuration on my windows 2008R2 node:\r\n![sans titre](https://cloud.githubusercontent.com/assets/4509437/12608548/0023378a-c4dd-11e5-9cf8-697c7d7ff1ee.png)\r\n\r\nBelow my error on my chef workstation;\r\n\r\n\r\n![t](https://cloud.githubusercontent.com/assets/4509437/12609233/de2511cc-c4e0-11e5-8a48-5539c9d6b114.png)\r\n\r\n\r\nThan'ks for your help :)\r\nHave a nice day,\r\nFlorent"
}
, {
  "url": "https://api.github.com/repos/chef/knife-windows/issues/comments/175901544",
  "html_url": "https://github.com/chef/knife-windows/issues/339#issuecomment-175901544",
  "issue_url": "https://api.github.com/repos/chef/knife-windows/issues/339",
  "id": 175901544,
  "user": {
    "login": "mwrock",
    "id": 655165,
    "avatar_url": "https://avatars.githubusercontent.com/u/655165?v=3",
    "gravatar_id": "",
    "url": "https://api.github.com/users/mwrock",
    "html_url": "https://github.com/mwrock",
    "followers_url": "https://api.github.com/users/mwrock/followers",
    "following_url": "https://api.github.com/users/mwrock/following{/other_user}",
    "gists_url": "https://api.github.com/users/mwrock/gists{/gist_id}",
    "starred_url": "https://api.github.com/users/mwrock/starred{/owner}{/repo}",
    "subscriptions_url": "https://api.github.com/users/mwrock/subscriptions",
    "organizations_url": "https://api.github.com/users/mwrock/orgs",
    "repos_url": "https://api.github.com/users/mwrock/repos",
    "events_url": "https://api.github.com/users/mwrock/events{/privacy}",
    "received_events_url": "https://api.github.com/users/mwrock/received_events",
    "type": "User",
    "site_admin": false
  },
  "created_at": "2016-01-27T22:53:43Z",
  "updated_at": "2016-01-27T22:53:43Z",
  "body": "here is another thing to try. It could be that knife-windows 1.2.0 is not actually running above. Try running `chef gem install knife-windows` prefixing with `chef` is the and that may ensure that the gem is installed in the correct place. Then give this another shot."
}
, {
  "url": "https://api.github.com/repos/chef/knife-windows/issues/comments/176044554",
  "html_url": "https://github.com/chef/knife-windows/issues/339#issuecomment-176044554",
  "issue_url": "https://api.github.com/repos/chef/knife-windows/issues/339",
  "id": 176044554,
  "user": {
    "login": "mlckha",
    "id": 4509437,
    "avatar_url": "https://avatars.githubusercontent.com/u/4509437?v=3",
    "gravatar_id": "",
    "url": "https://api.github.com/users/mlckha",
    "html_url": "https://github.com/mlckha",
    "followers_url": "https://api.github.com/users/mlckha/followers",
    "following_url": "https://api.github.com/users/mlckha/following{/other_user}",
    "gists_url": "https://api.github.com/users/mlckha/gists{/gist_id}",
    "starred_url": "https://api.github.com/users/mlckha/starred{/owner}{/repo}",
    "subscriptions_url": "https://api.github.com/users/mlckha/subscriptions",
    "organizations_url": "https://api.github.com/users/mlckha/orgs",
    "repos_url": "https://api.github.com/users/mlckha/repos",
    "events_url": "https://api.github.com/users/mlckha/events{/privacy}",
    "received_events_url": "https://api.github.com/users/mlckha/received_events",
    "type": "User",
    "site_admin": false
  },
  "created_at": "2016-01-28T08:02:46Z",
  "updated_at": "2016-01-28T09:19:36Z",
  "body": "I have a new error due to the upgrade :\r\n\r\n![z](https://cloud.githubusercontent.com/assets/4509437/12640127/9fb1a5a4-c5a8-11e5-9cc2-d0f037c75828.png)\r\n\r\n\r\n"
}
, {
  "url": "https://api.github.com/repos/chef/knife-windows/issues/comments/176203878",
  "html_url": "https://github.com/chef/knife-windows/issues/339#issuecomment-176203878",
  "issue_url": "https://api.github.com/repos/chef/knife-windows/issues/339",
  "id": 176203878,
  "user": {
    "login": "mwrock",
    "id": 655165,
    "avatar_url": "https://avatars.githubusercontent.com/u/655165?v=3",
    "gravatar_id": "",
    "url": "https://api.github.com/users/mwrock",
    "html_url": "https://github.com/mwrock",
    "followers_url": "https://api.github.com/users/mwrock/followers",
    "following_url": "https://api.github.com/users/mwrock/following{/other_user}",
    "gists_url": "https://api.github.com/users/mwrock/gists{/gist_id}",
    "starred_url": "https://api.github.com/users/mwrock/starred{/owner}{/repo}",
    "subscriptions_url": "https://api.github.com/users/mwrock/subscriptions",
    "organizations_url": "https://api.github.com/users/mwrock/orgs",
    "repos_url": "https://api.github.com/users/mwrock/repos",
    "events_url": "https://api.github.com/users/mwrock/events{/privacy}",
    "received_events_url": "https://api.github.com/users/mwrock/received_events",
    "type": "User",
    "site_admin": false
  },
  "created_at": "2016-01-28T14:19:02Z",
  "updated_at": "2016-01-28T14:19:02Z",
  "body": "Hmm. I'm guessing this is another issue with your proxy. Its making the initial winrm and trying to initiate the authentication handshake but the HTTP headers are missing auth headers. Are you setting the `HTTP_PROXY` environment variable with your proxy info?"
}
, {
  "url": "https://api.github.com/repos/chef/knife-windows/issues/comments/176209579",
  "html_url": "https://github.com/chef/knife-windows/issues/339#issuecomment-176209579",
  "issue_url": "https://api.github.com/repos/chef/knife-windows/issues/339",
  "id": 176209579,
  "user": {
    "login": "mlckha",
    "id": 4509437,
    "avatar_url": "https://avatars.githubusercontent.com/u/4509437?v=3",
    "gravatar_id": "",
    "url": "https://api.github.com/users/mlckha",
    "html_url": "https://github.com/mlckha",
    "followers_url": "https://api.github.com/users/mlckha/followers",
    "following_url": "https://api.github.com/users/mlckha/following{/other_user}",
    "gists_url": "https://api.github.com/users/mlckha/gists{/gist_id}",
    "starred_url": "https://api.github.com/users/mlckha/starred{/owner}{/repo}",
    "subscriptions_url": "https://api.github.com/users/mlckha/subscriptions",
    "organizations_url": "https://api.github.com/users/mlckha/orgs",
    "repos_url": "https://api.github.com/users/mlckha/repos",
    "events_url": "https://api.github.com/users/mlckha/events{/privacy}",
    "received_events_url": "https://api.github.com/users/mlckha/received_events",
    "type": "User",
    "site_admin": false
  },
  "created_at": "2016-01-28T14:32:12Z",
  "updated_at": "2016-01-28T14:32:12Z",
  "body": "Yes indeed, i have kick this proxy of my configuration ! :)"
}
, {
  "url": "https://api.github.com/repos/chef/knife-windows/issues/comments/176226480",
  "html_url": "https://github.com/chef/knife-windows/issues/339#issuecomment-176226480",
  "issue_url": "https://api.github.com/repos/chef/knife-windows/issues/339",
  "id": 176226480,
  "user": {
    "login": "mwrock",
    "id": 655165,
    "avatar_url": "https://avatars.githubusercontent.com/u/655165?v=3",
    "gravatar_id": "",
    "url": "https://api.github.com/users/mwrock",
    "html_url": "https://github.com/mwrock",
    "followers_url": "https://api.github.com/users/mwrock/followers",
    "following_url": "https://api.github.com/users/mwrock/following{/other_user}",
    "gists_url": "https://api.github.com/users/mwrock/gists{/gist_id}",
    "starred_url": "https://api.github.com/users/mwrock/starred{/owner}{/repo}",
    "subscriptions_url": "https://api.github.com/users/mwrock/subscriptions",
    "organizations_url": "https://api.github.com/users/mwrock/orgs",
    "repos_url": "https://api.github.com/users/mwrock/repos",
    "events_url": "https://api.github.com/users/mwrock/events{/privacy}",
    "received_events_url": "https://api.github.com/users/mwrock/received_events",
    "type": "User",
    "site_admin": false
  },
  "created_at": "2016-01-28T15:02:21Z",
  "updated_at": "2016-01-28T15:02:21Z",
  "body": "ok. its possible that negotiate as implemented here has problems with proxy. will need to investigate that further. In the meantime you could try basic auth or SSL."
}
, {
  "url": "https://api.github.com/repos/chef/knife-windows/issues/comments/176244711",
  "html_url": "https://github.com/chef/knife-windows/issues/339#issuecomment-176244711",
  "issue_url": "https://api.github.com/repos/chef/knife-windows/issues/339",
  "id": 176244711,
  "user": {
    "login": "mlckha",
    "id": 4509437,
    "avatar_url": "https://avatars.githubusercontent.com/u/4509437?v=3",
    "gravatar_id": "",
    "url": "https://api.github.com/users/mlckha",
    "html_url": "https://github.com/mlckha",
    "followers_url": "https://api.github.com/users/mlckha/followers",
    "following_url": "https://api.github.com/users/mlckha/following{/other_user}",
    "gists_url": "https://api.github.com/users/mlckha/gists{/gist_id}",
    "starred_url": "https://api.github.com/users/mlckha/starred{/owner}{/repo}",
    "subscriptions_url": "https://api.github.com/users/mlckha/subscriptions",
    "organizations_url": "https://api.github.com/users/mlckha/orgs",
    "repos_url": "https://api.github.com/users/mlckha/repos",
    "events_url": "https://api.github.com/users/mlckha/events{/privacy}",
    "received_events_url": "https://api.github.com/users/mlckha/received_events",
    "type": "User",
    "site_admin": false
  },
  "created_at": "2016-01-28T15:51:58Z",
  "updated_at": "2016-01-28T15:58:56Z",
  "body": "I try to bootstrap with local account, i have this error:\r\n![sans titre](https://cloud.githubusercontent.com/assets/4509437/12649552/5935fc4c-c5df-11e5-80f5-300b7fbb73ba.png)\r\nMaybe i can't use winrm on 5985 ?\r\n\r\nBelow my knife.rb:\r\n\r\n![a](https://cloud.githubusercontent.com/assets/4509437/12649804/658c3faa-c5e0-11e5-83e9-5ed0189efcf6.png)\r\n\r\nThank's a lot for help me :+1: \r\nHave a nice day :)\r\n"
}
, {
  "url": "https://api.github.com/repos/chef/knife-windows/issues/comments/176358827",
  "html_url": "https://github.com/chef/knife-windows/issues/339#issuecomment-176358827",
  "issue_url": "https://api.github.com/repos/chef/knife-windows/issues/339",
  "id": 176358827,
  "user": {
    "login": "mwrock",
    "id": 655165,
    "avatar_url": "https://avatars.githubusercontent.com/u/655165?v=3",
    "gravatar_id": "",
    "url": "https://api.github.com/users/mwrock",
    "html_url": "https://github.com/mwrock",
    "followers_url": "https://api.github.com/users/mwrock/followers",
    "following_url": "https://api.github.com/users/mwrock/following{/other_user}",
    "gists_url": "https://api.github.com/users/mwrock/gists{/gist_id}",
    "starred_url": "https://api.github.com/users/mwrock/starred{/owner}{/repo}",
    "subscriptions_url": "https://api.github.com/users/mwrock/subscriptions",
    "organizations_url": "https://api.github.com/users/mwrock/orgs",
    "repos_url": "https://api.github.com/users/mwrock/repos",
    "events_url": "https://api.github.com/users/mwrock/events{/privacy}",
    "received_events_url": "https://api.github.com/users/mwrock/received_events",
    "type": "User",
    "site_admin": false
  },
  "created_at": "2016-01-28T19:32:38Z",
  "updated_at": "2016-01-28T19:32:38Z",
  "body": "Ah. Validatorless bootstrap is not permitted with basic auth. You will need to do this via SSL."
}
, {
  "url": "https://api.github.com/repos/chef/knife-windows/issues/comments/176365444",
  "html_url": "https://github.com/chef/knife-windows/issues/339#issuecomment-176365444",
  "issue_url": "https://api.github.com/repos/chef/knife-windows/issues/339",
  "id": 176365444,
  "user": {
    "login": "mlckha",
    "id": 4509437,
    "avatar_url": "https://avatars.githubusercontent.com/u/4509437?v=3",
    "gravatar_id": "",
    "url": "https://api.github.com/users/mlckha",
    "html_url": "https://github.com/mlckha",
    "followers_url": "https://api.github.com/users/mlckha/followers",
    "following_url": "https://api.github.com/users/mlckha/following{/other_user}",
    "gists_url": "https://api.github.com/users/mlckha/gists{/gist_id}",
    "starred_url": "https://api.github.com/users/mlckha/starred{/owner}{/repo}",
    "subscriptions_url": "https://api.github.com/users/mlckha/subscriptions",
    "organizations_url": "https://api.github.com/users/mlckha/orgs",
    "repos_url": "https://api.github.com/users/mlckha/repos",
    "events_url": "https://api.github.com/users/mlckha/events{/privacy}",
    "received_events_url": "https://api.github.com/users/mlckha/received_events",
    "type": "User",
    "site_admin": false
  },
  "created_at": "2016-01-28T19:40:08Z",
  "updated_at": "2016-01-28T19:40:08Z",
  "body": "Where i can permit this auth ? via Chef-server ou chef workstation in knife.rb ?"
}
, {
  "url": "https://api.github.com/repos/chef/knife-windows/issues/comments/176476109",
  "html_url": "https://github.com/chef/knife-windows/issues/339#issuecomment-176476109",
  "issue_url": "https://api.github.com/repos/chef/knife-windows/issues/339",
  "id": 176476109,
  "user": {
    "login": "mwrock",
    "id": 655165,
    "avatar_url": "https://avatars.githubusercontent.com/u/655165?v=3",
    "gravatar_id": "",
    "url": "https://api.github.com/users/mwrock",
    "html_url": "https://github.com/mwrock",
    "followers_url": "https://api.github.com/users/mwrock/followers",
    "following_url": "https://api.github.com/users/mwrock/following{/other_user}",
    "gists_url": "https://api.github.com/users/mwrock/gists{/gist_id}",
    "starred_url": "https://api.github.com/users/mwrock/starred{/owner}{/repo}",
    "subscriptions_url": "https://api.github.com/users/mwrock/subscriptions",
    "organizations_url": "https://api.github.com/users/mwrock/orgs",
    "repos_url": "https://api.github.com/users/mwrock/repos",
    "events_url": "https://api.github.com/users/mwrock/events{/privacy}",
    "received_events_url": "https://api.github.com/users/mwrock/received_events",
    "type": "User",
    "site_admin": false
  },
  "created_at": "2016-01-28T23:16:09Z",
  "updated_at": "2016-01-28T23:16:09Z",
  "body": "A couple things here:\r\n\r\n1. I did validate (at least in my environment) that negotiate auth from a linux workstation is successful when routing through a proxy. So either there is a specific proxy setting or something entirely different at play here.\r\n2. For validator bootstrapping, you can download the validator .pem file from your chef server and then provide the path to that file in your knife.rb\r\n```\r\nvalidation_client_name   \"ment-validator\"\r\nvalidation_key           \"#{current_dir}/ment-validator.pem\"\r\n```\r\n"
}
]
