[
{
  "url": "https://api.github.com/repos/airbnb/kafkat/issues/comments/140230873",
  "html_url": "https://github.com/airbnb/kafkat/issues/8#issuecomment-140230873",
  "issue_url": "https://api.github.com/repos/airbnb/kafkat/issues/8",
  "id": 140230873,
  "user": {
    "login": "yurinnick",
    "id": 2941035,
    "avatar_url": "https://avatars.githubusercontent.com/u/2941035?v=3",
    "gravatar_id": "",
    "url": "https://api.github.com/users/yurinnick",
    "html_url": "https://github.com/yurinnick",
    "followers_url": "https://api.github.com/users/yurinnick/followers",
    "following_url": "https://api.github.com/users/yurinnick/following{/other_user}",
    "gists_url": "https://api.github.com/users/yurinnick/gists{/gist_id}",
    "starred_url": "https://api.github.com/users/yurinnick/starred{/owner}{/repo}",
    "subscriptions_url": "https://api.github.com/users/yurinnick/subscriptions",
    "organizations_url": "https://api.github.com/users/yurinnick/orgs",
    "repos_url": "https://api.github.com/users/yurinnick/repos",
    "events_url": "https://api.github.com/users/yurinnick/events{/privacy}",
    "received_events_url": "https://api.github.com/users/yurinnick/received_events",
    "type": "User",
    "site_admin": false
  },
  "created_at": "2015-09-14T23:16:07Z",
  "updated_at": "2015-09-14T23:16:07Z",
  "body": "Fixed by specifying correct JAVA_HOME to JDK 1.7 "
}
]
