[
{
  "login": "ladyada",
  "id": 1214161,
  "avatar_url": "https://avatars.githubusercontent.com/u/1214161?v=3",
  "gravatar_id": "",
  "url": "https://api.github.com/users/ladyada",
  "html_url": "https://github.com/ladyada",
  "followers_url": "https://api.github.com/users/ladyada/followers",
  "following_url": "https://api.github.com/users/ladyada/following{/other_user}",
  "gists_url": "https://api.github.com/users/ladyada/gists{/gist_id}",
  "starred_url": "https://api.github.com/users/ladyada/starred{/owner}{/repo}",
  "subscriptions_url": "https://api.github.com/users/ladyada/subscriptions",
  "organizations_url": "https://api.github.com/users/ladyada/orgs",
  "repos_url": "https://api.github.com/users/ladyada/repos",
  "events_url": "https://api.github.com/users/ladyada/events{/privacy}",
  "received_events_url": "https://api.github.com/users/ladyada/received_events",
  "type": "User",
  "site_admin": false,
  "contributions": 10
}
, {
  "login": "toddtreece",
  "id": 360020,
  "avatar_url": "https://avatars.githubusercontent.com/u/360020?v=3",
  "gravatar_id": "",
  "url": "https://api.github.com/users/toddtreece",
  "html_url": "https://github.com/toddtreece",
  "followers_url": "https://api.github.com/users/toddtreece/followers",
  "following_url": "https://api.github.com/users/toddtreece/following{/other_user}",
  "gists_url": "https://api.github.com/users/toddtreece/gists{/gist_id}",
  "starred_url": "https://api.github.com/users/toddtreece/starred{/owner}{/repo}",
  "subscriptions_url": "https://api.github.com/users/toddtreece/subscriptions",
  "organizations_url": "https://api.github.com/users/toddtreece/orgs",
  "repos_url": "https://api.github.com/users/toddtreece/repos",
  "events_url": "https://api.github.com/users/toddtreece/events{/privacy}",
  "received_events_url": "https://api.github.com/users/toddtreece/received_events",
  "type": "User",
  "site_admin": false,
  "contributions": 4
}
, {
  "login": "FlorinAndrei",
  "id": 901867,
  "avatar_url": "https://avatars.githubusercontent.com/u/901867?v=3",
  "gravatar_id": "",
  "url": "https://api.github.com/users/FlorinAndrei",
  "html_url": "https://github.com/FlorinAndrei",
  "followers_url": "https://api.github.com/users/FlorinAndrei/followers",
  "following_url": "https://api.github.com/users/FlorinAndrei/following{/other_user}",
  "gists_url": "https://api.github.com/users/FlorinAndrei/gists{/gist_id}",
  "starred_url": "https://api.github.com/users/FlorinAndrei/starred{/owner}{/repo}",
  "subscriptions_url": "https://api.github.com/users/FlorinAndrei/subscriptions",
  "organizations_url": "https://api.github.com/users/FlorinAndrei/orgs",
  "repos_url": "https://api.github.com/users/FlorinAndrei/repos",
  "events_url": "https://api.github.com/users/FlorinAndrei/events{/privacy}",
  "received_events_url": "https://api.github.com/users/FlorinAndrei/received_events",
  "type": "User",
  "site_admin": false,
  "contributions": 1
}
, {
  "login": "ddean",
  "id": 775798,
  "avatar_url": "https://avatars.githubusercontent.com/u/775798?v=3",
  "gravatar_id": "",
  "url": "https://api.github.com/users/ddean",
  "html_url": "https://github.com/ddean",
  "followers_url": "https://api.github.com/users/ddean/followers",
  "following_url": "https://api.github.com/users/ddean/following{/other_user}",
  "gists_url": "https://api.github.com/users/ddean/gists{/gist_id}",
  "starred_url": "https://api.github.com/users/ddean/starred{/owner}{/repo}",
  "subscriptions_url": "https://api.github.com/users/ddean/subscriptions",
  "organizations_url": "https://api.github.com/users/ddean/orgs",
  "repos_url": "https://api.github.com/users/ddean/repos",
  "events_url": "https://api.github.com/users/ddean/events{/privacy}",
  "received_events_url": "https://api.github.com/users/ddean/received_events",
  "type": "User",
  "site_admin": false,
  "contributions": 1
}
, {
  "login": "tdicola",
  "id": 1332183,
  "avatar_url": "https://avatars.githubusercontent.com/u/1332183?v=3",
  "gravatar_id": "",
  "url": "https://api.github.com/users/tdicola",
  "html_url": "https://github.com/tdicola",
  "followers_url": "https://api.github.com/users/tdicola/followers",
  "following_url": "https://api.github.com/users/tdicola/following{/other_user}",
  "gists_url": "https://api.github.com/users/tdicola/gists{/gist_id}",
  "starred_url": "https://api.github.com/users/tdicola/starred{/owner}{/repo}",
  "subscriptions_url": "https://api.github.com/users/tdicola/subscriptions",
  "organizations_url": "https://api.github.com/users/tdicola/orgs",
  "repos_url": "https://api.github.com/users/tdicola/repos",
  "events_url": "https://api.github.com/users/tdicola/events{/privacy}",
  "received_events_url": "https://api.github.com/users/tdicola/received_events",
  "type": "User",
  "site_admin": false,
  "contributions": 1
}
, {
  "login": "driverblock",
  "id": 1778691,
  "avatar_url": "https://avatars.githubusercontent.com/u/1778691?v=3",
  "gravatar_id": "",
  "url": "https://api.github.com/users/driverblock",
  "html_url": "https://github.com/driverblock",
  "followers_url": "https://api.github.com/users/driverblock/followers",
  "following_url": "https://api.github.com/users/driverblock/following{/other_user}",
  "gists_url": "https://api.github.com/users/driverblock/gists{/gist_id}",
  "starred_url": "https://api.github.com/users/driverblock/starred{/owner}{/repo}",
  "subscriptions_url": "https://api.github.com/users/driverblock/subscriptions",
  "organizations_url": "https://api.github.com/users/driverblock/orgs",
  "repos_url": "https://api.github.com/users/driverblock/repos",
  "events_url": "https://api.github.com/users/driverblock/events{/privacy}",
  "received_events_url": "https://api.github.com/users/driverblock/received_events",
  "type": "User",
  "site_admin": false,
  "contributions": 1
}
]
