[
{
  "url": "https://api.github.com/repos/Microsoft/OMS-Agent-for-Linux/issues/comments/170614766",
  "html_url": "https://github.com/Microsoft/OMS-Agent-for-Linux/pull/7#issuecomment-170614766",
  "issue_url": "https://api.github.com/repos/Microsoft/OMS-Agent-for-Linux/issues/7",
  "id": 170614766,
  "user": {
    "login": "jeffaco",
    "id": 13700943,
    "avatar_url": "https://avatars.githubusercontent.com/u/13700943?v=3",
    "gravatar_id": "",
    "url": "https://api.github.com/users/jeffaco",
    "html_url": "https://github.com/jeffaco",
    "followers_url": "https://api.github.com/users/jeffaco/followers",
    "following_url": "https://api.github.com/users/jeffaco/following{/other_user}",
    "gists_url": "https://api.github.com/users/jeffaco/gists{/gist_id}",
    "starred_url": "https://api.github.com/users/jeffaco/starred{/owner}{/repo}",
    "subscriptions_url": "https://api.github.com/users/jeffaco/subscriptions",
    "organizations_url": "https://api.github.com/users/jeffaco/orgs",
    "repos_url": "https://api.github.com/users/jeffaco/repos",
    "events_url": "https://api.github.com/users/jeffaco/events{/privacy}",
    "received_events_url": "https://api.github.com/users/jeffaco/received_events",
    "type": "User",
    "site_admin": false
  },
  "created_at": "2016-01-11T16:49:37Z",
  "updated_at": "2016-01-11T16:49:37Z",
  "body": "Approved by Anurag at my desk."
}
]
