[
{
  "url": "https://api.github.com/repos/Microsoft/poshtools/issues/comments/78394854",
  "html_url": "https://github.com/Microsoft/poshtools/issues/138#issuecomment-78394854",
  "issue_url": "https://api.github.com/repos/Microsoft/poshtools/issues/138",
  "id": 78394854,
  "user": {
    "login": "HuanhuanSunMSFT",
    "id": 10081208,
    "avatar_url": "https://avatars.githubusercontent.com/u/10081208?v=3",
    "gravatar_id": "",
    "url": "https://api.github.com/users/HuanhuanSunMSFT",
    "html_url": "https://github.com/HuanhuanSunMSFT",
    "followers_url": "https://api.github.com/users/HuanhuanSunMSFT/followers",
    "following_url": "https://api.github.com/users/HuanhuanSunMSFT/following{/other_user}",
    "gists_url": "https://api.github.com/users/HuanhuanSunMSFT/gists{/gist_id}",
    "starred_url": "https://api.github.com/users/HuanhuanSunMSFT/starred{/owner}{/repo}",
    "subscriptions_url": "https://api.github.com/users/HuanhuanSunMSFT/subscriptions",
    "organizations_url": "https://api.github.com/users/HuanhuanSunMSFT/orgs",
    "repos_url": "https://api.github.com/users/HuanhuanSunMSFT/repos",
    "events_url": "https://api.github.com/users/HuanhuanSunMSFT/events{/privacy}",
    "received_events_url": "https://api.github.com/users/HuanhuanSunMSFT/received_events",
    "type": "User",
    "site_admin": false
  },
  "created_at": "2015-03-11T23:25:08Z",
  "updated_at": "2015-03-11T23:50:29Z",
  "body": "It's an issue of Intellisense, not relevant to brace matching. Wherever Intellisense is triggered for path, it will delete the character just in front of it and add another double quote. This annoying bug will be my next target :8ball: "
}
]
