[
{
  "login": "SergioBertolinSG",
  "id": 9048796,
  "avatar_url": "https://avatars.githubusercontent.com/u/9048796?v=3",
  "gravatar_id": "",
  "url": "https://api.github.com/users/SergioBertolinSG",
  "html_url": "https://github.com/SergioBertolinSG",
  "followers_url": "https://api.github.com/users/SergioBertolinSG/followers",
  "following_url": "https://api.github.com/users/SergioBertolinSG/following{/other_user}",
  "gists_url": "https://api.github.com/users/SergioBertolinSG/gists{/gist_id}",
  "starred_url": "https://api.github.com/users/SergioBertolinSG/starred{/owner}{/repo}",
  "subscriptions_url": "https://api.github.com/users/SergioBertolinSG/subscriptions",
  "organizations_url": "https://api.github.com/users/SergioBertolinSG/orgs",
  "repos_url": "https://api.github.com/users/SergioBertolinSG/repos",
  "events_url": "https://api.github.com/users/SergioBertolinSG/events{/privacy}",
  "received_events_url": "https://api.github.com/users/SergioBertolinSG/received_events",
  "type": "User",
  "site_admin": false,
  "contributions": 40
}
, {
  "login": "karlitschek",
  "id": 867445,
  "avatar_url": "https://avatars.githubusercontent.com/u/867445?v=3",
  "gravatar_id": "",
  "url": "https://api.github.com/users/karlitschek",
  "html_url": "https://github.com/karlitschek",
  "followers_url": "https://api.github.com/users/karlitschek/followers",
  "following_url": "https://api.github.com/users/karlitschek/following{/other_user}",
  "gists_url": "https://api.github.com/users/karlitschek/gists{/gist_id}",
  "starred_url": "https://api.github.com/users/karlitschek/starred{/owner}{/repo}",
  "subscriptions_url": "https://api.github.com/users/karlitschek/subscriptions",
  "organizations_url": "https://api.github.com/users/karlitschek/orgs",
  "repos_url": "https://api.github.com/users/karlitschek/repos",
  "events_url": "https://api.github.com/users/karlitschek/events{/privacy}",
  "received_events_url": "https://api.github.com/users/karlitschek/received_events",
  "type": "User",
  "site_admin": false,
  "contributions": 1
}
]
