[
{
  "url": "https://api.github.com/repos/google/quiver-dart/issues/comments/23360384",
  "html_url": "https://github.com/google/quiver-dart/pull/13#issuecomment-23360384",
  "issue_url": "https://api.github.com/repos/google/quiver-dart/issues/13",
  "id": 23360384,
  "user": {
    "login": "justinfagnani",
    "id": 522948,
    "avatar_url": "https://avatars.githubusercontent.com/u/522948?v=3",
    "gravatar_id": "",
    "url": "https://api.github.com/users/justinfagnani",
    "html_url": "https://github.com/justinfagnani",
    "followers_url": "https://api.github.com/users/justinfagnani/followers",
    "following_url": "https://api.github.com/users/justinfagnani/following{/other_user}",
    "gists_url": "https://api.github.com/users/justinfagnani/gists{/gist_id}",
    "starred_url": "https://api.github.com/users/justinfagnani/starred{/owner}{/repo}",
    "subscriptions_url": "https://api.github.com/users/justinfagnani/subscriptions",
    "organizations_url": "https://api.github.com/users/justinfagnani/orgs",
    "repos_url": "https://api.github.com/users/justinfagnani/repos",
    "events_url": "https://api.github.com/users/justinfagnani/events{/privacy}",
    "received_events_url": "https://api.github.com/users/justinfagnani/received_events",
    "type": "User",
    "site_admin": false
  },
  "created_at": "2013-08-27T18:42:51Z",
  "updated_at": "2013-08-27T18:42:51Z",
  "body": "lgtm"
}
]
