[
{
  "url": "https://api.github.com/repos/docker/libnetwork/issues/comments/168041723",
  "html_url": "https://github.com/docker/libnetwork/issues/847#issuecomment-168041723",
  "issue_url": "https://api.github.com/repos/docker/libnetwork/issues/847",
  "id": 168041723,
  "user": {
    "login": "mavenugo",
    "id": 5056191,
    "avatar_url": "https://avatars.githubusercontent.com/u/5056191?v=3",
    "gravatar_id": "",
    "url": "https://api.github.com/users/mavenugo",
    "html_url": "https://github.com/mavenugo",
    "followers_url": "https://api.github.com/users/mavenugo/followers",
    "following_url": "https://api.github.com/users/mavenugo/following{/other_user}",
    "gists_url": "https://api.github.com/users/mavenugo/gists{/gist_id}",
    "starred_url": "https://api.github.com/users/mavenugo/starred{/owner}{/repo}",
    "subscriptions_url": "https://api.github.com/users/mavenugo/subscriptions",
    "organizations_url": "https://api.github.com/users/mavenugo/orgs",
    "repos_url": "https://api.github.com/users/mavenugo/repos",
    "events_url": "https://api.github.com/users/mavenugo/events{/privacy}",
    "received_events_url": "https://api.github.com/users/mavenugo/received_events",
    "type": "User",
    "site_admin": false
  },
  "created_at": "2015-12-30T17:36:54Z",
  "updated_at": "2015-12-30T17:36:54Z",
  "body": "AFAIK libkv currently doesn't support TLS for consul as the back-end store.\r\n@abronan can you please confirm ?"
}
, {
  "url": "https://api.github.com/repos/docker/libnetwork/issues/comments/168044172",
  "html_url": "https://github.com/docker/libnetwork/issues/847#issuecomment-168044172",
  "issue_url": "https://api.github.com/repos/docker/libnetwork/issues/847",
  "id": 168044172,
  "user": {
    "login": "savermyas",
    "id": 1475688,
    "avatar_url": "https://avatars.githubusercontent.com/u/1475688?v=3",
    "gravatar_id": "",
    "url": "https://api.github.com/users/savermyas",
    "html_url": "https://github.com/savermyas",
    "followers_url": "https://api.github.com/users/savermyas/followers",
    "following_url": "https://api.github.com/users/savermyas/following{/other_user}",
    "gists_url": "https://api.github.com/users/savermyas/gists{/gist_id}",
    "starred_url": "https://api.github.com/users/savermyas/starred{/owner}{/repo}",
    "subscriptions_url": "https://api.github.com/users/savermyas/subscriptions",
    "organizations_url": "https://api.github.com/users/savermyas/orgs",
    "repos_url": "https://api.github.com/users/savermyas/repos",
    "events_url": "https://api.github.com/users/savermyas/events{/privacy}",
    "received_events_url": "https://api.github.com/users/savermyas/received_events",
    "type": "User",
    "site_admin": false
  },
  "created_at": "2015-12-30T17:46:19Z",
  "updated_at": "2015-12-30T17:46:19Z",
  "body": "My fault.\r\nIt works with additional Docker Daemon parameters:\r\n\r\n    --cluster-store-opt kv.cacertfile\r\n    --cluster-store-opt kv.certfile\r\n    --cluster-store-opt kv.keyfile\r\n\r\n```\r\nsudo ./docker daemon \\\r\n    --debug \\\r\n    --tlsverify \\\r\n    --tlscacert=ssl/certs/swarm-ca.pem \\\r\n    --tlscert=ssl/certs/$certName.pem \\\r\n    --tlskey=ssl/keys/$certName-key.pem \\\r\n    --exec-root=data \\\r\n    --graph=data \\\r\n    -p data/docker.pid \\\r\n    --dns ${dnsServer} \\\r\n    --cluster-store=consul://${swarmManager}:${kvPort} \\\r\n    --cluster-advertise=${ipAddr}:2376 \\\r\n    --cluster-store-opt kv.cacertfile=ssl/certs/swarm-ca.pem \\\r\n    --cluster-store-opt kv.certfile=ssl/certs/$certName.pem \\\r\n    --cluster-store-opt kv.keyfile=ssl/keys/$certName-key.pem \\\r\n    -H=0.0.0.0:2376\r\n```"
}
]
