[
{
  "url": "https://api.github.com/repos/docker/libnetwork/issues/comments/98960983",
  "html_url": "https://github.com/docker/libnetwork/pull/116#issuecomment-98960983",
  "issue_url": "https://api.github.com/repos/docker/libnetwork/issues/116",
  "id": 98960983,
  "user": {
    "login": "mrjana",
    "id": 1693482,
    "avatar_url": "https://avatars.githubusercontent.com/u/1693482?v=3",
    "gravatar_id": "",
    "url": "https://api.github.com/users/mrjana",
    "html_url": "https://github.com/mrjana",
    "followers_url": "https://api.github.com/users/mrjana/followers",
    "following_url": "https://api.github.com/users/mrjana/following{/other_user}",
    "gists_url": "https://api.github.com/users/mrjana/gists{/gist_id}",
    "starred_url": "https://api.github.com/users/mrjana/starred{/owner}{/repo}",
    "subscriptions_url": "https://api.github.com/users/mrjana/subscriptions",
    "organizations_url": "https://api.github.com/users/mrjana/orgs",
    "repos_url": "https://api.github.com/users/mrjana/repos",
    "events_url": "https://api.github.com/users/mrjana/events{/privacy}",
    "received_events_url": "https://api.github.com/users/mrjana/received_events",
    "type": "User",
    "site_admin": false
  },
  "created_at": "2015-05-05T05:41:58Z",
  "updated_at": "2015-05-05T05:41:58Z",
  "body": "LGTM"
}
]
