[
{
  "url": "https://api.github.com/repos/hashicorp/terraform/issues/comments/159316126",
  "html_url": "https://github.com/hashicorp/terraform/issues/4040#issuecomment-159316126",
  "issue_url": "https://api.github.com/repos/hashicorp/terraform/issues/4040",
  "id": 159316126,
  "user": {
    "login": "phinze",
    "id": 37534,
    "avatar_url": "https://avatars.githubusercontent.com/u/37534?v=3",
    "gravatar_id": "",
    "url": "https://api.github.com/users/phinze",
    "html_url": "https://github.com/phinze",
    "followers_url": "https://api.github.com/users/phinze/followers",
    "following_url": "https://api.github.com/users/phinze/following{/other_user}",
    "gists_url": "https://api.github.com/users/phinze/gists{/gist_id}",
    "starred_url": "https://api.github.com/users/phinze/starred{/owner}{/repo}",
    "subscriptions_url": "https://api.github.com/users/phinze/subscriptions",
    "organizations_url": "https://api.github.com/users/phinze/orgs",
    "repos_url": "https://api.github.com/users/phinze/repos",
    "events_url": "https://api.github.com/users/phinze/events{/privacy}",
    "received_events_url": "https://api.github.com/users/phinze/received_events",
    "type": "User",
    "site_admin": false
  },
  "created_at": "2015-11-24T16:08:00Z",
  "updated_at": "2015-11-24T16:08:00Z",
  "body": "Yikes! It's one of Terraform's primary guarantees that the Apply does not take action that the Plan did not list.\r\n\r\nBased on the output you shared, I'm wondering if this might be Terraform's \"tainted resource\" behavior.\r\n\r\nWhen a resource fails to create for any reason, it's marked as \"tainted\" which means it needs to be cleaned up on a subsequent apply. This tainted resources is tracked alongside the \"primary\" resource, which is the one in service.\r\n\r\nThe reason I think this might be related to the behavior you saw is:\r\n\r\n * There are two `aws_autoscaling_group.consul: Refreshing state... (ID: simples.consul.dev.1)` lines, which correlates to a Primary / Tainted resource\r\n * Tainted resource destroys are not treated as a first class resource destruction, so they'd show the `Destroying...` output and not tick the summary counts.\r\n\r\nSo the question is: do you have another `simples.consul.dev.1` ASG present in your AWS environment? If so, the above describes exactly what happened. If not, we can investigate further!"
}
, {
  "url": "https://api.github.com/repos/hashicorp/terraform/issues/comments/159318661",
  "html_url": "https://github.com/hashicorp/terraform/issues/4040#issuecomment-159318661",
  "issue_url": "https://api.github.com/repos/hashicorp/terraform/issues/4040",
  "id": 159318661,
  "user": {
    "login": "antonosmond",
    "id": 6912740,
    "avatar_url": "https://avatars.githubusercontent.com/u/6912740?v=3",
    "gravatar_id": "",
    "url": "https://api.github.com/users/antonosmond",
    "html_url": "https://github.com/antonosmond",
    "followers_url": "https://api.github.com/users/antonosmond/followers",
    "following_url": "https://api.github.com/users/antonosmond/following{/other_user}",
    "gists_url": "https://api.github.com/users/antonosmond/gists{/gist_id}",
    "starred_url": "https://api.github.com/users/antonosmond/starred{/owner}{/repo}",
    "subscriptions_url": "https://api.github.com/users/antonosmond/subscriptions",
    "organizations_url": "https://api.github.com/users/antonosmond/orgs",
    "repos_url": "https://api.github.com/users/antonosmond/repos",
    "events_url": "https://api.github.com/users/antonosmond/events{/privacy}",
    "received_events_url": "https://api.github.com/users/antonosmond/received_events",
    "type": "User",
    "site_admin": false
  },
  "created_at": "2015-11-24T16:15:54Z",
  "updated_at": "2015-11-24T16:15:54Z",
  "body": "Unfortunately not. I had a single ASG in a practically empty AWS account. The ASG had been created successfully and I was using it (luckily only for development and not production).\r\nI ran the apply to update a security group and it seemed to be taking a while then I went back to my ASG instances and realised they'd been terminated and the ASG deleted. Initially I thought it may have been a colleague then I checked the output from the plan and apply and saw it'd destroyed the ASG. My setup in AWS is fairly complex so I guess it could have been caused by a particular combination of things. I've been using my configs this afternoon and not had any more issues, but I'll try and re-create and let you know if I can."
}
, {
  "url": "https://api.github.com/repos/hashicorp/terraform/issues/comments/159326984",
  "html_url": "https://github.com/hashicorp/terraform/issues/4040#issuecomment-159326984",
  "issue_url": "https://api.github.com/repos/hashicorp/terraform/issues/4040",
  "id": 159326984,
  "user": {
    "login": "phinze",
    "id": 37534,
    "avatar_url": "https://avatars.githubusercontent.com/u/37534?v=3",
    "gravatar_id": "",
    "url": "https://api.github.com/users/phinze",
    "html_url": "https://github.com/phinze",
    "followers_url": "https://api.github.com/users/phinze/followers",
    "following_url": "https://api.github.com/users/phinze/following{/other_user}",
    "gists_url": "https://api.github.com/users/phinze/gists{/gist_id}",
    "starred_url": "https://api.github.com/users/phinze/starred{/owner}{/repo}",
    "subscriptions_url": "https://api.github.com/users/phinze/subscriptions",
    "organizations_url": "https://api.github.com/users/phinze/orgs",
    "repos_url": "https://api.github.com/users/phinze/repos",
    "events_url": "https://api.github.com/users/phinze/events{/privacy}",
    "received_events_url": "https://api.github.com/users/phinze/received_events",
    "type": "User",
    "site_admin": false
  },
  "created_at": "2015-11-24T16:34:06Z",
  "updated_at": "2015-11-24T16:34:06Z",
  "body": "Okay, so sounds like something more serious than just the tainted resource processing.\r\n\r\nSo, the follow up plan believe that it needed to create the ASG?\r\n\r\nIf you are able to share the configs you're using I'm happy to work on repro over on this side as well.\r\n\r\nKeep me posted and we'll get this figured out!\r\n\r\n"
}
, {
  "url": "https://api.github.com/repos/hashicorp/terraform/issues/comments/159349713",
  "html_url": "https://github.com/hashicorp/terraform/issues/4040#issuecomment-159349713",
  "issue_url": "https://api.github.com/repos/hashicorp/terraform/issues/4040",
  "id": 159349713,
  "user": {
    "login": "antonosmond",
    "id": 6912740,
    "avatar_url": "https://avatars.githubusercontent.com/u/6912740?v=3",
    "gravatar_id": "",
    "url": "https://api.github.com/users/antonosmond",
    "html_url": "https://github.com/antonosmond",
    "followers_url": "https://api.github.com/users/antonosmond/followers",
    "following_url": "https://api.github.com/users/antonosmond/following{/other_user}",
    "gists_url": "https://api.github.com/users/antonosmond/gists{/gist_id}",
    "starred_url": "https://api.github.com/users/antonosmond/starred{/owner}{/repo}",
    "subscriptions_url": "https://api.github.com/users/antonosmond/subscriptions",
    "organizations_url": "https://api.github.com/users/antonosmond/orgs",
    "repos_url": "https://api.github.com/users/antonosmond/repos",
    "events_url": "https://api.github.com/users/antonosmond/events{/privacy}",
    "received_events_url": "https://api.github.com/users/antonosmond/received_events",
    "type": "User",
    "site_admin": false
  },
  "created_at": "2015-11-24T17:32:51Z",
  "updated_at": "2015-11-24T17:32:51Z",
  "body": "I started with an empty environment. I'd run an apply and it built the ASG and all the other resources successfully. Then I realised I needed to change a security group so I updated the security group config, ran the plan which looked correct (didn't need to touch the ASG), and then ran the apply. The ASG hadn't been touched in the AWS console and the config for the ASG resource hadn't been touched either.\r\nCan a plan taint a resource? And if it does, does it output anything to say it's done it? If it did get tainted, I have no idea why as it hadn't changed but there's nothing in the plan / apply output to suggest it was tainted other than the point you mentioned about two `aws_autoscaling_group.consul: Refreshing state... (ID: simples.consul.dev.1)` lines. I can't share the repo, but I will try and recreate the error and let you know if I find anything."
}
, {
  "url": "https://api.github.com/repos/hashicorp/terraform/issues/comments/159351197",
  "html_url": "https://github.com/hashicorp/terraform/issues/4040#issuecomment-159351197",
  "issue_url": "https://api.github.com/repos/hashicorp/terraform/issues/4040",
  "id": 159351197,
  "user": {
    "login": "phinze",
    "id": 37534,
    "avatar_url": "https://avatars.githubusercontent.com/u/37534?v=3",
    "gravatar_id": "",
    "url": "https://api.github.com/users/phinze",
    "html_url": "https://github.com/phinze",
    "followers_url": "https://api.github.com/users/phinze/followers",
    "following_url": "https://api.github.com/users/phinze/following{/other_user}",
    "gists_url": "https://api.github.com/users/phinze/gists{/gist_id}",
    "starred_url": "https://api.github.com/users/phinze/starred{/owner}{/repo}",
    "subscriptions_url": "https://api.github.com/users/phinze/subscriptions",
    "organizations_url": "https://api.github.com/users/phinze/orgs",
    "repos_url": "https://api.github.com/users/phinze/repos",
    "events_url": "https://api.github.com/users/phinze/events{/privacy}",
    "received_events_url": "https://api.github.com/users/phinze/received_events",
    "type": "User",
    "site_admin": false
  },
  "created_at": "2015-11-24T17:38:01Z",
  "updated_at": "2015-11-24T17:38:01Z",
  "body": "No, a plan should never taint a resource. A resource is only tainted if creation or provisioners on that resource fail during apply.\r\n\r\nLet me know what your investigations turn up, and I'll work on setting up a similar test scenario over here as well."
}
, {
  "url": "https://api.github.com/repos/hashicorp/terraform/issues/comments/159440242",
  "html_url": "https://github.com/hashicorp/terraform/issues/4040#issuecomment-159440242",
  "issue_url": "https://api.github.com/repos/hashicorp/terraform/issues/4040",
  "id": 159440242,
  "user": {
    "login": "phinze",
    "id": 37534,
    "avatar_url": "https://avatars.githubusercontent.com/u/37534?v=3",
    "gravatar_id": "",
    "url": "https://api.github.com/users/phinze",
    "html_url": "https://github.com/phinze",
    "followers_url": "https://api.github.com/users/phinze/followers",
    "following_url": "https://api.github.com/users/phinze/following{/other_user}",
    "gists_url": "https://api.github.com/users/phinze/gists{/gist_id}",
    "starred_url": "https://api.github.com/users/phinze/starred{/owner}{/repo}",
    "subscriptions_url": "https://api.github.com/users/phinze/subscriptions",
    "organizations_url": "https://api.github.com/users/phinze/orgs",
    "repos_url": "https://api.github.com/users/phinze/repos",
    "events_url": "https://api.github.com/users/phinze/events{/privacy}",
    "received_events_url": "https://api.github.com/users/phinze/received_events",
    "type": "User",
    "site_admin": false
  },
  "created_at": "2015-11-24T23:39:40Z",
  "updated_at": "2015-11-24T23:39:40Z",
  "body": "Just following up here, we set up a very similar scenario to the one you describe on our side with no luck reproducing any unexpected ASG destroys.\r\n\r\nhttps://gist.github.com/catsby/eb184c5dbdcb25c6300e"
}
, {
  "url": "https://api.github.com/repos/hashicorp/terraform/issues/comments/159857363",
  "html_url": "https://github.com/hashicorp/terraform/issues/4040#issuecomment-159857363",
  "issue_url": "https://api.github.com/repos/hashicorp/terraform/issues/4040",
  "id": 159857363,
  "user": {
    "login": "antonosmond",
    "id": 6912740,
    "avatar_url": "https://avatars.githubusercontent.com/u/6912740?v=3",
    "gravatar_id": "",
    "url": "https://api.github.com/users/antonosmond",
    "html_url": "https://github.com/antonosmond",
    "followers_url": "https://api.github.com/users/antonosmond/followers",
    "following_url": "https://api.github.com/users/antonosmond/following{/other_user}",
    "gists_url": "https://api.github.com/users/antonosmond/gists{/gist_id}",
    "starred_url": "https://api.github.com/users/antonosmond/starred{/owner}{/repo}",
    "subscriptions_url": "https://api.github.com/users/antonosmond/subscriptions",
    "organizations_url": "https://api.github.com/users/antonosmond/orgs",
    "repos_url": "https://api.github.com/users/antonosmond/repos",
    "events_url": "https://api.github.com/users/antonosmond/events{/privacy}",
    "received_events_url": "https://api.github.com/users/antonosmond/received_events",
    "type": "User",
    "site_admin": false
  },
  "created_at": "2015-11-26T09:30:41Z",
  "updated_at": "2015-11-26T09:30:41Z",
  "body": "One thing I remembered that may help - my ASG had health check set to ELB and my instances attached to the ELB never became healthy so TF timed out after 10 minutes waiting for healthy instances. Could that have caused the ASG to get tainted? "
}
, {
  "url": "https://api.github.com/repos/hashicorp/terraform/issues/comments/161826991",
  "html_url": "https://github.com/hashicorp/terraform/issues/4040#issuecomment-161826991",
  "issue_url": "https://api.github.com/repos/hashicorp/terraform/issues/4040",
  "id": 161826991,
  "user": {
    "login": "phinze",
    "id": 37534,
    "avatar_url": "https://avatars.githubusercontent.com/u/37534?v=3",
    "gravatar_id": "",
    "url": "https://api.github.com/users/phinze",
    "html_url": "https://github.com/phinze",
    "followers_url": "https://api.github.com/users/phinze/followers",
    "following_url": "https://api.github.com/users/phinze/following{/other_user}",
    "gists_url": "https://api.github.com/users/phinze/gists{/gist_id}",
    "starred_url": "https://api.github.com/users/phinze/starred{/owner}{/repo}",
    "subscriptions_url": "https://api.github.com/users/phinze/subscriptions",
    "organizations_url": "https://api.github.com/users/phinze/orgs",
    "repos_url": "https://api.github.com/users/phinze/repos",
    "events_url": "https://api.github.com/users/phinze/events{/privacy}",
    "received_events_url": "https://api.github.com/users/phinze/received_events",
    "type": "User",
    "site_admin": false
  },
  "created_at": "2015-12-03T23:49:08Z",
  "updated_at": "2015-12-03T23:49:08Z",
  "body": "@antonosmond ah yes - that's absolutely what happened! That timeout marked the ASG as tainted, to be cleaned up in subsequent apply.\r\n\r\nWe definitely need to make this _much_ clearer in both the plan and apply output. I'll spin up a fresh issue to track that work and link it back here."
}
, {
  "url": "https://api.github.com/repos/hashicorp/terraform/issues/comments/161828722",
  "html_url": "https://github.com/hashicorp/terraform/issues/4040#issuecomment-161828722",
  "issue_url": "https://api.github.com/repos/hashicorp/terraform/issues/4040",
  "id": 161828722,
  "user": {
    "login": "phinze",
    "id": 37534,
    "avatar_url": "https://avatars.githubusercontent.com/u/37534?v=3",
    "gravatar_id": "",
    "url": "https://api.github.com/users/phinze",
    "html_url": "https://github.com/phinze",
    "followers_url": "https://api.github.com/users/phinze/followers",
    "following_url": "https://api.github.com/users/phinze/following{/other_user}",
    "gists_url": "https://api.github.com/users/phinze/gists{/gist_id}",
    "starred_url": "https://api.github.com/users/phinze/starred{/owner}{/repo}",
    "subscriptions_url": "https://api.github.com/users/phinze/subscriptions",
    "organizations_url": "https://api.github.com/users/phinze/orgs",
    "repos_url": "https://api.github.com/users/phinze/repos",
    "events_url": "https://api.github.com/users/phinze/events{/privacy}",
    "received_events_url": "https://api.github.com/users/phinze/received_events",
    "type": "User",
    "site_admin": false
  },
  "created_at": "2015-12-04T00:00:10Z",
  "updated_at": "2015-12-04T00:00:10Z",
  "body": "Okay, #4156 has the feature, which I'll try to make sure we get in for the next release.\r\n\r\nI'm going to close this for now, feel free to follow up if you'd like to discuss anything further! :+1: "
}
]
