[
{
  "url": "https://api.github.com/repos/hashicorp/terraform/issues/comments/53284547",
  "html_url": "https://github.com/hashicorp/terraform/pull/225#issuecomment-53284547",
  "issue_url": "https://api.github.com/repos/hashicorp/terraform/issues/225",
  "id": 53284547,
  "user": {
    "login": "mitchellh",
    "id": 1299,
    "avatar_url": "https://avatars.githubusercontent.com/u/1299?v=3",
    "gravatar_id": "",
    "url": "https://api.github.com/users/mitchellh",
    "html_url": "https://github.com/mitchellh",
    "followers_url": "https://api.github.com/users/mitchellh/followers",
    "following_url": "https://api.github.com/users/mitchellh/following{/other_user}",
    "gists_url": "https://api.github.com/users/mitchellh/gists{/gist_id}",
    "starred_url": "https://api.github.com/users/mitchellh/starred{/owner}{/repo}",
    "subscriptions_url": "https://api.github.com/users/mitchellh/subscriptions",
    "organizations_url": "https://api.github.com/users/mitchellh/orgs",
    "repos_url": "https://api.github.com/users/mitchellh/repos",
    "events_url": "https://api.github.com/users/mitchellh/events{/privacy}",
    "received_events_url": "https://api.github.com/users/mitchellh/received_events",
    "type": "User",
    "site_admin": false
  },
  "created_at": "2014-08-25T16:02:52Z",
  "updated_at": "2014-08-25T16:02:52Z",
  "body": "LGTM. Thanks."
}
]
