[
{
  "url": "https://api.github.com/repos/hashicorp/terraform/issues/comments/150021608",
  "html_url": "https://github.com/hashicorp/terraform/issues/3586#issuecomment-150021608",
  "issue_url": "https://api.github.com/repos/hashicorp/terraform/issues/3586",
  "id": 150021608,
  "user": {
    "login": "lwander",
    "id": 4874941,
    "avatar_url": "https://avatars.githubusercontent.com/u/4874941?v=3",
    "gravatar_id": "",
    "url": "https://api.github.com/users/lwander",
    "html_url": "https://github.com/lwander",
    "followers_url": "https://api.github.com/users/lwander/followers",
    "following_url": "https://api.github.com/users/lwander/following{/other_user}",
    "gists_url": "https://api.github.com/users/lwander/gists{/gist_id}",
    "starred_url": "https://api.github.com/users/lwander/starred{/owner}{/repo}",
    "subscriptions_url": "https://api.github.com/users/lwander/subscriptions",
    "organizations_url": "https://api.github.com/users/lwander/orgs",
    "repos_url": "https://api.github.com/users/lwander/repos",
    "events_url": "https://api.github.com/users/lwander/events{/privacy}",
    "received_events_url": "https://api.github.com/users/lwander/received_events",
    "type": "User",
    "site_admin": false
  },
  "created_at": "2015-10-21T20:55:17Z",
  "updated_at": "2015-10-21T20:55:17Z",
  "body": "Thanks for finding this - I should have a fix soon."
}
, {
  "url": "https://api.github.com/repos/hashicorp/terraform/issues/comments/150029218",
  "html_url": "https://github.com/hashicorp/terraform/issues/3586#issuecomment-150029218",
  "issue_url": "https://api.github.com/repos/hashicorp/terraform/issues/3586",
  "id": 150029218,
  "user": {
    "login": "lwander",
    "id": 4874941,
    "avatar_url": "https://avatars.githubusercontent.com/u/4874941?v=3",
    "gravatar_id": "",
    "url": "https://api.github.com/users/lwander",
    "html_url": "https://github.com/lwander",
    "followers_url": "https://api.github.com/users/lwander/followers",
    "following_url": "https://api.github.com/users/lwander/following{/other_user}",
    "gists_url": "https://api.github.com/users/lwander/gists{/gist_id}",
    "starred_url": "https://api.github.com/users/lwander/starred{/owner}{/repo}",
    "subscriptions_url": "https://api.github.com/users/lwander/subscriptions",
    "organizations_url": "https://api.github.com/users/lwander/orgs",
    "repos_url": "https://api.github.com/users/lwander/repos",
    "events_url": "https://api.github.com/users/lwander/events{/privacy}",
    "received_events_url": "https://api.github.com/users/lwander/received_events",
    "type": "User",
    "site_admin": false
  },
  "created_at": "2015-10-21T21:28:16Z",
  "updated_at": "2015-10-21T21:28:16Z",
  "body": "@phinze, @apparentlymart, @catsby,\r\n\r\nIt seems that `StateFunc` should not be receiving `nil` as an argument for deleted values. See the above closed branch for motivation. What do you guys think?\r\n"
}
, {
  "url": "https://api.github.com/repos/hashicorp/terraform/issues/comments/150275872",
  "html_url": "https://github.com/hashicorp/terraform/issues/3586#issuecomment-150275872",
  "issue_url": "https://api.github.com/repos/hashicorp/terraform/issues/3586",
  "id": 150275872,
  "user": {
    "login": "apparentlymart",
    "id": 20180,
    "avatar_url": "https://avatars.githubusercontent.com/u/20180?v=3",
    "gravatar_id": "",
    "url": "https://api.github.com/users/apparentlymart",
    "html_url": "https://github.com/apparentlymart",
    "followers_url": "https://api.github.com/users/apparentlymart/followers",
    "following_url": "https://api.github.com/users/apparentlymart/following{/other_user}",
    "gists_url": "https://api.github.com/users/apparentlymart/gists{/gist_id}",
    "starred_url": "https://api.github.com/users/apparentlymart/starred{/owner}{/repo}",
    "subscriptions_url": "https://api.github.com/users/apparentlymart/subscriptions",
    "organizations_url": "https://api.github.com/users/apparentlymart/orgs",
    "repos_url": "https://api.github.com/users/apparentlymart/repos",
    "events_url": "https://api.github.com/users/apparentlymart/events{/privacy}",
    "received_events_url": "https://api.github.com/users/apparentlymart/received_events",
    "type": "User",
    "site_admin": false
  },
  "created_at": "2015-10-22T16:14:49Z",
  "updated_at": "2015-10-22T16:14:49Z",
  "body": "I guess the question here is whether there's any compelling use-case for customizing how a missing value gets serialized in the state.\r\n\r\nI spent some time trying to think of such a use-case and turned up nothing, so unless someone else finds one I'd be in favor of just skipping the `StateFunc` call when an attribute isn't set, so that the implementation of each `StateFunc` doesn't need to separately handle that case."
}
, {
  "url": "https://api.github.com/repos/hashicorp/terraform/issues/comments/150285315",
  "html_url": "https://github.com/hashicorp/terraform/issues/3586#issuecomment-150285315",
  "issue_url": "https://api.github.com/repos/hashicorp/terraform/issues/3586",
  "id": 150285315,
  "user": {
    "login": "lwander",
    "id": 4874941,
    "avatar_url": "https://avatars.githubusercontent.com/u/4874941?v=3",
    "gravatar_id": "",
    "url": "https://api.github.com/users/lwander",
    "html_url": "https://github.com/lwander",
    "followers_url": "https://api.github.com/users/lwander/followers",
    "following_url": "https://api.github.com/users/lwander/following{/other_user}",
    "gists_url": "https://api.github.com/users/lwander/gists{/gist_id}",
    "starred_url": "https://api.github.com/users/lwander/starred{/owner}{/repo}",
    "subscriptions_url": "https://api.github.com/users/lwander/subscriptions",
    "organizations_url": "https://api.github.com/users/lwander/orgs",
    "repos_url": "https://api.github.com/users/lwander/repos",
    "events_url": "https://api.github.com/users/lwander/events{/privacy}",
    "received_events_url": "https://api.github.com/users/lwander/received_events",
    "type": "User",
    "site_admin": false
  },
  "created_at": "2015-10-22T16:46:42Z",
  "updated_at": "2015-10-22T16:46:42Z",
  "body": "Well, as far as I know the `StateFunc` can't even handle this case correctly, since `StateFunc` has to return a string. Returning empty string doesn't work as you see in the closed PR above, and `nil` is not an option."
}
, {
  "url": "https://api.github.com/repos/hashicorp/terraform/issues/comments/150301057",
  "html_url": "https://github.com/hashicorp/terraform/issues/3586#issuecomment-150301057",
  "issue_url": "https://api.github.com/repos/hashicorp/terraform/issues/3586",
  "id": 150301057,
  "user": {
    "login": "apparentlymart",
    "id": 20180,
    "avatar_url": "https://avatars.githubusercontent.com/u/20180?v=3",
    "gravatar_id": "",
    "url": "https://api.github.com/users/apparentlymart",
    "html_url": "https://github.com/apparentlymart",
    "followers_url": "https://api.github.com/users/apparentlymart/followers",
    "following_url": "https://api.github.com/users/apparentlymart/following{/other_user}",
    "gists_url": "https://api.github.com/users/apparentlymart/gists{/gist_id}",
    "starred_url": "https://api.github.com/users/apparentlymart/starred{/owner}{/repo}",
    "subscriptions_url": "https://api.github.com/users/apparentlymart/subscriptions",
    "organizations_url": "https://api.github.com/users/apparentlymart/orgs",
    "repos_url": "https://api.github.com/users/apparentlymart/repos",
    "events_url": "https://api.github.com/users/apparentlymart/events{/privacy}",
    "received_events_url": "https://api.github.com/users/apparentlymart/received_events",
    "type": "User",
    "site_admin": false
  },
  "created_at": "2015-10-22T17:39:37Z",
  "updated_at": "2015-10-22T17:39:37Z",
  "body": "Oh yes, you're right. I forgot that `StateFunc` is forced to return a `string`, rather than `interface {}`."
}
, {
  "url": "https://api.github.com/repos/hashicorp/terraform/issues/comments/150667786",
  "html_url": "https://github.com/hashicorp/terraform/issues/3586#issuecomment-150667786",
  "issue_url": "https://api.github.com/repos/hashicorp/terraform/issues/3586",
  "id": 150667786,
  "user": {
    "login": "lwander",
    "id": 4874941,
    "avatar_url": "https://avatars.githubusercontent.com/u/4874941?v=3",
    "gravatar_id": "",
    "url": "https://api.github.com/users/lwander",
    "html_url": "https://github.com/lwander",
    "followers_url": "https://api.github.com/users/lwander/followers",
    "following_url": "https://api.github.com/users/lwander/following{/other_user}",
    "gists_url": "https://api.github.com/users/lwander/gists{/gist_id}",
    "starred_url": "https://api.github.com/users/lwander/starred{/owner}{/repo}",
    "subscriptions_url": "https://api.github.com/users/lwander/subscriptions",
    "organizations_url": "https://api.github.com/users/lwander/orgs",
    "repos_url": "https://api.github.com/users/lwander/repos",
    "events_url": "https://api.github.com/users/lwander/events{/privacy}",
    "received_events_url": "https://api.github.com/users/lwander/received_events",
    "type": "User",
    "site_admin": false
  },
  "created_at": "2015-10-23T19:18:13Z",
  "updated_at": "2015-10-23T19:18:13Z",
  "body": "Could you add a core label? This isn't specific to google"
}
, {
  "url": "https://api.github.com/repos/hashicorp/terraform/issues/comments/151294540",
  "html_url": "https://github.com/hashicorp/terraform/issues/3586#issuecomment-151294540",
  "issue_url": "https://api.github.com/repos/hashicorp/terraform/issues/3586",
  "id": 151294540,
  "user": {
    "login": "catsby",
    "id": 61721,
    "avatar_url": "https://avatars.githubusercontent.com/u/61721?v=3",
    "gravatar_id": "",
    "url": "https://api.github.com/users/catsby",
    "html_url": "https://github.com/catsby",
    "followers_url": "https://api.github.com/users/catsby/followers",
    "following_url": "https://api.github.com/users/catsby/following{/other_user}",
    "gists_url": "https://api.github.com/users/catsby/gists{/gist_id}",
    "starred_url": "https://api.github.com/users/catsby/starred{/owner}{/repo}",
    "subscriptions_url": "https://api.github.com/users/catsby/subscriptions",
    "organizations_url": "https://api.github.com/users/catsby/orgs",
    "repos_url": "https://api.github.com/users/catsby/repos",
    "events_url": "https://api.github.com/users/catsby/events{/privacy}",
    "received_events_url": "https://api.github.com/users/catsby/received_events",
    "type": "User",
    "site_admin": false
  },
  "created_at": "2015-10-26T21:49:48Z",
  "updated_at": "2015-10-26T21:49:48Z",
  "body": "I removed the google label and added the core label "
}
, {
  "url": "https://api.github.com/repos/hashicorp/terraform/issues/comments/158504373",
  "html_url": "https://github.com/hashicorp/terraform/issues/3586#issuecomment-158504373",
  "issue_url": "https://api.github.com/repos/hashicorp/terraform/issues/3586",
  "id": 158504373,
  "user": {
    "login": "phinze",
    "id": 37534,
    "avatar_url": "https://avatars.githubusercontent.com/u/37534?v=3",
    "gravatar_id": "",
    "url": "https://api.github.com/users/phinze",
    "html_url": "https://github.com/phinze",
    "followers_url": "https://api.github.com/users/phinze/followers",
    "following_url": "https://api.github.com/users/phinze/following{/other_user}",
    "gists_url": "https://api.github.com/users/phinze/gists{/gist_id}",
    "starred_url": "https://api.github.com/users/phinze/starred{/owner}{/repo}",
    "subscriptions_url": "https://api.github.com/users/phinze/subscriptions",
    "organizations_url": "https://api.github.com/users/phinze/orgs",
    "repos_url": "https://api.github.com/users/phinze/repos",
    "events_url": "https://api.github.com/users/phinze/events{/privacy}",
    "received_events_url": "https://api.github.com/users/phinze/received_events",
    "type": "User",
    "site_admin": false
  },
  "created_at": "2015-11-20T19:37:57Z",
  "updated_at": "2015-11-20T19:37:57Z",
  "body": "Picking this up!"
}
]
