[
{
  "url": "https://api.github.com/repos/hashicorp/terraform/issues/comments/155673836",
  "html_url": "https://github.com/hashicorp/terraform/pull/3857#issuecomment-155673836",
  "issue_url": "https://api.github.com/repos/hashicorp/terraform/issues/3857",
  "id": 155673836,
  "user": {
    "login": "jtopjian",
    "id": 46959,
    "avatar_url": "https://avatars.githubusercontent.com/u/46959?v=3",
    "gravatar_id": "",
    "url": "https://api.github.com/users/jtopjian",
    "html_url": "https://github.com/jtopjian",
    "followers_url": "https://api.github.com/users/jtopjian/followers",
    "following_url": "https://api.github.com/users/jtopjian/following{/other_user}",
    "gists_url": "https://api.github.com/users/jtopjian/gists{/gist_id}",
    "starred_url": "https://api.github.com/users/jtopjian/starred{/owner}{/repo}",
    "subscriptions_url": "https://api.github.com/users/jtopjian/subscriptions",
    "organizations_url": "https://api.github.com/users/jtopjian/orgs",
    "repos_url": "https://api.github.com/users/jtopjian/repos",
    "events_url": "https://api.github.com/users/jtopjian/events{/privacy}",
    "received_events_url": "https://api.github.com/users/jtopjian/received_events",
    "type": "User",
    "site_admin": false
  },
  "created_at": "2015-11-11T05:51:29Z",
  "updated_at": "2015-11-11T05:51:29Z",
  "body": "@Fodoj @jhoblitt Let me know if this fixes your issues."
}
, {
  "url": "https://api.github.com/repos/hashicorp/terraform/issues/comments/155674225",
  "html_url": "https://github.com/hashicorp/terraform/pull/3857#issuecomment-155674225",
  "issue_url": "https://api.github.com/repos/hashicorp/terraform/issues/3857",
  "id": 155674225,
  "user": {
    "login": "jtopjian",
    "id": 46959,
    "avatar_url": "https://avatars.githubusercontent.com/u/46959?v=3",
    "gravatar_id": "",
    "url": "https://api.github.com/users/jtopjian",
    "html_url": "https://github.com/jtopjian",
    "followers_url": "https://api.github.com/users/jtopjian/followers",
    "following_url": "https://api.github.com/users/jtopjian/following{/other_user}",
    "gists_url": "https://api.github.com/users/jtopjian/gists{/gist_id}",
    "starred_url": "https://api.github.com/users/jtopjian/starred{/owner}{/repo}",
    "subscriptions_url": "https://api.github.com/users/jtopjian/subscriptions",
    "organizations_url": "https://api.github.com/users/jtopjian/orgs",
    "repos_url": "https://api.github.com/users/jtopjian/repos",
    "events_url": "https://api.github.com/users/jtopjian/events{/privacy}",
    "received_events_url": "https://api.github.com/users/jtopjian/received_events",
    "type": "User",
    "site_admin": false
  },
  "created_at": "2015-11-11T05:52:37Z",
  "updated_at": "2015-11-11T05:52:37Z",
  "body": "@phinze This patch is doing a similar `TypeList` to `TypeSet` conversion as #3651. Does this need a migration or will the data type conversion be done implicitly again?"
}
, {
  "url": "https://api.github.com/repos/hashicorp/terraform/issues/comments/155806901",
  "html_url": "https://github.com/hashicorp/terraform/pull/3857#issuecomment-155806901",
  "issue_url": "https://api.github.com/repos/hashicorp/terraform/issues/3857",
  "id": 155806901,
  "user": {
    "login": "phinze",
    "id": 37534,
    "avatar_url": "https://avatars.githubusercontent.com/u/37534?v=3",
    "gravatar_id": "",
    "url": "https://api.github.com/users/phinze",
    "html_url": "https://github.com/phinze",
    "followers_url": "https://api.github.com/users/phinze/followers",
    "following_url": "https://api.github.com/users/phinze/following{/other_user}",
    "gists_url": "https://api.github.com/users/phinze/gists{/gist_id}",
    "starred_url": "https://api.github.com/users/phinze/starred{/owner}{/repo}",
    "subscriptions_url": "https://api.github.com/users/phinze/subscriptions",
    "organizations_url": "https://api.github.com/users/phinze/orgs",
    "repos_url": "https://api.github.com/users/phinze/repos",
    "events_url": "https://api.github.com/users/phinze/events{/privacy}",
    "received_events_url": "https://api.github.com/users/phinze/received_events",
    "type": "User",
    "site_admin": false
  },
  "created_at": "2015-11-11T15:08:02Z",
  "updated_at": "2015-11-11T15:08:02Z",
  "body": "@jtopjian this looks to be the same scenario so I think we're okay to skip the state migration. Code LGTM with one inline question. :ok_hand: "
}
, {
  "url": "https://api.github.com/repos/hashicorp/terraform/issues/comments/156137232",
  "html_url": "https://github.com/hashicorp/terraform/pull/3857#issuecomment-156137232",
  "issue_url": "https://api.github.com/repos/hashicorp/terraform/issues/3857",
  "id": 156137232,
  "user": {
    "login": "Fodoj",
    "id": 78866,
    "avatar_url": "https://avatars.githubusercontent.com/u/78866?v=3",
    "gravatar_id": "",
    "url": "https://api.github.com/users/Fodoj",
    "html_url": "https://github.com/Fodoj",
    "followers_url": "https://api.github.com/users/Fodoj/followers",
    "following_url": "https://api.github.com/users/Fodoj/following{/other_user}",
    "gists_url": "https://api.github.com/users/Fodoj/gists{/gist_id}",
    "starred_url": "https://api.github.com/users/Fodoj/starred{/owner}{/repo}",
    "subscriptions_url": "https://api.github.com/users/Fodoj/subscriptions",
    "organizations_url": "https://api.github.com/users/Fodoj/orgs",
    "repos_url": "https://api.github.com/users/Fodoj/repos",
    "events_url": "https://api.github.com/users/Fodoj/events{/privacy}",
    "received_events_url": "https://api.github.com/users/Fodoj/received_events",
    "type": "User",
    "site_admin": false
  },
  "created_at": "2015-11-12T15:24:56Z",
  "updated_at": "2015-11-12T15:24:56Z",
  "body": "There seems to be some issue with (I didn't test with last commit though): terraform tries to delete SG from the instance, deletes it (it's no associated any more) but fails and shows \"Faield to remove\". But the weird part is that it happens during `terraform apply`, meaning that it actually should not even try to remove SG from the instance."
}
, {
  "url": "https://api.github.com/repos/hashicorp/terraform/issues/comments/156139864",
  "html_url": "https://github.com/hashicorp/terraform/pull/3857#issuecomment-156139864",
  "issue_url": "https://api.github.com/repos/hashicorp/terraform/issues/3857",
  "id": 156139864,
  "user": {
    "login": "Fodoj",
    "id": 78866,
    "avatar_url": "https://avatars.githubusercontent.com/u/78866?v=3",
    "gravatar_id": "",
    "url": "https://api.github.com/users/Fodoj",
    "html_url": "https://github.com/Fodoj",
    "followers_url": "https://api.github.com/users/Fodoj/followers",
    "following_url": "https://api.github.com/users/Fodoj/following{/other_user}",
    "gists_url": "https://api.github.com/users/Fodoj/gists{/gist_id}",
    "starred_url": "https://api.github.com/users/Fodoj/starred{/owner}{/repo}",
    "subscriptions_url": "https://api.github.com/users/Fodoj/subscriptions",
    "organizations_url": "https://api.github.com/users/Fodoj/orgs",
    "repos_url": "https://api.github.com/users/Fodoj/repos",
    "events_url": "https://api.github.com/users/Fodoj/events{/privacy}",
    "received_events_url": "https://api.github.com/users/Fodoj/received_events",
    "type": "User",
    "site_admin": false
  },
  "created_at": "2015-11-12T15:34:26Z",
  "updated_at": "2015-11-12T15:34:26Z",
  "body": "Ignore last comment, it seems to be no related to this PR."
}
, {
  "url": "https://api.github.com/repos/hashicorp/terraform/issues/comments/156153960",
  "html_url": "https://github.com/hashicorp/terraform/pull/3857#issuecomment-156153960",
  "issue_url": "https://api.github.com/repos/hashicorp/terraform/issues/3857",
  "id": 156153960,
  "user": {
    "login": "Fodoj",
    "id": 78866,
    "avatar_url": "https://avatars.githubusercontent.com/u/78866?v=3",
    "gravatar_id": "",
    "url": "https://api.github.com/users/Fodoj",
    "html_url": "https://github.com/Fodoj",
    "followers_url": "https://api.github.com/users/Fodoj/followers",
    "following_url": "https://api.github.com/users/Fodoj/following{/other_user}",
    "gists_url": "https://api.github.com/users/Fodoj/gists{/gist_id}",
    "starred_url": "https://api.github.com/users/Fodoj/starred{/owner}{/repo}",
    "subscriptions_url": "https://api.github.com/users/Fodoj/subscriptions",
    "organizations_url": "https://api.github.com/users/Fodoj/orgs",
    "repos_url": "https://api.github.com/users/Fodoj/repos",
    "events_url": "https://api.github.com/users/Fodoj/events{/privacy}",
    "received_events_url": "https://api.github.com/users/Fodoj/received_events",
    "type": "User",
    "site_admin": false
  },
  "created_at": "2015-11-12T16:20:48Z",
  "updated_at": "2015-11-12T16:20:48Z",
  "body": "More info:\r\n\r\n1. AKAIK security group _names_ are not unique in Openstack => using names for SGs list of instance is wrong then\r\n2. It one passes ID to security_groups attribute of an instance instead of name then weird bugs that the one I described above will happen:\r\n\r\nHere it has name in state file, id passed in and then it explodes.\r\n\r\n```\r\n2015/11/10 16:52:04 [DEBUG] terraform-provider-openstack: 2015/11/10 16:52:04 [DEBUG] oldSGSet: &{0x575320 map[47827970:security_group_1] {{0 0} 1}}\r\n2015/11/10 16:52:04 [DEBUG] terraform-provider-openstack: 2015/11/10 16:52:04 [DEBUG] newSGSet: &{0x575320 map[1589016600:84c4b52f-e023-40d6-9edf-7dbd73b91d7c] {{0 0} 1}}\r\n````\r\n"
}
, {
  "url": "https://api.github.com/repos/hashicorp/terraform/issues/comments/156159715",
  "html_url": "https://github.com/hashicorp/terraform/pull/3857#issuecomment-156159715",
  "issue_url": "https://api.github.com/repos/hashicorp/terraform/issues/3857",
  "id": 156159715,
  "user": {
    "login": "jtopjian",
    "id": 46959,
    "avatar_url": "https://avatars.githubusercontent.com/u/46959?v=3",
    "gravatar_id": "",
    "url": "https://api.github.com/users/jtopjian",
    "html_url": "https://github.com/jtopjian",
    "followers_url": "https://api.github.com/users/jtopjian/followers",
    "following_url": "https://api.github.com/users/jtopjian/following{/other_user}",
    "gists_url": "https://api.github.com/users/jtopjian/gists{/gist_id}",
    "starred_url": "https://api.github.com/users/jtopjian/starred{/owner}{/repo}",
    "subscriptions_url": "https://api.github.com/users/jtopjian/subscriptions",
    "organizations_url": "https://api.github.com/users/jtopjian/orgs",
    "repos_url": "https://api.github.com/users/jtopjian/repos",
    "events_url": "https://api.github.com/users/jtopjian/events{/privacy}",
    "received_events_url": "https://api.github.com/users/jtopjian/received_events",
    "type": "User",
    "site_admin": false
  },
  "created_at": "2015-11-12T16:38:50Z",
  "updated_at": "2015-11-12T16:38:50Z",
  "body": "Yeah, the places where to specify a security group name and ID are very inconsistent in OpenStack.\r\n\r\nThe Nova instances expect security group names. Neutron Ports expect IDs. The Nova security group rules expect an ID, but will return a name and not the ID.\r\n\r\nUnfortunately there's not a lot that can be done here besides documentation. I tried doing some workarounds to enable security group IDs in the `security_groups` attribute of instances in #2009, but ultimately wasn't successful :("
}
, {
  "url": "https://api.github.com/repos/hashicorp/terraform/issues/comments/156322088",
  "html_url": "https://github.com/hashicorp/terraform/pull/3857#issuecomment-156322088",
  "issue_url": "https://api.github.com/repos/hashicorp/terraform/issues/3857",
  "id": 156322088,
  "user": {
    "login": "jtopjian",
    "id": 46959,
    "avatar_url": "https://avatars.githubusercontent.com/u/46959?v=3",
    "gravatar_id": "",
    "url": "https://api.github.com/users/jtopjian",
    "html_url": "https://github.com/jtopjian",
    "followers_url": "https://api.github.com/users/jtopjian/followers",
    "following_url": "https://api.github.com/users/jtopjian/following{/other_user}",
    "gists_url": "https://api.github.com/users/jtopjian/gists{/gist_id}",
    "starred_url": "https://api.github.com/users/jtopjian/starred{/owner}{/repo}",
    "subscriptions_url": "https://api.github.com/users/jtopjian/subscriptions",
    "organizations_url": "https://api.github.com/users/jtopjian/orgs",
    "repos_url": "https://api.github.com/users/jtopjian/repos",
    "events_url": "https://api.github.com/users/jtopjian/events{/privacy}",
    "received_events_url": "https://api.github.com/users/jtopjian/received_events",
    "type": "User",
    "site_admin": false
  },
  "created_at": "2015-11-13T05:01:59Z",
  "updated_at": "2015-11-13T05:01:59Z",
  "body": "@Fodoj With the wonkiness of security groups aside, does this patch work for you? \r\n\r\n@phinze If you have a minute, could you do a quick code review? Adding the missing test you caught required modification to a few other areas (again, thanks for catching it :)"
}
, {
  "url": "https://api.github.com/repos/hashicorp/terraform/issues/comments/156345240",
  "html_url": "https://github.com/hashicorp/terraform/pull/3857#issuecomment-156345240",
  "issue_url": "https://api.github.com/repos/hashicorp/terraform/issues/3857",
  "id": 156345240,
  "user": {
    "login": "Fodoj",
    "id": 78866,
    "avatar_url": "https://avatars.githubusercontent.com/u/78866?v=3",
    "gravatar_id": "",
    "url": "https://api.github.com/users/Fodoj",
    "html_url": "https://github.com/Fodoj",
    "followers_url": "https://api.github.com/users/Fodoj/followers",
    "following_url": "https://api.github.com/users/Fodoj/following{/other_user}",
    "gists_url": "https://api.github.com/users/Fodoj/gists{/gist_id}",
    "starred_url": "https://api.github.com/users/Fodoj/starred{/owner}{/repo}",
    "subscriptions_url": "https://api.github.com/users/Fodoj/subscriptions",
    "organizations_url": "https://api.github.com/users/Fodoj/orgs",
    "repos_url": "https://api.github.com/users/Fodoj/repos",
    "events_url": "https://api.github.com/users/Fodoj/events{/privacy}",
    "received_events_url": "https://api.github.com/users/Fodoj/received_events",
    "type": "User",
    "site_admin": false
  },
  "created_at": "2015-11-13T06:57:27Z",
  "updated_at": "2015-11-13T06:57:27Z",
  "body": "Yes, after using names instead of IDs everything started working as expected\n\n\n\nBest regards,\nKirill Shirinkin\n\nOn Fri, Nov 13, 2015 at 6:02 AM, Joe Topjian <notifications@github.com>\nwrote:\n\n> @Fodoj With the wonkiness of security groups aside, does this patch work for you? \n> @phinze If you have a minute, could you do a quick code review? Adding the missing test you caught required modification to a few other areas (again, thanks for catching it :)\n> ---\n> Reply to this email directly or view it on GitHub:\n> https://github.com/hashicorp/terraform/pull/3857#issuecomment-156322088"
}
, {
  "url": "https://api.github.com/repos/hashicorp/terraform/issues/comments/156466538",
  "html_url": "https://github.com/hashicorp/terraform/pull/3857#issuecomment-156466538",
  "issue_url": "https://api.github.com/repos/hashicorp/terraform/issues/3857",
  "id": 156466538,
  "user": {
    "login": "phinze",
    "id": 37534,
    "avatar_url": "https://avatars.githubusercontent.com/u/37534?v=3",
    "gravatar_id": "",
    "url": "https://api.github.com/users/phinze",
    "html_url": "https://github.com/phinze",
    "followers_url": "https://api.github.com/users/phinze/followers",
    "following_url": "https://api.github.com/users/phinze/following{/other_user}",
    "gists_url": "https://api.github.com/users/phinze/gists{/gist_id}",
    "starred_url": "https://api.github.com/users/phinze/starred{/owner}{/repo}",
    "subscriptions_url": "https://api.github.com/users/phinze/subscriptions",
    "organizations_url": "https://api.github.com/users/phinze/orgs",
    "repos_url": "https://api.github.com/users/phinze/repos",
    "events_url": "https://api.github.com/users/phinze/events{/privacy}",
    "received_events_url": "https://api.github.com/users/phinze/received_events",
    "type": "User",
    "site_admin": false
  },
  "created_at": "2015-11-13T15:39:01Z",
  "updated_at": "2015-11-13T15:39:01Z",
  "body": "@jtopjian This is looking good! Merge at will. :+1: "
}
, {
  "url": "https://api.github.com/repos/hashicorp/terraform/issues/comments/156468446",
  "html_url": "https://github.com/hashicorp/terraform/pull/3857#issuecomment-156468446",
  "issue_url": "https://api.github.com/repos/hashicorp/terraform/issues/3857",
  "id": 156468446,
  "user": {
    "login": "jhoblitt",
    "id": 948901,
    "avatar_url": "https://avatars.githubusercontent.com/u/948901?v=3",
    "gravatar_id": "",
    "url": "https://api.github.com/users/jhoblitt",
    "html_url": "https://github.com/jhoblitt",
    "followers_url": "https://api.github.com/users/jhoblitt/followers",
    "following_url": "https://api.github.com/users/jhoblitt/following{/other_user}",
    "gists_url": "https://api.github.com/users/jhoblitt/gists{/gist_id}",
    "starred_url": "https://api.github.com/users/jhoblitt/starred{/owner}{/repo}",
    "subscriptions_url": "https://api.github.com/users/jhoblitt/subscriptions",
    "organizations_url": "https://api.github.com/users/jhoblitt/orgs",
    "repos_url": "https://api.github.com/users/jhoblitt/repos",
    "events_url": "https://api.github.com/users/jhoblitt/events{/privacy}",
    "received_events_url": "https://api.github.com/users/jhoblitt/received_events",
    "type": "User",
    "site_admin": false
  },
  "created_at": "2015-11-13T15:45:12Z",
  "updated_at": "2015-11-13T15:45:12Z",
  "body": "@jtopjian Sorry for the slow response... It has been one of \"those weeks\". I will test and report back later this morning but please don't hold up merging on my account."
}
, {
  "url": "https://api.github.com/repos/hashicorp/terraform/issues/comments/156476402",
  "html_url": "https://github.com/hashicorp/terraform/pull/3857#issuecomment-156476402",
  "issue_url": "https://api.github.com/repos/hashicorp/terraform/issues/3857",
  "id": 156476402,
  "user": {
    "login": "jtopjian",
    "id": 46959,
    "avatar_url": "https://avatars.githubusercontent.com/u/46959?v=3",
    "gravatar_id": "",
    "url": "https://api.github.com/users/jtopjian",
    "html_url": "https://github.com/jtopjian",
    "followers_url": "https://api.github.com/users/jtopjian/followers",
    "following_url": "https://api.github.com/users/jtopjian/following{/other_user}",
    "gists_url": "https://api.github.com/users/jtopjian/gists{/gist_id}",
    "starred_url": "https://api.github.com/users/jtopjian/starred{/owner}{/repo}",
    "subscriptions_url": "https://api.github.com/users/jtopjian/subscriptions",
    "organizations_url": "https://api.github.com/users/jtopjian/orgs",
    "repos_url": "https://api.github.com/users/jtopjian/repos",
    "events_url": "https://api.github.com/users/jtopjian/events{/privacy}",
    "received_events_url": "https://api.github.com/users/jtopjian/received_events",
    "type": "User",
    "site_admin": false
  },
  "created_at": "2015-11-13T16:14:25Z",
  "updated_at": "2015-11-13T16:14:25Z",
  "body": "@phinze @Fodoj Thank you both!\r\n\r\n@jhoblitt No problem at all. I'll merge this later today. If you don't get a chance to test before then, please let me know if you run into any issues afterward."
}
]
