[
{
  "url": "https://api.github.com/repos/hashicorp/terraform/issues/comments/149393302",
  "html_url": "https://github.com/hashicorp/terraform/issues/3544#issuecomment-149393302",
  "issue_url": "https://api.github.com/repos/hashicorp/terraform/issues/3544",
  "id": 149393302,
  "user": {
    "login": "apparentlymart",
    "id": 20180,
    "avatar_url": "https://avatars.githubusercontent.com/u/20180?v=3",
    "gravatar_id": "",
    "url": "https://api.github.com/users/apparentlymart",
    "html_url": "https://github.com/apparentlymart",
    "followers_url": "https://api.github.com/users/apparentlymart/followers",
    "following_url": "https://api.github.com/users/apparentlymart/following{/other_user}",
    "gists_url": "https://api.github.com/users/apparentlymart/gists{/gist_id}",
    "starred_url": "https://api.github.com/users/apparentlymart/starred{/owner}{/repo}",
    "subscriptions_url": "https://api.github.com/users/apparentlymart/subscriptions",
    "organizations_url": "https://api.github.com/users/apparentlymart/orgs",
    "repos_url": "https://api.github.com/users/apparentlymart/repos",
    "events_url": "https://api.github.com/users/apparentlymart/events{/privacy}",
    "received_events_url": "https://api.github.com/users/apparentlymart/received_events",
    "type": "User",
    "site_admin": false
  },
  "created_at": "2015-10-20T01:29:57Z",
  "updated_at": "2015-10-20T01:29:57Z",
  "body": "Nice idea! A while back I built [an out-of-tree plugin for Beanstalk](https://github.com/saymedia/terraform-beanstalk), which is an alternative hosted solution for source control repositories... having github support so we can manage our github teams (for open source projects) in the same way as we manage our beanstalk teams (for internal-only projects) would be awesome.\r\n"
}
, {
  "url": "https://api.github.com/repos/hashicorp/terraform/issues/comments/151646032",
  "html_url": "https://github.com/hashicorp/terraform/issues/3544#issuecomment-151646032",
  "issue_url": "https://api.github.com/repos/hashicorp/terraform/issues/3544",
  "id": 151646032,
  "user": {
    "login": "ejholmes",
    "id": 95166,
    "avatar_url": "https://avatars.githubusercontent.com/u/95166?v=3",
    "gravatar_id": "",
    "url": "https://api.github.com/users/ejholmes",
    "html_url": "https://github.com/ejholmes",
    "followers_url": "https://api.github.com/users/ejholmes/followers",
    "following_url": "https://api.github.com/users/ejholmes/following{/other_user}",
    "gists_url": "https://api.github.com/users/ejholmes/gists{/gist_id}",
    "starred_url": "https://api.github.com/users/ejholmes/starred{/owner}{/repo}",
    "subscriptions_url": "https://api.github.com/users/ejholmes/subscriptions",
    "organizations_url": "https://api.github.com/users/ejholmes/orgs",
    "repos_url": "https://api.github.com/users/ejholmes/repos",
    "events_url": "https://api.github.com/users/ejholmes/events{/privacy}",
    "received_events_url": "https://api.github.com/users/ejholmes/received_events",
    "type": "User",
    "site_admin": false
  },
  "created_at": "2015-10-27T21:14:30Z",
  "updated_at": "2015-10-27T21:14:30Z",
  "body": ":+1: would be great to have support for updating github webhooks with terraform."
}
, {
  "url": "https://api.github.com/repos/hashicorp/terraform/issues/comments/164890607",
  "html_url": "https://github.com/hashicorp/terraform/issues/3544#issuecomment-164890607",
  "issue_url": "https://api.github.com/repos/hashicorp/terraform/issues/3544",
  "id": 164890607,
  "user": {
    "login": "catsby",
    "id": 61721,
    "avatar_url": "https://avatars.githubusercontent.com/u/61721?v=3",
    "gravatar_id": "",
    "url": "https://api.github.com/users/catsby",
    "html_url": "https://github.com/catsby",
    "followers_url": "https://api.github.com/users/catsby/followers",
    "following_url": "https://api.github.com/users/catsby/following{/other_user}",
    "gists_url": "https://api.github.com/users/catsby/gists{/gist_id}",
    "starred_url": "https://api.github.com/users/catsby/starred{/owner}{/repo}",
    "subscriptions_url": "https://api.github.com/users/catsby/subscriptions",
    "organizations_url": "https://api.github.com/users/catsby/orgs",
    "repos_url": "https://api.github.com/users/catsby/repos",
    "events_url": "https://api.github.com/users/catsby/events{/privacy}",
    "received_events_url": "https://api.github.com/users/catsby/received_events",
    "type": "User",
    "site_admin": false
  },
  "created_at": "2015-12-15T20:42:43Z",
  "updated_at": "2015-12-15T20:42:43Z",
  "body": "Hey Friends – I'm going to close this as a duplicate of #1731; if you're interested, please track that issue.\r\n\r\nThanks!"
}
]
