[
{
  "url": "https://api.github.com/repos/hashicorp/terraform/issues/comments/152586842",
  "html_url": "https://github.com/hashicorp/terraform/issues/3660#issuecomment-152586842",
  "issue_url": "https://api.github.com/repos/hashicorp/terraform/issues/3660",
  "id": 152586842,
  "user": {
    "login": "catsby",
    "id": 61721,
    "avatar_url": "https://avatars.githubusercontent.com/u/61721?v=3",
    "gravatar_id": "",
    "url": "https://api.github.com/users/catsby",
    "html_url": "https://github.com/catsby",
    "followers_url": "https://api.github.com/users/catsby/followers",
    "following_url": "https://api.github.com/users/catsby/following{/other_user}",
    "gists_url": "https://api.github.com/users/catsby/gists{/gist_id}",
    "starred_url": "https://api.github.com/users/catsby/starred{/owner}{/repo}",
    "subscriptions_url": "https://api.github.com/users/catsby/subscriptions",
    "organizations_url": "https://api.github.com/users/catsby/orgs",
    "repos_url": "https://api.github.com/users/catsby/repos",
    "events_url": "https://api.github.com/users/catsby/events{/privacy}",
    "received_events_url": "https://api.github.com/users/catsby/received_events",
    "type": "User",
    "site_admin": false
  },
  "created_at": "2015-10-30T17:00:30Z",
  "updated_at": "2015-10-30T17:00:30Z",
  "body": "Hey @maxbeatty – I've found 2 issues here, and have a fix for both. \r\nThe first is an encoding issue with the policy, the second is an IAM issue that you may or may not have hit. \r\n\r\nPosting a fix soon"
}
, {
  "url": "https://api.github.com/repos/hashicorp/terraform/issues/comments/152589731",
  "html_url": "https://github.com/hashicorp/terraform/issues/3660#issuecomment-152589731",
  "issue_url": "https://api.github.com/repos/hashicorp/terraform/issues/3660",
  "id": 152589731,
  "user": {
    "login": "catsby",
    "id": 61721,
    "avatar_url": "https://avatars.githubusercontent.com/u/61721?v=3",
    "gravatar_id": "",
    "url": "https://api.github.com/users/catsby",
    "html_url": "https://github.com/catsby",
    "followers_url": "https://api.github.com/users/catsby/followers",
    "following_url": "https://api.github.com/users/catsby/following{/other_user}",
    "gists_url": "https://api.github.com/users/catsby/gists{/gist_id}",
    "starred_url": "https://api.github.com/users/catsby/starred{/owner}{/repo}",
    "subscriptions_url": "https://api.github.com/users/catsby/subscriptions",
    "organizations_url": "https://api.github.com/users/catsby/orgs",
    "repos_url": "https://api.github.com/users/catsby/repos",
    "events_url": "https://api.github.com/users/catsby/events{/privacy}",
    "received_events_url": "https://api.github.com/users/catsby/received_events",
    "type": "User",
    "site_admin": false
  },
  "created_at": "2015-10-30T17:12:29Z",
  "updated_at": "2015-10-30T17:12:29Z",
  "body": "#3700 should fix this"
}
, {
  "url": "https://api.github.com/repos/hashicorp/terraform/issues/comments/152612517",
  "html_url": "https://github.com/hashicorp/terraform/issues/3660#issuecomment-152612517",
  "issue_url": "https://api.github.com/repos/hashicorp/terraform/issues/3660",
  "id": 152612517,
  "user": {
    "login": "maxbeatty",
    "id": 93179,
    "avatar_url": "https://avatars.githubusercontent.com/u/93179?v=3",
    "gravatar_id": "",
    "url": "https://api.github.com/users/maxbeatty",
    "html_url": "https://github.com/maxbeatty",
    "followers_url": "https://api.github.com/users/maxbeatty/followers",
    "following_url": "https://api.github.com/users/maxbeatty/following{/other_user}",
    "gists_url": "https://api.github.com/users/maxbeatty/gists{/gist_id}",
    "starred_url": "https://api.github.com/users/maxbeatty/starred{/owner}{/repo}",
    "subscriptions_url": "https://api.github.com/users/maxbeatty/subscriptions",
    "organizations_url": "https://api.github.com/users/maxbeatty/orgs",
    "repos_url": "https://api.github.com/users/maxbeatty/repos",
    "events_url": "https://api.github.com/users/maxbeatty/events{/privacy}",
    "received_events_url": "https://api.github.com/users/maxbeatty/received_events",
    "type": "User",
    "site_admin": false
  },
  "created_at": "2015-10-30T18:38:42Z",
  "updated_at": "2015-10-30T18:38:42Z",
  "body": "@catsby thanks for looking into this and adding a fix. As my project evolved, I ended up moving the permission to the role policy and out of the SNS resource so I can't test this fix for my previous situation. Hope this helps someone else down the line!"
}
, {
  "url": "https://api.github.com/repos/hashicorp/terraform/issues/comments/153139422",
  "html_url": "https://github.com/hashicorp/terraform/issues/3660#issuecomment-153139422",
  "issue_url": "https://api.github.com/repos/hashicorp/terraform/issues/3660",
  "id": 153139422,
  "user": {
    "login": "catsby",
    "id": 61721,
    "avatar_url": "https://avatars.githubusercontent.com/u/61721?v=3",
    "gravatar_id": "",
    "url": "https://api.github.com/users/catsby",
    "html_url": "https://github.com/catsby",
    "followers_url": "https://api.github.com/users/catsby/followers",
    "following_url": "https://api.github.com/users/catsby/following{/other_user}",
    "gists_url": "https://api.github.com/users/catsby/gists{/gist_id}",
    "starred_url": "https://api.github.com/users/catsby/starred{/owner}{/repo}",
    "subscriptions_url": "https://api.github.com/users/catsby/subscriptions",
    "organizations_url": "https://api.github.com/users/catsby/orgs",
    "repos_url": "https://api.github.com/users/catsby/repos",
    "events_url": "https://api.github.com/users/catsby/events{/privacy}",
    "received_events_url": "https://api.github.com/users/catsby/received_events",
    "type": "User",
    "site_admin": false
  },
  "created_at": "2015-11-02T19:55:22Z",
  "updated_at": "2015-11-02T19:55:22Z",
  "body": "Thanks for the update @maxbeatty , glad you had a workaround in place. Sorry for the trouble! "
}
]
