[
{
  "url": "https://api.github.com/repos/hashicorp/terraform/issues/comments/143081665",
  "html_url": "https://github.com/hashicorp/terraform/pull/3257#issuecomment-143081665",
  "issue_url": "https://api.github.com/repos/hashicorp/terraform/issues/3257",
  "id": 143081665,
  "user": {
    "login": "josephholsten",
    "id": 7495,
    "avatar_url": "https://avatars.githubusercontent.com/u/7495?v=3",
    "gravatar_id": "",
    "url": "https://api.github.com/users/josephholsten",
    "html_url": "https://github.com/josephholsten",
    "followers_url": "https://api.github.com/users/josephholsten/followers",
    "following_url": "https://api.github.com/users/josephholsten/following{/other_user}",
    "gists_url": "https://api.github.com/users/josephholsten/gists{/gist_id}",
    "starred_url": "https://api.github.com/users/josephholsten/starred{/owner}{/repo}",
    "subscriptions_url": "https://api.github.com/users/josephholsten/subscriptions",
    "organizations_url": "https://api.github.com/users/josephholsten/orgs",
    "repos_url": "https://api.github.com/users/josephholsten/repos",
    "events_url": "https://api.github.com/users/josephholsten/events{/privacy}",
    "received_events_url": "https://api.github.com/users/josephholsten/received_events",
    "type": "User",
    "site_admin": false
  },
  "created_at": "2015-09-24T23:46:20Z",
  "updated_at": "2015-09-24T23:46:20Z",
  "body": "LGTM. "
}
, {
  "url": "https://api.github.com/repos/hashicorp/terraform/issues/comments/163085012",
  "html_url": "https://github.com/hashicorp/terraform/pull/3257#issuecomment-163085012",
  "issue_url": "https://api.github.com/repos/hashicorp/terraform/issues/3257",
  "id": 163085012,
  "user": {
    "login": "phinze",
    "id": 37534,
    "avatar_url": "https://avatars.githubusercontent.com/u/37534?v=3",
    "gravatar_id": "",
    "url": "https://api.github.com/users/phinze",
    "html_url": "https://github.com/phinze",
    "followers_url": "https://api.github.com/users/phinze/followers",
    "following_url": "https://api.github.com/users/phinze/following{/other_user}",
    "gists_url": "https://api.github.com/users/phinze/gists{/gist_id}",
    "starred_url": "https://api.github.com/users/phinze/starred{/owner}{/repo}",
    "subscriptions_url": "https://api.github.com/users/phinze/subscriptions",
    "organizations_url": "https://api.github.com/users/phinze/orgs",
    "repos_url": "https://api.github.com/users/phinze/repos",
    "events_url": "https://api.github.com/users/phinze/events{/privacy}",
    "received_events_url": "https://api.github.com/users/phinze/received_events",
    "type": "User",
    "site_admin": false
  },
  "created_at": "2015-12-09T02:14:58Z",
  "updated_at": "2015-12-09T02:14:58Z",
  "body": "Sorry for the delay on this - this LGTM."
}
]
