[
{
  "url": "https://api.github.com/repos/Automattic/WP-Job-Manager/issues/comments/132605866",
  "html_url": "https://github.com/Automattic/WP-Job-Manager/issues/517#issuecomment-132605866",
  "issue_url": "https://api.github.com/repos/Automattic/WP-Job-Manager/issues/517",
  "id": 132605866,
  "user": {
    "login": "brianheap",
    "id": 10849642,
    "avatar_url": "https://avatars.githubusercontent.com/u/10849642?v=3",
    "gravatar_id": "",
    "url": "https://api.github.com/users/brianheap",
    "html_url": "https://github.com/brianheap",
    "followers_url": "https://api.github.com/users/brianheap/followers",
    "following_url": "https://api.github.com/users/brianheap/following{/other_user}",
    "gists_url": "https://api.github.com/users/brianheap/gists{/gist_id}",
    "starred_url": "https://api.github.com/users/brianheap/starred{/owner}{/repo}",
    "subscriptions_url": "https://api.github.com/users/brianheap/subscriptions",
    "organizations_url": "https://api.github.com/users/brianheap/orgs",
    "repos_url": "https://api.github.com/users/brianheap/repos",
    "events_url": "https://api.github.com/users/brianheap/events{/privacy}",
    "received_events_url": "https://api.github.com/users/brianheap/received_events",
    "type": "User",
    "site_admin": false
  },
  "created_at": "2015-08-19T13:52:49Z",
  "updated_at": "2015-08-19T13:52:49Z",
  "body": "Thanks very much :-)"
}
]
