[
{
  "url": "https://api.github.com/repos/mapbox/mapping/issues/comments/5468028",
  "html_url": "https://github.com/mapbox/mapping/issues/43#issuecomment-5468028",
  "issue_url": "https://api.github.com/repos/mapbox/mapping/issues/43",
  "id": 5468028,
  "user": {
    "login": "lxbarth",
    "id": 98233,
    "avatar_url": "https://avatars.githubusercontent.com/u/98233?v=3",
    "gravatar_id": "",
    "url": "https://api.github.com/users/lxbarth",
    "html_url": "https://github.com/lxbarth",
    "followers_url": "https://api.github.com/users/lxbarth/followers",
    "following_url": "https://api.github.com/users/lxbarth/following{/other_user}",
    "gists_url": "https://api.github.com/users/lxbarth/gists{/gist_id}",
    "starred_url": "https://api.github.com/users/lxbarth/starred{/owner}{/repo}",
    "subscriptions_url": "https://api.github.com/users/lxbarth/subscriptions",
    "organizations_url": "https://api.github.com/users/lxbarth/orgs",
    "repos_url": "https://api.github.com/users/lxbarth/repos",
    "events_url": "https://api.github.com/users/lxbarth/events{/privacy}",
    "received_events_url": "https://api.github.com/users/lxbarth/received_events",
    "type": "User",
    "site_admin": false
  },
  "created_at": "2012-05-02T18:04:28Z",
  "updated_at": "2012-05-02T18:04:28Z",
  "body": "Just posted on [talk](http://lists.openstreetmap.org/pipermail/talk/2012-May/062900.html) and on [diary](http://www.openstreetmap.org/user/lxbarth/diary/16799) and sent an email to user [Telecom IP](http://www.openstreetmap.org/user/TELCOM%20IP) who is the creator of much of these streets to get more context.\r\n\r\nAs discussed on IM, let's focus on fixing the areas where streets line up with Bing imagery, let's capture screenshots of those areas with streets that don't coincide."
}
, {
  "url": "https://api.github.com/repos/mapbox/mapping/issues/comments/5468705",
  "html_url": "https://github.com/mapbox/mapping/issues/43#issuecomment-5468705",
  "issue_url": "https://api.github.com/repos/mapbox/mapping/issues/43",
  "id": 5468705,
  "user": {
    "login": "lxbarth",
    "id": 98233,
    "avatar_url": "https://avatars.githubusercontent.com/u/98233?v=3",
    "gravatar_id": "",
    "url": "https://api.github.com/users/lxbarth",
    "html_url": "https://github.com/lxbarth",
    "followers_url": "https://api.github.com/users/lxbarth/followers",
    "following_url": "https://api.github.com/users/lxbarth/following{/other_user}",
    "gists_url": "https://api.github.com/users/lxbarth/gists{/gist_id}",
    "starred_url": "https://api.github.com/users/lxbarth/starred{/owner}{/repo}",
    "subscriptions_url": "https://api.github.com/users/lxbarth/subscriptions",
    "organizations_url": "https://api.github.com/users/lxbarth/orgs",
    "repos_url": "https://api.github.com/users/lxbarth/repos",
    "events_url": "https://api.github.com/users/lxbarth/events{/privacy}",
    "received_events_url": "https://api.github.com/users/lxbarth/received_events",
    "type": "User",
    "site_admin": false
  },
  "created_at": "2012-05-02T18:34:24Z",
  "updated_at": "2012-05-02T18:34:24Z",
  "body": "There are three types of disconnected streets:\r\n\r\n1. those that simply appear to be garbage, completely different from Bing imagery, often with an 'S/N' name.\r\n2. those that somewhat match with imagery, but are typically offset like these https://skitch.com/alexbarth/8aprx/java-openstreetmap-editor\r\n3. those that match fine\r\n\r\nLet's focus on (3) for now and repair those areas in which they appear. @ianshward will be in Lima next week, he will be able to get us a reference point from the ground for category (2) areas. For category (1) streets (those that appear to be garbage) let's give Telecom IP a week, otherwise we may just remove those streets."
}
, {
  "url": "https://api.github.com/repos/mapbox/mapping/issues/comments/5823275",
  "html_url": "https://github.com/mapbox/mapping/issues/43#issuecomment-5823275",
  "issue_url": "https://api.github.com/repos/mapbox/mapping/issues/43",
  "id": 5823275,
  "user": {
    "login": "lxbarth",
    "id": 98233,
    "avatar_url": "https://avatars.githubusercontent.com/u/98233?v=3",
    "gravatar_id": "",
    "url": "https://api.github.com/users/lxbarth",
    "html_url": "https://github.com/lxbarth",
    "followers_url": "https://api.github.com/users/lxbarth/followers",
    "following_url": "https://api.github.com/users/lxbarth/following{/other_user}",
    "gists_url": "https://api.github.com/users/lxbarth/gists{/gist_id}",
    "starred_url": "https://api.github.com/users/lxbarth/starred{/owner}{/repo}",
    "subscriptions_url": "https://api.github.com/users/lxbarth/subscriptions",
    "organizations_url": "https://api.github.com/users/lxbarth/orgs",
    "repos_url": "https://api.github.com/users/lxbarth/repos",
    "events_url": "https://api.github.com/users/lxbarth/events{/privacy}",
    "received_events_url": "https://api.github.com/users/lxbarth/received_events",
    "type": "User",
    "site_admin": false
  },
  "created_at": "2012-05-21T14:05:27Z",
  "updated_at": "2012-05-21T14:05:27Z",
  "body": "@Rub21 - Let's also remove the \"S/N\" street names wherever possible. "
}
, {
  "url": "https://api.github.com/repos/mapbox/mapping/issues/comments/6210608",
  "html_url": "https://github.com/mapbox/mapping/issues/43#issuecomment-6210608",
  "issue_url": "https://api.github.com/repos/mapbox/mapping/issues/43",
  "id": 6210608,
  "user": {
    "login": "Rub21",
    "id": 1152236,
    "avatar_url": "https://avatars.githubusercontent.com/u/1152236?v=3",
    "gravatar_id": "",
    "url": "https://api.github.com/users/Rub21",
    "html_url": "https://github.com/Rub21",
    "followers_url": "https://api.github.com/users/Rub21/followers",
    "following_url": "https://api.github.com/users/Rub21/following{/other_user}",
    "gists_url": "https://api.github.com/users/Rub21/gists{/gist_id}",
    "starred_url": "https://api.github.com/users/Rub21/starred{/owner}{/repo}",
    "subscriptions_url": "https://api.github.com/users/Rub21/subscriptions",
    "organizations_url": "https://api.github.com/users/Rub21/orgs",
    "repos_url": "https://api.github.com/users/Rub21/repos",
    "events_url": "https://api.github.com/users/Rub21/events{/privacy}",
    "received_events_url": "https://api.github.com/users/Rub21/received_events",
    "type": "User",
    "site_admin": false
  },
  "created_at": "2012-06-08T19:04:10Z",
  "updated_at": "2012-06-08T19:04:10Z",
  "body": "this map shows all the places that were fixed and cleaned up the garbage that existed in Lima.\n\nhttp://tiles.mapbox.com/villeda/map/map-dxav2bfz\n\ntrabajo Completado"
}
, {
  "url": "https://api.github.com/repos/mapbox/mapping/issues/comments/6302803",
  "html_url": "https://github.com/mapbox/mapping/issues/43#issuecomment-6302803",
  "issue_url": "https://api.github.com/repos/mapbox/mapping/issues/43",
  "id": 6302803,
  "user": {
    "login": "lxbarth",
    "id": 98233,
    "avatar_url": "https://avatars.githubusercontent.com/u/98233?v=3",
    "gravatar_id": "",
    "url": "https://api.github.com/users/lxbarth",
    "html_url": "https://github.com/lxbarth",
    "followers_url": "https://api.github.com/users/lxbarth/followers",
    "following_url": "https://api.github.com/users/lxbarth/following{/other_user}",
    "gists_url": "https://api.github.com/users/lxbarth/gists{/gist_id}",
    "starred_url": "https://api.github.com/users/lxbarth/starred{/owner}{/repo}",
    "subscriptions_url": "https://api.github.com/users/lxbarth/subscriptions",
    "organizations_url": "https://api.github.com/users/lxbarth/orgs",
    "repos_url": "https://api.github.com/users/lxbarth/repos",
    "events_url": "https://api.github.com/users/lxbarth/events{/privacy}",
    "received_events_url": "https://api.github.com/users/lxbarth/received_events",
    "type": "User",
    "site_admin": false
  },
  "created_at": "2012-06-13T14:38:40Z",
  "updated_at": "2012-06-13T14:38:40Z",
  "body": "> trabajo Completado\n\nWow, nice work! Let's close here then."
}
]
