[
{
  "url": "https://api.github.com/repos/google/google-api-dotnet-client/issues/comments/115729788",
  "html_url": "https://github.com/google/google-api-dotnet-client/issues/554#issuecomment-115729788",
  "issue_url": "https://api.github.com/repos/google/google-api-dotnet-client/issues/554",
  "id": 115729788,
  "user": {
    "login": "kenkendk",
    "id": 1510755,
    "avatar_url": "https://avatars.githubusercontent.com/u/1510755?v=3",
    "gravatar_id": "",
    "url": "https://api.github.com/users/kenkendk",
    "html_url": "https://github.com/kenkendk",
    "followers_url": "https://api.github.com/users/kenkendk/followers",
    "following_url": "https://api.github.com/users/kenkendk/following{/other_user}",
    "gists_url": "https://api.github.com/users/kenkendk/gists{/gist_id}",
    "starred_url": "https://api.github.com/users/kenkendk/starred{/owner}{/repo}",
    "subscriptions_url": "https://api.github.com/users/kenkendk/subscriptions",
    "organizations_url": "https://api.github.com/users/kenkendk/orgs",
    "repos_url": "https://api.github.com/users/kenkendk/repos",
    "events_url": "https://api.github.com/users/kenkendk/events{/privacy}",
    "received_events_url": "https://api.github.com/users/kenkendk/received_events",
    "type": "User",
    "site_admin": false
  },
  "created_at": "2015-06-26T15:27:20Z",
  "updated_at": "2015-06-26T15:27:20Z",
  "body": "I used this workaround, by adding a static initializer, I can load the redirect before the actual type is loaded:\r\n```cs\r\nclass Program \r\n{\r\n        static Program()\r\n        {\r\n            var httpasm = typeof(System.Net.Http.HttpClient).Assembly;\r\n            var httpver = new Version(1, 5, 0, 0);\r\n\r\n            AppDomain.CurrentDomain.AssemblyResolve += (s, a) => {\r\n                var requestedAssembly = new System.Reflection.AssemblyName(a.Name);\r\n                if (requestedAssembly.Name != \"System.Net.Http\" || requestedAssembly.Version != httpver)\r\n                    return null;\r\n\r\n                return httpasm;\r\n            };\r\n        }\r\n\r\n       public static void Main()\r\n       {\r\n            // ...... Code that uses the API\r\n       }\r\n\r\n}\r\n```"
}
, {
  "url": "https://api.github.com/repos/google/google-api-dotnet-client/issues/comments/115743736",
  "html_url": "https://github.com/google/google-api-dotnet-client/issues/554#issuecomment-115743736",
  "issue_url": "https://api.github.com/repos/google/google-api-dotnet-client/issues/554",
  "id": 115743736,
  "user": {
    "login": "peleyal",
    "id": 3082873,
    "avatar_url": "https://avatars.githubusercontent.com/u/3082873?v=3",
    "gravatar_id": "",
    "url": "https://api.github.com/users/peleyal",
    "html_url": "https://github.com/peleyal",
    "followers_url": "https://api.github.com/users/peleyal/followers",
    "following_url": "https://api.github.com/users/peleyal/following{/other_user}",
    "gists_url": "https://api.github.com/users/peleyal/gists{/gist_id}",
    "starred_url": "https://api.github.com/users/peleyal/starred{/owner}{/repo}",
    "subscriptions_url": "https://api.github.com/users/peleyal/subscriptions",
    "organizations_url": "https://api.github.com/users/peleyal/orgs",
    "repos_url": "https://api.github.com/users/peleyal/repos",
    "events_url": "https://api.github.com/users/peleyal/events{/privacy}",
    "received_events_url": "https://api.github.com/users/peleyal/received_events",
    "type": "User",
    "site_admin": false
  },
  "created_at": "2015-06-26T16:13:04Z",
  "updated_at": "2015-06-26T16:13:04Z",
  "body": "I think that this discussion should be in stackoverflow using our tag - stackoverflow.com/questions/tagged/google-api-dotnet-client\r\n\r\nI don't think that we should change any code here.\r\nI'm closing this issue. Feel free to reopen it if you see it differently.\r\n\r\nThanks!\r\nEyal "
}
, {
  "url": "https://api.github.com/repos/google/google-api-dotnet-client/issues/comments/115885333",
  "html_url": "https://github.com/google/google-api-dotnet-client/issues/554#issuecomment-115885333",
  "issue_url": "https://api.github.com/repos/google/google-api-dotnet-client/issues/554",
  "id": 115885333,
  "user": {
    "login": "kenkendk",
    "id": 1510755,
    "avatar_url": "https://avatars.githubusercontent.com/u/1510755?v=3",
    "gravatar_id": "",
    "url": "https://api.github.com/users/kenkendk",
    "html_url": "https://github.com/kenkendk",
    "followers_url": "https://api.github.com/users/kenkendk/followers",
    "following_url": "https://api.github.com/users/kenkendk/following{/other_user}",
    "gists_url": "https://api.github.com/users/kenkendk/gists{/gist_id}",
    "starred_url": "https://api.github.com/users/kenkendk/starred{/owner}{/repo}",
    "subscriptions_url": "https://api.github.com/users/kenkendk/subscriptions",
    "organizations_url": "https://api.github.com/users/kenkendk/orgs",
    "repos_url": "https://api.github.com/users/kenkendk/repos",
    "events_url": "https://api.github.com/users/kenkendk/events{/privacy}",
    "received_events_url": "https://api.github.com/users/kenkendk/received_events",
    "type": "User",
    "site_admin": false
  },
  "created_at": "2015-06-26T21:17:47Z",
  "updated_at": "2015-06-26T21:17:47Z",
  "body": "I don't see it as a discussion.\r\n\r\nI consider it a bug that creating the simplest possible solution with the API does not work (under Mono), and it should be fixed.\r\n\r\nMy workaround was intended to help people trying to use the API but having the issue, and not wanting to set up the assembly redirects in the config file.\r\n\r\nI don't consider the issue solved, but I don't mind the issue being closed."
}
, {
  "url": "https://api.github.com/repos/google/google-api-dotnet-client/issues/comments/115894142",
  "html_url": "https://github.com/google/google-api-dotnet-client/issues/554#issuecomment-115894142",
  "issue_url": "https://api.github.com/repos/google/google-api-dotnet-client/issues/554",
  "id": 115894142,
  "user": {
    "login": "peleyal",
    "id": 3082873,
    "avatar_url": "https://avatars.githubusercontent.com/u/3082873?v=3",
    "gravatar_id": "",
    "url": "https://api.github.com/users/peleyal",
    "html_url": "https://github.com/peleyal",
    "followers_url": "https://api.github.com/users/peleyal/followers",
    "following_url": "https://api.github.com/users/peleyal/following{/other_user}",
    "gists_url": "https://api.github.com/users/peleyal/gists{/gist_id}",
    "starred_url": "https://api.github.com/users/peleyal/starred{/owner}{/repo}",
    "subscriptions_url": "https://api.github.com/users/peleyal/subscriptions",
    "organizations_url": "https://api.github.com/users/peleyal/orgs",
    "repos_url": "https://api.github.com/users/peleyal/repos",
    "events_url": "https://api.github.com/users/peleyal/events{/privacy}",
    "received_events_url": "https://api.github.com/users/peleyal/received_events",
    "type": "User",
    "site_admin": false
  },
  "created_at": "2015-06-26T21:34:50Z",
  "updated_at": "2015-06-26T21:34:50Z",
  "body": "What do you think we should do change in the client library?\r\nI understand your pain, but I'm not sure what should we do. It's actually the other package that is breaking stuff, so I try to contact the owner of System.Net.Http (Microsoft)... :)"
}
, {
  "url": "https://api.github.com/repos/google/google-api-dotnet-client/issues/comments/116320263",
  "html_url": "https://github.com/google/google-api-dotnet-client/issues/554#issuecomment-116320263",
  "issue_url": "https://api.github.com/repos/google/google-api-dotnet-client/issues/554",
  "id": 116320263,
  "user": {
    "login": "kenkendk",
    "id": 1510755,
    "avatar_url": "https://avatars.githubusercontent.com/u/1510755?v=3",
    "gravatar_id": "",
    "url": "https://api.github.com/users/kenkendk",
    "html_url": "https://github.com/kenkendk",
    "followers_url": "https://api.github.com/users/kenkendk/followers",
    "following_url": "https://api.github.com/users/kenkendk/following{/other_user}",
    "gists_url": "https://api.github.com/users/kenkendk/gists{/gist_id}",
    "starred_url": "https://api.github.com/users/kenkendk/starred{/owner}{/repo}",
    "subscriptions_url": "https://api.github.com/users/kenkendk/subscriptions",
    "organizations_url": "https://api.github.com/users/kenkendk/orgs",
    "repos_url": "https://api.github.com/users/kenkendk/repos",
    "events_url": "https://api.github.com/users/kenkendk/events{/privacy}",
    "received_events_url": "https://api.github.com/users/kenkendk/received_events",
    "type": "User",
    "site_admin": false
  },
  "created_at": "2015-06-28T19:45:22Z",
  "updated_at": "2015-06-28T19:45:22Z",
  "body": "After looking at the problem some more I don't see a good solution that you can implement.\r\n\r\nYou obviously need the things in the System.Net.Http assembly, so you need to bind. If you choose to bind to the Mono version, you probably get problems with the MS version.\r\n\r\nPerhaps the right thing is to raise the issue with Mono. I have not seen reports that there are errors from the MS BCL, so it looks like a Mono only issue. If the Mono team wants to provide a compatible environment to the MS one, the right solution is probably to either provide the assembly, or have the assembly redirect as part of the Mono package."
}
]
