[
{
  "url": "https://api.github.com/repos/google/google-api-dotnet-client/issues/comments/93001808",
  "html_url": "https://github.com/google/google-api-dotnet-client/issues/348#issuecomment-93001808",
  "issue_url": "https://api.github.com/repos/google/google-api-dotnet-client/issues/348",
  "id": 93001808,
  "user": {
    "login": "GoogleCodeExporter",
    "id": 9614759,
    "avatar_url": "https://avatars.githubusercontent.com/u/9614759?v=3",
    "gravatar_id": "",
    "url": "https://api.github.com/users/GoogleCodeExporter",
    "html_url": "https://github.com/GoogleCodeExporter",
    "followers_url": "https://api.github.com/users/GoogleCodeExporter/followers",
    "following_url": "https://api.github.com/users/GoogleCodeExporter/following{/other_user}",
    "gists_url": "https://api.github.com/users/GoogleCodeExporter/gists{/gist_id}",
    "starred_url": "https://api.github.com/users/GoogleCodeExporter/starred{/owner}{/repo}",
    "subscriptions_url": "https://api.github.com/users/GoogleCodeExporter/subscriptions",
    "organizations_url": "https://api.github.com/users/GoogleCodeExporter/orgs",
    "repos_url": "https://api.github.com/users/GoogleCodeExporter/repos",
    "events_url": "https://api.github.com/users/GoogleCodeExporter/events{/privacy}",
    "received_events_url": "https://api.github.com/users/GoogleCodeExporter/received_events",
    "type": "User",
    "site_admin": false
  },
  "created_at": "2015-04-14T18:05:16Z",
  "updated_at": "2015-04-14T18:05:16Z",
  "body": "\n\nOriginal comment by `ngmic...@google.com` on 1 Jul 2013 at 7:20"
}
, {
  "url": "https://api.github.com/repos/google/google-api-dotnet-client/issues/comments/93001811",
  "html_url": "https://github.com/google/google-api-dotnet-client/issues/348#issuecomment-93001811",
  "issue_url": "https://api.github.com/repos/google/google-api-dotnet-client/issues/348",
  "id": 93001811,
  "user": {
    "login": "GoogleCodeExporter",
    "id": 9614759,
    "avatar_url": "https://avatars.githubusercontent.com/u/9614759?v=3",
    "gravatar_id": "",
    "url": "https://api.github.com/users/GoogleCodeExporter",
    "html_url": "https://github.com/GoogleCodeExporter",
    "followers_url": "https://api.github.com/users/GoogleCodeExporter/followers",
    "following_url": "https://api.github.com/users/GoogleCodeExporter/following{/other_user}",
    "gists_url": "https://api.github.com/users/GoogleCodeExporter/gists{/gist_id}",
    "starred_url": "https://api.github.com/users/GoogleCodeExporter/starred{/owner}{/repo}",
    "subscriptions_url": "https://api.github.com/users/GoogleCodeExporter/subscriptions",
    "organizations_url": "https://api.github.com/users/GoogleCodeExporter/orgs",
    "repos_url": "https://api.github.com/users/GoogleCodeExporter/repos",
    "events_url": "https://api.github.com/users/GoogleCodeExporter/events{/privacy}",
    "received_events_url": "https://api.github.com/users/GoogleCodeExporter/received_events",
    "type": "User",
    "site_admin": false
  },
  "created_at": "2015-04-14T18:05:17Z",
  "updated_at": "2015-04-14T18:05:17Z",
  "body": "\n\nOriginal comment by `pele...@google.com` on 14 Aug 2013 at 3:25\n* Added labels: **Milestone-Release1.6**\n* Removed labels: **Milestone-Release1.5**"
}
, {
  "url": "https://api.github.com/repos/google/google-api-dotnet-client/issues/comments/93001815",
  "html_url": "https://github.com/google/google-api-dotnet-client/issues/348#issuecomment-93001815",
  "issue_url": "https://api.github.com/repos/google/google-api-dotnet-client/issues/348",
  "id": 93001815,
  "user": {
    "login": "GoogleCodeExporter",
    "id": 9614759,
    "avatar_url": "https://avatars.githubusercontent.com/u/9614759?v=3",
    "gravatar_id": "",
    "url": "https://api.github.com/users/GoogleCodeExporter",
    "html_url": "https://github.com/GoogleCodeExporter",
    "followers_url": "https://api.github.com/users/GoogleCodeExporter/followers",
    "following_url": "https://api.github.com/users/GoogleCodeExporter/following{/other_user}",
    "gists_url": "https://api.github.com/users/GoogleCodeExporter/gists{/gist_id}",
    "starred_url": "https://api.github.com/users/GoogleCodeExporter/starred{/owner}{/repo}",
    "subscriptions_url": "https://api.github.com/users/GoogleCodeExporter/subscriptions",
    "organizations_url": "https://api.github.com/users/GoogleCodeExporter/orgs",
    "repos_url": "https://api.github.com/users/GoogleCodeExporter/repos",
    "events_url": "https://api.github.com/users/GoogleCodeExporter/events{/privacy}",
    "received_events_url": "https://api.github.com/users/GoogleCodeExporter/received_events",
    "type": "User",
    "site_admin": false
  },
  "created_at": "2015-04-14T18:05:17Z",
  "updated_at": "2015-04-14T18:05:17Z",
  "body": "\n\nOriginal comment by `pele...@google.com` on 1 Oct 2013 at 5:18\n* Removed labels: **Milestone-Release1.6**"
}
]
