[
{
  "url": "https://api.github.com/repos/google/google-api-dotnet-client/issues/comments/139237994",
  "html_url": "https://github.com/google/google-api-dotnet-client/issues/586#issuecomment-139237994",
  "issue_url": "https://api.github.com/repos/google/google-api-dotnet-client/issues/586",
  "id": 139237994,
  "user": {
    "login": "LindaLawton",
    "id": 6592543,
    "avatar_url": "https://avatars.githubusercontent.com/u/6592543?v=3",
    "gravatar_id": "",
    "url": "https://api.github.com/users/LindaLawton",
    "html_url": "https://github.com/LindaLawton",
    "followers_url": "https://api.github.com/users/LindaLawton/followers",
    "following_url": "https://api.github.com/users/LindaLawton/following{/other_user}",
    "gists_url": "https://api.github.com/users/LindaLawton/gists{/gist_id}",
    "starred_url": "https://api.github.com/users/LindaLawton/starred{/owner}{/repo}",
    "subscriptions_url": "https://api.github.com/users/LindaLawton/subscriptions",
    "organizations_url": "https://api.github.com/users/LindaLawton/orgs",
    "repos_url": "https://api.github.com/users/LindaLawton/repos",
    "events_url": "https://api.github.com/users/LindaLawton/events{/privacy}",
    "received_events_url": "https://api.github.com/users/LindaLawton/received_events",
    "type": "User",
    "site_admin": false
  },
  "created_at": "2015-09-10T13:43:50Z",
  "updated_at": "2015-09-10T13:43:50Z",
  "body": "Questions regarding usage of the client library should be posted to [stackoverflow.com](http://stackoverflow.com/)  using the tag [#google-api-dotnet-client](http://stackoverflow.com/questions/tagged/google-api-dotnet-client)\r\n\r\nYou are missing the part where you load the certificate.  "
}
, {
  "url": "https://api.github.com/repos/google/google-api-dotnet-client/issues/comments/140214610",
  "html_url": "https://github.com/google/google-api-dotnet-client/issues/586#issuecomment-140214610",
  "issue_url": "https://api.github.com/repos/google/google-api-dotnet-client/issues/586",
  "id": 140214610,
  "user": {
    "login": "jtattermusch",
    "id": 9939684,
    "avatar_url": "https://avatars.githubusercontent.com/u/9939684?v=3",
    "gravatar_id": "",
    "url": "https://api.github.com/users/jtattermusch",
    "html_url": "https://github.com/jtattermusch",
    "followers_url": "https://api.github.com/users/jtattermusch/followers",
    "following_url": "https://api.github.com/users/jtattermusch/following{/other_user}",
    "gists_url": "https://api.github.com/users/jtattermusch/gists{/gist_id}",
    "starred_url": "https://api.github.com/users/jtattermusch/starred{/owner}{/repo}",
    "subscriptions_url": "https://api.github.com/users/jtattermusch/subscriptions",
    "organizations_url": "https://api.github.com/users/jtattermusch/orgs",
    "repos_url": "https://api.github.com/users/jtattermusch/repos",
    "events_url": "https://api.github.com/users/jtattermusch/events{/privacy}",
    "received_events_url": "https://api.github.com/users/jtattermusch/received_events",
    "type": "User",
    "site_admin": false
  },
  "created_at": "2015-09-14T21:46:32Z",
  "updated_at": "2015-09-14T21:46:32Z",
  "body": "I believe the example is alright. GoogleCredential.GetApplicationDefaultAsync() is part of the new API that loads the credentials automatically. https://developers.google.com/identity/protocols/application-default-credentials.\r\n\r\n@vsubramani, I wasn't able to reproduce this."
}
, {
  "url": "https://api.github.com/repos/google/google-api-dotnet-client/issues/comments/147026202",
  "html_url": "https://github.com/google/google-api-dotnet-client/issues/586#issuecomment-147026202",
  "issue_url": "https://api.github.com/repos/google/google-api-dotnet-client/issues/586",
  "id": 147026202,
  "user": {
    "login": "jtattermusch",
    "id": 9939684,
    "avatar_url": "https://avatars.githubusercontent.com/u/9939684?v=3",
    "gravatar_id": "",
    "url": "https://api.github.com/users/jtattermusch",
    "html_url": "https://github.com/jtattermusch",
    "followers_url": "https://api.github.com/users/jtattermusch/followers",
    "following_url": "https://api.github.com/users/jtattermusch/following{/other_user}",
    "gists_url": "https://api.github.com/users/jtattermusch/gists{/gist_id}",
    "starred_url": "https://api.github.com/users/jtattermusch/starred{/owner}{/repo}",
    "subscriptions_url": "https://api.github.com/users/jtattermusch/subscriptions",
    "organizations_url": "https://api.github.com/users/jtattermusch/orgs",
    "repos_url": "https://api.github.com/users/jtattermusch/repos",
    "events_url": "https://api.github.com/users/jtattermusch/events{/privacy}",
    "received_events_url": "https://api.github.com/users/jtattermusch/received_events",
    "type": "User",
    "site_admin": false
  },
  "created_at": "2015-10-10T02:47:32Z",
  "updated_at": "2015-10-10T02:47:32Z",
  "body": "@vsubramani   can you please verify this is still an issue? If so, can you please provide some guidance on how to reproduce this? Of course, a pull request with fix is more than welcome."
}
, {
  "url": "https://api.github.com/repos/google/google-api-dotnet-client/issues/comments/147449160",
  "html_url": "https://github.com/google/google-api-dotnet-client/issues/586#issuecomment-147449160",
  "issue_url": "https://api.github.com/repos/google/google-api-dotnet-client/issues/586",
  "id": 147449160,
  "user": {
    "login": "vsubramani",
    "id": 10506357,
    "avatar_url": "https://avatars.githubusercontent.com/u/10506357?v=3",
    "gravatar_id": "",
    "url": "https://api.github.com/users/vsubramani",
    "html_url": "https://github.com/vsubramani",
    "followers_url": "https://api.github.com/users/vsubramani/followers",
    "following_url": "https://api.github.com/users/vsubramani/following{/other_user}",
    "gists_url": "https://api.github.com/users/vsubramani/gists{/gist_id}",
    "starred_url": "https://api.github.com/users/vsubramani/starred{/owner}{/repo}",
    "subscriptions_url": "https://api.github.com/users/vsubramani/subscriptions",
    "organizations_url": "https://api.github.com/users/vsubramani/orgs",
    "repos_url": "https://api.github.com/users/vsubramani/repos",
    "events_url": "https://api.github.com/users/vsubramani/events{/privacy}",
    "received_events_url": "https://api.github.com/users/vsubramani/received_events",
    "type": "User",
    "site_admin": false
  },
  "created_at": "2015-10-12T16:14:01Z",
  "updated_at": "2015-10-12T16:14:01Z",
  "body": "After some more investigation, I've narrowed this down to just one of the VMs I using. Since this works fine in all other machines, I am closing this issue."
}
]
