[
{
  "url": "https://api.github.com/repos/google/google-api-dotnet-client/issues/comments/93002989",
  "html_url": "https://github.com/google/google-api-dotnet-client/issues/411#issuecomment-93002989",
  "issue_url": "https://api.github.com/repos/google/google-api-dotnet-client/issues/411",
  "id": 93002989,
  "user": {
    "login": "GoogleCodeExporter",
    "id": 9614759,
    "avatar_url": "https://avatars.githubusercontent.com/u/9614759?v=3",
    "gravatar_id": "",
    "url": "https://api.github.com/users/GoogleCodeExporter",
    "html_url": "https://github.com/GoogleCodeExporter",
    "followers_url": "https://api.github.com/users/GoogleCodeExporter/followers",
    "following_url": "https://api.github.com/users/GoogleCodeExporter/following{/other_user}",
    "gists_url": "https://api.github.com/users/GoogleCodeExporter/gists{/gist_id}",
    "starred_url": "https://api.github.com/users/GoogleCodeExporter/starred{/owner}{/repo}",
    "subscriptions_url": "https://api.github.com/users/GoogleCodeExporter/subscriptions",
    "organizations_url": "https://api.github.com/users/GoogleCodeExporter/orgs",
    "repos_url": "https://api.github.com/users/GoogleCodeExporter/repos",
    "events_url": "https://api.github.com/users/GoogleCodeExporter/events{/privacy}",
    "received_events_url": "https://api.github.com/users/GoogleCodeExporter/received_events",
    "type": "User",
    "site_admin": false
  },
  "created_at": "2015-04-14T18:07:08Z",
  "updated_at": "2015-04-14T18:07:08Z",
  "body": "```\nwhat are the syntax error??? please elaborate\n```\n\nOriginal comment by `pele...@google.com` on 7 Nov 2013 at 4:09"
}
, {
  "url": "https://api.github.com/repos/google/google-api-dotnet-client/issues/comments/93002991",
  "html_url": "https://github.com/google/google-api-dotnet-client/issues/411#issuecomment-93002991",
  "issue_url": "https://api.github.com/repos/google/google-api-dotnet-client/issues/411",
  "id": 93002991,
  "user": {
    "login": "GoogleCodeExporter",
    "id": 9614759,
    "avatar_url": "https://avatars.githubusercontent.com/u/9614759?v=3",
    "gravatar_id": "",
    "url": "https://api.github.com/users/GoogleCodeExporter",
    "html_url": "https://github.com/GoogleCodeExporter",
    "followers_url": "https://api.github.com/users/GoogleCodeExporter/followers",
    "following_url": "https://api.github.com/users/GoogleCodeExporter/following{/other_user}",
    "gists_url": "https://api.github.com/users/GoogleCodeExporter/gists{/gist_id}",
    "starred_url": "https://api.github.com/users/GoogleCodeExporter/starred{/owner}{/repo}",
    "subscriptions_url": "https://api.github.com/users/GoogleCodeExporter/subscriptions",
    "organizations_url": "https://api.github.com/users/GoogleCodeExporter/orgs",
    "repos_url": "https://api.github.com/users/GoogleCodeExporter/repos",
    "events_url": "https://api.github.com/users/GoogleCodeExporter/events{/privacy}",
    "received_events_url": "https://api.github.com/users/GoogleCodeExporter/received_events",
    "type": "User",
    "site_admin": false
  },
  "created_at": "2015-04-14T18:07:08Z",
  "updated_at": "2015-04-14T18:07:08Z",
  "body": "\n\nOriginal comment by `gaurang....@gmail.com` on 7 Nov 2013 at 6:12\n\nAttachments:\n* [Errors.png](https://storage.googleapis.com/google-code-attachments/google-api-dotnet-client/issue-411/comment-2/Errors.png)\n"
}
, {
  "url": "https://api.github.com/repos/google/google-api-dotnet-client/issues/comments/93002992",
  "html_url": "https://github.com/google/google-api-dotnet-client/issues/411#issuecomment-93002992",
  "issue_url": "https://api.github.com/repos/google/google-api-dotnet-client/issues/411",
  "id": 93002992,
  "user": {
    "login": "GoogleCodeExporter",
    "id": 9614759,
    "avatar_url": "https://avatars.githubusercontent.com/u/9614759?v=3",
    "gravatar_id": "",
    "url": "https://api.github.com/users/GoogleCodeExporter",
    "html_url": "https://github.com/GoogleCodeExporter",
    "followers_url": "https://api.github.com/users/GoogleCodeExporter/followers",
    "following_url": "https://api.github.com/users/GoogleCodeExporter/following{/other_user}",
    "gists_url": "https://api.github.com/users/GoogleCodeExporter/gists{/gist_id}",
    "starred_url": "https://api.github.com/users/GoogleCodeExporter/starred{/owner}{/repo}",
    "subscriptions_url": "https://api.github.com/users/GoogleCodeExporter/subscriptions",
    "organizations_url": "https://api.github.com/users/GoogleCodeExporter/orgs",
    "repos_url": "https://api.github.com/users/GoogleCodeExporter/repos",
    "events_url": "https://api.github.com/users/GoogleCodeExporter/events{/privacy}",
    "received_events_url": "https://api.github.com/users/GoogleCodeExporter/received_events",
    "type": "User",
    "site_admin": false
  },
  "created_at": "2015-04-14T18:07:08Z",
  "updated_at": "2015-04-14T18:07:08Z",
  "body": "```\nseems bad code has been checked in.\n```\n\nOriginal comment by `gaurang....@gmail.com` on 7 Nov 2013 at 6:13"
}
, {
  "url": "https://api.github.com/repos/google/google-api-dotnet-client/issues/comments/93002994",
  "html_url": "https://github.com/google/google-api-dotnet-client/issues/411#issuecomment-93002994",
  "issue_url": "https://api.github.com/repos/google/google-api-dotnet-client/issues/411",
  "id": 93002994,
  "user": {
    "login": "GoogleCodeExporter",
    "id": 9614759,
    "avatar_url": "https://avatars.githubusercontent.com/u/9614759?v=3",
    "gravatar_id": "",
    "url": "https://api.github.com/users/GoogleCodeExporter",
    "html_url": "https://github.com/GoogleCodeExporter",
    "followers_url": "https://api.github.com/users/GoogleCodeExporter/followers",
    "following_url": "https://api.github.com/users/GoogleCodeExporter/following{/other_user}",
    "gists_url": "https://api.github.com/users/GoogleCodeExporter/gists{/gist_id}",
    "starred_url": "https://api.github.com/users/GoogleCodeExporter/starred{/owner}{/repo}",
    "subscriptions_url": "https://api.github.com/users/GoogleCodeExporter/subscriptions",
    "organizations_url": "https://api.github.com/users/GoogleCodeExporter/orgs",
    "repos_url": "https://api.github.com/users/GoogleCodeExporter/repos",
    "events_url": "https://api.github.com/users/GoogleCodeExporter/events{/privacy}",
    "received_events_url": "https://api.github.com/users/GoogleCodeExporter/received_events",
    "type": "User",
    "site_admin": false
  },
  "created_at": "2015-04-14T18:07:08Z",
  "updated_at": "2015-04-14T18:07:08Z",
  "body": "```\nDid you install NuGet?\n```\n\nOriginal comment by `pele...@google.com` on 8 Nov 2013 at 7:39"
}
, {
  "url": "https://api.github.com/repos/google/google-api-dotnet-client/issues/comments/93002996",
  "html_url": "https://github.com/google/google-api-dotnet-client/issues/411#issuecomment-93002996",
  "issue_url": "https://api.github.com/repos/google/google-api-dotnet-client/issues/411",
  "id": 93002996,
  "user": {
    "login": "GoogleCodeExporter",
    "id": 9614759,
    "avatar_url": "https://avatars.githubusercontent.com/u/9614759?v=3",
    "gravatar_id": "",
    "url": "https://api.github.com/users/GoogleCodeExporter",
    "html_url": "https://github.com/GoogleCodeExporter",
    "followers_url": "https://api.github.com/users/GoogleCodeExporter/followers",
    "following_url": "https://api.github.com/users/GoogleCodeExporter/following{/other_user}",
    "gists_url": "https://api.github.com/users/GoogleCodeExporter/gists{/gist_id}",
    "starred_url": "https://api.github.com/users/GoogleCodeExporter/starred{/owner}{/repo}",
    "subscriptions_url": "https://api.github.com/users/GoogleCodeExporter/subscriptions",
    "organizations_url": "https://api.github.com/users/GoogleCodeExporter/orgs",
    "repos_url": "https://api.github.com/users/GoogleCodeExporter/repos",
    "events_url": "https://api.github.com/users/GoogleCodeExporter/events{/privacy}",
    "received_events_url": "https://api.github.com/users/GoogleCodeExporter/received_events",
    "type": "User",
    "site_admin": false
  },
  "created_at": "2015-04-14T18:07:08Z",
  "updated_at": "2015-04-14T18:07:08Z",
  "body": "```\nI had NuGet installed, and had no problem restoring library.\n```\n\nOriginal comment by `gaurang....@gmail.com` on 8 Nov 2013 at 7:41"
}
, {
  "url": "https://api.github.com/repos/google/google-api-dotnet-client/issues/comments/93002999",
  "html_url": "https://github.com/google/google-api-dotnet-client/issues/411#issuecomment-93002999",
  "issue_url": "https://api.github.com/repos/google/google-api-dotnet-client/issues/411",
  "id": 93002999,
  "user": {
    "login": "GoogleCodeExporter",
    "id": 9614759,
    "avatar_url": "https://avatars.githubusercontent.com/u/9614759?v=3",
    "gravatar_id": "",
    "url": "https://api.github.com/users/GoogleCodeExporter",
    "html_url": "https://github.com/GoogleCodeExporter",
    "followers_url": "https://api.github.com/users/GoogleCodeExporter/followers",
    "following_url": "https://api.github.com/users/GoogleCodeExporter/following{/other_user}",
    "gists_url": "https://api.github.com/users/GoogleCodeExporter/gists{/gist_id}",
    "starred_url": "https://api.github.com/users/GoogleCodeExporter/starred{/owner}{/repo}",
    "subscriptions_url": "https://api.github.com/users/GoogleCodeExporter/subscriptions",
    "organizations_url": "https://api.github.com/users/GoogleCodeExporter/orgs",
    "repos_url": "https://api.github.com/users/GoogleCodeExporter/repos",
    "events_url": "https://api.github.com/users/GoogleCodeExporter/events{/privacy}",
    "received_events_url": "https://api.github.com/users/GoogleCodeExporter/received_events",
    "type": "User",
    "site_admin": false
  },
  "created_at": "2015-04-14T18:07:09Z",
  "updated_at": "2015-04-14T18:07:09Z",
  "body": "```\nSo is ik OK now? Everything is compiled as required?\n```\n\nOriginal comment by `pele...@google.com` on 10 Nov 2013 at 8:18"
}
, {
  "url": "https://api.github.com/repos/google/google-api-dotnet-client/issues/comments/93003002",
  "html_url": "https://github.com/google/google-api-dotnet-client/issues/411#issuecomment-93003002",
  "issue_url": "https://api.github.com/repos/google/google-api-dotnet-client/issues/411",
  "id": 93003002,
  "user": {
    "login": "GoogleCodeExporter",
    "id": 9614759,
    "avatar_url": "https://avatars.githubusercontent.com/u/9614759?v=3",
    "gravatar_id": "",
    "url": "https://api.github.com/users/GoogleCodeExporter",
    "html_url": "https://github.com/GoogleCodeExporter",
    "followers_url": "https://api.github.com/users/GoogleCodeExporter/followers",
    "following_url": "https://api.github.com/users/GoogleCodeExporter/following{/other_user}",
    "gists_url": "https://api.github.com/users/GoogleCodeExporter/gists{/gist_id}",
    "starred_url": "https://api.github.com/users/GoogleCodeExporter/starred{/owner}{/repo}",
    "subscriptions_url": "https://api.github.com/users/GoogleCodeExporter/subscriptions",
    "organizations_url": "https://api.github.com/users/GoogleCodeExporter/orgs",
    "repos_url": "https://api.github.com/users/GoogleCodeExporter/repos",
    "events_url": "https://api.github.com/users/GoogleCodeExporter/events{/privacy}",
    "received_events_url": "https://api.github.com/users/GoogleCodeExporter/received_events",
    "type": "User",
    "site_admin": false
  },
  "created_at": "2015-04-14T18:07:09Z",
  "updated_at": "2015-04-14T18:07:09Z",
  "body": "```\nIt seems this projects only compatible with VS2012. I was using previous \nversion of it. Issue is fixed now.\n```\n\nOriginal comment by `gaurang....@gmail.com` on 12 Nov 2013 at 6:27"
}
, {
  "url": "https://api.github.com/repos/google/google-api-dotnet-client/issues/comments/93003006",
  "html_url": "https://github.com/google/google-api-dotnet-client/issues/411#issuecomment-93003006",
  "issue_url": "https://api.github.com/repos/google/google-api-dotnet-client/issues/411",
  "id": 93003006,
  "user": {
    "login": "GoogleCodeExporter",
    "id": 9614759,
    "avatar_url": "https://avatars.githubusercontent.com/u/9614759?v=3",
    "gravatar_id": "",
    "url": "https://api.github.com/users/GoogleCodeExporter",
    "html_url": "https://github.com/GoogleCodeExporter",
    "followers_url": "https://api.github.com/users/GoogleCodeExporter/followers",
    "following_url": "https://api.github.com/users/GoogleCodeExporter/following{/other_user}",
    "gists_url": "https://api.github.com/users/GoogleCodeExporter/gists{/gist_id}",
    "starred_url": "https://api.github.com/users/GoogleCodeExporter/starred{/owner}{/repo}",
    "subscriptions_url": "https://api.github.com/users/GoogleCodeExporter/subscriptions",
    "organizations_url": "https://api.github.com/users/GoogleCodeExporter/orgs",
    "repos_url": "https://api.github.com/users/GoogleCodeExporter/repos",
    "events_url": "https://api.github.com/users/GoogleCodeExporter/events{/privacy}",
    "received_events_url": "https://api.github.com/users/GoogleCodeExporter/received_events",
    "type": "User",
    "site_admin": false
  },
  "created_at": "2015-04-14T18:07:09Z",
  "updated_at": "2015-04-14T18:07:09Z",
  "body": "```\nWhat is the exact error?\nI want you to use the latest version which is well maintain and you will get \nlatest updates.\n\nIt should work on VS2010, and if not, we will make it :)\n\nPlease let me know.\n```\n\nOriginal comment by `pele...@google.com` on 18 Nov 2013 at 3:22\n* Changed state: **Accepted**\n* Added labels: **Component-Build**, **Component-Platforms**"
}
, {
  "url": "https://api.github.com/repos/google/google-api-dotnet-client/issues/comments/93003009",
  "html_url": "https://github.com/google/google-api-dotnet-client/issues/411#issuecomment-93003009",
  "issue_url": "https://api.github.com/repos/google/google-api-dotnet-client/issues/411",
  "id": 93003009,
  "user": {
    "login": "GoogleCodeExporter",
    "id": 9614759,
    "avatar_url": "https://avatars.githubusercontent.com/u/9614759?v=3",
    "gravatar_id": "",
    "url": "https://api.github.com/users/GoogleCodeExporter",
    "html_url": "https://github.com/GoogleCodeExporter",
    "followers_url": "https://api.github.com/users/GoogleCodeExporter/followers",
    "following_url": "https://api.github.com/users/GoogleCodeExporter/following{/other_user}",
    "gists_url": "https://api.github.com/users/GoogleCodeExporter/gists{/gist_id}",
    "starred_url": "https://api.github.com/users/GoogleCodeExporter/starred{/owner}{/repo}",
    "subscriptions_url": "https://api.github.com/users/GoogleCodeExporter/subscriptions",
    "organizations_url": "https://api.github.com/users/GoogleCodeExporter/orgs",
    "repos_url": "https://api.github.com/users/GoogleCodeExporter/repos",
    "events_url": "https://api.github.com/users/GoogleCodeExporter/events{/privacy}",
    "received_events_url": "https://api.github.com/users/GoogleCodeExporter/received_events",
    "type": "User",
    "site_admin": false
  },
  "created_at": "2015-04-14T18:07:09Z",
  "updated_at": "2015-04-14T18:07:09Z",
  "body": "```\nHi,\nI cannot load the GoogleApis project in VS 2010. Please screen shot for the \nerror.\n```\n\nOriginal comment by `hoangtun...@gmail.com` on 18 Nov 2013 at 10:27\n\nAttachments:\n* [VS2012 Error.png](https://storage.googleapis.com/google-code-attachments/google-api-dotnet-client/issue-411/comment-9/VS2012 Error.png)\n"
}
, {
  "url": "https://api.github.com/repos/google/google-api-dotnet-client/issues/comments/93003010",
  "html_url": "https://github.com/google/google-api-dotnet-client/issues/411#issuecomment-93003010",
  "issue_url": "https://api.github.com/repos/google/google-api-dotnet-client/issues/411",
  "id": 93003010,
  "user": {
    "login": "GoogleCodeExporter",
    "id": 9614759,
    "avatar_url": "https://avatars.githubusercontent.com/u/9614759?v=3",
    "gravatar_id": "",
    "url": "https://api.github.com/users/GoogleCodeExporter",
    "html_url": "https://github.com/GoogleCodeExporter",
    "followers_url": "https://api.github.com/users/GoogleCodeExporter/followers",
    "following_url": "https://api.github.com/users/GoogleCodeExporter/following{/other_user}",
    "gists_url": "https://api.github.com/users/GoogleCodeExporter/gists{/gist_id}",
    "starred_url": "https://api.github.com/users/GoogleCodeExporter/starred{/owner}{/repo}",
    "subscriptions_url": "https://api.github.com/users/GoogleCodeExporter/subscriptions",
    "organizations_url": "https://api.github.com/users/GoogleCodeExporter/orgs",
    "repos_url": "https://api.github.com/users/GoogleCodeExporter/repos",
    "events_url": "https://api.github.com/users/GoogleCodeExporter/events{/privacy}",
    "received_events_url": "https://api.github.com/users/GoogleCodeExporter/received_events",
    "type": "User",
    "site_admin": false
  },
  "created_at": "2015-04-14T18:07:09Z",
  "updated_at": "2015-04-14T18:07:09Z",
  "body": "```\nIt looks like you need to install a service pack for VS (read the following \nlink for more details \nhttp://msdn.microsoft.com/en-us/library/vstudio/gg597391(v=vs.100).aspx)\n\nI'm closing this issue, feel free to reopen if I missed something.\nThanks\n```\n\nOriginal comment by `pele...@google.com` on 28 Nov 2013 at 5:55\n* Changed state: **WontFix**"
}
]
