[
{
  "url": "https://api.github.com/repos/google/gxui/issues/comments/86054893",
  "html_url": "https://github.com/google/gxui/issues/65#issuecomment-86054893",
  "issue_url": "https://api.github.com/repos/google/gxui/issues/65",
  "id": 86054893,
  "user": {
    "login": "crawshaw",
    "id": 161319,
    "avatar_url": "https://avatars.githubusercontent.com/u/161319?v=3",
    "gravatar_id": "",
    "url": "https://api.github.com/users/crawshaw",
    "html_url": "https://github.com/crawshaw",
    "followers_url": "https://api.github.com/users/crawshaw/followers",
    "following_url": "https://api.github.com/users/crawshaw/following{/other_user}",
    "gists_url": "https://api.github.com/users/crawshaw/gists{/gist_id}",
    "starred_url": "https://api.github.com/users/crawshaw/starred{/owner}{/repo}",
    "subscriptions_url": "https://api.github.com/users/crawshaw/subscriptions",
    "organizations_url": "https://api.github.com/users/crawshaw/orgs",
    "repos_url": "https://api.github.com/users/crawshaw/repos",
    "events_url": "https://api.github.com/users/crawshaw/events{/privacy}",
    "received_events_url": "https://api.github.com/users/crawshaw/received_events",
    "type": "User",
    "site_admin": false
  },
  "created_at": "2015-03-25T14:37:50Z",
  "updated_at": "2015-03-25T14:37:50Z",
  "body": "A material design theme would be lovely. It is a significant undertaking that I doubt any of us have time for yet, so if anyone wants to contribute work towards a material theme, please do."
}
, {
  "url": "https://api.github.com/repos/google/gxui/issues/comments/86062961",
  "html_url": "https://github.com/google/gxui/issues/65#issuecomment-86062961",
  "issue_url": "https://api.github.com/repos/google/gxui/issues/65",
  "id": 86062961,
  "user": {
    "login": "ben-clayton",
    "id": 11505236,
    "avatar_url": "https://avatars.githubusercontent.com/u/11505236?v=3",
    "gravatar_id": "",
    "url": "https://api.github.com/users/ben-clayton",
    "html_url": "https://github.com/ben-clayton",
    "followers_url": "https://api.github.com/users/ben-clayton/followers",
    "following_url": "https://api.github.com/users/ben-clayton/following{/other_user}",
    "gists_url": "https://api.github.com/users/ben-clayton/gists{/gist_id}",
    "starred_url": "https://api.github.com/users/ben-clayton/starred{/owner}{/repo}",
    "subscriptions_url": "https://api.github.com/users/ben-clayton/subscriptions",
    "organizations_url": "https://api.github.com/users/ben-clayton/orgs",
    "repos_url": "https://api.github.com/users/ben-clayton/repos",
    "events_url": "https://api.github.com/users/ben-clayton/events{/privacy}",
    "received_events_url": "https://api.github.com/users/ben-clayton/received_events",
    "type": "User",
    "site_admin": false
  },
  "created_at": "2015-03-25T14:47:38Z",
  "updated_at": "2015-03-25T14:47:46Z",
  "body": "Also, be aware we are still in an experimental phase - things are changing, APIs are breaking, whole systems might be re-worked. Having another theme would be nice, but would also increase the amount of code to update with each change.\r\nLike @crawshaw said, it would be nice, but would be a fair amount of initial and maintenance work."
}
]
