[
{
  "url": "https://api.github.com/repos/Azure/azure-webjobs-sdk/issues/comments/167116591",
  "html_url": "https://github.com/Azure/azure-webjobs-sdk/issues/614#issuecomment-167116591",
  "issue_url": "https://api.github.com/repos/Azure/azure-webjobs-sdk/issues/614",
  "id": 167116591,
  "user": {
    "login": "mathewc",
    "id": 1056548,
    "avatar_url": "https://avatars.githubusercontent.com/u/1056548?v=3",
    "gravatar_id": "",
    "url": "https://api.github.com/users/mathewc",
    "html_url": "https://github.com/mathewc",
    "followers_url": "https://api.github.com/users/mathewc/followers",
    "following_url": "https://api.github.com/users/mathewc/following{/other_user}",
    "gists_url": "https://api.github.com/users/mathewc/gists{/gist_id}",
    "starred_url": "https://api.github.com/users/mathewc/starred{/owner}{/repo}",
    "subscriptions_url": "https://api.github.com/users/mathewc/subscriptions",
    "organizations_url": "https://api.github.com/users/mathewc/orgs",
    "repos_url": "https://api.github.com/users/mathewc/repos",
    "events_url": "https://api.github.com/users/mathewc/events{/privacy}",
    "received_events_url": "https://api.github.com/users/mathewc/received_events",
    "type": "User",
    "site_admin": false
  },
  "created_at": "2015-12-24T14:07:31Z",
  "updated_at": "2015-12-24T14:08:43Z",
  "body": "This is likely due to the lock behavior that TimerTrigger employs to ensure that only a single instance of your function is running across scaled out instances. Please see [this wiki page](https://github.com/Azure/azure-webjobs-sdk-extensions/wiki/TimerTrigger) for more details and recommendations on how to facilitate local debugging/development."
}
, {
  "url": "https://api.github.com/repos/Azure/azure-webjobs-sdk/issues/comments/168630001",
  "html_url": "https://github.com/Azure/azure-webjobs-sdk/issues/614#issuecomment-168630001",
  "issue_url": "https://api.github.com/repos/Azure/azure-webjobs-sdk/issues/614",
  "id": 168630001,
  "user": {
    "login": "AnthonyDewhirst",
    "id": 642569,
    "avatar_url": "https://avatars.githubusercontent.com/u/642569?v=3",
    "gravatar_id": "",
    "url": "https://api.github.com/users/AnthonyDewhirst",
    "html_url": "https://github.com/AnthonyDewhirst",
    "followers_url": "https://api.github.com/users/AnthonyDewhirst/followers",
    "following_url": "https://api.github.com/users/AnthonyDewhirst/following{/other_user}",
    "gists_url": "https://api.github.com/users/AnthonyDewhirst/gists{/gist_id}",
    "starred_url": "https://api.github.com/users/AnthonyDewhirst/starred{/owner}{/repo}",
    "subscriptions_url": "https://api.github.com/users/AnthonyDewhirst/subscriptions",
    "organizations_url": "https://api.github.com/users/AnthonyDewhirst/orgs",
    "repos_url": "https://api.github.com/users/AnthonyDewhirst/repos",
    "events_url": "https://api.github.com/users/AnthonyDewhirst/events{/privacy}",
    "received_events_url": "https://api.github.com/users/AnthonyDewhirst/received_events",
    "type": "User",
    "site_admin": false
  },
  "created_at": "2016-01-04T10:06:06Z",
  "updated_at": "2016-01-04T10:06:06Z",
  "body": "Hi Mathew,\r\n\r\nThanks for the pointer. \r\nI can understand now why I am seeing issues. I had somehow used the same storage account in each of my environments, this will be fixed immediately.\r\nJust to be sure, the page is saying that I don't need a storage account per web job, just per environment running the same web job, is this correct?\r\nOut of curiosity, is this trigger name based on the name and namespace of the function?\r\nHow do you propose to deal with local devs running the webjobs where we all share the same storage account? (I.e., the string in the web.config is checked in and always pointing to the same place for local dev)"
}
, {
  "url": "https://api.github.com/repos/Azure/azure-webjobs-sdk/issues/comments/168775706",
  "html_url": "https://github.com/Azure/azure-webjobs-sdk/issues/614#issuecomment-168775706",
  "issue_url": "https://api.github.com/repos/Azure/azure-webjobs-sdk/issues/614",
  "id": 168775706,
  "user": {
    "login": "mathewc",
    "id": 1056548,
    "avatar_url": "https://avatars.githubusercontent.com/u/1056548?v=3",
    "gravatar_id": "",
    "url": "https://api.github.com/users/mathewc",
    "html_url": "https://github.com/mathewc",
    "followers_url": "https://api.github.com/users/mathewc/followers",
    "following_url": "https://api.github.com/users/mathewc/following{/other_user}",
    "gists_url": "https://api.github.com/users/mathewc/gists{/gist_id}",
    "starred_url": "https://api.github.com/users/mathewc/starred{/owner}{/repo}",
    "subscriptions_url": "https://api.github.com/users/mathewc/subscriptions",
    "organizations_url": "https://api.github.com/users/mathewc/orgs",
    "repos_url": "https://api.github.com/users/mathewc/repos",
    "events_url": "https://api.github.com/users/mathewc/events{/privacy}",
    "received_events_url": "https://api.github.com/users/mathewc/received_events",
    "type": "User",
    "site_admin": false
  },
  "created_at": "2016-01-04T19:19:10Z",
  "updated_at": "2016-01-05T20:19:02Z",
  "body": "Yes, if you have multiple developers all attempting to run the same job sharing a storage account, there will be lock contention. The lock ID is based the fully qualified function name. You can see the lock blobs in the `azure-webjobs-hosts` blob container, under path \"locks/\".  The scenario at that point is the same as if the function is running in production across multiple scaled out instances - there are multiple instances of the job host running, but only one will get the lock and run the function schedule. That's the behavior you want in production.\r\n\r\nThis issue is related to [this issue](https://github.com/Azure/azure-webjobs-sdk-extensions/issues/25) where we added a new `JobHostConfiguration.IsDevelopment` property and corresponding `JobHostConfiguration.UseDevelopmentSettings()` method to configure things optimally for local development.\r\n\r\nWe are working on enabling a way for multiple developers to all share the same storage account and still be able to run concurrently. I'll keep you posted - we'll get a new release out with the updates in week or two. "
}
, {
  "url": "https://api.github.com/repos/Azure/azure-webjobs-sdk/issues/comments/170177042",
  "html_url": "https://github.com/Azure/azure-webjobs-sdk/issues/614#issuecomment-170177042",
  "issue_url": "https://api.github.com/repos/Azure/azure-webjobs-sdk/issues/614",
  "id": 170177042,
  "user": {
    "login": "mathewc",
    "id": 1056548,
    "avatar_url": "https://avatars.githubusercontent.com/u/1056548?v=3",
    "gravatar_id": "",
    "url": "https://api.github.com/users/mathewc",
    "html_url": "https://github.com/mathewc",
    "followers_url": "https://api.github.com/users/mathewc/followers",
    "following_url": "https://api.github.com/users/mathewc/following{/other_user}",
    "gists_url": "https://api.github.com/users/mathewc/gists{/gist_id}",
    "starred_url": "https://api.github.com/users/mathewc/starred{/owner}{/repo}",
    "subscriptions_url": "https://api.github.com/users/mathewc/subscriptions",
    "organizations_url": "https://api.github.com/users/mathewc/orgs",
    "repos_url": "https://api.github.com/users/mathewc/repos",
    "events_url": "https://api.github.com/users/mathewc/events{/privacy}",
    "received_events_url": "https://api.github.com/users/mathewc/received_events",
    "type": "User",
    "site_admin": false
  },
  "created_at": "2016-01-09T01:42:57Z",
  "updated_at": "2016-01-09T02:00:58Z",
  "body": "We've made changes that are available in the latest prerelease builds to address the issues you pointed out. You can [pull our latest prerelease package](https://github.com/Azure/azure-webjobs-sdk/wiki/%22Nightly%22-Builds) to try it out (1.1.1-alpha-10216). We've made changes to ensure that for a particular HostId (which is 1:1 with your WebJobs project / fully qualified assembly name) all Singleton locks are isolated within that scope. Now normally you don't worry about the HostId - the SDK manages that for you and assigns one for you. This means that when doing local development, all devs are running with the same HostId and hence the lock contention.\r\n\r\nThe proposal is for devs to **use their own HostId** during local development. They can do this easily by adding a command line argument to their VS project (which will be stored in their csproj.user file). You can then modify your WebJob startup code to use this HostId if specified (but in production use the default ID):\r\n\r\n```csharp\r\nif (config.IsDevelopment)\r\n{\r\n    config.UseDevelopmentSettings();\r\n    if (args.Length > 0)\r\n    {\r\n        config.HostId = args[0];\r\n    }\r\n}\r\n```\r\n\r\nYou don't have to use the command line approach - you can set it however you want conditionally. With this approach there will no longer be any locking issues, and you'll also have Dashboard separation of invocations for each HostId. There are some restrictions on HostIds - see JobHost.HostId for details. However you can use descriptive values like \"jsmith-dev\", etc."
}
]
