[
{
  "url": "https://api.github.com/repos/Azure/azure-webjobs-sdk/issues/comments/53326536",
  "html_url": "https://github.com/Azure/azure-webjobs-sdk/issues/162#issuecomment-53326536",
  "issue_url": "https://api.github.com/repos/Azure/azure-webjobs-sdk/issues/162",
  "id": 53326536,
  "user": {
    "login": "davidmatson",
    "id": 3360277,
    "avatar_url": "https://avatars.githubusercontent.com/u/3360277?v=3",
    "gravatar_id": "",
    "url": "https://api.github.com/users/davidmatson",
    "html_url": "https://github.com/davidmatson",
    "followers_url": "https://api.github.com/users/davidmatson/followers",
    "following_url": "https://api.github.com/users/davidmatson/following{/other_user}",
    "gists_url": "https://api.github.com/users/davidmatson/gists{/gist_id}",
    "starred_url": "https://api.github.com/users/davidmatson/starred{/owner}{/repo}",
    "subscriptions_url": "https://api.github.com/users/davidmatson/subscriptions",
    "organizations_url": "https://api.github.com/users/davidmatson/orgs",
    "repos_url": "https://api.github.com/users/davidmatson/repos",
    "events_url": "https://api.github.com/users/davidmatson/events{/privacy}",
    "received_events_url": "https://api.github.com/users/davidmatson/received_events",
    "type": "User",
    "site_admin": false
  },
  "created_at": "2014-08-25T20:37:43Z",
  "updated_at": "2014-08-25T20:37:43Z",
  "body": "It would be nice to have a way to correlate across invocations of the same queue message as well as that the final one was moved to the poison queue. Perhaps enhancing the protocol would be the solution here."
}
]
