[
{
  "url": "https://api.github.com/repos/twitter/summingbird/issues/comments/21768706",
  "html_url": "https://github.com/twitter/summingbird/pull/107#issuecomment-21768706",
  "issue_url": "https://api.github.com/repos/twitter/summingbird/issues/107",
  "id": 21768706,
  "user": {
    "login": "johnynek",
    "id": 67958,
    "avatar_url": "https://avatars.githubusercontent.com/u/67958?v=3",
    "gravatar_id": "",
    "url": "https://api.github.com/users/johnynek",
    "html_url": "https://github.com/johnynek",
    "followers_url": "https://api.github.com/users/johnynek/followers",
    "following_url": "https://api.github.com/users/johnynek/following{/other_user}",
    "gists_url": "https://api.github.com/users/johnynek/gists{/gist_id}",
    "starred_url": "https://api.github.com/users/johnynek/starred{/owner}{/repo}",
    "subscriptions_url": "https://api.github.com/users/johnynek/subscriptions",
    "organizations_url": "https://api.github.com/users/johnynek/orgs",
    "repos_url": "https://api.github.com/users/johnynek/repos",
    "events_url": "https://api.github.com/users/johnynek/events{/privacy}",
    "received_events_url": "https://api.github.com/users/johnynek/received_events",
    "type": "User",
    "site_admin": false
  },
  "created_at": "2013-07-30T04:14:19Z",
  "updated_at": "2013-07-30T04:14:19Z",
  "body": "Nice work man. Way to jam it out. This is about all we need."
}
, {
  "url": "https://api.github.com/repos/twitter/summingbird/issues/comments/21768737",
  "html_url": "https://github.com/twitter/summingbird/pull/107#issuecomment-21768737",
  "issue_url": "https://api.github.com/repos/twitter/summingbird/issues/107",
  "id": 21768737,
  "user": {
    "login": "sritchie",
    "id": 69635,
    "avatar_url": "https://avatars.githubusercontent.com/u/69635?v=3",
    "gravatar_id": "",
    "url": "https://api.github.com/users/sritchie",
    "html_url": "https://github.com/sritchie",
    "followers_url": "https://api.github.com/users/sritchie/followers",
    "following_url": "https://api.github.com/users/sritchie/following{/other_user}",
    "gists_url": "https://api.github.com/users/sritchie/gists{/gist_id}",
    "starred_url": "https://api.github.com/users/sritchie/starred{/owner}{/repo}",
    "subscriptions_url": "https://api.github.com/users/sritchie/subscriptions",
    "organizations_url": "https://api.github.com/users/sritchie/orgs",
    "repos_url": "https://api.github.com/users/sritchie/repos",
    "events_url": "https://api.github.com/users/sritchie/events{/privacy}",
    "received_events_url": "https://api.github.com/users/sritchie/received_events",
    "type": "User",
    "site_admin": false
  },
  "created_at": "2013-07-30T04:15:16Z",
  "updated_at": "2013-07-30T04:15:16Z",
  "body": "Third wrinkle to tackle tomorrow -- if you set the start time way in the past, this job will try to consume all data from time T to now. I think we should repurpose the `--batches` flag to mean `maximum number of batches to process on this run`. That's the current meaning, I guess, but jobs will stop failing if anywhere between 1 and `--batches` is available, which I like."
}
]
