[
{
  "url": "https://api.github.com/repos/ValveSoftware/SteamOS/issues/comments/131833514",
  "html_url": "https://github.com/ValveSoftware/SteamOS/issues/357#issuecomment-131833514",
  "issue_url": "https://api.github.com/repos/ValveSoftware/SteamOS/issues/357",
  "id": 131833514,
  "user": {
    "login": "Tele42",
    "id": 3130103,
    "avatar_url": "https://avatars.githubusercontent.com/u/3130103?v=3",
    "gravatar_id": "",
    "url": "https://api.github.com/users/Tele42",
    "html_url": "https://github.com/Tele42",
    "followers_url": "https://api.github.com/users/Tele42/followers",
    "following_url": "https://api.github.com/users/Tele42/following{/other_user}",
    "gists_url": "https://api.github.com/users/Tele42/gists{/gist_id}",
    "starred_url": "https://api.github.com/users/Tele42/starred{/owner}{/repo}",
    "subscriptions_url": "https://api.github.com/users/Tele42/subscriptions",
    "organizations_url": "https://api.github.com/users/Tele42/orgs",
    "repos_url": "https://api.github.com/users/Tele42/repos",
    "events_url": "https://api.github.com/users/Tele42/events{/privacy}",
    "received_events_url": "https://api.github.com/users/Tele42/received_events",
    "type": "User",
    "site_admin": false
  },
  "created_at": "2015-08-17T14:16:53Z",
  "updated_at": "2015-08-17T14:16:53Z",
  "body": "So basicly, Debian 7 (May 2013), which Alchemist is based on has trouble with a processor and chipset that came out January 2014, and you already have the solution, to use Brewmaster (based on Debian 8). So that just leaves the question, what do you want out of Alchemist that Brewmaster does not do?"
}
, {
  "url": "https://api.github.com/repos/ValveSoftware/SteamOS/issues/comments/131840848",
  "html_url": "https://github.com/ValveSoftware/SteamOS/issues/357#issuecomment-131840848",
  "issue_url": "https://api.github.com/repos/ValveSoftware/SteamOS/issues/357",
  "id": 131840848,
  "user": {
    "login": "NeoBoot",
    "id": 3319614,
    "avatar_url": "https://avatars.githubusercontent.com/u/3319614?v=3",
    "gravatar_id": "",
    "url": "https://api.github.com/users/NeoBoot",
    "html_url": "https://github.com/NeoBoot",
    "followers_url": "https://api.github.com/users/NeoBoot/followers",
    "following_url": "https://api.github.com/users/NeoBoot/following{/other_user}",
    "gists_url": "https://api.github.com/users/NeoBoot/gists{/gist_id}",
    "starred_url": "https://api.github.com/users/NeoBoot/starred{/owner}{/repo}",
    "subscriptions_url": "https://api.github.com/users/NeoBoot/subscriptions",
    "organizations_url": "https://api.github.com/users/NeoBoot/orgs",
    "repos_url": "https://api.github.com/users/NeoBoot/repos",
    "events_url": "https://api.github.com/users/NeoBoot/events{/privacy}",
    "received_events_url": "https://api.github.com/users/NeoBoot/received_events",
    "type": "User",
    "site_admin": false
  },
  "created_at": "2015-08-17T14:31:22Z",
  "updated_at": "2015-08-17T14:31:22Z",
  "body": "Brewmaster doesn't deliver performance. I've asked about that in multiple places and everybody told me that Brewmaster has a buggy Mesa and Alchemist is what's to use. I've seen a Valve eomployee in this very bugtracker telling people to use Alchemist. So even if Valve thinks that Alchemist is the place to go, don't tell me to use Brewmaster. Which, like I said, sucks for games.\r\nBTW, Windows 8 came out 2013 and installs on that just nice."
}
, {
  "url": "https://api.github.com/repos/ValveSoftware/SteamOS/issues/comments/131861700",
  "html_url": "https://github.com/ValveSoftware/SteamOS/issues/357#issuecomment-131861700",
  "issue_url": "https://api.github.com/repos/ValveSoftware/SteamOS/issues/357",
  "id": 131861700,
  "user": {
    "login": "ProfessorKaos64",
    "id": 3931917,
    "avatar_url": "https://avatars.githubusercontent.com/u/3931917?v=3",
    "gravatar_id": "",
    "url": "https://api.github.com/users/ProfessorKaos64",
    "html_url": "https://github.com/ProfessorKaos64",
    "followers_url": "https://api.github.com/users/ProfessorKaos64/followers",
    "following_url": "https://api.github.com/users/ProfessorKaos64/following{/other_user}",
    "gists_url": "https://api.github.com/users/ProfessorKaos64/gists{/gist_id}",
    "starred_url": "https://api.github.com/users/ProfessorKaos64/starred{/owner}{/repo}",
    "subscriptions_url": "https://api.github.com/users/ProfessorKaos64/subscriptions",
    "organizations_url": "https://api.github.com/users/ProfessorKaos64/orgs",
    "repos_url": "https://api.github.com/users/ProfessorKaos64/repos",
    "events_url": "https://api.github.com/users/ProfessorKaos64/events{/privacy}",
    "received_events_url": "https://api.github.com/users/ProfessorKaos64/received_events",
    "type": "User",
    "site_admin": false
  },
  "created_at": "2015-08-17T15:27:21Z",
  "updated_at": "2015-08-17T16:34:01Z",
  "body": "```\r\nBrewmaster. Which, like I said, sucks for games.\r\n```\r\nVery far from the truth. You're trying to game on a NUC, with an integrated Intel chip. But if Alchemist works for your build, use it. Driver development is a tricky place, and one can hope that the driver Valve was working on to showcase Dota 2 on Vulkan will make it's way into SteamOS at some point. I have had zero performance issues with Nvidia hardware between 1.0 and 2.0 of SteamOS. Valve has released Brewmaster as a preview release, but it will likely end up the November image, but of course we do not know for sure. "
}
, {
  "url": "https://api.github.com/repos/ValveSoftware/SteamOS/issues/comments/131874183",
  "html_url": "https://github.com/ValveSoftware/SteamOS/issues/357#issuecomment-131874183",
  "issue_url": "https://api.github.com/repos/ValveSoftware/SteamOS/issues/357",
  "id": 131874183,
  "user": {
    "login": "NeoBoot",
    "id": 3319614,
    "avatar_url": "https://avatars.githubusercontent.com/u/3319614?v=3",
    "gravatar_id": "",
    "url": "https://api.github.com/users/NeoBoot",
    "html_url": "https://github.com/NeoBoot",
    "followers_url": "https://api.github.com/users/NeoBoot/followers",
    "following_url": "https://api.github.com/users/NeoBoot/following{/other_user}",
    "gists_url": "https://api.github.com/users/NeoBoot/gists{/gist_id}",
    "starred_url": "https://api.github.com/users/NeoBoot/starred{/owner}{/repo}",
    "subscriptions_url": "https://api.github.com/users/NeoBoot/subscriptions",
    "organizations_url": "https://api.github.com/users/NeoBoot/orgs",
    "repos_url": "https://api.github.com/users/NeoBoot/repos",
    "events_url": "https://api.github.com/users/NeoBoot/events{/privacy}",
    "received_events_url": "https://api.github.com/users/NeoBoot/received_events",
    "type": "User",
    "site_admin": false
  },
  "created_at": "2015-08-17T16:05:26Z",
  "updated_at": "2015-08-17T16:05:26Z",
  "body": "Can we continue this without trolling please? You troll me by claiming that Alchemist works for my purposes and you're sorta ignoring other people confirming that Brewmaster has a problem with Mesa's performance.\r\nAlso, this NUC works. Just fine. Under Windows. So it's not the Celeron's fault Brewmaster fails in the performance department.\r\nPlease stop trolling."
}
, {
  "url": "https://api.github.com/repos/ValveSoftware/SteamOS/issues/comments/131885729",
  "html_url": "https://github.com/ValveSoftware/SteamOS/issues/357#issuecomment-131885729",
  "issue_url": "https://api.github.com/repos/ValveSoftware/SteamOS/issues/357",
  "id": 131885729,
  "user": {
    "login": "ProfessorKaos64",
    "id": 3931917,
    "avatar_url": "https://avatars.githubusercontent.com/u/3931917?v=3",
    "gravatar_id": "",
    "url": "https://api.github.com/users/ProfessorKaos64",
    "html_url": "https://github.com/ProfessorKaos64",
    "followers_url": "https://api.github.com/users/ProfessorKaos64/followers",
    "following_url": "https://api.github.com/users/ProfessorKaos64/following{/other_user}",
    "gists_url": "https://api.github.com/users/ProfessorKaos64/gists{/gist_id}",
    "starred_url": "https://api.github.com/users/ProfessorKaos64/starred{/owner}{/repo}",
    "subscriptions_url": "https://api.github.com/users/ProfessorKaos64/subscriptions",
    "organizations_url": "https://api.github.com/users/ProfessorKaos64/orgs",
    "repos_url": "https://api.github.com/users/ProfessorKaos64/repos",
    "events_url": "https://api.github.com/users/ProfessorKaos64/events{/privacy}",
    "received_events_url": "https://api.github.com/users/ProfessorKaos64/received_events",
    "type": "User",
    "site_admin": false
  },
  "created_at": "2015-08-17T16:43:27Z",
  "updated_at": "2015-08-17T16:43:27Z",
  "body": "Nobody is trolling you. You can either wait for fixes in the preview release (Brewmaster), install your own driver, or try the ISO image installer located at repo.steampowered.com/download. I would also cross reference driver versions from the pool located at the same link, or distrowatch to what you have discovered or heard is a buggy driver release of mesa. If all you did was format a USB drive to FA32, and unzip the contents of the [main archive](store.steampowered.com/steamos)  to it, I am not sure why it is asking you for a CD drive. \r\n\r\nWhat you could also do is check out VaporOS or Stephenson's Rocket. The former adds additional software, and the latter focuses more on including older drivers (as well as has a brewmaster image out). Maybe those would work for you as well. They are community respins of SteamOS. I've been trying to shape up the wiki of this GitHub repo. \r\n"
}
, {
  "url": "https://api.github.com/repos/ValveSoftware/SteamOS/issues/comments/132253353",
  "html_url": "https://github.com/ValveSoftware/SteamOS/issues/357#issuecomment-132253353",
  "issue_url": "https://api.github.com/repos/ValveSoftware/SteamOS/issues/357",
  "id": 132253353,
  "user": {
    "login": "directhex",
    "id": 308992,
    "avatar_url": "https://avatars.githubusercontent.com/u/308992?v=3",
    "gravatar_id": "",
    "url": "https://api.github.com/users/directhex",
    "html_url": "https://github.com/directhex",
    "followers_url": "https://api.github.com/users/directhex/followers",
    "following_url": "https://api.github.com/users/directhex/following{/other_user}",
    "gists_url": "https://api.github.com/users/directhex/gists{/gist_id}",
    "starred_url": "https://api.github.com/users/directhex/starred{/owner}{/repo}",
    "subscriptions_url": "https://api.github.com/users/directhex/subscriptions",
    "organizations_url": "https://api.github.com/users/directhex/orgs",
    "repos_url": "https://api.github.com/users/directhex/repos",
    "events_url": "https://api.github.com/users/directhex/events{/privacy}",
    "received_events_url": "https://api.github.com/users/directhex/received_events",
    "type": "User",
    "site_admin": false
  },
  "created_at": "2015-08-18T15:39:22Z",
  "updated_at": "2015-08-18T15:39:22Z",
  "body": "The new SR release ought to work (fixed & very updated Mesa) - but in general, make sure you do a firmware update first. Some NUCs can't boot non-Windows from UEFI with the original shipping firmware."
}
, {
  "url": "https://api.github.com/repos/ValveSoftware/SteamOS/issues/comments/132508739",
  "html_url": "https://github.com/ValveSoftware/SteamOS/issues/357#issuecomment-132508739",
  "issue_url": "https://api.github.com/repos/ValveSoftware/SteamOS/issues/357",
  "id": 132508739,
  "user": {
    "login": "NeoBoot",
    "id": 3319614,
    "avatar_url": "https://avatars.githubusercontent.com/u/3319614?v=3",
    "gravatar_id": "",
    "url": "https://api.github.com/users/NeoBoot",
    "html_url": "https://github.com/NeoBoot",
    "followers_url": "https://api.github.com/users/NeoBoot/followers",
    "following_url": "https://api.github.com/users/NeoBoot/following{/other_user}",
    "gists_url": "https://api.github.com/users/NeoBoot/gists{/gist_id}",
    "starred_url": "https://api.github.com/users/NeoBoot/starred{/owner}{/repo}",
    "subscriptions_url": "https://api.github.com/users/NeoBoot/subscriptions",
    "organizations_url": "https://api.github.com/users/NeoBoot/orgs",
    "repos_url": "https://api.github.com/users/NeoBoot/repos",
    "events_url": "https://api.github.com/users/NeoBoot/events{/privacy}",
    "received_events_url": "https://api.github.com/users/NeoBoot/received_events",
    "type": "User",
    "site_admin": false
  },
  "created_at": "2015-08-19T09:31:47Z",
  "updated_at": "2015-08-19T09:31:47Z",
  "body": "New Alchemist or new Brewmaster release? The firmware is all right as it can boot Brewmaster & Ubuntu just fine. It's just Alchemist that didn't want to install."
}
, {
  "url": "https://api.github.com/repos/ValveSoftware/SteamOS/issues/comments/132516862",
  "html_url": "https://github.com/ValveSoftware/SteamOS/issues/357#issuecomment-132516862",
  "issue_url": "https://api.github.com/repos/ValveSoftware/SteamOS/issues/357",
  "id": 132516862,
  "user": {
    "login": "not83",
    "id": 2958195,
    "avatar_url": "https://avatars.githubusercontent.com/u/2958195?v=3",
    "gravatar_id": "",
    "url": "https://api.github.com/users/not83",
    "html_url": "https://github.com/not83",
    "followers_url": "https://api.github.com/users/not83/followers",
    "following_url": "https://api.github.com/users/not83/following{/other_user}",
    "gists_url": "https://api.github.com/users/not83/gists{/gist_id}",
    "starred_url": "https://api.github.com/users/not83/starred{/owner}{/repo}",
    "subscriptions_url": "https://api.github.com/users/not83/subscriptions",
    "organizations_url": "https://api.github.com/users/not83/orgs",
    "repos_url": "https://api.github.com/users/not83/repos",
    "events_url": "https://api.github.com/users/not83/events{/privacy}",
    "received_events_url": "https://api.github.com/users/not83/received_events",
    "type": "User",
    "site_admin": false
  },
  "created_at": "2015-08-19T09:43:57Z",
  "updated_at": "2015-08-19T09:43:57Z",
  "body": "If brewmaster works then can you close this ticket please\nOn 19 Aug 2015 21:31, \"NeoBoot\" <notifications@github.com> wrote:\n\n> New Alchemist or new Brewmaster release? The firmware is all right as it\n> can boot Brewmaster & Ubuntu just fine. It's just Alchemist that didn't\n> want to install.\n>\n> —\n> Reply to this email directly or view it on GitHub\n> <https://github.com/ValveSoftware/SteamOS/issues/357#issuecomment-132508739>\n> .\n>\n"
}
, {
  "url": "https://api.github.com/repos/ValveSoftware/SteamOS/issues/comments/132523226",
  "html_url": "https://github.com/ValveSoftware/SteamOS/issues/357#issuecomment-132523226",
  "issue_url": "https://api.github.com/repos/ValveSoftware/SteamOS/issues/357",
  "id": 132523226,
  "user": {
    "login": "NeoBoot",
    "id": 3319614,
    "avatar_url": "https://avatars.githubusercontent.com/u/3319614?v=3",
    "gravatar_id": "",
    "url": "https://api.github.com/users/NeoBoot",
    "html_url": "https://github.com/NeoBoot",
    "followers_url": "https://api.github.com/users/NeoBoot/followers",
    "following_url": "https://api.github.com/users/NeoBoot/following{/other_user}",
    "gists_url": "https://api.github.com/users/NeoBoot/gists{/gist_id}",
    "starred_url": "https://api.github.com/users/NeoBoot/starred{/owner}{/repo}",
    "subscriptions_url": "https://api.github.com/users/NeoBoot/subscriptions",
    "organizations_url": "https://api.github.com/users/NeoBoot/orgs",
    "repos_url": "https://api.github.com/users/NeoBoot/repos",
    "events_url": "https://api.github.com/users/NeoBoot/events{/privacy}",
    "received_events_url": "https://api.github.com/users/NeoBoot/received_events",
    "type": "User",
    "site_admin": false
  },
  "created_at": "2015-08-19T10:02:23Z",
  "updated_at": "2015-08-19T10:02:23Z",
  "body": "I've said already that Brewmaster doesn't work."
}
, {
  "url": "https://api.github.com/repos/ValveSoftware/SteamOS/issues/comments/132523699",
  "html_url": "https://github.com/ValveSoftware/SteamOS/issues/357#issuecomment-132523699",
  "issue_url": "https://api.github.com/repos/ValveSoftware/SteamOS/issues/357",
  "id": 132523699,
  "user": {
    "login": "directhex",
    "id": 308992,
    "avatar_url": "https://avatars.githubusercontent.com/u/308992?v=3",
    "gravatar_id": "",
    "url": "https://api.github.com/users/directhex",
    "html_url": "https://github.com/directhex",
    "followers_url": "https://api.github.com/users/directhex/followers",
    "following_url": "https://api.github.com/users/directhex/following{/other_user}",
    "gists_url": "https://api.github.com/users/directhex/gists{/gist_id}",
    "starred_url": "https://api.github.com/users/directhex/starred{/owner}{/repo}",
    "subscriptions_url": "https://api.github.com/users/directhex/subscriptions",
    "organizations_url": "https://api.github.com/users/directhex/orgs",
    "repos_url": "https://api.github.com/users/directhex/repos",
    "events_url": "https://api.github.com/users/directhex/events{/privacy}",
    "received_events_url": "https://api.github.com/users/directhex/received_events",
    "type": "User",
    "site_admin": false
  },
  "created_at": "2015-08-19T10:04:21Z",
  "updated_at": "2015-08-19T10:04:21Z",
  "body": "http://stephensonsrocket.horse/?2.26plus1 includes a patched Mesa which ought to fix Intel issues. Can you confirm?"
}
, {
  "url": "https://api.github.com/repos/ValveSoftware/SteamOS/issues/comments/132533476",
  "html_url": "https://github.com/ValveSoftware/SteamOS/issues/357#issuecomment-132533476",
  "issue_url": "https://api.github.com/repos/ValveSoftware/SteamOS/issues/357",
  "id": 132533476,
  "user": {
    "login": "NeoBoot",
    "id": 3319614,
    "avatar_url": "https://avatars.githubusercontent.com/u/3319614?v=3",
    "gravatar_id": "",
    "url": "https://api.github.com/users/NeoBoot",
    "html_url": "https://github.com/NeoBoot",
    "followers_url": "https://api.github.com/users/NeoBoot/followers",
    "following_url": "https://api.github.com/users/NeoBoot/following{/other_user}",
    "gists_url": "https://api.github.com/users/NeoBoot/gists{/gist_id}",
    "starred_url": "https://api.github.com/users/NeoBoot/starred{/owner}{/repo}",
    "subscriptions_url": "https://api.github.com/users/NeoBoot/subscriptions",
    "organizations_url": "https://api.github.com/users/NeoBoot/orgs",
    "repos_url": "https://api.github.com/users/NeoBoot/repos",
    "events_url": "https://api.github.com/users/NeoBoot/events{/privacy}",
    "received_events_url": "https://api.github.com/users/NeoBoot/received_events",
    "type": "User",
    "site_admin": false
  },
  "created_at": "2015-08-19T10:32:25Z",
  "updated_at": "2015-08-19T10:32:25Z",
  "body": "Thank you for the info, I will try it later!"
}
, {
  "url": "https://api.github.com/repos/ValveSoftware/SteamOS/issues/comments/132569004",
  "html_url": "https://github.com/ValveSoftware/SteamOS/issues/357#issuecomment-132569004",
  "issue_url": "https://api.github.com/repos/ValveSoftware/SteamOS/issues/357",
  "id": 132569004,
  "user": {
    "login": "ProfessorKaos64",
    "id": 3931917,
    "avatar_url": "https://avatars.githubusercontent.com/u/3931917?v=3",
    "gravatar_id": "",
    "url": "https://api.github.com/users/ProfessorKaos64",
    "html_url": "https://github.com/ProfessorKaos64",
    "followers_url": "https://api.github.com/users/ProfessorKaos64/followers",
    "following_url": "https://api.github.com/users/ProfessorKaos64/following{/other_user}",
    "gists_url": "https://api.github.com/users/ProfessorKaos64/gists{/gist_id}",
    "starred_url": "https://api.github.com/users/ProfessorKaos64/starred{/owner}{/repo}",
    "subscriptions_url": "https://api.github.com/users/ProfessorKaos64/subscriptions",
    "organizations_url": "https://api.github.com/users/ProfessorKaos64/orgs",
    "repos_url": "https://api.github.com/users/ProfessorKaos64/repos",
    "events_url": "https://api.github.com/users/ProfessorKaos64/events{/privacy}",
    "received_events_url": "https://api.github.com/users/ProfessorKaos64/received_events",
    "type": "User",
    "site_admin": false
  },
  "created_at": "2015-08-19T12:13:54Z",
  "updated_at": "2015-08-19T12:13:54Z",
  "body": "Hope it works. I'm sorry you've had rotten luck with the official brewmaster install's mesa drivers. Hopefully they will improve. In the meantime, good luck with SR, directhex is a good dev. On the topic of your original request, you could leave this open, since you state it affects your ability to install Alchemist, but given low-speed of responses here (of course more goes on behind the scenes, so to speak), and the resources likely being driven to brewmaster development, a fix for Alchemist is probably on the low-priority list. I would keep an eye on the thread though. Again, apologies if I seemed harsh, I meant no foul @NeoBoot "
}
]
