[
{
  "url": "https://api.github.com/repos/Azure/azure-sdk-for-python/issues/comments/19341516",
  "html_url": "https://github.com/Azure/azure-sdk-for-python/pull/86#issuecomment-19341516",
  "issue_url": "https://api.github.com/repos/Azure/azure-sdk-for-python/issues/86",
  "id": 19341516,
  "user": {
    "login": "huguesv",
    "id": 1696845,
    "avatar_url": "https://avatars.githubusercontent.com/u/1696845?v=3",
    "gravatar_id": "",
    "url": "https://api.github.com/users/huguesv",
    "html_url": "https://github.com/huguesv",
    "followers_url": "https://api.github.com/users/huguesv/followers",
    "following_url": "https://api.github.com/users/huguesv/following{/other_user}",
    "gists_url": "https://api.github.com/users/huguesv/gists{/gist_id}",
    "starred_url": "https://api.github.com/users/huguesv/starred{/owner}{/repo}",
    "subscriptions_url": "https://api.github.com/users/huguesv/subscriptions",
    "organizations_url": "https://api.github.com/users/huguesv/orgs",
    "repos_url": "https://api.github.com/users/huguesv/repos",
    "events_url": "https://api.github.com/users/huguesv/events{/privacy}",
    "received_events_url": "https://api.github.com/users/huguesv/received_events",
    "type": "User",
    "site_admin": false
  },
  "created_at": "2013-06-12T17:30:53Z",
  "updated_at": "2013-06-12T17:30:53Z",
  "body": "It's quite possible that the docs have an error.  I'll look into the Node.js SDK to see what they do.  In any case, I'll add a test case for it.  Thanks for your help!"
}
, {
  "url": "https://api.github.com/repos/Azure/azure-sdk-for-python/issues/comments/20309948",
  "html_url": "https://github.com/Azure/azure-sdk-for-python/pull/86#issuecomment-20309948",
  "issue_url": "https://api.github.com/repos/Azure/azure-sdk-for-python/issues/86",
  "id": 20309948,
  "user": {
    "login": "huguesv",
    "id": 1696845,
    "avatar_url": "https://avatars.githubusercontent.com/u/1696845?v=3",
    "gravatar_id": "",
    "url": "https://api.github.com/users/huguesv",
    "html_url": "https://github.com/huguesv",
    "followers_url": "https://api.github.com/users/huguesv/followers",
    "following_url": "https://api.github.com/users/huguesv/following{/other_user}",
    "gists_url": "https://api.github.com/users/huguesv/gists{/gist_id}",
    "starred_url": "https://api.github.com/users/huguesv/starred{/owner}{/repo}",
    "subscriptions_url": "https://api.github.com/users/huguesv/subscriptions",
    "organizations_url": "https://api.github.com/users/huguesv/orgs",
    "repos_url": "https://api.github.com/users/huguesv/repos",
    "events_url": "https://api.github.com/users/huguesv/events{/privacy}",
    "received_events_url": "https://api.github.com/users/huguesv/received_events",
    "type": "User",
    "site_admin": false
  },
  "created_at": "2013-07-01T21:00:07Z",
  "updated_at": "2013-07-01T21:00:07Z",
  "body": "Node.js SDK correctly uses the lowercase p: 'Fingerprint'.  I filed an issue for the documentation: https://github.com/WindowsAzure/azure-content/issues/1461"
}
]
