[
{
  "url": "https://api.github.com/repos/Azure/azure-sdk-for-python/issues/comments/132397971",
  "html_url": "https://github.com/Azure/azure-sdk-for-python/issues/386#issuecomment-132397971",
  "issue_url": "https://api.github.com/repos/Azure/azure-sdk-for-python/issues/386",
  "id": 132397971,
  "user": {
    "login": "crwilcox",
    "id": 638797,
    "avatar_url": "https://avatars.githubusercontent.com/u/638797?v=3",
    "gravatar_id": "",
    "url": "https://api.github.com/users/crwilcox",
    "html_url": "https://github.com/crwilcox",
    "followers_url": "https://api.github.com/users/crwilcox/followers",
    "following_url": "https://api.github.com/users/crwilcox/following{/other_user}",
    "gists_url": "https://api.github.com/users/crwilcox/gists{/gist_id}",
    "starred_url": "https://api.github.com/users/crwilcox/starred{/owner}{/repo}",
    "subscriptions_url": "https://api.github.com/users/crwilcox/subscriptions",
    "organizations_url": "https://api.github.com/users/crwilcox/orgs",
    "repos_url": "https://api.github.com/users/crwilcox/repos",
    "events_url": "https://api.github.com/users/crwilcox/events{/privacy}",
    "received_events_url": "https://api.github.com/users/crwilcox/received_events",
    "type": "User",
    "site_admin": false
  },
  "created_at": "2015-08-19T00:11:15Z",
  "updated_at": "2015-08-19T00:11:15Z",
  "body": "Issue Migrated to https://github.com/Azure/azure-storage-python/issues/4"
}
]
