[
{
  "url": "https://api.github.com/repos/googlesamples/android-topeka/issues/comments/148334238",
  "html_url": "https://github.com/googlesamples/android-topeka/pull/35#issuecomment-148334238",
  "issue_url": "https://api.github.com/repos/googlesamples/android-topeka/issues/35",
  "id": 148334238,
  "user": {
    "login": "googlebot",
    "id": 5384588,
    "avatar_url": "https://avatars.githubusercontent.com/u/5384588?v=3",
    "gravatar_id": "",
    "url": "https://api.github.com/users/googlebot",
    "html_url": "https://github.com/googlebot",
    "followers_url": "https://api.github.com/users/googlebot/followers",
    "following_url": "https://api.github.com/users/googlebot/following{/other_user}",
    "gists_url": "https://api.github.com/users/googlebot/gists{/gist_id}",
    "starred_url": "https://api.github.com/users/googlebot/starred{/owner}{/repo}",
    "subscriptions_url": "https://api.github.com/users/googlebot/subscriptions",
    "organizations_url": "https://api.github.com/users/googlebot/orgs",
    "repos_url": "https://api.github.com/users/googlebot/repos",
    "events_url": "https://api.github.com/users/googlebot/events{/privacy}",
    "received_events_url": "https://api.github.com/users/googlebot/received_events",
    "type": "User",
    "site_admin": false
  },
  "created_at": "2015-10-15T09:36:16Z",
  "updated_at": "2015-10-15T09:36:16Z",
  "body": "We found a Contributor License Agreement for you (the sender of this pull request), but were unable to find agreements for the commit author(s).  If you authored these, maybe you used a different email address in the git commits than was used to sign the CLA ([login here](https://cla.developers.google.com/) to double check)?  If these were authored by someone else, then they will need to sign a CLA as well, and confirm that they're okay with these being contributed to Google.\n\n<!-- need_author_cla -->"
}
, {
  "url": "https://api.github.com/repos/googlesamples/android-topeka/issues/comments/148367032",
  "html_url": "https://github.com/googlesamples/android-topeka/pull/35#issuecomment-148367032",
  "issue_url": "https://api.github.com/repos/googlesamples/android-topeka/issues/35",
  "id": 148367032,
  "user": {
    "login": "keyboardsurfer",
    "id": 336005,
    "avatar_url": "https://avatars.githubusercontent.com/u/336005?v=3",
    "gravatar_id": "",
    "url": "https://api.github.com/users/keyboardsurfer",
    "html_url": "https://github.com/keyboardsurfer",
    "followers_url": "https://api.github.com/users/keyboardsurfer/followers",
    "following_url": "https://api.github.com/users/keyboardsurfer/following{/other_user}",
    "gists_url": "https://api.github.com/users/keyboardsurfer/gists{/gist_id}",
    "starred_url": "https://api.github.com/users/keyboardsurfer/starred{/owner}{/repo}",
    "subscriptions_url": "https://api.github.com/users/keyboardsurfer/subscriptions",
    "organizations_url": "https://api.github.com/users/keyboardsurfer/orgs",
    "repos_url": "https://api.github.com/users/keyboardsurfer/repos",
    "events_url": "https://api.github.com/users/keyboardsurfer/events{/privacy}",
    "received_events_url": "https://api.github.com/users/keyboardsurfer/received_events",
    "type": "User",
    "site_admin": false
  },
  "created_at": "2015-10-15T12:04:35Z",
  "updated_at": "2015-10-15T12:04:35Z",
  "body": "Continued in #36 "
}
]
