[
{
  "url": "https://api.github.com/repos/phacility/phabricator/issues/comments/1875174",
  "html_url": "https://github.com/phacility/phabricator/pull/55#issuecomment-1875174",
  "issue_url": "https://api.github.com/repos/phacility/phabricator/issues/55",
  "id": 1875174,
  "user": {
    "login": "epriestley",
    "id": 102631,
    "avatar_url": "https://avatars.githubusercontent.com/u/102631?v=3",
    "gravatar_id": "",
    "url": "https://api.github.com/users/epriestley",
    "html_url": "https://github.com/epriestley",
    "followers_url": "https://api.github.com/users/epriestley/followers",
    "following_url": "https://api.github.com/users/epriestley/following{/other_user}",
    "gists_url": "https://api.github.com/users/epriestley/gists{/gist_id}",
    "starred_url": "https://api.github.com/users/epriestley/starred{/owner}{/repo}",
    "subscriptions_url": "https://api.github.com/users/epriestley/subscriptions",
    "organizations_url": "https://api.github.com/users/epriestley/orgs",
    "repos_url": "https://api.github.com/users/epriestley/repos",
    "events_url": "https://api.github.com/users/epriestley/events{/privacy}",
    "received_events_url": "https://api.github.com/users/epriestley/received_events",
    "type": "User",
    "site_admin": false
  },
  "created_at": "2011-08-22T22:22:36Z",
  "updated_at": "2011-08-22T22:22:36Z",
  "body": "Thanks! When you get a chance, can you sign a CLA too?\r\n\r\nhttps://developers.facebook.com/opensource/cla"
}
, {
  "url": "https://api.github.com/repos/phacility/phabricator/issues/comments/1875175",
  "html_url": "https://github.com/phacility/phabricator/pull/55#issuecomment-1875175",
  "issue_url": "https://api.github.com/repos/phacility/phabricator/issues/55",
  "id": 1875175,
  "user": {
    "login": "epriestley",
    "id": 102631,
    "avatar_url": "https://avatars.githubusercontent.com/u/102631?v=3",
    "gravatar_id": "",
    "url": "https://api.github.com/users/epriestley",
    "html_url": "https://github.com/epriestley",
    "followers_url": "https://api.github.com/users/epriestley/followers",
    "following_url": "https://api.github.com/users/epriestley/following{/other_user}",
    "gists_url": "https://api.github.com/users/epriestley/gists{/gist_id}",
    "starred_url": "https://api.github.com/users/epriestley/starred{/owner}{/repo}",
    "subscriptions_url": "https://api.github.com/users/epriestley/subscriptions",
    "organizations_url": "https://api.github.com/users/epriestley/orgs",
    "repos_url": "https://api.github.com/users/epriestley/repos",
    "events_url": "https://api.github.com/users/epriestley/events{/privacy}",
    "received_events_url": "https://api.github.com/users/epriestley/received_events",
    "type": "User",
    "site_admin": false
  },
  "created_at": "2011-08-22T22:22:45Z",
  "updated_at": "2011-08-22T22:22:45Z",
  "body": "(If you don't already have one on file.)"
}
, {
  "url": "https://api.github.com/repos/phacility/phabricator/issues/comments/1875757",
  "html_url": "https://github.com/phacility/phabricator/pull/55#issuecomment-1875757",
  "issue_url": "https://api.github.com/repos/phacility/phabricator/issues/55",
  "id": 1875757,
  "user": {
    "login": "svemir",
    "id": 154453,
    "avatar_url": "https://avatars.githubusercontent.com/u/154453?v=3",
    "gravatar_id": "",
    "url": "https://api.github.com/users/svemir",
    "html_url": "https://github.com/svemir",
    "followers_url": "https://api.github.com/users/svemir/followers",
    "following_url": "https://api.github.com/users/svemir/following{/other_user}",
    "gists_url": "https://api.github.com/users/svemir/gists{/gist_id}",
    "starred_url": "https://api.github.com/users/svemir/starred{/owner}{/repo}",
    "subscriptions_url": "https://api.github.com/users/svemir/subscriptions",
    "organizations_url": "https://api.github.com/users/svemir/orgs",
    "repos_url": "https://api.github.com/users/svemir/repos",
    "events_url": "https://api.github.com/users/svemir/events{/privacy}",
    "received_events_url": "https://api.github.com/users/svemir/received_events",
    "type": "User",
    "site_admin": false
  },
  "created_at": "2011-08-22T23:48:18Z",
  "updated_at": "2011-08-22T23:48:18Z",
  "body": "OK, done.\n\nOn Aug 22, 2011, at 6:22 PM, epriestley wrote:\n\n> Thanks! When you get a chance, can you sign a CLA too?\n> \n> https://developers.facebook.com/opensource/cla\n> \n> -- \n> Reply to this email directly or view it on GitHub:\n> https://github.com/facebook/phabricator/pull/55#issuecomment-1875174\n>"
}
]
