[
{
  "url": "https://api.github.com/repos/owncloud/mozilla_sync/issues/comments/30602388",
  "html_url": "https://github.com/owncloud/mozilla_sync/issues/64#issuecomment-30602388",
  "issue_url": "https://api.github.com/repos/owncloud/mozilla_sync/issues/64",
  "id": 30602388,
  "user": {
    "login": "ogasser",
    "id": 2095178,
    "avatar_url": "https://avatars.githubusercontent.com/u/2095178?v=3",
    "gravatar_id": "",
    "url": "https://api.github.com/users/ogasser",
    "html_url": "https://github.com/ogasser",
    "followers_url": "https://api.github.com/users/ogasser/followers",
    "following_url": "https://api.github.com/users/ogasser/following{/other_user}",
    "gists_url": "https://api.github.com/users/ogasser/gists{/gist_id}",
    "starred_url": "https://api.github.com/users/ogasser/starred{/owner}{/repo}",
    "subscriptions_url": "https://api.github.com/users/ogasser/subscriptions",
    "organizations_url": "https://api.github.com/users/ogasser/orgs",
    "repos_url": "https://api.github.com/users/ogasser/repos",
    "events_url": "https://api.github.com/users/ogasser/events{/privacy}",
    "received_events_url": "https://api.github.com/users/ogasser/received_events",
    "type": "User",
    "site_admin": false
  },
  "created_at": "2013-12-15T11:12:40Z",
  "updated_at": "2013-12-15T11:12:40Z",
  "body": "Displaying the version number is a good idea!\r\nRegarding the auto update option: I am not sure how and if ownCloud lets apps to be auto updated."
}
]
