[
{
  "url": "https://api.github.com/repos/google/closure-templates/issues/comments/77043554",
  "html_url": "https://github.com/google/closure-templates/pull/32#issuecomment-77043554",
  "issue_url": "https://api.github.com/repos/google/closure-templates/issues/32",
  "id": 77043554,
  "user": {
    "login": "Ubehebe",
    "id": 1487056,
    "avatar_url": "https://avatars.githubusercontent.com/u/1487056?v=3",
    "gravatar_id": "",
    "url": "https://api.github.com/users/Ubehebe",
    "html_url": "https://github.com/Ubehebe",
    "followers_url": "https://api.github.com/users/Ubehebe/followers",
    "following_url": "https://api.github.com/users/Ubehebe/following{/other_user}",
    "gists_url": "https://api.github.com/users/Ubehebe/gists{/gist_id}",
    "starred_url": "https://api.github.com/users/Ubehebe/starred{/owner}{/repo}",
    "subscriptions_url": "https://api.github.com/users/Ubehebe/subscriptions",
    "organizations_url": "https://api.github.com/users/Ubehebe/orgs",
    "repos_url": "https://api.github.com/users/Ubehebe/repos",
    "events_url": "https://api.github.com/users/Ubehebe/events{/privacy}",
    "received_events_url": "https://api.github.com/users/Ubehebe/received_events",
    "type": "User",
    "site_admin": false
  },
  "created_at": "2015-03-03T21:48:43Z",
  "updated_at": "2015-03-03T21:48:43Z",
  "body": "The change itself is fine, but it's only one instance of a whole class of potential bugs. These bugs come from the large amount of platform-specific behavior involved in resolving a file path.\r\n\r\nThis is exactly what the [Java 7 File API](https://docs.oracle.com/javase/tutorial/essential/io/fileio.html) was designed to solve. I think the right answer is to retrofit SoyFileSupplier and friends to use that API. WDYT? (@lukesandberg and I have considered doing this too.) "
}
, {
  "url": "https://api.github.com/repos/google/closure-templates/issues/comments/107878729",
  "html_url": "https://github.com/google/closure-templates/pull/32#issuecomment-107878729",
  "issue_url": "https://api.github.com/repos/google/closure-templates/issues/32",
  "id": 107878729,
  "user": {
    "login": "jcwinters",
    "id": 12540714,
    "avatar_url": "https://avatars.githubusercontent.com/u/12540714?v=3",
    "gravatar_id": "",
    "url": "https://api.github.com/users/jcwinters",
    "html_url": "https://github.com/jcwinters",
    "followers_url": "https://api.github.com/users/jcwinters/followers",
    "following_url": "https://api.github.com/users/jcwinters/following{/other_user}",
    "gists_url": "https://api.github.com/users/jcwinters/gists{/gist_id}",
    "starred_url": "https://api.github.com/users/jcwinters/starred{/owner}{/repo}",
    "subscriptions_url": "https://api.github.com/users/jcwinters/subscriptions",
    "organizations_url": "https://api.github.com/users/jcwinters/orgs",
    "repos_url": "https://api.github.com/users/jcwinters/repos",
    "events_url": "https://api.github.com/users/jcwinters/events{/privacy}",
    "received_events_url": "https://api.github.com/users/jcwinters/received_events",
    "type": "User",
    "site_admin": false
  },
  "created_at": "2015-06-02T09:12:41Z",
  "updated_at": "2015-06-02T09:12:41Z",
  "body": "Actually this is not sufficient - the problem is that URLs will be URL escaped, so a file name like 3+2.soy would bre presented as 3%2B2.soy - Use URL.toUri() instead.  PR coming.."
}
]
