[
{
  "url": "https://api.github.com/repos/Azure/packer-azure/issues/comments/169507395",
  "html_url": "https://github.com/Azure/packer-azure/pull/149#issuecomment-169507395",
  "issue_url": "https://api.github.com/repos/Azure/packer-azure/issues/149",
  "id": 169507395,
  "user": {
    "login": "msftclas",
    "id": 9287708,
    "avatar_url": "https://avatars.githubusercontent.com/u/9287708?v=3",
    "gravatar_id": "",
    "url": "https://api.github.com/users/msftclas",
    "html_url": "https://github.com/msftclas",
    "followers_url": "https://api.github.com/users/msftclas/followers",
    "following_url": "https://api.github.com/users/msftclas/following{/other_user}",
    "gists_url": "https://api.github.com/users/msftclas/gists{/gist_id}",
    "starred_url": "https://api.github.com/users/msftclas/starred{/owner}{/repo}",
    "subscriptions_url": "https://api.github.com/users/msftclas/subscriptions",
    "organizations_url": "https://api.github.com/users/msftclas/orgs",
    "repos_url": "https://api.github.com/users/msftclas/repos",
    "events_url": "https://api.github.com/users/msftclas/events{/privacy}",
    "received_events_url": "https://api.github.com/users/msftclas/received_events",
    "type": "User",
    "site_admin": false
  },
  "created_at": "2016-01-07T00:22:28Z",
  "updated_at": "2016-01-07T00:22:28Z",
  "body": "Hi __@boumenot__, I'm your friendly neighborhood Microsoft Pull Request Bot (You can call me MSBOT). Thanks for your contribution!\r\n    <span>You've already signed the contribution license agreement. Thanks!</span>\r\n        <p>The agreement was validated by Microsoft and real humans are currently evaluating your PR.</p>\r\n\r\nTTYL, MSBOT;\r\n"
}
, {
  "url": "https://api.github.com/repos/Azure/packer-azure/issues/comments/169754024",
  "html_url": "https://github.com/Azure/packer-azure/pull/149#issuecomment-169754024",
  "issue_url": "https://api.github.com/repos/Azure/packer-azure/issues/149",
  "id": 169754024,
  "user": {
    "login": "paulmey",
    "id": 1740197,
    "avatar_url": "https://avatars.githubusercontent.com/u/1740197?v=3",
    "gravatar_id": "",
    "url": "https://api.github.com/users/paulmey",
    "html_url": "https://github.com/paulmey",
    "followers_url": "https://api.github.com/users/paulmey/followers",
    "following_url": "https://api.github.com/users/paulmey/following{/other_user}",
    "gists_url": "https://api.github.com/users/paulmey/gists{/gist_id}",
    "starred_url": "https://api.github.com/users/paulmey/starred{/owner}{/repo}",
    "subscriptions_url": "https://api.github.com/users/paulmey/subscriptions",
    "organizations_url": "https://api.github.com/users/paulmey/orgs",
    "repos_url": "https://api.github.com/users/paulmey/repos",
    "events_url": "https://api.github.com/users/paulmey/events{/privacy}",
    "received_events_url": "https://api.github.com/users/paulmey/received_events",
    "type": "User",
    "site_admin": false
  },
  "created_at": "2016-01-07T17:47:38Z",
  "updated_at": "2016-01-07T17:47:38Z",
  "body": "LGTM"
}
]
