[
{
  "url": "https://api.github.com/repos/Azure/packer-azure/issues/comments/79925137",
  "html_url": "https://github.com/Azure/packer-azure/issues/52#issuecomment-79925137",
  "issue_url": "https://api.github.com/repos/Azure/packer-azure/issues/52",
  "id": 79925137,
  "user": {
    "login": "paulmey",
    "id": 1740197,
    "avatar_url": "https://avatars.githubusercontent.com/u/1740197?v=3",
    "gravatar_id": "",
    "url": "https://api.github.com/users/paulmey",
    "html_url": "https://github.com/paulmey",
    "followers_url": "https://api.github.com/users/paulmey/followers",
    "following_url": "https://api.github.com/users/paulmey/following{/other_user}",
    "gists_url": "https://api.github.com/users/paulmey/gists{/gist_id}",
    "starred_url": "https://api.github.com/users/paulmey/starred{/owner}{/repo}",
    "subscriptions_url": "https://api.github.com/users/paulmey/subscriptions",
    "organizations_url": "https://api.github.com/users/paulmey/orgs",
    "repos_url": "https://api.github.com/users/paulmey/repos",
    "events_url": "https://api.github.com/users/paulmey/events{/privacy}",
    "received_events_url": "https://api.github.com/users/paulmey/received_events",
    "type": "User",
    "site_admin": false
  },
  "created_at": "2015-03-14T05:30:44Z",
  "updated_at": "2015-03-14T05:30:44Z",
  "body": "Good suggestion, we'll gladly take a PR for that. It's been on my backlog but I haven't had the need for it yet."
}
, {
  "url": "https://api.github.com/repos/Azure/packer-azure/issues/comments/83083768",
  "html_url": "https://github.com/Azure/packer-azure/issues/52#issuecomment-83083768",
  "issue_url": "https://api.github.com/repos/Azure/packer-azure/issues/52",
  "id": 83083768,
  "user": {
    "login": "nathansoz",
    "id": 6821708,
    "avatar_url": "https://avatars.githubusercontent.com/u/6821708?v=3",
    "gravatar_id": "",
    "url": "https://api.github.com/users/nathansoz",
    "html_url": "https://github.com/nathansoz",
    "followers_url": "https://api.github.com/users/nathansoz/followers",
    "following_url": "https://api.github.com/users/nathansoz/following{/other_user}",
    "gists_url": "https://api.github.com/users/nathansoz/gists{/gist_id}",
    "starred_url": "https://api.github.com/users/nathansoz/starred{/owner}{/repo}",
    "subscriptions_url": "https://api.github.com/users/nathansoz/subscriptions",
    "organizations_url": "https://api.github.com/users/nathansoz/orgs",
    "repos_url": "https://api.github.com/users/nathansoz/repos",
    "events_url": "https://api.github.com/users/nathansoz/events{/privacy}",
    "received_events_url": "https://api.github.com/users/nathansoz/received_events",
    "type": "User",
    "site_admin": false
  },
  "created_at": "2015-03-18T17:44:00Z",
  "updated_at": "2015-03-18T17:44:00Z",
  "body": "Great. I'll take a look and see what I can do soon."
}
, {
  "url": "https://api.github.com/repos/Azure/packer-azure/issues/comments/83118116",
  "html_url": "https://github.com/Azure/packer-azure/issues/52#issuecomment-83118116",
  "issue_url": "https://api.github.com/repos/Azure/packer-azure/issues/52",
  "id": 83118116,
  "user": {
    "login": "nathansoz",
    "id": 6821708,
    "avatar_url": "https://avatars.githubusercontent.com/u/6821708?v=3",
    "gravatar_id": "",
    "url": "https://api.github.com/users/nathansoz",
    "html_url": "https://github.com/nathansoz",
    "followers_url": "https://api.github.com/users/nathansoz/followers",
    "following_url": "https://api.github.com/users/nathansoz/following{/other_user}",
    "gists_url": "https://api.github.com/users/nathansoz/gists{/gist_id}",
    "starred_url": "https://api.github.com/users/nathansoz/starred{/owner}{/repo}",
    "subscriptions_url": "https://api.github.com/users/nathansoz/subscriptions",
    "organizations_url": "https://api.github.com/users/nathansoz/orgs",
    "repos_url": "https://api.github.com/users/nathansoz/repos",
    "events_url": "https://api.github.com/users/nathansoz/events{/privacy}",
    "received_events_url": "https://api.github.com/users/nathansoz/received_events",
    "type": "User",
    "site_admin": false
  },
  "created_at": "2015-03-18T18:46:46Z",
  "updated_at": "2015-03-18T18:50:49Z",
  "body": "So I was looking at the packer shell provisioner a bit closer to see what they do with shell command timeouts. It doesn't appear that they have a timeout that the user can configure... in fact, it doesn't look like they have a timeout at all. I don't have much experience with go, but it looks like they are just waiting for the cmd routine to complete in the code below.\r\n\r\nhttps://github.com/mitchellh/packer/blob/master/provisioner/shell/provisioner.go#L259\r\n\r\nSo I wonder if the azure custom script provisioner should have a timeout at all? Thoughts?"
}
, {
  "url": "https://api.github.com/repos/Azure/packer-azure/issues/comments/83121723",
  "html_url": "https://github.com/Azure/packer-azure/issues/52#issuecomment-83121723",
  "issue_url": "https://api.github.com/repos/Azure/packer-azure/issues/52",
  "id": 83121723,
  "user": {
    "login": "paulmey",
    "id": 1740197,
    "avatar_url": "https://avatars.githubusercontent.com/u/1740197?v=3",
    "gravatar_id": "",
    "url": "https://api.github.com/users/paulmey",
    "html_url": "https://github.com/paulmey",
    "followers_url": "https://api.github.com/users/paulmey/followers",
    "following_url": "https://api.github.com/users/paulmey/following{/other_user}",
    "gists_url": "https://api.github.com/users/paulmey/gists{/gist_id}",
    "starred_url": "https://api.github.com/users/paulmey/starred{/owner}{/repo}",
    "subscriptions_url": "https://api.github.com/users/paulmey/subscriptions",
    "organizations_url": "https://api.github.com/users/paulmey/orgs",
    "repos_url": "https://api.github.com/users/paulmey/repos",
    "events_url": "https://api.github.com/users/paulmey/events{/privacy}",
    "received_events_url": "https://api.github.com/users/paulmey/received_events",
    "type": "User",
    "site_admin": false
  },
  "created_at": "2015-03-18T18:56:41Z",
  "updated_at": "2015-03-18T18:56:41Z",
  "body": "I like the idea of a configurable timeout. Especially if there is also an option to disable the timeout completely.\r\nWe use packer in our automated build of images and it's nice if packer cleans up whatever it created when a build fails because something is taking way more time than expected.\r\n\r\nI vote for the configurable timeout option."
}
]
