[
{
  "url": "https://api.github.com/repos/Netflix/feign/issues/comments/22056316",
  "html_url": "https://github.com/Netflix/feign/pull/26#issuecomment-22056316",
  "issue_url": "https://api.github.com/repos/Netflix/feign/issues/26",
  "id": 22056316,
  "user": {
    "login": "adriancole",
    "id": 64215,
    "avatar_url": "https://avatars.githubusercontent.com/u/64215?v=3",
    "gravatar_id": "",
    "url": "https://api.github.com/users/adriancole",
    "html_url": "https://github.com/adriancole",
    "followers_url": "https://api.github.com/users/adriancole/followers",
    "following_url": "https://api.github.com/users/adriancole/following{/other_user}",
    "gists_url": "https://api.github.com/users/adriancole/gists{/gist_id}",
    "starred_url": "https://api.github.com/users/adriancole/starred{/owner}{/repo}",
    "subscriptions_url": "https://api.github.com/users/adriancole/subscriptions",
    "organizations_url": "https://api.github.com/users/adriancole/orgs",
    "repos_url": "https://api.github.com/users/adriancole/repos",
    "events_url": "https://api.github.com/users/adriancole/events{/privacy}",
    "received_events_url": "https://api.github.com/users/adriancole/received_events",
    "type": "User",
    "site_admin": false
  },
  "created_at": "2013-08-03T15:11:47Z",
  "updated_at": "2013-08-03T15:11:47Z",
  "body": "@benjchristensen PTAL. this is the first step.  from here, we can consider what the impact would be to allow rx.Observable to be declared vs converting out into it."
}
, {
  "url": "https://api.github.com/repos/Netflix/feign/issues/comments/22056484",
  "html_url": "https://github.com/Netflix/feign/pull/26#issuecomment-22056484",
  "issue_url": "https://api.github.com/repos/Netflix/feign/issues/26",
  "id": 22056484,
  "user": {
    "login": "cloudbees-pull-request-builder",
    "id": 2611310,
    "avatar_url": "https://avatars.githubusercontent.com/u/2611310?v=3",
    "gravatar_id": "",
    "url": "https://api.github.com/users/cloudbees-pull-request-builder",
    "html_url": "https://github.com/cloudbees-pull-request-builder",
    "followers_url": "https://api.github.com/users/cloudbees-pull-request-builder/followers",
    "following_url": "https://api.github.com/users/cloudbees-pull-request-builder/following{/other_user}",
    "gists_url": "https://api.github.com/users/cloudbees-pull-request-builder/gists{/gist_id}",
    "starred_url": "https://api.github.com/users/cloudbees-pull-request-builder/starred{/owner}{/repo}",
    "subscriptions_url": "https://api.github.com/users/cloudbees-pull-request-builder/subscriptions",
    "organizations_url": "https://api.github.com/users/cloudbees-pull-request-builder/orgs",
    "repos_url": "https://api.github.com/users/cloudbees-pull-request-builder/repos",
    "events_url": "https://api.github.com/users/cloudbees-pull-request-builder/events{/privacy}",
    "received_events_url": "https://api.github.com/users/cloudbees-pull-request-builder/received_events",
    "type": "User",
    "site_admin": false
  },
  "created_at": "2013-08-03T15:24:35Z",
  "updated_at": "2013-08-03T15:24:35Z",
  "body": "[feign-pull-requests #49](https://netflixoss.ci.cloudbees.com/job/feign-pull-requests/49/) SUCCESS\nThis pull request looks good"
}
, {
  "url": "https://api.github.com/repos/Netflix/feign/issues/comments/24693599",
  "html_url": "https://github.com/Netflix/feign/pull/26#issuecomment-24693599",
  "issue_url": "https://api.github.com/repos/Netflix/feign/issues/26",
  "id": 24693599,
  "user": {
    "login": "adriancole",
    "id": 64215,
    "avatar_url": "https://avatars.githubusercontent.com/u/64215?v=3",
    "gravatar_id": "",
    "url": "https://api.github.com/users/adriancole",
    "html_url": "https://github.com/adriancole",
    "followers_url": "https://api.github.com/users/adriancole/followers",
    "following_url": "https://api.github.com/users/adriancole/following{/other_user}",
    "gists_url": "https://api.github.com/users/adriancole/gists{/gist_id}",
    "starred_url": "https://api.github.com/users/adriancole/starred{/owner}{/repo}",
    "subscriptions_url": "https://api.github.com/users/adriancole/subscriptions",
    "organizations_url": "https://api.github.com/users/adriancole/orgs",
    "repos_url": "https://api.github.com/users/adriancole/repos",
    "events_url": "https://api.github.com/users/adriancole/events{/privacy}",
    "received_events_url": "https://api.github.com/users/adriancole/received_events",
    "type": "User",
    "site_admin": false
  },
  "created_at": "2013-09-18T19:46:32Z",
  "updated_at": "2013-09-18T19:46:32Z",
  "body": "closing for now"
}
]
