[
{
  "url": "https://api.github.com/repos/Netflix/feign/issues/comments/24629915",
  "html_url": "https://github.com/Netflix/feign/pull/72#issuecomment-24629915",
  "issue_url": "https://api.github.com/repos/Netflix/feign/issues/72",
  "id": 24629915,
  "user": {
    "login": "adriancole",
    "id": 64215,
    "avatar_url": "https://avatars.githubusercontent.com/u/64215?v=3",
    "gravatar_id": "",
    "url": "https://api.github.com/users/adriancole",
    "html_url": "https://github.com/adriancole",
    "followers_url": "https://api.github.com/users/adriancole/followers",
    "following_url": "https://api.github.com/users/adriancole/following{/other_user}",
    "gists_url": "https://api.github.com/users/adriancole/gists{/gist_id}",
    "starred_url": "https://api.github.com/users/adriancole/starred{/owner}{/repo}",
    "subscriptions_url": "https://api.github.com/users/adriancole/subscriptions",
    "organizations_url": "https://api.github.com/users/adriancole/orgs",
    "repos_url": "https://api.github.com/users/adriancole/repos",
    "events_url": "https://api.github.com/users/adriancole/events{/privacy}",
    "received_events_url": "https://api.github.com/users/adriancole/received_events",
    "type": "User",
    "site_admin": false
  },
  "created_at": "2013-09-17T23:11:00Z",
  "updated_at": "2013-09-17T23:11:00Z",
  "body": "@davidmc24 heads-up!"
}
, {
  "url": "https://api.github.com/repos/Netflix/feign/issues/comments/24631293",
  "html_url": "https://github.com/Netflix/feign/pull/72#issuecomment-24631293",
  "issue_url": "https://api.github.com/repos/Netflix/feign/issues/72",
  "id": 24631293,
  "user": {
    "login": "cloudbees-pull-request-builder",
    "id": 2611310,
    "avatar_url": "https://avatars.githubusercontent.com/u/2611310?v=3",
    "gravatar_id": "",
    "url": "https://api.github.com/users/cloudbees-pull-request-builder",
    "html_url": "https://github.com/cloudbees-pull-request-builder",
    "followers_url": "https://api.github.com/users/cloudbees-pull-request-builder/followers",
    "following_url": "https://api.github.com/users/cloudbees-pull-request-builder/following{/other_user}",
    "gists_url": "https://api.github.com/users/cloudbees-pull-request-builder/gists{/gist_id}",
    "starred_url": "https://api.github.com/users/cloudbees-pull-request-builder/starred{/owner}{/repo}",
    "subscriptions_url": "https://api.github.com/users/cloudbees-pull-request-builder/subscriptions",
    "organizations_url": "https://api.github.com/users/cloudbees-pull-request-builder/orgs",
    "repos_url": "https://api.github.com/users/cloudbees-pull-request-builder/repos",
    "events_url": "https://api.github.com/users/cloudbees-pull-request-builder/events{/privacy}",
    "received_events_url": "https://api.github.com/users/cloudbees-pull-request-builder/received_events",
    "type": "User",
    "site_admin": false
  },
  "created_at": "2013-09-17T23:44:23Z",
  "updated_at": "2013-09-17T23:44:23Z",
  "body": "[feign-pull-requests #97](https://netflixoss.ci.cloudbees.com/job/feign-pull-requests/97/) SUCCESS\nThis pull request looks good"
}
, {
  "url": "https://api.github.com/repos/Netflix/feign/issues/comments/24633099",
  "html_url": "https://github.com/Netflix/feign/pull/72#issuecomment-24633099",
  "issue_url": "https://api.github.com/repos/Netflix/feign/issues/72",
  "id": 24633099,
  "user": {
    "login": "davidmc24",
    "id": 447825,
    "avatar_url": "https://avatars.githubusercontent.com/u/447825?v=3",
    "gravatar_id": "",
    "url": "https://api.github.com/users/davidmc24",
    "html_url": "https://github.com/davidmc24",
    "followers_url": "https://api.github.com/users/davidmc24/followers",
    "following_url": "https://api.github.com/users/davidmc24/following{/other_user}",
    "gists_url": "https://api.github.com/users/davidmc24/gists{/gist_id}",
    "starred_url": "https://api.github.com/users/davidmc24/starred{/owner}{/repo}",
    "subscriptions_url": "https://api.github.com/users/davidmc24/subscriptions",
    "organizations_url": "https://api.github.com/users/davidmc24/orgs",
    "repos_url": "https://api.github.com/users/davidmc24/repos",
    "events_url": "https://api.github.com/users/davidmc24/events{/privacy}",
    "received_events_url": "https://api.github.com/users/davidmc24/received_events",
    "type": "User",
    "site_admin": false
  },
  "created_at": "2013-09-18T00:29:37Z",
  "updated_at": "2013-09-18T00:29:37Z",
  "body": "I had actually added handling of those cases to decoder on purpose, with the goal of maximizing flexibility.  Maybe doing it for void was just a mistake, as there aren't any other valid return values. For Response, I was thinking that there might be some cases where you'd want to return a slightly different response than the original one. I can't come up with a single example, so that may not be valid.  So, :+1: on this change.\r\n\r\nI think that for non-void, non-response signatures, we should continue calling decoders even if the body is null, as there may be cases where it's useful to decode solely based on response headers. "
}
, {
  "url": "https://api.github.com/repos/Netflix/feign/issues/comments/24633148",
  "html_url": "https://github.com/Netflix/feign/pull/72#issuecomment-24633148",
  "issue_url": "https://api.github.com/repos/Netflix/feign/issues/72",
  "id": 24633148,
  "user": {
    "login": "adriancole",
    "id": 64215,
    "avatar_url": "https://avatars.githubusercontent.com/u/64215?v=3",
    "gravatar_id": "",
    "url": "https://api.github.com/users/adriancole",
    "html_url": "https://github.com/adriancole",
    "followers_url": "https://api.github.com/users/adriancole/followers",
    "following_url": "https://api.github.com/users/adriancole/following{/other_user}",
    "gists_url": "https://api.github.com/users/adriancole/gists{/gist_id}",
    "starred_url": "https://api.github.com/users/adriancole/starred{/owner}{/repo}",
    "subscriptions_url": "https://api.github.com/users/adriancole/subscriptions",
    "organizations_url": "https://api.github.com/users/adriancole/orgs",
    "repos_url": "https://api.github.com/users/adriancole/repos",
    "events_url": "https://api.github.com/users/adriancole/events{/privacy}",
    "received_events_url": "https://api.github.com/users/adriancole/received_events",
    "type": "User",
    "site_admin": false
  },
  "created_at": "2013-09-18T00:30:44Z",
  "updated_at": "2013-09-18T00:30:44Z",
  "body": "thanks for the post-commit review, david!"
}
, {
  "url": "https://api.github.com/repos/Netflix/feign/issues/comments/24633152",
  "html_url": "https://github.com/Netflix/feign/pull/72#issuecomment-24633152",
  "issue_url": "https://api.github.com/repos/Netflix/feign/issues/72",
  "id": 24633152,
  "user": {
    "login": "davidmc24",
    "id": 447825,
    "avatar_url": "https://avatars.githubusercontent.com/u/447825?v=3",
    "gravatar_id": "",
    "url": "https://api.github.com/users/davidmc24",
    "html_url": "https://github.com/davidmc24",
    "followers_url": "https://api.github.com/users/davidmc24/followers",
    "following_url": "https://api.github.com/users/davidmc24/following{/other_user}",
    "gists_url": "https://api.github.com/users/davidmc24/gists{/gist_id}",
    "starred_url": "https://api.github.com/users/davidmc24/starred{/owner}{/repo}",
    "subscriptions_url": "https://api.github.com/users/davidmc24/subscriptions",
    "organizations_url": "https://api.github.com/users/davidmc24/orgs",
    "repos_url": "https://api.github.com/users/davidmc24/repos",
    "events_url": "https://api.github.com/users/davidmc24/events{/privacy}",
    "received_events_url": "https://api.github.com/users/davidmc24/received_events",
    "type": "User",
    "site_admin": false
  },
  "created_at": "2013-09-18T00:30:49Z",
  "updated_at": "2013-09-18T00:30:49Z",
  "body": "Is there still a need for both Decoder.Default and StringDecoder? I think they do effectively the same thing now. "
}
, {
  "url": "https://api.github.com/repos/Netflix/feign/issues/comments/24633158",
  "html_url": "https://github.com/Netflix/feign/pull/72#issuecomment-24633158",
  "issue_url": "https://api.github.com/repos/Netflix/feign/issues/72",
  "id": 24633158,
  "user": {
    "login": "adriancole",
    "id": 64215,
    "avatar_url": "https://avatars.githubusercontent.com/u/64215?v=3",
    "gravatar_id": "",
    "url": "https://api.github.com/users/adriancole",
    "html_url": "https://github.com/adriancole",
    "followers_url": "https://api.github.com/users/adriancole/followers",
    "following_url": "https://api.github.com/users/adriancole/following{/other_user}",
    "gists_url": "https://api.github.com/users/adriancole/gists{/gist_id}",
    "starred_url": "https://api.github.com/users/adriancole/starred{/owner}{/repo}",
    "subscriptions_url": "https://api.github.com/users/adriancole/subscriptions",
    "organizations_url": "https://api.github.com/users/adriancole/orgs",
    "repos_url": "https://api.github.com/users/adriancole/repos",
    "events_url": "https://api.github.com/users/adriancole/events{/privacy}",
    "received_events_url": "https://api.github.com/users/adriancole/received_events",
    "type": "User",
    "site_admin": false
  },
  "created_at": "2013-09-18T00:31:07Z",
  "updated_at": "2013-09-18T00:31:07Z",
  "body": "fyi 5.0.1 is out w/this change now.\r\n\r\nnetflix systems are passing now!"
}
, {
  "url": "https://api.github.com/repos/Netflix/feign/issues/comments/24633212",
  "html_url": "https://github.com/Netflix/feign/pull/72#issuecomment-24633212",
  "issue_url": "https://api.github.com/repos/Netflix/feign/issues/72",
  "id": 24633212,
  "user": {
    "login": "adriancole",
    "id": 64215,
    "avatar_url": "https://avatars.githubusercontent.com/u/64215?v=3",
    "gravatar_id": "",
    "url": "https://api.github.com/users/adriancole",
    "html_url": "https://github.com/adriancole",
    "followers_url": "https://api.github.com/users/adriancole/followers",
    "following_url": "https://api.github.com/users/adriancole/following{/other_user}",
    "gists_url": "https://api.github.com/users/adriancole/gists{/gist_id}",
    "starred_url": "https://api.github.com/users/adriancole/starred{/owner}{/repo}",
    "subscriptions_url": "https://api.github.com/users/adriancole/subscriptions",
    "organizations_url": "https://api.github.com/users/adriancole/orgs",
    "repos_url": "https://api.github.com/users/adriancole/repos",
    "events_url": "https://api.github.com/users/adriancole/events{/privacy}",
    "received_events_url": "https://api.github.com/users/adriancole/received_events",
    "type": "User",
    "site_admin": false
  },
  "created_at": "2013-09-18T00:32:28Z",
  "updated_at": "2013-09-18T00:32:28Z",
  "body": "wrt Decoder.Default vs StringDecoder.. we could make default extend StringDecoder w/o any changes I suppose!"
}
, {
  "url": "https://api.github.com/repos/Netflix/feign/issues/comments/24633304",
  "html_url": "https://github.com/Netflix/feign/pull/72#issuecomment-24633304",
  "issue_url": "https://api.github.com/repos/Netflix/feign/issues/72",
  "id": 24633304,
  "user": {
    "login": "davidmc24",
    "id": 447825,
    "avatar_url": "https://avatars.githubusercontent.com/u/447825?v=3",
    "gravatar_id": "",
    "url": "https://api.github.com/users/davidmc24",
    "html_url": "https://github.com/davidmc24",
    "followers_url": "https://api.github.com/users/davidmc24/followers",
    "following_url": "https://api.github.com/users/davidmc24/following{/other_user}",
    "gists_url": "https://api.github.com/users/davidmc24/gists{/gist_id}",
    "starred_url": "https://api.github.com/users/davidmc24/starred{/owner}{/repo}",
    "subscriptions_url": "https://api.github.com/users/davidmc24/subscriptions",
    "organizations_url": "https://api.github.com/users/davidmc24/orgs",
    "repos_url": "https://api.github.com/users/davidmc24/repos",
    "events_url": "https://api.github.com/users/davidmc24/events{/privacy}",
    "received_events_url": "https://api.github.com/users/davidmc24/received_events",
    "type": "User",
    "site_admin": false
  },
  "created_at": "2013-09-18T00:34:31Z",
  "updated_at": "2013-09-18T00:34:31Z",
  "body": "I like that approach. It preserves consistency for defaults, doesn't imply that default will always be just String, but still provides String as something that can be used standalone. "
}
, {
  "url": "https://api.github.com/repos/Netflix/feign/issues/comments/24633392",
  "html_url": "https://github.com/Netflix/feign/pull/72#issuecomment-24633392",
  "issue_url": "https://api.github.com/repos/Netflix/feign/issues/72",
  "id": 24633392,
  "user": {
    "login": "adriancole",
    "id": 64215,
    "avatar_url": "https://avatars.githubusercontent.com/u/64215?v=3",
    "gravatar_id": "",
    "url": "https://api.github.com/users/adriancole",
    "html_url": "https://github.com/adriancole",
    "followers_url": "https://api.github.com/users/adriancole/followers",
    "following_url": "https://api.github.com/users/adriancole/following{/other_user}",
    "gists_url": "https://api.github.com/users/adriancole/gists{/gist_id}",
    "starred_url": "https://api.github.com/users/adriancole/starred{/owner}{/repo}",
    "subscriptions_url": "https://api.github.com/users/adriancole/subscriptions",
    "organizations_url": "https://api.github.com/users/adriancole/orgs",
    "repos_url": "https://api.github.com/users/adriancole/repos",
    "events_url": "https://api.github.com/users/adriancole/events{/privacy}",
    "received_events_url": "https://api.github.com/users/adriancole/received_events",
    "type": "User",
    "site_admin": false
  },
  "created_at": "2013-09-18T00:36:56Z",
  "updated_at": "2013-09-18T00:36:56Z",
  "body": "okie.. feel free to send PR for this and any other cleanups.  I know you mentioned something about gson, which currently isn't so nice from the pov of Builder.  I'll be shaking out internal code for a while, but will plan on at least another patch or minor this week."
}
]
