[
{
  "url": "https://api.github.com/repos/Microsoft/vso-agent-tasks/issues/comments/99416846",
  "html_url": "https://github.com/Microsoft/vso-agent-tasks/pull/93#issuecomment-99416846",
  "issue_url": "https://api.github.com/repos/Microsoft/vso-agent-tasks/issues/93",
  "id": 99416846,
  "user": {
    "login": "acesiddhu",
    "id": 1168823,
    "avatar_url": "https://avatars.githubusercontent.com/u/1168823?v=3",
    "gravatar_id": "",
    "url": "https://api.github.com/users/acesiddhu",
    "html_url": "https://github.com/acesiddhu",
    "followers_url": "https://api.github.com/users/acesiddhu/followers",
    "following_url": "https://api.github.com/users/acesiddhu/following{/other_user}",
    "gists_url": "https://api.github.com/users/acesiddhu/gists{/gist_id}",
    "starred_url": "https://api.github.com/users/acesiddhu/starred{/owner}{/repo}",
    "subscriptions_url": "https://api.github.com/users/acesiddhu/subscriptions",
    "organizations_url": "https://api.github.com/users/acesiddhu/orgs",
    "repos_url": "https://api.github.com/users/acesiddhu/repos",
    "events_url": "https://api.github.com/users/acesiddhu/events{/privacy}",
    "received_events_url": "https://api.github.com/users/acesiddhu/received_events",
    "type": "User",
    "site_admin": false
  },
  "created_at": "2015-05-06T10:51:29Z",
  "updated_at": "2015-05-06T10:51:29Z",
  "body": "looks fine"
}
]
