[
{
  "url": "https://api.github.com/repos/Microsoft/vso-agent-tasks/issues/comments/161211189",
  "html_url": "https://github.com/Microsoft/vso-agent-tasks/pull/919#issuecomment-161211189",
  "issue_url": "https://api.github.com/repos/Microsoft/vso-agent-tasks/issues/919",
  "id": 161211189,
  "user": {
    "login": "KrishnaAdityaB",
    "id": 14232392,
    "avatar_url": "https://avatars.githubusercontent.com/u/14232392?v=3",
    "gravatar_id": "",
    "url": "https://api.github.com/users/KrishnaAdityaB",
    "html_url": "https://github.com/KrishnaAdityaB",
    "followers_url": "https://api.github.com/users/KrishnaAdityaB/followers",
    "following_url": "https://api.github.com/users/KrishnaAdityaB/following{/other_user}",
    "gists_url": "https://api.github.com/users/KrishnaAdityaB/gists{/gist_id}",
    "starred_url": "https://api.github.com/users/KrishnaAdityaB/starred{/owner}{/repo}",
    "subscriptions_url": "https://api.github.com/users/KrishnaAdityaB/subscriptions",
    "organizations_url": "https://api.github.com/users/KrishnaAdityaB/orgs",
    "repos_url": "https://api.github.com/users/KrishnaAdityaB/repos",
    "events_url": "https://api.github.com/users/KrishnaAdityaB/events{/privacy}",
    "received_events_url": "https://api.github.com/users/KrishnaAdityaB/received_events",
    "type": "User",
    "site_admin": false
  },
  "created_at": "2015-12-02T07:48:47Z",
  "updated_at": "2015-12-02T07:48:47Z",
  "body": "Looks good."
}
]
