[
{
  "url": "https://api.github.com/repos/Microsoft/vso-agent-tasks/issues/comments/132966111",
  "html_url": "https://github.com/Microsoft/vso-agent-tasks/pull/435#issuecomment-132966111",
  "issue_url": "https://api.github.com/repos/Microsoft/vso-agent-tasks/issues/435",
  "id": 132966111,
  "user": {
    "login": "mvvsubbu",
    "id": 11993108,
    "avatar_url": "https://avatars.githubusercontent.com/u/11993108?v=3",
    "gravatar_id": "",
    "url": "https://api.github.com/users/mvvsubbu",
    "html_url": "https://github.com/mvvsubbu",
    "followers_url": "https://api.github.com/users/mvvsubbu/followers",
    "following_url": "https://api.github.com/users/mvvsubbu/following{/other_user}",
    "gists_url": "https://api.github.com/users/mvvsubbu/gists{/gist_id}",
    "starred_url": "https://api.github.com/users/mvvsubbu/starred{/owner}{/repo}",
    "subscriptions_url": "https://api.github.com/users/mvvsubbu/subscriptions",
    "organizations_url": "https://api.github.com/users/mvvsubbu/orgs",
    "repos_url": "https://api.github.com/users/mvvsubbu/repos",
    "events_url": "https://api.github.com/users/mvvsubbu/events{/privacy}",
    "received_events_url": "https://api.github.com/users/mvvsubbu/received_events",
    "type": "User",
    "site_admin": false
  },
  "created_at": "2015-08-20T10:20:23Z",
  "updated_at": "2015-08-20T10:20:23Z",
  "body": "Signed Off\r\n"
}
]
