[
{
  "url": "https://api.github.com/repos/github/hubot/issues/comments/106929686",
  "html_url": "https://github.com/github/hubot/issues/953#issuecomment-106929686",
  "issue_url": "https://api.github.com/repos/github/hubot/issues/953",
  "id": 106929686,
  "user": {
    "login": "gilesbowkett",
    "id": 974,
    "avatar_url": "https://avatars.githubusercontent.com/u/974?v=3",
    "gravatar_id": "",
    "url": "https://api.github.com/users/gilesbowkett",
    "html_url": "https://github.com/gilesbowkett",
    "followers_url": "https://api.github.com/users/gilesbowkett/followers",
    "following_url": "https://api.github.com/users/gilesbowkett/following{/other_user}",
    "gists_url": "https://api.github.com/users/gilesbowkett/gists{/gist_id}",
    "starred_url": "https://api.github.com/users/gilesbowkett/starred{/owner}{/repo}",
    "subscriptions_url": "https://api.github.com/users/gilesbowkett/subscriptions",
    "organizations_url": "https://api.github.com/users/gilesbowkett/orgs",
    "repos_url": "https://api.github.com/users/gilesbowkett/repos",
    "events_url": "https://api.github.com/users/gilesbowkett/events{/privacy}",
    "received_events_url": "https://api.github.com/users/gilesbowkett/received_events",
    "type": "User",
    "site_admin": false
  },
  "created_at": "2015-05-29T20:42:01Z",
  "updated_at": "2015-05-29T20:42:01Z",
  "body": "a good presentation on the general problem: https://www.youtube.com/watch?v=e_-qV8waPVM\r\n\r\nmaybe ask the maintainer on Twitter if they would be happy to let some fork become the canonical fork? `¯\\_(ツ)_/¯`"
}
, {
  "url": "https://api.github.com/repos/github/hubot/issues/comments/106967856",
  "html_url": "https://github.com/github/hubot/issues/953#issuecomment-106967856",
  "issue_url": "https://api.github.com/repos/github/hubot/issues/953",
  "id": 106967856,
  "user": {
    "login": "mislav",
    "id": 887,
    "avatar_url": "https://avatars.githubusercontent.com/u/887?v=3",
    "gravatar_id": "",
    "url": "https://api.github.com/users/mislav",
    "html_url": "https://github.com/mislav",
    "followers_url": "https://api.github.com/users/mislav/followers",
    "following_url": "https://api.github.com/users/mislav/following{/other_user}",
    "gists_url": "https://api.github.com/users/mislav/gists{/gist_id}",
    "starred_url": "https://api.github.com/users/mislav/starred{/owner}{/repo}",
    "subscriptions_url": "https://api.github.com/users/mislav/subscriptions",
    "organizations_url": "https://api.github.com/users/mislav/orgs",
    "repos_url": "https://api.github.com/users/mislav/repos",
    "events_url": "https://api.github.com/users/mislav/events{/privacy}",
    "received_events_url": "https://api.github.com/users/mislav/received_events",
    "type": "User",
    "site_admin": true
  },
  "created_at": "2015-05-30T00:46:04Z",
  "updated_at": "2015-05-30T00:46:04Z",
  "body": "Hi, thanks for expressing your concern. I won't speak for @technicalpickles much here, but I don't think he would mind if I said that it's true that he was the sole maintainer for a while and that lately he had difficulty allocating time to work on this project on the side.\r\n\r\nI wouldn't say that the situation is so grave, though. Last code change on 3rd of April shouldn't be an indication that a project is “dead” and everyone should immediately jump ship. Instead, you could give us the benefit of the doubt and assume that we know that we have a problem with resources right now and give us some breathing space to work it out before we continue. In the meantime, in the spirit of open source, everyone is free to continue submitting PRs, trying out patches from PRs, or even switching to forks that provide certain fixes/features. We definitely appreciate that.\r\n\r\nWe will definitely consider your suggestion to seek help with maintenance. :+1: "
}
, {
  "url": "https://api.github.com/repos/github/hubot/issues/comments/107004861",
  "html_url": "https://github.com/github/hubot/issues/953#issuecomment-107004861",
  "issue_url": "https://api.github.com/repos/github/hubot/issues/953",
  "id": 107004861,
  "user": {
    "login": "nounoursheureux",
    "id": 6280095,
    "avatar_url": "https://avatars.githubusercontent.com/u/6280095?v=3",
    "gravatar_id": "",
    "url": "https://api.github.com/users/nounoursheureux",
    "html_url": "https://github.com/nounoursheureux",
    "followers_url": "https://api.github.com/users/nounoursheureux/followers",
    "following_url": "https://api.github.com/users/nounoursheureux/following{/other_user}",
    "gists_url": "https://api.github.com/users/nounoursheureux/gists{/gist_id}",
    "starred_url": "https://api.github.com/users/nounoursheureux/starred{/owner}{/repo}",
    "subscriptions_url": "https://api.github.com/users/nounoursheureux/subscriptions",
    "organizations_url": "https://api.github.com/users/nounoursheureux/orgs",
    "repos_url": "https://api.github.com/users/nounoursheureux/repos",
    "events_url": "https://api.github.com/users/nounoursheureux/events{/privacy}",
    "received_events_url": "https://api.github.com/users/nounoursheureux/received_events",
    "type": "User",
    "site_admin": false
  },
  "created_at": "2015-05-30T07:52:25Z",
  "updated_at": "2015-05-30T07:52:25Z",
  "body": "I think adding new maintainers would be great, but changing repo would reduce the visibility of this project so I'd prefer that Hubot stays in the Github organisation"
}
, {
  "url": "https://api.github.com/repos/github/hubot/issues/comments/109003309",
  "html_url": "https://github.com/github/hubot/issues/953#issuecomment-109003309",
  "issue_url": "https://api.github.com/repos/github/hubot/issues/953",
  "id": 109003309,
  "user": {
    "login": "bkeepers",
    "id": 173,
    "avatar_url": "https://avatars.githubusercontent.com/u/173?v=3",
    "gravatar_id": "",
    "url": "https://api.github.com/users/bkeepers",
    "html_url": "https://github.com/bkeepers",
    "followers_url": "https://api.github.com/users/bkeepers/followers",
    "following_url": "https://api.github.com/users/bkeepers/following{/other_user}",
    "gists_url": "https://api.github.com/users/bkeepers/gists{/gist_id}",
    "starred_url": "https://api.github.com/users/bkeepers/starred{/owner}{/repo}",
    "subscriptions_url": "https://api.github.com/users/bkeepers/subscriptions",
    "organizations_url": "https://api.github.com/users/bkeepers/orgs",
    "repos_url": "https://api.github.com/users/bkeepers/repos",
    "events_url": "https://api.github.com/users/bkeepers/events{/privacy}",
    "received_events_url": "https://api.github.com/users/bkeepers/received_events",
    "type": "User",
    "site_admin": true
  },
  "created_at": "2015-06-04T18:41:39Z",
  "updated_at": "2015-06-04T19:11:02Z",
  "body": "@sdimkov Thanks for keeping us honest. We are working on getting some more GitHubbers involved so all the maintenance doesn't just fall on one or two people. You should start to see more activity around here in the next few days.\r\n\r\nIn the mean time, feel free to point out any pull requests or issues that blocking for you and we'll make reviewing them a priority.\r\n\r\n"
}
, {
  "url": "https://api.github.com/repos/github/hubot/issues/comments/109011172",
  "html_url": "https://github.com/github/hubot/issues/953#issuecomment-109011172",
  "issue_url": "https://api.github.com/repos/github/hubot/issues/953",
  "id": 109011172,
  "user": {
    "login": "sdimkov",
    "id": 1939605,
    "avatar_url": "https://avatars.githubusercontent.com/u/1939605?v=3",
    "gravatar_id": "",
    "url": "https://api.github.com/users/sdimkov",
    "html_url": "https://github.com/sdimkov",
    "followers_url": "https://api.github.com/users/sdimkov/followers",
    "following_url": "https://api.github.com/users/sdimkov/following{/other_user}",
    "gists_url": "https://api.github.com/users/sdimkov/gists{/gist_id}",
    "starred_url": "https://api.github.com/users/sdimkov/starred{/owner}{/repo}",
    "subscriptions_url": "https://api.github.com/users/sdimkov/subscriptions",
    "organizations_url": "https://api.github.com/users/sdimkov/orgs",
    "repos_url": "https://api.github.com/users/sdimkov/repos",
    "events_url": "https://api.github.com/users/sdimkov/events{/privacy}",
    "received_events_url": "https://api.github.com/users/sdimkov/received_events",
    "type": "User",
    "site_admin": false
  },
  "created_at": "2015-06-04T19:03:22Z",
  "updated_at": "2015-06-04T19:03:22Z",
  "body": "@bkeepers Thanks! I'm really glad to see that this project is now getting some more GitHub love. "
}
, {
  "url": "https://api.github.com/repos/github/hubot/issues/comments/109472535",
  "html_url": "https://github.com/github/hubot/issues/953#issuecomment-109472535",
  "issue_url": "https://api.github.com/repos/github/hubot/issues/953",
  "id": 109472535,
  "user": {
    "login": "gilesbowkett",
    "id": 974,
    "avatar_url": "https://avatars.githubusercontent.com/u/974?v=3",
    "gravatar_id": "",
    "url": "https://api.github.com/users/gilesbowkett",
    "html_url": "https://github.com/gilesbowkett",
    "followers_url": "https://api.github.com/users/gilesbowkett/followers",
    "following_url": "https://api.github.com/users/gilesbowkett/following{/other_user}",
    "gists_url": "https://api.github.com/users/gilesbowkett/gists{/gist_id}",
    "starred_url": "https://api.github.com/users/gilesbowkett/starred{/owner}{/repo}",
    "subscriptions_url": "https://api.github.com/users/gilesbowkett/subscriptions",
    "organizations_url": "https://api.github.com/users/gilesbowkett/orgs",
    "repos_url": "https://api.github.com/users/gilesbowkett/repos",
    "events_url": "https://api.github.com/users/gilesbowkett/events{/privacy}",
    "received_events_url": "https://api.github.com/users/gilesbowkett/received_events",
    "type": "User",
    "site_admin": false
  },
  "created_at": "2015-06-05T23:00:40Z",
  "updated_at": "2015-06-05T23:00:40Z",
  "body": "Tangential rant: This highlights a major error in GitHub's conceptual model for repos.\r\n\r\nThere's a presumption that the initial authorship of a project is inherently superior.\r\n\r\nSay I've got a project like hubot and I want to see which fork is most active. I can't just click and get a graph of which fork has the fastest time between receiving a PR and closing or merging it.\r\n\r\nSay that I have time to manage a hubot fork, and more time for it than GitHub itself has. Given that building a forks explorer (or whatever) hasn't been a priority for GitHub, I could do all that work, yet hubot's progress overall would still be a matter of when GitHub had time for it.\r\n\r\nFor my fork to really matter, the canonical repo would either have to take a bunch of PRs from it, or manually redirect people to it with a line of text in the README. Otherwise the hubot world's splintered and the only way around its fragmentation is word of mouth.\r\n\r\nGitHub is centralized even though git is distributed. This is a semantic mismatch, but it's usually not a problem. Because GitHub's a great site. You get a lot of benefits by adding a center back to the model.\r\n\r\nBut GitHub is also **_hierarchical_** even though git is flat. A completely flat, sprawling web of commits back and forth between forks is entirely possible within git. It would need no discernible center. But on GitHub, pull requests have to flow **_upwards_** to attain lasting impact.\r\n\r\nSo a canonical repo is **_not_** intrinsically necessary to the git model. But if you want a canonical repo, and you're adding a center back to a decentralized technology, then it would make sense to put any canonical repo at a *center*. GitHub puts it at a *top*.\r\n\r\nTLDR:\r\n\r\n![old man yells at cloud](https://cloud.githubusercontent.com/assets/974/8016704/59e46f3e-0ba4-11e5-95d4-46c8cd9c5aae.jpg)"
}
, {
  "url": "https://api.github.com/repos/github/hubot/issues/comments/109518874",
  "html_url": "https://github.com/github/hubot/issues/953#issuecomment-109518874",
  "issue_url": "https://api.github.com/repos/github/hubot/issues/953",
  "id": 109518874,
  "user": {
    "login": "bkeepers",
    "id": 173,
    "avatar_url": "https://avatars.githubusercontent.com/u/173?v=3",
    "gravatar_id": "",
    "url": "https://api.github.com/users/bkeepers",
    "html_url": "https://github.com/bkeepers",
    "followers_url": "https://api.github.com/users/bkeepers/followers",
    "following_url": "https://api.github.com/users/bkeepers/following{/other_user}",
    "gists_url": "https://api.github.com/users/bkeepers/gists{/gist_id}",
    "starred_url": "https://api.github.com/users/bkeepers/starred{/owner}{/repo}",
    "subscriptions_url": "https://api.github.com/users/bkeepers/subscriptions",
    "organizations_url": "https://api.github.com/users/bkeepers/orgs",
    "repos_url": "https://api.github.com/users/bkeepers/repos",
    "events_url": "https://api.github.com/users/bkeepers/events{/privacy}",
    "received_events_url": "https://api.github.com/users/bkeepers/received_events",
    "type": "User",
    "site_admin": true
  },
  "created_at": "2015-06-06T04:14:00Z",
  "updated_at": "2015-06-06T04:14:00Z",
  "body": "@gilesbowkett Interesting point.\r\n\r\nHow would you handle distribution of releases in this world where there isn't a canonical repository? NPM and almost every other package manager also has the concept of a canonical source. There is value in distribution of stable releases. It would be very difficult for something like hubot to exist in a world where package authors couldn't rely on a canonical version of the core.\r\n\r\nI understand your point and agree that a canonical repo is not necessary in git's model. However, source code is only one part of running a successful project and I think those other aspects would get very complicated without a canonical source."
}
, {
  "url": "https://api.github.com/repos/github/hubot/issues/comments/109908201",
  "html_url": "https://github.com/github/hubot/issues/953#issuecomment-109908201",
  "issue_url": "https://api.github.com/repos/github/hubot/issues/953",
  "id": 109908201,
  "user": {
    "login": "dosire",
    "id": 22061,
    "avatar_url": "https://avatars.githubusercontent.com/u/22061?v=3",
    "gravatar_id": "",
    "url": "https://api.github.com/users/dosire",
    "html_url": "https://github.com/dosire",
    "followers_url": "https://api.github.com/users/dosire/followers",
    "following_url": "https://api.github.com/users/dosire/following{/other_user}",
    "gists_url": "https://api.github.com/users/dosire/gists{/gist_id}",
    "starred_url": "https://api.github.com/users/dosire/starred{/owner}{/repo}",
    "subscriptions_url": "https://api.github.com/users/dosire/subscriptions",
    "organizations_url": "https://api.github.com/users/dosire/orgs",
    "repos_url": "https://api.github.com/users/dosire/repos",
    "events_url": "https://api.github.com/users/dosire/events{/privacy}",
    "received_events_url": "https://api.github.com/users/dosire/received_events",
    "type": "User",
    "site_admin": false
  },
  "created_at": "2015-06-08T08:37:05Z",
  "updated_at": "2015-06-08T08:37:05Z",
  "body": "@gilesbowkett GitLab CEO here, I think it would be cool to make it easy for a fork to merge a PR aimed the canonical source and then leave a notice at this (still open) PR. This way forks do have the benefit of being able to merge contributions to the canonical repo and show people they are more active. And the ability to easily set another canonical source for your fork. What do you think?"
}
, {
  "url": "https://api.github.com/repos/github/hubot/issues/comments/110052854",
  "html_url": "https://github.com/github/hubot/issues/953#issuecomment-110052854",
  "issue_url": "https://api.github.com/repos/github/hubot/issues/953",
  "id": 110052854,
  "user": {
    "login": "gilesbowkett",
    "id": 974,
    "avatar_url": "https://avatars.githubusercontent.com/u/974?v=3",
    "gravatar_id": "",
    "url": "https://api.github.com/users/gilesbowkett",
    "html_url": "https://github.com/gilesbowkett",
    "followers_url": "https://api.github.com/users/gilesbowkett/followers",
    "following_url": "https://api.github.com/users/gilesbowkett/following{/other_user}",
    "gists_url": "https://api.github.com/users/gilesbowkett/gists{/gist_id}",
    "starred_url": "https://api.github.com/users/gilesbowkett/starred{/owner}{/repo}",
    "subscriptions_url": "https://api.github.com/users/gilesbowkett/subscriptions",
    "organizations_url": "https://api.github.com/users/gilesbowkett/orgs",
    "repos_url": "https://api.github.com/users/gilesbowkett/repos",
    "events_url": "https://api.github.com/users/gilesbowkett/events{/privacy}",
    "received_events_url": "https://api.github.com/users/gilesbowkett/received_events",
    "type": "User",
    "site_admin": false
  },
  "created_at": "2015-06-08T15:59:09Z",
  "updated_at": "2015-06-08T15:59:09Z",
  "body": "@bkeepers right, sorry, I thought I implied everything you said. +1 to that.\r\n\r\nthe canonical repo is one of the worthwhile compromises imo. you add the center back to a decentralized thing, it's worth it to some degree.\r\n\r\nputting the repo at the top, instead of at the center, is where I think it's a problem. see the YouTube video I linked above."
}
, {
  "url": "https://api.github.com/repos/github/hubot/issues/comments/110054172",
  "html_url": "https://github.com/github/hubot/issues/953#issuecomment-110054172",
  "issue_url": "https://api.github.com/repos/github/hubot/issues/953",
  "id": 110054172,
  "user": {
    "login": "gilesbowkett",
    "id": 974,
    "avatar_url": "https://avatars.githubusercontent.com/u/974?v=3",
    "gravatar_id": "",
    "url": "https://api.github.com/users/gilesbowkett",
    "html_url": "https://github.com/gilesbowkett",
    "followers_url": "https://api.github.com/users/gilesbowkett/followers",
    "following_url": "https://api.github.com/users/gilesbowkett/following{/other_user}",
    "gists_url": "https://api.github.com/users/gilesbowkett/gists{/gist_id}",
    "starred_url": "https://api.github.com/users/gilesbowkett/starred{/owner}{/repo}",
    "subscriptions_url": "https://api.github.com/users/gilesbowkett/subscriptions",
    "organizations_url": "https://api.github.com/users/gilesbowkett/orgs",
    "repos_url": "https://api.github.com/users/gilesbowkett/repos",
    "events_url": "https://api.github.com/users/gilesbowkett/events{/privacy}",
    "received_events_url": "https://api.github.com/users/gilesbowkett/received_events",
    "type": "User",
    "site_admin": false
  },
  "created_at": "2015-06-08T16:03:41Z",
  "updated_at": "2015-06-08T16:03:41Z",
  "body": "@dosire I think that would be great. in an ideal world there'd also be some kind of overview thing where you could look at a branch as a Venn diagram of PRs. or look at a project as a cluster of branches.\r\n\r\na lot of great projects get half-abandoned, with downstream projects half-continuing development, and if you could see the **community's** engagement with a given project at a glance, the same way you can look at Issues or PRs and thereby spot the **maintainer's** degree of engagement at a glance, it would be much more useful for open source development, because open source is much more often about communities than about originators."
}
, {
  "url": "https://api.github.com/repos/github/hubot/issues/comments/110065329",
  "html_url": "https://github.com/github/hubot/issues/953#issuecomment-110065329",
  "issue_url": "https://api.github.com/repos/github/hubot/issues/953",
  "id": 110065329,
  "user": {
    "login": "technicalpickles",
    "id": 159,
    "avatar_url": "https://avatars.githubusercontent.com/u/159?v=3",
    "gravatar_id": "",
    "url": "https://api.github.com/users/technicalpickles",
    "html_url": "https://github.com/technicalpickles",
    "followers_url": "https://api.github.com/users/technicalpickles/followers",
    "following_url": "https://api.github.com/users/technicalpickles/following{/other_user}",
    "gists_url": "https://api.github.com/users/technicalpickles/gists{/gist_id}",
    "starred_url": "https://api.github.com/users/technicalpickles/starred{/owner}{/repo}",
    "subscriptions_url": "https://api.github.com/users/technicalpickles/subscriptions",
    "organizations_url": "https://api.github.com/users/technicalpickles/orgs",
    "repos_url": "https://api.github.com/users/technicalpickles/repos",
    "events_url": "https://api.github.com/users/technicalpickles/events{/privacy}",
    "received_events_url": "https://api.github.com/users/technicalpickles/received_events",
    "type": "User",
    "site_admin": true
  },
  "created_at": "2015-06-08T16:29:59Z",
  "updated_at": "2015-06-08T16:29:59Z",
  "body": "@gilesbowkett @dosire @bkeepers this is an interesting discussion and all, but would you kindly to take it somewhere else that isn't a hubot issue? :grinning: "
}
, {
  "url": "https://api.github.com/repos/github/hubot/issues/comments/110070316",
  "html_url": "https://github.com/github/hubot/issues/953#issuecomment-110070316",
  "issue_url": "https://api.github.com/repos/github/hubot/issues/953",
  "id": 110070316,
  "user": {
    "login": "gilesbowkett",
    "id": 974,
    "avatar_url": "https://avatars.githubusercontent.com/u/974?v=3",
    "gravatar_id": "",
    "url": "https://api.github.com/users/gilesbowkett",
    "html_url": "https://github.com/gilesbowkett",
    "followers_url": "https://api.github.com/users/gilesbowkett/followers",
    "following_url": "https://api.github.com/users/gilesbowkett/following{/other_user}",
    "gists_url": "https://api.github.com/users/gilesbowkett/gists{/gist_id}",
    "starred_url": "https://api.github.com/users/gilesbowkett/starred{/owner}{/repo}",
    "subscriptions_url": "https://api.github.com/users/gilesbowkett/subscriptions",
    "organizations_url": "https://api.github.com/users/gilesbowkett/orgs",
    "repos_url": "https://api.github.com/users/gilesbowkett/repos",
    "events_url": "https://api.github.com/users/gilesbowkett/events{/privacy}",
    "received_events_url": "https://api.github.com/users/gilesbowkett/received_events",
    "type": "User",
    "site_admin": false
  },
  "created_at": "2015-06-08T16:46:16Z",
  "updated_at": "2015-06-08T16:46:16Z",
  "body": "Sure, sorry. I'll move it to a blog."
}
, {
  "url": "https://api.github.com/repos/github/hubot/issues/comments/110083500",
  "html_url": "https://github.com/github/hubot/issues/953#issuecomment-110083500",
  "issue_url": "https://api.github.com/repos/github/hubot/issues/953",
  "id": 110083500,
  "user": {
    "login": "technicalpickles",
    "id": 159,
    "avatar_url": "https://avatars.githubusercontent.com/u/159?v=3",
    "gravatar_id": "",
    "url": "https://api.github.com/users/technicalpickles",
    "html_url": "https://github.com/technicalpickles",
    "followers_url": "https://api.github.com/users/technicalpickles/followers",
    "following_url": "https://api.github.com/users/technicalpickles/following{/other_user}",
    "gists_url": "https://api.github.com/users/technicalpickles/gists{/gist_id}",
    "starred_url": "https://api.github.com/users/technicalpickles/starred{/owner}{/repo}",
    "subscriptions_url": "https://api.github.com/users/technicalpickles/subscriptions",
    "organizations_url": "https://api.github.com/users/technicalpickles/orgs",
    "repos_url": "https://api.github.com/users/technicalpickles/repos",
    "events_url": "https://api.github.com/users/technicalpickles/events{/privacy}",
    "received_events_url": "https://api.github.com/users/technicalpickles/received_events",
    "type": "User",
    "site_admin": true
  },
  "created_at": "2015-06-08T17:26:42Z",
  "updated_at": "2015-06-08T17:26:42Z",
  "body": "I had been pretty burned out on maintaining hubot, and it was starting to show. This issue was kind of the head of it for me, and ironically a plea for help made me feel even worse about the state of things.  especially considering I still try to answer and merge pull requests, just not necessarily on the time scale people want or need. Hence my silence on here until now. After that, I was able to reach out to @bkeepers within GitHub, and start working through some of the feels and start taking steps to fix them.\r\n\r\nTo be honest, the scope of hubot as it exists is pretty epic. There's different chat services to integrate with, different ways to persist your data, different ways to run and deploy your hubot, not to mention the infinite different ways anyone can be scripting their hubot and using community scripts. When someone is just starting out, there are so many ways they can have problems, and it takes time and a good eye for detail to suss out what specific problems a user is having. In addition, the core of hubot's functionality is pretty critical for us internally, so it can be pretty scary trusting other people to work on it. It's nearly impossible for any person to do all that, and I'm not sure even a small group would be able to manage it. \r\n\r\nAfter some planning, Friday was going to be the day to make a big push on getting hubot back into shape. Here is what we were able to get done:\r\n\r\n* I've added @bkeepers and @bhuga from inside GitHub as additional maintainers for hubot and its ilk. I've also added @michaelansel as an external contributor, the first in quite awhile (probably me before I started at GitHub 2 years ago)\r\n  * we had a video chat for awhile on Friday, merged some documentation and other fixes, and I walked everyone through [how I release](https://github.com/github/hubot/blob/master/CONTRIBUTING.md#releasing)\r\n* I've triaged as many issues and PRs to get them labeled:\r\n  * [getting started](https://github.com/github/hubot/labels/getting%20started) for users that are running into any number of issues as they start using hubot\r\n  * [documentation](https://github.com/github/hubot/labels/documentation) for things that could be fixed through better documentation\r\n  * one per adapter: [campfire](https://github.com/github/hubot/labels/campfire%20adapter), [hall](https://github.com/github/hubot/labels/hall%20adapter),  [hipchat](https://github.com/github/hubot/labels/hipchat%20adapter), [irc](https://github.com/github/hubot/labels/irc%20adapter), [shell](https://github.com/github/hubot/labels/shell%20adapter), [slack](https://github.com/github/hubot/labels/slack%20adapter)\r\n  * deployment related: [heroku](https://github.com/github/hubot/labels/heroku%20deployment), [windows](https://github.com/github/hubot/labels/windows%20deployment)\r\n  * persistence: [redis](https://github.com/github/hubot/issues?q=is%3Aopen+label%3A%22redis+persistence%22)\r\n* I've continued efforts to [deprecate the hubot-scripts](https://github.com/github/hubot-scripts/issues/1641), and tried to triage as many PRs and issues as I could to close out if there was no way we'd be able to fix them, and push users towards extracted scripts\r\n* I [deprecated](https://github.com/hubot-scripts/packages/pull/145) the [hubot-scripts organization](https://github.com/hubot-scripts) which was intended to ease the maintenance of the hubot-scripts repository, but proved to just be just a different kind of maintenance pain. @bkeepers updated documentation on https://hubot.github.com/docs/#scripts to suggest people publish their own packages, and use npm to find them rather than needing a central organization\r\n* I reviewed repositories on hubot-scripts that are 'core' in the sense they are included in a newly generated hubot, and merged and released as many fixes as I could. I started adding people as collaborators to the repository and gave npm access to those that were merged in order to have more people to help out with individual scripts.\r\n* @gjtorikian worked on how we manage the documentation on hubot.github.com using a submodule of this repo, so we won't have to constantly be fixing links for https://github.com/github/hubot/issues/916\r\n\r\nI'm sure there was more, but most of this happened on Friday so it was hard to keep track :grin: \r\n\r\n@bkeepers pulled some stats together:\r\n\r\nHere are some stats on closed issues and PRs from Friday:\r\n\r\nRepo | Closed Issues | Merged PRs | Closed PRs\r\n---|---|---|---\r\nhttps://github.com/github/hubot | [15](https://github.com/github/hubot/issues?utf8=%E2%9C%93&q=is%3Aissue+closed%3A2015-06-05..2015-06-06) | [10](https://github.com/github/hubot/pulls?utf8=%E2%9C%93&q=is%3Apr+is%3Amerged+closed%3A%3E2015-06-03) | [1](https://github.com/github/hubot/pulls?utf8=%E2%9C%93&q=is%3Apr+is%3Aunmerged+closed%3A2015-06-05..2015-06-06+)\r\nhttps://github.com/github/hubot-scripts | [2](https://github.com/github/hubot-scripts/issues?q=closed%3A2015-06-05..2015-06-06+is%3Aissue) | [25](https://github.com/github/hubot-scripts/pulls?q=is%3Apr+is%3Amerged+closed%3A%3E2015-06-03) | [23](https://github.com/github/hubot-scripts/pulls?utf8=%E2%9C%93&q=is%3Apr+is%3Aunmerged+closed%3A2015-06-05..2015-06-06)\r\nAll @hubot-scripts repos | [71](https://github.com/search?utf8=%E2%9C%93&q=%40hubot-scripts+is%3Aissue+closed%3A2015-06-05..2015-06-06&type=Issues&ref=searchresults) | [12](https://github.com/search?utf8=%E2%9C%93&q=%40hubot-scripts+is%3Amerged+closed%3A%3E2015-06-05&type=Issues&ref=searchresults) | [2](https://github.com/search?utf8=%E2%9C%93&q=%40hubot-scripts+is%3Aunmerged+closed%3A2015-06-05..2015-06-05&type=Issues&ref=searchresults)\r\nhttps://github.com/github/hubot.github.com | 0 | 4 | 0\r\nhttps://github.com/github/generator-hubot | 0 | [4](https://github.com/github/generator-hubot/pulls?utf8=%E2%9C%93&q=is%3Apr+is%3Amerged+closed%3A2015-06-03..2015-06-06+) | 0\r\n**Total** | **88** | **55** | **26**\r\n\r\nGiven all that, I think we can confidently say that Hubot is maintained, and I'm feeling a lot better about things. Like any other project, it's always a work in progress, so we're trying to find other ways to make sure he stays that way."
}
, {
  "url": "https://api.github.com/repos/github/hubot/issues/comments/110089629",
  "html_url": "https://github.com/github/hubot/issues/953#issuecomment-110089629",
  "issue_url": "https://api.github.com/repos/github/hubot/issues/953",
  "id": 110089629,
  "user": {
    "login": "michaelansel",
    "id": 85195,
    "avatar_url": "https://avatars.githubusercontent.com/u/85195?v=3",
    "gravatar_id": "",
    "url": "https://api.github.com/users/michaelansel",
    "html_url": "https://github.com/michaelansel",
    "followers_url": "https://api.github.com/users/michaelansel/followers",
    "following_url": "https://api.github.com/users/michaelansel/following{/other_user}",
    "gists_url": "https://api.github.com/users/michaelansel/gists{/gist_id}",
    "starred_url": "https://api.github.com/users/michaelansel/starred{/owner}{/repo}",
    "subscriptions_url": "https://api.github.com/users/michaelansel/subscriptions",
    "organizations_url": "https://api.github.com/users/michaelansel/orgs",
    "repos_url": "https://api.github.com/users/michaelansel/repos",
    "events_url": "https://api.github.com/users/michaelansel/events{/privacy}",
    "received_events_url": "https://api.github.com/users/michaelansel/received_events",
    "type": "User",
    "site_admin": false
  },
  "created_at": "2015-06-08T17:44:54Z",
  "updated_at": "2015-06-08T17:44:54Z",
  "body": "Massive :clap: to @technicalpickles and @bkeepers for their work last week (and over the last several years!). Every project has hiccups, and I couldn't ask for a better response."
}
, {
  "url": "https://api.github.com/repos/github/hubot/issues/comments/110097328",
  "html_url": "https://github.com/github/hubot/issues/953#issuecomment-110097328",
  "issue_url": "https://api.github.com/repos/github/hubot/issues/953",
  "id": 110097328,
  "user": {
    "login": "geoffreyanderson",
    "id": 423529,
    "avatar_url": "https://avatars.githubusercontent.com/u/423529?v=3",
    "gravatar_id": "",
    "url": "https://api.github.com/users/geoffreyanderson",
    "html_url": "https://github.com/geoffreyanderson",
    "followers_url": "https://api.github.com/users/geoffreyanderson/followers",
    "following_url": "https://api.github.com/users/geoffreyanderson/following{/other_user}",
    "gists_url": "https://api.github.com/users/geoffreyanderson/gists{/gist_id}",
    "starred_url": "https://api.github.com/users/geoffreyanderson/starred{/owner}{/repo}",
    "subscriptions_url": "https://api.github.com/users/geoffreyanderson/subscriptions",
    "organizations_url": "https://api.github.com/users/geoffreyanderson/orgs",
    "repos_url": "https://api.github.com/users/geoffreyanderson/repos",
    "events_url": "https://api.github.com/users/geoffreyanderson/events{/privacy}",
    "received_events_url": "https://api.github.com/users/geoffreyanderson/received_events",
    "type": "User",
    "site_admin": false
  },
  "created_at": "2015-06-08T18:21:09Z",
  "updated_at": "2015-06-08T18:21:09Z",
  "body": ":clap: :clap: :clap: :clap:  @technicalpickles and @bkeepers. Really happy to see this picking up again (and totally understood around maintenance cost).  Looking forward to future work and merges! :+1: "
}
, {
  "url": "https://api.github.com/repos/github/hubot/issues/comments/110161481",
  "html_url": "https://github.com/github/hubot/issues/953#issuecomment-110161481",
  "issue_url": "https://api.github.com/repos/github/hubot/issues/953",
  "id": 110161481,
  "user": {
    "login": "gilesbowkett",
    "id": 974,
    "avatar_url": "https://avatars.githubusercontent.com/u/974?v=3",
    "gravatar_id": "",
    "url": "https://api.github.com/users/gilesbowkett",
    "html_url": "https://github.com/gilesbowkett",
    "followers_url": "https://api.github.com/users/gilesbowkett/followers",
    "following_url": "https://api.github.com/users/gilesbowkett/following{/other_user}",
    "gists_url": "https://api.github.com/users/gilesbowkett/gists{/gist_id}",
    "starred_url": "https://api.github.com/users/gilesbowkett/starred{/owner}{/repo}",
    "subscriptions_url": "https://api.github.com/users/gilesbowkett/subscriptions",
    "organizations_url": "https://api.github.com/users/gilesbowkett/orgs",
    "repos_url": "https://api.github.com/users/gilesbowkett/repos",
    "events_url": "https://api.github.com/users/gilesbowkett/events{/privacy}",
    "received_events_url": "https://api.github.com/users/gilesbowkett/received_events",
    "type": "User",
    "site_admin": false
  },
  "created_at": "2015-06-08T22:20:41Z",
  "updated_at": "2015-06-08T22:20:41Z",
  "body": "@technicalpickles hubot will live on without you. burnout is terrible. be good to yourself.\r\n\r\nit's supposed to just be a fun project anyway, if I understand correctly. that's certainly how I look at it.\r\n\r\nhighly recommend the video I linked in a previous comment.\r\n\r\nhe talks about the dynamics of open source burnout. it's a very common problem and as a GitHubber you are in a unique position to help solve it.\r\n"
}
]
