[
{
  "url": "https://api.github.com/repos/KnpLabs/KnpMenu/issues/comments/2193614",
  "html_url": "https://github.com/KnpLabs/KnpMenu/issues/1#issuecomment-2193614",
  "issue_url": "https://api.github.com/repos/KnpLabs/KnpMenu/issues/1",
  "id": 2193614,
  "user": {
    "login": "stof",
    "id": 439401,
    "avatar_url": "https://avatars.githubusercontent.com/u/439401?v=3",
    "gravatar_id": "",
    "url": "https://api.github.com/users/stof",
    "html_url": "https://github.com/stof",
    "followers_url": "https://api.github.com/users/stof/followers",
    "following_url": "https://api.github.com/users/stof/following{/other_user}",
    "gists_url": "https://api.github.com/users/stof/gists{/gist_id}",
    "starred_url": "https://api.github.com/users/stof/starred{/owner}{/repo}",
    "subscriptions_url": "https://api.github.com/users/stof/subscriptions",
    "organizations_url": "https://api.github.com/users/stof/orgs",
    "repos_url": "https://api.github.com/users/stof/repos",
    "events_url": "https://api.github.com/users/stof/events{/privacy}",
    "received_events_url": "https://api.github.com/users/stof/received_events",
    "type": "User",
    "site_admin": false
  },
  "created_at": "2011-09-25T23:29:55Z",
  "updated_at": "2011-09-25T23:29:55Z",
  "body": "Fixed by ef1f54734e"
}
]
