[
{
  "url": "https://api.github.com/repos/linkedin/naarad/issues/comments/34962620",
  "html_url": "https://github.com/linkedin/naarad/pull/113#issuecomment-34962620",
  "issue_url": "https://api.github.com/repos/linkedin/naarad/issues/113",
  "id": 34962620,
  "user": {
    "login": "RiteshMaheshwari",
    "id": 2993448,
    "avatar_url": "https://avatars.githubusercontent.com/u/2993448?v=3",
    "gravatar_id": "",
    "url": "https://api.github.com/users/RiteshMaheshwari",
    "html_url": "https://github.com/RiteshMaheshwari",
    "followers_url": "https://api.github.com/users/RiteshMaheshwari/followers",
    "following_url": "https://api.github.com/users/RiteshMaheshwari/following{/other_user}",
    "gists_url": "https://api.github.com/users/RiteshMaheshwari/gists{/gist_id}",
    "starred_url": "https://api.github.com/users/RiteshMaheshwari/starred{/owner}{/repo}",
    "subscriptions_url": "https://api.github.com/users/RiteshMaheshwari/subscriptions",
    "organizations_url": "https://api.github.com/users/RiteshMaheshwari/orgs",
    "repos_url": "https://api.github.com/users/RiteshMaheshwari/repos",
    "events_url": "https://api.github.com/users/RiteshMaheshwari/events{/privacy}",
    "received_events_url": "https://api.github.com/users/RiteshMaheshwari/received_events",
    "type": "User",
    "site_admin": false
  },
  "created_at": "2014-02-13T09:48:23Z",
  "updated_at": "2014-02-13T09:48:23Z",
  "body": "Updated"
}
]
