[
{
  "url": "https://api.github.com/repos/linkedin/naarad/issues/comments/74950624",
  "html_url": "https://github.com/linkedin/naarad/issues/277#issuecomment-74950624",
  "issue_url": "https://api.github.com/repos/linkedin/naarad/issues/277",
  "id": 74950624,
  "user": {
    "login": "zhenyun",
    "id": 5853125,
    "avatar_url": "https://avatars.githubusercontent.com/u/5853125?v=3",
    "gravatar_id": "",
    "url": "https://api.github.com/users/zhenyun",
    "html_url": "https://github.com/zhenyun",
    "followers_url": "https://api.github.com/users/zhenyun/followers",
    "following_url": "https://api.github.com/users/zhenyun/following{/other_user}",
    "gists_url": "https://api.github.com/users/zhenyun/gists{/gist_id}",
    "starred_url": "https://api.github.com/users/zhenyun/starred{/owner}{/repo}",
    "subscriptions_url": "https://api.github.com/users/zhenyun/subscriptions",
    "organizations_url": "https://api.github.com/users/zhenyun/orgs",
    "repos_url": "https://api.github.com/users/zhenyun/repos",
    "events_url": "https://api.github.com/users/zhenyun/events{/privacy}",
    "received_events_url": "https://api.github.com/users/zhenyun/received_events",
    "type": "User",
    "site_admin": false
  },
  "created_at": "2015-02-18T21:22:54Z",
  "updated_at": "2015-02-18T21:22:54Z",
  "body": "the issue persists..."
}
, {
  "url": "https://api.github.com/repos/linkedin/naarad/issues/comments/86331456",
  "html_url": "https://github.com/linkedin/naarad/issues/277#issuecomment-86331456",
  "issue_url": "https://api.github.com/repos/linkedin/naarad/issues/277",
  "id": 86331456,
  "user": {
    "login": "feng-tao",
    "id": 3223098,
    "avatar_url": "https://avatars.githubusercontent.com/u/3223098?v=3",
    "gravatar_id": "",
    "url": "https://api.github.com/users/feng-tao",
    "html_url": "https://github.com/feng-tao",
    "followers_url": "https://api.github.com/users/feng-tao/followers",
    "following_url": "https://api.github.com/users/feng-tao/following{/other_user}",
    "gists_url": "https://api.github.com/users/feng-tao/gists{/gist_id}",
    "starred_url": "https://api.github.com/users/feng-tao/starred{/owner}{/repo}",
    "subscriptions_url": "https://api.github.com/users/feng-tao/subscriptions",
    "organizations_url": "https://api.github.com/users/feng-tao/orgs",
    "repos_url": "https://api.github.com/users/feng-tao/repos",
    "events_url": "https://api.github.com/users/feng-tao/events{/privacy}",
    "received_events_url": "https://api.github.com/users/feng-tao/received_events",
    "type": "User",
    "site_admin": false
  },
  "created_at": "2015-03-26T04:11:21Z",
  "updated_at": "2015-03-26T04:11:21Z",
  "body": "hi, I root cause and fix this bug. The fix works on my example config. Is there anyone could give a try on my fix?"
}
, {
  "url": "https://api.github.com/repos/linkedin/naarad/issues/comments/86332881",
  "html_url": "https://github.com/linkedin/naarad/issues/277#issuecomment-86332881",
  "issue_url": "https://api.github.com/repos/linkedin/naarad/issues/277",
  "id": 86332881,
  "user": {
    "login": "richardhsu",
    "id": 906880,
    "avatar_url": "https://avatars.githubusercontent.com/u/906880?v=3",
    "gravatar_id": "",
    "url": "https://api.github.com/users/richardhsu",
    "html_url": "https://github.com/richardhsu",
    "followers_url": "https://api.github.com/users/richardhsu/followers",
    "following_url": "https://api.github.com/users/richardhsu/following{/other_user}",
    "gists_url": "https://api.github.com/users/richardhsu/gists{/gist_id}",
    "starred_url": "https://api.github.com/users/richardhsu/starred{/owner}{/repo}",
    "subscriptions_url": "https://api.github.com/users/richardhsu/subscriptions",
    "organizations_url": "https://api.github.com/users/richardhsu/orgs",
    "repos_url": "https://api.github.com/users/richardhsu/repos",
    "events_url": "https://api.github.com/users/richardhsu/events{/privacy}",
    "received_events_url": "https://api.github.com/users/richardhsu/received_events",
    "type": "User",
    "site_admin": false
  },
  "created_at": "2015-03-26T04:14:25Z",
  "updated_at": "2015-03-26T04:14:25Z",
  "body": "Please push your changes to a branch on your forked repository, that way one of us can pull the changes and test on our system as well with our own configurations and/or logs.\r\n\r\nMight also be helpful to paste the config example you used and what log you used."
}
, {
  "url": "https://api.github.com/repos/linkedin/naarad/issues/comments/86620851",
  "html_url": "https://github.com/linkedin/naarad/issues/277#issuecomment-86620851",
  "issue_url": "https://api.github.com/repos/linkedin/naarad/issues/277",
  "id": 86620851,
  "user": {
    "login": "feng-tao",
    "id": 3223098,
    "avatar_url": "https://avatars.githubusercontent.com/u/3223098?v=3",
    "gravatar_id": "",
    "url": "https://api.github.com/users/feng-tao",
    "html_url": "https://github.com/feng-tao",
    "followers_url": "https://api.github.com/users/feng-tao/followers",
    "following_url": "https://api.github.com/users/feng-tao/following{/other_user}",
    "gists_url": "https://api.github.com/users/feng-tao/gists{/gist_id}",
    "starred_url": "https://api.github.com/users/feng-tao/starred{/owner}{/repo}",
    "subscriptions_url": "https://api.github.com/users/feng-tao/subscriptions",
    "organizations_url": "https://api.github.com/users/feng-tao/orgs",
    "repos_url": "https://api.github.com/users/feng-tao/repos",
    "events_url": "https://api.github.com/users/feng-tao/events{/privacy}",
    "received_events_url": "https://api.github.com/users/feng-tao/received_events",
    "type": "User",
    "site_admin": false
  },
  "created_at": "2015-03-26T16:51:57Z",
  "updated_at": "2015-03-26T16:51:57Z",
  "body": "push the fix to my local branch(https://github.com/feng-tao/naarad/tree/bug_227)"
}
, {
  "url": "https://api.github.com/repos/linkedin/naarad/issues/comments/87097413",
  "html_url": "https://github.com/linkedin/naarad/issues/277#issuecomment-87097413",
  "issue_url": "https://api.github.com/repos/linkedin/naarad/issues/277",
  "id": 87097413,
  "user": {
    "login": "richardhsu",
    "id": 906880,
    "avatar_url": "https://avatars.githubusercontent.com/u/906880?v=3",
    "gravatar_id": "",
    "url": "https://api.github.com/users/richardhsu",
    "html_url": "https://github.com/richardhsu",
    "followers_url": "https://api.github.com/users/richardhsu/followers",
    "following_url": "https://api.github.com/users/richardhsu/following{/other_user}",
    "gists_url": "https://api.github.com/users/richardhsu/gists{/gist_id}",
    "starred_url": "https://api.github.com/users/richardhsu/starred{/owner}{/repo}",
    "subscriptions_url": "https://api.github.com/users/richardhsu/subscriptions",
    "organizations_url": "https://api.github.com/users/richardhsu/orgs",
    "repos_url": "https://api.github.com/users/richardhsu/repos",
    "events_url": "https://api.github.com/users/richardhsu/events{/privacy}",
    "received_events_url": "https://api.github.com/users/richardhsu/received_events",
    "type": "User",
    "site_admin": false
  },
  "created_at": "2015-03-27T21:30:54Z",
  "updated_at": "2015-03-27T21:30:54Z",
  "body": "Pull request #327 has been merged and fixes this."
}
]
