[
{
  "url": "https://api.github.com/repos/linkedin/naarad/issues/comments/55806935",
  "html_url": "https://github.com/linkedin/naarad/pull/279#issuecomment-55806935",
  "issue_url": "https://api.github.com/repos/linkedin/naarad/issues/279",
  "id": 55806935,
  "user": {
    "login": "SharadGandhi",
    "id": 5845822,
    "avatar_url": "https://avatars.githubusercontent.com/u/5845822?v=3",
    "gravatar_id": "",
    "url": "https://api.github.com/users/SharadGandhi",
    "html_url": "https://github.com/SharadGandhi",
    "followers_url": "https://api.github.com/users/SharadGandhi/followers",
    "following_url": "https://api.github.com/users/SharadGandhi/following{/other_user}",
    "gists_url": "https://api.github.com/users/SharadGandhi/gists{/gist_id}",
    "starred_url": "https://api.github.com/users/SharadGandhi/starred{/owner}{/repo}",
    "subscriptions_url": "https://api.github.com/users/SharadGandhi/subscriptions",
    "organizations_url": "https://api.github.com/users/SharadGandhi/orgs",
    "repos_url": "https://api.github.com/users/SharadGandhi/repos",
    "events_url": "https://api.github.com/users/SharadGandhi/events{/privacy}",
    "received_events_url": "https://api.github.com/users/SharadGandhi/received_events",
    "type": "User",
    "site_admin": false
  },
  "created_at": "2014-09-16T20:18:28Z",
  "updated_at": "2014-09-16T20:18:28Z",
  "body": "Updated as per feedback"
}
, {
  "url": "https://api.github.com/repos/linkedin/naarad/issues/comments/55819579",
  "html_url": "https://github.com/linkedin/naarad/pull/279#issuecomment-55819579",
  "issue_url": "https://api.github.com/repos/linkedin/naarad/issues/279",
  "id": 55819579,
  "user": {
    "login": "SharadGandhi",
    "id": 5845822,
    "avatar_url": "https://avatars.githubusercontent.com/u/5845822?v=3",
    "gravatar_id": "",
    "url": "https://api.github.com/users/SharadGandhi",
    "html_url": "https://github.com/SharadGandhi",
    "followers_url": "https://api.github.com/users/SharadGandhi/followers",
    "following_url": "https://api.github.com/users/SharadGandhi/following{/other_user}",
    "gists_url": "https://api.github.com/users/SharadGandhi/gists{/gist_id}",
    "starred_url": "https://api.github.com/users/SharadGandhi/starred{/owner}{/repo}",
    "subscriptions_url": "https://api.github.com/users/SharadGandhi/subscriptions",
    "organizations_url": "https://api.github.com/users/SharadGandhi/orgs",
    "repos_url": "https://api.github.com/users/SharadGandhi/repos",
    "events_url": "https://api.github.com/users/SharadGandhi/events{/privacy}",
    "received_events_url": "https://api.github.com/users/SharadGandhi/received_events",
    "type": "User",
    "site_admin": false
  },
  "created_at": "2014-09-16T21:52:03Z",
  "updated_at": "2014-09-16T21:52:03Z",
  "body": "Updated with latest feedback"
}
, {
  "url": "https://api.github.com/repos/linkedin/naarad/issues/comments/55821997",
  "html_url": "https://github.com/linkedin/naarad/pull/279#issuecomment-55821997",
  "issue_url": "https://api.github.com/repos/linkedin/naarad/issues/279",
  "id": 55821997,
  "user": {
    "login": "RiteshMaheshwari",
    "id": 2993448,
    "avatar_url": "https://avatars.githubusercontent.com/u/2993448?v=3",
    "gravatar_id": "",
    "url": "https://api.github.com/users/RiteshMaheshwari",
    "html_url": "https://github.com/RiteshMaheshwari",
    "followers_url": "https://api.github.com/users/RiteshMaheshwari/followers",
    "following_url": "https://api.github.com/users/RiteshMaheshwari/following{/other_user}",
    "gists_url": "https://api.github.com/users/RiteshMaheshwari/gists{/gist_id}",
    "starred_url": "https://api.github.com/users/RiteshMaheshwari/starred{/owner}{/repo}",
    "subscriptions_url": "https://api.github.com/users/RiteshMaheshwari/subscriptions",
    "organizations_url": "https://api.github.com/users/RiteshMaheshwari/orgs",
    "repos_url": "https://api.github.com/users/RiteshMaheshwari/repos",
    "events_url": "https://api.github.com/users/RiteshMaheshwari/events{/privacy}",
    "received_events_url": "https://api.github.com/users/RiteshMaheshwari/received_events",
    "type": "User",
    "site_admin": false
  },
  "created_at": "2014-09-16T22:12:27Z",
  "updated_at": "2014-09-16T22:12:27Z",
  "body": "LGTM, please merge"
}
]
