[
{
  "url": "https://api.github.com/repos/Azure/azure-resource-manager-schemas/issues/comments/162636717",
  "html_url": "https://github.com/Azure/azure-resource-manager-schemas/pull/78#issuecomment-162636717",
  "issue_url": "https://api.github.com/repos/Azure/azure-resource-manager-schemas/issues/78",
  "id": 162636717,
  "user": {
    "login": "wenwu449",
    "id": 7390068,
    "avatar_url": "https://avatars.githubusercontent.com/u/7390068?v=3",
    "gravatar_id": "",
    "url": "https://api.github.com/users/wenwu449",
    "html_url": "https://github.com/wenwu449",
    "followers_url": "https://api.github.com/users/wenwu449/followers",
    "following_url": "https://api.github.com/users/wenwu449/following{/other_user}",
    "gists_url": "https://api.github.com/users/wenwu449/gists{/gist_id}",
    "starred_url": "https://api.github.com/users/wenwu449/starred{/owner}{/repo}",
    "subscriptions_url": "https://api.github.com/users/wenwu449/subscriptions",
    "organizations_url": "https://api.github.com/users/wenwu449/orgs",
    "repos_url": "https://api.github.com/users/wenwu449/repos",
    "events_url": "https://api.github.com/users/wenwu449/events{/privacy}",
    "received_events_url": "https://api.github.com/users/wenwu449/received_events",
    "type": "User",
    "site_admin": false
  },
  "created_at": "2015-12-07T19:40:50Z",
  "updated_at": "2015-12-07T19:40:50Z",
  "body": "Please add a test in \"\\tests\\2015-11-01\\Microsoft.Network.tests.json\""
}
, {
  "url": "https://api.github.com/repos/Azure/azure-resource-manager-schemas/issues/comments/163821011",
  "html_url": "https://github.com/Azure/azure-resource-manager-schemas/pull/78#issuecomment-163821011",
  "issue_url": "https://api.github.com/repos/Azure/azure-resource-manager-schemas/issues/78",
  "id": 163821011,
  "user": {
    "login": "wenwu449",
    "id": 7390068,
    "avatar_url": "https://avatars.githubusercontent.com/u/7390068?v=3",
    "gravatar_id": "",
    "url": "https://api.github.com/users/wenwu449",
    "html_url": "https://github.com/wenwu449",
    "followers_url": "https://api.github.com/users/wenwu449/followers",
    "following_url": "https://api.github.com/users/wenwu449/following{/other_user}",
    "gists_url": "https://api.github.com/users/wenwu449/gists{/gist_id}",
    "starred_url": "https://api.github.com/users/wenwu449/starred{/owner}{/repo}",
    "subscriptions_url": "https://api.github.com/users/wenwu449/subscriptions",
    "organizations_url": "https://api.github.com/users/wenwu449/orgs",
    "repos_url": "https://api.github.com/users/wenwu449/repos",
    "events_url": "https://api.github.com/users/wenwu449/events{/privacy}",
    "received_events_url": "https://api.github.com/users/wenwu449/received_events",
    "type": "User",
    "site_admin": false
  },
  "created_at": "2015-12-11T02:55:10Z",
  "updated_at": "2015-12-11T02:55:10Z",
  "body": "@vladca, Dan has fixed the issue in test tools, we also require all properties support \"expression\" now. With the latest test tools, there are a few errors on this schema, most because some properties not support \"expression\" yet, can you fix them?"
}
, {
  "url": "https://api.github.com/repos/Azure/azure-resource-manager-schemas/issues/comments/164460040",
  "html_url": "https://github.com/Azure/azure-resource-manager-schemas/pull/78#issuecomment-164460040",
  "issue_url": "https://api.github.com/repos/Azure/azure-resource-manager-schemas/issues/78",
  "id": 164460040,
  "user": {
    "login": "vladca",
    "id": 7453385,
    "avatar_url": "https://avatars.githubusercontent.com/u/7453385?v=3",
    "gravatar_id": "",
    "url": "https://api.github.com/users/vladca",
    "html_url": "https://github.com/vladca",
    "followers_url": "https://api.github.com/users/vladca/followers",
    "following_url": "https://api.github.com/users/vladca/following{/other_user}",
    "gists_url": "https://api.github.com/users/vladca/gists{/gist_id}",
    "starred_url": "https://api.github.com/users/vladca/starred{/owner}{/repo}",
    "subscriptions_url": "https://api.github.com/users/vladca/subscriptions",
    "organizations_url": "https://api.github.com/users/vladca/orgs",
    "repos_url": "https://api.github.com/users/vladca/repos",
    "events_url": "https://api.github.com/users/vladca/events{/privacy}",
    "received_events_url": "https://api.github.com/users/vladca/received_events",
    "type": "User",
    "site_admin": false
  },
  "created_at": "2015-12-14T15:04:51Z",
  "updated_at": "2015-12-14T15:04:51Z",
  "body": "So really all properties, no exception? I pulled from master but I still don’t see Dan’s fix. I’d like to see the errors so I can check that I’ve really fixed them. Cheers\r\n\r\nFrom: Wenjun Wu [mailto:notifications@github.com]\r\nSent: 11 December 2015 02:55\r\nTo: Azure/azure-resource-manager-schemas <azure-resource-manager-schemas@noreply.github.com>\r\nCc: Vlad Cananau <Vlad.Cananau@microsoft.com>\r\nSubject: Re: [azure-resource-manager-schemas] Schema for Traffic Manager Profile resource (#78)\r\n\r\n\r\n@vladca<https://github.com/vladca>, Dan has fixed the issue in test tools, we also require all properties support \"expression\" now. With the latest test tools, there are a few errors on this schema, most because some properties not support \"expression\" yet, can you fix them?\r\n\r\n—\r\nReply to this email directly or view it on GitHub<https://github.com/Azure/azure-resource-manager-schemas/pull/78#issuecomment-163821011>.\r\n"
}
, {
  "url": "https://api.github.com/repos/Azure/azure-resource-manager-schemas/issues/comments/164960515",
  "html_url": "https://github.com/Azure/azure-resource-manager-schemas/pull/78#issuecomment-164960515",
  "issue_url": "https://api.github.com/repos/Azure/azure-resource-manager-schemas/issues/78",
  "id": 164960515,
  "user": {
    "login": "wenwu449",
    "id": 7390068,
    "avatar_url": "https://avatars.githubusercontent.com/u/7390068?v=3",
    "gravatar_id": "",
    "url": "https://api.github.com/users/wenwu449",
    "html_url": "https://github.com/wenwu449",
    "followers_url": "https://api.github.com/users/wenwu449/followers",
    "following_url": "https://api.github.com/users/wenwu449/following{/other_user}",
    "gists_url": "https://api.github.com/users/wenwu449/gists{/gist_id}",
    "starred_url": "https://api.github.com/users/wenwu449/starred{/owner}{/repo}",
    "subscriptions_url": "https://api.github.com/users/wenwu449/subscriptions",
    "organizations_url": "https://api.github.com/users/wenwu449/orgs",
    "repos_url": "https://api.github.com/users/wenwu449/repos",
    "events_url": "https://api.github.com/users/wenwu449/events{/privacy}",
    "received_events_url": "https://api.github.com/users/wenwu449/received_events",
    "type": "User",
    "site_admin": false
  },
  "created_at": "2015-12-16T01:45:26Z",
  "updated_at": "2015-12-16T01:45:26Z",
  "body": "Please use \"git pull https://github.com/Azure/azure-resource-manager-schemas.git master\" to merge latest test tools to your local branch."
}
]
