[
{
  "url": "https://api.github.com/repos/KnpLabs/KnpRadBundle/issues/comments/11661231",
  "html_url": "https://github.com/KnpLabs/KnpRadBundle/pull/36#issuecomment-11661231",
  "issue_url": "https://api.github.com/repos/KnpLabs/KnpRadBundle/issues/36",
  "id": 11661231,
  "user": {
    "login": "gquemener",
    "id": 668604,
    "avatar_url": "https://avatars.githubusercontent.com/u/668604?v=3",
    "gravatar_id": "",
    "url": "https://api.github.com/users/gquemener",
    "html_url": "https://github.com/gquemener",
    "followers_url": "https://api.github.com/users/gquemener/followers",
    "following_url": "https://api.github.com/users/gquemener/following{/other_user}",
    "gists_url": "https://api.github.com/users/gquemener/gists{/gist_id}",
    "starred_url": "https://api.github.com/users/gquemener/starred{/owner}{/repo}",
    "subscriptions_url": "https://api.github.com/users/gquemener/subscriptions",
    "organizations_url": "https://api.github.com/users/gquemener/orgs",
    "repos_url": "https://api.github.com/users/gquemener/repos",
    "events_url": "https://api.github.com/users/gquemener/events{/privacy}",
    "received_events_url": "https://api.github.com/users/gquemener/received_events",
    "type": "User",
    "site_admin": false
  },
  "created_at": "2012-12-24T14:08:41Z",
  "updated_at": "2012-12-24T14:08:41Z",
  "body": "Ah good! Thanks dude"
}
, {
  "url": "https://api.github.com/repos/KnpLabs/KnpRadBundle/issues/comments/11661252",
  "html_url": "https://github.com/KnpLabs/KnpRadBundle/pull/36#issuecomment-11661252",
  "issue_url": "https://api.github.com/repos/KnpLabs/KnpRadBundle/issues/36",
  "id": 11661252,
  "user": {
    "login": "gquemener",
    "id": 668604,
    "avatar_url": "https://avatars.githubusercontent.com/u/668604?v=3",
    "gravatar_id": "",
    "url": "https://api.github.com/users/gquemener",
    "html_url": "https://github.com/gquemener",
    "followers_url": "https://api.github.com/users/gquemener/followers",
    "following_url": "https://api.github.com/users/gquemener/following{/other_user}",
    "gists_url": "https://api.github.com/users/gquemener/gists{/gist_id}",
    "starred_url": "https://api.github.com/users/gquemener/starred{/owner}{/repo}",
    "subscriptions_url": "https://api.github.com/users/gquemener/subscriptions",
    "organizations_url": "https://api.github.com/users/gquemener/orgs",
    "repos_url": "https://api.github.com/users/gquemener/repos",
    "events_url": "https://api.github.com/users/gquemener/events{/privacy}",
    "received_events_url": "https://api.github.com/users/gquemener/received_events",
    "type": "User",
    "site_admin": false
  },
  "created_at": "2012-12-24T14:10:21Z",
  "updated_at": "2012-12-24T14:10:21Z",
  "body": "Please update the composer of the rad-edition if not already doing it :)"
}
, {
  "url": "https://api.github.com/repos/KnpLabs/KnpRadBundle/issues/comments/11661363",
  "html_url": "https://github.com/KnpLabs/KnpRadBundle/pull/36#issuecomment-11661363",
  "issue_url": "https://api.github.com/repos/KnpLabs/KnpRadBundle/issues/36",
  "id": 11661363,
  "user": {
    "login": "everzet",
    "id": 30813,
    "avatar_url": "https://avatars.githubusercontent.com/u/30813?v=3",
    "gravatar_id": "",
    "url": "https://api.github.com/users/everzet",
    "html_url": "https://github.com/everzet",
    "followers_url": "https://api.github.com/users/everzet/followers",
    "following_url": "https://api.github.com/users/everzet/following{/other_user}",
    "gists_url": "https://api.github.com/users/everzet/gists{/gist_id}",
    "starred_url": "https://api.github.com/users/everzet/starred{/owner}{/repo}",
    "subscriptions_url": "https://api.github.com/users/everzet/subscriptions",
    "organizations_url": "https://api.github.com/users/everzet/orgs",
    "repos_url": "https://api.github.com/users/everzet/repos",
    "events_url": "https://api.github.com/users/everzet/events{/privacy}",
    "received_events_url": "https://api.github.com/users/everzet/received_events",
    "type": "User",
    "site_admin": false
  },
  "created_at": "2012-12-24T14:22:47Z",
  "updated_at": "2012-12-24T14:22:47Z",
  "body": "@gquemener I wanna make test driver of Alice in our private projects first :)"
}
]
