[
{
  "url": "https://api.github.com/repos/hashicorp/vault/issues/comments/174193499",
  "html_url": "https://github.com/hashicorp/vault/pull/960#issuecomment-174193499",
  "issue_url": "https://api.github.com/repos/hashicorp/vault/issues/960",
  "id": 174193499,
  "user": {
    "login": "jefferai",
    "id": 28627,
    "avatar_url": "https://avatars.githubusercontent.com/u/28627?v=3",
    "gravatar_id": "",
    "url": "https://api.github.com/users/jefferai",
    "html_url": "https://github.com/jefferai",
    "followers_url": "https://api.github.com/users/jefferai/followers",
    "following_url": "https://api.github.com/users/jefferai/following{/other_user}",
    "gists_url": "https://api.github.com/users/jefferai/gists{/gist_id}",
    "starred_url": "https://api.github.com/users/jefferai/starred{/owner}{/repo}",
    "subscriptions_url": "https://api.github.com/users/jefferai/subscriptions",
    "organizations_url": "https://api.github.com/users/jefferai/orgs",
    "repos_url": "https://api.github.com/users/jefferai/repos",
    "events_url": "https://api.github.com/users/jefferai/events{/privacy}",
    "received_events_url": "https://api.github.com/users/jefferai/received_events",
    "type": "User",
    "site_admin": false
  },
  "created_at": "2016-01-23T15:24:12Z",
  "updated_at": "2016-01-23T15:24:12Z",
  "body": "Thanks!"
}
]
