[
{
  "login": "willnorris",
  "id": 1112,
  "avatar_url": "https://avatars.githubusercontent.com/u/1112?v=3",
  "gravatar_id": "",
  "url": "https://api.github.com/users/willnorris",
  "html_url": "https://github.com/willnorris",
  "followers_url": "https://api.github.com/users/willnorris/followers",
  "following_url": "https://api.github.com/users/willnorris/following{/other_user}",
  "gists_url": "https://api.github.com/users/willnorris/gists{/gist_id}",
  "starred_url": "https://api.github.com/users/willnorris/starred{/owner}{/repo}",
  "subscriptions_url": "https://api.github.com/users/willnorris/subscriptions",
  "organizations_url": "https://api.github.com/users/willnorris/orgs",
  "repos_url": "https://api.github.com/users/willnorris/repos",
  "events_url": "https://api.github.com/users/willnorris/events{/privacy}",
  "received_events_url": "https://api.github.com/users/willnorris/received_events",
  "type": "User",
  "site_admin": false,
  "contributions": 26
}
, {
  "login": "johnsto",
  "id": 1548274,
  "avatar_url": "https://avatars.githubusercontent.com/u/1548274?v=3",
  "gravatar_id": "",
  "url": "https://api.github.com/users/johnsto",
  "html_url": "https://github.com/johnsto",
  "followers_url": "https://api.github.com/users/johnsto/followers",
  "following_url": "https://api.github.com/users/johnsto/following{/other_user}",
  "gists_url": "https://api.github.com/users/johnsto/gists{/gist_id}",
  "starred_url": "https://api.github.com/users/johnsto/starred{/owner}{/repo}",
  "subscriptions_url": "https://api.github.com/users/johnsto/subscriptions",
  "organizations_url": "https://api.github.com/users/johnsto/orgs",
  "repos_url": "https://api.github.com/users/johnsto/repos",
  "events_url": "https://api.github.com/users/johnsto/events{/privacy}",
  "received_events_url": "https://api.github.com/users/johnsto/received_events",
  "type": "User",
  "site_admin": false,
  "contributions": 2
}
, {
  "login": "ernesto-jimenez",
  "id": 1005,
  "avatar_url": "https://avatars.githubusercontent.com/u/1005?v=3",
  "gravatar_id": "",
  "url": "https://api.github.com/users/ernesto-jimenez",
  "html_url": "https://github.com/ernesto-jimenez",
  "followers_url": "https://api.github.com/users/ernesto-jimenez/followers",
  "following_url": "https://api.github.com/users/ernesto-jimenez/following{/other_user}",
  "gists_url": "https://api.github.com/users/ernesto-jimenez/gists{/gist_id}",
  "starred_url": "https://api.github.com/users/ernesto-jimenez/starred{/owner}{/repo}",
  "subscriptions_url": "https://api.github.com/users/ernesto-jimenez/subscriptions",
  "organizations_url": "https://api.github.com/users/ernesto-jimenez/orgs",
  "repos_url": "https://api.github.com/users/ernesto-jimenez/repos",
  "events_url": "https://api.github.com/users/ernesto-jimenez/events{/privacy}",
  "received_events_url": "https://api.github.com/users/ernesto-jimenez/received_events",
  "type": "User",
  "site_admin": false,
  "contributions": 1
}
, {
  "login": "sqs",
  "id": 1976,
  "avatar_url": "https://avatars.githubusercontent.com/u/1976?v=3",
  "gravatar_id": "",
  "url": "https://api.github.com/users/sqs",
  "html_url": "https://github.com/sqs",
  "followers_url": "https://api.github.com/users/sqs/followers",
  "following_url": "https://api.github.com/users/sqs/following{/other_user}",
  "gists_url": "https://api.github.com/users/sqs/gists{/gist_id}",
  "starred_url": "https://api.github.com/users/sqs/starred{/owner}{/repo}",
  "subscriptions_url": "https://api.github.com/users/sqs/subscriptions",
  "organizations_url": "https://api.github.com/users/sqs/orgs",
  "repos_url": "https://api.github.com/users/sqs/repos",
  "events_url": "https://api.github.com/users/sqs/events{/privacy}",
  "received_events_url": "https://api.github.com/users/sqs/received_events",
  "type": "User",
  "site_admin": false,
  "contributions": 1
}
, {
  "login": "Rican7",
  "id": 742384,
  "avatar_url": "https://avatars.githubusercontent.com/u/742384?v=3",
  "gravatar_id": "",
  "url": "https://api.github.com/users/Rican7",
  "html_url": "https://github.com/Rican7",
  "followers_url": "https://api.github.com/users/Rican7/followers",
  "following_url": "https://api.github.com/users/Rican7/following{/other_user}",
  "gists_url": "https://api.github.com/users/Rican7/gists{/gist_id}",
  "starred_url": "https://api.github.com/users/Rican7/starred{/owner}{/repo}",
  "subscriptions_url": "https://api.github.com/users/Rican7/subscriptions",
  "organizations_url": "https://api.github.com/users/Rican7/orgs",
  "repos_url": "https://api.github.com/users/Rican7/repos",
  "events_url": "https://api.github.com/users/Rican7/events{/privacy}",
  "received_events_url": "https://api.github.com/users/Rican7/received_events",
  "type": "User",
  "site_admin": false,
  "contributions": 1
}
]
