[
{
  "url": "https://api.github.com/repos/docker/swarm/issues/comments/89393816",
  "html_url": "https://github.com/docker/swarm/pull/570#issuecomment-89393816",
  "issue_url": "https://api.github.com/repos/docker/swarm/issues/570",
  "id": 89393816,
  "user": {
    "login": "coveralls",
    "id": 2354108,
    "avatar_url": "https://avatars.githubusercontent.com/u/2354108?v=3",
    "gravatar_id": "",
    "url": "https://api.github.com/users/coveralls",
    "html_url": "https://github.com/coveralls",
    "followers_url": "https://api.github.com/users/coveralls/followers",
    "following_url": "https://api.github.com/users/coveralls/following{/other_user}",
    "gists_url": "https://api.github.com/users/coveralls/gists{/gist_id}",
    "starred_url": "https://api.github.com/users/coveralls/starred{/owner}{/repo}",
    "subscriptions_url": "https://api.github.com/users/coveralls/subscriptions",
    "organizations_url": "https://api.github.com/users/coveralls/orgs",
    "repos_url": "https://api.github.com/users/coveralls/repos",
    "events_url": "https://api.github.com/users/coveralls/events{/privacy}",
    "received_events_url": "https://api.github.com/users/coveralls/received_events",
    "type": "User",
    "site_admin": false
  },
  "created_at": "2015-04-03T19:11:52Z",
  "updated_at": "2015-04-03T19:11:52Z",
  "body": "\n[![Coverage Status](https://coveralls.io/builds/2260764/badge)](https://coveralls.io/builds/2260764)\n\nCoverage remained the same at 39.69% when pulling **b242f221ea37956525861425d9027162b83f1949 on jangelfdez:patch-1** into **64d691a448b7da7e66ca1dc27ad409776c8448a1 on docker:master**.\n"
}
, {
  "url": "https://api.github.com/repos/docker/swarm/issues/comments/89410168",
  "html_url": "https://github.com/docker/swarm/pull/570#issuecomment-89410168",
  "issue_url": "https://api.github.com/repos/docker/swarm/issues/570",
  "id": 89410168,
  "user": {
    "login": "vieux",
    "id": 1032519,
    "avatar_url": "https://avatars.githubusercontent.com/u/1032519?v=3",
    "gravatar_id": "",
    "url": "https://api.github.com/users/vieux",
    "html_url": "https://github.com/vieux",
    "followers_url": "https://api.github.com/users/vieux/followers",
    "following_url": "https://api.github.com/users/vieux/following{/other_user}",
    "gists_url": "https://api.github.com/users/vieux/gists{/gist_id}",
    "starred_url": "https://api.github.com/users/vieux/starred{/owner}{/repo}",
    "subscriptions_url": "https://api.github.com/users/vieux/subscriptions",
    "organizations_url": "https://api.github.com/users/vieux/orgs",
    "repos_url": "https://api.github.com/users/vieux/repos",
    "events_url": "https://api.github.com/users/vieux/events{/privacy}",
    "received_events_url": "https://api.github.com/users/vieux/received_events",
    "type": "User",
    "site_admin": false
  },
  "created_at": "2015-04-03T20:20:56Z",
  "updated_at": "2015-04-03T20:20:56Z",
  "body": "@jangelfdez can you sign your commit please ?"
}
, {
  "url": "https://api.github.com/repos/docker/swarm/issues/comments/89552590",
  "html_url": "https://github.com/docker/swarm/pull/570#issuecomment-89552590",
  "issue_url": "https://api.github.com/repos/docker/swarm/issues/570",
  "id": 89552590,
  "user": {
    "login": "jangelfdez",
    "id": 992009,
    "avatar_url": "https://avatars.githubusercontent.com/u/992009?v=3",
    "gravatar_id": "",
    "url": "https://api.github.com/users/jangelfdez",
    "html_url": "https://github.com/jangelfdez",
    "followers_url": "https://api.github.com/users/jangelfdez/followers",
    "following_url": "https://api.github.com/users/jangelfdez/following{/other_user}",
    "gists_url": "https://api.github.com/users/jangelfdez/gists{/gist_id}",
    "starred_url": "https://api.github.com/users/jangelfdez/starred{/owner}{/repo}",
    "subscriptions_url": "https://api.github.com/users/jangelfdez/subscriptions",
    "organizations_url": "https://api.github.com/users/jangelfdez/orgs",
    "repos_url": "https://api.github.com/users/jangelfdez/repos",
    "events_url": "https://api.github.com/users/jangelfdez/events{/privacy}",
    "received_events_url": "https://api.github.com/users/jangelfdez/received_events",
    "type": "User",
    "site_admin": false
  },
  "created_at": "2015-04-04T11:23:06Z",
  "updated_at": "2015-04-04T11:23:06Z",
  "body": "Yes! @vieux ;)"
}
, {
  "url": "https://api.github.com/repos/docker/swarm/issues/comments/90298536",
  "html_url": "https://github.com/docker/swarm/pull/570#issuecomment-90298536",
  "issue_url": "https://api.github.com/repos/docker/swarm/issues/570",
  "id": 90298536,
  "user": {
    "login": "vieux",
    "id": 1032519,
    "avatar_url": "https://avatars.githubusercontent.com/u/1032519?v=3",
    "gravatar_id": "",
    "url": "https://api.github.com/users/vieux",
    "html_url": "https://github.com/vieux",
    "followers_url": "https://api.github.com/users/vieux/followers",
    "following_url": "https://api.github.com/users/vieux/following{/other_user}",
    "gists_url": "https://api.github.com/users/vieux/gists{/gist_id}",
    "starred_url": "https://api.github.com/users/vieux/starred{/owner}{/repo}",
    "subscriptions_url": "https://api.github.com/users/vieux/subscriptions",
    "organizations_url": "https://api.github.com/users/vieux/orgs",
    "repos_url": "https://api.github.com/users/vieux/repos",
    "events_url": "https://api.github.com/users/vieux/events{/privacy}",
    "received_events_url": "https://api.github.com/users/vieux/received_events",
    "type": "User",
    "site_admin": false
  },
  "created_at": "2015-04-07T00:44:34Z",
  "updated_at": "2015-04-07T00:44:34Z",
  "body": "@jangelfdez ping :D"
}
, {
  "url": "https://api.github.com/repos/docker/swarm/issues/comments/90731987",
  "html_url": "https://github.com/docker/swarm/pull/570#issuecomment-90731987",
  "issue_url": "https://api.github.com/repos/docker/swarm/issues/570",
  "id": 90731987,
  "user": {
    "login": "jangelfdez",
    "id": 992009,
    "avatar_url": "https://avatars.githubusercontent.com/u/992009?v=3",
    "gravatar_id": "",
    "url": "https://api.github.com/users/jangelfdez",
    "html_url": "https://github.com/jangelfdez",
    "followers_url": "https://api.github.com/users/jangelfdez/followers",
    "following_url": "https://api.github.com/users/jangelfdez/following{/other_user}",
    "gists_url": "https://api.github.com/users/jangelfdez/gists{/gist_id}",
    "starred_url": "https://api.github.com/users/jangelfdez/starred{/owner}{/repo}",
    "subscriptions_url": "https://api.github.com/users/jangelfdez/subscriptions",
    "organizations_url": "https://api.github.com/users/jangelfdez/orgs",
    "repos_url": "https://api.github.com/users/jangelfdez/repos",
    "events_url": "https://api.github.com/users/jangelfdez/events{/privacy}",
    "received_events_url": "https://api.github.com/users/jangelfdez/received_events",
    "type": "User",
    "site_admin": false
  },
  "created_at": "2015-04-07T21:04:43Z",
  "updated_at": "2015-04-07T21:04:43Z",
  "body": "Hi @vieux , I have signed the commit, do you need anything extra? Am I doing it wrong? I never submitted a PR to a Docker project ;)"
}
, {
  "url": "https://api.github.com/repos/docker/swarm/issues/comments/90733221",
  "html_url": "https://github.com/docker/swarm/pull/570#issuecomment-90733221",
  "issue_url": "https://api.github.com/repos/docker/swarm/issues/570",
  "id": 90733221,
  "user": {
    "login": "abronan",
    "id": 1655859,
    "avatar_url": "https://avatars.githubusercontent.com/u/1655859?v=3",
    "gravatar_id": "",
    "url": "https://api.github.com/users/abronan",
    "html_url": "https://github.com/abronan",
    "followers_url": "https://api.github.com/users/abronan/followers",
    "following_url": "https://api.github.com/users/abronan/following{/other_user}",
    "gists_url": "https://api.github.com/users/abronan/gists{/gist_id}",
    "starred_url": "https://api.github.com/users/abronan/starred{/owner}{/repo}",
    "subscriptions_url": "https://api.github.com/users/abronan/subscriptions",
    "organizations_url": "https://api.github.com/users/abronan/orgs",
    "repos_url": "https://api.github.com/users/abronan/repos",
    "events_url": "https://api.github.com/users/abronan/events{/privacy}",
    "received_events_url": "https://api.github.com/users/abronan/received_events",
    "type": "User",
    "site_admin": false
  },
  "created_at": "2015-04-07T21:08:08Z",
  "updated_at": "2015-04-07T21:08:08Z",
  "body": "Hi @jangelfdez! No worries :) Just amend the commit with `git commit --amend -s --no-edit` and then force push to your branch with `git push -f jangelfdez patch-1`. That should do it!"
}
, {
  "url": "https://api.github.com/repos/docker/swarm/issues/comments/90735005",
  "html_url": "https://github.com/docker/swarm/pull/570#issuecomment-90735005",
  "issue_url": "https://api.github.com/repos/docker/swarm/issues/570",
  "id": 90735005,
  "user": {
    "login": "aluzzardi",
    "id": 179503,
    "avatar_url": "https://avatars.githubusercontent.com/u/179503?v=3",
    "gravatar_id": "",
    "url": "https://api.github.com/users/aluzzardi",
    "html_url": "https://github.com/aluzzardi",
    "followers_url": "https://api.github.com/users/aluzzardi/followers",
    "following_url": "https://api.github.com/users/aluzzardi/following{/other_user}",
    "gists_url": "https://api.github.com/users/aluzzardi/gists{/gist_id}",
    "starred_url": "https://api.github.com/users/aluzzardi/starred{/owner}{/repo}",
    "subscriptions_url": "https://api.github.com/users/aluzzardi/subscriptions",
    "organizations_url": "https://api.github.com/users/aluzzardi/orgs",
    "repos_url": "https://api.github.com/users/aluzzardi/repos",
    "events_url": "https://api.github.com/users/aluzzardi/events{/privacy}",
    "received_events_url": "https://api.github.com/users/aluzzardi/received_events",
    "type": "User",
    "site_admin": false
  },
  "created_at": "2015-04-07T21:15:11Z",
  "updated_at": "2015-04-07T21:15:11Z",
  "body": "Hey @jangelfdez - could you push the signed commit as @abronan suggested?\r\n\r\nAlso, could you please add a more descriptive message to this commit? Simply do as @abronan suggested, but do not add the `--no-edit` flag: this will allow you to rewrite the commit message to something more descriptive.\r\n\r\nThanks"
}
, {
  "url": "https://api.github.com/repos/docker/swarm/issues/comments/90737859",
  "html_url": "https://github.com/docker/swarm/pull/570#issuecomment-90737859",
  "issue_url": "https://api.github.com/repos/docker/swarm/issues/570",
  "id": 90737859,
  "user": {
    "login": "coveralls",
    "id": 2354108,
    "avatar_url": "https://avatars.githubusercontent.com/u/2354108?v=3",
    "gravatar_id": "",
    "url": "https://api.github.com/users/coveralls",
    "html_url": "https://github.com/coveralls",
    "followers_url": "https://api.github.com/users/coveralls/followers",
    "following_url": "https://api.github.com/users/coveralls/following{/other_user}",
    "gists_url": "https://api.github.com/users/coveralls/gists{/gist_id}",
    "starred_url": "https://api.github.com/users/coveralls/starred{/owner}{/repo}",
    "subscriptions_url": "https://api.github.com/users/coveralls/subscriptions",
    "organizations_url": "https://api.github.com/users/coveralls/orgs",
    "repos_url": "https://api.github.com/users/coveralls/repos",
    "events_url": "https://api.github.com/users/coveralls/events{/privacy}",
    "received_events_url": "https://api.github.com/users/coveralls/received_events",
    "type": "User",
    "site_admin": false
  },
  "created_at": "2015-04-07T21:29:48Z",
  "updated_at": "2015-04-07T21:29:48Z",
  "body": "\n[![Coverage Status](https://coveralls.io/builds/2285166/badge)](https://coveralls.io/builds/2285166)\n\nCoverage decreased (-0.54%) to 39.15% when pulling **3913ddb48f7538dcfceb6896f56ec67941028813 on jangelfdez:patch-1** into **64d691a448b7da7e66ca1dc27ad409776c8448a1 on docker:master**.\n"
}
, {
  "url": "https://api.github.com/repos/docker/swarm/issues/comments/90738087",
  "html_url": "https://github.com/docker/swarm/pull/570#issuecomment-90738087",
  "issue_url": "https://api.github.com/repos/docker/swarm/issues/570",
  "id": 90738087,
  "user": {
    "login": "jangelfdez",
    "id": 992009,
    "avatar_url": "https://avatars.githubusercontent.com/u/992009?v=3",
    "gravatar_id": "",
    "url": "https://api.github.com/users/jangelfdez",
    "html_url": "https://github.com/jangelfdez",
    "followers_url": "https://api.github.com/users/jangelfdez/followers",
    "following_url": "https://api.github.com/users/jangelfdez/following{/other_user}",
    "gists_url": "https://api.github.com/users/jangelfdez/gists{/gist_id}",
    "starred_url": "https://api.github.com/users/jangelfdez/starred{/owner}{/repo}",
    "subscriptions_url": "https://api.github.com/users/jangelfdez/subscriptions",
    "organizations_url": "https://api.github.com/users/jangelfdez/orgs",
    "repos_url": "https://api.github.com/users/jangelfdez/repos",
    "events_url": "https://api.github.com/users/jangelfdez/events{/privacy}",
    "received_events_url": "https://api.github.com/users/jangelfdez/received_events",
    "type": "User",
    "site_admin": false
  },
  "created_at": "2015-04-07T21:31:04Z",
  "updated_at": "2015-04-07T21:31:04Z",
  "body": "I've tried but I think that I did it wrong xD"
}
, {
  "url": "https://api.github.com/repos/docker/swarm/issues/comments/90738708",
  "html_url": "https://github.com/docker/swarm/pull/570#issuecomment-90738708",
  "issue_url": "https://api.github.com/repos/docker/swarm/issues/570",
  "id": 90738708,
  "user": {
    "login": "vieux",
    "id": 1032519,
    "avatar_url": "https://avatars.githubusercontent.com/u/1032519?v=3",
    "gravatar_id": "",
    "url": "https://api.github.com/users/vieux",
    "html_url": "https://github.com/vieux",
    "followers_url": "https://api.github.com/users/vieux/followers",
    "following_url": "https://api.github.com/users/vieux/following{/other_user}",
    "gists_url": "https://api.github.com/users/vieux/gists{/gist_id}",
    "starred_url": "https://api.github.com/users/vieux/starred{/owner}{/repo}",
    "subscriptions_url": "https://api.github.com/users/vieux/subscriptions",
    "organizations_url": "https://api.github.com/users/vieux/orgs",
    "repos_url": "https://api.github.com/users/vieux/repos",
    "events_url": "https://api.github.com/users/vieux/events{/privacy}",
    "received_events_url": "https://api.github.com/users/vieux/received_events",
    "type": "User",
    "site_admin": false
  },
  "created_at": "2015-04-07T21:34:56Z",
  "updated_at": "2015-04-07T21:34:56Z",
  "body": "@jangelfdez yes, but at least you signed your commit, I'm going to fix it and merge it manually "
}
, {
  "url": "https://api.github.com/repos/docker/swarm/issues/comments/90739524",
  "html_url": "https://github.com/docker/swarm/pull/570#issuecomment-90739524",
  "issue_url": "https://api.github.com/repos/docker/swarm/issues/570",
  "id": 90739524,
  "user": {
    "login": "vieux",
    "id": 1032519,
    "avatar_url": "https://avatars.githubusercontent.com/u/1032519?v=3",
    "gravatar_id": "",
    "url": "https://api.github.com/users/vieux",
    "html_url": "https://github.com/vieux",
    "followers_url": "https://api.github.com/users/vieux/followers",
    "following_url": "https://api.github.com/users/vieux/following{/other_user}",
    "gists_url": "https://api.github.com/users/vieux/gists{/gist_id}",
    "starred_url": "https://api.github.com/users/vieux/starred{/owner}{/repo}",
    "subscriptions_url": "https://api.github.com/users/vieux/subscriptions",
    "organizations_url": "https://api.github.com/users/vieux/orgs",
    "repos_url": "https://api.github.com/users/vieux/repos",
    "events_url": "https://api.github.com/users/vieux/events{/privacy}",
    "received_events_url": "https://api.github.com/users/vieux/received_events",
    "type": "User",
    "site_admin": false
  },
  "created_at": "2015-04-07T21:37:51Z",
  "updated_at": "2015-04-07T21:37:51Z",
  "body": "@jangelfdez merged with https://github.com/docker/swarm/commit/17b9b96b33df47fd3166fd52f997913c9caceea1"
}
, {
  "url": "https://api.github.com/repos/docker/swarm/issues/comments/90739784",
  "html_url": "https://github.com/docker/swarm/pull/570#issuecomment-90739784",
  "issue_url": "https://api.github.com/repos/docker/swarm/issues/570",
  "id": 90739784,
  "user": {
    "login": "jangelfdez",
    "id": 992009,
    "avatar_url": "https://avatars.githubusercontent.com/u/992009?v=3",
    "gravatar_id": "",
    "url": "https://api.github.com/users/jangelfdez",
    "html_url": "https://github.com/jangelfdez",
    "followers_url": "https://api.github.com/users/jangelfdez/followers",
    "following_url": "https://api.github.com/users/jangelfdez/following{/other_user}",
    "gists_url": "https://api.github.com/users/jangelfdez/gists{/gist_id}",
    "starred_url": "https://api.github.com/users/jangelfdez/starred{/owner}{/repo}",
    "subscriptions_url": "https://api.github.com/users/jangelfdez/subscriptions",
    "organizations_url": "https://api.github.com/users/jangelfdez/orgs",
    "repos_url": "https://api.github.com/users/jangelfdez/repos",
    "events_url": "https://api.github.com/users/jangelfdez/events{/privacy}",
    "received_events_url": "https://api.github.com/users/jangelfdez/received_events",
    "type": "User",
    "site_admin": false
  },
  "created_at": "2015-04-07T21:38:43Z",
  "updated_at": "2015-04-07T21:38:43Z",
  "body": "Thanks @vieux @abronan @aluzzardi for you help, next time I will try to do it right at the first time ;)"
}
, {
  "url": "https://api.github.com/repos/docker/swarm/issues/comments/90740236",
  "html_url": "https://github.com/docker/swarm/pull/570#issuecomment-90740236",
  "issue_url": "https://api.github.com/repos/docker/swarm/issues/570",
  "id": 90740236,
  "user": {
    "login": "vieux",
    "id": 1032519,
    "avatar_url": "https://avatars.githubusercontent.com/u/1032519?v=3",
    "gravatar_id": "",
    "url": "https://api.github.com/users/vieux",
    "html_url": "https://github.com/vieux",
    "followers_url": "https://api.github.com/users/vieux/followers",
    "following_url": "https://api.github.com/users/vieux/following{/other_user}",
    "gists_url": "https://api.github.com/users/vieux/gists{/gist_id}",
    "starred_url": "https://api.github.com/users/vieux/starred{/owner}{/repo}",
    "subscriptions_url": "https://api.github.com/users/vieux/subscriptions",
    "organizations_url": "https://api.github.com/users/vieux/orgs",
    "repos_url": "https://api.github.com/users/vieux/repos",
    "events_url": "https://api.github.com/users/vieux/events{/privacy}",
    "received_events_url": "https://api.github.com/users/vieux/received_events",
    "type": "User",
    "site_admin": false
  },
  "created_at": "2015-04-07T21:41:19Z",
  "updated_at": "2015-04-07T21:41:19Z",
  "body": "@jangelfdez no problem, it's not easy when you edit from github directly"
}
, {
  "url": "https://api.github.com/repos/docker/swarm/issues/comments/90743894",
  "html_url": "https://github.com/docker/swarm/pull/570#issuecomment-90743894",
  "issue_url": "https://api.github.com/repos/docker/swarm/issues/570",
  "id": 90743894,
  "user": {
    "login": "abronan",
    "id": 1655859,
    "avatar_url": "https://avatars.githubusercontent.com/u/1655859?v=3",
    "gravatar_id": "",
    "url": "https://api.github.com/users/abronan",
    "html_url": "https://github.com/abronan",
    "followers_url": "https://api.github.com/users/abronan/followers",
    "following_url": "https://api.github.com/users/abronan/following{/other_user}",
    "gists_url": "https://api.github.com/users/abronan/gists{/gist_id}",
    "starred_url": "https://api.github.com/users/abronan/starred{/owner}{/repo}",
    "subscriptions_url": "https://api.github.com/users/abronan/subscriptions",
    "organizations_url": "https://api.github.com/users/abronan/orgs",
    "repos_url": "https://api.github.com/users/abronan/repos",
    "events_url": "https://api.github.com/users/abronan/events{/privacy}",
    "received_events_url": "https://api.github.com/users/abronan/received_events",
    "type": "User",
    "site_admin": false
  },
  "created_at": "2015-04-07T21:55:54Z",
  "updated_at": "2015-04-07T21:55:54Z",
  "body": "@jangelfdez Best thing you can do is making an alias for `git commit` with the additional `-s` flag. This way you'll never have to think about signing your commit again :ghost: "
}
]
