[
{
  "url": "https://api.github.com/repos/docker/swarm/issues/comments/136399586",
  "html_url": "https://github.com/docker/swarm/pull/1180#issuecomment-136399586",
  "issue_url": "https://api.github.com/repos/docker/swarm/issues/1180",
  "id": 136399586,
  "user": {
    "login": "chanwit",
    "id": 10666,
    "avatar_url": "https://avatars.githubusercontent.com/u/10666?v=3",
    "gravatar_id": "",
    "url": "https://api.github.com/users/chanwit",
    "html_url": "https://github.com/chanwit",
    "followers_url": "https://api.github.com/users/chanwit/followers",
    "following_url": "https://api.github.com/users/chanwit/following{/other_user}",
    "gists_url": "https://api.github.com/users/chanwit/gists{/gist_id}",
    "starred_url": "https://api.github.com/users/chanwit/starred{/owner}{/repo}",
    "subscriptions_url": "https://api.github.com/users/chanwit/subscriptions",
    "organizations_url": "https://api.github.com/users/chanwit/orgs",
    "repos_url": "https://api.github.com/users/chanwit/repos",
    "events_url": "https://api.github.com/users/chanwit/events{/privacy}",
    "received_events_url": "https://api.github.com/users/chanwit/received_events",
    "type": "User",
    "site_admin": false
  },
  "created_at": "2015-08-31T15:02:59Z",
  "updated_at": "2015-08-31T15:02:59Z",
  "body": "All tests passed locally with an `aufs` box. LGTM."
}
, {
  "url": "https://api.github.com/repos/docker/swarm/issues/comments/136512688",
  "html_url": "https://github.com/docker/swarm/pull/1180#issuecomment-136512688",
  "issue_url": "https://api.github.com/repos/docker/swarm/issues/1180",
  "id": 136512688,
  "user": {
    "login": "vieux",
    "id": 1032519,
    "avatar_url": "https://avatars.githubusercontent.com/u/1032519?v=3",
    "gravatar_id": "",
    "url": "https://api.github.com/users/vieux",
    "html_url": "https://github.com/vieux",
    "followers_url": "https://api.github.com/users/vieux/followers",
    "following_url": "https://api.github.com/users/vieux/following{/other_user}",
    "gists_url": "https://api.github.com/users/vieux/gists{/gist_id}",
    "starred_url": "https://api.github.com/users/vieux/starred{/owner}{/repo}",
    "subscriptions_url": "https://api.github.com/users/vieux/subscriptions",
    "organizations_url": "https://api.github.com/users/vieux/orgs",
    "repos_url": "https://api.github.com/users/vieux/repos",
    "events_url": "https://api.github.com/users/vieux/events{/privacy}",
    "received_events_url": "https://api.github.com/users/vieux/received_events",
    "type": "User",
    "site_admin": false
  },
  "created_at": "2015-08-31T21:59:15Z",
  "updated_at": "2015-08-31T21:59:15Z",
  "body": "LGTM ping @aluzzardi "
}
, {
  "url": "https://api.github.com/repos/docker/swarm/issues/comments/136895813",
  "html_url": "https://github.com/docker/swarm/pull/1180#issuecomment-136895813",
  "issue_url": "https://api.github.com/repos/docker/swarm/issues/1180",
  "id": 136895813,
  "user": {
    "login": "vieux",
    "id": 1032519,
    "avatar_url": "https://avatars.githubusercontent.com/u/1032519?v=3",
    "gravatar_id": "",
    "url": "https://api.github.com/users/vieux",
    "html_url": "https://github.com/vieux",
    "followers_url": "https://api.github.com/users/vieux/followers",
    "following_url": "https://api.github.com/users/vieux/following{/other_user}",
    "gists_url": "https://api.github.com/users/vieux/gists{/gist_id}",
    "starred_url": "https://api.github.com/users/vieux/starred{/owner}{/repo}",
    "subscriptions_url": "https://api.github.com/users/vieux/subscriptions",
    "organizations_url": "https://api.github.com/users/vieux/orgs",
    "repos_url": "https://api.github.com/users/vieux/repos",
    "events_url": "https://api.github.com/users/vieux/events{/privacy}",
    "received_events_url": "https://api.github.com/users/vieux/received_events",
    "type": "User",
    "site_admin": false
  },
  "created_at": "2015-09-01T23:57:02Z",
  "updated_at": "2015-09-01T23:57:02Z",
  "body": ":hamster: "
}
, {
  "url": "https://api.github.com/repos/docker/swarm/issues/comments/136897011",
  "html_url": "https://github.com/docker/swarm/pull/1180#issuecomment-136897011",
  "issue_url": "https://api.github.com/repos/docker/swarm/issues/1180",
  "id": 136897011,
  "user": {
    "login": "aluzzardi",
    "id": 179503,
    "avatar_url": "https://avatars.githubusercontent.com/u/179503?v=3",
    "gravatar_id": "",
    "url": "https://api.github.com/users/aluzzardi",
    "html_url": "https://github.com/aluzzardi",
    "followers_url": "https://api.github.com/users/aluzzardi/followers",
    "following_url": "https://api.github.com/users/aluzzardi/following{/other_user}",
    "gists_url": "https://api.github.com/users/aluzzardi/gists{/gist_id}",
    "starred_url": "https://api.github.com/users/aluzzardi/starred{/owner}{/repo}",
    "subscriptions_url": "https://api.github.com/users/aluzzardi/subscriptions",
    "organizations_url": "https://api.github.com/users/aluzzardi/orgs",
    "repos_url": "https://api.github.com/users/aluzzardi/repos",
    "events_url": "https://api.github.com/users/aluzzardi/events{/privacy}",
    "received_events_url": "https://api.github.com/users/aluzzardi/received_events",
    "type": "User",
    "site_admin": false
  },
  "created_at": "2015-09-02T00:03:04Z",
  "updated_at": "2015-09-02T00:03:04Z",
  "body": "LGTM\r\n\r\nA moment of silence for `state.Store`."
}
, {
  "url": "https://api.github.com/repos/docker/swarm/issues/comments/136897210",
  "html_url": "https://github.com/docker/swarm/pull/1180#issuecomment-136897210",
  "issue_url": "https://api.github.com/repos/docker/swarm/issues/1180",
  "id": 136897210,
  "user": {
    "login": "vieux",
    "id": 1032519,
    "avatar_url": "https://avatars.githubusercontent.com/u/1032519?v=3",
    "gravatar_id": "",
    "url": "https://api.github.com/users/vieux",
    "html_url": "https://github.com/vieux",
    "followers_url": "https://api.github.com/users/vieux/followers",
    "following_url": "https://api.github.com/users/vieux/following{/other_user}",
    "gists_url": "https://api.github.com/users/vieux/gists{/gist_id}",
    "starred_url": "https://api.github.com/users/vieux/starred{/owner}{/repo}",
    "subscriptions_url": "https://api.github.com/users/vieux/subscriptions",
    "organizations_url": "https://api.github.com/users/vieux/orgs",
    "repos_url": "https://api.github.com/users/vieux/repos",
    "events_url": "https://api.github.com/users/vieux/events{/privacy}",
    "received_events_url": "https://api.github.com/users/vieux/received_events",
    "type": "User",
    "site_admin": false
  },
  "created_at": "2015-09-02T00:04:24Z",
  "updated_at": "2015-09-02T00:04:24Z",
  "body": ":fallen_leaf: \r\n:fallen_leaf: \r\n:fallen_leaf: "
}
, {
  "url": "https://api.github.com/repos/docker/swarm/issues/comments/136897228",
  "html_url": "https://github.com/docker/swarm/pull/1180#issuecomment-136897228",
  "issue_url": "https://api.github.com/repos/docker/swarm/issues/1180",
  "id": 136897228,
  "user": {
    "login": "abronan",
    "id": 1655859,
    "avatar_url": "https://avatars.githubusercontent.com/u/1655859?v=3",
    "gravatar_id": "",
    "url": "https://api.github.com/users/abronan",
    "html_url": "https://github.com/abronan",
    "followers_url": "https://api.github.com/users/abronan/followers",
    "following_url": "https://api.github.com/users/abronan/following{/other_user}",
    "gists_url": "https://api.github.com/users/abronan/gists{/gist_id}",
    "starred_url": "https://api.github.com/users/abronan/starred{/owner}{/repo}",
    "subscriptions_url": "https://api.github.com/users/abronan/subscriptions",
    "organizations_url": "https://api.github.com/users/abronan/orgs",
    "repos_url": "https://api.github.com/users/abronan/repos",
    "events_url": "https://api.github.com/users/abronan/events{/privacy}",
    "received_events_url": "https://api.github.com/users/abronan/received_events",
    "type": "User",
    "site_admin": false
  },
  "created_at": "2015-09-02T00:04:33Z",
  "updated_at": "2015-09-02T00:04:33Z",
  "body": ":wave: :cry: "
}
, {
  "url": "https://api.github.com/repos/docker/swarm/issues/comments/136897287",
  "html_url": "https://github.com/docker/swarm/pull/1180#issuecomment-136897287",
  "issue_url": "https://api.github.com/repos/docker/swarm/issues/1180",
  "id": 136897287,
  "user": {
    "login": "aluzzardi",
    "id": 179503,
    "avatar_url": "https://avatars.githubusercontent.com/u/179503?v=3",
    "gravatar_id": "",
    "url": "https://api.github.com/users/aluzzardi",
    "html_url": "https://github.com/aluzzardi",
    "followers_url": "https://api.github.com/users/aluzzardi/followers",
    "following_url": "https://api.github.com/users/aluzzardi/following{/other_user}",
    "gists_url": "https://api.github.com/users/aluzzardi/gists{/gist_id}",
    "starred_url": "https://api.github.com/users/aluzzardi/starred{/owner}{/repo}",
    "subscriptions_url": "https://api.github.com/users/aluzzardi/subscriptions",
    "organizations_url": "https://api.github.com/users/aluzzardi/orgs",
    "repos_url": "https://api.github.com/users/aluzzardi/repos",
    "events_url": "https://api.github.com/users/aluzzardi/events{/privacy}",
    "received_events_url": "https://api.github.com/users/aluzzardi/received_events",
    "type": "User",
    "site_admin": false
  },
  "created_at": "2015-09-02T00:05:00Z",
  "updated_at": "2015-09-02T00:05:00Z",
  "body": "> and now his watch is ended"
}
]
