[
{
  "url": "https://api.github.com/repos/docker/swarm/issues/comments/98294804",
  "html_url": "https://github.com/docker/swarm/issues/694#issuecomment-98294804",
  "issue_url": "https://api.github.com/repos/docker/swarm/issues/694",
  "id": 98294804,
  "user": {
    "login": "aluzzardi",
    "id": 179503,
    "avatar_url": "https://avatars.githubusercontent.com/u/179503?v=3",
    "gravatar_id": "",
    "url": "https://api.github.com/users/aluzzardi",
    "html_url": "https://github.com/aluzzardi",
    "followers_url": "https://api.github.com/users/aluzzardi/followers",
    "following_url": "https://api.github.com/users/aluzzardi/following{/other_user}",
    "gists_url": "https://api.github.com/users/aluzzardi/gists{/gist_id}",
    "starred_url": "https://api.github.com/users/aluzzardi/starred{/owner}{/repo}",
    "subscriptions_url": "https://api.github.com/users/aluzzardi/subscriptions",
    "organizations_url": "https://api.github.com/users/aluzzardi/orgs",
    "repos_url": "https://api.github.com/users/aluzzardi/repos",
    "events_url": "https://api.github.com/users/aluzzardi/events{/privacy}",
    "received_events_url": "https://api.github.com/users/aluzzardi/received_events",
    "type": "User",
    "site_admin": false
  },
  "created_at": "2015-05-02T03:04:45Z",
  "updated_at": "2015-05-02T03:04:45Z",
  "body": "Should this be in 0.3.0 or 0.4.0? I just created a new milestone, feel free to move around."
}
, {
  "url": "https://api.github.com/repos/docker/swarm/issues/comments/99350321",
  "html_url": "https://github.com/docker/swarm/issues/694#issuecomment-99350321",
  "issue_url": "https://api.github.com/repos/docker/swarm/issues/694",
  "id": 99350321,
  "user": {
    "login": "vieux",
    "id": 1032519,
    "avatar_url": "https://avatars.githubusercontent.com/u/1032519?v=3",
    "gravatar_id": "",
    "url": "https://api.github.com/users/vieux",
    "html_url": "https://github.com/vieux",
    "followers_url": "https://api.github.com/users/vieux/followers",
    "following_url": "https://api.github.com/users/vieux/following{/other_user}",
    "gists_url": "https://api.github.com/users/vieux/gists{/gist_id}",
    "starred_url": "https://api.github.com/users/vieux/starred{/owner}{/repo}",
    "subscriptions_url": "https://api.github.com/users/vieux/subscriptions",
    "organizations_url": "https://api.github.com/users/vieux/orgs",
    "repos_url": "https://api.github.com/users/vieux/repos",
    "events_url": "https://api.github.com/users/vieux/events{/privacy}",
    "received_events_url": "https://api.github.com/users/vieux/received_events",
    "type": "User",
    "site_admin": false
  },
  "created_at": "2015-05-06T07:06:40Z",
  "updated_at": "2015-05-06T07:06:40Z",
  "body": "@aluzzardi thanks I moved it to 0.4.0, if we do it before it's even better."
}
, {
  "url": "https://api.github.com/repos/docker/swarm/issues/comments/119518699",
  "html_url": "https://github.com/docker/swarm/issues/694#issuecomment-119518699",
  "issue_url": "https://api.github.com/repos/docker/swarm/issues/694",
  "id": 119518699,
  "user": {
    "login": "garagatyi",
    "id": 1851863,
    "avatar_url": "https://avatars.githubusercontent.com/u/1851863?v=3",
    "gravatar_id": "",
    "url": "https://api.github.com/users/garagatyi",
    "html_url": "https://github.com/garagatyi",
    "followers_url": "https://api.github.com/users/garagatyi/followers",
    "following_url": "https://api.github.com/users/garagatyi/following{/other_user}",
    "gists_url": "https://api.github.com/users/garagatyi/gists{/gist_id}",
    "starred_url": "https://api.github.com/users/garagatyi/starred{/owner}{/repo}",
    "subscriptions_url": "https://api.github.com/users/garagatyi/subscriptions",
    "organizations_url": "https://api.github.com/users/garagatyi/orgs",
    "repos_url": "https://api.github.com/users/garagatyi/repos",
    "events_url": "https://api.github.com/users/garagatyi/events{/privacy}",
    "received_events_url": "https://api.github.com/users/garagatyi/received_events",
    "type": "User",
    "site_admin": false
  },
  "created_at": "2015-07-08T09:28:03Z",
  "updated_at": "2015-07-08T09:28:03Z",
  "body": "Consider such situation (docker API is used) :\r\n\r\nThere is 2 nodes\r\n* node1 with 3 GB RAM left\r\n* node2 with 4 GB RAM left\r\n\r\nUser1 wants to run container with 2 GB from dockerfile. Layers are not cached yet on instances. \r\nSwarm schedule build from User1 on instance1.\r\nUser2 wants to run container with 2 GB from dockerfile. Layers are cached already. And first build is not finished yet.\r\nSwarm schedule build from User2 on instance1 too.\r\nSwarm finishes second build and User2 creates and starts container.\r\nSwarm finishes first build and User1 tries to create and start container. But there is not enough memory on instance1.\r\n\r\nTo fix it User1 have to rechedule build/create/start on instance2 and wait until build will be finished again.\r\n\r\nWill I be able to avoid such situations with -m ?"
}
, {
  "url": "https://api.github.com/repos/docker/swarm/issues/comments/127802092",
  "html_url": "https://github.com/docker/swarm/issues/694#issuecomment-127802092",
  "issue_url": "https://api.github.com/repos/docker/swarm/issues/694",
  "id": 127802092,
  "user": {
    "login": "aluzzardi",
    "id": 179503,
    "avatar_url": "https://avatars.githubusercontent.com/u/179503?v=3",
    "gravatar_id": "",
    "url": "https://api.github.com/users/aluzzardi",
    "html_url": "https://github.com/aluzzardi",
    "followers_url": "https://api.github.com/users/aluzzardi/followers",
    "following_url": "https://api.github.com/users/aluzzardi/following{/other_user}",
    "gists_url": "https://api.github.com/users/aluzzardi/gists{/gist_id}",
    "starred_url": "https://api.github.com/users/aluzzardi/starred{/owner}{/repo}",
    "subscriptions_url": "https://api.github.com/users/aluzzardi/subscriptions",
    "organizations_url": "https://api.github.com/users/aluzzardi/orgs",
    "repos_url": "https://api.github.com/users/aluzzardi/repos",
    "events_url": "https://api.github.com/users/aluzzardi/events{/privacy}",
    "received_events_url": "https://api.github.com/users/aluzzardi/received_events",
    "type": "User",
    "site_admin": false
  },
  "created_at": "2015-08-05T00:19:28Z",
  "updated_at": "2015-08-05T00:19:28Z",
  "body": "Thanks @jimmyxian "
}
, {
  "url": "https://api.github.com/repos/docker/swarm/issues/comments/127802361",
  "html_url": "https://github.com/docker/swarm/issues/694#issuecomment-127802361",
  "issue_url": "https://api.github.com/repos/docker/swarm/issues/694",
  "id": 127802361,
  "user": {
    "login": "aluzzardi",
    "id": 179503,
    "avatar_url": "https://avatars.githubusercontent.com/u/179503?v=3",
    "gravatar_id": "",
    "url": "https://api.github.com/users/aluzzardi",
    "html_url": "https://github.com/aluzzardi",
    "followers_url": "https://api.github.com/users/aluzzardi/followers",
    "following_url": "https://api.github.com/users/aluzzardi/following{/other_user}",
    "gists_url": "https://api.github.com/users/aluzzardi/gists{/gist_id}",
    "starred_url": "https://api.github.com/users/aluzzardi/starred{/owner}{/repo}",
    "subscriptions_url": "https://api.github.com/users/aluzzardi/subscriptions",
    "organizations_url": "https://api.github.com/users/aluzzardi/orgs",
    "repos_url": "https://api.github.com/users/aluzzardi/repos",
    "events_url": "https://api.github.com/users/aluzzardi/events{/privacy}",
    "received_events_url": "https://api.github.com/users/aluzzardi/received_events",
    "type": "User",
    "site_admin": false
  },
  "created_at": "2015-08-05T00:22:09Z",
  "updated_at": "2015-08-05T00:22:09Z",
  "body": "Unfortunately, there's no way to do that.\r\n\r\nKeep in mind that supporting `docker build` in Swarm is a \"gimmick\" and we encourage to push images to a registry before running in the cluster"
}
]
