{
  "id": 25113355,
  "name": "TeamCity.VsOnline.WorkItems",
  "full_name": "JetBrains/TeamCity.VsOnline.WorkItems",
  "owner": {
    "login": "JetBrains",
    "id": 878437,
    "avatar_url": "https://avatars.githubusercontent.com/u/878437?v=3",
    "gravatar_id": "",
    "url": "https://api.github.com/users/JetBrains",
    "html_url": "https://github.com/JetBrains",
    "followers_url": "https://api.github.com/users/JetBrains/followers",
    "following_url": "https://api.github.com/users/JetBrains/following{/other_user}",
    "gists_url": "https://api.github.com/users/JetBrains/gists{/gist_id}",
    "starred_url": "https://api.github.com/users/JetBrains/starred{/owner}{/repo}",
    "subscriptions_url": "https://api.github.com/users/JetBrains/subscriptions",
    "organizations_url": "https://api.github.com/users/JetBrains/orgs",
    "repos_url": "https://api.github.com/users/JetBrains/repos",
    "events_url": "https://api.github.com/users/JetBrains/events{/privacy}",
    "received_events_url": "https://api.github.com/users/JetBrains/received_events",
    "type": "Organization",
    "site_admin": false
  },
  "private": false,
  "html_url": "https://github.com/JetBrains/TeamCity.VsOnline.WorkItems",
  "description": "",
  "fork": false,
  "url": "https://api.github.com/repos/JetBrains/TeamCity.VsOnline.WorkItems",
  "forks_url": "https://api.github.com/repos/JetBrains/TeamCity.VsOnline.WorkItems/forks",
  "keys_url": "https://api.github.com/repos/JetBrains/TeamCity.VsOnline.WorkItems/keys{/key_id}",
  "collaborators_url": "https://api.github.com/repos/JetBrains/TeamCity.VsOnline.WorkItems/collaborators{/collaborator}",
  "teams_url": "https://api.github.com/repos/JetBrains/TeamCity.VsOnline.WorkItems/teams",
  "hooks_url": "https://api.github.com/repos/JetBrains/TeamCity.VsOnline.WorkItems/hooks",
  "issue_events_url": "https://api.github.com/repos/JetBrains/TeamCity.VsOnline.WorkItems/issues/events{/number}",
  "events_url": "https://api.github.com/repos/JetBrains/TeamCity.VsOnline.WorkItems/events",
  "assignees_url": "https://api.github.com/repos/JetBrains/TeamCity.VsOnline.WorkItems/assignees{/user}",
  "branches_url": "https://api.github.com/repos/JetBrains/TeamCity.VsOnline.WorkItems/branches{/branch}",
  "tags_url": "https://api.github.com/repos/JetBrains/TeamCity.VsOnline.WorkItems/tags",
  "blobs_url": "https://api.github.com/repos/JetBrains/TeamCity.VsOnline.WorkItems/git/blobs{/sha}",
  "git_tags_url": "https://api.github.com/repos/JetBrains/TeamCity.VsOnline.WorkItems/git/tags{/sha}",
  "git_refs_url": "https://api.github.com/repos/JetBrains/TeamCity.VsOnline.WorkItems/git/refs{/sha}",
  "trees_url": "https://api.github.com/repos/JetBrains/TeamCity.VsOnline.WorkItems/git/trees{/sha}",
  "statuses_url": "https://api.github.com/repos/JetBrains/TeamCity.VsOnline.WorkItems/statuses/{sha}",
  "languages_url": "https://api.github.com/repos/JetBrains/TeamCity.VsOnline.WorkItems/languages",
  "stargazers_url": "https://api.github.com/repos/JetBrains/TeamCity.VsOnline.WorkItems/stargazers",
  "contributors_url": "https://api.github.com/repos/JetBrains/TeamCity.VsOnline.WorkItems/contributors",
  "subscribers_url": "https://api.github.com/repos/JetBrains/TeamCity.VsOnline.WorkItems/subscribers",
  "subscription_url": "https://api.github.com/repos/JetBrains/TeamCity.VsOnline.WorkItems/subscription",
  "commits_url": "https://api.github.com/repos/JetBrains/TeamCity.VsOnline.WorkItems/commits{/sha}",
  "git_commits_url": "https://api.github.com/repos/JetBrains/TeamCity.VsOnline.WorkItems/git/commits{/sha}",
  "comments_url": "https://api.github.com/repos/JetBrains/TeamCity.VsOnline.WorkItems/comments{/number}",
  "issue_comment_url": "https://api.github.com/repos/JetBrains/TeamCity.VsOnline.WorkItems/issues/comments{/number}",
  "contents_url": "https://api.github.com/repos/JetBrains/TeamCity.VsOnline.WorkItems/contents/{+path}",
  "compare_url": "https://api.github.com/repos/JetBrains/TeamCity.VsOnline.WorkItems/compare/{base}...{head}",
  "merges_url": "https://api.github.com/repos/JetBrains/TeamCity.VsOnline.WorkItems/merges",
  "archive_url": "https://api.github.com/repos/JetBrains/TeamCity.VsOnline.WorkItems/{archive_format}{/ref}",
  "downloads_url": "https://api.github.com/repos/JetBrains/TeamCity.VsOnline.WorkItems/downloads",
  "issues_url": "https://api.github.com/repos/JetBrains/TeamCity.VsOnline.WorkItems/issues{/number}",
  "pulls_url": "https://api.github.com/repos/JetBrains/TeamCity.VsOnline.WorkItems/pulls{/number}",
  "milestones_url": "https://api.github.com/repos/JetBrains/TeamCity.VsOnline.WorkItems/milestones{/number}",
  "notifications_url": "https://api.github.com/repos/JetBrains/TeamCity.VsOnline.WorkItems/notifications{?since,all,participating}",
  "labels_url": "https://api.github.com/repos/JetBrains/TeamCity.VsOnline.WorkItems/labels{/name}",
  "releases_url": "https://api.github.com/repos/JetBrains/TeamCity.VsOnline.WorkItems/releases{/id}",
  "deployments_url": "https://api.github.com/repos/JetBrains/TeamCity.VsOnline.WorkItems/deployments",
  "created_at": "2014-10-12T08:17:31Z",
  "updated_at": "2015-09-24T21:02:14Z",
  "pushed_at": "2015-10-21T12:37:15Z",
  "git_url": "git://github.com/JetBrains/TeamCity.VsOnline.WorkItems.git",
  "ssh_url": "git@github.com:JetBrains/TeamCity.VsOnline.WorkItems.git",
  "clone_url": "https://github.com/JetBrains/TeamCity.VsOnline.WorkItems.git",
  "svn_url": "https://github.com/JetBrains/TeamCity.VsOnline.WorkItems",
  "homepage": null,
  "size": 6200,
  "stargazers_count": 1,
  "watchers_count": 1,
  "language": "Java",
  "has_issues": true,
  "has_downloads": true,
  "has_wiki": true,
  "has_pages": false,
  "forks_count": 4,
  "mirror_url": null,
  "open_issues_count": 2,
  "forks": 4,
  "open_issues": 2,
  "watchers": 1,
  "default_branch": "master",
  "master_branch": "master",
  "permissions": {
    "admin": false,
    "push": false,
    "pull": true
  },
  "license": {
    "key": "apache-2.0",
    "name": "Apache License 2.0",
    "url": "https://api.github.com/licenses/apache-2.0",
    "featured": true
  },
  "organization": {
    "login": "JetBrains",
    "id": 878437,
    "avatar_url": "https://avatars.githubusercontent.com/u/878437?v=3",
    "gravatar_id": "",
    "url": "https://api.github.com/users/JetBrains",
    "html_url": "https://github.com/JetBrains",
    "followers_url": "https://api.github.com/users/JetBrains/followers",
    "following_url": "https://api.github.com/users/JetBrains/following{/other_user}",
    "gists_url": "https://api.github.com/users/JetBrains/gists{/gist_id}",
    "starred_url": "https://api.github.com/users/JetBrains/starred{/owner}{/repo}",
    "subscriptions_url": "https://api.github.com/users/JetBrains/subscriptions",
    "organizations_url": "https://api.github.com/users/JetBrains/orgs",
    "repos_url": "https://api.github.com/users/JetBrains/repos",
    "events_url": "https://api.github.com/users/JetBrains/events{/privacy}",
    "received_events_url": "https://api.github.com/users/JetBrains/received_events",
    "type": "Organization",
    "site_admin": false
  },
  "network_count": 4,
  "subscribers_count": 13
}
