[
{
  "url": "https://api.github.com/repos/docker/hub-feedback/issues/comments/128046215",
  "html_url": "https://github.com/docker/hub-feedback/issues/80#issuecomment-128046215",
  "issue_url": "https://api.github.com/repos/docker/hub-feedback/issues/80",
  "id": 128046215,
  "user": {
    "login": "jakirkham",
    "id": 3019665,
    "avatar_url": "https://avatars.githubusercontent.com/u/3019665?v=3",
    "gravatar_id": "",
    "url": "https://api.github.com/users/jakirkham",
    "html_url": "https://github.com/jakirkham",
    "followers_url": "https://api.github.com/users/jakirkham/followers",
    "following_url": "https://api.github.com/users/jakirkham/following{/other_user}",
    "gists_url": "https://api.github.com/users/jakirkham/gists{/gist_id}",
    "starred_url": "https://api.github.com/users/jakirkham/starred{/owner}{/repo}",
    "subscriptions_url": "https://api.github.com/users/jakirkham/subscriptions",
    "organizations_url": "https://api.github.com/users/jakirkham/orgs",
    "repos_url": "https://api.github.com/users/jakirkham/repos",
    "events_url": "https://api.github.com/users/jakirkham/events{/privacy}",
    "received_events_url": "https://api.github.com/users/jakirkham/received_events",
    "type": "User",
    "site_admin": false
  },
  "created_at": "2015-08-05T15:47:48Z",
  "updated_at": "2015-08-05T15:52:44Z",
  "body": "Looks like this has sort of happened, but it still highlights some things incorrectly. For example, if the word \"log\" or \"test\" appears in a path, it will be highlighted (e.g. `/var/log`)."
}
]
