[
{
  "url": "https://api.github.com/repos/enormego/EGOViewStackPersistence/issues/1",
  "labels_url": "https://api.github.com/repos/enormego/EGOViewStackPersistence/issues/1/labels{/name}",
  "comments_url": "https://api.github.com/repos/enormego/EGOViewStackPersistence/issues/1/comments",
  "events_url": "https://api.github.com/repos/enormego/EGOViewStackPersistence/issues/1/events",
  "html_url": "https://github.com/enormego/EGOViewStackPersistence/issues/1",
  "id": 883720,
  "number": 1,
  "title": "Read Me or User's Guide",
  "user": {
    "login": "grgcombs",
    "id": 242848,
    "avatar_url": "https://avatars.githubusercontent.com/u/242848?v=3",
    "gravatar_id": "",
    "url": "https://api.github.com/users/grgcombs",
    "html_url": "https://github.com/grgcombs",
    "followers_url": "https://api.github.com/users/grgcombs/followers",
    "following_url": "https://api.github.com/users/grgcombs/following{/other_user}",
    "gists_url": "https://api.github.com/users/grgcombs/gists{/gist_id}",
    "starred_url": "https://api.github.com/users/grgcombs/starred{/owner}{/repo}",
    "subscriptions_url": "https://api.github.com/users/grgcombs/subscriptions",
    "organizations_url": "https://api.github.com/users/grgcombs/orgs",
    "repos_url": "https://api.github.com/users/grgcombs/repos",
    "events_url": "https://api.github.com/users/grgcombs/events{/privacy}",
    "received_events_url": "https://api.github.com/users/grgcombs/received_events",
    "type": "User",
    "site_admin": false
  },
  "labels": [],
  "state": "open",
  "locked": false,
  "assignee": null,
  "milestone": null,
  "comments": 0,
  "created_at": "2011-05-11T15:02:37Z",
  "updated_at": "2011-05-11T15:02:37Z",
  "closed_at": null,
  "body": "Can you post a brief description of how this works?  I'm not sure if it does what I think/hope it does, but I'm interested. "
}
]
