[
{
  "url": "https://api.github.com/repos/aws/aws-sdk-ruby/issues/comments/34450293",
  "html_url": "https://github.com/aws/aws-sdk-ruby/issues/459#issuecomment-34450293",
  "issue_url": "https://api.github.com/repos/aws/aws-sdk-ruby/issues/459",
  "id": 34450293,
  "user": {
    "login": "palfrey",
    "id": 38532,
    "avatar_url": "https://avatars.githubusercontent.com/u/38532?v=3",
    "gravatar_id": "",
    "url": "https://api.github.com/users/palfrey",
    "html_url": "https://github.com/palfrey",
    "followers_url": "https://api.github.com/users/palfrey/followers",
    "following_url": "https://api.github.com/users/palfrey/following{/other_user}",
    "gists_url": "https://api.github.com/users/palfrey/gists{/gist_id}",
    "starred_url": "https://api.github.com/users/palfrey/starred{/owner}{/repo}",
    "subscriptions_url": "https://api.github.com/users/palfrey/subscriptions",
    "organizations_url": "https://api.github.com/users/palfrey/orgs",
    "repos_url": "https://api.github.com/users/palfrey/repos",
    "events_url": "https://api.github.com/users/palfrey/events{/privacy}",
    "received_events_url": "https://api.github.com/users/palfrey/received_events",
    "type": "User",
    "site_admin": false
  },
  "created_at": "2014-02-07T15:33:01Z",
  "updated_at": "2014-02-07T15:33:01Z",
  "body": "Here's how to do it in your own code BTW\r\n\r\n```ruby\r\n# pemPath is the file path of your PEM file\r\n# instance is an AWS::EC2::Instance\r\nec2 = AWS::EC2.new\r\nencrypted_password = ec2.client.get_password_data(:instance_id => instance.instance_id).password_data\r\nprivate_key = OpenSSL::PKey::RSA.new(File.read(pemPath))\r\ndecoded = Base64.decode64(encrypted_password)\r\npassword = private_key.private_decrypt(decoded)\r\n```"
}
, {
  "url": "https://api.github.com/repos/aws/aws-sdk-ruby/issues/comments/39400873",
  "html_url": "https://github.com/aws/aws-sdk-ruby/issues/459#issuecomment-39400873",
  "issue_url": "https://api.github.com/repos/aws/aws-sdk-ruby/issues/459",
  "id": 39400873,
  "user": {
    "login": "trevorrowe",
    "id": 27863,
    "avatar_url": "https://avatars.githubusercontent.com/u/27863?v=3",
    "gravatar_id": "",
    "url": "https://api.github.com/users/trevorrowe",
    "html_url": "https://github.com/trevorrowe",
    "followers_url": "https://api.github.com/users/trevorrowe/followers",
    "following_url": "https://api.github.com/users/trevorrowe/following{/other_user}",
    "gists_url": "https://api.github.com/users/trevorrowe/gists{/gist_id}",
    "starred_url": "https://api.github.com/users/trevorrowe/starred{/owner}{/repo}",
    "subscriptions_url": "https://api.github.com/users/trevorrowe/subscriptions",
    "organizations_url": "https://api.github.com/users/trevorrowe/orgs",
    "repos_url": "https://api.github.com/users/trevorrowe/repos",
    "events_url": "https://api.github.com/users/trevorrowe/events{/privacy}",
    "received_events_url": "https://api.github.com/users/trevorrowe/received_events",
    "type": "User",
    "site_admin": false
  },
  "created_at": "2014-04-03T00:34:14Z",
  "updated_at": "2014-04-03T00:34:14Z",
  "body": "Sorry for the very slow response.  We are not currently doing feature work on the v1 Ruby SDK.  We do accept pull requests, but we are currently focused on the v2 SDK (https://github.com/aws/aws-sdk-core-ruby).  I do think this could be a helpful feature to add."
}
]
