[
{
  "url": "https://api.github.com/repos/heroku/heroku-pipelines/issues/comments/168969312",
  "html_url": "https://github.com/heroku/heroku-pipelines/pull/18#issuecomment-168969312",
  "issue_url": "https://api.github.com/repos/heroku/heroku-pipelines/issues/18",
  "id": 168969312,
  "user": {
    "login": "gudmundur",
    "id": 35417,
    "avatar_url": "https://avatars.githubusercontent.com/u/35417?v=3",
    "gravatar_id": "",
    "url": "https://api.github.com/users/gudmundur",
    "html_url": "https://github.com/gudmundur",
    "followers_url": "https://api.github.com/users/gudmundur/followers",
    "following_url": "https://api.github.com/users/gudmundur/following{/other_user}",
    "gists_url": "https://api.github.com/users/gudmundur/gists{/gist_id}",
    "starred_url": "https://api.github.com/users/gudmundur/starred{/owner}{/repo}",
    "subscriptions_url": "https://api.github.com/users/gudmundur/subscriptions",
    "organizations_url": "https://api.github.com/users/gudmundur/orgs",
    "repos_url": "https://api.github.com/users/gudmundur/repos",
    "events_url": "https://api.github.com/users/gudmundur/events{/privacy}",
    "received_events_url": "https://api.github.com/users/gudmundur/received_events",
    "type": "User",
    "site_admin": false
  },
  "created_at": "2016-01-05T10:45:37Z",
  "updated_at": "2016-01-05T10:45:37Z",
  "body": ":+1: "
}
]
