[
{
  "url": "https://api.github.com/repos/Azure/azure-sdk-for-php/issues/comments/5169014",
  "html_url": "https://github.com/Azure/azure-sdk-for-php/issues/130#issuecomment-5169014",
  "issue_url": "https://api.github.com/repos/Azure/azure-sdk-for-php/issues/130",
  "id": 5169014,
  "user": {
    "login": "ogail",
    "id": 1034045,
    "avatar_url": "https://avatars.githubusercontent.com/u/1034045?v=3",
    "gravatar_id": "",
    "url": "https://api.github.com/users/ogail",
    "html_url": "https://github.com/ogail",
    "followers_url": "https://api.github.com/users/ogail/followers",
    "following_url": "https://api.github.com/users/ogail/following{/other_user}",
    "gists_url": "https://api.github.com/users/ogail/gists{/gist_id}",
    "starred_url": "https://api.github.com/users/ogail/starred{/owner}{/repo}",
    "subscriptions_url": "https://api.github.com/users/ogail/subscriptions",
    "organizations_url": "https://api.github.com/users/ogail/orgs",
    "repos_url": "https://api.github.com/users/ogail/repos",
    "events_url": "https://api.github.com/users/ogail/events{/privacy}",
    "received_events_url": "https://api.github.com/users/ogail/received_events",
    "type": "User",
    "site_admin": false
  },
  "created_at": "2012-04-17T06:22:52Z",
  "updated_at": "2012-04-17T06:22:52Z",
  "body": "Fixed earlier."
}
]
