[
{
  "url": "https://api.github.com/repos/thoughtbot/Argo/issues/comments/78989418",
  "html_url": "https://github.com/thoughtbot/Argo/pull/83#issuecomment-78989418",
  "issue_url": "https://api.github.com/repos/thoughtbot/Argo/issues/83",
  "id": 78989418,
  "user": {
    "login": "iancanderson",
    "id": 180798,
    "avatar_url": "https://avatars.githubusercontent.com/u/180798?v=3",
    "gravatar_id": "",
    "url": "https://api.github.com/users/iancanderson",
    "html_url": "https://github.com/iancanderson",
    "followers_url": "https://api.github.com/users/iancanderson/followers",
    "following_url": "https://api.github.com/users/iancanderson/following{/other_user}",
    "gists_url": "https://api.github.com/users/iancanderson/gists{/gist_id}",
    "starred_url": "https://api.github.com/users/iancanderson/starred{/owner}{/repo}",
    "subscriptions_url": "https://api.github.com/users/iancanderson/subscriptions",
    "organizations_url": "https://api.github.com/users/iancanderson/orgs",
    "repos_url": "https://api.github.com/users/iancanderson/repos",
    "events_url": "https://api.github.com/users/iancanderson/events{/privacy}",
    "received_events_url": "https://api.github.com/users/iancanderson/received_events",
    "type": "User",
    "site_admin": false
  },
  "created_at": "2015-03-13T14:14:53Z",
  "updated_at": "2015-03-13T14:14:53Z",
  "body": ":heart_eyes_cat: "
}
, {
  "url": "https://api.github.com/repos/thoughtbot/Argo/issues/comments/78990295",
  "html_url": "https://github.com/thoughtbot/Argo/pull/83#issuecomment-78990295",
  "issue_url": "https://api.github.com/repos/thoughtbot/Argo/issues/83",
  "id": 78990295,
  "user": {
    "login": "tonyd256",
    "id": 1169797,
    "avatar_url": "https://avatars.githubusercontent.com/u/1169797?v=3",
    "gravatar_id": "",
    "url": "https://api.github.com/users/tonyd256",
    "html_url": "https://github.com/tonyd256",
    "followers_url": "https://api.github.com/users/tonyd256/followers",
    "following_url": "https://api.github.com/users/tonyd256/following{/other_user}",
    "gists_url": "https://api.github.com/users/tonyd256/gists{/gist_id}",
    "starred_url": "https://api.github.com/users/tonyd256/starred{/owner}{/repo}",
    "subscriptions_url": "https://api.github.com/users/tonyd256/subscriptions",
    "organizations_url": "https://api.github.com/users/tonyd256/orgs",
    "repos_url": "https://api.github.com/users/tonyd256/repos",
    "events_url": "https://api.github.com/users/tonyd256/events{/privacy}",
    "received_events_url": "https://api.github.com/users/tonyd256/received_events",
    "type": "User",
    "site_admin": false
  },
  "created_at": "2015-03-13T14:16:49Z",
  "updated_at": "2015-03-13T14:16:49Z",
  "body": "such a small change yet so amazing :+1: "
}
]
