[
{
  "url": "https://api.github.com/repos/google/google-oauth-java-client/issues/comments/69403628",
  "html_url": "https://github.com/google/google-oauth-java-client/issues/53#issuecomment-69403628",
  "issue_url": "https://api.github.com/repos/google/google-oauth-java-client/issues/53",
  "id": 69403628,
  "user": {
    "login": "wonderfly",
    "id": 6642209,
    "avatar_url": "https://avatars.githubusercontent.com/u/6642209?v=3",
    "gravatar_id": "",
    "url": "https://api.github.com/users/wonderfly",
    "html_url": "https://github.com/wonderfly",
    "followers_url": "https://api.github.com/users/wonderfly/followers",
    "following_url": "https://api.github.com/users/wonderfly/following{/other_user}",
    "gists_url": "https://api.github.com/users/wonderfly/gists{/gist_id}",
    "starred_url": "https://api.github.com/users/wonderfly/starred{/owner}{/repo}",
    "subscriptions_url": "https://api.github.com/users/wonderfly/subscriptions",
    "organizations_url": "https://api.github.com/users/wonderfly/orgs",
    "repos_url": "https://api.github.com/users/wonderfly/repos",
    "events_url": "https://api.github.com/users/wonderfly/events{/privacy}",
    "received_events_url": "https://api.github.com/users/wonderfly/received_events",
    "type": "User",
    "site_admin": false
  },
  "created_at": "2015-01-09T21:40:27Z",
  "updated_at": "2015-01-09T21:40:27Z",
  "body": "_From [yan...@google.com](https://code.google.com/u/111815493751521097215/) on October 06, 2012 04:08:31_\n\n**Labels:** -Milestone-Version1.13.0  \n"
}
, {
  "url": "https://api.github.com/repos/google/google-oauth-java-client/issues/comments/77216204",
  "html_url": "https://github.com/google/google-oauth-java-client/issues/53#issuecomment-77216204",
  "issue_url": "https://api.github.com/repos/google/google-oauth-java-client/issues/53",
  "id": 77216204,
  "user": {
    "login": "samskiter",
    "id": 1271643,
    "avatar_url": "https://avatars.githubusercontent.com/u/1271643?v=3",
    "gravatar_id": "",
    "url": "https://api.github.com/users/samskiter",
    "html_url": "https://github.com/samskiter",
    "followers_url": "https://api.github.com/users/samskiter/followers",
    "following_url": "https://api.github.com/users/samskiter/following{/other_user}",
    "gists_url": "https://api.github.com/users/samskiter/gists{/gist_id}",
    "starred_url": "https://api.github.com/users/samskiter/starred{/owner}{/repo}",
    "subscriptions_url": "https://api.github.com/users/samskiter/subscriptions",
    "organizations_url": "https://api.github.com/users/samskiter/orgs",
    "repos_url": "https://api.github.com/users/samskiter/repos",
    "events_url": "https://api.github.com/users/samskiter/events{/privacy}",
    "received_events_url": "https://api.github.com/users/samskiter/received_events",
    "type": "User",
    "site_admin": false
  },
  "created_at": "2015-03-04T18:30:52Z",
  "updated_at": "2015-03-04T18:30:52Z",
  "body": ":+1: for OpenID :)"
}
]
