[
{
  "url": "https://api.github.com/repos/docker/notary/issues/comments/122457099",
  "html_url": "https://github.com/docker/notary/pull/80#issuecomment-122457099",
  "issue_url": "https://api.github.com/repos/docker/notary/issues/80",
  "id": 122457099,
  "user": {
    "login": "diogomonica",
    "id": 55332,
    "avatar_url": "https://avatars.githubusercontent.com/u/55332?v=3",
    "gravatar_id": "",
    "url": "https://api.github.com/users/diogomonica",
    "html_url": "https://github.com/diogomonica",
    "followers_url": "https://api.github.com/users/diogomonica/followers",
    "following_url": "https://api.github.com/users/diogomonica/following{/other_user}",
    "gists_url": "https://api.github.com/users/diogomonica/gists{/gist_id}",
    "starred_url": "https://api.github.com/users/diogomonica/starred{/owner}{/repo}",
    "subscriptions_url": "https://api.github.com/users/diogomonica/subscriptions",
    "organizations_url": "https://api.github.com/users/diogomonica/orgs",
    "repos_url": "https://api.github.com/users/diogomonica/repos",
    "events_url": "https://api.github.com/users/diogomonica/events{/privacy}",
    "received_events_url": "https://api.github.com/users/diogomonica/received_events",
    "type": "User",
    "site_admin": false
  },
  "created_at": "2015-07-17T23:53:39Z",
  "updated_at": "2015-07-17T23:53:39Z",
  "body": "LGTM"
}
]
