[
{
  "url": "https://api.github.com/repos/spotify/ios-sdk/issues/comments/44880093",
  "html_url": "https://github.com/spotify/ios-sdk/issues/76#issuecomment-44880093",
  "issue_url": "https://api.github.com/repos/spotify/ios-sdk/issues/76",
  "id": 44880093,
  "user": {
    "login": "iKenndac",
    "id": 514900,
    "avatar_url": "https://avatars.githubusercontent.com/u/514900?v=3",
    "gravatar_id": "",
    "url": "https://api.github.com/users/iKenndac",
    "html_url": "https://github.com/iKenndac",
    "followers_url": "https://api.github.com/users/iKenndac/followers",
    "following_url": "https://api.github.com/users/iKenndac/following{/other_user}",
    "gists_url": "https://api.github.com/users/iKenndac/gists{/gist_id}",
    "starred_url": "https://api.github.com/users/iKenndac/starred{/owner}{/repo}",
    "subscriptions_url": "https://api.github.com/users/iKenndac/subscriptions",
    "organizations_url": "https://api.github.com/users/iKenndac/orgs",
    "repos_url": "https://api.github.com/users/iKenndac/repos",
    "events_url": "https://api.github.com/users/iKenndac/events{/privacy}",
    "received_events_url": "https://api.github.com/users/iKenndac/received_events",
    "type": "User",
    "site_admin": false
  },
  "created_at": "2014-06-02T19:28:06Z",
  "updated_at": "2014-06-02T19:28:06Z",
  "body": "Duplicate of #52."
}
]
