[
{
  "url": "https://api.github.com/repos/Netflix/PigPen/issues/comments/74912726",
  "html_url": "https://github.com/Netflix/PigPen/issues/130#issuecomment-74912726",
  "issue_url": "https://api.github.com/repos/Netflix/PigPen/issues/130",
  "id": 74912726,
  "user": {
    "login": "mbossenbroek",
    "id": 6173807,
    "avatar_url": "https://avatars.githubusercontent.com/u/6173807?v=3",
    "gravatar_id": "",
    "url": "https://api.github.com/users/mbossenbroek",
    "html_url": "https://github.com/mbossenbroek",
    "followers_url": "https://api.github.com/users/mbossenbroek/followers",
    "following_url": "https://api.github.com/users/mbossenbroek/following{/other_user}",
    "gists_url": "https://api.github.com/users/mbossenbroek/gists{/gist_id}",
    "starred_url": "https://api.github.com/users/mbossenbroek/starred{/owner}{/repo}",
    "subscriptions_url": "https://api.github.com/users/mbossenbroek/subscriptions",
    "organizations_url": "https://api.github.com/users/mbossenbroek/orgs",
    "repos_url": "https://api.github.com/users/mbossenbroek/repos",
    "events_url": "https://api.github.com/users/mbossenbroek/events{/privacy}",
    "received_events_url": "https://api.github.com/users/mbossenbroek/received_events",
    "type": "User",
    "site_admin": false
  },
  "created_at": "2015-02-18T17:56:06Z",
  "updated_at": "2015-02-18T17:56:06Z",
  "body": "Sure - np  \n\n-Matt\n\n\nOn Wednesday, February 18, 2015 at 9:55 AM, Kurt Harriger wrote:\n\n> Would you mind cutting a release build with current master?\n> 939c4c1 (https://github.com/Netflix/PigPen/commit/939c4c1bc2ef55968d50661346998b0057ff05bc)  \n>  \n> —\n> Reply to this email directly or view it on GitHub (https://github.com/Netflix/PigPen/issues/130).\n>  \n>  \n>  \n>  \n>  \n\n\n"
}
, {
  "url": "https://api.github.com/repos/Netflix/PigPen/issues/comments/74932674",
  "html_url": "https://github.com/Netflix/PigPen/issues/130#issuecomment-74932674",
  "issue_url": "https://api.github.com/repos/Netflix/PigPen/issues/130",
  "id": 74932674,
  "user": {
    "login": "mbossenbroek",
    "id": 6173807,
    "avatar_url": "https://avatars.githubusercontent.com/u/6173807?v=3",
    "gravatar_id": "",
    "url": "https://api.github.com/users/mbossenbroek",
    "html_url": "https://github.com/mbossenbroek",
    "followers_url": "https://api.github.com/users/mbossenbroek/followers",
    "following_url": "https://api.github.com/users/mbossenbroek/following{/other_user}",
    "gists_url": "https://api.github.com/users/mbossenbroek/gists{/gist_id}",
    "starred_url": "https://api.github.com/users/mbossenbroek/starred{/owner}{/repo}",
    "subscriptions_url": "https://api.github.com/users/mbossenbroek/subscriptions",
    "organizations_url": "https://api.github.com/users/mbossenbroek/orgs",
    "repos_url": "https://api.github.com/users/mbossenbroek/repos",
    "events_url": "https://api.github.com/users/mbossenbroek/events{/privacy}",
    "received_events_url": "https://api.github.com/users/mbossenbroek/received_events",
    "type": "User",
    "site_admin": false
  },
  "created_at": "2015-02-18T19:39:37Z",
  "updated_at": "2015-02-18T19:39:37Z",
  "body": "Released as 0.2.14 to maven. Should show up within an hour or so."
}
]
