{
  "id": 16414490,
  "name": "python-django-sample",
  "full_name": "heroku/python-django-sample",
  "owner": {
    "login": "heroku",
    "id": 23211,
    "avatar_url": "https://avatars.githubusercontent.com/u/23211?v=3",
    "gravatar_id": "",
    "url": "https://api.github.com/users/heroku",
    "html_url": "https://github.com/heroku",
    "followers_url": "https://api.github.com/users/heroku/followers",
    "following_url": "https://api.github.com/users/heroku/following{/other_user}",
    "gists_url": "https://api.github.com/users/heroku/gists{/gist_id}",
    "starred_url": "https://api.github.com/users/heroku/starred{/owner}{/repo}",
    "subscriptions_url": "https://api.github.com/users/heroku/subscriptions",
    "organizations_url": "https://api.github.com/users/heroku/orgs",
    "repos_url": "https://api.github.com/users/heroku/repos",
    "events_url": "https://api.github.com/users/heroku/events{/privacy}",
    "received_events_url": "https://api.github.com/users/heroku/received_events",
    "type": "Organization",
    "site_admin": false
  },
  "private": false,
  "html_url": "https://github.com/heroku/python-django-sample",
  "description": "",
  "fork": false,
  "url": "https://api.github.com/repos/heroku/python-django-sample",
  "forks_url": "https://api.github.com/repos/heroku/python-django-sample/forks",
  "keys_url": "https://api.github.com/repos/heroku/python-django-sample/keys{/key_id}",
  "collaborators_url": "https://api.github.com/repos/heroku/python-django-sample/collaborators{/collaborator}",
  "teams_url": "https://api.github.com/repos/heroku/python-django-sample/teams",
  "hooks_url": "https://api.github.com/repos/heroku/python-django-sample/hooks",
  "issue_events_url": "https://api.github.com/repos/heroku/python-django-sample/issues/events{/number}",
  "events_url": "https://api.github.com/repos/heroku/python-django-sample/events",
  "assignees_url": "https://api.github.com/repos/heroku/python-django-sample/assignees{/user}",
  "branches_url": "https://api.github.com/repos/heroku/python-django-sample/branches{/branch}",
  "tags_url": "https://api.github.com/repos/heroku/python-django-sample/tags",
  "blobs_url": "https://api.github.com/repos/heroku/python-django-sample/git/blobs{/sha}",
  "git_tags_url": "https://api.github.com/repos/heroku/python-django-sample/git/tags{/sha}",
  "git_refs_url": "https://api.github.com/repos/heroku/python-django-sample/git/refs{/sha}",
  "trees_url": "https://api.github.com/repos/heroku/python-django-sample/git/trees{/sha}",
  "statuses_url": "https://api.github.com/repos/heroku/python-django-sample/statuses/{sha}",
  "languages_url": "https://api.github.com/repos/heroku/python-django-sample/languages",
  "stargazers_url": "https://api.github.com/repos/heroku/python-django-sample/stargazers",
  "contributors_url": "https://api.github.com/repos/heroku/python-django-sample/contributors",
  "subscribers_url": "https://api.github.com/repos/heroku/python-django-sample/subscribers",
  "subscription_url": "https://api.github.com/repos/heroku/python-django-sample/subscription",
  "commits_url": "https://api.github.com/repos/heroku/python-django-sample/commits{/sha}",
  "git_commits_url": "https://api.github.com/repos/heroku/python-django-sample/git/commits{/sha}",
  "comments_url": "https://api.github.com/repos/heroku/python-django-sample/comments{/number}",
  "issue_comment_url": "https://api.github.com/repos/heroku/python-django-sample/issues/comments{/number}",
  "contents_url": "https://api.github.com/repos/heroku/python-django-sample/contents/{+path}",
  "compare_url": "https://api.github.com/repos/heroku/python-django-sample/compare/{base}...{head}",
  "merges_url": "https://api.github.com/repos/heroku/python-django-sample/merges",
  "archive_url": "https://api.github.com/repos/heroku/python-django-sample/{archive_format}{/ref}",
  "downloads_url": "https://api.github.com/repos/heroku/python-django-sample/downloads",
  "issues_url": "https://api.github.com/repos/heroku/python-django-sample/issues{/number}",
  "pulls_url": "https://api.github.com/repos/heroku/python-django-sample/pulls{/number}",
  "milestones_url": "https://api.github.com/repos/heroku/python-django-sample/milestones{/number}",
  "notifications_url": "https://api.github.com/repos/heroku/python-django-sample/notifications{?since,all,participating}",
  "labels_url": "https://api.github.com/repos/heroku/python-django-sample/labels{/name}",
  "releases_url": "https://api.github.com/repos/heroku/python-django-sample/releases{/id}",
  "deployments_url": "https://api.github.com/repos/heroku/python-django-sample/deployments",
  "created_at": "2014-01-31T17:07:48Z",
  "updated_at": "2015-04-03T00:28:12Z",
  "pushed_at": "2014-01-31T17:07:59Z",
  "git_url": "git://github.com/heroku/python-django-sample.git",
  "ssh_url": "git@github.com:heroku/python-django-sample.git",
  "clone_url": "https://github.com/heroku/python-django-sample.git",
  "svn_url": "https://github.com/heroku/python-django-sample",
  "homepage": null,
  "size": 104,
  "stargazers_count": 5,
  "watchers_count": 5,
  "language": "Python",
  "has_issues": true,
  "has_downloads": true,
  "has_wiki": true,
  "has_pages": false,
  "forks_count": 2,
  "mirror_url": null,
  "open_issues_count": 1,
  "forks": 2,
  "open_issues": 1,
  "watchers": 5,
  "default_branch": "master",
  "master_branch": "master",
  "permissions": {
    "admin": false,
    "push": false,
    "pull": true
  },
  "license": null,
  "organization": {
    "login": "heroku",
    "id": 23211,
    "avatar_url": "https://avatars.githubusercontent.com/u/23211?v=3",
    "gravatar_id": "",
    "url": "https://api.github.com/users/heroku",
    "html_url": "https://github.com/heroku",
    "followers_url": "https://api.github.com/users/heroku/followers",
    "following_url": "https://api.github.com/users/heroku/following{/other_user}",
    "gists_url": "https://api.github.com/users/heroku/gists{/gist_id}",
    "starred_url": "https://api.github.com/users/heroku/starred{/owner}{/repo}",
    "subscriptions_url": "https://api.github.com/users/heroku/subscriptions",
    "organizations_url": "https://api.github.com/users/heroku/orgs",
    "repos_url": "https://api.github.com/users/heroku/repos",
    "events_url": "https://api.github.com/users/heroku/events{/privacy}",
    "received_events_url": "https://api.github.com/users/heroku/received_events",
    "type": "Organization",
    "site_admin": false
  },
  "network_count": 2,
  "subscribers_count": 16
}
