[
{
  "url": "https://api.github.com/repos/square/retrofit/issues/comments/157764087",
  "html_url": "https://github.com/square/retrofit/issues/1297#issuecomment-157764087",
  "issue_url": "https://api.github.com/repos/square/retrofit/issues/1297",
  "id": 157764087,
  "user": {
    "login": "JakeWharton",
    "id": 66577,
    "avatar_url": "https://avatars.githubusercontent.com/u/66577?v=3",
    "gravatar_id": "",
    "url": "https://api.github.com/users/JakeWharton",
    "html_url": "https://github.com/JakeWharton",
    "followers_url": "https://api.github.com/users/JakeWharton/followers",
    "following_url": "https://api.github.com/users/JakeWharton/following{/other_user}",
    "gists_url": "https://api.github.com/users/JakeWharton/gists{/gist_id}",
    "starred_url": "https://api.github.com/users/JakeWharton/starred{/owner}{/repo}",
    "subscriptions_url": "https://api.github.com/users/JakeWharton/subscriptions",
    "organizations_url": "https://api.github.com/users/JakeWharton/orgs",
    "repos_url": "https://api.github.com/users/JakeWharton/repos",
    "events_url": "https://api.github.com/users/JakeWharton/events{/privacy}",
    "received_events_url": "https://api.github.com/users/JakeWharton/received_events",
    "type": "User",
    "site_admin": false
  },
  "created_at": "2015-11-18T16:13:56Z",
  "updated_at": "2015-11-18T16:13:56Z",
  "body": "Please show code demonstrating your problem. I don't understand the question."
}
, {
  "url": "https://api.github.com/repos/square/retrofit/issues/comments/157918151",
  "html_url": "https://github.com/square/retrofit/issues/1297#issuecomment-157918151",
  "issue_url": "https://api.github.com/repos/square/retrofit/issues/1297",
  "id": 157918151,
  "user": {
    "login": "diorslau",
    "id": 15136680,
    "avatar_url": "https://avatars.githubusercontent.com/u/15136680?v=3",
    "gravatar_id": "",
    "url": "https://api.github.com/users/diorslau",
    "html_url": "https://github.com/diorslau",
    "followers_url": "https://api.github.com/users/diorslau/followers",
    "following_url": "https://api.github.com/users/diorslau/following{/other_user}",
    "gists_url": "https://api.github.com/users/diorslau/gists{/gist_id}",
    "starred_url": "https://api.github.com/users/diorslau/starred{/owner}{/repo}",
    "subscriptions_url": "https://api.github.com/users/diorslau/subscriptions",
    "organizations_url": "https://api.github.com/users/diorslau/orgs",
    "repos_url": "https://api.github.com/users/diorslau/repos",
    "events_url": "https://api.github.com/users/diorslau/events{/privacy}",
    "received_events_url": "https://api.github.com/users/diorslau/received_events",
    "type": "User",
    "site_admin": false
  },
  "created_at": "2015-11-19T01:28:50Z",
  "updated_at": "2015-11-19T01:28:50Z",
  "body": "retrofit Default to use urlencode encoding, how to modify the encoding way"
}
, {
  "url": "https://api.github.com/repos/square/retrofit/issues/comments/157918436",
  "html_url": "https://github.com/square/retrofit/issues/1297#issuecomment-157918436",
  "issue_url": "https://api.github.com/repos/square/retrofit/issues/1297",
  "id": 157918436,
  "user": {
    "login": "JakeWharton",
    "id": 66577,
    "avatar_url": "https://avatars.githubusercontent.com/u/66577?v=3",
    "gravatar_id": "",
    "url": "https://api.github.com/users/JakeWharton",
    "html_url": "https://github.com/JakeWharton",
    "followers_url": "https://api.github.com/users/JakeWharton/followers",
    "following_url": "https://api.github.com/users/JakeWharton/following{/other_user}",
    "gists_url": "https://api.github.com/users/JakeWharton/gists{/gist_id}",
    "starred_url": "https://api.github.com/users/JakeWharton/starred{/owner}{/repo}",
    "subscriptions_url": "https://api.github.com/users/JakeWharton/subscriptions",
    "organizations_url": "https://api.github.com/users/JakeWharton/orgs",
    "repos_url": "https://api.github.com/users/JakeWharton/repos",
    "events_url": "https://api.github.com/users/JakeWharton/events{/privacy}",
    "received_events_url": "https://api.github.com/users/JakeWharton/received_events",
    "type": "User",
    "site_admin": false
  },
  "created_at": "2015-11-19T01:30:00Z",
  "updated_at": "2015-11-19T01:30:00Z",
  "body": "Specify encoded=true on @Path or whatever annotation you are using.\n\nOn Wed, Nov 18, 2015, 8:28 PM diorslau <notifications@github.com> wrote:\n\n> retrofit Default to use urlencode encoding, how to modify the encoding way\n>\n> —\n> Reply to this email directly or view it on GitHub\n> <https://github.com/square/retrofit/issues/1297#issuecomment-157918151>.\n>\n"
}
]
