[
{
  "url": "https://api.github.com/repos/square/retrofit/issues/comments/133782444",
  "html_url": "https://github.com/square/retrofit/issues/1025#issuecomment-133782444",
  "issue_url": "https://api.github.com/repos/square/retrofit/issues/1025",
  "id": 133782444,
  "user": {
    "login": "JakeWharton",
    "id": 66577,
    "avatar_url": "https://avatars.githubusercontent.com/u/66577?v=3",
    "gravatar_id": "",
    "url": "https://api.github.com/users/JakeWharton",
    "html_url": "https://github.com/JakeWharton",
    "followers_url": "https://api.github.com/users/JakeWharton/followers",
    "following_url": "https://api.github.com/users/JakeWharton/following{/other_user}",
    "gists_url": "https://api.github.com/users/JakeWharton/gists{/gist_id}",
    "starred_url": "https://api.github.com/users/JakeWharton/starred{/owner}{/repo}",
    "subscriptions_url": "https://api.github.com/users/JakeWharton/subscriptions",
    "organizations_url": "https://api.github.com/users/JakeWharton/orgs",
    "repos_url": "https://api.github.com/users/JakeWharton/repos",
    "events_url": "https://api.github.com/users/JakeWharton/events{/privacy}",
    "received_events_url": "https://api.github.com/users/JakeWharton/received_events",
    "type": "User",
    "site_admin": false
  },
  "created_at": "2015-08-23T04:49:24Z",
  "updated_at": "2015-08-23T04:49:24Z",
  "body": "Retrofit uses daemon threads which will not keep the JVM alive if the above is the only thing in your main method. If you need non-daemon threads you'll have to supply your own background executor to `RestAdapter.Builder` which has a thread factory that does not create daemon threads. Other than that, Retrofit works fine on the JVM in both sync and async fashion.\r\n\r\nI'm going to close assuming the issue it with the daemon threads, please comment if otherwise."
}
, {
  "url": "https://api.github.com/repos/square/retrofit/issues/comments/133796277",
  "html_url": "https://github.com/square/retrofit/issues/1025#issuecomment-133796277",
  "issue_url": "https://api.github.com/repos/square/retrofit/issues/1025",
  "id": 133796277,
  "user": {
    "login": "gp2you",
    "id": 955773,
    "avatar_url": "https://avatars.githubusercontent.com/u/955773?v=3",
    "gravatar_id": "",
    "url": "https://api.github.com/users/gp2you",
    "html_url": "https://github.com/gp2you",
    "followers_url": "https://api.github.com/users/gp2you/followers",
    "following_url": "https://api.github.com/users/gp2you/following{/other_user}",
    "gists_url": "https://api.github.com/users/gp2you/gists{/gist_id}",
    "starred_url": "https://api.github.com/users/gp2you/starred{/owner}{/repo}",
    "subscriptions_url": "https://api.github.com/users/gp2you/subscriptions",
    "organizations_url": "https://api.github.com/users/gp2you/orgs",
    "repos_url": "https://api.github.com/users/gp2you/repos",
    "events_url": "https://api.github.com/users/gp2you/events{/privacy}",
    "received_events_url": "https://api.github.com/users/gp2you/received_events",
    "type": "User",
    "site_admin": false
  },
  "created_at": "2015-08-23T07:17:38Z",
  "updated_at": "2015-08-23T07:17:38Z",
  "body": "can you please give me example on how to achieve , I was not able to find any documentation ...best would be add in documentation "
}
, {
  "url": "https://api.github.com/repos/square/retrofit/issues/comments/133820099",
  "html_url": "https://github.com/square/retrofit/issues/1025#issuecomment-133820099",
  "issue_url": "https://api.github.com/repos/square/retrofit/issues/1025",
  "id": 133820099,
  "user": {
    "login": "gp2you",
    "id": 955773,
    "avatar_url": "https://avatars.githubusercontent.com/u/955773?v=3",
    "gravatar_id": "",
    "url": "https://api.github.com/users/gp2you",
    "html_url": "https://github.com/gp2you",
    "followers_url": "https://api.github.com/users/gp2you/followers",
    "following_url": "https://api.github.com/users/gp2you/following{/other_user}",
    "gists_url": "https://api.github.com/users/gp2you/gists{/gist_id}",
    "starred_url": "https://api.github.com/users/gp2you/starred{/owner}{/repo}",
    "subscriptions_url": "https://api.github.com/users/gp2you/subscriptions",
    "organizations_url": "https://api.github.com/users/gp2you/orgs",
    "repos_url": "https://api.github.com/users/gp2you/repos",
    "events_url": "https://api.github.com/users/gp2you/events{/privacy}",
    "received_events_url": "https://api.github.com/users/gp2you/received_events",
    "type": "User",
    "site_admin": false
  },
  "created_at": "2015-08-23T11:42:29Z",
  "updated_at": "2015-08-23T11:42:29Z",
  "body": "Tried with executor also nothing seems to work ......does anyone has working sample ?\r\n\r\n\r\n//  Executor executor = Executors.newSingleThreadExecutor();\r\n        Executor executor = Executors.newCachedThreadPool();\r\n        OkHttpClient okHttpClient = new OkHttpClient();\r\n        RestAdapter restAdapter = new RestAdapter.Builder()\r\n                .setEndpoint(CONFIG.END_PONT).setLogLevel(RestAdapter.LogLevel.FULL)\r\n                .setExecutors(executor, executor) .setClient(new OkClient(okHttpClient))\r\n                .build();\r\n        TrackingService service = restAdapter.create(TrackingService.class);\r\n        _.debug(\"Start Testing ............\");\r\n        // Always Executes\r\n    //   _.debug(\"Calling Sync Version ............which excu\"+ service.addTrackDataSync(trackData).descprition);\r\n\r\n        try{\r\n            service.addTrackingData(trackData, new Callback<TrackSummary>() {\r\n                public void success(TrackSummary trackSummary, Response response) {\r\n                    //NEVER EXECUTES\r\n                    System.out.println(\"Track summary data ->>>>>>\" + trackSummary.descprition);\r\n                }\r\n\r\n                public void failure(RetrofitError retrofitError) {\r\n                    //NEVER EXECUTES\r\n                    System.out.println(\"Error data ->>>>>>\" + retrofitError.getMessage());\r\n                }\r\n            });"
}
]
