[
{
  "url": "https://api.github.com/repos/square/retrofit/issues/comments/138520276",
  "html_url": "https://github.com/square/retrofit/issues/1067#issuecomment-138520276",
  "issue_url": "https://api.github.com/repos/square/retrofit/issues/1067",
  "id": 138520276,
  "user": {
    "login": "artem-zinnatullin",
    "id": 967132,
    "avatar_url": "https://avatars.githubusercontent.com/u/967132?v=3",
    "gravatar_id": "",
    "url": "https://api.github.com/users/artem-zinnatullin",
    "html_url": "https://github.com/artem-zinnatullin",
    "followers_url": "https://api.github.com/users/artem-zinnatullin/followers",
    "following_url": "https://api.github.com/users/artem-zinnatullin/following{/other_user}",
    "gists_url": "https://api.github.com/users/artem-zinnatullin/gists{/gist_id}",
    "starred_url": "https://api.github.com/users/artem-zinnatullin/starred{/owner}{/repo}",
    "subscriptions_url": "https://api.github.com/users/artem-zinnatullin/subscriptions",
    "organizations_url": "https://api.github.com/users/artem-zinnatullin/orgs",
    "repos_url": "https://api.github.com/users/artem-zinnatullin/repos",
    "events_url": "https://api.github.com/users/artem-zinnatullin/events{/privacy}",
    "received_events_url": "https://api.github.com/users/artem-zinnatullin/received_events",
    "type": "User",
    "site_admin": false
  },
  "created_at": "2015-09-08T11:13:43Z",
  "updated_at": "2015-09-08T11:13:43Z",
  "body": "Try to debug it and see on what thread Gson do its work.\r\n\r\nProbably, big responses cause frequent or long GCs which lead to UI freezes."
}
, {
  "url": "https://api.github.com/repos/square/retrofit/issues/comments/138521946",
  "html_url": "https://github.com/square/retrofit/issues/1067#issuecomment-138521946",
  "issue_url": "https://api.github.com/repos/square/retrofit/issues/1067",
  "id": 138521946,
  "user": {
    "login": "jbaginski",
    "id": 201855,
    "avatar_url": "https://avatars.githubusercontent.com/u/201855?v=3",
    "gravatar_id": "",
    "url": "https://api.github.com/users/jbaginski",
    "html_url": "https://github.com/jbaginski",
    "followers_url": "https://api.github.com/users/jbaginski/followers",
    "following_url": "https://api.github.com/users/jbaginski/following{/other_user}",
    "gists_url": "https://api.github.com/users/jbaginski/gists{/gist_id}",
    "starred_url": "https://api.github.com/users/jbaginski/starred{/owner}{/repo}",
    "subscriptions_url": "https://api.github.com/users/jbaginski/subscriptions",
    "organizations_url": "https://api.github.com/users/jbaginski/orgs",
    "repos_url": "https://api.github.com/users/jbaginski/repos",
    "events_url": "https://api.github.com/users/jbaginski/events{/privacy}",
    "received_events_url": "https://api.github.com/users/jbaginski/received_events",
    "type": "User",
    "site_admin": false
  },
  "created_at": "2015-09-08T11:19:54Z",
  "updated_at": "2015-09-08T11:19:54Z",
  "body": "@ffelini check your callback executor."
}
, {
  "url": "https://api.github.com/repos/square/retrofit/issues/comments/138522207",
  "html_url": "https://github.com/square/retrofit/issues/1067#issuecomment-138522207",
  "issue_url": "https://api.github.com/repos/square/retrofit/issues/1067",
  "id": 138522207,
  "user": {
    "login": "ffelini",
    "id": 1655758,
    "avatar_url": "https://avatars.githubusercontent.com/u/1655758?v=3",
    "gravatar_id": "",
    "url": "https://api.github.com/users/ffelini",
    "html_url": "https://github.com/ffelini",
    "followers_url": "https://api.github.com/users/ffelini/followers",
    "following_url": "https://api.github.com/users/ffelini/following{/other_user}",
    "gists_url": "https://api.github.com/users/ffelini/gists{/gist_id}",
    "starred_url": "https://api.github.com/users/ffelini/starred{/owner}{/repo}",
    "subscriptions_url": "https://api.github.com/users/ffelini/subscriptions",
    "organizations_url": "https://api.github.com/users/ffelini/orgs",
    "repos_url": "https://api.github.com/users/ffelini/repos",
    "events_url": "https://api.github.com/users/ffelini/events{/privacy}",
    "received_events_url": "https://api.github.com/users/ffelini/received_events",
    "type": "User",
    "site_admin": false
  },
  "created_at": "2015-09-08T11:21:55Z",
  "updated_at": "2015-09-08T11:21:55Z",
  "body": "Thank you, I'l check it. Callback executor is fine, only adapter.notifyDataSetChanged() called there.\r\n@artem-zinnatullin  I think you may be right.\r\nBut how generally this kind of issues is avoided (when GC becomes crazy cause of big responses) ?\r\nI understand that this may be not a Retrofit related issue."
}
, {
  "url": "https://api.github.com/repos/square/retrofit/issues/comments/138527736",
  "html_url": "https://github.com/square/retrofit/issues/1067#issuecomment-138527736",
  "issue_url": "https://api.github.com/repos/square/retrofit/issues/1067",
  "id": 138527736,
  "user": {
    "login": "ffelini",
    "id": 1655758,
    "avatar_url": "https://avatars.githubusercontent.com/u/1655758?v=3",
    "gravatar_id": "",
    "url": "https://api.github.com/users/ffelini",
    "html_url": "https://github.com/ffelini",
    "followers_url": "https://api.github.com/users/ffelini/followers",
    "following_url": "https://api.github.com/users/ffelini/following{/other_user}",
    "gists_url": "https://api.github.com/users/ffelini/gists{/gist_id}",
    "starred_url": "https://api.github.com/users/ffelini/starred{/owner}{/repo}",
    "subscriptions_url": "https://api.github.com/users/ffelini/subscriptions",
    "organizations_url": "https://api.github.com/users/ffelini/orgs",
    "repos_url": "https://api.github.com/users/ffelini/repos",
    "events_url": "https://api.github.com/users/ffelini/events{/privacy}",
    "received_events_url": "https://api.github.com/users/ffelini/received_events",
    "type": "User",
    "site_admin": false
  },
  "created_at": "2015-09-08T11:40:12Z",
  "updated_at": "2015-09-08T11:40:12Z",
  "body": "Anyone tried this library with retrofit?\r\nhttps://github.com/bluelinelabs/LoganSquare\r\nUnfortunatelly not so much feedbacks about it, but looks promising."
}
, {
  "url": "https://api.github.com/repos/square/retrofit/issues/comments/138529750",
  "html_url": "https://github.com/square/retrofit/issues/1067#issuecomment-138529750",
  "issue_url": "https://api.github.com/repos/square/retrofit/issues/1067",
  "id": 138529750,
  "user": {
    "login": "artem-zinnatullin",
    "id": 967132,
    "avatar_url": "https://avatars.githubusercontent.com/u/967132?v=3",
    "gravatar_id": "",
    "url": "https://api.github.com/users/artem-zinnatullin",
    "html_url": "https://github.com/artem-zinnatullin",
    "followers_url": "https://api.github.com/users/artem-zinnatullin/followers",
    "following_url": "https://api.github.com/users/artem-zinnatullin/following{/other_user}",
    "gists_url": "https://api.github.com/users/artem-zinnatullin/gists{/gist_id}",
    "starred_url": "https://api.github.com/users/artem-zinnatullin/starred{/owner}{/repo}",
    "subscriptions_url": "https://api.github.com/users/artem-zinnatullin/subscriptions",
    "organizations_url": "https://api.github.com/users/artem-zinnatullin/orgs",
    "repos_url": "https://api.github.com/users/artem-zinnatullin/repos",
    "events_url": "https://api.github.com/users/artem-zinnatullin/events{/privacy}",
    "received_events_url": "https://api.github.com/users/artem-zinnatullin/received_events",
    "type": "User",
    "site_admin": false
  },
  "created_at": "2015-09-08T11:48:00Z",
  "updated_at": "2015-09-08T11:48:00Z",
  "body": ">But how generally this kind of issues is avoided (when GC becomes crazy cause of big responses) ?\r\n\r\nUsually, the solution is to use stream-based parsing which will parse response stream instead of loading all response to the memory and only then parsing it.\r\n\r\nBut, anyway, if you have REALLY big responses — JSON is not best format for such cases because it has a lot of duplications (imagine huge array of objects with same structure). Consider switching to more efficient formats, such as: [Apache Trift](https://thrift.apache.org), [Protocol Buffers](https://thrift.apache.org), [FlatBuffers](https://code.facebook.com/posts/872547912839369/improving-facebook-s-performance-on-android-with-flatbuffers/), etc."
}
, {
  "url": "https://api.github.com/repos/square/retrofit/issues/comments/138531597",
  "html_url": "https://github.com/square/retrofit/issues/1067#issuecomment-138531597",
  "issue_url": "https://api.github.com/repos/square/retrofit/issues/1067",
  "id": 138531597,
  "user": {
    "login": "ffelini",
    "id": 1655758,
    "avatar_url": "https://avatars.githubusercontent.com/u/1655758?v=3",
    "gravatar_id": "",
    "url": "https://api.github.com/users/ffelini",
    "html_url": "https://github.com/ffelini",
    "followers_url": "https://api.github.com/users/ffelini/followers",
    "following_url": "https://api.github.com/users/ffelini/following{/other_user}",
    "gists_url": "https://api.github.com/users/ffelini/gists{/gist_id}",
    "starred_url": "https://api.github.com/users/ffelini/starred{/owner}{/repo}",
    "subscriptions_url": "https://api.github.com/users/ffelini/subscriptions",
    "organizations_url": "https://api.github.com/users/ffelini/orgs",
    "repos_url": "https://api.github.com/users/ffelini/repos",
    "events_url": "https://api.github.com/users/ffelini/events{/privacy}",
    "received_events_url": "https://api.github.com/users/ffelini/received_events",
    "type": "User",
    "site_admin": false
  },
  "created_at": "2015-09-08T11:57:10Z",
  "updated_at": "2015-09-08T11:57:10Z",
  "body": "@artem-zinnatullin Thank you for quick feedbacks. Unfortunatelly we have only Json, no choice :) \r\nI'l see what I can do"
}
, {
  "url": "https://api.github.com/repos/square/retrofit/issues/comments/138531635",
  "html_url": "https://github.com/square/retrofit/issues/1067#issuecomment-138531635",
  "issue_url": "https://api.github.com/repos/square/retrofit/issues/1067",
  "id": 138531635,
  "user": {
    "login": "artem-zinnatullin",
    "id": 967132,
    "avatar_url": "https://avatars.githubusercontent.com/u/967132?v=3",
    "gravatar_id": "",
    "url": "https://api.github.com/users/artem-zinnatullin",
    "html_url": "https://github.com/artem-zinnatullin",
    "followers_url": "https://api.github.com/users/artem-zinnatullin/followers",
    "following_url": "https://api.github.com/users/artem-zinnatullin/following{/other_user}",
    "gists_url": "https://api.github.com/users/artem-zinnatullin/gists{/gist_id}",
    "starred_url": "https://api.github.com/users/artem-zinnatullin/starred{/owner}{/repo}",
    "subscriptions_url": "https://api.github.com/users/artem-zinnatullin/subscriptions",
    "organizations_url": "https://api.github.com/users/artem-zinnatullin/orgs",
    "repos_url": "https://api.github.com/users/artem-zinnatullin/repos",
    "events_url": "https://api.github.com/users/artem-zinnatullin/events{/privacy}",
    "received_events_url": "https://api.github.com/users/artem-zinnatullin/received_events",
    "type": "User",
    "site_admin": false
  },
  "created_at": "2015-09-08T11:57:17Z",
  "updated_at": "2015-09-08T11:57:17Z",
  "body": "@ffelini if you want to use JSON try all available parsers and choose the best one which will be fast and good enough for you, also make sure that responses are Gzipped: in combination with Stream parsing it should give good results!\r\n\r\nSome JSON parsers/serializers: [Jackson](https://github.com/FasterXML/jackson), [Moshi](https://github.com/square/moshi), [Ig-Json-Parser](https://github.com/Instagram/ig-json-parser/), [LoganSquare](https://github.com/bluelinelabs/LoganSquare)."
}
, {
  "url": "https://api.github.com/repos/square/retrofit/issues/comments/138532844",
  "html_url": "https://github.com/square/retrofit/issues/1067#issuecomment-138532844",
  "issue_url": "https://api.github.com/repos/square/retrofit/issues/1067",
  "id": 138532844,
  "user": {
    "login": "ffelini",
    "id": 1655758,
    "avatar_url": "https://avatars.githubusercontent.com/u/1655758?v=3",
    "gravatar_id": "",
    "url": "https://api.github.com/users/ffelini",
    "html_url": "https://github.com/ffelini",
    "followers_url": "https://api.github.com/users/ffelini/followers",
    "following_url": "https://api.github.com/users/ffelini/following{/other_user}",
    "gists_url": "https://api.github.com/users/ffelini/gists{/gist_id}",
    "starred_url": "https://api.github.com/users/ffelini/starred{/owner}{/repo}",
    "subscriptions_url": "https://api.github.com/users/ffelini/subscriptions",
    "organizations_url": "https://api.github.com/users/ffelini/orgs",
    "repos_url": "https://api.github.com/users/ffelini/repos",
    "events_url": "https://api.github.com/users/ffelini/events{/privacy}",
    "received_events_url": "https://api.github.com/users/ffelini/received_events",
    "type": "User",
    "site_admin": false
  },
  "created_at": "2015-09-08T12:03:32Z",
  "updated_at": "2015-09-08T12:03:32Z",
  "body": "Thank you for help :)"
}
]
