[
{
  "url": "https://api.github.com/repos/Microsoft/msbuild/issues/comments/149040006",
  "html_url": "https://github.com/Microsoft/msbuild/issues/290#issuecomment-149040006",
  "issue_url": "https://api.github.com/repos/Microsoft/msbuild/issues/290",
  "id": 149040006,
  "user": {
    "login": "cdmihai",
    "id": 2255729,
    "avatar_url": "https://avatars.githubusercontent.com/u/2255729?v=3",
    "gravatar_id": "",
    "url": "https://api.github.com/users/cdmihai",
    "html_url": "https://github.com/cdmihai",
    "followers_url": "https://api.github.com/users/cdmihai/followers",
    "following_url": "https://api.github.com/users/cdmihai/following{/other_user}",
    "gists_url": "https://api.github.com/users/cdmihai/gists{/gist_id}",
    "starred_url": "https://api.github.com/users/cdmihai/starred{/owner}{/repo}",
    "subscriptions_url": "https://api.github.com/users/cdmihai/subscriptions",
    "organizations_url": "https://api.github.com/users/cdmihai/orgs",
    "repos_url": "https://api.github.com/users/cdmihai/repos",
    "events_url": "https://api.github.com/users/cdmihai/events{/privacy}",
    "received_events_url": "https://api.github.com/users/cdmihai/received_events",
    "type": "User",
    "site_admin": false
  },
  "created_at": "2015-10-18T19:16:23Z",
  "updated_at": "2015-10-19T15:43:12Z",
  "body": "A couple of command line tests use Notepad.exe as \"bogus\" test data: https://github.com/Microsoft/msbuild/blob/a4e0dd5f4b31a6c9acb1bab25ac401c438c3dfac/src/XMakeCommandLine/UnitTests/XMake_Tests.cs#L794\r\n\r\nI opened issue #277 regarding this, since there might be other places that reference windows specific files."
}
, {
  "url": "https://api.github.com/repos/Microsoft/msbuild/issues/comments/149266941",
  "html_url": "https://github.com/Microsoft/msbuild/issues/290#issuecomment-149266941",
  "issue_url": "https://api.github.com/repos/Microsoft/msbuild/issues/290",
  "id": 149266941,
  "user": {
    "login": "rainersigwald",
    "id": 3347530,
    "avatar_url": "https://avatars.githubusercontent.com/u/3347530?v=3",
    "gravatar_id": "",
    "url": "https://api.github.com/users/rainersigwald",
    "html_url": "https://github.com/rainersigwald",
    "followers_url": "https://api.github.com/users/rainersigwald/followers",
    "following_url": "https://api.github.com/users/rainersigwald/following{/other_user}",
    "gists_url": "https://api.github.com/users/rainersigwald/gists{/gist_id}",
    "starred_url": "https://api.github.com/users/rainersigwald/starred{/owner}{/repo}",
    "subscriptions_url": "https://api.github.com/users/rainersigwald/subscriptions",
    "organizations_url": "https://api.github.com/users/rainersigwald/orgs",
    "repos_url": "https://api.github.com/users/rainersigwald/repos",
    "events_url": "https://api.github.com/users/rainersigwald/events{/privacy}",
    "received_events_url": "https://api.github.com/users/rainersigwald/received_events",
    "type": "User",
    "site_admin": false
  },
  "created_at": "2015-10-19T16:21:56Z",
  "updated_at": "2015-10-19T16:21:56Z",
  "body": "Did you try to break into the hung corerun and see if it's waiting on anything suspicious?"
}
]
