[
{
  "url": "https://api.github.com/repos/Microsoft/msbuild/issues/comments/139366597",
  "html_url": "https://github.com/Microsoft/msbuild/pull/197#issuecomment-139366597",
  "issue_url": "https://api.github.com/repos/Microsoft/msbuild/issues/197",
  "id": 139366597,
  "user": {
    "login": "AndyGerlicher",
    "id": 9847849,
    "avatar_url": "https://avatars.githubusercontent.com/u/9847849?v=3",
    "gravatar_id": "",
    "url": "https://api.github.com/users/AndyGerlicher",
    "html_url": "https://github.com/AndyGerlicher",
    "followers_url": "https://api.github.com/users/AndyGerlicher/followers",
    "following_url": "https://api.github.com/users/AndyGerlicher/following{/other_user}",
    "gists_url": "https://api.github.com/users/AndyGerlicher/gists{/gist_id}",
    "starred_url": "https://api.github.com/users/AndyGerlicher/starred{/owner}{/repo}",
    "subscriptions_url": "https://api.github.com/users/AndyGerlicher/subscriptions",
    "organizations_url": "https://api.github.com/users/AndyGerlicher/orgs",
    "repos_url": "https://api.github.com/users/AndyGerlicher/repos",
    "events_url": "https://api.github.com/users/AndyGerlicher/events{/privacy}",
    "received_events_url": "https://api.github.com/users/AndyGerlicher/received_events",
    "type": "User",
    "site_admin": false
  },
  "created_at": "2015-09-10T20:12:33Z",
  "updated_at": "2015-09-10T20:12:33Z",
  "body": "@dsplaisted Are we supposed to checkin the project.lock.json? I thought not, but I see they are (and in Roslyn too I think)?"
}
, {
  "url": "https://api.github.com/repos/Microsoft/msbuild/issues/comments/139367110",
  "html_url": "https://github.com/Microsoft/msbuild/pull/197#issuecomment-139367110",
  "issue_url": "https://api.github.com/repos/Microsoft/msbuild/issues/197",
  "id": 139367110,
  "user": {
    "login": "AndyGerlicher",
    "id": 9847849,
    "avatar_url": "https://avatars.githubusercontent.com/u/9847849?v=3",
    "gravatar_id": "",
    "url": "https://api.github.com/users/AndyGerlicher",
    "html_url": "https://github.com/AndyGerlicher",
    "followers_url": "https://api.github.com/users/AndyGerlicher/followers",
    "following_url": "https://api.github.com/users/AndyGerlicher/following{/other_user}",
    "gists_url": "https://api.github.com/users/AndyGerlicher/gists{/gist_id}",
    "starred_url": "https://api.github.com/users/AndyGerlicher/starred{/owner}{/repo}",
    "subscriptions_url": "https://api.github.com/users/AndyGerlicher/subscriptions",
    "organizations_url": "https://api.github.com/users/AndyGerlicher/orgs",
    "repos_url": "https://api.github.com/users/AndyGerlicher/repos",
    "events_url": "https://api.github.com/users/AndyGerlicher/events{/privacy}",
    "received_events_url": "https://api.github.com/users/AndyGerlicher/received_events",
    "type": "User",
    "site_admin": false
  },
  "created_at": "2015-09-10T20:15:11Z",
  "updated_at": "2015-09-10T20:15:11Z",
  "body": "LGTM, with a few comments."
}
, {
  "url": "https://api.github.com/repos/Microsoft/msbuild/issues/comments/139367244",
  "html_url": "https://github.com/Microsoft/msbuild/pull/197#issuecomment-139367244",
  "issue_url": "https://api.github.com/repos/Microsoft/msbuild/issues/197",
  "id": 139367244,
  "user": {
    "login": "rainersigwald",
    "id": 3347530,
    "avatar_url": "https://avatars.githubusercontent.com/u/3347530?v=3",
    "gravatar_id": "",
    "url": "https://api.github.com/users/rainersigwald",
    "html_url": "https://github.com/rainersigwald",
    "followers_url": "https://api.github.com/users/rainersigwald/followers",
    "following_url": "https://api.github.com/users/rainersigwald/following{/other_user}",
    "gists_url": "https://api.github.com/users/rainersigwald/gists{/gist_id}",
    "starred_url": "https://api.github.com/users/rainersigwald/starred{/owner}{/repo}",
    "subscriptions_url": "https://api.github.com/users/rainersigwald/subscriptions",
    "organizations_url": "https://api.github.com/users/rainersigwald/orgs",
    "repos_url": "https://api.github.com/users/rainersigwald/repos",
    "events_url": "https://api.github.com/users/rainersigwald/events{/privacy}",
    "received_events_url": "https://api.github.com/users/rainersigwald/received_events",
    "type": "User",
    "site_admin": false
  },
  "created_at": "2015-09-10T20:15:49Z",
  "updated_at": "2015-09-10T20:19:33Z",
  "body": "We just talked about it on IM and decided to check them in."
}
]
