[
{
  "url": "https://api.github.com/repos/Azure/azure-sdk-for-net/issues/comments/30246017",
  "html_url": "https://github.com/Azure/azure-sdk-for-net/pull/359#issuecomment-30246017",
  "issue_url": "https://api.github.com/repos/Azure/azure-sdk-for-net/issues/359",
  "id": 30246017,
  "user": {
    "login": "christav",
    "id": 1987321,
    "avatar_url": "https://avatars.githubusercontent.com/u/1987321?v=3",
    "gravatar_id": "",
    "url": "https://api.github.com/users/christav",
    "html_url": "https://github.com/christav",
    "followers_url": "https://api.github.com/users/christav/followers",
    "following_url": "https://api.github.com/users/christav/following{/other_user}",
    "gists_url": "https://api.github.com/users/christav/gists{/gist_id}",
    "starred_url": "https://api.github.com/users/christav/starred{/owner}{/repo}",
    "subscriptions_url": "https://api.github.com/users/christav/subscriptions",
    "organizations_url": "https://api.github.com/users/christav/orgs",
    "repos_url": "https://api.github.com/users/christav/repos",
    "events_url": "https://api.github.com/users/christav/events{/privacy}",
    "received_events_url": "https://api.github.com/users/christav/received_events",
    "type": "User",
    "site_admin": false
  },
  "created_at": "2013-12-10T17:00:27Z",
  "updated_at": "2013-12-10T17:00:27Z",
  "body": "LGTM, and trivial to back out if it doesn't help.\r\n"
}
, {
  "url": "https://api.github.com/repos/Azure/azure-sdk-for-net/issues/comments/30249792",
  "html_url": "https://github.com/Azure/azure-sdk-for-net/pull/359#issuecomment-30249792",
  "issue_url": "https://api.github.com/repos/Azure/azure-sdk-for-net/issues/359",
  "id": 30249792,
  "user": {
    "login": "jeffwilcox",
    "id": 427913,
    "avatar_url": "https://avatars.githubusercontent.com/u/427913?v=3",
    "gravatar_id": "",
    "url": "https://api.github.com/users/jeffwilcox",
    "html_url": "https://github.com/jeffwilcox",
    "followers_url": "https://api.github.com/users/jeffwilcox/followers",
    "following_url": "https://api.github.com/users/jeffwilcox/following{/other_user}",
    "gists_url": "https://api.github.com/users/jeffwilcox/gists{/gist_id}",
    "starred_url": "https://api.github.com/users/jeffwilcox/starred{/owner}{/repo}",
    "subscriptions_url": "https://api.github.com/users/jeffwilcox/subscriptions",
    "organizations_url": "https://api.github.com/users/jeffwilcox/orgs",
    "repos_url": "https://api.github.com/users/jeffwilcox/repos",
    "events_url": "https://api.github.com/users/jeffwilcox/events{/privacy}",
    "received_events_url": "https://api.github.com/users/jeffwilcox/received_events",
    "type": "User",
    "site_admin": false
  },
  "created_at": "2013-12-10T17:39:54Z",
  "updated_at": "2013-12-10T17:39:54Z",
  "body": "Sounds like we may not need to take this fix."
}
]
