[
{
  "url": "https://api.github.com/repos/Azure/azure-sdk-for-net/issues/comments/160492281",
  "html_url": "https://github.com/Azure/azure-sdk-for-net/issues/1519#issuecomment-160492281",
  "issue_url": "https://api.github.com/repos/Azure/azure-sdk-for-net/issues/1519",
  "id": 160492281,
  "user": {
    "login": "hovsepm",
    "id": 7052173,
    "avatar_url": "https://avatars.githubusercontent.com/u/7052173?v=3",
    "gravatar_id": "",
    "url": "https://api.github.com/users/hovsepm",
    "html_url": "https://github.com/hovsepm",
    "followers_url": "https://api.github.com/users/hovsepm/followers",
    "following_url": "https://api.github.com/users/hovsepm/following{/other_user}",
    "gists_url": "https://api.github.com/users/hovsepm/gists{/gist_id}",
    "starred_url": "https://api.github.com/users/hovsepm/starred{/owner}{/repo}",
    "subscriptions_url": "https://api.github.com/users/hovsepm/subscriptions",
    "organizations_url": "https://api.github.com/users/hovsepm/orgs",
    "repos_url": "https://api.github.com/users/hovsepm/repos",
    "events_url": "https://api.github.com/users/hovsepm/events{/privacy}",
    "received_events_url": "https://api.github.com/users/hovsepm/received_events",
    "type": "User",
    "site_admin": false
  },
  "created_at": "2015-11-30T01:18:00Z",
  "updated_at": "2015-11-30T01:18:00Z",
  "body": "Closed according to @MarkDaviesAP comment \"Ignore this\".... "
}
]
