[
{
  "url": "https://api.github.com/repos/Azure/azure-sdk-for-net/issues/comments/13101035",
  "html_url": "https://github.com/Azure/azure-sdk-for-net/issues/173#issuecomment-13101035",
  "issue_url": "https://api.github.com/repos/Azure/azure-sdk-for-net/issues/173",
  "id": 13101035,
  "user": {
    "login": "joeg",
    "id": 1127347,
    "avatar_url": "https://avatars.githubusercontent.com/u/1127347?v=3",
    "gravatar_id": "",
    "url": "https://api.github.com/users/joeg",
    "html_url": "https://github.com/joeg",
    "followers_url": "https://api.github.com/users/joeg/followers",
    "following_url": "https://api.github.com/users/joeg/following{/other_user}",
    "gists_url": "https://api.github.com/users/joeg/gists{/gist_id}",
    "starred_url": "https://api.github.com/users/joeg/starred{/owner}{/repo}",
    "subscriptions_url": "https://api.github.com/users/joeg/subscriptions",
    "organizations_url": "https://api.github.com/users/joeg/orgs",
    "repos_url": "https://api.github.com/users/joeg/repos",
    "events_url": "https://api.github.com/users/joeg/events{/privacy}",
    "received_events_url": "https://api.github.com/users/joeg/received_events",
    "type": "User",
    "site_admin": false
  },
  "created_at": "2013-02-04T21:38:19Z",
  "updated_at": "2013-02-04T21:38:19Z",
  "body": "This is because Azure Tables does not support the entire Date range that is representable via a DateTime. A new constant has been included in 2.0.4 to aid users  : Microsoft.WindowsAzure.Storage.Table.Protocol.TableConstants.MinDateTime. If you require a default value I would suggest using a nullable type (DateTime?). \r\n\r\nAdditionally, TableEntity does not honor the DataServiceKey attribute, as this attribute is reserved for use with WCF Data services. "
}
, {
  "url": "https://api.github.com/repos/Azure/azure-sdk-for-net/issues/comments/13116588",
  "html_url": "https://github.com/Azure/azure-sdk-for-net/issues/173#issuecomment-13116588",
  "issue_url": "https://api.github.com/repos/Azure/azure-sdk-for-net/issues/173",
  "id": 13116588,
  "user": {
    "login": "TorbenRahbekKoch",
    "id": 3320159,
    "avatar_url": "https://avatars.githubusercontent.com/u/3320159?v=3",
    "gravatar_id": "",
    "url": "https://api.github.com/users/TorbenRahbekKoch",
    "html_url": "https://github.com/TorbenRahbekKoch",
    "followers_url": "https://api.github.com/users/TorbenRahbekKoch/followers",
    "following_url": "https://api.github.com/users/TorbenRahbekKoch/following{/other_user}",
    "gists_url": "https://api.github.com/users/TorbenRahbekKoch/gists{/gist_id}",
    "starred_url": "https://api.github.com/users/TorbenRahbekKoch/starred{/owner}{/repo}",
    "subscriptions_url": "https://api.github.com/users/TorbenRahbekKoch/subscriptions",
    "organizations_url": "https://api.github.com/users/TorbenRahbekKoch/orgs",
    "repos_url": "https://api.github.com/users/TorbenRahbekKoch/repos",
    "events_url": "https://api.github.com/users/TorbenRahbekKoch/events{/privacy}",
    "received_events_url": "https://api.github.com/users/TorbenRahbekKoch/received_events",
    "type": "User",
    "site_admin": false
  },
  "created_at": "2013-02-05T06:37:00Z",
  "updated_at": "2013-02-05T06:37:00Z",
  "body": "Thanks for the tip with the DataServiceKey attribute, it probably survived from some sample code used against the old API ;)\r\n\r\nThere's two problems here: \r\n\r\n1. I am allowed to store the value, at least the Insert operation does not fail. It does, on retrospect, return a http 204, but it still stores some data under the given keys. I found this bug by accident, simply by forgetting to give the data a valid value, and had real trouble figuring out why I could not retrieve it again.\r\n\r\n2. That Azure Tables, for whatever reason, does not support the entire Date range. I cannot understand why anyone would want to restrict the range. You are bound by that, obviously, so it seems that if one would want to use the entire Date range, it should be done using strings. That's a strange design decision. Any inside knowledge on to why this is so?"
}
, {
  "url": "https://api.github.com/repos/Azure/azure-sdk-for-net/issues/comments/13144374",
  "html_url": "https://github.com/Azure/azure-sdk-for-net/issues/173#issuecomment-13144374",
  "issue_url": "https://api.github.com/repos/Azure/azure-sdk-for-net/issues/173",
  "id": 13144374,
  "user": {
    "login": "joeg",
    "id": 1127347,
    "avatar_url": "https://avatars.githubusercontent.com/u/1127347?v=3",
    "gravatar_id": "",
    "url": "https://api.github.com/users/joeg",
    "html_url": "https://github.com/joeg",
    "followers_url": "https://api.github.com/users/joeg/followers",
    "following_url": "https://api.github.com/users/joeg/following{/other_user}",
    "gists_url": "https://api.github.com/users/joeg/gists{/gist_id}",
    "starred_url": "https://api.github.com/users/joeg/starred{/owner}{/repo}",
    "subscriptions_url": "https://api.github.com/users/joeg/subscriptions",
    "organizations_url": "https://api.github.com/users/joeg/orgs",
    "repos_url": "https://api.github.com/users/joeg/repos",
    "events_url": "https://api.github.com/users/joeg/events{/privacy}",
    "received_events_url": "https://api.github.com/users/joeg/received_events",
    "type": "User",
    "site_admin": false
  },
  "created_at": "2013-02-05T18:41:19Z",
  "updated_at": "2013-02-05T18:41:19Z",
  "body": "1. Could you provide a fiddler trace for this repro. When I attempt this I get an BadRequest - out of range from the server on the insert (as expected). You can send it to joegiard ( at ) Microsoft dot com. \r\n2. Lots of table stores have different date ranges and various languages have different constructs to represent those dates. i.e. DateTime/ DateTimeOffset in .net, Date/Calendar in Java, etc. In fact the underlying protocol, Odata defines its own restrictions as well. In fact SQL's min date time is 12:00:00 midnight, January 1, 1753 A.D.  ( http://msdn.microsoft.com/en-us/library/aa258271(v=sql.80).aspx)"
}
, {
  "url": "https://api.github.com/repos/Azure/azure-sdk-for-net/issues/comments/13149964",
  "html_url": "https://github.com/Azure/azure-sdk-for-net/issues/173#issuecomment-13149964",
  "issue_url": "https://api.github.com/repos/Azure/azure-sdk-for-net/issues/173",
  "id": 13149964,
  "user": {
    "login": "TorbenRahbekKoch",
    "id": 3320159,
    "avatar_url": "https://avatars.githubusercontent.com/u/3320159?v=3",
    "gravatar_id": "",
    "url": "https://api.github.com/users/TorbenRahbekKoch",
    "html_url": "https://github.com/TorbenRahbekKoch",
    "followers_url": "https://api.github.com/users/TorbenRahbekKoch/followers",
    "following_url": "https://api.github.com/users/TorbenRahbekKoch/following{/other_user}",
    "gists_url": "https://api.github.com/users/TorbenRahbekKoch/gists{/gist_id}",
    "starred_url": "https://api.github.com/users/TorbenRahbekKoch/starred{/owner}{/repo}",
    "subscriptions_url": "https://api.github.com/users/TorbenRahbekKoch/subscriptions",
    "organizations_url": "https://api.github.com/users/TorbenRahbekKoch/orgs",
    "repos_url": "https://api.github.com/users/TorbenRahbekKoch/repos",
    "events_url": "https://api.github.com/users/TorbenRahbekKoch/events{/privacy}",
    "received_events_url": "https://api.github.com/users/TorbenRahbekKoch/received_events",
    "type": "User",
    "site_admin": false
  },
  "created_at": "2013-02-05T20:27:01Z",
  "updated_at": "2013-02-05T20:27:01Z",
  "body": "1. I am using the Storage Emulator. It might have marginally different functionality in some areas, I guess. I will still try to get Fiddler to do a trace of it.\r\n2. SQL's datetime is weird, I agree. Luckily they now have the properly named datetime2. When creating Azure they weren't bound by any legacy stuff. But they still choose not to support applications with historic dates in them ;)\r\n"
}
, {
  "url": "https://api.github.com/repos/Azure/azure-sdk-for-net/issues/comments/13154765",
  "html_url": "https://github.com/Azure/azure-sdk-for-net/issues/173#issuecomment-13154765",
  "issue_url": "https://api.github.com/repos/Azure/azure-sdk-for-net/issues/173",
  "id": 13154765,
  "user": {
    "login": "joeg",
    "id": 1127347,
    "avatar_url": "https://avatars.githubusercontent.com/u/1127347?v=3",
    "gravatar_id": "",
    "url": "https://api.github.com/users/joeg",
    "html_url": "https://github.com/joeg",
    "followers_url": "https://api.github.com/users/joeg/followers",
    "following_url": "https://api.github.com/users/joeg/following{/other_user}",
    "gists_url": "https://api.github.com/users/joeg/gists{/gist_id}",
    "starred_url": "https://api.github.com/users/joeg/starred{/owner}{/repo}",
    "subscriptions_url": "https://api.github.com/users/joeg/subscriptions",
    "organizations_url": "https://api.github.com/users/joeg/orgs",
    "repos_url": "https://api.github.com/users/joeg/repos",
    "events_url": "https://api.github.com/users/joeg/events{/privacy}",
    "received_events_url": "https://api.github.com/users/joeg/received_events",
    "type": "User",
    "site_admin": false
  },
  "created_at": "2013-02-05T22:07:14Z",
  "updated_at": "2013-02-05T22:07:14Z",
  "body": "You can still get a trace using ipv4.fiddler, however this explains the discrepancy. (BTW The emulator is based off of SQL so it will have the SQL date restrictions). If you do this code in production you will get the same behavior I mentioned on the insert ( bad request). "
}
, {
  "url": "https://api.github.com/repos/Azure/azure-sdk-for-net/issues/comments/15569327",
  "html_url": "https://github.com/Azure/azure-sdk-for-net/issues/173#issuecomment-15569327",
  "issue_url": "https://api.github.com/repos/Azure/azure-sdk-for-net/issues/173",
  "id": 15569327,
  "user": {
    "login": "piyushjo",
    "id": 1577116,
    "avatar_url": "https://avatars.githubusercontent.com/u/1577116?v=3",
    "gravatar_id": "",
    "url": "https://api.github.com/users/piyushjo",
    "html_url": "https://github.com/piyushjo",
    "followers_url": "https://api.github.com/users/piyushjo/followers",
    "following_url": "https://api.github.com/users/piyushjo/following{/other_user}",
    "gists_url": "https://api.github.com/users/piyushjo/gists{/gist_id}",
    "starred_url": "https://api.github.com/users/piyushjo/starred{/owner}{/repo}",
    "subscriptions_url": "https://api.github.com/users/piyushjo/subscriptions",
    "organizations_url": "https://api.github.com/users/piyushjo/orgs",
    "repos_url": "https://api.github.com/users/piyushjo/repos",
    "events_url": "https://api.github.com/users/piyushjo/events{/privacy}",
    "received_events_url": "https://api.github.com/users/piyushjo/received_events",
    "type": "User",
    "site_admin": false
  },
  "created_at": "2013-03-28T05:22:27Z",
  "updated_at": "2013-03-28T05:22:27Z",
  "body": "Closing this. Please reactivate if any further action is required from the product teams side. "
}
]
