[
{
  "url": "https://api.github.com/repos/Netflix/archaius/issues/comments/77003092",
  "html_url": "https://github.com/Netflix/archaius/pull/224#issuecomment-77003092",
  "issue_url": "https://api.github.com/repos/Netflix/archaius/issues/224",
  "id": 77003092,
  "user": {
    "login": "cloudbees-pull-request-builder",
    "id": 2611310,
    "avatar_url": "https://avatars.githubusercontent.com/u/2611310?v=3",
    "gravatar_id": "",
    "url": "https://api.github.com/users/cloudbees-pull-request-builder",
    "html_url": "https://github.com/cloudbees-pull-request-builder",
    "followers_url": "https://api.github.com/users/cloudbees-pull-request-builder/followers",
    "following_url": "https://api.github.com/users/cloudbees-pull-request-builder/following{/other_user}",
    "gists_url": "https://api.github.com/users/cloudbees-pull-request-builder/gists{/gist_id}",
    "starred_url": "https://api.github.com/users/cloudbees-pull-request-builder/starred{/owner}{/repo}",
    "subscriptions_url": "https://api.github.com/users/cloudbees-pull-request-builder/subscriptions",
    "organizations_url": "https://api.github.com/users/cloudbees-pull-request-builder/orgs",
    "repos_url": "https://api.github.com/users/cloudbees-pull-request-builder/repos",
    "events_url": "https://api.github.com/users/cloudbees-pull-request-builder/events{/privacy}",
    "received_events_url": "https://api.github.com/users/cloudbees-pull-request-builder/received_events",
    "type": "User",
    "site_admin": false
  },
  "created_at": "2015-03-03T18:22:30Z",
  "updated_at": "2015-03-03T18:22:30Z",
  "body": "[archaius-pull-requests #128](https://netflixoss.ci.cloudbees.com/job/archaius-pull-requests/128/) FAILURE\nLooks like there's a problem with this pull request"
}
]
