[
{
  "url": "https://api.github.com/repos/Netflix/archaius/issues/comments/96679352",
  "html_url": "https://github.com/Netflix/archaius/issues/52#issuecomment-96679352",
  "issue_url": "https://api.github.com/repos/Netflix/archaius/issues/52",
  "id": 96679352,
  "user": {
    "login": "jpcaruana",
    "id": 31649,
    "avatar_url": "https://avatars.githubusercontent.com/u/31649?v=3",
    "gravatar_id": "",
    "url": "https://api.github.com/users/jpcaruana",
    "html_url": "https://github.com/jpcaruana",
    "followers_url": "https://api.github.com/users/jpcaruana/followers",
    "following_url": "https://api.github.com/users/jpcaruana/following{/other_user}",
    "gists_url": "https://api.github.com/users/jpcaruana/gists{/gist_id}",
    "starred_url": "https://api.github.com/users/jpcaruana/starred{/owner}{/repo}",
    "subscriptions_url": "https://api.github.com/users/jpcaruana/subscriptions",
    "organizations_url": "https://api.github.com/users/jpcaruana/orgs",
    "repos_url": "https://api.github.com/users/jpcaruana/repos",
    "events_url": "https://api.github.com/users/jpcaruana/events{/privacy}",
    "received_events_url": "https://api.github.com/users/jpcaruana/received_events",
    "type": "User",
    "site_admin": false
  },
  "created_at": "2015-04-27T14:39:54Z",
  "updated_at": "2015-04-27T14:39:54Z",
  "body": "updated link to javadoc: http://google.github.io/guice/api-docs/3.0/javadoc/com/google/inject/name/Names.html"
}
]
