[
{
  "login": "kr",
  "id": 4178,
  "avatar_url": "https://avatars.githubusercontent.com/u/4178?v=3",
  "gravatar_id": "",
  "url": "https://api.github.com/users/kr",
  "html_url": "https://github.com/kr",
  "followers_url": "https://api.github.com/users/kr/followers",
  "following_url": "https://api.github.com/users/kr/following{/other_user}",
  "gists_url": "https://api.github.com/users/kr/gists{/gist_id}",
  "starred_url": "https://api.github.com/users/kr/starred{/owner}{/repo}",
  "subscriptions_url": "https://api.github.com/users/kr/subscriptions",
  "organizations_url": "https://api.github.com/users/kr/orgs",
  "repos_url": "https://api.github.com/users/kr/repos",
  "events_url": "https://api.github.com/users/kr/events{/privacy}",
  "received_events_url": "https://api.github.com/users/kr/received_events",
  "type": "User",
  "site_admin": false,
  "contributions": 342
}
, {
  "login": "dustin",
  "id": 1779,
  "avatar_url": "https://avatars.githubusercontent.com/u/1779?v=3",
  "gravatar_id": "",
  "url": "https://api.github.com/users/dustin",
  "html_url": "https://github.com/dustin",
  "followers_url": "https://api.github.com/users/dustin/followers",
  "following_url": "https://api.github.com/users/dustin/following{/other_user}",
  "gists_url": "https://api.github.com/users/dustin/gists{/gist_id}",
  "starred_url": "https://api.github.com/users/dustin/starred{/owner}{/repo}",
  "subscriptions_url": "https://api.github.com/users/dustin/subscriptions",
  "organizations_url": "https://api.github.com/users/dustin/orgs",
  "repos_url": "https://api.github.com/users/dustin/repos",
  "events_url": "https://api.github.com/users/dustin/events{/privacy}",
  "received_events_url": "https://api.github.com/users/dustin/received_events",
  "type": "User",
  "site_admin": false,
  "contributions": 18
}
, {
  "login": "gbarr",
  "id": 32673,
  "avatar_url": "https://avatars.githubusercontent.com/u/32673?v=3",
  "gravatar_id": "",
  "url": "https://api.github.com/users/gbarr",
  "html_url": "https://github.com/gbarr",
  "followers_url": "https://api.github.com/users/gbarr/followers",
  "following_url": "https://api.github.com/users/gbarr/following{/other_user}",
  "gists_url": "https://api.github.com/users/gbarr/gists{/gist_id}",
  "starred_url": "https://api.github.com/users/gbarr/starred{/owner}{/repo}",
  "subscriptions_url": "https://api.github.com/users/gbarr/subscriptions",
  "organizations_url": "https://api.github.com/users/gbarr/orgs",
  "repos_url": "https://api.github.com/users/gbarr/repos",
  "events_url": "https://api.github.com/users/gbarr/events{/privacy}",
  "received_events_url": "https://api.github.com/users/gbarr/received_events",
  "type": "User",
  "site_admin": false,
  "contributions": 17
}
, {
  "login": "etanol",
  "id": 85804,
  "avatar_url": "https://avatars.githubusercontent.com/u/85804?v=3",
  "gravatar_id": "",
  "url": "https://api.github.com/users/etanol",
  "html_url": "https://github.com/etanol",
  "followers_url": "https://api.github.com/users/etanol/followers",
  "following_url": "https://api.github.com/users/etanol/following{/other_user}",
  "gists_url": "https://api.github.com/users/etanol/gists{/gist_id}",
  "starred_url": "https://api.github.com/users/etanol/starred{/owner}{/repo}",
  "subscriptions_url": "https://api.github.com/users/etanol/subscriptions",
  "organizations_url": "https://api.github.com/users/etanol/orgs",
  "repos_url": "https://api.github.com/users/etanol/repos",
  "events_url": "https://api.github.com/users/etanol/events{/privacy}",
  "received_events_url": "https://api.github.com/users/etanol/received_events",
  "type": "User",
  "site_admin": false,
  "contributions": 6
}
, {
  "login": "copiousfreetime",
  "id": 11256,
  "avatar_url": "https://avatars.githubusercontent.com/u/11256?v=3",
  "gravatar_id": "",
  "url": "https://api.github.com/users/copiousfreetime",
  "html_url": "https://github.com/copiousfreetime",
  "followers_url": "https://api.github.com/users/copiousfreetime/followers",
  "following_url": "https://api.github.com/users/copiousfreetime/following{/other_user}",
  "gists_url": "https://api.github.com/users/copiousfreetime/gists{/gist_id}",
  "starred_url": "https://api.github.com/users/copiousfreetime/starred{/owner}{/repo}",
  "subscriptions_url": "https://api.github.com/users/copiousfreetime/subscriptions",
  "organizations_url": "https://api.github.com/users/copiousfreetime/orgs",
  "repos_url": "https://api.github.com/users/copiousfreetime/repos",
  "events_url": "https://api.github.com/users/copiousfreetime/events{/privacy}",
  "received_events_url": "https://api.github.com/users/copiousfreetime/received_events",
  "type": "User",
  "site_admin": false,
  "contributions": 6
}
, {
  "login": "pda",
  "id": 15759,
  "avatar_url": "https://avatars.githubusercontent.com/u/15759?v=3",
  "gravatar_id": "",
  "url": "https://api.github.com/users/pda",
  "html_url": "https://github.com/pda",
  "followers_url": "https://api.github.com/users/pda/followers",
  "following_url": "https://api.github.com/users/pda/following{/other_user}",
  "gists_url": "https://api.github.com/users/pda/gists{/gist_id}",
  "starred_url": "https://api.github.com/users/pda/starred{/owner}{/repo}",
  "subscriptions_url": "https://api.github.com/users/pda/subscriptions",
  "organizations_url": "https://api.github.com/users/pda/orgs",
  "repos_url": "https://api.github.com/users/pda/repos",
  "events_url": "https://api.github.com/users/pda/events{/privacy}",
  "received_events_url": "https://api.github.com/users/pda/received_events",
  "type": "User",
  "site_admin": false,
  "contributions": 5
}
, {
  "login": "jbergstroem",
  "id": 176984,
  "avatar_url": "https://avatars.githubusercontent.com/u/176984?v=3",
  "gravatar_id": "",
  "url": "https://api.github.com/users/jbergstroem",
  "html_url": "https://github.com/jbergstroem",
  "followers_url": "https://api.github.com/users/jbergstroem/followers",
  "following_url": "https://api.github.com/users/jbergstroem/following{/other_user}",
  "gists_url": "https://api.github.com/users/jbergstroem/gists{/gist_id}",
  "starred_url": "https://api.github.com/users/jbergstroem/starred{/owner}{/repo}",
  "subscriptions_url": "https://api.github.com/users/jbergstroem/subscriptions",
  "organizations_url": "https://api.github.com/users/jbergstroem/orgs",
  "repos_url": "https://api.github.com/users/jbergstroem/repos",
  "events_url": "https://api.github.com/users/jbergstroem/events{/privacy}",
  "received_events_url": "https://api.github.com/users/jbergstroem/received_events",
  "type": "User",
  "site_admin": false,
  "contributions": 5
}
, {
  "login": "zqzjz0911",
  "id": 7539663,
  "avatar_url": "https://avatars.githubusercontent.com/u/7539663?v=3",
  "gravatar_id": "",
  "url": "https://api.github.com/users/zqzjz0911",
  "html_url": "https://github.com/zqzjz0911",
  "followers_url": "https://api.github.com/users/zqzjz0911/followers",
  "following_url": "https://api.github.com/users/zqzjz0911/following{/other_user}",
  "gists_url": "https://api.github.com/users/zqzjz0911/gists{/gist_id}",
  "starred_url": "https://api.github.com/users/zqzjz0911/starred{/owner}{/repo}",
  "subscriptions_url": "https://api.github.com/users/zqzjz0911/subscriptions",
  "organizations_url": "https://api.github.com/users/zqzjz0911/orgs",
  "repos_url": "https://api.github.com/users/zqzjz0911/repos",
  "events_url": "https://api.github.com/users/zqzjz0911/events{/privacy}",
  "received_events_url": "https://api.github.com/users/zqzjz0911/received_events",
  "type": "User",
  "site_admin": false,
  "contributions": 5
}
, {
  "login": "abh",
  "id": 16861,
  "avatar_url": "https://avatars.githubusercontent.com/u/16861?v=3",
  "gravatar_id": "",
  "url": "https://api.github.com/users/abh",
  "html_url": "https://github.com/abh",
  "followers_url": "https://api.github.com/users/abh/followers",
  "following_url": "https://api.github.com/users/abh/following{/other_user}",
  "gists_url": "https://api.github.com/users/abh/gists{/gist_id}",
  "starred_url": "https://api.github.com/users/abh/starred{/owner}{/repo}",
  "subscriptions_url": "https://api.github.com/users/abh/subscriptions",
  "organizations_url": "https://api.github.com/users/abh/orgs",
  "repos_url": "https://api.github.com/users/abh/repos",
  "events_url": "https://api.github.com/users/abh/events{/privacy}",
  "received_events_url": "https://api.github.com/users/abh/received_events",
  "type": "User",
  "site_admin": false,
  "contributions": 5
}
, {
  "login": "nicotaing",
  "id": 210432,
  "avatar_url": "https://avatars.githubusercontent.com/u/210432?v=3",
  "gravatar_id": "",
  "url": "https://api.github.com/users/nicotaing",
  "html_url": "https://github.com/nicotaing",
  "followers_url": "https://api.github.com/users/nicotaing/followers",
  "following_url": "https://api.github.com/users/nicotaing/following{/other_user}",
  "gists_url": "https://api.github.com/users/nicotaing/gists{/gist_id}",
  "starred_url": "https://api.github.com/users/nicotaing/starred{/owner}{/repo}",
  "subscriptions_url": "https://api.github.com/users/nicotaing/subscriptions",
  "organizations_url": "https://api.github.com/users/nicotaing/orgs",
  "repos_url": "https://api.github.com/users/nicotaing/repos",
  "events_url": "https://api.github.com/users/nicotaing/events{/privacy}",
  "received_events_url": "https://api.github.com/users/nicotaing/received_events",
  "type": "User",
  "site_admin": false,
  "contributions": 3
}
, {
  "login": "caidongyun",
  "id": 1638934,
  "avatar_url": "https://avatars.githubusercontent.com/u/1638934?v=3",
  "gravatar_id": "",
  "url": "https://api.github.com/users/caidongyun",
  "html_url": "https://github.com/caidongyun",
  "followers_url": "https://api.github.com/users/caidongyun/followers",
  "following_url": "https://api.github.com/users/caidongyun/following{/other_user}",
  "gists_url": "https://api.github.com/users/caidongyun/gists{/gist_id}",
  "starred_url": "https://api.github.com/users/caidongyun/starred{/owner}{/repo}",
  "subscriptions_url": "https://api.github.com/users/caidongyun/subscriptions",
  "organizations_url": "https://api.github.com/users/caidongyun/orgs",
  "repos_url": "https://api.github.com/users/caidongyun/repos",
  "events_url": "https://api.github.com/users/caidongyun/events{/privacy}",
  "received_events_url": "https://api.github.com/users/caidongyun/received_events",
  "type": "User",
  "site_admin": false,
  "contributions": 3
}
, {
  "login": "tony2001",
  "id": 42386,
  "avatar_url": "https://avatars.githubusercontent.com/u/42386?v=3",
  "gravatar_id": "",
  "url": "https://api.github.com/users/tony2001",
  "html_url": "https://github.com/tony2001",
  "followers_url": "https://api.github.com/users/tony2001/followers",
  "following_url": "https://api.github.com/users/tony2001/following{/other_user}",
  "gists_url": "https://api.github.com/users/tony2001/gists{/gist_id}",
  "starred_url": "https://api.github.com/users/tony2001/starred{/owner}{/repo}",
  "subscriptions_url": "https://api.github.com/users/tony2001/subscriptions",
  "organizations_url": "https://api.github.com/users/tony2001/orgs",
  "repos_url": "https://api.github.com/users/tony2001/repos",
  "events_url": "https://api.github.com/users/tony2001/events{/privacy}",
  "received_events_url": "https://api.github.com/users/tony2001/received_events",
  "type": "User",
  "site_admin": false,
  "contributions": 3
}
, {
  "login": "lericson",
  "id": 46901,
  "avatar_url": "https://avatars.githubusercontent.com/u/46901?v=3",
  "gravatar_id": "",
  "url": "https://api.github.com/users/lericson",
  "html_url": "https://github.com/lericson",
  "followers_url": "https://api.github.com/users/lericson/followers",
  "following_url": "https://api.github.com/users/lericson/following{/other_user}",
  "gists_url": "https://api.github.com/users/lericson/gists{/gist_id}",
  "starred_url": "https://api.github.com/users/lericson/starred{/owner}{/repo}",
  "subscriptions_url": "https://api.github.com/users/lericson/subscriptions",
  "organizations_url": "https://api.github.com/users/lericson/orgs",
  "repos_url": "https://api.github.com/users/lericson/repos",
  "events_url": "https://api.github.com/users/lericson/events{/privacy}",
  "received_events_url": "https://api.github.com/users/lericson/received_events",
  "type": "User",
  "site_admin": false,
  "contributions": 2
}
, {
  "login": "dolfelt",
  "id": 202546,
  "avatar_url": "https://avatars.githubusercontent.com/u/202546?v=3",
  "gravatar_id": "",
  "url": "https://api.github.com/users/dolfelt",
  "html_url": "https://github.com/dolfelt",
  "followers_url": "https://api.github.com/users/dolfelt/followers",
  "following_url": "https://api.github.com/users/dolfelt/following{/other_user}",
  "gists_url": "https://api.github.com/users/dolfelt/gists{/gist_id}",
  "starred_url": "https://api.github.com/users/dolfelt/starred{/owner}{/repo}",
  "subscriptions_url": "https://api.github.com/users/dolfelt/subscriptions",
  "organizations_url": "https://api.github.com/users/dolfelt/orgs",
  "repos_url": "https://api.github.com/users/dolfelt/repos",
  "events_url": "https://api.github.com/users/dolfelt/events{/privacy}",
  "received_events_url": "https://api.github.com/users/dolfelt/received_events",
  "type": "User",
  "site_admin": false,
  "contributions": 1
}
, {
  "login": "bmhatfield",
  "id": 1119967,
  "avatar_url": "https://avatars.githubusercontent.com/u/1119967?v=3",
  "gravatar_id": "",
  "url": "https://api.github.com/users/bmhatfield",
  "html_url": "https://github.com/bmhatfield",
  "followers_url": "https://api.github.com/users/bmhatfield/followers",
  "following_url": "https://api.github.com/users/bmhatfield/following{/other_user}",
  "gists_url": "https://api.github.com/users/bmhatfield/gists{/gist_id}",
  "starred_url": "https://api.github.com/users/bmhatfield/starred{/owner}{/repo}",
  "subscriptions_url": "https://api.github.com/users/bmhatfield/subscriptions",
  "organizations_url": "https://api.github.com/users/bmhatfield/orgs",
  "repos_url": "https://api.github.com/users/bmhatfield/repos",
  "events_url": "https://api.github.com/users/bmhatfield/events{/privacy}",
  "received_events_url": "https://api.github.com/users/bmhatfield/received_events",
  "type": "User",
  "site_admin": false,
  "contributions": 1
}
, {
  "login": "blueness",
  "id": 297301,
  "avatar_url": "https://avatars.githubusercontent.com/u/297301?v=3",
  "gravatar_id": "",
  "url": "https://api.github.com/users/blueness",
  "html_url": "https://github.com/blueness",
  "followers_url": "https://api.github.com/users/blueness/followers",
  "following_url": "https://api.github.com/users/blueness/following{/other_user}",
  "gists_url": "https://api.github.com/users/blueness/gists{/gist_id}",
  "starred_url": "https://api.github.com/users/blueness/starred{/owner}{/repo}",
  "subscriptions_url": "https://api.github.com/users/blueness/subscriptions",
  "organizations_url": "https://api.github.com/users/blueness/orgs",
  "repos_url": "https://api.github.com/users/blueness/repos",
  "events_url": "https://api.github.com/users/blueness/events{/privacy}",
  "received_events_url": "https://api.github.com/users/blueness/received_events",
  "type": "User",
  "site_admin": false,
  "contributions": 1
}
, {
  "login": "tdg5",
  "id": 2316989,
  "avatar_url": "https://avatars.githubusercontent.com/u/2316989?v=3",
  "gravatar_id": "",
  "url": "https://api.github.com/users/tdg5",
  "html_url": "https://github.com/tdg5",
  "followers_url": "https://api.github.com/users/tdg5/followers",
  "following_url": "https://api.github.com/users/tdg5/following{/other_user}",
  "gists_url": "https://api.github.com/users/tdg5/gists{/gist_id}",
  "starred_url": "https://api.github.com/users/tdg5/starred{/owner}{/repo}",
  "subscriptions_url": "https://api.github.com/users/tdg5/subscriptions",
  "organizations_url": "https://api.github.com/users/tdg5/orgs",
  "repos_url": "https://api.github.com/users/tdg5/repos",
  "events_url": "https://api.github.com/users/tdg5/events{/privacy}",
  "received_events_url": "https://api.github.com/users/tdg5/received_events",
  "type": "User",
  "site_admin": false,
  "contributions": 1
}
, {
  "login": "drasch",
  "id": 221605,
  "avatar_url": "https://avatars.githubusercontent.com/u/221605?v=3",
  "gravatar_id": "",
  "url": "https://api.github.com/users/drasch",
  "html_url": "https://github.com/drasch",
  "followers_url": "https://api.github.com/users/drasch/followers",
  "following_url": "https://api.github.com/users/drasch/following{/other_user}",
  "gists_url": "https://api.github.com/users/drasch/gists{/gist_id}",
  "starred_url": "https://api.github.com/users/drasch/starred{/owner}{/repo}",
  "subscriptions_url": "https://api.github.com/users/drasch/subscriptions",
  "organizations_url": "https://api.github.com/users/drasch/orgs",
  "repos_url": "https://api.github.com/users/drasch/repos",
  "events_url": "https://api.github.com/users/drasch/events{/privacy}",
  "received_events_url": "https://api.github.com/users/drasch/received_events",
  "type": "User",
  "site_admin": false,
  "contributions": 1
}
, {
  "login": "sophacles",
  "id": 30170,
  "avatar_url": "https://avatars.githubusercontent.com/u/30170?v=3",
  "gravatar_id": "",
  "url": "https://api.github.com/users/sophacles",
  "html_url": "https://github.com/sophacles",
  "followers_url": "https://api.github.com/users/sophacles/followers",
  "following_url": "https://api.github.com/users/sophacles/following{/other_user}",
  "gists_url": "https://api.github.com/users/sophacles/gists{/gist_id}",
  "starred_url": "https://api.github.com/users/sophacles/starred{/owner}{/repo}",
  "subscriptions_url": "https://api.github.com/users/sophacles/subscriptions",
  "organizations_url": "https://api.github.com/users/sophacles/orgs",
  "repos_url": "https://api.github.com/users/sophacles/repos",
  "events_url": "https://api.github.com/users/sophacles/events{/privacy}",
  "received_events_url": "https://api.github.com/users/sophacles/received_events",
  "type": "User",
  "site_admin": false,
  "contributions": 1
}
, {
  "login": "gregoryp",
  "id": 998941,
  "avatar_url": "https://avatars.githubusercontent.com/u/998941?v=3",
  "gravatar_id": "",
  "url": "https://api.github.com/users/gregoryp",
  "html_url": "https://github.com/gregoryp",
  "followers_url": "https://api.github.com/users/gregoryp/followers",
  "following_url": "https://api.github.com/users/gregoryp/following{/other_user}",
  "gists_url": "https://api.github.com/users/gregoryp/gists{/gist_id}",
  "starred_url": "https://api.github.com/users/gregoryp/starred{/owner}{/repo}",
  "subscriptions_url": "https://api.github.com/users/gregoryp/subscriptions",
  "organizations_url": "https://api.github.com/users/gregoryp/orgs",
  "repos_url": "https://api.github.com/users/gregoryp/repos",
  "events_url": "https://api.github.com/users/gregoryp/events{/privacy}",
  "received_events_url": "https://api.github.com/users/gregoryp/received_events",
  "type": "User",
  "site_admin": false,
  "contributions": 1
}
, {
  "login": "jcbsnd",
  "id": 10650853,
  "avatar_url": "https://avatars.githubusercontent.com/u/10650853?v=3",
  "gravatar_id": "",
  "url": "https://api.github.com/users/jcbsnd",
  "html_url": "https://github.com/jcbsnd",
  "followers_url": "https://api.github.com/users/jcbsnd/followers",
  "following_url": "https://api.github.com/users/jcbsnd/following{/other_user}",
  "gists_url": "https://api.github.com/users/jcbsnd/gists{/gist_id}",
  "starred_url": "https://api.github.com/users/jcbsnd/starred{/owner}{/repo}",
  "subscriptions_url": "https://api.github.com/users/jcbsnd/subscriptions",
  "organizations_url": "https://api.github.com/users/jcbsnd/orgs",
  "repos_url": "https://api.github.com/users/jcbsnd/repos",
  "events_url": "https://api.github.com/users/jcbsnd/events{/privacy}",
  "received_events_url": "https://api.github.com/users/jcbsnd/received_events",
  "type": "User",
  "site_admin": false,
  "contributions": 1
}
, {
  "login": "JensRantil",
  "id": 730342,
  "avatar_url": "https://avatars.githubusercontent.com/u/730342?v=3",
  "gravatar_id": "",
  "url": "https://api.github.com/users/JensRantil",
  "html_url": "https://github.com/JensRantil",
  "followers_url": "https://api.github.com/users/JensRantil/followers",
  "following_url": "https://api.github.com/users/JensRantil/following{/other_user}",
  "gists_url": "https://api.github.com/users/JensRantil/gists{/gist_id}",
  "starred_url": "https://api.github.com/users/JensRantil/starred{/owner}{/repo}",
  "subscriptions_url": "https://api.github.com/users/JensRantil/subscriptions",
  "organizations_url": "https://api.github.com/users/JensRantil/orgs",
  "repos_url": "https://api.github.com/users/JensRantil/repos",
  "events_url": "https://api.github.com/users/JensRantil/events{/privacy}",
  "received_events_url": "https://api.github.com/users/JensRantil/received_events",
  "type": "User",
  "site_admin": false,
  "contributions": 1
}
, {
  "login": "cincodenada",
  "id": 479715,
  "avatar_url": "https://avatars.githubusercontent.com/u/479715?v=3",
  "gravatar_id": "",
  "url": "https://api.github.com/users/cincodenada",
  "html_url": "https://github.com/cincodenada",
  "followers_url": "https://api.github.com/users/cincodenada/followers",
  "following_url": "https://api.github.com/users/cincodenada/following{/other_user}",
  "gists_url": "https://api.github.com/users/cincodenada/gists{/gist_id}",
  "starred_url": "https://api.github.com/users/cincodenada/starred{/owner}{/repo}",
  "subscriptions_url": "https://api.github.com/users/cincodenada/subscriptions",
  "organizations_url": "https://api.github.com/users/cincodenada/orgs",
  "repos_url": "https://api.github.com/users/cincodenada/repos",
  "events_url": "https://api.github.com/users/cincodenada/events{/privacy}",
  "received_events_url": "https://api.github.com/users/cincodenada/received_events",
  "type": "User",
  "site_admin": false,
  "contributions": 1
}
, {
  "login": "joncooper",
  "id": 286818,
  "avatar_url": "https://avatars.githubusercontent.com/u/286818?v=3",
  "gravatar_id": "",
  "url": "https://api.github.com/users/joncooper",
  "html_url": "https://github.com/joncooper",
  "followers_url": "https://api.github.com/users/joncooper/followers",
  "following_url": "https://api.github.com/users/joncooper/following{/other_user}",
  "gists_url": "https://api.github.com/users/joncooper/gists{/gist_id}",
  "starred_url": "https://api.github.com/users/joncooper/starred{/owner}{/repo}",
  "subscriptions_url": "https://api.github.com/users/joncooper/subscriptions",
  "organizations_url": "https://api.github.com/users/joncooper/orgs",
  "repos_url": "https://api.github.com/users/joncooper/repos",
  "events_url": "https://api.github.com/users/joncooper/events{/privacy}",
  "received_events_url": "https://api.github.com/users/joncooper/received_events",
  "type": "User",
  "site_admin": false,
  "contributions": 1
}
, {
  "login": "karenetheridge",
  "id": 303051,
  "avatar_url": "https://avatars.githubusercontent.com/u/303051?v=3",
  "gravatar_id": "",
  "url": "https://api.github.com/users/karenetheridge",
  "html_url": "https://github.com/karenetheridge",
  "followers_url": "https://api.github.com/users/karenetheridge/followers",
  "following_url": "https://api.github.com/users/karenetheridge/following{/other_user}",
  "gists_url": "https://api.github.com/users/karenetheridge/gists{/gist_id}",
  "starred_url": "https://api.github.com/users/karenetheridge/starred{/owner}{/repo}",
  "subscriptions_url": "https://api.github.com/users/karenetheridge/subscriptions",
  "organizations_url": "https://api.github.com/users/karenetheridge/orgs",
  "repos_url": "https://api.github.com/users/karenetheridge/repos",
  "events_url": "https://api.github.com/users/karenetheridge/events{/privacy}",
  "received_events_url": "https://api.github.com/users/karenetheridge/received_events",
  "type": "User",
  "site_admin": false,
  "contributions": 1
}
, {
  "login": "manveru",
  "id": 3507,
  "avatar_url": "https://avatars.githubusercontent.com/u/3507?v=3",
  "gravatar_id": "",
  "url": "https://api.github.com/users/manveru",
  "html_url": "https://github.com/manveru",
  "followers_url": "https://api.github.com/users/manveru/followers",
  "following_url": "https://api.github.com/users/manveru/following{/other_user}",
  "gists_url": "https://api.github.com/users/manveru/gists{/gist_id}",
  "starred_url": "https://api.github.com/users/manveru/starred{/owner}{/repo}",
  "subscriptions_url": "https://api.github.com/users/manveru/subscriptions",
  "organizations_url": "https://api.github.com/users/manveru/orgs",
  "repos_url": "https://api.github.com/users/manveru/repos",
  "events_url": "https://api.github.com/users/manveru/events{/privacy}",
  "received_events_url": "https://api.github.com/users/manveru/received_events",
  "type": "User",
  "site_admin": false,
  "contributions": 1
}
, {
  "login": "noahwilliamsson",
  "id": 91926,
  "avatar_url": "https://avatars.githubusercontent.com/u/91926?v=3",
  "gravatar_id": "",
  "url": "https://api.github.com/users/noahwilliamsson",
  "html_url": "https://github.com/noahwilliamsson",
  "followers_url": "https://api.github.com/users/noahwilliamsson/followers",
  "following_url": "https://api.github.com/users/noahwilliamsson/following{/other_user}",
  "gists_url": "https://api.github.com/users/noahwilliamsson/gists{/gist_id}",
  "starred_url": "https://api.github.com/users/noahwilliamsson/starred{/owner}{/repo}",
  "subscriptions_url": "https://api.github.com/users/noahwilliamsson/subscriptions",
  "organizations_url": "https://api.github.com/users/noahwilliamsson/orgs",
  "repos_url": "https://api.github.com/users/noahwilliamsson/repos",
  "events_url": "https://api.github.com/users/noahwilliamsson/events{/privacy}",
  "received_events_url": "https://api.github.com/users/noahwilliamsson/received_events",
  "type": "User",
  "site_admin": false,
  "contributions": 1
}
, {
  "login": "sempr",
  "id": 760120,
  "avatar_url": "https://avatars.githubusercontent.com/u/760120?v=3",
  "gravatar_id": "",
  "url": "https://api.github.com/users/sempr",
  "html_url": "https://github.com/sempr",
  "followers_url": "https://api.github.com/users/sempr/followers",
  "following_url": "https://api.github.com/users/sempr/following{/other_user}",
  "gists_url": "https://api.github.com/users/sempr/gists{/gist_id}",
  "starred_url": "https://api.github.com/users/sempr/starred{/owner}{/repo}",
  "subscriptions_url": "https://api.github.com/users/sempr/subscriptions",
  "organizations_url": "https://api.github.com/users/sempr/orgs",
  "repos_url": "https://api.github.com/users/sempr/repos",
  "events_url": "https://api.github.com/users/sempr/events{/privacy}",
  "received_events_url": "https://api.github.com/users/sempr/received_events",
  "type": "User",
  "site_admin": false,
  "contributions": 1
}
, {
  "login": "stephan-hof",
  "id": 620934,
  "avatar_url": "https://avatars.githubusercontent.com/u/620934?v=3",
  "gravatar_id": "",
  "url": "https://api.github.com/users/stephan-hof",
  "html_url": "https://github.com/stephan-hof",
  "followers_url": "https://api.github.com/users/stephan-hof/followers",
  "following_url": "https://api.github.com/users/stephan-hof/following{/other_user}",
  "gists_url": "https://api.github.com/users/stephan-hof/gists{/gist_id}",
  "starred_url": "https://api.github.com/users/stephan-hof/starred{/owner}{/repo}",
  "subscriptions_url": "https://api.github.com/users/stephan-hof/subscriptions",
  "organizations_url": "https://api.github.com/users/stephan-hof/orgs",
  "repos_url": "https://api.github.com/users/stephan-hof/repos",
  "events_url": "https://api.github.com/users/stephan-hof/events{/privacy}",
  "received_events_url": "https://api.github.com/users/stephan-hof/received_events",
  "type": "User",
  "site_admin": false,
  "contributions": 1
}
, {
  "login": "zhan",
  "id": 156322,
  "avatar_url": "https://avatars.githubusercontent.com/u/156322?v=3",
  "gravatar_id": "",
  "url": "https://api.github.com/users/zhan",
  "html_url": "https://github.com/zhan",
  "followers_url": "https://api.github.com/users/zhan/followers",
  "following_url": "https://api.github.com/users/zhan/following{/other_user}",
  "gists_url": "https://api.github.com/users/zhan/gists{/gist_id}",
  "starred_url": "https://api.github.com/users/zhan/starred{/owner}{/repo}",
  "subscriptions_url": "https://api.github.com/users/zhan/subscriptions",
  "organizations_url": "https://api.github.com/users/zhan/orgs",
  "repos_url": "https://api.github.com/users/zhan/repos",
  "events_url": "https://api.github.com/users/zhan/events{/privacy}",
  "received_events_url": "https://api.github.com/users/zhan/received_events",
  "type": "User",
  "site_admin": false,
  "contributions": 1
}
, {
  "login": "sebest",
  "id": 115339,
  "avatar_url": "https://avatars.githubusercontent.com/u/115339?v=3",
  "gravatar_id": "",
  "url": "https://api.github.com/users/sebest",
  "html_url": "https://github.com/sebest",
  "followers_url": "https://api.github.com/users/sebest/followers",
  "following_url": "https://api.github.com/users/sebest/following{/other_user}",
  "gists_url": "https://api.github.com/users/sebest/gists{/gist_id}",
  "starred_url": "https://api.github.com/users/sebest/starred{/owner}{/repo}",
  "subscriptions_url": "https://api.github.com/users/sebest/subscriptions",
  "organizations_url": "https://api.github.com/users/sebest/orgs",
  "repos_url": "https://api.github.com/users/sebest/repos",
  "events_url": "https://api.github.com/users/sebest/events{/privacy}",
  "received_events_url": "https://api.github.com/users/sebest/received_events",
  "type": "User",
  "site_admin": false,
  "contributions": 1
}
]
