[
{
  "url": "https://api.github.com/repos/Microsoft/TouchDevelop/issues/comments/170159172",
  "html_url": "https://github.com/Microsoft/TouchDevelop/issues/244#issuecomment-170159172",
  "issue_url": "https://api.github.com/repos/Microsoft/TouchDevelop/issues/244",
  "id": 170159172,
  "user": {
    "login": "millerv",
    "id": 2482509,
    "avatar_url": "https://avatars.githubusercontent.com/u/2482509?v=3",
    "gravatar_id": "",
    "url": "https://api.github.com/users/millerv",
    "html_url": "https://github.com/millerv",
    "followers_url": "https://api.github.com/users/millerv/followers",
    "following_url": "https://api.github.com/users/millerv/following{/other_user}",
    "gists_url": "https://api.github.com/users/millerv/gists{/gist_id}",
    "starred_url": "https://api.github.com/users/millerv/starred{/owner}{/repo}",
    "subscriptions_url": "https://api.github.com/users/millerv/subscriptions",
    "organizations_url": "https://api.github.com/users/millerv/orgs",
    "repos_url": "https://api.github.com/users/millerv/repos",
    "events_url": "https://api.github.com/users/millerv/events{/privacy}",
    "received_events_url": "https://api.github.com/users/millerv/received_events",
    "type": "User",
    "site_admin": false
  },
  "created_at": "2016-01-08T23:52:04Z",
  "updated_at": "2016-01-08T23:52:04Z",
  "body": "Given the changes to function parameters and other updates since this bug, I can't seem to reproduce this - Rick, can you see if this still occurs if you try it out?"
}
, {
  "url": "https://api.github.com/repos/Microsoft/TouchDevelop/issues/comments/170693826",
  "html_url": "https://github.com/Microsoft/TouchDevelop/issues/244#issuecomment-170693826",
  "issue_url": "https://api.github.com/repos/Microsoft/TouchDevelop/issues/244",
  "id": 170693826,
  "user": {
    "login": "RickGMSR",
    "id": 15837908,
    "avatar_url": "https://avatars.githubusercontent.com/u/15837908?v=3",
    "gravatar_id": "",
    "url": "https://api.github.com/users/RickGMSR",
    "html_url": "https://github.com/RickGMSR",
    "followers_url": "https://api.github.com/users/RickGMSR/followers",
    "following_url": "https://api.github.com/users/RickGMSR/following{/other_user}",
    "gists_url": "https://api.github.com/users/RickGMSR/gists{/gist_id}",
    "starred_url": "https://api.github.com/users/RickGMSR/starred{/owner}{/repo}",
    "subscriptions_url": "https://api.github.com/users/RickGMSR/subscriptions",
    "organizations_url": "https://api.github.com/users/RickGMSR/orgs",
    "repos_url": "https://api.github.com/users/RickGMSR/repos",
    "events_url": "https://api.github.com/users/RickGMSR/events{/privacy}",
    "received_events_url": "https://api.github.com/users/RickGMSR/received_events",
    "type": "User",
    "site_admin": false
  },
  "created_at": "2016-01-11T21:23:00Z",
  "updated_at": "2016-01-11T21:23:00Z",
  "body": "I tried to re-create the same script but I could not even insert a comment in the location that he was able to. Inserting comments worked fine without a crash"
}
, {
  "url": "https://api.github.com/repos/Microsoft/TouchDevelop/issues/comments/178749890",
  "html_url": "https://github.com/Microsoft/TouchDevelop/issues/244#issuecomment-178749890",
  "issue_url": "https://api.github.com/repos/Microsoft/TouchDevelop/issues/244",
  "id": 178749890,
  "user": {
    "login": "millerv",
    "id": 2482509,
    "avatar_url": "https://avatars.githubusercontent.com/u/2482509?v=3",
    "gravatar_id": "",
    "url": "https://api.github.com/users/millerv",
    "html_url": "https://github.com/millerv",
    "followers_url": "https://api.github.com/users/millerv/followers",
    "following_url": "https://api.github.com/users/millerv/following{/other_user}",
    "gists_url": "https://api.github.com/users/millerv/gists{/gist_id}",
    "starred_url": "https://api.github.com/users/millerv/starred{/owner}{/repo}",
    "subscriptions_url": "https://api.github.com/users/millerv/subscriptions",
    "organizations_url": "https://api.github.com/users/millerv/orgs",
    "repos_url": "https://api.github.com/users/millerv/repos",
    "events_url": "https://api.github.com/users/millerv/events{/privacy}",
    "received_events_url": "https://api.github.com/users/millerv/received_events",
    "type": "User",
    "site_admin": false
  },
  "created_at": "2016-02-02T18:41:36Z",
  "updated_at": "2016-02-02T18:41:36Z",
  "body": "Closing issue as no repro."
}
]
