[
{
  "url": "https://api.github.com/repos/elastic/elasticsearch-net/issues/comments/71037235",
  "html_url": "https://github.com/elastic/elasticsearch-net/issues/1209#issuecomment-71037235",
  "issue_url": "https://api.github.com/repos/elastic/elasticsearch-net/issues/1209",
  "id": 71037235,
  "user": {
    "login": "gmarz",
    "id": 1594777,
    "avatar_url": "https://avatars.githubusercontent.com/u/1594777?v=3",
    "gravatar_id": "",
    "url": "https://api.github.com/users/gmarz",
    "html_url": "https://github.com/gmarz",
    "followers_url": "https://api.github.com/users/gmarz/followers",
    "following_url": "https://api.github.com/users/gmarz/following{/other_user}",
    "gists_url": "https://api.github.com/users/gmarz/gists{/gist_id}",
    "starred_url": "https://api.github.com/users/gmarz/starred{/owner}{/repo}",
    "subscriptions_url": "https://api.github.com/users/gmarz/subscriptions",
    "organizations_url": "https://api.github.com/users/gmarz/orgs",
    "repos_url": "https://api.github.com/users/gmarz/repos",
    "events_url": "https://api.github.com/users/gmarz/events{/privacy}",
    "received_events_url": "https://api.github.com/users/gmarz/received_events",
    "type": "User",
    "site_admin": false
  },
  "created_at": "2015-01-22T15:26:38Z",
  "updated_at": "2015-01-22T15:26:38Z",
  "body": "Hi @jplusje \r\n\r\nTry enabling HTTP compression in your ES settings `http.compression: true`: http://www.elasticsearch.org/guide/en/elasticsearch/reference/current/modules-http.html\r\n\r\nand enabling compressed responses on the client:\r\n```csharp\r\nnew ConnectionSettings(...).EnableCompressedResponses();\r\n```\r\n\r\nwhich will add `Accept-Encoding: gzip,deflated` to the request."
}
, {
  "url": "https://api.github.com/repos/elastic/elasticsearch-net/issues/comments/71038596",
  "html_url": "https://github.com/elastic/elasticsearch-net/issues/1209#issuecomment-71038596",
  "issue_url": "https://api.github.com/repos/elastic/elasticsearch-net/issues/1209",
  "id": 71038596,
  "user": {
    "login": "jplusje",
    "id": 10633403,
    "avatar_url": "https://avatars.githubusercontent.com/u/10633403?v=3",
    "gravatar_id": "",
    "url": "https://api.github.com/users/jplusje",
    "html_url": "https://github.com/jplusje",
    "followers_url": "https://api.github.com/users/jplusje/followers",
    "following_url": "https://api.github.com/users/jplusje/following{/other_user}",
    "gists_url": "https://api.github.com/users/jplusje/gists{/gist_id}",
    "starred_url": "https://api.github.com/users/jplusje/starred{/owner}{/repo}",
    "subscriptions_url": "https://api.github.com/users/jplusje/subscriptions",
    "organizations_url": "https://api.github.com/users/jplusje/orgs",
    "repos_url": "https://api.github.com/users/jplusje/repos",
    "events_url": "https://api.github.com/users/jplusje/events{/privacy}",
    "received_events_url": "https://api.github.com/users/jplusje/received_events",
    "type": "User",
    "site_admin": false
  },
  "created_at": "2015-01-22T15:33:55Z",
  "updated_at": "2015-01-22T15:33:55Z",
  "body": "We are using HTTP compression on the ES responses (server to client) exactly as you described but we would like to also use compression with requests from client to server."
}
, {
  "url": "https://api.github.com/repos/elastic/elasticsearch-net/issues/comments/71048775",
  "html_url": "https://github.com/elastic/elasticsearch-net/issues/1209#issuecomment-71048775",
  "issue_url": "https://api.github.com/repos/elastic/elasticsearch-net/issues/1209",
  "id": 71048775,
  "user": {
    "login": "gmarz",
    "id": 1594777,
    "avatar_url": "https://avatars.githubusercontent.com/u/1594777?v=3",
    "gravatar_id": "",
    "url": "https://api.github.com/users/gmarz",
    "html_url": "https://github.com/gmarz",
    "followers_url": "https://api.github.com/users/gmarz/followers",
    "following_url": "https://api.github.com/users/gmarz/following{/other_user}",
    "gists_url": "https://api.github.com/users/gmarz/gists{/gist_id}",
    "starred_url": "https://api.github.com/users/gmarz/starred{/owner}{/repo}",
    "subscriptions_url": "https://api.github.com/users/gmarz/subscriptions",
    "organizations_url": "https://api.github.com/users/gmarz/orgs",
    "repos_url": "https://api.github.com/users/gmarz/repos",
    "events_url": "https://api.github.com/users/gmarz/events{/privacy}",
    "received_events_url": "https://api.github.com/users/gmarz/received_events",
    "type": "User",
    "site_admin": false
  },
  "created_at": "2015-01-22T16:27:38Z",
  "updated_at": "2015-01-22T16:27:38Z",
  "body": "Gotcha.  At the moment, the client doesn't support this, but it should be possible by adding `Content-Encoding: gzip` to the request headers and writing the request stream using [GZipStream](https://msdn.microsoft.com/en-us/library/system.io.compression.gzipstream%28v=vs.110%29.aspx).\r\n\r\nWe'll look into adding this.  In the meantime, you can test this out by subclassing `HttpConnection` and overriding the `CreateHttpWebRequest` and `DoSynchronousRequest`methods.\r\n\r\n"
}
, {
  "url": "https://api.github.com/repos/elastic/elasticsearch-net/issues/comments/71098806",
  "html_url": "https://github.com/elastic/elasticsearch-net/issues/1209#issuecomment-71098806",
  "issue_url": "https://api.github.com/repos/elastic/elasticsearch-net/issues/1209",
  "id": 71098806,
  "user": {
    "login": "Mpdreamz",
    "id": 245275,
    "avatar_url": "https://avatars.githubusercontent.com/u/245275?v=3",
    "gravatar_id": "",
    "url": "https://api.github.com/users/Mpdreamz",
    "html_url": "https://github.com/Mpdreamz",
    "followers_url": "https://api.github.com/users/Mpdreamz/followers",
    "following_url": "https://api.github.com/users/Mpdreamz/following{/other_user}",
    "gists_url": "https://api.github.com/users/Mpdreamz/gists{/gist_id}",
    "starred_url": "https://api.github.com/users/Mpdreamz/starred{/owner}{/repo}",
    "subscriptions_url": "https://api.github.com/users/Mpdreamz/subscriptions",
    "organizations_url": "https://api.github.com/users/Mpdreamz/orgs",
    "repos_url": "https://api.github.com/users/Mpdreamz/repos",
    "events_url": "https://api.github.com/users/Mpdreamz/events{/privacy}",
    "received_events_url": "https://api.github.com/users/Mpdreamz/received_events",
    "type": "User",
    "site_admin": false
  },
  "created_at": "2015-01-22T21:07:26Z",
  "updated_at": "2015-01-22T21:07:44Z",
  "body": "Hi @jplusje \r\n\r\nWhen I first implemented this feature I found some contradicting information online whether elasticsearch supported it or not and also while testing found that it didn't. \r\n\r\nRather embarrassing I have to admit I think simply forgot to send the Http Header `Content-Encoding: gzip` back then. You can't imagine how hard I'm face-palming right now. \r\n\r\nI just submitted a PR that will fix this in the upcoming release albeit with a new toggle `.EnableHttpCompression()` for backward compatible reasons.\r\n\r\nThank you for reporting and forcing us to reevaluate our current implementation\r\n\r\n:tired_face: :palm_tree: "
}
]
