[
{
  "url": "https://api.github.com/repos/elastic/elasticsearch-net/issues/comments/22454560",
  "html_url": "https://github.com/elastic/elasticsearch-net/issues/324#issuecomment-22454560",
  "issue_url": "https://api.github.com/repos/elastic/elasticsearch-net/issues/324",
  "id": 22454560,
  "user": {
    "login": "Mpdreamz",
    "id": 245275,
    "avatar_url": "https://avatars.githubusercontent.com/u/245275?v=3",
    "gravatar_id": "",
    "url": "https://api.github.com/users/Mpdreamz",
    "html_url": "https://github.com/Mpdreamz",
    "followers_url": "https://api.github.com/users/Mpdreamz/followers",
    "following_url": "https://api.github.com/users/Mpdreamz/following{/other_user}",
    "gists_url": "https://api.github.com/users/Mpdreamz/gists{/gist_id}",
    "starred_url": "https://api.github.com/users/Mpdreamz/starred{/owner}{/repo}",
    "subscriptions_url": "https://api.github.com/users/Mpdreamz/subscriptions",
    "organizations_url": "https://api.github.com/users/Mpdreamz/orgs",
    "repos_url": "https://api.github.com/users/Mpdreamz/repos",
    "events_url": "https://api.github.com/users/Mpdreamz/events{/privacy}",
    "received_events_url": "https://api.github.com/users/Mpdreamz/received_events",
    "type": "User",
    "site_admin": false
  },
  "created_at": "2013-08-11T08:46:22Z",
  "updated_at": "2013-08-11T08:46:22Z",
  "body": "For now you can specify the string directly using the other overload for `SortDescending(string fieldName)`, i'll look into supporting Dictionary index lookups using the expression overload."
}
, {
  "url": "https://api.github.com/repos/elastic/elasticsearch-net/issues/comments/22455132",
  "html_url": "https://github.com/elastic/elasticsearch-net/issues/324#issuecomment-22455132",
  "issue_url": "https://api.github.com/repos/elastic/elasticsearch-net/issues/324",
  "id": 22455132,
  "user": {
    "login": "Mpdreamz",
    "id": 245275,
    "avatar_url": "https://avatars.githubusercontent.com/u/245275?v=3",
    "gravatar_id": "",
    "url": "https://api.github.com/users/Mpdreamz",
    "html_url": "https://github.com/Mpdreamz",
    "followers_url": "https://api.github.com/users/Mpdreamz/followers",
    "following_url": "https://api.github.com/users/Mpdreamz/following{/other_user}",
    "gists_url": "https://api.github.com/users/Mpdreamz/gists{/gist_id}",
    "starred_url": "https://api.github.com/users/Mpdreamz/starred{/owner}{/repo}",
    "subscriptions_url": "https://api.github.com/users/Mpdreamz/subscriptions",
    "organizations_url": "https://api.github.com/users/Mpdreamz/orgs",
    "repos_url": "https://api.github.com/users/Mpdreamz/repos",
    "events_url": "https://api.github.com/users/Mpdreamz/events{/privacy}",
    "received_events_url": "https://api.github.com/users/Mpdreamz/received_events",
    "type": "User",
    "site_admin": false
  },
  "created_at": "2013-08-11T09:44:57Z",
  "updated_at": "2013-08-11T09:44:57Z",
  "body": "Just a heads up that dictionary lookup expressions are now supported in the master and will make it into the next release."
}
, {
  "url": "https://api.github.com/repos/elastic/elasticsearch-net/issues/comments/22525924",
  "html_url": "https://github.com/elastic/elasticsearch-net/issues/324#issuecomment-22525924",
  "issue_url": "https://api.github.com/repos/elastic/elasticsearch-net/issues/324",
  "id": 22525924,
  "user": {
    "login": "RobloxSai",
    "id": 5131925,
    "avatar_url": "https://avatars.githubusercontent.com/u/5131925?v=3",
    "gravatar_id": "",
    "url": "https://api.github.com/users/RobloxSai",
    "html_url": "https://github.com/RobloxSai",
    "followers_url": "https://api.github.com/users/RobloxSai/followers",
    "following_url": "https://api.github.com/users/RobloxSai/following{/other_user}",
    "gists_url": "https://api.github.com/users/RobloxSai/gists{/gist_id}",
    "starred_url": "https://api.github.com/users/RobloxSai/starred{/owner}{/repo}",
    "subscriptions_url": "https://api.github.com/users/RobloxSai/subscriptions",
    "organizations_url": "https://api.github.com/users/RobloxSai/orgs",
    "repos_url": "https://api.github.com/users/RobloxSai/repos",
    "events_url": "https://api.github.com/users/RobloxSai/events{/privacy}",
    "received_events_url": "https://api.github.com/users/RobloxSai/received_events",
    "type": "User",
    "site_admin": false
  },
  "created_at": "2013-08-12T21:14:01Z",
  "updated_at": "2013-08-12T21:14:01Z",
  "body": "Thanks for the update. I ended up using the SortDescending(string fieldName) as a workaround. "
}
, {
  "url": "https://api.github.com/repos/elastic/elasticsearch-net/issues/comments/24419959",
  "html_url": "https://github.com/elastic/elasticsearch-net/issues/324#issuecomment-24419959",
  "issue_url": "https://api.github.com/repos/elastic/elasticsearch-net/issues/324",
  "id": 24419959,
  "user": {
    "login": "RobloxSai",
    "id": 5131925,
    "avatar_url": "https://avatars.githubusercontent.com/u/5131925?v=3",
    "gravatar_id": "",
    "url": "https://api.github.com/users/RobloxSai",
    "html_url": "https://github.com/RobloxSai",
    "followers_url": "https://api.github.com/users/RobloxSai/followers",
    "following_url": "https://api.github.com/users/RobloxSai/following{/other_user}",
    "gists_url": "https://api.github.com/users/RobloxSai/gists{/gist_id}",
    "starred_url": "https://api.github.com/users/RobloxSai/starred{/owner}{/repo}",
    "subscriptions_url": "https://api.github.com/users/RobloxSai/subscriptions",
    "organizations_url": "https://api.github.com/users/RobloxSai/orgs",
    "repos_url": "https://api.github.com/users/RobloxSai/repos",
    "events_url": "https://api.github.com/users/RobloxSai/events{/privacy}",
    "received_events_url": "https://api.github.com/users/RobloxSai/received_events",
    "type": "User",
    "site_admin": false
  },
  "created_at": "2013-09-13T19:52:51Z",
  "updated_at": "2013-09-13T20:00:34Z",
  "body": "I don't think this is fixed. If you tried passing in the Key as a parameter, it uses the name of the Parameter instead of the value. \r\n\r\nEg: \r\n\r\nint someInt = 13;\r\nsearcher.SortDescending(s => s.FooDict[someInt].SomeData)\r\n\r\nConverts this to someInt.FooDict.SomeData instead of FooDict.13.SomeData\r\n"
}
, {
  "url": "https://api.github.com/repos/elastic/elasticsearch-net/issues/comments/24466495",
  "html_url": "https://github.com/elastic/elasticsearch-net/issues/324#issuecomment-24466495",
  "issue_url": "https://api.github.com/repos/elastic/elasticsearch-net/issues/324",
  "id": 24466495,
  "user": {
    "login": "Mpdreamz",
    "id": 245275,
    "avatar_url": "https://avatars.githubusercontent.com/u/245275?v=3",
    "gravatar_id": "",
    "url": "https://api.github.com/users/Mpdreamz",
    "html_url": "https://github.com/Mpdreamz",
    "followers_url": "https://api.github.com/users/Mpdreamz/followers",
    "following_url": "https://api.github.com/users/Mpdreamz/following{/other_user}",
    "gists_url": "https://api.github.com/users/Mpdreamz/gists{/gist_id}",
    "starred_url": "https://api.github.com/users/Mpdreamz/starred{/owner}{/repo}",
    "subscriptions_url": "https://api.github.com/users/Mpdreamz/subscriptions",
    "organizations_url": "https://api.github.com/users/Mpdreamz/orgs",
    "repos_url": "https://api.github.com/users/Mpdreamz/repos",
    "events_url": "https://api.github.com/users/Mpdreamz/events{/privacy}",
    "received_events_url": "https://api.github.com/users/Mpdreamz/received_events",
    "type": "User",
    "site_admin": false
  },
  "created_at": "2013-09-15T08:27:05Z",
  "updated_at": "2013-09-15T08:27:05Z",
  "body": "Yeah nest does not actually execute the code inside the lambda but takes it as an expression and then translates the expression to a string. It won't/can't substitute variables like `someInt`, you will have to use string overload."
}
]
