[
{
  "url": "https://api.github.com/repos/elastic/elasticsearch-net/issues/comments/176124015",
  "html_url": "https://github.com/elastic/elasticsearch-net/issues/1767#issuecomment-176124015",
  "issue_url": "https://api.github.com/repos/elastic/elasticsearch-net/issues/1767",
  "id": 176124015,
  "user": {
    "login": "russcam",
    "id": 208231,
    "avatar_url": "https://avatars.githubusercontent.com/u/208231?v=3",
    "gravatar_id": "",
    "url": "https://api.github.com/users/russcam",
    "html_url": "https://github.com/russcam",
    "followers_url": "https://api.github.com/users/russcam/followers",
    "following_url": "https://api.github.com/users/russcam/following{/other_user}",
    "gists_url": "https://api.github.com/users/russcam/gists{/gist_id}",
    "starred_url": "https://api.github.com/users/russcam/starred{/owner}{/repo}",
    "subscriptions_url": "https://api.github.com/users/russcam/subscriptions",
    "organizations_url": "https://api.github.com/users/russcam/orgs",
    "repos_url": "https://api.github.com/users/russcam/repos",
    "events_url": "https://api.github.com/users/russcam/events{/privacy}",
    "received_events_url": "https://api.github.com/users/russcam/received_events",
    "type": "User",
    "site_admin": false
  },
  "created_at": "2016-01-28T11:00:26Z",
  "updated_at": "2016-01-28T11:00:26Z",
  "body": "Thanks for reporting, @RobinRieger :+1: "
}
, {
  "url": "https://api.github.com/repos/elastic/elasticsearch-net/issues/comments/176210322",
  "html_url": "https://github.com/elastic/elasticsearch-net/issues/1767#issuecomment-176210322",
  "issue_url": "https://api.github.com/repos/elastic/elasticsearch-net/issues/1767",
  "id": 176210322,
  "user": {
    "login": "Mpdreamz",
    "id": 245275,
    "avatar_url": "https://avatars.githubusercontent.com/u/245275?v=3",
    "gravatar_id": "",
    "url": "https://api.github.com/users/Mpdreamz",
    "html_url": "https://github.com/Mpdreamz",
    "followers_url": "https://api.github.com/users/Mpdreamz/followers",
    "following_url": "https://api.github.com/users/Mpdreamz/following{/other_user}",
    "gists_url": "https://api.github.com/users/Mpdreamz/gists{/gist_id}",
    "starred_url": "https://api.github.com/users/Mpdreamz/starred{/owner}{/repo}",
    "subscriptions_url": "https://api.github.com/users/Mpdreamz/subscriptions",
    "organizations_url": "https://api.github.com/users/Mpdreamz/orgs",
    "repos_url": "https://api.github.com/users/Mpdreamz/repos",
    "events_url": "https://api.github.com/users/Mpdreamz/events{/privacy}",
    "received_events_url": "https://api.github.com/users/Mpdreamz/received_events",
    "type": "User",
    "site_admin": false
  },
  "created_at": "2016-01-28T14:35:09Z",
  "updated_at": "2016-01-28T14:35:09Z",
  "body": "Thanks @RobinRieger we had an integration test for this but that was sorely lacking some needed assertions.\r\n"
}
]
