[
{
  "url": "https://api.github.com/repos/elastic/elasticsearch-net/issues/comments/44370674",
  "html_url": "https://github.com/elastic/elasticsearch-net/issues/687#issuecomment-44370674",
  "issue_url": "https://api.github.com/repos/elastic/elasticsearch-net/issues/687",
  "id": 44370674,
  "user": {
    "login": "kadmil",
    "id": 4445523,
    "avatar_url": "https://avatars.githubusercontent.com/u/4445523?v=3",
    "gravatar_id": "",
    "url": "https://api.github.com/users/kadmil",
    "html_url": "https://github.com/kadmil",
    "followers_url": "https://api.github.com/users/kadmil/followers",
    "following_url": "https://api.github.com/users/kadmil/following{/other_user}",
    "gists_url": "https://api.github.com/users/kadmil/gists{/gist_id}",
    "starred_url": "https://api.github.com/users/kadmil/starred{/owner}{/repo}",
    "subscriptions_url": "https://api.github.com/users/kadmil/subscriptions",
    "organizations_url": "https://api.github.com/users/kadmil/orgs",
    "repos_url": "https://api.github.com/users/kadmil/repos",
    "events_url": "https://api.github.com/users/kadmil/events{/privacy}",
    "received_events_url": "https://api.github.com/users/kadmil/received_events",
    "type": "User",
    "site_admin": false
  },
  "created_at": "2014-05-28T06:38:58Z",
  "updated_at": "2014-05-28T06:38:58Z",
  "body": "Should mention, that using extension methods to patch API could make this API unmockable and code itself much less testable."
}
]
