[
{
  "url": "https://api.github.com/repos/facebook/rocksdb/issues/comments/60535308",
  "html_url": "https://github.com/facebook/rocksdb/pull/366#issuecomment-60535308",
  "issue_url": "https://api.github.com/repos/facebook/rocksdb/issues/366",
  "id": 60535308,
  "user": {
    "login": "fyrz",
    "id": 8895490,
    "avatar_url": "https://avatars.githubusercontent.com/u/8895490?v=3",
    "gravatar_id": "",
    "url": "https://api.github.com/users/fyrz",
    "html_url": "https://github.com/fyrz",
    "followers_url": "https://api.github.com/users/fyrz/followers",
    "following_url": "https://api.github.com/users/fyrz/following{/other_user}",
    "gists_url": "https://api.github.com/users/fyrz/gists{/gist_id}",
    "starred_url": "https://api.github.com/users/fyrz/starred{/owner}{/repo}",
    "subscriptions_url": "https://api.github.com/users/fyrz/subscriptions",
    "organizations_url": "https://api.github.com/users/fyrz/orgs",
    "repos_url": "https://api.github.com/users/fyrz/repos",
    "events_url": "https://api.github.com/users/fyrz/events{/privacy}",
    "received_events_url": "https://api.github.com/users/fyrz/received_events",
    "type": "User",
    "site_admin": false
  },
  "created_at": "2014-10-26T22:32:22Z",
  "updated_at": "2014-10-26T22:32:22Z",
  "body": "Created differential: https://reviews.facebook.net/D27027"
}
, {
  "url": "https://api.github.com/repos/facebook/rocksdb/issues/comments/60803614",
  "html_url": "https://github.com/facebook/rocksdb/pull/366#issuecomment-60803614",
  "issue_url": "https://api.github.com/repos/facebook/rocksdb/issues/366",
  "id": 60803614,
  "user": {
    "login": "fyrz",
    "id": 8895490,
    "avatar_url": "https://avatars.githubusercontent.com/u/8895490?v=3",
    "gravatar_id": "",
    "url": "https://api.github.com/users/fyrz",
    "html_url": "https://github.com/fyrz",
    "followers_url": "https://api.github.com/users/fyrz/followers",
    "following_url": "https://api.github.com/users/fyrz/following{/other_user}",
    "gists_url": "https://api.github.com/users/fyrz/gists{/gist_id}",
    "starred_url": "https://api.github.com/users/fyrz/starred{/owner}{/repo}",
    "subscriptions_url": "https://api.github.com/users/fyrz/subscriptions",
    "organizations_url": "https://api.github.com/users/fyrz/orgs",
    "repos_url": "https://api.github.com/users/fyrz/repos",
    "events_url": "https://api.github.com/users/fyrz/events{/privacy}",
    "received_events_url": "https://api.github.com/users/fyrz/received_events",
    "type": "User",
    "site_admin": false
  },
  "created_at": "2014-10-28T18:11:42Z",
  "updated_at": "2014-10-28T18:11:42Z",
  "body": "@yhchiang ping... review comments are in"
}
, {
  "url": "https://api.github.com/repos/facebook/rocksdb/issues/comments/60814326",
  "html_url": "https://github.com/facebook/rocksdb/pull/366#issuecomment-60814326",
  "issue_url": "https://api.github.com/repos/facebook/rocksdb/issues/366",
  "id": 60814326,
  "user": {
    "login": "yhchiang",
    "id": 6447975,
    "avatar_url": "https://avatars.githubusercontent.com/u/6447975?v=3",
    "gravatar_id": "",
    "url": "https://api.github.com/users/yhchiang",
    "html_url": "https://github.com/yhchiang",
    "followers_url": "https://api.github.com/users/yhchiang/followers",
    "following_url": "https://api.github.com/users/yhchiang/following{/other_user}",
    "gists_url": "https://api.github.com/users/yhchiang/gists{/gist_id}",
    "starred_url": "https://api.github.com/users/yhchiang/starred{/owner}{/repo}",
    "subscriptions_url": "https://api.github.com/users/yhchiang/subscriptions",
    "organizations_url": "https://api.github.com/users/yhchiang/orgs",
    "repos_url": "https://api.github.com/users/yhchiang/repos",
    "events_url": "https://api.github.com/users/yhchiang/events{/privacy}",
    "received_events_url": "https://api.github.com/users/yhchiang/received_events",
    "type": "User",
    "site_admin": false
  },
  "created_at": "2014-10-28T19:14:42Z",
  "updated_at": "2014-10-28T19:14:42Z",
  "body": "Approved.  Thanks for your contribution!"
}
]
