[
{
  "url": "https://api.github.com/repos/google/WebFundamentals/issues/comments/42667620",
  "html_url": "https://github.com/google/WebFundamentals/issues/216#issuecomment-42667620",
  "issue_url": "https://api.github.com/repos/google/WebFundamentals/issues/216",
  "id": 42667620,
  "user": {
    "login": "PaulKinlan",
    "id": 45510,
    "avatar_url": "https://avatars.githubusercontent.com/u/45510?v=3",
    "gravatar_id": "",
    "url": "https://api.github.com/users/PaulKinlan",
    "html_url": "https://github.com/PaulKinlan",
    "followers_url": "https://api.github.com/users/PaulKinlan/followers",
    "following_url": "https://api.github.com/users/PaulKinlan/following{/other_user}",
    "gists_url": "https://api.github.com/users/PaulKinlan/gists{/gist_id}",
    "starred_url": "https://api.github.com/users/PaulKinlan/starred{/owner}{/repo}",
    "subscriptions_url": "https://api.github.com/users/PaulKinlan/subscriptions",
    "organizations_url": "https://api.github.com/users/PaulKinlan/orgs",
    "repos_url": "https://api.github.com/users/PaulKinlan/repos",
    "events_url": "https://api.github.com/users/PaulKinlan/events{/privacy}",
    "received_events_url": "https://api.github.com/users/PaulKinlan/received_events",
    "type": "User",
    "site_admin": false
  },
  "created_at": "2014-05-09T13:50:39Z",
  "updated_at": "2014-05-09T13:50:39Z",
  "body": "<a href=\"https://github.com/peduarte\"><img src=\"https://avatars.githubusercontent.com/u/372831?\" align=\"left\" width=\"48\" height=\"48\" hspace=\"10\"></img></a> **Comment by [peduarte](https://github.com/peduarte)**\n_Monday Apr 28, 2014 at 12:55 GMT # Sample: Friday Sep 13, 2013 at 22:58 GMT_\n\n----\n\nHey, \r\n\r\nThe size of the gray bottom section varies depends on how much content is inside it.\r\n\r\nUnfortunately, there isn't much I can do about this.\r\nI can see if there's a way to auto-adjust the height with flexbox, but not 100% sure.\r\n\r\nI would recommend against setting a fixed height since this is responsive and we can never be sure of the length of the content inside, so we need to allow for wrapping.\r\n\r\nThanks\r\nPedro\n"
}
, {
  "url": "https://api.github.com/repos/google/WebFundamentals/issues/comments/42667622",
  "html_url": "https://github.com/google/WebFundamentals/issues/216#issuecomment-42667622",
  "issue_url": "https://api.github.com/repos/google/WebFundamentals/issues/216",
  "id": 42667622,
  "user": {
    "login": "PaulKinlan",
    "id": 45510,
    "avatar_url": "https://avatars.githubusercontent.com/u/45510?v=3",
    "gravatar_id": "",
    "url": "https://api.github.com/users/PaulKinlan",
    "html_url": "https://github.com/PaulKinlan",
    "followers_url": "https://api.github.com/users/PaulKinlan/followers",
    "following_url": "https://api.github.com/users/PaulKinlan/following{/other_user}",
    "gists_url": "https://api.github.com/users/PaulKinlan/gists{/gist_id}",
    "starred_url": "https://api.github.com/users/PaulKinlan/starred{/owner}{/repo}",
    "subscriptions_url": "https://api.github.com/users/PaulKinlan/subscriptions",
    "organizations_url": "https://api.github.com/users/PaulKinlan/orgs",
    "repos_url": "https://api.github.com/users/PaulKinlan/repos",
    "events_url": "https://api.github.com/users/PaulKinlan/events{/privacy}",
    "received_events_url": "https://api.github.com/users/PaulKinlan/received_events",
    "type": "User",
    "site_admin": false
  },
  "created_at": "2014-05-09T13:50:40Z",
  "updated_at": "2014-05-09T13:50:40Z",
  "body": "<a href=\"https://github.com/PaulKinlan\"><img src=\"https://avatars.githubusercontent.com/u/45510?\" align=\"left\" width=\"48\" height=\"48\" hspace=\"10\"></img></a> **Comment by [PaulKinlan](https://github.com/PaulKinlan)**\n_Monday Apr 28, 2014 at 12:57 GMT # Sample: Friday Sep 13, 2013 at 22:58 GMT_\n\n----\n\n@meh - we might have to limit this to our three most important sections in each.  Essentially these are quick links to the docs so you don't have to go in to the directory page.\n"
}
, {
  "url": "https://api.github.com/repos/google/WebFundamentals/issues/comments/42667624",
  "html_url": "https://github.com/google/WebFundamentals/issues/216#issuecomment-42667624",
  "issue_url": "https://api.github.com/repos/google/WebFundamentals/issues/216",
  "id": 42667624,
  "user": {
    "login": "PaulKinlan",
    "id": 45510,
    "avatar_url": "https://avatars.githubusercontent.com/u/45510?v=3",
    "gravatar_id": "",
    "url": "https://api.github.com/users/PaulKinlan",
    "html_url": "https://github.com/PaulKinlan",
    "followers_url": "https://api.github.com/users/PaulKinlan/followers",
    "following_url": "https://api.github.com/users/PaulKinlan/following{/other_user}",
    "gists_url": "https://api.github.com/users/PaulKinlan/gists{/gist_id}",
    "starred_url": "https://api.github.com/users/PaulKinlan/starred{/owner}{/repo}",
    "subscriptions_url": "https://api.github.com/users/PaulKinlan/subscriptions",
    "organizations_url": "https://api.github.com/users/PaulKinlan/orgs",
    "repos_url": "https://api.github.com/users/PaulKinlan/repos",
    "events_url": "https://api.github.com/users/PaulKinlan/events{/privacy}",
    "received_events_url": "https://api.github.com/users/PaulKinlan/received_events",
    "type": "User",
    "site_admin": false
  },
  "created_at": "2014-05-09T13:50:40Z",
  "updated_at": "2014-05-09T13:50:40Z",
  "body": "<a href=\"https://github.com/PaulKinlan\"><img src=\"https://avatars.githubusercontent.com/u/45510?\" align=\"left\" width=\"48\" height=\"48\" hspace=\"10\"></img></a> **Comment by [PaulKinlan](https://github.com/PaulKinlan)**\n_Monday Apr 28, 2014 at 12:58 GMT # Sample: Friday Sep 13, 2013 at 22:58 GMT_\n\n----\n\nIn the case of media., we can put in a place holder\n"
}
, {
  "url": "https://api.github.com/repos/google/WebFundamentals/issues/comments/42667625",
  "html_url": "https://github.com/google/WebFundamentals/issues/216#issuecomment-42667625",
  "issue_url": "https://api.github.com/repos/google/WebFundamentals/issues/216",
  "id": 42667625,
  "user": {
    "login": "PaulKinlan",
    "id": 45510,
    "avatar_url": "https://avatars.githubusercontent.com/u/45510?v=3",
    "gravatar_id": "",
    "url": "https://api.github.com/users/PaulKinlan",
    "html_url": "https://github.com/PaulKinlan",
    "followers_url": "https://api.github.com/users/PaulKinlan/followers",
    "following_url": "https://api.github.com/users/PaulKinlan/following{/other_user}",
    "gists_url": "https://api.github.com/users/PaulKinlan/gists{/gist_id}",
    "starred_url": "https://api.github.com/users/PaulKinlan/starred{/owner}{/repo}",
    "subscriptions_url": "https://api.github.com/users/PaulKinlan/subscriptions",
    "organizations_url": "https://api.github.com/users/PaulKinlan/orgs",
    "repos_url": "https://api.github.com/users/PaulKinlan/repos",
    "events_url": "https://api.github.com/users/PaulKinlan/events{/privacy}",
    "received_events_url": "https://api.github.com/users/PaulKinlan/received_events",
    "type": "User",
    "site_admin": false
  },
  "created_at": "2014-05-09T13:50:41Z",
  "updated_at": "2014-05-09T13:50:41Z",
  "body": "<a href=\"https://github.com/maxh\"><img src=\"https://avatars.githubusercontent.com/u/1289501?\" align=\"left\" width=\"48\" height=\"48\" hspace=\"10\"></img></a> **Comment by [maxh](https://github.com/maxh)**\n_Monday Apr 28, 2014 at 17:52 GMT # Sample: Friday Sep 13, 2013 at 22:58 GMT_\n\n----\n\nLimiting to 3 (or even 2) lines is fine.\n"
}
]
