[
{
  "url": "https://api.github.com/repos/google/WebFundamentals/issues/comments/148225234",
  "html_url": "https://github.com/google/WebFundamentals/pull/2113#issuecomment-148225234",
  "issue_url": "https://api.github.com/repos/google/WebFundamentals/issues/2113",
  "id": 148225234,
  "user": {
    "login": "pbakaus",
    "id": 43004,
    "avatar_url": "https://avatars.githubusercontent.com/u/43004?v=3",
    "gravatar_id": "",
    "url": "https://api.github.com/users/pbakaus",
    "html_url": "https://github.com/pbakaus",
    "followers_url": "https://api.github.com/users/pbakaus/followers",
    "following_url": "https://api.github.com/users/pbakaus/following{/other_user}",
    "gists_url": "https://api.github.com/users/pbakaus/gists{/gist_id}",
    "starred_url": "https://api.github.com/users/pbakaus/starred{/owner}{/repo}",
    "subscriptions_url": "https://api.github.com/users/pbakaus/subscriptions",
    "organizations_url": "https://api.github.com/users/pbakaus/orgs",
    "repos_url": "https://api.github.com/users/pbakaus/repos",
    "events_url": "https://api.github.com/users/pbakaus/events{/privacy}",
    "received_events_url": "https://api.github.com/users/pbakaus/received_events",
    "type": "User",
    "site_admin": false
  },
  "created_at": "2015-10-14T22:48:23Z",
  "updated_at": "2015-10-14T22:48:23Z",
  "body": "Nice!\r\n\r\nInstead of putting it directly in the debug/ folder, create a sub directory called \"snippets\", put the markdown file there and rename it to \"index.markdown\". Then change the title from \"Set Up Snippets\" to \"Using Snippets\" (or something even better). This will make it appear in the left nav.\r\n\r\nUnfortunately WF currently isn't setup to skip the forth indentation, so on the snippets page you'll see an empty \"topics\" block at the bottom. My guess is that this will be fixed eventually and is fine for now.\r\n\r\nRegarding the video descriptions: I still don't like em. @Meggin feel free to chime in here. I don't think they have a lot of value. I propose the following: Let's always make sure that the text on the page works standalone without videos, and use the videos as \"bonus visualization\". This gets us to the same place without awkwardly describing the contents of a video."
}
, {
  "url": "https://api.github.com/repos/google/WebFundamentals/issues/comments/148234026",
  "html_url": "https://github.com/google/WebFundamentals/pull/2113#issuecomment-148234026",
  "issue_url": "https://api.github.com/repos/google/WebFundamentals/issues/2113",
  "id": 148234026,
  "user": {
    "login": "paulirish",
    "id": 39191,
    "avatar_url": "https://avatars.githubusercontent.com/u/39191?v=3",
    "gravatar_id": "",
    "url": "https://api.github.com/users/paulirish",
    "html_url": "https://github.com/paulirish",
    "followers_url": "https://api.github.com/users/paulirish/followers",
    "following_url": "https://api.github.com/users/paulirish/following{/other_user}",
    "gists_url": "https://api.github.com/users/paulirish/gists{/gist_id}",
    "starred_url": "https://api.github.com/users/paulirish/starred{/owner}{/repo}",
    "subscriptions_url": "https://api.github.com/users/paulirish/subscriptions",
    "organizations_url": "https://api.github.com/users/paulirish/orgs",
    "repos_url": "https://api.github.com/users/paulirish/repos",
    "events_url": "https://api.github.com/users/paulirish/events{/privacy}",
    "received_events_url": "https://api.github.com/users/paulirish/received_events",
    "type": "User",
    "site_admin": false
  },
  "created_at": "2015-10-14T23:41:47Z",
  "updated_at": "2015-10-14T23:41:47Z",
  "body": "\"Using JavaScript Snippets\"  and i'd position it alongside any Using the Console stuf."
}
, {
  "url": "https://api.github.com/repos/google/WebFundamentals/issues/comments/148442449",
  "html_url": "https://github.com/google/WebFundamentals/pull/2113#issuecomment-148442449",
  "issue_url": "https://api.github.com/repos/google/WebFundamentals/issues/2113",
  "id": 148442449,
  "user": {
    "login": "petele",
    "id": 718038,
    "avatar_url": "https://avatars.githubusercontent.com/u/718038?v=3",
    "gravatar_id": "",
    "url": "https://api.github.com/users/petele",
    "html_url": "https://github.com/petele",
    "followers_url": "https://api.github.com/users/petele/followers",
    "following_url": "https://api.github.com/users/petele/following{/other_user}",
    "gists_url": "https://api.github.com/users/petele/gists{/gist_id}",
    "starred_url": "https://api.github.com/users/petele/starred{/owner}{/repo}",
    "subscriptions_url": "https://api.github.com/users/petele/subscriptions",
    "organizations_url": "https://api.github.com/users/petele/orgs",
    "repos_url": "https://api.github.com/users/petele/repos",
    "events_url": "https://api.github.com/users/petele/events{/privacy}",
    "received_events_url": "https://api.github.com/users/petele/received_events",
    "type": "User",
    "site_admin": false
  },
  "created_at": "2015-10-15T16:18:09Z",
  "updated_at": "2015-10-15T16:18:09Z",
  "body": "@pbakaus - when this is ready to go, please add the 'lgtm: approved' label"
}
, {
  "url": "https://api.github.com/repos/google/WebFundamentals/issues/comments/148514729",
  "html_url": "https://github.com/google/WebFundamentals/pull/2113#issuecomment-148514729",
  "issue_url": "https://api.github.com/repos/google/WebFundamentals/issues/2113",
  "id": 148514729,
  "user": {
    "login": "kaycebasques",
    "id": 4713486,
    "avatar_url": "https://avatars.githubusercontent.com/u/4713486?v=3",
    "gravatar_id": "",
    "url": "https://api.github.com/users/kaycebasques",
    "html_url": "https://github.com/kaycebasques",
    "followers_url": "https://api.github.com/users/kaycebasques/followers",
    "following_url": "https://api.github.com/users/kaycebasques/following{/other_user}",
    "gists_url": "https://api.github.com/users/kaycebasques/gists{/gist_id}",
    "starred_url": "https://api.github.com/users/kaycebasques/starred{/owner}{/repo}",
    "subscriptions_url": "https://api.github.com/users/kaycebasques/subscriptions",
    "organizations_url": "https://api.github.com/users/kaycebasques/orgs",
    "repos_url": "https://api.github.com/users/kaycebasques/repos",
    "events_url": "https://api.github.com/users/kaycebasques/events{/privacy}",
    "received_events_url": "https://api.github.com/users/kaycebasques/received_events",
    "type": "User",
    "site_admin": false
  },
  "created_at": "2015-10-15T20:43:54Z",
  "updated_at": "2015-10-15T20:44:29Z",
  "body": "OK @pbakaus and @paulirish all items addressed, and then some. See messages from last batch of commits."
}
, {
  "url": "https://api.github.com/repos/google/WebFundamentals/issues/comments/148520953",
  "html_url": "https://github.com/google/WebFundamentals/pull/2113#issuecomment-148520953",
  "issue_url": "https://api.github.com/repos/google/WebFundamentals/issues/2113",
  "id": 148520953,
  "user": {
    "login": "pbakaus",
    "id": 43004,
    "avatar_url": "https://avatars.githubusercontent.com/u/43004?v=3",
    "gravatar_id": "",
    "url": "https://api.github.com/users/pbakaus",
    "html_url": "https://github.com/pbakaus",
    "followers_url": "https://api.github.com/users/pbakaus/followers",
    "following_url": "https://api.github.com/users/pbakaus/following{/other_user}",
    "gists_url": "https://api.github.com/users/pbakaus/gists{/gist_id}",
    "starred_url": "https://api.github.com/users/pbakaus/starred{/owner}{/repo}",
    "subscriptions_url": "https://api.github.com/users/pbakaus/subscriptions",
    "organizations_url": "https://api.github.com/users/pbakaus/orgs",
    "repos_url": "https://api.github.com/users/pbakaus/repos",
    "events_url": "https://api.github.com/users/pbakaus/events{/privacy}",
    "received_events_url": "https://api.github.com/users/pbakaus/received_events",
    "type": "User",
    "site_admin": false
  },
  "created_at": "2015-10-15T21:04:44Z",
  "updated_at": "2015-10-15T21:04:44Z",
  "body": "LGTM, nice work!"
}
, {
  "url": "https://api.github.com/repos/google/WebFundamentals/issues/comments/148535841",
  "html_url": "https://github.com/google/WebFundamentals/pull/2113#issuecomment-148535841",
  "issue_url": "https://api.github.com/repos/google/WebFundamentals/issues/2113",
  "id": 148535841,
  "user": {
    "login": "petele",
    "id": 718038,
    "avatar_url": "https://avatars.githubusercontent.com/u/718038?v=3",
    "gravatar_id": "",
    "url": "https://api.github.com/users/petele",
    "html_url": "https://github.com/petele",
    "followers_url": "https://api.github.com/users/petele/followers",
    "following_url": "https://api.github.com/users/petele/following{/other_user}",
    "gists_url": "https://api.github.com/users/petele/gists{/gist_id}",
    "starred_url": "https://api.github.com/users/petele/starred{/owner}{/repo}",
    "subscriptions_url": "https://api.github.com/users/petele/subscriptions",
    "organizations_url": "https://api.github.com/users/petele/orgs",
    "repos_url": "https://api.github.com/users/petele/repos",
    "events_url": "https://api.github.com/users/petele/events{/privacy}",
    "received_events_url": "https://api.github.com/users/petele/received_events",
    "type": "User",
    "site_admin": false
  },
  "created_at": "2015-10-15T22:02:41Z",
  "updated_at": "2015-10-15T22:02:41Z",
  "body": "Merged, will most likely push a new build tomorrow."
}
]
