[
{
  "url": "https://api.github.com/repos/google/WebFundamentals/issues/comments/139047550",
  "html_url": "https://github.com/google/WebFundamentals/issues/1499#issuecomment-139047550",
  "issue_url": "https://api.github.com/repos/google/WebFundamentals/issues/1499",
  "id": 139047550,
  "user": {
    "login": "petele",
    "id": 718038,
    "avatar_url": "https://avatars.githubusercontent.com/u/718038?v=3",
    "gravatar_id": "",
    "url": "https://api.github.com/users/petele",
    "html_url": "https://github.com/petele",
    "followers_url": "https://api.github.com/users/petele/followers",
    "following_url": "https://api.github.com/users/petele/following{/other_user}",
    "gists_url": "https://api.github.com/users/petele/gists{/gist_id}",
    "starred_url": "https://api.github.com/users/petele/starred{/owner}{/repo}",
    "subscriptions_url": "https://api.github.com/users/petele/subscriptions",
    "organizations_url": "https://api.github.com/users/petele/orgs",
    "repos_url": "https://api.github.com/users/petele/repos",
    "events_url": "https://api.github.com/users/petele/events{/privacy}",
    "received_events_url": "https://api.github.com/users/petele/received_events",
    "type": "User",
    "site_admin": false
  },
  "created_at": "2015-09-09T21:12:32Z",
  "updated_at": "2015-09-09T21:12:32Z",
  "body": "I'm going to close this for now as we're working on a complete site refresh using material design lite which should fix this issue."
}
]
