[
{
  "url": "https://api.github.com/repos/google/WebFundamentals/issues/comments/41903980",
  "html_url": "https://github.com/google/WebFundamentals/issues/47#issuecomment-41903980",
  "issue_url": "https://api.github.com/repos/google/WebFundamentals/issues/47",
  "id": 41903980,
  "user": {
    "login": "PaulKinlan",
    "id": 45510,
    "avatar_url": "https://avatars.githubusercontent.com/u/45510?v=3",
    "gravatar_id": "",
    "url": "https://api.github.com/users/PaulKinlan",
    "html_url": "https://github.com/PaulKinlan",
    "followers_url": "https://api.github.com/users/PaulKinlan/followers",
    "following_url": "https://api.github.com/users/PaulKinlan/following{/other_user}",
    "gists_url": "https://api.github.com/users/PaulKinlan/gists{/gist_id}",
    "starred_url": "https://api.github.com/users/PaulKinlan/starred{/owner}{/repo}",
    "subscriptions_url": "https://api.github.com/users/PaulKinlan/subscriptions",
    "organizations_url": "https://api.github.com/users/PaulKinlan/orgs",
    "repos_url": "https://api.github.com/users/PaulKinlan/repos",
    "events_url": "https://api.github.com/users/PaulKinlan/events{/privacy}",
    "received_events_url": "https://api.github.com/users/PaulKinlan/received_events",
    "type": "User",
    "site_admin": false
  },
  "created_at": "2014-05-01T12:05:49Z",
  "updated_at": "2014-05-01T12:05:49Z",
  "body": "It is actullay the wrong table data too.. will sort asap."
}
, {
  "url": "https://api.github.com/repos/google/WebFundamentals/issues/comments/41904251",
  "html_url": "https://github.com/google/WebFundamentals/issues/47#issuecomment-41904251",
  "issue_url": "https://api.github.com/repos/google/WebFundamentals/issues/47",
  "id": 41904251,
  "user": {
    "login": "stevefaulkner",
    "id": 835859,
    "avatar_url": "https://avatars.githubusercontent.com/u/835859?v=3",
    "gravatar_id": "",
    "url": "https://api.github.com/users/stevefaulkner",
    "html_url": "https://github.com/stevefaulkner",
    "followers_url": "https://api.github.com/users/stevefaulkner/followers",
    "following_url": "https://api.github.com/users/stevefaulkner/following{/other_user}",
    "gists_url": "https://api.github.com/users/stevefaulkner/gists{/gist_id}",
    "starred_url": "https://api.github.com/users/stevefaulkner/starred{/owner}{/repo}",
    "subscriptions_url": "https://api.github.com/users/stevefaulkner/subscriptions",
    "organizations_url": "https://api.github.com/users/stevefaulkner/orgs",
    "repos_url": "https://api.github.com/users/stevefaulkner/repos",
    "events_url": "https://api.github.com/users/stevefaulkner/events{/privacy}",
    "received_events_url": "https://api.github.com/users/stevefaulkner/received_events",
    "type": "User",
    "site_admin": false
  },
  "created_at": "2014-05-01T12:07:33Z",
  "updated_at": "2014-05-01T12:07:33Z",
  "body": "suggest showing example using &lt;caption> element http://www.w3.org/html/wg/drafts/html/master/tabular-data.html#the-caption-element"
}
, {
  "url": "https://api.github.com/repos/google/WebFundamentals/issues/comments/41904293",
  "html_url": "https://github.com/google/WebFundamentals/issues/47#issuecomment-41904293",
  "issue_url": "https://api.github.com/repos/google/WebFundamentals/issues/47",
  "id": 41904293,
  "user": {
    "login": "PaulKinlan",
    "id": 45510,
    "avatar_url": "https://avatars.githubusercontent.com/u/45510?v=3",
    "gravatar_id": "",
    "url": "https://api.github.com/users/PaulKinlan",
    "html_url": "https://github.com/PaulKinlan",
    "followers_url": "https://api.github.com/users/PaulKinlan/followers",
    "following_url": "https://api.github.com/users/PaulKinlan/following{/other_user}",
    "gists_url": "https://api.github.com/users/PaulKinlan/gists{/gist_id}",
    "starred_url": "https://api.github.com/users/PaulKinlan/starred{/owner}{/repo}",
    "subscriptions_url": "https://api.github.com/users/PaulKinlan/subscriptions",
    "organizations_url": "https://api.github.com/users/PaulKinlan/orgs",
    "repos_url": "https://api.github.com/users/PaulKinlan/repos",
    "events_url": "https://api.github.com/users/PaulKinlan/events{/privacy}",
    "received_events_url": "https://api.github.com/users/PaulKinlan/received_events",
    "type": "User",
    "site_admin": false
  },
  "created_at": "2014-05-01T12:07:48Z",
  "updated_at": "2014-05-01T12:07:48Z",
  "body": "Will fix too. thanks for spotting that."
}
, {
  "url": "https://api.github.com/repos/google/WebFundamentals/issues/comments/41917975",
  "html_url": "https://github.com/google/WebFundamentals/issues/47#issuecomment-41917975",
  "issue_url": "https://api.github.com/repos/google/WebFundamentals/issues/47",
  "id": 41917975,
  "user": {
    "login": "PaulKinlan",
    "id": 45510,
    "avatar_url": "https://avatars.githubusercontent.com/u/45510?v=3",
    "gravatar_id": "",
    "url": "https://api.github.com/users/PaulKinlan",
    "html_url": "https://github.com/PaulKinlan",
    "followers_url": "https://api.github.com/users/PaulKinlan/followers",
    "following_url": "https://api.github.com/users/PaulKinlan/following{/other_user}",
    "gists_url": "https://api.github.com/users/PaulKinlan/gists{/gist_id}",
    "starred_url": "https://api.github.com/users/PaulKinlan/starred{/owner}{/repo}",
    "subscriptions_url": "https://api.github.com/users/PaulKinlan/subscriptions",
    "organizations_url": "https://api.github.com/users/PaulKinlan/orgs",
    "repos_url": "https://api.github.com/users/PaulKinlan/repos",
    "events_url": "https://api.github.com/users/PaulKinlan/events{/privacy}",
    "received_events_url": "https://api.github.com/users/PaulKinlan/received_events",
    "type": "User",
    "site_admin": false
  },
  "created_at": "2014-05-01T15:04:26Z",
  "updated_at": "2014-05-01T15:04:26Z",
  "body": "Fixed with: 9440d9a524ac7fa1ea50aae412f89c0c05c9c7e1"
}
]
