[
{
  "login": "zimmi",
  "id": 1998530,
  "avatar_url": "https://avatars.githubusercontent.com/u/1998530?v=3",
  "gravatar_id": "",
  "url": "https://api.github.com/users/zimmi",
  "html_url": "https://github.com/zimmi",
  "followers_url": "https://api.github.com/users/zimmi/followers",
  "following_url": "https://api.github.com/users/zimmi/following{/other_user}",
  "gists_url": "https://api.github.com/users/zimmi/gists{/gist_id}",
  "starred_url": "https://api.github.com/users/zimmi/starred{/owner}{/repo}",
  "subscriptions_url": "https://api.github.com/users/zimmi/subscriptions",
  "organizations_url": "https://api.github.com/users/zimmi/orgs",
  "repos_url": "https://api.github.com/users/zimmi/repos",
  "events_url": "https://api.github.com/users/zimmi/events{/privacy}",
  "received_events_url": "https://api.github.com/users/zimmi/received_events",
  "type": "User",
  "site_admin": false
}
, {
  "login": "davidmr001",
  "id": 158035,
  "avatar_url": "https://avatars.githubusercontent.com/u/158035?v=3",
  "gravatar_id": "",
  "url": "https://api.github.com/users/davidmr001",
  "html_url": "https://github.com/davidmr001",
  "followers_url": "https://api.github.com/users/davidmr001/followers",
  "following_url": "https://api.github.com/users/davidmr001/following{/other_user}",
  "gists_url": "https://api.github.com/users/davidmr001/gists{/gist_id}",
  "starred_url": "https://api.github.com/users/davidmr001/starred{/owner}{/repo}",
  "subscriptions_url": "https://api.github.com/users/davidmr001/subscriptions",
  "organizations_url": "https://api.github.com/users/davidmr001/orgs",
  "repos_url": "https://api.github.com/users/davidmr001/repos",
  "events_url": "https://api.github.com/users/davidmr001/events{/privacy}",
  "received_events_url": "https://api.github.com/users/davidmr001/received_events",
  "type": "User",
  "site_admin": false
}
, {
  "login": "yinaxiong",
  "id": 7835924,
  "avatar_url": "https://avatars.githubusercontent.com/u/7835924?v=3",
  "gravatar_id": "",
  "url": "https://api.github.com/users/yinaxiong",
  "html_url": "https://github.com/yinaxiong",
  "followers_url": "https://api.github.com/users/yinaxiong/followers",
  "following_url": "https://api.github.com/users/yinaxiong/following{/other_user}",
  "gists_url": "https://api.github.com/users/yinaxiong/gists{/gist_id}",
  "starred_url": "https://api.github.com/users/yinaxiong/starred{/owner}{/repo}",
  "subscriptions_url": "https://api.github.com/users/yinaxiong/subscriptions",
  "organizations_url": "https://api.github.com/users/yinaxiong/orgs",
  "repos_url": "https://api.github.com/users/yinaxiong/repos",
  "events_url": "https://api.github.com/users/yinaxiong/events{/privacy}",
  "received_events_url": "https://api.github.com/users/yinaxiong/received_events",
  "type": "User",
  "site_admin": false
}
, {
  "login": "zkbswgs",
  "id": 1924384,
  "avatar_url": "https://avatars.githubusercontent.com/u/1924384?v=3",
  "gravatar_id": "",
  "url": "https://api.github.com/users/zkbswgs",
  "html_url": "https://github.com/zkbswgs",
  "followers_url": "https://api.github.com/users/zkbswgs/followers",
  "following_url": "https://api.github.com/users/zkbswgs/following{/other_user}",
  "gists_url": "https://api.github.com/users/zkbswgs/gists{/gist_id}",
  "starred_url": "https://api.github.com/users/zkbswgs/starred{/owner}{/repo}",
  "subscriptions_url": "https://api.github.com/users/zkbswgs/subscriptions",
  "organizations_url": "https://api.github.com/users/zkbswgs/orgs",
  "repos_url": "https://api.github.com/users/zkbswgs/repos",
  "events_url": "https://api.github.com/users/zkbswgs/events{/privacy}",
  "received_events_url": "https://api.github.com/users/zkbswgs/received_events",
  "type": "User",
  "site_admin": false
}
, {
  "login": "DennisJin",
  "id": 1669631,
  "avatar_url": "https://avatars.githubusercontent.com/u/1669631?v=3",
  "gravatar_id": "",
  "url": "https://api.github.com/users/DennisJin",
  "html_url": "https://github.com/DennisJin",
  "followers_url": "https://api.github.com/users/DennisJin/followers",
  "following_url": "https://api.github.com/users/DennisJin/following{/other_user}",
  "gists_url": "https://api.github.com/users/DennisJin/gists{/gist_id}",
  "starred_url": "https://api.github.com/users/DennisJin/starred{/owner}{/repo}",
  "subscriptions_url": "https://api.github.com/users/DennisJin/subscriptions",
  "organizations_url": "https://api.github.com/users/DennisJin/orgs",
  "repos_url": "https://api.github.com/users/DennisJin/repos",
  "events_url": "https://api.github.com/users/DennisJin/events{/privacy}",
  "received_events_url": "https://api.github.com/users/DennisJin/received_events",
  "type": "User",
  "site_admin": false
}
, {
  "login": "shanyongwang",
  "id": 3240511,
  "avatar_url": "https://avatars.githubusercontent.com/u/3240511?v=3",
  "gravatar_id": "",
  "url": "https://api.github.com/users/shanyongwang",
  "html_url": "https://github.com/shanyongwang",
  "followers_url": "https://api.github.com/users/shanyongwang/followers",
  "following_url": "https://api.github.com/users/shanyongwang/following{/other_user}",
  "gists_url": "https://api.github.com/users/shanyongwang/gists{/gist_id}",
  "starred_url": "https://api.github.com/users/shanyongwang/starred{/owner}{/repo}",
  "subscriptions_url": "https://api.github.com/users/shanyongwang/subscriptions",
  "organizations_url": "https://api.github.com/users/shanyongwang/orgs",
  "repos_url": "https://api.github.com/users/shanyongwang/repos",
  "events_url": "https://api.github.com/users/shanyongwang/events{/privacy}",
  "received_events_url": "https://api.github.com/users/shanyongwang/received_events",
  "type": "User",
  "site_admin": false
}
, {
  "login": "yutian",
  "id": 1321293,
  "avatar_url": "https://avatars.githubusercontent.com/u/1321293?v=3",
  "gravatar_id": "",
  "url": "https://api.github.com/users/yutian",
  "html_url": "https://github.com/yutian",
  "followers_url": "https://api.github.com/users/yutian/followers",
  "following_url": "https://api.github.com/users/yutian/following{/other_user}",
  "gists_url": "https://api.github.com/users/yutian/gists{/gist_id}",
  "starred_url": "https://api.github.com/users/yutian/starred{/owner}{/repo}",
  "subscriptions_url": "https://api.github.com/users/yutian/subscriptions",
  "organizations_url": "https://api.github.com/users/yutian/orgs",
  "repos_url": "https://api.github.com/users/yutian/repos",
  "events_url": "https://api.github.com/users/yutian/events{/privacy}",
  "received_events_url": "https://api.github.com/users/yutian/received_events",
  "type": "User",
  "site_admin": false
}
, {
  "login": "carlspring",
  "id": 1436265,
  "avatar_url": "https://avatars.githubusercontent.com/u/1436265?v=3",
  "gravatar_id": "",
  "url": "https://api.github.com/users/carlspring",
  "html_url": "https://github.com/carlspring",
  "followers_url": "https://api.github.com/users/carlspring/followers",
  "following_url": "https://api.github.com/users/carlspring/following{/other_user}",
  "gists_url": "https://api.github.com/users/carlspring/gists{/gist_id}",
  "starred_url": "https://api.github.com/users/carlspring/starred{/owner}{/repo}",
  "subscriptions_url": "https://api.github.com/users/carlspring/subscriptions",
  "organizations_url": "https://api.github.com/users/carlspring/orgs",
  "repos_url": "https://api.github.com/users/carlspring/repos",
  "events_url": "https://api.github.com/users/carlspring/events{/privacy}",
  "received_events_url": "https://api.github.com/users/carlspring/received_events",
  "type": "User",
  "site_admin": false
}
, {
  "login": "m1911star",
  "id": 4948120,
  "avatar_url": "https://avatars.githubusercontent.com/u/4948120?v=3",
  "gravatar_id": "",
  "url": "https://api.github.com/users/m1911star",
  "html_url": "https://github.com/m1911star",
  "followers_url": "https://api.github.com/users/m1911star/followers",
  "following_url": "https://api.github.com/users/m1911star/following{/other_user}",
  "gists_url": "https://api.github.com/users/m1911star/gists{/gist_id}",
  "starred_url": "https://api.github.com/users/m1911star/starred{/owner}{/repo}",
  "subscriptions_url": "https://api.github.com/users/m1911star/subscriptions",
  "organizations_url": "https://api.github.com/users/m1911star/orgs",
  "repos_url": "https://api.github.com/users/m1911star/repos",
  "events_url": "https://api.github.com/users/m1911star/events{/privacy}",
  "received_events_url": "https://api.github.com/users/m1911star/received_events",
  "type": "User",
  "site_admin": false
}
, {
  "login": "ChinaLongGanHu",
  "id": 1594640,
  "avatar_url": "https://avatars.githubusercontent.com/u/1594640?v=3",
  "gravatar_id": "",
  "url": "https://api.github.com/users/ChinaLongGanHu",
  "html_url": "https://github.com/ChinaLongGanHu",
  "followers_url": "https://api.github.com/users/ChinaLongGanHu/followers",
  "following_url": "https://api.github.com/users/ChinaLongGanHu/following{/other_user}",
  "gists_url": "https://api.github.com/users/ChinaLongGanHu/gists{/gist_id}",
  "starred_url": "https://api.github.com/users/ChinaLongGanHu/starred{/owner}{/repo}",
  "subscriptions_url": "https://api.github.com/users/ChinaLongGanHu/subscriptions",
  "organizations_url": "https://api.github.com/users/ChinaLongGanHu/orgs",
  "repos_url": "https://api.github.com/users/ChinaLongGanHu/repos",
  "events_url": "https://api.github.com/users/ChinaLongGanHu/events{/privacy}",
  "received_events_url": "https://api.github.com/users/ChinaLongGanHu/received_events",
  "type": "User",
  "site_admin": false
}
, {
  "login": "magneval",
  "id": 1663017,
  "avatar_url": "https://avatars.githubusercontent.com/u/1663017?v=3",
  "gravatar_id": "",
  "url": "https://api.github.com/users/magneval",
  "html_url": "https://github.com/magneval",
  "followers_url": "https://api.github.com/users/magneval/followers",
  "following_url": "https://api.github.com/users/magneval/following{/other_user}",
  "gists_url": "https://api.github.com/users/magneval/gists{/gist_id}",
  "starred_url": "https://api.github.com/users/magneval/starred{/owner}{/repo}",
  "subscriptions_url": "https://api.github.com/users/magneval/subscriptions",
  "organizations_url": "https://api.github.com/users/magneval/orgs",
  "repos_url": "https://api.github.com/users/magneval/repos",
  "events_url": "https://api.github.com/users/magneval/events{/privacy}",
  "received_events_url": "https://api.github.com/users/magneval/received_events",
  "type": "User",
  "site_admin": false
}
, {
  "login": "dafei1288",
  "id": 345244,
  "avatar_url": "https://avatars.githubusercontent.com/u/345244?v=3",
  "gravatar_id": "",
  "url": "https://api.github.com/users/dafei1288",
  "html_url": "https://github.com/dafei1288",
  "followers_url": "https://api.github.com/users/dafei1288/followers",
  "following_url": "https://api.github.com/users/dafei1288/following{/other_user}",
  "gists_url": "https://api.github.com/users/dafei1288/gists{/gist_id}",
  "starred_url": "https://api.github.com/users/dafei1288/starred{/owner}{/repo}",
  "subscriptions_url": "https://api.github.com/users/dafei1288/subscriptions",
  "organizations_url": "https://api.github.com/users/dafei1288/orgs",
  "repos_url": "https://api.github.com/users/dafei1288/repos",
  "events_url": "https://api.github.com/users/dafei1288/events{/privacy}",
  "received_events_url": "https://api.github.com/users/dafei1288/received_events",
  "type": "User",
  "site_admin": false
}
, {
  "login": "poprlz",
  "id": 661089,
  "avatar_url": "https://avatars.githubusercontent.com/u/661089?v=3",
  "gravatar_id": "",
  "url": "https://api.github.com/users/poprlz",
  "html_url": "https://github.com/poprlz",
  "followers_url": "https://api.github.com/users/poprlz/followers",
  "following_url": "https://api.github.com/users/poprlz/following{/other_user}",
  "gists_url": "https://api.github.com/users/poprlz/gists{/gist_id}",
  "starred_url": "https://api.github.com/users/poprlz/starred{/owner}{/repo}",
  "subscriptions_url": "https://api.github.com/users/poprlz/subscriptions",
  "organizations_url": "https://api.github.com/users/poprlz/orgs",
  "repos_url": "https://api.github.com/users/poprlz/repos",
  "events_url": "https://api.github.com/users/poprlz/events{/privacy}",
  "received_events_url": "https://api.github.com/users/poprlz/received_events",
  "type": "User",
  "site_admin": false
}
, {
  "login": "liuxinglanyue",
  "id": 1018409,
  "avatar_url": "https://avatars.githubusercontent.com/u/1018409?v=3",
  "gravatar_id": "",
  "url": "https://api.github.com/users/liuxinglanyue",
  "html_url": "https://github.com/liuxinglanyue",
  "followers_url": "https://api.github.com/users/liuxinglanyue/followers",
  "following_url": "https://api.github.com/users/liuxinglanyue/following{/other_user}",
  "gists_url": "https://api.github.com/users/liuxinglanyue/gists{/gist_id}",
  "starred_url": "https://api.github.com/users/liuxinglanyue/starred{/owner}{/repo}",
  "subscriptions_url": "https://api.github.com/users/liuxinglanyue/subscriptions",
  "organizations_url": "https://api.github.com/users/liuxinglanyue/orgs",
  "repos_url": "https://api.github.com/users/liuxinglanyue/repos",
  "events_url": "https://api.github.com/users/liuxinglanyue/events{/privacy}",
  "received_events_url": "https://api.github.com/users/liuxinglanyue/received_events",
  "type": "User",
  "site_admin": false
}
, {
  "login": "pono",
  "id": 1100258,
  "avatar_url": "https://avatars.githubusercontent.com/u/1100258?v=3",
  "gravatar_id": "",
  "url": "https://api.github.com/users/pono",
  "html_url": "https://github.com/pono",
  "followers_url": "https://api.github.com/users/pono/followers",
  "following_url": "https://api.github.com/users/pono/following{/other_user}",
  "gists_url": "https://api.github.com/users/pono/gists{/gist_id}",
  "starred_url": "https://api.github.com/users/pono/starred{/owner}{/repo}",
  "subscriptions_url": "https://api.github.com/users/pono/subscriptions",
  "organizations_url": "https://api.github.com/users/pono/orgs",
  "repos_url": "https://api.github.com/users/pono/repos",
  "events_url": "https://api.github.com/users/pono/events{/privacy}",
  "received_events_url": "https://api.github.com/users/pono/received_events",
  "type": "User",
  "site_admin": false
}
, {
  "login": "dg711",
  "id": 7551036,
  "avatar_url": "https://avatars.githubusercontent.com/u/7551036?v=3",
  "gravatar_id": "",
  "url": "https://api.github.com/users/dg711",
  "html_url": "https://github.com/dg711",
  "followers_url": "https://api.github.com/users/dg711/followers",
  "following_url": "https://api.github.com/users/dg711/following{/other_user}",
  "gists_url": "https://api.github.com/users/dg711/gists{/gist_id}",
  "starred_url": "https://api.github.com/users/dg711/starred{/owner}{/repo}",
  "subscriptions_url": "https://api.github.com/users/dg711/subscriptions",
  "organizations_url": "https://api.github.com/users/dg711/orgs",
  "repos_url": "https://api.github.com/users/dg711/repos",
  "events_url": "https://api.github.com/users/dg711/events{/privacy}",
  "received_events_url": "https://api.github.com/users/dg711/received_events",
  "type": "User",
  "site_admin": false
}
, {
  "login": "bujingyun23",
  "id": 5835726,
  "avatar_url": "https://avatars.githubusercontent.com/u/5835726?v=3",
  "gravatar_id": "",
  "url": "https://api.github.com/users/bujingyun23",
  "html_url": "https://github.com/bujingyun23",
  "followers_url": "https://api.github.com/users/bujingyun23/followers",
  "following_url": "https://api.github.com/users/bujingyun23/following{/other_user}",
  "gists_url": "https://api.github.com/users/bujingyun23/gists{/gist_id}",
  "starred_url": "https://api.github.com/users/bujingyun23/starred{/owner}{/repo}",
  "subscriptions_url": "https://api.github.com/users/bujingyun23/subscriptions",
  "organizations_url": "https://api.github.com/users/bujingyun23/orgs",
  "repos_url": "https://api.github.com/users/bujingyun23/repos",
  "events_url": "https://api.github.com/users/bujingyun23/events{/privacy}",
  "received_events_url": "https://api.github.com/users/bujingyun23/received_events",
  "type": "User",
  "site_admin": false
}
]
