[
{
  "url": "https://api.github.com/repos/apache/velocity-engine/issues/3",
  "labels_url": "https://api.github.com/repos/apache/velocity-engine/issues/3/labels{/name}",
  "comments_url": "https://api.github.com/repos/apache/velocity-engine/issues/3/comments",
  "events_url": "https://api.github.com/repos/apache/velocity-engine/issues/3/events",
  "html_url": "https://github.com/apache/velocity-engine/pull/3",
  "id": 89735495,
  "number": 3,
  "title": "Added the S3Resource Loader to pull velocity templates from Amazon S3…",
  "user": {
    "login": "ghost",
    "id": 10137,
    "avatar_url": "https://avatars.githubusercontent.com/u/10137?v=3",
    "gravatar_id": "",
    "url": "https://api.github.com/users/ghost",
    "html_url": "https://github.com/ghost",
    "followers_url": "https://api.github.com/users/ghost/followers",
    "following_url": "https://api.github.com/users/ghost/following{/other_user}",
    "gists_url": "https://api.github.com/users/ghost/gists{/gist_id}",
    "starred_url": "https://api.github.com/users/ghost/starred{/owner}{/repo}",
    "subscriptions_url": "https://api.github.com/users/ghost/subscriptions",
    "organizations_url": "https://api.github.com/users/ghost/orgs",
    "repos_url": "https://api.github.com/users/ghost/repos",
    "events_url": "https://api.github.com/users/ghost/events{/privacy}",
    "received_events_url": "https://api.github.com/users/ghost/received_events",
    "type": "User",
    "site_admin": false
  },
  "labels": [],
  "state": "open",
  "locked": false,
  "assignee": null,
  "milestone": null,
  "comments": 0,
  "created_at": "2015-06-20T07:54:46Z",
  "updated_at": "2015-06-20T15:05:21Z",
  "closed_at": null,
  "pull_request": {
    "url": "https://api.github.com/repos/apache/velocity-engine/pulls/3",
    "html_url": "https://github.com/apache/velocity-engine/pull/3",
    "diff_url": "https://github.com/apache/velocity-engine/pull/3.diff",
    "patch_url": "https://github.com/apache/velocity-engine/pull/3.patch"
  },
  "body": "… bucket"
}
, {
  "url": "https://api.github.com/repos/apache/velocity-engine/issues/2",
  "labels_url": "https://api.github.com/repos/apache/velocity-engine/issues/2/labels{/name}",
  "comments_url": "https://api.github.com/repos/apache/velocity-engine/issues/2/comments",
  "events_url": "https://api.github.com/repos/apache/velocity-engine/issues/2/events",
  "html_url": "https://github.com/apache/velocity-engine/pull/2",
  "id": 86301906,
  "number": 2,
  "title": "Add generics parameters and remove unnecesary casts",
  "user": {
    "login": "sdumitriu",
    "id": 88663,
    "avatar_url": "https://avatars.githubusercontent.com/u/88663?v=3",
    "gravatar_id": "",
    "url": "https://api.github.com/users/sdumitriu",
    "html_url": "https://github.com/sdumitriu",
    "followers_url": "https://api.github.com/users/sdumitriu/followers",
    "following_url": "https://api.github.com/users/sdumitriu/following{/other_user}",
    "gists_url": "https://api.github.com/users/sdumitriu/gists{/gist_id}",
    "starred_url": "https://api.github.com/users/sdumitriu/starred{/owner}{/repo}",
    "subscriptions_url": "https://api.github.com/users/sdumitriu/subscriptions",
    "organizations_url": "https://api.github.com/users/sdumitriu/orgs",
    "repos_url": "https://api.github.com/users/sdumitriu/repos",
    "events_url": "https://api.github.com/users/sdumitriu/events{/privacy}",
    "received_events_url": "https://api.github.com/users/sdumitriu/received_events",
    "type": "User",
    "site_admin": false
  },
  "labels": [],
  "state": "open",
  "locked": false,
  "assignee": null,
  "milestone": null,
  "comments": 0,
  "created_at": "2015-06-08T19:33:43Z",
  "updated_at": "2015-06-13T02:45:39Z",
  "closed_at": null,
  "pull_request": {
    "url": "https://api.github.com/repos/apache/velocity-engine/pulls/2",
    "html_url": "https://github.com/apache/velocity-engine/pull/2",
    "diff_url": "https://github.com/apache/velocity-engine/pull/2.diff",
    "patch_url": "https://github.com/apache/velocity-engine/pull/2.patch"
  },
  "body": ""
}
]
