[
{
  "login": "mortenbagai",
  "id": 749,
  "avatar_url": "https://avatars.githubusercontent.com/u/749?v=3",
  "gravatar_id": "",
  "url": "https://api.github.com/users/mortenbagai",
  "html_url": "https://github.com/mortenbagai",
  "followers_url": "https://api.github.com/users/mortenbagai/followers",
  "following_url": "https://api.github.com/users/mortenbagai/following{/other_user}",
  "gists_url": "https://api.github.com/users/mortenbagai/gists{/gist_id}",
  "starred_url": "https://api.github.com/users/mortenbagai/starred{/owner}{/repo}",
  "subscriptions_url": "https://api.github.com/users/mortenbagai/subscriptions",
  "organizations_url": "https://api.github.com/users/mortenbagai/orgs",
  "repos_url": "https://api.github.com/users/mortenbagai/repos",
  "events_url": "https://api.github.com/users/mortenbagai/events{/privacy}",
  "received_events_url": "https://api.github.com/users/mortenbagai/received_events",
  "type": "User",
  "site_admin": false
}
, {
  "login": "stolt45",
  "id": 1688,
  "avatar_url": "https://avatars.githubusercontent.com/u/1688?v=3",
  "gravatar_id": "",
  "url": "https://api.github.com/users/stolt45",
  "html_url": "https://github.com/stolt45",
  "followers_url": "https://api.github.com/users/stolt45/followers",
  "following_url": "https://api.github.com/users/stolt45/following{/other_user}",
  "gists_url": "https://api.github.com/users/stolt45/gists{/gist_id}",
  "starred_url": "https://api.github.com/users/stolt45/starred{/owner}{/repo}",
  "subscriptions_url": "https://api.github.com/users/stolt45/subscriptions",
  "organizations_url": "https://api.github.com/users/stolt45/orgs",
  "repos_url": "https://api.github.com/users/stolt45/repos",
  "events_url": "https://api.github.com/users/stolt45/events{/privacy}",
  "received_events_url": "https://api.github.com/users/stolt45/received_events",
  "type": "User",
  "site_admin": false
}
, {
  "login": "jsullivan",
  "id": 2144,
  "avatar_url": "https://avatars.githubusercontent.com/u/2144?v=3",
  "gravatar_id": "",
  "url": "https://api.github.com/users/jsullivan",
  "html_url": "https://github.com/jsullivan",
  "followers_url": "https://api.github.com/users/jsullivan/followers",
  "following_url": "https://api.github.com/users/jsullivan/following{/other_user}",
  "gists_url": "https://api.github.com/users/jsullivan/gists{/gist_id}",
  "starred_url": "https://api.github.com/users/jsullivan/starred{/owner}{/repo}",
  "subscriptions_url": "https://api.github.com/users/jsullivan/subscriptions",
  "organizations_url": "https://api.github.com/users/jsullivan/orgs",
  "repos_url": "https://api.github.com/users/jsullivan/repos",
  "events_url": "https://api.github.com/users/jsullivan/events{/privacy}",
  "received_events_url": "https://api.github.com/users/jsullivan/received_events",
  "type": "User",
  "site_admin": false
}
, {
  "login": "cyx",
  "id": 2257,
  "avatar_url": "https://avatars.githubusercontent.com/u/2257?v=3",
  "gravatar_id": "",
  "url": "https://api.github.com/users/cyx",
  "html_url": "https://github.com/cyx",
  "followers_url": "https://api.github.com/users/cyx/followers",
  "following_url": "https://api.github.com/users/cyx/following{/other_user}",
  "gists_url": "https://api.github.com/users/cyx/gists{/gist_id}",
  "starred_url": "https://api.github.com/users/cyx/starred{/owner}{/repo}",
  "subscriptions_url": "https://api.github.com/users/cyx/subscriptions",
  "organizations_url": "https://api.github.com/users/cyx/orgs",
  "repos_url": "https://api.github.com/users/cyx/repos",
  "events_url": "https://api.github.com/users/cyx/events{/privacy}",
  "received_events_url": "https://api.github.com/users/cyx/received_events",
  "type": "User",
  "site_admin": false
}
, {
  "login": "neovintage",
  "id": 2482,
  "avatar_url": "https://avatars.githubusercontent.com/u/2482?v=3",
  "gravatar_id": "",
  "url": "https://api.github.com/users/neovintage",
  "html_url": "https://github.com/neovintage",
  "followers_url": "https://api.github.com/users/neovintage/followers",
  "following_url": "https://api.github.com/users/neovintage/following{/other_user}",
  "gists_url": "https://api.github.com/users/neovintage/gists{/gist_id}",
  "starred_url": "https://api.github.com/users/neovintage/starred{/owner}{/repo}",
  "subscriptions_url": "https://api.github.com/users/neovintage/subscriptions",
  "organizations_url": "https://api.github.com/users/neovintage/orgs",
  "repos_url": "https://api.github.com/users/neovintage/repos",
  "events_url": "https://api.github.com/users/neovintage/events{/privacy}",
  "received_events_url": "https://api.github.com/users/neovintage/received_events",
  "type": "User",
  "site_admin": false
}
, {
  "login": "dmathieu",
  "id": 9347,
  "avatar_url": "https://avatars.githubusercontent.com/u/9347?v=3",
  "gravatar_id": "",
  "url": "https://api.github.com/users/dmathieu",
  "html_url": "https://github.com/dmathieu",
  "followers_url": "https://api.github.com/users/dmathieu/followers",
  "following_url": "https://api.github.com/users/dmathieu/following{/other_user}",
  "gists_url": "https://api.github.com/users/dmathieu/gists{/gist_id}",
  "starred_url": "https://api.github.com/users/dmathieu/starred{/owner}{/repo}",
  "subscriptions_url": "https://api.github.com/users/dmathieu/subscriptions",
  "organizations_url": "https://api.github.com/users/dmathieu/orgs",
  "repos_url": "https://api.github.com/users/dmathieu/repos",
  "events_url": "https://api.github.com/users/dmathieu/events{/privacy}",
  "received_events_url": "https://api.github.com/users/dmathieu/received_events",
  "type": "User",
  "site_admin": false
}
, {
  "login": "ko1",
  "id": 9558,
  "avatar_url": "https://avatars.githubusercontent.com/u/9558?v=3",
  "gravatar_id": "",
  "url": "https://api.github.com/users/ko1",
  "html_url": "https://github.com/ko1",
  "followers_url": "https://api.github.com/users/ko1/followers",
  "following_url": "https://api.github.com/users/ko1/following{/other_user}",
  "gists_url": "https://api.github.com/users/ko1/gists{/gist_id}",
  "starred_url": "https://api.github.com/users/ko1/starred{/owner}{/repo}",
  "subscriptions_url": "https://api.github.com/users/ko1/subscriptions",
  "organizations_url": "https://api.github.com/users/ko1/orgs",
  "repos_url": "https://api.github.com/users/ko1/repos",
  "events_url": "https://api.github.com/users/ko1/events{/privacy}",
  "received_events_url": "https://api.github.com/users/ko1/received_events",
  "type": "User",
  "site_admin": false
}
, {
  "login": "dmcinnes",
  "id": 16557,
  "avatar_url": "https://avatars.githubusercontent.com/u/16557?v=3",
  "gravatar_id": "",
  "url": "https://api.github.com/users/dmcinnes",
  "html_url": "https://github.com/dmcinnes",
  "followers_url": "https://api.github.com/users/dmcinnes/followers",
  "following_url": "https://api.github.com/users/dmcinnes/following{/other_user}",
  "gists_url": "https://api.github.com/users/dmcinnes/gists{/gist_id}",
  "starred_url": "https://api.github.com/users/dmcinnes/starred{/owner}{/repo}",
  "subscriptions_url": "https://api.github.com/users/dmcinnes/subscriptions",
  "organizations_url": "https://api.github.com/users/dmcinnes/orgs",
  "repos_url": "https://api.github.com/users/dmcinnes/repos",
  "events_url": "https://api.github.com/users/dmcinnes/events{/privacy}",
  "received_events_url": "https://api.github.com/users/dmcinnes/received_events",
  "type": "User",
  "site_admin": false
}
, {
  "login": "nobu",
  "id": 16700,
  "avatar_url": "https://avatars.githubusercontent.com/u/16700?v=3",
  "gravatar_id": "",
  "url": "https://api.github.com/users/nobu",
  "html_url": "https://github.com/nobu",
  "followers_url": "https://api.github.com/users/nobu/followers",
  "following_url": "https://api.github.com/users/nobu/following{/other_user}",
  "gists_url": "https://api.github.com/users/nobu/gists{/gist_id}",
  "starred_url": "https://api.github.com/users/nobu/starred{/owner}{/repo}",
  "subscriptions_url": "https://api.github.com/users/nobu/subscriptions",
  "organizations_url": "https://api.github.com/users/nobu/orgs",
  "repos_url": "https://api.github.com/users/nobu/repos",
  "events_url": "https://api.github.com/users/nobu/events{/privacy}",
  "received_events_url": "https://api.github.com/users/nobu/received_events",
  "type": "User",
  "site_admin": false
}
, {
  "login": "zunda",
  "id": 30968,
  "avatar_url": "https://avatars.githubusercontent.com/u/30968?v=3",
  "gravatar_id": "",
  "url": "https://api.github.com/users/zunda",
  "html_url": "https://github.com/zunda",
  "followers_url": "https://api.github.com/users/zunda/followers",
  "following_url": "https://api.github.com/users/zunda/following{/other_user}",
  "gists_url": "https://api.github.com/users/zunda/gists{/gist_id}",
  "starred_url": "https://api.github.com/users/zunda/starred{/owner}{/repo}",
  "subscriptions_url": "https://api.github.com/users/zunda/subscriptions",
  "organizations_url": "https://api.github.com/users/zunda/orgs",
  "repos_url": "https://api.github.com/users/zunda/repos",
  "events_url": "https://api.github.com/users/zunda/events{/privacy}",
  "received_events_url": "https://api.github.com/users/zunda/received_events",
  "type": "User",
  "site_admin": false
}
, {
  "login": "theandym",
  "id": 41322,
  "avatar_url": "https://avatars.githubusercontent.com/u/41322?v=3",
  "gravatar_id": "",
  "url": "https://api.github.com/users/theandym",
  "html_url": "https://github.com/theandym",
  "followers_url": "https://api.github.com/users/theandym/followers",
  "following_url": "https://api.github.com/users/theandym/following{/other_user}",
  "gists_url": "https://api.github.com/users/theandym/gists{/gist_id}",
  "starred_url": "https://api.github.com/users/theandym/starred{/owner}{/repo}",
  "subscriptions_url": "https://api.github.com/users/theandym/subscriptions",
  "organizations_url": "https://api.github.com/users/theandym/orgs",
  "repos_url": "https://api.github.com/users/theandym/repos",
  "events_url": "https://api.github.com/users/theandym/events{/privacy}",
  "received_events_url": "https://api.github.com/users/theandym/received_events",
  "type": "User",
  "site_admin": false
}
, {
  "login": "hgmnz",
  "id": 41895,
  "avatar_url": "https://avatars.githubusercontent.com/u/41895?v=3",
  "gravatar_id": "",
  "url": "https://api.github.com/users/hgmnz",
  "html_url": "https://github.com/hgmnz",
  "followers_url": "https://api.github.com/users/hgmnz/followers",
  "following_url": "https://api.github.com/users/hgmnz/following{/other_user}",
  "gists_url": "https://api.github.com/users/hgmnz/gists{/gist_id}",
  "starred_url": "https://api.github.com/users/hgmnz/starred{/owner}{/repo}",
  "subscriptions_url": "https://api.github.com/users/hgmnz/subscriptions",
  "organizations_url": "https://api.github.com/users/hgmnz/orgs",
  "repos_url": "https://api.github.com/users/hgmnz/repos",
  "events_url": "https://api.github.com/users/hgmnz/events{/privacy}",
  "received_events_url": "https://api.github.com/users/hgmnz/received_events",
  "type": "User",
  "site_admin": false
}
, {
  "login": "garyposter",
  "id": 44391,
  "avatar_url": "https://avatars.githubusercontent.com/u/44391?v=3",
  "gravatar_id": "",
  "url": "https://api.github.com/users/garyposter",
  "html_url": "https://github.com/garyposter",
  "followers_url": "https://api.github.com/users/garyposter/followers",
  "following_url": "https://api.github.com/users/garyposter/following{/other_user}",
  "gists_url": "https://api.github.com/users/garyposter/gists{/gist_id}",
  "starred_url": "https://api.github.com/users/garyposter/starred{/owner}{/repo}",
  "subscriptions_url": "https://api.github.com/users/garyposter/subscriptions",
  "organizations_url": "https://api.github.com/users/garyposter/orgs",
  "repos_url": "https://api.github.com/users/garyposter/repos",
  "events_url": "https://api.github.com/users/garyposter/events{/privacy}",
  "received_events_url": "https://api.github.com/users/garyposter/received_events",
  "type": "User",
  "site_admin": false
}
, {
  "login": "apg",
  "id": 44547,
  "avatar_url": "https://avatars.githubusercontent.com/u/44547?v=3",
  "gravatar_id": "",
  "url": "https://api.github.com/users/apg",
  "html_url": "https://github.com/apg",
  "followers_url": "https://api.github.com/users/apg/followers",
  "following_url": "https://api.github.com/users/apg/following{/other_user}",
  "gists_url": "https://api.github.com/users/apg/gists{/gist_id}",
  "starred_url": "https://api.github.com/users/apg/starred{/owner}{/repo}",
  "subscriptions_url": "https://api.github.com/users/apg/subscriptions",
  "organizations_url": "https://api.github.com/users/apg/orgs",
  "repos_url": "https://api.github.com/users/apg/repos",
  "events_url": "https://api.github.com/users/apg/events{/privacy}",
  "received_events_url": "https://api.github.com/users/apg/received_events",
  "type": "User",
  "site_admin": false
}
, {
  "login": "almonk",
  "id": 51724,
  "avatar_url": "https://avatars.githubusercontent.com/u/51724?v=3",
  "gravatar_id": "",
  "url": "https://api.github.com/users/almonk",
  "html_url": "https://github.com/almonk",
  "followers_url": "https://api.github.com/users/almonk/followers",
  "following_url": "https://api.github.com/users/almonk/following{/other_user}",
  "gists_url": "https://api.github.com/users/almonk/gists{/gist_id}",
  "starred_url": "https://api.github.com/users/almonk/starred{/owner}{/repo}",
  "subscriptions_url": "https://api.github.com/users/almonk/subscriptions",
  "organizations_url": "https://api.github.com/users/almonk/orgs",
  "repos_url": "https://api.github.com/users/almonk/repos",
  "events_url": "https://api.github.com/users/almonk/events{/privacy}",
  "received_events_url": "https://api.github.com/users/almonk/received_events",
  "type": "User",
  "site_admin": false
}
, {
  "login": "rsampaio",
  "id": 52385,
  "avatar_url": "https://avatars.githubusercontent.com/u/52385?v=3",
  "gravatar_id": "",
  "url": "https://api.github.com/users/rsampaio",
  "html_url": "https://github.com/rsampaio",
  "followers_url": "https://api.github.com/users/rsampaio/followers",
  "following_url": "https://api.github.com/users/rsampaio/following{/other_user}",
  "gists_url": "https://api.github.com/users/rsampaio/gists{/gist_id}",
  "starred_url": "https://api.github.com/users/rsampaio/starred{/owner}{/repo}",
  "subscriptions_url": "https://api.github.com/users/rsampaio/subscriptions",
  "organizations_url": "https://api.github.com/users/rsampaio/orgs",
  "repos_url": "https://api.github.com/users/rsampaio/repos",
  "events_url": "https://api.github.com/users/rsampaio/events{/privacy}",
  "received_events_url": "https://api.github.com/users/rsampaio/received_events",
  "type": "User",
  "site_admin": false
}
, {
  "login": "dgouldin",
  "id": 55577,
  "avatar_url": "https://avatars.githubusercontent.com/u/55577?v=3",
  "gravatar_id": "",
  "url": "https://api.github.com/users/dgouldin",
  "html_url": "https://github.com/dgouldin",
  "followers_url": "https://api.github.com/users/dgouldin/followers",
  "following_url": "https://api.github.com/users/dgouldin/following{/other_user}",
  "gists_url": "https://api.github.com/users/dgouldin/gists{/gist_id}",
  "starred_url": "https://api.github.com/users/dgouldin/starred{/owner}{/repo}",
  "subscriptions_url": "https://api.github.com/users/dgouldin/subscriptions",
  "organizations_url": "https://api.github.com/users/dgouldin/orgs",
  "repos_url": "https://api.github.com/users/dgouldin/repos",
  "events_url": "https://api.github.com/users/dgouldin/events{/privacy}",
  "received_events_url": "https://api.github.com/users/dgouldin/received_events",
  "type": "User",
  "site_admin": false
}
, {
  "login": "iamjem",
  "id": 167468,
  "avatar_url": "https://avatars.githubusercontent.com/u/167468?v=3",
  "gravatar_id": "",
  "url": "https://api.github.com/users/iamjem",
  "html_url": "https://github.com/iamjem",
  "followers_url": "https://api.github.com/users/iamjem/followers",
  "following_url": "https://api.github.com/users/iamjem/following{/other_user}",
  "gists_url": "https://api.github.com/users/iamjem/gists{/gist_id}",
  "starred_url": "https://api.github.com/users/iamjem/starred{/owner}{/repo}",
  "subscriptions_url": "https://api.github.com/users/iamjem/subscriptions",
  "organizations_url": "https://api.github.com/users/iamjem/orgs",
  "repos_url": "https://api.github.com/users/iamjem/repos",
  "events_url": "https://api.github.com/users/iamjem/events{/privacy}",
  "received_events_url": "https://api.github.com/users/iamjem/received_events",
  "type": "User",
  "site_admin": false
}
, {
  "login": "sconklin",
  "id": 414436,
  "avatar_url": "https://avatars.githubusercontent.com/u/414436?v=3",
  "gravatar_id": "",
  "url": "https://api.github.com/users/sconklin",
  "html_url": "https://github.com/sconklin",
  "followers_url": "https://api.github.com/users/sconklin/followers",
  "following_url": "https://api.github.com/users/sconklin/following{/other_user}",
  "gists_url": "https://api.github.com/users/sconklin/gists{/gist_id}",
  "starred_url": "https://api.github.com/users/sconklin/starred{/owner}{/repo}",
  "subscriptions_url": "https://api.github.com/users/sconklin/subscriptions",
  "organizations_url": "https://api.github.com/users/sconklin/orgs",
  "repos_url": "https://api.github.com/users/sconklin/repos",
  "events_url": "https://api.github.com/users/sconklin/events{/privacy}",
  "received_events_url": "https://api.github.com/users/sconklin/received_events",
  "type": "User",
  "site_admin": false
}
, {
  "login": "pbraswell",
  "id": 432701,
  "avatar_url": "https://avatars.githubusercontent.com/u/432701?v=3",
  "gravatar_id": "",
  "url": "https://api.github.com/users/pbraswell",
  "html_url": "https://github.com/pbraswell",
  "followers_url": "https://api.github.com/users/pbraswell/followers",
  "following_url": "https://api.github.com/users/pbraswell/following{/other_user}",
  "gists_url": "https://api.github.com/users/pbraswell/gists{/gist_id}",
  "starred_url": "https://api.github.com/users/pbraswell/starred{/owner}{/repo}",
  "subscriptions_url": "https://api.github.com/users/pbraswell/subscriptions",
  "organizations_url": "https://api.github.com/users/pbraswell/orgs",
  "repos_url": "https://api.github.com/users/pbraswell/repos",
  "events_url": "https://api.github.com/users/pbraswell/events{/privacy}",
  "received_events_url": "https://api.github.com/users/pbraswell/received_events",
  "type": "User",
  "site_admin": false
}
, {
  "login": "sclasen",
  "id": 523338,
  "avatar_url": "https://avatars.githubusercontent.com/u/523338?v=3",
  "gravatar_id": "",
  "url": "https://api.github.com/users/sclasen",
  "html_url": "https://github.com/sclasen",
  "followers_url": "https://api.github.com/users/sclasen/followers",
  "following_url": "https://api.github.com/users/sclasen/following{/other_user}",
  "gists_url": "https://api.github.com/users/sclasen/gists{/gist_id}",
  "starred_url": "https://api.github.com/users/sclasen/starred{/owner}{/repo}",
  "subscriptions_url": "https://api.github.com/users/sclasen/subscriptions",
  "organizations_url": "https://api.github.com/users/sclasen/orgs",
  "repos_url": "https://api.github.com/users/sclasen/repos",
  "events_url": "https://api.github.com/users/sclasen/events{/privacy}",
  "received_events_url": "https://api.github.com/users/sclasen/received_events",
  "type": "User",
  "site_admin": false
}
, {
  "login": "yoikawa",
  "id": 532903,
  "avatar_url": "https://avatars.githubusercontent.com/u/532903?v=3",
  "gravatar_id": "",
  "url": "https://api.github.com/users/yoikawa",
  "html_url": "https://github.com/yoikawa",
  "followers_url": "https://api.github.com/users/yoikawa/followers",
  "following_url": "https://api.github.com/users/yoikawa/following{/other_user}",
  "gists_url": "https://api.github.com/users/yoikawa/gists{/gist_id}",
  "starred_url": "https://api.github.com/users/yoikawa/starred{/owner}{/repo}",
  "subscriptions_url": "https://api.github.com/users/yoikawa/subscriptions",
  "organizations_url": "https://api.github.com/users/yoikawa/orgs",
  "repos_url": "https://api.github.com/users/yoikawa/repos",
  "events_url": "https://api.github.com/users/yoikawa/events{/privacy}",
  "received_events_url": "https://api.github.com/users/yoikawa/received_events",
  "type": "User",
  "site_admin": false
}
, {
  "login": "joshuatobin",
  "id": 665033,
  "avatar_url": "https://avatars.githubusercontent.com/u/665033?v=3",
  "gravatar_id": "",
  "url": "https://api.github.com/users/joshuatobin",
  "html_url": "https://github.com/joshuatobin",
  "followers_url": "https://api.github.com/users/joshuatobin/followers",
  "following_url": "https://api.github.com/users/joshuatobin/following{/other_user}",
  "gists_url": "https://api.github.com/users/joshuatobin/gists{/gist_id}",
  "starred_url": "https://api.github.com/users/joshuatobin/starred{/owner}{/repo}",
  "subscriptions_url": "https://api.github.com/users/joshuatobin/subscriptions",
  "organizations_url": "https://api.github.com/users/joshuatobin/orgs",
  "repos_url": "https://api.github.com/users/joshuatobin/repos",
  "events_url": "https://api.github.com/users/joshuatobin/events{/privacy}",
  "received_events_url": "https://api.github.com/users/joshuatobin/received_events",
  "type": "User",
  "site_admin": false
}
, {
  "login": "mattcreager",
  "id": 1623992,
  "avatar_url": "https://avatars.githubusercontent.com/u/1623992?v=3",
  "gravatar_id": "",
  "url": "https://api.github.com/users/mattcreager",
  "html_url": "https://github.com/mattcreager",
  "followers_url": "https://api.github.com/users/mattcreager/followers",
  "following_url": "https://api.github.com/users/mattcreager/following{/other_user}",
  "gists_url": "https://api.github.com/users/mattcreager/gists{/gist_id}",
  "starred_url": "https://api.github.com/users/mattcreager/starred{/owner}{/repo}",
  "subscriptions_url": "https://api.github.com/users/mattcreager/subscriptions",
  "organizations_url": "https://api.github.com/users/mattcreager/orgs",
  "repos_url": "https://api.github.com/users/mattcreager/repos",
  "events_url": "https://api.github.com/users/mattcreager/events{/privacy}",
  "received_events_url": "https://api.github.com/users/mattcreager/received_events",
  "type": "User",
  "site_admin": false
}
, {
  "login": "alansf",
  "id": 2043020,
  "avatar_url": "https://avatars.githubusercontent.com/u/2043020?v=3",
  "gravatar_id": "",
  "url": "https://api.github.com/users/alansf",
  "html_url": "https://github.com/alansf",
  "followers_url": "https://api.github.com/users/alansf/followers",
  "following_url": "https://api.github.com/users/alansf/following{/other_user}",
  "gists_url": "https://api.github.com/users/alansf/gists{/gist_id}",
  "starred_url": "https://api.github.com/users/alansf/starred{/owner}{/repo}",
  "subscriptions_url": "https://api.github.com/users/alansf/subscriptions",
  "organizations_url": "https://api.github.com/users/alansf/orgs",
  "repos_url": "https://api.github.com/users/alansf/repos",
  "events_url": "https://api.github.com/users/alansf/events{/privacy}",
  "received_events_url": "https://api.github.com/users/alansf/received_events",
  "type": "User",
  "site_admin": false
}
, {
  "login": "LDuderino",
  "id": 3302906,
  "avatar_url": "https://avatars.githubusercontent.com/u/3302906?v=3",
  "gravatar_id": "",
  "url": "https://api.github.com/users/LDuderino",
  "html_url": "https://github.com/LDuderino",
  "followers_url": "https://api.github.com/users/LDuderino/followers",
  "following_url": "https://api.github.com/users/LDuderino/following{/other_user}",
  "gists_url": "https://api.github.com/users/LDuderino/gists{/gist_id}",
  "starred_url": "https://api.github.com/users/LDuderino/starred{/owner}{/repo}",
  "subscriptions_url": "https://api.github.com/users/LDuderino/subscriptions",
  "organizations_url": "https://api.github.com/users/LDuderino/orgs",
  "repos_url": "https://api.github.com/users/LDuderino/repos",
  "events_url": "https://api.github.com/users/LDuderino/events{/privacy}",
  "received_events_url": "https://api.github.com/users/LDuderino/received_events",
  "type": "User",
  "site_admin": false
}
, {
  "login": "ronglian",
  "id": 4898184,
  "avatar_url": "https://avatars.githubusercontent.com/u/4898184?v=3",
  "gravatar_id": "",
  "url": "https://api.github.com/users/ronglian",
  "html_url": "https://github.com/ronglian",
  "followers_url": "https://api.github.com/users/ronglian/followers",
  "following_url": "https://api.github.com/users/ronglian/following{/other_user}",
  "gists_url": "https://api.github.com/users/ronglian/gists{/gist_id}",
  "starred_url": "https://api.github.com/users/ronglian/starred{/owner}{/repo}",
  "subscriptions_url": "https://api.github.com/users/ronglian/subscriptions",
  "organizations_url": "https://api.github.com/users/ronglian/orgs",
  "repos_url": "https://api.github.com/users/ronglian/repos",
  "events_url": "https://api.github.com/users/ronglian/events{/privacy}",
  "received_events_url": "https://api.github.com/users/ronglian/received_events",
  "type": "User",
  "site_admin": false
}
, {
  "login": "balansubr",
  "id": 6371622,
  "avatar_url": "https://avatars.githubusercontent.com/u/6371622?v=3",
  "gravatar_id": "",
  "url": "https://api.github.com/users/balansubr",
  "html_url": "https://github.com/balansubr",
  "followers_url": "https://api.github.com/users/balansubr/followers",
  "following_url": "https://api.github.com/users/balansubr/following{/other_user}",
  "gists_url": "https://api.github.com/users/balansubr/gists{/gist_id}",
  "starred_url": "https://api.github.com/users/balansubr/starred{/owner}{/repo}",
  "subscriptions_url": "https://api.github.com/users/balansubr/subscriptions",
  "organizations_url": "https://api.github.com/users/balansubr/orgs",
  "repos_url": "https://api.github.com/users/balansubr/repos",
  "events_url": "https://api.github.com/users/balansubr/events{/privacy}",
  "received_events_url": "https://api.github.com/users/balansubr/received_events",
  "type": "User",
  "site_admin": false
}
, {
  "login": "joeyjojojrshabaduu",
  "id": 6485024,
  "avatar_url": "https://avatars.githubusercontent.com/u/6485024?v=3",
  "gravatar_id": "",
  "url": "https://api.github.com/users/joeyjojojrshabaduu",
  "html_url": "https://github.com/joeyjojojrshabaduu",
  "followers_url": "https://api.github.com/users/joeyjojojrshabaduu/followers",
  "following_url": "https://api.github.com/users/joeyjojojrshabaduu/following{/other_user}",
  "gists_url": "https://api.github.com/users/joeyjojojrshabaduu/gists{/gist_id}",
  "starred_url": "https://api.github.com/users/joeyjojojrshabaduu/starred{/owner}{/repo}",
  "subscriptions_url": "https://api.github.com/users/joeyjojojrshabaduu/subscriptions",
  "organizations_url": "https://api.github.com/users/joeyjojojrshabaduu/orgs",
  "repos_url": "https://api.github.com/users/joeyjojojrshabaduu/repos",
  "events_url": "https://api.github.com/users/joeyjojojrshabaduu/events{/privacy}",
  "received_events_url": "https://api.github.com/users/joeyjojojrshabaduu/received_events",
  "type": "User",
  "site_admin": false
}
, {
  "login": "pkopacki",
  "id": 7244611,
  "avatar_url": "https://avatars.githubusercontent.com/u/7244611?v=3",
  "gravatar_id": "",
  "url": "https://api.github.com/users/pkopacki",
  "html_url": "https://github.com/pkopacki",
  "followers_url": "https://api.github.com/users/pkopacki/followers",
  "following_url": "https://api.github.com/users/pkopacki/following{/other_user}",
  "gists_url": "https://api.github.com/users/pkopacki/gists{/gist_id}",
  "starred_url": "https://api.github.com/users/pkopacki/starred{/owner}{/repo}",
  "subscriptions_url": "https://api.github.com/users/pkopacki/subscriptions",
  "organizations_url": "https://api.github.com/users/pkopacki/orgs",
  "repos_url": "https://api.github.com/users/pkopacki/repos",
  "events_url": "https://api.github.com/users/pkopacki/events{/privacy}",
  "received_events_url": "https://api.github.com/users/pkopacki/received_events",
  "type": "User",
  "site_admin": false
}
, {
  "login": "herokuzack",
  "id": 7998848,
  "avatar_url": "https://avatars.githubusercontent.com/u/7998848?v=3",
  "gravatar_id": "",
  "url": "https://api.github.com/users/herokuzack",
  "html_url": "https://github.com/herokuzack",
  "followers_url": "https://api.github.com/users/herokuzack/followers",
  "following_url": "https://api.github.com/users/herokuzack/following{/other_user}",
  "gists_url": "https://api.github.com/users/herokuzack/gists{/gist_id}",
  "starred_url": "https://api.github.com/users/herokuzack/starred{/owner}{/repo}",
  "subscriptions_url": "https://api.github.com/users/herokuzack/subscriptions",
  "organizations_url": "https://api.github.com/users/herokuzack/orgs",
  "repos_url": "https://api.github.com/users/herokuzack/repos",
  "events_url": "https://api.github.com/users/herokuzack/events{/privacy}",
  "received_events_url": "https://api.github.com/users/herokuzack/received_events",
  "type": "User",
  "site_admin": false
}
, {
  "login": "herokukansa",
  "id": 8129246,
  "avatar_url": "https://avatars.githubusercontent.com/u/8129246?v=3",
  "gravatar_id": "",
  "url": "https://api.github.com/users/herokukansa",
  "html_url": "https://github.com/herokukansa",
  "followers_url": "https://api.github.com/users/herokukansa/followers",
  "following_url": "https://api.github.com/users/herokukansa/following{/other_user}",
  "gists_url": "https://api.github.com/users/herokukansa/gists{/gist_id}",
  "starred_url": "https://api.github.com/users/herokukansa/starred{/owner}{/repo}",
  "subscriptions_url": "https://api.github.com/users/herokukansa/subscriptions",
  "organizations_url": "https://api.github.com/users/herokukansa/orgs",
  "repos_url": "https://api.github.com/users/herokukansa/repos",
  "events_url": "https://api.github.com/users/herokukansa/events{/privacy}",
  "received_events_url": "https://api.github.com/users/herokukansa/received_events",
  "type": "User",
  "site_admin": false
}
, {
  "login": "michellep",
  "id": 10508026,
  "avatar_url": "https://avatars.githubusercontent.com/u/10508026?v=3",
  "gravatar_id": "",
  "url": "https://api.github.com/users/michellep",
  "html_url": "https://github.com/michellep",
  "followers_url": "https://api.github.com/users/michellep/followers",
  "following_url": "https://api.github.com/users/michellep/following{/other_user}",
  "gists_url": "https://api.github.com/users/michellep/gists{/gist_id}",
  "starred_url": "https://api.github.com/users/michellep/starred{/owner}{/repo}",
  "subscriptions_url": "https://api.github.com/users/michellep/subscriptions",
  "organizations_url": "https://api.github.com/users/michellep/orgs",
  "repos_url": "https://api.github.com/users/michellep/repos",
  "events_url": "https://api.github.com/users/michellep/events{/privacy}",
  "received_events_url": "https://api.github.com/users/michellep/received_events",
  "type": "User",
  "site_admin": false
}
, {
  "login": "sgnchan",
  "id": 14082037,
  "avatar_url": "https://avatars.githubusercontent.com/u/14082037?v=3",
  "gravatar_id": "",
  "url": "https://api.github.com/users/sgnchan",
  "html_url": "https://github.com/sgnchan",
  "followers_url": "https://api.github.com/users/sgnchan/followers",
  "following_url": "https://api.github.com/users/sgnchan/following{/other_user}",
  "gists_url": "https://api.github.com/users/sgnchan/gists{/gist_id}",
  "starred_url": "https://api.github.com/users/sgnchan/starred{/owner}{/repo}",
  "subscriptions_url": "https://api.github.com/users/sgnchan/subscriptions",
  "organizations_url": "https://api.github.com/users/sgnchan/orgs",
  "repos_url": "https://api.github.com/users/sgnchan/repos",
  "events_url": "https://api.github.com/users/sgnchan/events{/privacy}",
  "received_events_url": "https://api.github.com/users/sgnchan/received_events",
  "type": "User",
  "site_admin": false
}
, {
  "login": "srid",
  "id": 3998,
  "avatar_url": "https://avatars.githubusercontent.com/u/3998?v=3",
  "gravatar_id": "",
  "url": "https://api.github.com/users/srid",
  "html_url": "https://github.com/srid",
  "followers_url": "https://api.github.com/users/srid/followers",
  "following_url": "https://api.github.com/users/srid/following{/other_user}",
  "gists_url": "https://api.github.com/users/srid/gists{/gist_id}",
  "starred_url": "https://api.github.com/users/srid/starred{/owner}{/repo}",
  "subscriptions_url": "https://api.github.com/users/srid/subscriptions",
  "organizations_url": "https://api.github.com/users/srid/orgs",
  "repos_url": "https://api.github.com/users/srid/repos",
  "events_url": "https://api.github.com/users/srid/events{/privacy}",
  "received_events_url": "https://api.github.com/users/srid/received_events",
  "type": "User",
  "site_admin": false
}
, {
  "login": "yangyangsfdc",
  "id": 1179260,
  "avatar_url": "https://avatars.githubusercontent.com/u/1179260?v=3",
  "gravatar_id": "",
  "url": "https://api.github.com/users/yangyangsfdc",
  "html_url": "https://github.com/yangyangsfdc",
  "followers_url": "https://api.github.com/users/yangyangsfdc/followers",
  "following_url": "https://api.github.com/users/yangyangsfdc/following{/other_user}",
  "gists_url": "https://api.github.com/users/yangyangsfdc/gists{/gist_id}",
  "starred_url": "https://api.github.com/users/yangyangsfdc/starred{/owner}{/repo}",
  "subscriptions_url": "https://api.github.com/users/yangyangsfdc/subscriptions",
  "organizations_url": "https://api.github.com/users/yangyangsfdc/orgs",
  "repos_url": "https://api.github.com/users/yangyangsfdc/repos",
  "events_url": "https://api.github.com/users/yangyangsfdc/events{/privacy}",
  "received_events_url": "https://api.github.com/users/yangyangsfdc/received_events",
  "type": "User",
  "site_admin": false
}
, {
  "login": "nsamsami",
  "id": 5414737,
  "avatar_url": "https://avatars.githubusercontent.com/u/5414737?v=3",
  "gravatar_id": "",
  "url": "https://api.github.com/users/nsamsami",
  "html_url": "https://github.com/nsamsami",
  "followers_url": "https://api.github.com/users/nsamsami/followers",
  "following_url": "https://api.github.com/users/nsamsami/following{/other_user}",
  "gists_url": "https://api.github.com/users/nsamsami/gists{/gist_id}",
  "starred_url": "https://api.github.com/users/nsamsami/starred{/owner}{/repo}",
  "subscriptions_url": "https://api.github.com/users/nsamsami/subscriptions",
  "organizations_url": "https://api.github.com/users/nsamsami/orgs",
  "repos_url": "https://api.github.com/users/nsamsami/repos",
  "events_url": "https://api.github.com/users/nsamsami/events{/privacy}",
  "received_events_url": "https://api.github.com/users/nsamsami/received_events",
  "type": "User",
  "site_admin": false
}
, {
  "login": "ike-delorenzo",
  "id": 15658504,
  "avatar_url": "https://avatars.githubusercontent.com/u/15658504?v=3",
  "gravatar_id": "",
  "url": "https://api.github.com/users/ike-delorenzo",
  "html_url": "https://github.com/ike-delorenzo",
  "followers_url": "https://api.github.com/users/ike-delorenzo/followers",
  "following_url": "https://api.github.com/users/ike-delorenzo/following{/other_user}",
  "gists_url": "https://api.github.com/users/ike-delorenzo/gists{/gist_id}",
  "starred_url": "https://api.github.com/users/ike-delorenzo/starred{/owner}{/repo}",
  "subscriptions_url": "https://api.github.com/users/ike-delorenzo/subscriptions",
  "organizations_url": "https://api.github.com/users/ike-delorenzo/orgs",
  "repos_url": "https://api.github.com/users/ike-delorenzo/repos",
  "events_url": "https://api.github.com/users/ike-delorenzo/events{/privacy}",
  "received_events_url": "https://api.github.com/users/ike-delorenzo/received_events",
  "type": "User",
  "site_admin": false
}
]
