[
{
  "url": "https://api.github.com/repos/mongodb/mongo-csharp-driver/issues/comments/35643570",
  "html_url": "https://github.com/mongodb/mongo-csharp-driver/pull/147#issuecomment-35643570",
  "issue_url": "https://api.github.com/repos/mongodb/mongo-csharp-driver/issues/147",
  "id": 35643570,
  "user": {
    "login": "craiggwilson",
    "id": 167901,
    "avatar_url": "https://avatars.githubusercontent.com/u/167901?v=3",
    "gravatar_id": "",
    "url": "https://api.github.com/users/craiggwilson",
    "html_url": "https://github.com/craiggwilson",
    "followers_url": "https://api.github.com/users/craiggwilson/followers",
    "following_url": "https://api.github.com/users/craiggwilson/following{/other_user}",
    "gists_url": "https://api.github.com/users/craiggwilson/gists{/gist_id}",
    "starred_url": "https://api.github.com/users/craiggwilson/starred{/owner}{/repo}",
    "subscriptions_url": "https://api.github.com/users/craiggwilson/subscriptions",
    "organizations_url": "https://api.github.com/users/craiggwilson/orgs",
    "repos_url": "https://api.github.com/users/craiggwilson/repos",
    "events_url": "https://api.github.com/users/craiggwilson/events{/privacy}",
    "received_events_url": "https://api.github.com/users/craiggwilson/received_events",
    "type": "User",
    "site_admin": false
  },
  "created_at": "2014-02-20T17:01:01Z",
  "updated_at": "2014-02-20T17:01:01Z",
  "body": "Hey Simon.  Thanks for the PR.  We just pulled it in and it will show up in the next release. \r\n\r\nCraig"
}
]
