[
{
  "url": "https://api.github.com/repos/Microsoft/GSL/issues/comments/143750234",
  "html_url": "https://github.com/Microsoft/GSL/issues/82#issuecomment-143750234",
  "issue_url": "https://api.github.com/repos/Microsoft/GSL/issues/82",
  "id": 143750234,
  "user": {
    "login": "neilmacintosh",
    "id": 10985489,
    "avatar_url": "https://avatars.githubusercontent.com/u/10985489?v=3",
    "gravatar_id": "",
    "url": "https://api.github.com/users/neilmacintosh",
    "html_url": "https://github.com/neilmacintosh",
    "followers_url": "https://api.github.com/users/neilmacintosh/followers",
    "following_url": "https://api.github.com/users/neilmacintosh/following{/other_user}",
    "gists_url": "https://api.github.com/users/neilmacintosh/gists{/gist_id}",
    "starred_url": "https://api.github.com/users/neilmacintosh/starred{/owner}{/repo}",
    "subscriptions_url": "https://api.github.com/users/neilmacintosh/subscriptions",
    "organizations_url": "https://api.github.com/users/neilmacintosh/orgs",
    "repos_url": "https://api.github.com/users/neilmacintosh/repos",
    "events_url": "https://api.github.com/users/neilmacintosh/events{/privacy}",
    "received_events_url": "https://api.github.com/users/neilmacintosh/received_events",
    "type": "User",
    "site_admin": false
  },
  "created_at": "2015-09-28T13:56:53Z",
  "updated_at": "2015-09-28T13:56:53Z",
  "body": "But there will still be places we do require it in order to test the library. So then you hit the issue of consistency."
}
, {
  "url": "https://api.github.com/repos/Microsoft/GSL/issues/comments/144091486",
  "html_url": "https://github.com/Microsoft/GSL/issues/82#issuecomment-144091486",
  "issue_url": "https://api.github.com/repos/Microsoft/GSL/issues/82",
  "id": 144091486,
  "user": {
    "login": "gdr-at-ms",
    "id": 11031650,
    "avatar_url": "https://avatars.githubusercontent.com/u/11031650?v=3",
    "gravatar_id": "",
    "url": "https://api.github.com/users/gdr-at-ms",
    "html_url": "https://github.com/gdr-at-ms",
    "followers_url": "https://api.github.com/users/gdr-at-ms/followers",
    "following_url": "https://api.github.com/users/gdr-at-ms/following{/other_user}",
    "gists_url": "https://api.github.com/users/gdr-at-ms/gists{/gist_id}",
    "starred_url": "https://api.github.com/users/gdr-at-ms/starred{/owner}{/repo}",
    "subscriptions_url": "https://api.github.com/users/gdr-at-ms/subscriptions",
    "organizations_url": "https://api.github.com/users/gdr-at-ms/orgs",
    "repos_url": "https://api.github.com/users/gdr-at-ms/repos",
    "events_url": "https://api.github.com/users/gdr-at-ms/events{/privacy}",
    "received_events_url": "https://api.github.com/users/gdr-at-ms/received_events",
    "type": "User",
    "site_admin": false
  },
  "created_at": "2015-09-29T15:17:15Z",
  "updated_at": "2015-09-29T15:17:15Z",
  "body": "Yes, but it would be much better to spell those out explicitly.  Especially, given that this is primarily to accommodate the testing framework."
}
]
