[
{
  "url": "https://api.github.com/repos/elastic/elasticsearch-hadoop/issues/comments/89297893",
  "html_url": "https://github.com/elastic/elasticsearch-hadoop/issues/413#issuecomment-89297893",
  "issue_url": "https://api.github.com/repos/elastic/elasticsearch-hadoop/issues/413",
  "id": 89297893,
  "user": {
    "login": "costin",
    "id": 76245,
    "avatar_url": "https://avatars.githubusercontent.com/u/76245?v=3",
    "gravatar_id": "",
    "url": "https://api.github.com/users/costin",
    "html_url": "https://github.com/costin",
    "followers_url": "https://api.github.com/users/costin/followers",
    "following_url": "https://api.github.com/users/costin/following{/other_user}",
    "gists_url": "https://api.github.com/users/costin/gists{/gist_id}",
    "starred_url": "https://api.github.com/users/costin/starred{/owner}{/repo}",
    "subscriptions_url": "https://api.github.com/users/costin/subscriptions",
    "organizations_url": "https://api.github.com/users/costin/orgs",
    "repos_url": "https://api.github.com/users/costin/repos",
    "events_url": "https://api.github.com/users/costin/events{/privacy}",
    "received_events_url": "https://api.github.com/users/costin/received_events",
    "type": "User",
    "site_admin": false
  },
  "created_at": "2015-04-03T14:00:03Z",
  "updated_at": "2015-04-03T14:00:03Z",
  "body": "Fixed in master."
}
]
