[
{
  "url": "https://api.github.com/repos/elastic/elasticsearch.github.com/issues/comments/8264032",
  "html_url": "https://github.com/elastic/elasticsearch.github.com/pull/275#issuecomment-8264032",
  "issue_url": "https://api.github.com/repos/elastic/elasticsearch.github.com/issues/275",
  "id": 8264032,
  "user": {
    "login": "martijnvg",
    "id": 580421,
    "avatar_url": "https://avatars.githubusercontent.com/u/580421?v=3",
    "gravatar_id": "",
    "url": "https://api.github.com/users/martijnvg",
    "html_url": "https://github.com/martijnvg",
    "followers_url": "https://api.github.com/users/martijnvg/followers",
    "following_url": "https://api.github.com/users/martijnvg/following{/other_user}",
    "gists_url": "https://api.github.com/users/martijnvg/gists{/gist_id}",
    "starred_url": "https://api.github.com/users/martijnvg/starred{/owner}{/repo}",
    "subscriptions_url": "https://api.github.com/users/martijnvg/subscriptions",
    "organizations_url": "https://api.github.com/users/martijnvg/orgs",
    "repos_url": "https://api.github.com/users/martijnvg/repos",
    "events_url": "https://api.github.com/users/martijnvg/events{/privacy}",
    "received_events_url": "https://api.github.com/users/martijnvg/received_events",
    "type": "User",
    "site_admin": false
  },
  "created_at": "2012-09-04T14:08:21Z",
  "updated_at": "2012-09-04T14:08:21Z",
  "body": "pushed"
}
]
