[
{
  "url": "https://api.github.com/repos/heroku/heroku-buildpack-php/issues/comments/73488135",
  "html_url": "https://github.com/heroku/heroku-buildpack-php/pull/92#issuecomment-73488135",
  "issue_url": "https://api.github.com/repos/heroku/heroku-buildpack-php/issues/92",
  "id": 73488135,
  "user": {
    "login": "paazmaya",
    "id": 369881,
    "avatar_url": "https://avatars.githubusercontent.com/u/369881?v=3",
    "gravatar_id": "",
    "url": "https://api.github.com/users/paazmaya",
    "html_url": "https://github.com/paazmaya",
    "followers_url": "https://api.github.com/users/paazmaya/followers",
    "following_url": "https://api.github.com/users/paazmaya/following{/other_user}",
    "gists_url": "https://api.github.com/users/paazmaya/gists{/gist_id}",
    "starred_url": "https://api.github.com/users/paazmaya/starred{/owner}{/repo}",
    "subscriptions_url": "https://api.github.com/users/paazmaya/subscriptions",
    "organizations_url": "https://api.github.com/users/paazmaya/orgs",
    "repos_url": "https://api.github.com/users/paazmaya/repos",
    "events_url": "https://api.github.com/users/paazmaya/events{/privacy}",
    "received_events_url": "https://api.github.com/users/paazmaya/received_events",
    "type": "User",
    "site_admin": false
  },
  "created_at": "2015-02-09T10:39:00Z",
  "updated_at": "2015-02-09T10:39:00Z",
  "body": ":+1: "
}
, {
  "url": "https://api.github.com/repos/heroku/heroku-buildpack-php/issues/comments/90836188",
  "html_url": "https://github.com/heroku/heroku-buildpack-php/pull/92#issuecomment-90836188",
  "issue_url": "https://api.github.com/repos/heroku/heroku-buildpack-php/issues/92",
  "id": 90836188,
  "user": {
    "login": "stof",
    "id": 439401,
    "avatar_url": "https://avatars.githubusercontent.com/u/439401?v=3",
    "gravatar_id": "",
    "url": "https://api.github.com/users/stof",
    "html_url": "https://github.com/stof",
    "followers_url": "https://api.github.com/users/stof/followers",
    "following_url": "https://api.github.com/users/stof/following{/other_user}",
    "gists_url": "https://api.github.com/users/stof/gists{/gist_id}",
    "starred_url": "https://api.github.com/users/stof/starred{/owner}{/repo}",
    "subscriptions_url": "https://api.github.com/users/stof/subscriptions",
    "organizations_url": "https://api.github.com/users/stof/orgs",
    "repos_url": "https://api.github.com/users/stof/repos",
    "events_url": "https://api.github.com/users/stof/events{/privacy}",
    "received_events_url": "https://api.github.com/users/stof/received_events",
    "type": "User",
    "site_admin": false
  },
  "created_at": "2015-04-08T08:03:27Z",
  "updated_at": "2015-04-08T08:03:27Z",
  "body": ":+1: "
}
, {
  "url": "https://api.github.com/repos/heroku/heroku-buildpack-php/issues/comments/124245881",
  "html_url": "https://github.com/heroku/heroku-buildpack-php/pull/92#issuecomment-124245881",
  "issue_url": "https://api.github.com/repos/heroku/heroku-buildpack-php/issues/92",
  "id": 124245881,
  "user": {
    "login": "danielstjules",
    "id": 817212,
    "avatar_url": "https://avatars.githubusercontent.com/u/817212?v=3",
    "gravatar_id": "",
    "url": "https://api.github.com/users/danielstjules",
    "html_url": "https://github.com/danielstjules",
    "followers_url": "https://api.github.com/users/danielstjules/followers",
    "following_url": "https://api.github.com/users/danielstjules/following{/other_user}",
    "gists_url": "https://api.github.com/users/danielstjules/gists{/gist_id}",
    "starred_url": "https://api.github.com/users/danielstjules/starred{/owner}{/repo}",
    "subscriptions_url": "https://api.github.com/users/danielstjules/subscriptions",
    "organizations_url": "https://api.github.com/users/danielstjules/orgs",
    "repos_url": "https://api.github.com/users/danielstjules/repos",
    "events_url": "https://api.github.com/users/danielstjules/events{/privacy}",
    "received_events_url": "https://api.github.com/users/danielstjules/received_events",
    "type": "User",
    "site_admin": false
  },
  "created_at": "2015-07-23T21:34:31Z",
  "updated_at": "2015-07-23T21:34:31Z",
  "body": ":+1: :)"
}
]
