[
{
  "url": "https://api.github.com/repos/Microsoft/bond/issues/comments/172653890",
  "html_url": "https://github.com/Microsoft/bond/issues/122#issuecomment-172653890",
  "issue_url": "https://api.github.com/repos/Microsoft/bond/issues/122",
  "id": 172653890,
  "user": {
    "login": "sapek",
    "id": 449129,
    "avatar_url": "https://avatars.githubusercontent.com/u/449129?v=3",
    "gravatar_id": "",
    "url": "https://api.github.com/users/sapek",
    "html_url": "https://github.com/sapek",
    "followers_url": "https://api.github.com/users/sapek/followers",
    "following_url": "https://api.github.com/users/sapek/following{/other_user}",
    "gists_url": "https://api.github.com/users/sapek/gists{/gist_id}",
    "starred_url": "https://api.github.com/users/sapek/starred{/owner}{/repo}",
    "subscriptions_url": "https://api.github.com/users/sapek/subscriptions",
    "organizations_url": "https://api.github.com/users/sapek/orgs",
    "repos_url": "https://api.github.com/users/sapek/repos",
    "events_url": "https://api.github.com/users/sapek/events{/privacy}",
    "received_events_url": "https://api.github.com/users/sapek/received_events",
    "type": "User",
    "site_admin": false
  },
  "created_at": "2016-01-18T21:06:50Z",
  "updated_at": "2016-01-18T21:06:50Z",
  "body": "Thanks for adding Bond to your benchmark.\r\n\r\nThe likely cause of slow serialization in this test is this [line](https://github.com/theburningmonk/SimpleSpeedTester/blob/815c3d4ae5308966470cc4b9f533e169b6f2a2bf/examples/BinarySerializersBenchmark/BinarySerializersSpeedTest.cs#L318). `OutputBuffer` by default uses 64 KB initial buffer size, which is often a good choice in real world services but obviously bad for a micro benchmark with 40 byte payload: the serialization time is dominated by allocation of 64 KB buffer which in .Net results in zeroing out the memory. \r\n\r\nTo measure actual serialization cost you can configure the the `OutputBuffer` to a [smaller initial size](https://github.com/theburningmonk/SimpleSpeedTester/pull/14). You don't need to know the exact size, it will reallocate if necessary, but for the best performance you should try to tune it such that you avoid both over-allocation of initial buffer and too much reallocation required to grow.\r\n\r\nSee also: [tuning Bond performance](https://microsoft.github.io/bond/manual/bond_cs.html#performance).\r\n"
}
, {
  "url": "https://api.github.com/repos/Microsoft/bond/issues/comments/172683460",
  "html_url": "https://github.com/Microsoft/bond/issues/122#issuecomment-172683460",
  "issue_url": "https://api.github.com/repos/Microsoft/bond/issues/122",
  "id": 172683460,
  "user": {
    "login": "theburningmonk",
    "id": 546969,
    "avatar_url": "https://avatars.githubusercontent.com/u/546969?v=3",
    "gravatar_id": "",
    "url": "https://api.github.com/users/theburningmonk",
    "html_url": "https://github.com/theburningmonk",
    "followers_url": "https://api.github.com/users/theburningmonk/followers",
    "following_url": "https://api.github.com/users/theburningmonk/following{/other_user}",
    "gists_url": "https://api.github.com/users/theburningmonk/gists{/gist_id}",
    "starred_url": "https://api.github.com/users/theburningmonk/starred{/owner}{/repo}",
    "subscriptions_url": "https://api.github.com/users/theburningmonk/subscriptions",
    "organizations_url": "https://api.github.com/users/theburningmonk/orgs",
    "repos_url": "https://api.github.com/users/theburningmonk/repos",
    "events_url": "https://api.github.com/users/theburningmonk/events{/privacy}",
    "received_events_url": "https://api.github.com/users/theburningmonk/received_events",
    "type": "User",
    "site_admin": false
  },
  "created_at": "2016-01-18T23:43:27Z",
  "updated_at": "2016-01-18T23:43:27Z",
  "body": "Thanks, that made a huge difference!\r\n\r\n![image](https://cloud.githubusercontent.com/assets/546969/12405543/103d350e-be3d-11e5-9a57-f2503b2f8674.png)\r\n\r\nwhich brings up another related question - are you using a buffer pool already? wouldn't that mitigate the cost of constantly allocating large arrays (with the 64kb default)?"
}
, {
  "url": "https://api.github.com/repos/Microsoft/bond/issues/comments/172693332",
  "html_url": "https://github.com/Microsoft/bond/issues/122#issuecomment-172693332",
  "issue_url": "https://api.github.com/repos/Microsoft/bond/issues/122",
  "id": 172693332,
  "user": {
    "login": "sapek",
    "id": 449129,
    "avatar_url": "https://avatars.githubusercontent.com/u/449129?v=3",
    "gravatar_id": "",
    "url": "https://api.github.com/users/sapek",
    "html_url": "https://github.com/sapek",
    "followers_url": "https://api.github.com/users/sapek/followers",
    "following_url": "https://api.github.com/users/sapek/following{/other_user}",
    "gists_url": "https://api.github.com/users/sapek/gists{/gist_id}",
    "starred_url": "https://api.github.com/users/sapek/starred{/owner}{/repo}",
    "subscriptions_url": "https://api.github.com/users/sapek/subscriptions",
    "organizations_url": "https://api.github.com/users/sapek/orgs",
    "repos_url": "https://api.github.com/users/sapek/repos",
    "events_url": "https://api.github.com/users/sapek/events{/privacy}",
    "received_events_url": "https://api.github.com/users/sapek/received_events",
    "type": "User",
    "site_admin": false
  },
  "created_at": "2016-01-19T00:42:43Z",
  "updated_at": "2016-01-19T00:42:43Z",
  "body": "Pooling is often a good strategy. However it involves a lot of policy decisions, like threading and locking, which are better left to the higher level code. `OutputBuffer` is intended to be a flexible, low level implementation of [`IOutputStream`](https://github.com/Microsoft/bond/blob/master/cs/src/core/io/IOutputStream.cs) optimized for raw write speed to a managed memory (`OutputPointer` is the equivalent for unmanaged memory). \r\n\r\n*I took the liberty to rename your issue to \"Slow serialization\" to better reflect your original problem - this way it will be more helpful to others in the future.*"
}
, {
  "url": "https://api.github.com/repos/Microsoft/bond/issues/comments/174184280",
  "html_url": "https://github.com/Microsoft/bond/issues/122#issuecomment-174184280",
  "issue_url": "https://api.github.com/repos/Microsoft/bond/issues/122",
  "id": 174184280,
  "user": {
    "login": "benaadams",
    "id": 1142958,
    "avatar_url": "https://avatars.githubusercontent.com/u/1142958?v=3",
    "gravatar_id": "",
    "url": "https://api.github.com/users/benaadams",
    "html_url": "https://github.com/benaadams",
    "followers_url": "https://api.github.com/users/benaadams/followers",
    "following_url": "https://api.github.com/users/benaadams/following{/other_user}",
    "gists_url": "https://api.github.com/users/benaadams/gists{/gist_id}",
    "starred_url": "https://api.github.com/users/benaadams/starred{/owner}{/repo}",
    "subscriptions_url": "https://api.github.com/users/benaadams/subscriptions",
    "organizations_url": "https://api.github.com/users/benaadams/orgs",
    "repos_url": "https://api.github.com/users/benaadams/repos",
    "events_url": "https://api.github.com/users/benaadams/events{/privacy}",
    "received_events_url": "https://api.github.com/users/benaadams/received_events",
    "type": "User",
    "site_admin": false
  },
  "created_at": "2016-01-23T12:49:08Z",
  "updated_at": "2016-01-23T12:49:08Z",
  "body": "@sapek not sure if the lifespan of the buffer is known, but if is can use System.Buffers `ArrayPool<byte>.Shared.Rent()` and `ArrayPool<byte>.Shared.Return()` ?"
}
, {
  "url": "https://api.github.com/repos/Microsoft/bond/issues/comments/174210417",
  "html_url": "https://github.com/Microsoft/bond/issues/122#issuecomment-174210417",
  "issue_url": "https://api.github.com/repos/Microsoft/bond/issues/122",
  "id": 174210417,
  "user": {
    "login": "sapek",
    "id": 449129,
    "avatar_url": "https://avatars.githubusercontent.com/u/449129?v=3",
    "gravatar_id": "",
    "url": "https://api.github.com/users/sapek",
    "html_url": "https://github.com/sapek",
    "followers_url": "https://api.github.com/users/sapek/followers",
    "following_url": "https://api.github.com/users/sapek/following{/other_user}",
    "gists_url": "https://api.github.com/users/sapek/gists{/gist_id}",
    "starred_url": "https://api.github.com/users/sapek/starred{/owner}{/repo}",
    "subscriptions_url": "https://api.github.com/users/sapek/subscriptions",
    "organizations_url": "https://api.github.com/users/sapek/orgs",
    "repos_url": "https://api.github.com/users/sapek/repos",
    "events_url": "https://api.github.com/users/sapek/events{/privacy}",
    "received_events_url": "https://api.github.com/users/sapek/received_events",
    "type": "User",
    "site_admin": false
  },
  "created_at": "2016-01-23T18:27:29Z",
  "updated_at": "2016-01-23T18:27:29Z",
  "body": "The buffer contains serialized data, so the lifetime is controlled by the application. \r\n\r\nAn implementation of [`IOutputStream`](https://github.com/Microsoft/bond/blob/master/cs/src/core/io/IOutputStream.cs) on top of `ArrayPool<byte>` probably would be useful in some cases."
}
, {
  "url": "https://api.github.com/repos/Microsoft/bond/issues/comments/175976349",
  "html_url": "https://github.com/Microsoft/bond/issues/122#issuecomment-175976349",
  "issue_url": "https://api.github.com/repos/Microsoft/bond/issues/122",
  "id": 175976349,
  "user": {
    "login": "sapek",
    "id": 449129,
    "avatar_url": "https://avatars.githubusercontent.com/u/449129?v=3",
    "gravatar_id": "",
    "url": "https://api.github.com/users/sapek",
    "html_url": "https://github.com/sapek",
    "followers_url": "https://api.github.com/users/sapek/followers",
    "following_url": "https://api.github.com/users/sapek/following{/other_user}",
    "gists_url": "https://api.github.com/users/sapek/gists{/gist_id}",
    "starred_url": "https://api.github.com/users/sapek/starred{/owner}{/repo}",
    "subscriptions_url": "https://api.github.com/users/sapek/subscriptions",
    "organizations_url": "https://api.github.com/users/sapek/orgs",
    "repos_url": "https://api.github.com/users/sapek/repos",
    "events_url": "https://api.github.com/users/sapek/events{/privacy}",
    "received_events_url": "https://api.github.com/users/sapek/received_events",
    "type": "User",
    "site_admin": false
  },
  "created_at": "2016-01-28T04:53:45Z",
  "updated_at": "2016-01-28T04:53:45Z",
  "body": "Please feel free to reopen if you have other related questions. "
}
]
