[
{
  "login": "fox2mike",
  "id": 117655,
  "avatar_url": "https://avatars.githubusercontent.com/u/117655?v=3",
  "gravatar_id": "",
  "url": "https://api.github.com/users/fox2mike",
  "html_url": "https://github.com/fox2mike",
  "followers_url": "https://api.github.com/users/fox2mike/followers",
  "following_url": "https://api.github.com/users/fox2mike/following{/other_user}",
  "gists_url": "https://api.github.com/users/fox2mike/gists{/gist_id}",
  "starred_url": "https://api.github.com/users/fox2mike/starred{/owner}{/repo}",
  "subscriptions_url": "https://api.github.com/users/fox2mike/subscriptions",
  "organizations_url": "https://api.github.com/users/fox2mike/orgs",
  "repos_url": "https://api.github.com/users/fox2mike/repos",
  "events_url": "https://api.github.com/users/fox2mike/events{/privacy}",
  "received_events_url": "https://api.github.com/users/fox2mike/received_events",
  "type": "User",
  "site_admin": false
}
, {
  "login": "AutomatedTester",
  "id": 128518,
  "avatar_url": "https://avatars.githubusercontent.com/u/128518?v=3",
  "gravatar_id": "",
  "url": "https://api.github.com/users/AutomatedTester",
  "html_url": "https://github.com/AutomatedTester",
  "followers_url": "https://api.github.com/users/AutomatedTester/followers",
  "following_url": "https://api.github.com/users/AutomatedTester/following{/other_user}",
  "gists_url": "https://api.github.com/users/AutomatedTester/gists{/gist_id}",
  "starred_url": "https://api.github.com/users/AutomatedTester/starred{/owner}{/repo}",
  "subscriptions_url": "https://api.github.com/users/AutomatedTester/subscriptions",
  "organizations_url": "https://api.github.com/users/AutomatedTester/orgs",
  "repos_url": "https://api.github.com/users/AutomatedTester/repos",
  "events_url": "https://api.github.com/users/AutomatedTester/events{/privacy}",
  "received_events_url": "https://api.github.com/users/AutomatedTester/received_events",
  "type": "User",
  "site_admin": false
}
, {
  "login": "tarekziade",
  "id": 250019,
  "avatar_url": "https://avatars.githubusercontent.com/u/250019?v=3",
  "gravatar_id": "",
  "url": "https://api.github.com/users/tarekziade",
  "html_url": "https://github.com/tarekziade",
  "followers_url": "https://api.github.com/users/tarekziade/followers",
  "following_url": "https://api.github.com/users/tarekziade/following{/other_user}",
  "gists_url": "https://api.github.com/users/tarekziade/gists{/gist_id}",
  "starred_url": "https://api.github.com/users/tarekziade/starred{/owner}{/repo}",
  "subscriptions_url": "https://api.github.com/users/tarekziade/subscriptions",
  "organizations_url": "https://api.github.com/users/tarekziade/orgs",
  "repos_url": "https://api.github.com/users/tarekziade/repos",
  "events_url": "https://api.github.com/users/tarekziade/events{/privacy}",
  "received_events_url": "https://api.github.com/users/tarekziade/received_events",
  "type": "User",
  "site_admin": false
}
, {
  "login": "Sancus",
  "id": 479671,
  "avatar_url": "https://avatars.githubusercontent.com/u/479671?v=3",
  "gravatar_id": "",
  "url": "https://api.github.com/users/Sancus",
  "html_url": "https://github.com/Sancus",
  "followers_url": "https://api.github.com/users/Sancus/followers",
  "following_url": "https://api.github.com/users/Sancus/following{/other_user}",
  "gists_url": "https://api.github.com/users/Sancus/gists{/gist_id}",
  "starred_url": "https://api.github.com/users/Sancus/starred{/owner}{/repo}",
  "subscriptions_url": "https://api.github.com/users/Sancus/subscriptions",
  "organizations_url": "https://api.github.com/users/Sancus/orgs",
  "repos_url": "https://api.github.com/users/Sancus/repos",
  "events_url": "https://api.github.com/users/Sancus/events{/privacy}",
  "received_events_url": "https://api.github.com/users/Sancus/received_events",
  "type": "User",
  "site_admin": false
}
, {
  "login": "jasonthomas",
  "id": 910992,
  "avatar_url": "https://avatars.githubusercontent.com/u/910992?v=3",
  "gravatar_id": "",
  "url": "https://api.github.com/users/jasonthomas",
  "html_url": "https://github.com/jasonthomas",
  "followers_url": "https://api.github.com/users/jasonthomas/followers",
  "following_url": "https://api.github.com/users/jasonthomas/following{/other_user}",
  "gists_url": "https://api.github.com/users/jasonthomas/gists{/gist_id}",
  "starred_url": "https://api.github.com/users/jasonthomas/starred{/owner}{/repo}",
  "subscriptions_url": "https://api.github.com/users/jasonthomas/subscriptions",
  "organizations_url": "https://api.github.com/users/jasonthomas/orgs",
  "repos_url": "https://api.github.com/users/jasonthomas/repos",
  "events_url": "https://api.github.com/users/jasonthomas/events{/privacy}",
  "received_events_url": "https://api.github.com/users/jasonthomas/received_events",
  "type": "User",
  "site_admin": false
}
, {
  "login": "gdestuynder",
  "id": 956866,
  "avatar_url": "https://avatars.githubusercontent.com/u/956866?v=3",
  "gravatar_id": "",
  "url": "https://api.github.com/users/gdestuynder",
  "html_url": "https://github.com/gdestuynder",
  "followers_url": "https://api.github.com/users/gdestuynder/followers",
  "following_url": "https://api.github.com/users/gdestuynder/following{/other_user}",
  "gists_url": "https://api.github.com/users/gdestuynder/gists{/gist_id}",
  "starred_url": "https://api.github.com/users/gdestuynder/starred{/owner}{/repo}",
  "subscriptions_url": "https://api.github.com/users/gdestuynder/subscriptions",
  "organizations_url": "https://api.github.com/users/gdestuynder/orgs",
  "repos_url": "https://api.github.com/users/gdestuynder/repos",
  "events_url": "https://api.github.com/users/gdestuynder/events{/privacy}",
  "received_events_url": "https://api.github.com/users/gdestuynder/received_events",
  "type": "User",
  "site_admin": false
}
, {
  "login": "curtisko",
  "id": 1174590,
  "avatar_url": "https://avatars.githubusercontent.com/u/1174590?v=3",
  "gravatar_id": "",
  "url": "https://api.github.com/users/curtisko",
  "html_url": "https://github.com/curtisko",
  "followers_url": "https://api.github.com/users/curtisko/followers",
  "following_url": "https://api.github.com/users/curtisko/following{/other_user}",
  "gists_url": "https://api.github.com/users/curtisko/gists{/gist_id}",
  "starred_url": "https://api.github.com/users/curtisko/starred{/owner}{/repo}",
  "subscriptions_url": "https://api.github.com/users/curtisko/subscriptions",
  "organizations_url": "https://api.github.com/users/curtisko/orgs",
  "repos_url": "https://api.github.com/users/curtisko/repos",
  "events_url": "https://api.github.com/users/curtisko/events{/privacy}",
  "received_events_url": "https://api.github.com/users/curtisko/received_events",
  "type": "User",
  "site_admin": false
}
, {
  "login": "jdotpz",
  "id": 1373628,
  "avatar_url": "https://avatars.githubusercontent.com/u/1373628?v=3",
  "gravatar_id": "",
  "url": "https://api.github.com/users/jdotpz",
  "html_url": "https://github.com/jdotpz",
  "followers_url": "https://api.github.com/users/jdotpz/followers",
  "following_url": "https://api.github.com/users/jdotpz/following{/other_user}",
  "gists_url": "https://api.github.com/users/jdotpz/gists{/gist_id}",
  "starred_url": "https://api.github.com/users/jdotpz/starred{/owner}{/repo}",
  "subscriptions_url": "https://api.github.com/users/jdotpz/subscriptions",
  "organizations_url": "https://api.github.com/users/jdotpz/orgs",
  "repos_url": "https://api.github.com/users/jdotpz/repos",
  "events_url": "https://api.github.com/users/jdotpz/events{/privacy}",
  "received_events_url": "https://api.github.com/users/jdotpz/received_events",
  "type": "User",
  "site_admin": false
}
, {
  "login": "jmaher",
  "id": 62588,
  "avatar_url": "https://avatars.githubusercontent.com/u/62588?v=3",
  "gravatar_id": "",
  "url": "https://api.github.com/users/jmaher",
  "html_url": "https://github.com/jmaher",
  "followers_url": "https://api.github.com/users/jmaher/followers",
  "following_url": "https://api.github.com/users/jmaher/following{/other_user}",
  "gists_url": "https://api.github.com/users/jmaher/gists{/gist_id}",
  "starred_url": "https://api.github.com/users/jmaher/starred{/owner}{/repo}",
  "subscriptions_url": "https://api.github.com/users/jmaher/subscriptions",
  "organizations_url": "https://api.github.com/users/jmaher/orgs",
  "repos_url": "https://api.github.com/users/jmaher/repos",
  "events_url": "https://api.github.com/users/jmaher/events{/privacy}",
  "received_events_url": "https://api.github.com/users/jmaher/received_events",
  "type": "User",
  "site_admin": false
}
, {
  "login": "mrrrgn",
  "id": 2722349,
  "avatar_url": "https://avatars.githubusercontent.com/u/2722349?v=3",
  "gravatar_id": "",
  "url": "https://api.github.com/users/mrrrgn",
  "html_url": "https://github.com/mrrrgn",
  "followers_url": "https://api.github.com/users/mrrrgn/followers",
  "following_url": "https://api.github.com/users/mrrrgn/following{/other_user}",
  "gists_url": "https://api.github.com/users/mrrrgn/gists{/gist_id}",
  "starred_url": "https://api.github.com/users/mrrrgn/starred{/owner}{/repo}",
  "subscriptions_url": "https://api.github.com/users/mrrrgn/subscriptions",
  "organizations_url": "https://api.github.com/users/mrrrgn/orgs",
  "repos_url": "https://api.github.com/users/mrrrgn/repos",
  "events_url": "https://api.github.com/users/mrrrgn/events{/privacy}",
  "received_events_url": "https://api.github.com/users/mrrrgn/received_events",
  "type": "User",
  "site_admin": false
}
, {
  "login": "Callek",
  "id": 1415602,
  "avatar_url": "https://avatars.githubusercontent.com/u/1415602?v=3",
  "gravatar_id": "",
  "url": "https://api.github.com/users/Callek",
  "html_url": "https://github.com/Callek",
  "followers_url": "https://api.github.com/users/Callek/followers",
  "following_url": "https://api.github.com/users/Callek/following{/other_user}",
  "gists_url": "https://api.github.com/users/Callek/gists{/gist_id}",
  "starred_url": "https://api.github.com/users/Callek/starred{/owner}{/repo}",
  "subscriptions_url": "https://api.github.com/users/Callek/subscriptions",
  "organizations_url": "https://api.github.com/users/Callek/orgs",
  "repos_url": "https://api.github.com/users/Callek/repos",
  "events_url": "https://api.github.com/users/Callek/events{/privacy}",
  "received_events_url": "https://api.github.com/users/Callek/received_events",
  "type": "User",
  "site_admin": false
}
, {
  "login": "nthomas-mozilla",
  "id": 942272,
  "avatar_url": "https://avatars.githubusercontent.com/u/942272?v=3",
  "gravatar_id": "",
  "url": "https://api.github.com/users/nthomas-mozilla",
  "html_url": "https://github.com/nthomas-mozilla",
  "followers_url": "https://api.github.com/users/nthomas-mozilla/followers",
  "following_url": "https://api.github.com/users/nthomas-mozilla/following{/other_user}",
  "gists_url": "https://api.github.com/users/nthomas-mozilla/gists{/gist_id}",
  "starred_url": "https://api.github.com/users/nthomas-mozilla/starred{/owner}{/repo}",
  "subscriptions_url": "https://api.github.com/users/nthomas-mozilla/subscriptions",
  "organizations_url": "https://api.github.com/users/nthomas-mozilla/orgs",
  "repos_url": "https://api.github.com/users/nthomas-mozilla/repos",
  "events_url": "https://api.github.com/users/nthomas-mozilla/events{/privacy}",
  "received_events_url": "https://api.github.com/users/nthomas-mozilla/received_events",
  "type": "User",
  "site_admin": false
}
, {
  "login": "markcor",
  "id": 5396710,
  "avatar_url": "https://avatars.githubusercontent.com/u/5396710?v=3",
  "gravatar_id": "",
  "url": "https://api.github.com/users/markcor",
  "html_url": "https://github.com/markcor",
  "followers_url": "https://api.github.com/users/markcor/followers",
  "following_url": "https://api.github.com/users/markcor/following{/other_user}",
  "gists_url": "https://api.github.com/users/markcor/gists{/gist_id}",
  "starred_url": "https://api.github.com/users/markcor/starred{/owner}{/repo}",
  "subscriptions_url": "https://api.github.com/users/markcor/subscriptions",
  "organizations_url": "https://api.github.com/users/markcor/orgs",
  "repos_url": "https://api.github.com/users/markcor/repos",
  "events_url": "https://api.github.com/users/markcor/events{/privacy}",
  "received_events_url": "https://api.github.com/users/markcor/received_events",
  "type": "User",
  "site_admin": false
}
, {
  "login": "amyrrich",
  "id": 517785,
  "avatar_url": "https://avatars.githubusercontent.com/u/517785?v=3",
  "gravatar_id": "",
  "url": "https://api.github.com/users/amyrrich",
  "html_url": "https://github.com/amyrrich",
  "followers_url": "https://api.github.com/users/amyrrich/followers",
  "following_url": "https://api.github.com/users/amyrrich/following{/other_user}",
  "gists_url": "https://api.github.com/users/amyrrich/gists{/gist_id}",
  "starred_url": "https://api.github.com/users/amyrrich/starred{/owner}{/repo}",
  "subscriptions_url": "https://api.github.com/users/amyrrich/subscriptions",
  "organizations_url": "https://api.github.com/users/amyrrich/orgs",
  "repos_url": "https://api.github.com/users/amyrrich/repos",
  "events_url": "https://api.github.com/users/amyrrich/events{/privacy}",
  "received_events_url": "https://api.github.com/users/amyrrich/received_events",
  "type": "User",
  "site_admin": false
}
, {
  "login": "dividehex",
  "id": 456468,
  "avatar_url": "https://avatars.githubusercontent.com/u/456468?v=3",
  "gravatar_id": "",
  "url": "https://api.github.com/users/dividehex",
  "html_url": "https://github.com/dividehex",
  "followers_url": "https://api.github.com/users/dividehex/followers",
  "following_url": "https://api.github.com/users/dividehex/following{/other_user}",
  "gists_url": "https://api.github.com/users/dividehex/gists{/gist_id}",
  "starred_url": "https://api.github.com/users/dividehex/starred{/owner}{/repo}",
  "subscriptions_url": "https://api.github.com/users/dividehex/subscriptions",
  "organizations_url": "https://api.github.com/users/dividehex/orgs",
  "repos_url": "https://api.github.com/users/dividehex/repos",
  "events_url": "https://api.github.com/users/dividehex/events{/privacy}",
  "received_events_url": "https://api.github.com/users/dividehex/received_events",
  "type": "User",
  "site_admin": false
}
, {
  "login": "qimmortal",
  "id": 6125162,
  "avatar_url": "https://avatars.githubusercontent.com/u/6125162?v=3",
  "gravatar_id": "",
  "url": "https://api.github.com/users/qimmortal",
  "html_url": "https://github.com/qimmortal",
  "followers_url": "https://api.github.com/users/qimmortal/followers",
  "following_url": "https://api.github.com/users/qimmortal/following{/other_user}",
  "gists_url": "https://api.github.com/users/qimmortal/gists{/gist_id}",
  "starred_url": "https://api.github.com/users/qimmortal/starred{/owner}{/repo}",
  "subscriptions_url": "https://api.github.com/users/qimmortal/subscriptions",
  "organizations_url": "https://api.github.com/users/qimmortal/orgs",
  "repos_url": "https://api.github.com/users/qimmortal/repos",
  "events_url": "https://api.github.com/users/qimmortal/events{/privacy}",
  "received_events_url": "https://api.github.com/users/qimmortal/received_events",
  "type": "User",
  "site_admin": false
}
, {
  "login": "grenade",
  "id": 111819,
  "avatar_url": "https://avatars.githubusercontent.com/u/111819?v=3",
  "gravatar_id": "",
  "url": "https://api.github.com/users/grenade",
  "html_url": "https://github.com/grenade",
  "followers_url": "https://api.github.com/users/grenade/followers",
  "following_url": "https://api.github.com/users/grenade/following{/other_user}",
  "gists_url": "https://api.github.com/users/grenade/gists{/gist_id}",
  "starred_url": "https://api.github.com/users/grenade/starred{/owner}{/repo}",
  "subscriptions_url": "https://api.github.com/users/grenade/subscriptions",
  "organizations_url": "https://api.github.com/users/grenade/orgs",
  "repos_url": "https://api.github.com/users/grenade/repos",
  "events_url": "https://api.github.com/users/grenade/events{/privacy}",
  "received_events_url": "https://api.github.com/users/grenade/received_events",
  "type": "User",
  "site_admin": false
}
]
