[
{
  "url": "https://api.github.com/repos/twitter/typeahead.js/issues/comments/98766737",
  "html_url": "https://github.com/twitter/typeahead.js/pull/1193#issuecomment-98766737",
  "issue_url": "https://api.github.com/repos/twitter/typeahead.js/issues/1193",
  "id": 98766737,
  "user": {
    "login": "nostalgiaz",
    "id": 1184352,
    "avatar_url": "https://avatars.githubusercontent.com/u/1184352?v=3",
    "gravatar_id": "",
    "url": "https://api.github.com/users/nostalgiaz",
    "html_url": "https://github.com/nostalgiaz",
    "followers_url": "https://api.github.com/users/nostalgiaz/followers",
    "following_url": "https://api.github.com/users/nostalgiaz/following{/other_user}",
    "gists_url": "https://api.github.com/users/nostalgiaz/gists{/gist_id}",
    "starred_url": "https://api.github.com/users/nostalgiaz/starred{/owner}{/repo}",
    "subscriptions_url": "https://api.github.com/users/nostalgiaz/subscriptions",
    "organizations_url": "https://api.github.com/users/nostalgiaz/orgs",
    "repos_url": "https://api.github.com/users/nostalgiaz/repos",
    "events_url": "https://api.github.com/users/nostalgiaz/events{/privacy}",
    "received_events_url": "https://api.github.com/users/nostalgiaz/received_events",
    "type": "User",
    "site_admin": false
  },
  "created_at": "2015-05-04T16:04:48Z",
  "updated_at": "2015-05-04T16:04:48Z",
  "body": ":+1: I need this patch"
}
, {
  "url": "https://api.github.com/repos/twitter/typeahead.js/issues/comments/102426620",
  "html_url": "https://github.com/twitter/typeahead.js/pull/1193#issuecomment-102426620",
  "issue_url": "https://api.github.com/repos/twitter/typeahead.js/issues/1193",
  "id": 102426620,
  "user": {
    "login": "nostalgiaz",
    "id": 1184352,
    "avatar_url": "https://avatars.githubusercontent.com/u/1184352?v=3",
    "gravatar_id": "",
    "url": "https://api.github.com/users/nostalgiaz",
    "html_url": "https://github.com/nostalgiaz",
    "followers_url": "https://api.github.com/users/nostalgiaz/followers",
    "following_url": "https://api.github.com/users/nostalgiaz/following{/other_user}",
    "gists_url": "https://api.github.com/users/nostalgiaz/gists{/gist_id}",
    "starred_url": "https://api.github.com/users/nostalgiaz/starred{/owner}{/repo}",
    "subscriptions_url": "https://api.github.com/users/nostalgiaz/subscriptions",
    "organizations_url": "https://api.github.com/users/nostalgiaz/orgs",
    "repos_url": "https://api.github.com/users/nostalgiaz/repos",
    "events_url": "https://api.github.com/users/nostalgiaz/events{/privacy}",
    "received_events_url": "https://api.github.com/users/nostalgiaz/received_events",
    "type": "User",
    "site_admin": false
  },
  "created_at": "2015-05-15T15:09:57Z",
  "updated_at": "2015-05-15T15:09:57Z",
  "body": "I don't need this anymore... I rolled back to the 0.10.5."
}
, {
  "url": "https://api.github.com/repos/twitter/typeahead.js/issues/comments/112175585",
  "html_url": "https://github.com/twitter/typeahead.js/pull/1193#issuecomment-112175585",
  "issue_url": "https://api.github.com/repos/twitter/typeahead.js/issues/1193",
  "id": 112175585,
  "user": {
    "login": "tm1000",
    "id": 564256,
    "avatar_url": "https://avatars.githubusercontent.com/u/564256?v=3",
    "gravatar_id": "",
    "url": "https://api.github.com/users/tm1000",
    "html_url": "https://github.com/tm1000",
    "followers_url": "https://api.github.com/users/tm1000/followers",
    "following_url": "https://api.github.com/users/tm1000/following{/other_user}",
    "gists_url": "https://api.github.com/users/tm1000/gists{/gist_id}",
    "starred_url": "https://api.github.com/users/tm1000/starred{/owner}{/repo}",
    "subscriptions_url": "https://api.github.com/users/tm1000/subscriptions",
    "organizations_url": "https://api.github.com/users/tm1000/orgs",
    "repos_url": "https://api.github.com/users/tm1000/repos",
    "events_url": "https://api.github.com/users/tm1000/events{/privacy}",
    "received_events_url": "https://api.github.com/users/tm1000/received_events",
    "type": "User",
    "site_admin": false
  },
  "created_at": "2015-06-15T19:05:05Z",
  "updated_at": "2015-06-15T19:05:05Z",
  "body": "@AndrewCarterUK completely agree. It's baffling that there are over 33 valid pull requests and not a single action."
}
, {
  "url": "https://api.github.com/repos/twitter/typeahead.js/issues/comments/119768583",
  "html_url": "https://github.com/twitter/typeahead.js/pull/1193#issuecomment-119768583",
  "issue_url": "https://api.github.com/repos/twitter/typeahead.js/issues/1193",
  "id": 119768583,
  "user": {
    "login": "Downchuck",
    "id": 141466,
    "avatar_url": "https://avatars.githubusercontent.com/u/141466?v=3",
    "gravatar_id": "",
    "url": "https://api.github.com/users/Downchuck",
    "html_url": "https://github.com/Downchuck",
    "followers_url": "https://api.github.com/users/Downchuck/followers",
    "following_url": "https://api.github.com/users/Downchuck/following{/other_user}",
    "gists_url": "https://api.github.com/users/Downchuck/gists{/gist_id}",
    "starred_url": "https://api.github.com/users/Downchuck/starred{/owner}{/repo}",
    "subscriptions_url": "https://api.github.com/users/Downchuck/subscriptions",
    "organizations_url": "https://api.github.com/users/Downchuck/orgs",
    "repos_url": "https://api.github.com/users/Downchuck/repos",
    "events_url": "https://api.github.com/users/Downchuck/events{/privacy}",
    "received_events_url": "https://api.github.com/users/Downchuck/received_events",
    "type": "User",
    "site_admin": false
  },
  "created_at": "2015-07-09T00:23:04Z",
  "updated_at": "2015-07-09T00:23:04Z",
  "body": "@jharding What's the status on this project? It seems temporarily abandoned."
}
, {
  "url": "https://api.github.com/repos/twitter/typeahead.js/issues/comments/119768974",
  "html_url": "https://github.com/twitter/typeahead.js/pull/1193#issuecomment-119768974",
  "issue_url": "https://api.github.com/repos/twitter/typeahead.js/issues/1193",
  "id": 119768974,
  "user": {
    "login": "tm1000",
    "id": 564256,
    "avatar_url": "https://avatars.githubusercontent.com/u/564256?v=3",
    "gravatar_id": "",
    "url": "https://api.github.com/users/tm1000",
    "html_url": "https://github.com/tm1000",
    "followers_url": "https://api.github.com/users/tm1000/followers",
    "following_url": "https://api.github.com/users/tm1000/following{/other_user}",
    "gists_url": "https://api.github.com/users/tm1000/gists{/gist_id}",
    "starred_url": "https://api.github.com/users/tm1000/starred{/owner}{/repo}",
    "subscriptions_url": "https://api.github.com/users/tm1000/subscriptions",
    "organizations_url": "https://api.github.com/users/tm1000/orgs",
    "repos_url": "https://api.github.com/users/tm1000/repos",
    "events_url": "https://api.github.com/users/tm1000/events{/privacy}",
    "received_events_url": "https://api.github.com/users/tm1000/received_events",
    "type": "User",
    "site_admin": false
  },
  "created_at": "2015-07-09T00:24:56Z",
  "updated_at": "2015-07-09T00:27:09Z",
  "body": "@Downchuck There is a tweet from one of the lead developers that states they are only fixing issues in version 1.0 which, as you can see, is semi-vaporware. It would be nice if these simple things could be merged to tide us over though.\r\n\r\nhttps://twitter.com/JakeHarding/status/598947982881390592"
}
, {
  "url": "https://api.github.com/repos/twitter/typeahead.js/issues/comments/119769513",
  "html_url": "https://github.com/twitter/typeahead.js/pull/1193#issuecomment-119769513",
  "issue_url": "https://api.github.com/repos/twitter/typeahead.js/issues/1193",
  "id": 119769513,
  "user": {
    "login": "Downchuck",
    "id": 141466,
    "avatar_url": "https://avatars.githubusercontent.com/u/141466?v=3",
    "gravatar_id": "",
    "url": "https://api.github.com/users/Downchuck",
    "html_url": "https://github.com/Downchuck",
    "followers_url": "https://api.github.com/users/Downchuck/followers",
    "following_url": "https://api.github.com/users/Downchuck/following{/other_user}",
    "gists_url": "https://api.github.com/users/Downchuck/gists{/gist_id}",
    "starred_url": "https://api.github.com/users/Downchuck/starred{/owner}{/repo}",
    "subscriptions_url": "https://api.github.com/users/Downchuck/subscriptions",
    "organizations_url": "https://api.github.com/users/Downchuck/orgs",
    "repos_url": "https://api.github.com/users/Downchuck/repos",
    "events_url": "https://api.github.com/users/Downchuck/events{/privacy}",
    "received_events_url": "https://api.github.com/users/Downchuck/received_events",
    "type": "User",
    "site_admin": false
  },
  "created_at": "2015-07-09T00:27:51Z",
  "updated_at": "2015-07-09T00:27:51Z",
  "body": "@tm1000 looks like they should have release 0.11 as 1.0, regardless of bugs, as it's an API change from 0.x."
}
, {
  "url": "https://api.github.com/repos/twitter/typeahead.js/issues/comments/126799260",
  "html_url": "https://github.com/twitter/typeahead.js/pull/1193#issuecomment-126799260",
  "issue_url": "https://api.github.com/repos/twitter/typeahead.js/issues/1193",
  "id": 126799260,
  "user": {
    "login": "dougaxe1",
    "id": 10548206,
    "avatar_url": "https://avatars.githubusercontent.com/u/10548206?v=3",
    "gravatar_id": "",
    "url": "https://api.github.com/users/dougaxe1",
    "html_url": "https://github.com/dougaxe1",
    "followers_url": "https://api.github.com/users/dougaxe1/followers",
    "following_url": "https://api.github.com/users/dougaxe1/following{/other_user}",
    "gists_url": "https://api.github.com/users/dougaxe1/gists{/gist_id}",
    "starred_url": "https://api.github.com/users/dougaxe1/starred{/owner}{/repo}",
    "subscriptions_url": "https://api.github.com/users/dougaxe1/subscriptions",
    "organizations_url": "https://api.github.com/users/dougaxe1/orgs",
    "repos_url": "https://api.github.com/users/dougaxe1/repos",
    "events_url": "https://api.github.com/users/dougaxe1/events{/privacy}",
    "received_events_url": "https://api.github.com/users/dougaxe1/received_events",
    "type": "User",
    "site_admin": false
  },
  "created_at": "2015-07-31T20:02:32Z",
  "updated_at": "2015-07-31T20:02:32Z",
  "body": "The fix in 173b4b5 appears to be a sufficient fix for the litany of issues and PRs around this issue. Any chance of this release getting fast tracked so we can close out #1212, #1224, #1284, #1316, #1319, #1331, and #1332 (among others)?"
}
, {
  "url": "https://api.github.com/repos/twitter/typeahead.js/issues/comments/139507450",
  "html_url": "https://github.com/twitter/typeahead.js/pull/1193#issuecomment-139507450",
  "issue_url": "https://api.github.com/repos/twitter/typeahead.js/issues/1193",
  "id": 139507450,
  "user": {
    "login": "ahmetabdi",
    "id": 778015,
    "avatar_url": "https://avatars.githubusercontent.com/u/778015?v=3",
    "gravatar_id": "",
    "url": "https://api.github.com/users/ahmetabdi",
    "html_url": "https://github.com/ahmetabdi",
    "followers_url": "https://api.github.com/users/ahmetabdi/followers",
    "following_url": "https://api.github.com/users/ahmetabdi/following{/other_user}",
    "gists_url": "https://api.github.com/users/ahmetabdi/gists{/gist_id}",
    "starred_url": "https://api.github.com/users/ahmetabdi/starred{/owner}{/repo}",
    "subscriptions_url": "https://api.github.com/users/ahmetabdi/subscriptions",
    "organizations_url": "https://api.github.com/users/ahmetabdi/orgs",
    "repos_url": "https://api.github.com/users/ahmetabdi/repos",
    "events_url": "https://api.github.com/users/ahmetabdi/events{/privacy}",
    "received_events_url": "https://api.github.com/users/ahmetabdi/received_events",
    "type": "User",
    "site_admin": false
  },
  "created_at": "2015-09-11T10:15:26Z",
  "updated_at": "2015-09-11T10:15:26Z",
  "body": ":+1: Please fast track"
}
]
