[
{
  "url": "https://api.github.com/repos/twitter/typeahead.js/issues/comments/48853848",
  "html_url": "https://github.com/twitter/typeahead.js/issues/896#issuecomment-48853848",
  "issue_url": "https://api.github.com/repos/twitter/typeahead.js/issues/896",
  "id": 48853848,
  "user": {
    "login": "nhouse",
    "id": 2923538,
    "avatar_url": "https://avatars.githubusercontent.com/u/2923538?v=3",
    "gravatar_id": "",
    "url": "https://api.github.com/users/nhouse",
    "html_url": "https://github.com/nhouse",
    "followers_url": "https://api.github.com/users/nhouse/followers",
    "following_url": "https://api.github.com/users/nhouse/following{/other_user}",
    "gists_url": "https://api.github.com/users/nhouse/gists{/gist_id}",
    "starred_url": "https://api.github.com/users/nhouse/starred{/owner}{/repo}",
    "subscriptions_url": "https://api.github.com/users/nhouse/subscriptions",
    "organizations_url": "https://api.github.com/users/nhouse/orgs",
    "repos_url": "https://api.github.com/users/nhouse/repos",
    "events_url": "https://api.github.com/users/nhouse/events{/privacy}",
    "received_events_url": "https://api.github.com/users/nhouse/received_events",
    "type": "User",
    "site_admin": false
  },
  "created_at": "2014-07-13T22:36:43Z",
  "updated_at": "2014-07-13T22:36:43Z",
  "body": "I thought I remembered having this working last week, but didn't mention it because I wasn't sure. However, I just noticed the latest version of typeahead was released only two days ago, so I just tried my code with the previous version (0.10.2) and it works:\r\n\r\nhttp://jsfiddle.net/r98fU/1/\r\n\r\nHere's the fiddle from my StackOverflow question using the latest version (which does not work):\r\n\r\nhttp://jsfiddle.net/GSH4f/2/\r\n\r\nSo this bug was introduced in the latest version of Typeahead/Bloodhound."
}
, {
  "url": "https://api.github.com/repos/twitter/typeahead.js/issues/comments/48855520",
  "html_url": "https://github.com/twitter/typeahead.js/issues/896#issuecomment-48855520",
  "issue_url": "https://api.github.com/repos/twitter/typeahead.js/issues/896",
  "id": 48855520,
  "user": {
    "login": "jharding",
    "id": 314351,
    "avatar_url": "https://avatars.githubusercontent.com/u/314351?v=3",
    "gravatar_id": "",
    "url": "https://api.github.com/users/jharding",
    "html_url": "https://github.com/jharding",
    "followers_url": "https://api.github.com/users/jharding/followers",
    "following_url": "https://api.github.com/users/jharding/following{/other_user}",
    "gists_url": "https://api.github.com/users/jharding/gists{/gist_id}",
    "starred_url": "https://api.github.com/users/jharding/starred{/owner}{/repo}",
    "subscriptions_url": "https://api.github.com/users/jharding/subscriptions",
    "organizations_url": "https://api.github.com/users/jharding/orgs",
    "repos_url": "https://api.github.com/users/jharding/repos",
    "events_url": "https://api.github.com/users/jharding/events{/privacy}",
    "received_events_url": "https://api.github.com/users/jharding/received_events",
    "type": "User",
    "site_admin": false
  },
  "created_at": "2014-07-13T23:53:01Z",
  "updated_at": "2014-07-13T23:53:01Z",
  "body": "Err, I think I've identified the issue and it looks like a legit bug :frowning: \r\n\r\nGive me a chance to confirm the bug and I'll post a branch with a fix ASAP. Thanks for reporting this.\r\n"
}
, {
  "url": "https://api.github.com/repos/twitter/typeahead.js/issues/comments/48855730",
  "html_url": "https://github.com/twitter/typeahead.js/issues/896#issuecomment-48855730",
  "issue_url": "https://api.github.com/repos/twitter/typeahead.js/issues/896",
  "id": 48855730,
  "user": {
    "login": "jharding",
    "id": 314351,
    "avatar_url": "https://avatars.githubusercontent.com/u/314351?v=3",
    "gravatar_id": "",
    "url": "https://api.github.com/users/jharding",
    "html_url": "https://github.com/jharding",
    "followers_url": "https://api.github.com/users/jharding/followers",
    "following_url": "https://api.github.com/users/jharding/following{/other_user}",
    "gists_url": "https://api.github.com/users/jharding/gists{/gist_id}",
    "starred_url": "https://api.github.com/users/jharding/starred{/owner}{/repo}",
    "subscriptions_url": "https://api.github.com/users/jharding/subscriptions",
    "organizations_url": "https://api.github.com/users/jharding/orgs",
    "repos_url": "https://api.github.com/users/jharding/repos",
    "events_url": "https://api.github.com/users/jharding/events{/privacy}",
    "received_events_url": "https://api.github.com/users/jharding/received_events",
    "type": "User",
    "site_admin": false
  },
  "created_at": "2014-07-14T00:02:37Z",
  "updated_at": "2014-07-14T00:02:37Z",
  "body": "Alright, I've created the pull request #899. Here's a link to the [bundle dist file](https://gist.githubusercontent.com/jharding/85ceaf53f75a428212a2/raw/ebc9d9c24659e53868a48dc52eb1c7200d558533/typeahead.bundle.js) for that pull request. When you get a chance can you see if that fixes your problem?"
}
, {
  "url": "https://api.github.com/repos/twitter/typeahead.js/issues/comments/48857098",
  "html_url": "https://github.com/twitter/typeahead.js/issues/896#issuecomment-48857098",
  "issue_url": "https://api.github.com/repos/twitter/typeahead.js/issues/896",
  "id": 48857098,
  "user": {
    "login": "nhouse",
    "id": 2923538,
    "avatar_url": "https://avatars.githubusercontent.com/u/2923538?v=3",
    "gravatar_id": "",
    "url": "https://api.github.com/users/nhouse",
    "html_url": "https://github.com/nhouse",
    "followers_url": "https://api.github.com/users/nhouse/followers",
    "following_url": "https://api.github.com/users/nhouse/following{/other_user}",
    "gists_url": "https://api.github.com/users/nhouse/gists{/gist_id}",
    "starred_url": "https://api.github.com/users/nhouse/starred{/owner}{/repo}",
    "subscriptions_url": "https://api.github.com/users/nhouse/subscriptions",
    "organizations_url": "https://api.github.com/users/nhouse/orgs",
    "repos_url": "https://api.github.com/users/nhouse/repos",
    "events_url": "https://api.github.com/users/nhouse/events{/privacy}",
    "received_events_url": "https://api.github.com/users/nhouse/received_events",
    "type": "User",
    "site_admin": false
  },
  "created_at": "2014-07-14T00:52:46Z",
  "updated_at": "2014-07-14T00:52:46Z",
  "body": "Yep, that fixes it! Thanks!"
}
, {
  "url": "https://api.github.com/repos/twitter/typeahead.js/issues/comments/48857914",
  "html_url": "https://github.com/twitter/typeahead.js/issues/896#issuecomment-48857914",
  "issue_url": "https://api.github.com/repos/twitter/typeahead.js/issues/896",
  "id": 48857914,
  "user": {
    "login": "jharding",
    "id": 314351,
    "avatar_url": "https://avatars.githubusercontent.com/u/314351?v=3",
    "gravatar_id": "",
    "url": "https://api.github.com/users/jharding",
    "html_url": "https://github.com/jharding",
    "followers_url": "https://api.github.com/users/jharding/followers",
    "following_url": "https://api.github.com/users/jharding/following{/other_user}",
    "gists_url": "https://api.github.com/users/jharding/gists{/gist_id}",
    "starred_url": "https://api.github.com/users/jharding/starred{/owner}{/repo}",
    "subscriptions_url": "https://api.github.com/users/jharding/subscriptions",
    "organizations_url": "https://api.github.com/users/jharding/orgs",
    "repos_url": "https://api.github.com/users/jharding/repos",
    "events_url": "https://api.github.com/users/jharding/events{/privacy}",
    "received_events_url": "https://api.github.com/users/jharding/received_events",
    "type": "User",
    "site_admin": false
  },
  "created_at": "2014-07-14T01:19:41Z",
  "updated_at": "2014-07-14T01:19:41Z",
  "body": "Great! I'm going to reopen this issue; I'll close it once I have the fix merged into a proper release branch."
}
, {
  "url": "https://api.github.com/repos/twitter/typeahead.js/issues/comments/48860389",
  "html_url": "https://github.com/twitter/typeahead.js/issues/896#issuecomment-48860389",
  "issue_url": "https://api.github.com/repos/twitter/typeahead.js/issues/896",
  "id": 48860389,
  "user": {
    "login": "jharding",
    "id": 314351,
    "avatar_url": "https://avatars.githubusercontent.com/u/314351?v=3",
    "gravatar_id": "",
    "url": "https://api.github.com/users/jharding",
    "html_url": "https://github.com/jharding",
    "followers_url": "https://api.github.com/users/jharding/followers",
    "following_url": "https://api.github.com/users/jharding/following{/other_user}",
    "gists_url": "https://api.github.com/users/jharding/gists{/gist_id}",
    "starred_url": "https://api.github.com/users/jharding/starred{/owner}{/repo}",
    "subscriptions_url": "https://api.github.com/users/jharding/subscriptions",
    "organizations_url": "https://api.github.com/users/jharding/orgs",
    "repos_url": "https://api.github.com/users/jharding/repos",
    "events_url": "https://api.github.com/users/jharding/events{/privacy}",
    "received_events_url": "https://api.github.com/users/jharding/received_events",
    "type": "User",
    "site_admin": false
  },
  "created_at": "2014-07-14T02:27:12Z",
  "updated_at": "2014-07-14T02:27:12Z",
  "body": "Fixed has been merged into `integration-0.10.4`."
}
, {
  "url": "https://api.github.com/repos/twitter/typeahead.js/issues/comments/49587526",
  "html_url": "https://github.com/twitter/typeahead.js/issues/896#issuecomment-49587526",
  "issue_url": "https://api.github.com/repos/twitter/typeahead.js/issues/896",
  "id": 49587526,
  "user": {
    "login": "danielcmartin",
    "id": 4975028,
    "avatar_url": "https://avatars.githubusercontent.com/u/4975028?v=3",
    "gravatar_id": "",
    "url": "https://api.github.com/users/danielcmartin",
    "html_url": "https://github.com/danielcmartin",
    "followers_url": "https://api.github.com/users/danielcmartin/followers",
    "following_url": "https://api.github.com/users/danielcmartin/following{/other_user}",
    "gists_url": "https://api.github.com/users/danielcmartin/gists{/gist_id}",
    "starred_url": "https://api.github.com/users/danielcmartin/starred{/owner}{/repo}",
    "subscriptions_url": "https://api.github.com/users/danielcmartin/subscriptions",
    "organizations_url": "https://api.github.com/users/danielcmartin/orgs",
    "repos_url": "https://api.github.com/users/danielcmartin/repos",
    "events_url": "https://api.github.com/users/danielcmartin/events{/privacy}",
    "received_events_url": "https://api.github.com/users/danielcmartin/received_events",
    "type": "User",
    "site_admin": false
  },
  "created_at": "2014-07-21T09:43:54Z",
  "updated_at": "2014-07-21T09:43:54Z",
  "body": "I'm using the v0.10.4 bundle file and still seeing the issue described above: two remote data sources and I'm only seeing one ajax request being made. If i switch around the order of the data sources in the typeahead it looks like only the first source works. In the stack overflow post the original problem was that only the second data source was being used, also it mentions that only the second data set was showing results. Instead I'm seeing two sets of results in the typeahead suggestions dropdown but its just the first data set duplicated."
}
, {
  "url": "https://api.github.com/repos/twitter/typeahead.js/issues/comments/49606193",
  "html_url": "https://github.com/twitter/typeahead.js/issues/896#issuecomment-49606193",
  "issue_url": "https://api.github.com/repos/twitter/typeahead.js/issues/896",
  "id": 49606193,
  "user": {
    "login": "nhouse",
    "id": 2923538,
    "avatar_url": "https://avatars.githubusercontent.com/u/2923538?v=3",
    "gravatar_id": "",
    "url": "https://api.github.com/users/nhouse",
    "html_url": "https://github.com/nhouse",
    "followers_url": "https://api.github.com/users/nhouse/followers",
    "following_url": "https://api.github.com/users/nhouse/following{/other_user}",
    "gists_url": "https://api.github.com/users/nhouse/gists{/gist_id}",
    "starred_url": "https://api.github.com/users/nhouse/starred{/owner}{/repo}",
    "subscriptions_url": "https://api.github.com/users/nhouse/subscriptions",
    "organizations_url": "https://api.github.com/users/nhouse/orgs",
    "repos_url": "https://api.github.com/users/nhouse/repos",
    "events_url": "https://api.github.com/users/nhouse/events{/privacy}",
    "received_events_url": "https://api.github.com/users/nhouse/received_events",
    "type": "User",
    "site_admin": false
  },
  "created_at": "2014-07-21T13:40:15Z",
  "updated_at": "2014-07-21T13:42:53Z",
  "body": "@danielcmartin I think your issue is unrelated to mine since both of your datasets are displaying. \r\n\r\nIt's likely not actually a bug, but rather due to the way Bloodhound caches requests. Are your endpoints for the data sources the same? If so, Bloodhound will cache the response even if URL parameters or POST data is different.\r\n\r\nThe only way I've found to stop Bloodhound from caching responses is to add the `replace` callback in the remote options:\r\n\r\n    storeHound = new Bloodhound({\r\n        datumTokenizer: Bloodhound.tokenizers.obj.whitespace('value'),\r\n        queryTokenizer: Bloodhound.tokenizers.whitespace,\r\n        remote: {\r\n            url: '/deals/action/tagSearch',\r\n            replace: function(url, query) {\r\n                return url + \"#\" + query + \"store\"; // used to prevent the data from being cached. New requests aren't made without this (cache: false setting in ajax settings doesn't work) NOTE: \"store\" added to prevent bloodhound instances from sharing results from same URL\r\n            },\r\n            ajax : {\r\n                beforeSend: function(jqXhr, settings){\r\n                    settings.data = $.param({q: $(':focus').val(), t: \"store\"});\r\n\r\n                    if ($(':focus').val() == \"\") { // @todo bloodhound is sending ajax requests even when the input is empty after pressing tab in tagsinput\r\n                        console.log(\"query empty, aborting bloodhound ajax request\");\r\n                        jqXhr.abort();\r\n                    }\r\n                },\r\n                data: $.param({q: \"this value is not sent but must be here\", t: \"store\"}),\r\n                type: \"POST\"\r\n            }\r\n        }\r\n    });\r\n\r\nYou can view my full source code here if it helps (although I'm in the middle of an update atm so search isn't working): http://www.pricewombat.com/deals"
}
, {
  "url": "https://api.github.com/repos/twitter/typeahead.js/issues/comments/49680169",
  "html_url": "https://github.com/twitter/typeahead.js/issues/896#issuecomment-49680169",
  "issue_url": "https://api.github.com/repos/twitter/typeahead.js/issues/896",
  "id": 49680169,
  "user": {
    "login": "danielcmartin",
    "id": 4975028,
    "avatar_url": "https://avatars.githubusercontent.com/u/4975028?v=3",
    "gravatar_id": "",
    "url": "https://api.github.com/users/danielcmartin",
    "html_url": "https://github.com/danielcmartin",
    "followers_url": "https://api.github.com/users/danielcmartin/followers",
    "following_url": "https://api.github.com/users/danielcmartin/following{/other_user}",
    "gists_url": "https://api.github.com/users/danielcmartin/gists{/gist_id}",
    "starred_url": "https://api.github.com/users/danielcmartin/starred{/owner}{/repo}",
    "subscriptions_url": "https://api.github.com/users/danielcmartin/subscriptions",
    "organizations_url": "https://api.github.com/users/danielcmartin/orgs",
    "repos_url": "https://api.github.com/users/danielcmartin/repos",
    "events_url": "https://api.github.com/users/danielcmartin/events{/privacy}",
    "received_events_url": "https://api.github.com/users/danielcmartin/received_events",
    "type": "User",
    "site_admin": false
  },
  "created_at": "2014-07-21T23:30:45Z",
  "updated_at": "2014-07-21T23:30:45Z",
  "body": "Thanks @nhouse you were right. The replace callback fixed my issue."
}
, {
  "url": "https://api.github.com/repos/twitter/typeahead.js/issues/comments/108299819",
  "html_url": "https://github.com/twitter/typeahead.js/issues/896#issuecomment-108299819",
  "issue_url": "https://api.github.com/repos/twitter/typeahead.js/issues/896",
  "id": 108299819,
  "user": {
    "login": "sachintoshniwal",
    "id": 4608545,
    "avatar_url": "https://avatars.githubusercontent.com/u/4608545?v=3",
    "gravatar_id": "",
    "url": "https://api.github.com/users/sachintoshniwal",
    "html_url": "https://github.com/sachintoshniwal",
    "followers_url": "https://api.github.com/users/sachintoshniwal/followers",
    "following_url": "https://api.github.com/users/sachintoshniwal/following{/other_user}",
    "gists_url": "https://api.github.com/users/sachintoshniwal/gists{/gist_id}",
    "starred_url": "https://api.github.com/users/sachintoshniwal/starred{/owner}{/repo}",
    "subscriptions_url": "https://api.github.com/users/sachintoshniwal/subscriptions",
    "organizations_url": "https://api.github.com/users/sachintoshniwal/orgs",
    "repos_url": "https://api.github.com/users/sachintoshniwal/repos",
    "events_url": "https://api.github.com/users/sachintoshniwal/events{/privacy}",
    "received_events_url": "https://api.github.com/users/sachintoshniwal/received_events",
    "type": "User",
    "site_admin": false
  },
  "created_at": "2015-06-03T11:06:36Z",
  "updated_at": "2015-06-03T11:06:36Z",
  "body": "Hello,\r\n\r\ni am using bloodhounds js to bind autocomplete textbox. I am using cascading autocomplete just like select county & retrieve corresponding state. \r\n\r\nWhen i select first country i got data in state autocomplete & again i select another country then same data display in state field.\r\n\r\nbloodhounds data source is not returning update data. it returns old data.I am using local Storage option in bloodhounds  js.\r\n\r\nkindly suggest.\r\n\r\nThanks,\r\nSachin\r\n   "
}
]
