[
{
  "url": "https://api.github.com/repos/heroku/rails_12factor/issues/comments/88970133",
  "html_url": "https://github.com/heroku/rails_12factor/pull/19#issuecomment-88970133",
  "issue_url": "https://api.github.com/repos/heroku/rails_12factor/issues/19",
  "id": 88970133,
  "user": {
    "login": "schneems",
    "id": 59744,
    "avatar_url": "https://avatars.githubusercontent.com/u/59744?v=3",
    "gravatar_id": "",
    "url": "https://api.github.com/users/schneems",
    "html_url": "https://github.com/schneems",
    "followers_url": "https://api.github.com/users/schneems/followers",
    "following_url": "https://api.github.com/users/schneems/following{/other_user}",
    "gists_url": "https://api.github.com/users/schneems/gists{/gist_id}",
    "starred_url": "https://api.github.com/users/schneems/starred{/owner}{/repo}",
    "subscriptions_url": "https://api.github.com/users/schneems/subscriptions",
    "organizations_url": "https://api.github.com/users/schneems/orgs",
    "repos_url": "https://api.github.com/users/schneems/repos",
    "events_url": "https://api.github.com/users/schneems/events{/privacy}",
    "received_events_url": "https://api.github.com/users/schneems/received_events",
    "type": "User",
    "site_admin": false
  },
  "created_at": "2015-04-02T16:44:01Z",
  "updated_at": "2015-04-02T16:44:01Z",
  "body": "I was originally thinking the same thing, however this gem ensures that you've got a 12 factor app. While __new__ rails apps have that env var by default, older upgraded ones won't so if we remove this dependency they will break. People may also remove that line assuming that this gem takes care of it for them.\r\n\r\nI'm moving more in the direction that we can add features to Rails and eventually remove the need to use this gem at all, rather than removing features from this gem.\r\n\r\nThanks for the PR though, I appreciate the opportunity to discuss the rational :heart: "
}
, {
  "url": "https://api.github.com/repos/heroku/rails_12factor/issues/comments/89779583",
  "html_url": "https://github.com/heroku/rails_12factor/pull/19#issuecomment-89779583",
  "issue_url": "https://api.github.com/repos/heroku/rails_12factor/issues/19",
  "id": 89779583,
  "user": {
    "login": "koenpunt",
    "id": 351038,
    "avatar_url": "https://avatars.githubusercontent.com/u/351038?v=3",
    "gravatar_id": "",
    "url": "https://api.github.com/users/koenpunt",
    "html_url": "https://github.com/koenpunt",
    "followers_url": "https://api.github.com/users/koenpunt/followers",
    "following_url": "https://api.github.com/users/koenpunt/following{/other_user}",
    "gists_url": "https://api.github.com/users/koenpunt/gists{/gist_id}",
    "starred_url": "https://api.github.com/users/koenpunt/starred{/owner}{/repo}",
    "subscriptions_url": "https://api.github.com/users/koenpunt/subscriptions",
    "organizations_url": "https://api.github.com/users/koenpunt/orgs",
    "repos_url": "https://api.github.com/users/koenpunt/repos",
    "events_url": "https://api.github.com/users/koenpunt/events{/privacy}",
    "received_events_url": "https://api.github.com/users/koenpunt/received_events",
    "type": "User",
    "site_admin": false
  },
  "created_at": "2015-04-05T14:25:03Z",
  "updated_at": "2015-04-05T14:25:03Z",
  "body": "> While new rails apps have that env var by default, older upgraded ones won't\r\n\r\nI did notice this, but actually after I did post this PR. But now I've updated my `production.rb` and only included `rails_stdout_logging` in my gemfile."
}
]
