[
{
  "url": "https://api.github.com/repos/docker/distribution/issues/comments/144795091",
  "html_url": "https://github.com/docker/distribution/pull/1053#issuecomment-144795091",
  "issue_url": "https://api.github.com/repos/docker/distribution/issues/1053",
  "id": 144795091,
  "user": {
    "login": "mrwacky42",
    "id": 355590,
    "avatar_url": "https://avatars.githubusercontent.com/u/355590?v=3",
    "gravatar_id": "",
    "url": "https://api.github.com/users/mrwacky42",
    "html_url": "https://github.com/mrwacky42",
    "followers_url": "https://api.github.com/users/mrwacky42/followers",
    "following_url": "https://api.github.com/users/mrwacky42/following{/other_user}",
    "gists_url": "https://api.github.com/users/mrwacky42/gists{/gist_id}",
    "starred_url": "https://api.github.com/users/mrwacky42/starred{/owner}{/repo}",
    "subscriptions_url": "https://api.github.com/users/mrwacky42/subscriptions",
    "organizations_url": "https://api.github.com/users/mrwacky42/orgs",
    "repos_url": "https://api.github.com/users/mrwacky42/repos",
    "events_url": "https://api.github.com/users/mrwacky42/events{/privacy}",
    "received_events_url": "https://api.github.com/users/mrwacky42/received_events",
    "type": "User",
    "site_admin": false
  },
  "created_at": "2015-10-01T17:33:36Z",
  "updated_at": "2015-10-01T17:34:27Z",
  "body": "Hey Gordon, I'm sure you are a very nice turtle, but this is a lot of work for a one character fix."
}
, {
  "url": "https://api.github.com/repos/docker/distribution/issues/comments/145143415",
  "html_url": "https://github.com/docker/distribution/pull/1053#issuecomment-145143415",
  "issue_url": "https://api.github.com/repos/docker/distribution/issues/1053",
  "id": 145143415,
  "user": {
    "login": "aaronlehmann",
    "id": 10601430,
    "avatar_url": "https://avatars.githubusercontent.com/u/10601430?v=3",
    "gravatar_id": "",
    "url": "https://api.github.com/users/aaronlehmann",
    "html_url": "https://github.com/aaronlehmann",
    "followers_url": "https://api.github.com/users/aaronlehmann/followers",
    "following_url": "https://api.github.com/users/aaronlehmann/following{/other_user}",
    "gists_url": "https://api.github.com/users/aaronlehmann/gists{/gist_id}",
    "starred_url": "https://api.github.com/users/aaronlehmann/starred{/owner}{/repo}",
    "subscriptions_url": "https://api.github.com/users/aaronlehmann/subscriptions",
    "organizations_url": "https://api.github.com/users/aaronlehmann/orgs",
    "repos_url": "https://api.github.com/users/aaronlehmann/repos",
    "events_url": "https://api.github.com/users/aaronlehmann/events{/privacy}",
    "received_events_url": "https://api.github.com/users/aaronlehmann/received_events",
    "type": "User",
    "site_admin": false
  },
  "created_at": "2015-10-02T20:12:35Z",
  "updated_at": "2015-10-02T20:12:35Z",
  "body": "I realize it's a pain, but if you could please amend the commit with the Signed-off-by message, I'd be able to merge it. Otherwise, I'm happy to resubmit the fix myself."
}
, {
  "url": "https://api.github.com/repos/docker/distribution/issues/comments/148485131",
  "html_url": "https://github.com/docker/distribution/pull/1053#issuecomment-148485131",
  "issue_url": "https://api.github.com/repos/docker/distribution/issues/1053",
  "id": 148485131,
  "user": {
    "login": "RichardScothern",
    "id": 922018,
    "avatar_url": "https://avatars.githubusercontent.com/u/922018?v=3",
    "gravatar_id": "",
    "url": "https://api.github.com/users/RichardScothern",
    "html_url": "https://github.com/RichardScothern",
    "followers_url": "https://api.github.com/users/RichardScothern/followers",
    "following_url": "https://api.github.com/users/RichardScothern/following{/other_user}",
    "gists_url": "https://api.github.com/users/RichardScothern/gists{/gist_id}",
    "starred_url": "https://api.github.com/users/RichardScothern/starred{/owner}{/repo}",
    "subscriptions_url": "https://api.github.com/users/RichardScothern/subscriptions",
    "organizations_url": "https://api.github.com/users/RichardScothern/orgs",
    "repos_url": "https://api.github.com/users/RichardScothern/repos",
    "events_url": "https://api.github.com/users/RichardScothern/events{/privacy}",
    "received_events_url": "https://api.github.com/users/RichardScothern/received_events",
    "type": "User",
    "site_admin": false
  },
  "created_at": "2015-10-15T18:44:45Z",
  "updated_at": "2015-10-15T18:44:45Z",
  "body": "LGTM"
}
]
