[
{
  "url": "https://api.github.com/repos/docker/distribution/issues/comments/124255170",
  "html_url": "https://github.com/docker/distribution/pull/729#issuecomment-124255170",
  "issue_url": "https://api.github.com/repos/docker/distribution/issues/729",
  "id": 124255170,
  "user": {
    "login": "dmp42",
    "id": 332946,
    "avatar_url": "https://avatars.githubusercontent.com/u/332946?v=3",
    "gravatar_id": "",
    "url": "https://api.github.com/users/dmp42",
    "html_url": "https://github.com/dmp42",
    "followers_url": "https://api.github.com/users/dmp42/followers",
    "following_url": "https://api.github.com/users/dmp42/following{/other_user}",
    "gists_url": "https://api.github.com/users/dmp42/gists{/gist_id}",
    "starred_url": "https://api.github.com/users/dmp42/starred{/owner}{/repo}",
    "subscriptions_url": "https://api.github.com/users/dmp42/subscriptions",
    "organizations_url": "https://api.github.com/users/dmp42/orgs",
    "repos_url": "https://api.github.com/users/dmp42/repos",
    "events_url": "https://api.github.com/users/dmp42/events{/privacy}",
    "received_events_url": "https://api.github.com/users/dmp42/received_events",
    "type": "User",
    "site_admin": false
  },
  "created_at": "2015-07-23T22:27:38Z",
  "updated_at": "2015-07-23T22:27:38Z",
  "body": "LGTM"
}
]
