{
  "id": 65898,
  "name": "platform_packages_apps_googlesearch",
  "full_name": "android/platform_packages_apps_googlesearch",
  "owner": {
    "login": "android",
    "id": 30177,
    "avatar_url": "https://avatars.githubusercontent.com/u/30177?v=3",
    "gravatar_id": "",
    "url": "https://api.github.com/users/android",
    "html_url": "https://github.com/android",
    "followers_url": "https://api.github.com/users/android/followers",
    "following_url": "https://api.github.com/users/android/following{/other_user}",
    "gists_url": "https://api.github.com/users/android/gists{/gist_id}",
    "starred_url": "https://api.github.com/users/android/starred{/owner}{/repo}",
    "subscriptions_url": "https://api.github.com/users/android/subscriptions",
    "organizations_url": "https://api.github.com/users/android/orgs",
    "repos_url": "https://api.github.com/users/android/repos",
    "events_url": "https://api.github.com/users/android/events{/privacy}",
    "received_events_url": "https://api.github.com/users/android/received_events",
    "type": "Organization",
    "site_admin": false
  },
  "private": false,
  "html_url": "https://github.com/android/platform_packages_apps_googlesearch",
  "description": null,
  "fork": false,
  "url": "https://api.github.com/repos/android/platform_packages_apps_googlesearch",
  "forks_url": "https://api.github.com/repos/android/platform_packages_apps_googlesearch/forks",
  "keys_url": "https://api.github.com/repos/android/platform_packages_apps_googlesearch/keys{/key_id}",
  "collaborators_url": "https://api.github.com/repos/android/platform_packages_apps_googlesearch/collaborators{/collaborator}",
  "teams_url": "https://api.github.com/repos/android/platform_packages_apps_googlesearch/teams",
  "hooks_url": "https://api.github.com/repos/android/platform_packages_apps_googlesearch/hooks",
  "issue_events_url": "https://api.github.com/repos/android/platform_packages_apps_googlesearch/issues/events{/number}",
  "events_url": "https://api.github.com/repos/android/platform_packages_apps_googlesearch/events",
  "assignees_url": "https://api.github.com/repos/android/platform_packages_apps_googlesearch/assignees{/user}",
  "branches_url": "https://api.github.com/repos/android/platform_packages_apps_googlesearch/branches{/branch}",
  "tags_url": "https://api.github.com/repos/android/platform_packages_apps_googlesearch/tags",
  "blobs_url": "https://api.github.com/repos/android/platform_packages_apps_googlesearch/git/blobs{/sha}",
  "git_tags_url": "https://api.github.com/repos/android/platform_packages_apps_googlesearch/git/tags{/sha}",
  "git_refs_url": "https://api.github.com/repos/android/platform_packages_apps_googlesearch/git/refs{/sha}",
  "trees_url": "https://api.github.com/repos/android/platform_packages_apps_googlesearch/git/trees{/sha}",
  "statuses_url": "https://api.github.com/repos/android/platform_packages_apps_googlesearch/statuses/{sha}",
  "languages_url": "https://api.github.com/repos/android/platform_packages_apps_googlesearch/languages",
  "stargazers_url": "https://api.github.com/repos/android/platform_packages_apps_googlesearch/stargazers",
  "contributors_url": "https://api.github.com/repos/android/platform_packages_apps_googlesearch/contributors",
  "subscribers_url": "https://api.github.com/repos/android/platform_packages_apps_googlesearch/subscribers",
  "subscription_url": "https://api.github.com/repos/android/platform_packages_apps_googlesearch/subscription",
  "commits_url": "https://api.github.com/repos/android/platform_packages_apps_googlesearch/commits{/sha}",
  "git_commits_url": "https://api.github.com/repos/android/platform_packages_apps_googlesearch/git/commits{/sha}",
  "comments_url": "https://api.github.com/repos/android/platform_packages_apps_googlesearch/comments{/number}",
  "issue_comment_url": "https://api.github.com/repos/android/platform_packages_apps_googlesearch/issues/comments{/number}",
  "contents_url": "https://api.github.com/repos/android/platform_packages_apps_googlesearch/contents/{+path}",
  "compare_url": "https://api.github.com/repos/android/platform_packages_apps_googlesearch/compare/{base}...{head}",
  "merges_url": "https://api.github.com/repos/android/platform_packages_apps_googlesearch/merges",
  "archive_url": "https://api.github.com/repos/android/platform_packages_apps_googlesearch/{archive_format}{/ref}",
  "downloads_url": "https://api.github.com/repos/android/platform_packages_apps_googlesearch/downloads",
  "issues_url": "https://api.github.com/repos/android/platform_packages_apps_googlesearch/issues{/number}",
  "pulls_url": "https://api.github.com/repos/android/platform_packages_apps_googlesearch/pulls{/number}",
  "milestones_url": "https://api.github.com/repos/android/platform_packages_apps_googlesearch/milestones{/number}",
  "notifications_url": "https://api.github.com/repos/android/platform_packages_apps_googlesearch/notifications{?since,all,participating}",
  "labels_url": "https://api.github.com/repos/android/platform_packages_apps_googlesearch/labels{/name}",
  "releases_url": "https://api.github.com/repos/android/platform_packages_apps_googlesearch/releases{/id}",
  "deployments_url": "https://api.github.com/repos/android/platform_packages_apps_googlesearch/deployments",
  "created_at": "2008-10-21T18:20:48Z",
  "updated_at": "2015-08-24T22:59:44Z",
  "pushed_at": "2012-07-22T23:16:27Z",
  "git_url": "git://github.com/android/platform_packages_apps_googlesearch.git",
  "ssh_url": "git@github.com:android/platform_packages_apps_googlesearch.git",
  "clone_url": "https://github.com/android/platform_packages_apps_googlesearch.git",
  "svn_url": "https://github.com/android/platform_packages_apps_googlesearch",
  "homepage": null,
  "size": 293,
  "stargazers_count": 20,
  "watchers_count": 20,
  "language": "Java",
  "has_issues": false,
  "has_downloads": true,
  "has_wiki": true,
  "has_pages": false,
  "forks_count": 23,
  "mirror_url": "https://android.googlesource.com/platform/packages/apps/GoogleSearch.git",
  "open_issues_count": 0,
  "forks": 23,
  "open_issues": 0,
  "watchers": 20,
  "default_branch": "master",
  "master_branch": "master",
  "permissions": {
    "admin": false,
    "push": false,
    "pull": true
  },
  "license": null,
  "organization": {
    "login": "android",
    "id": 30177,
    "avatar_url": "https://avatars.githubusercontent.com/u/30177?v=3",
    "gravatar_id": "",
    "url": "https://api.github.com/users/android",
    "html_url": "https://github.com/android",
    "followers_url": "https://api.github.com/users/android/followers",
    "following_url": "https://api.github.com/users/android/following{/other_user}",
    "gists_url": "https://api.github.com/users/android/gists{/gist_id}",
    "starred_url": "https://api.github.com/users/android/starred{/owner}{/repo}",
    "subscriptions_url": "https://api.github.com/users/android/subscriptions",
    "organizations_url": "https://api.github.com/users/android/orgs",
    "repos_url": "https://api.github.com/users/android/repos",
    "events_url": "https://api.github.com/users/android/events{/privacy}",
    "received_events_url": "https://api.github.com/users/android/received_events",
    "type": "Organization",
    "site_admin": false
  },
  "network_count": 23,
  "subscribers_count": 4
}
