[
{
  "url": "https://api.github.com/repos/owncloud/calendar/issues/comments/54790681",
  "html_url": "https://github.com/owncloud/calendar/issues/551#issuecomment-54790681",
  "issue_url": "https://api.github.com/repos/owncloud/calendar/issues/551",
  "id": 54790681,
  "user": {
    "login": "georgehrke",
    "id": 1250540,
    "avatar_url": "https://avatars.githubusercontent.com/u/1250540?v=3",
    "gravatar_id": "",
    "url": "https://api.github.com/users/georgehrke",
    "html_url": "https://github.com/georgehrke",
    "followers_url": "https://api.github.com/users/georgehrke/followers",
    "following_url": "https://api.github.com/users/georgehrke/following{/other_user}",
    "gists_url": "https://api.github.com/users/georgehrke/gists{/gist_id}",
    "starred_url": "https://api.github.com/users/georgehrke/starred{/owner}{/repo}",
    "subscriptions_url": "https://api.github.com/users/georgehrke/subscriptions",
    "organizations_url": "https://api.github.com/users/georgehrke/orgs",
    "repos_url": "https://api.github.com/users/georgehrke/repos",
    "events_url": "https://api.github.com/users/georgehrke/events{/privacy}",
    "received_events_url": "https://api.github.com/users/georgehrke/received_events",
    "type": "User",
    "site_admin": false
  },
  "created_at": "2014-09-08T08:44:00Z",
  "updated_at": "2014-09-08T08:44:00Z",
  "body": "already fixed with https://github.com/owncloud/calendar/commit/ca006528552054a5a9f39ca7909e87f4aedd1f5d"
}
]
