[
{
  "url": "https://api.github.com/repos/twitter/chill/issues/comments/56439466",
  "html_url": "https://github.com/twitter/chill/issues/199#issuecomment-56439466",
  "issue_url": "https://api.github.com/repos/twitter/chill/issues/199",
  "id": 56439466,
  "user": {
    "login": "johnynek",
    "id": 67958,
    "avatar_url": "https://avatars.githubusercontent.com/u/67958?v=3",
    "gravatar_id": "",
    "url": "https://api.github.com/users/johnynek",
    "html_url": "https://github.com/johnynek",
    "followers_url": "https://api.github.com/users/johnynek/followers",
    "following_url": "https://api.github.com/users/johnynek/following{/other_user}",
    "gists_url": "https://api.github.com/users/johnynek/gists{/gist_id}",
    "starred_url": "https://api.github.com/users/johnynek/starred{/owner}{/repo}",
    "subscriptions_url": "https://api.github.com/users/johnynek/subscriptions",
    "organizations_url": "https://api.github.com/users/johnynek/orgs",
    "repos_url": "https://api.github.com/users/johnynek/repos",
    "events_url": "https://api.github.com/users/johnynek/events{/privacy}",
    "received_events_url": "https://api.github.com/users/johnynek/received_events",
    "type": "User",
    "site_admin": false
  },
  "created_at": "2014-09-22T20:40:49Z",
  "updated_at": "2014-09-22T20:40:49Z",
  "body": "Yes. It should not use a Manifest at all. A ClassManifest would have been okay, and that you can make from Java. Also, we can add a test to use it from Java.\r\n\r\nLooks like this also needs a change in bijection.\r\n\r\n@MansurAshraf and time to take a look?"
}
, {
  "url": "https://api.github.com/repos/twitter/chill/issues/comments/56456047",
  "html_url": "https://github.com/twitter/chill/issues/199#issuecomment-56456047",
  "issue_url": "https://api.github.com/repos/twitter/chill/issues/199",
  "id": 56456047,
  "user": {
    "login": "MansurAshraf",
    "id": 535144,
    "avatar_url": "https://avatars.githubusercontent.com/u/535144?v=3",
    "gravatar_id": "",
    "url": "https://api.github.com/users/MansurAshraf",
    "html_url": "https://github.com/MansurAshraf",
    "followers_url": "https://api.github.com/users/MansurAshraf/followers",
    "following_url": "https://api.github.com/users/MansurAshraf/following{/other_user}",
    "gists_url": "https://api.github.com/users/MansurAshraf/gists{/gist_id}",
    "starred_url": "https://api.github.com/users/MansurAshraf/starred{/owner}{/repo}",
    "subscriptions_url": "https://api.github.com/users/MansurAshraf/subscriptions",
    "organizations_url": "https://api.github.com/users/MansurAshraf/orgs",
    "repos_url": "https://api.github.com/users/MansurAshraf/repos",
    "events_url": "https://api.github.com/users/MansurAshraf/events{/privacy}",
    "received_events_url": "https://api.github.com/users/MansurAshraf/received_events",
    "type": "User",
    "site_admin": false
  },
  "created_at": "2014-09-22T22:54:57Z",
  "updated_at": "2014-09-22T23:12:56Z",
  "body": "I will take care of this hopefully this week"
}
, {
  "url": "https://api.github.com/repos/twitter/chill/issues/comments/57003980",
  "html_url": "https://github.com/twitter/chill/issues/199#issuecomment-57003980",
  "issue_url": "https://api.github.com/repos/twitter/chill/issues/199",
  "id": 57003980,
  "user": {
    "login": "MansurAshraf",
    "id": 535144,
    "avatar_url": "https://avatars.githubusercontent.com/u/535144?v=3",
    "gravatar_id": "",
    "url": "https://api.github.com/users/MansurAshraf",
    "html_url": "https://github.com/MansurAshraf",
    "followers_url": "https://api.github.com/users/MansurAshraf/followers",
    "following_url": "https://api.github.com/users/MansurAshraf/following{/other_user}",
    "gists_url": "https://api.github.com/users/MansurAshraf/gists{/gist_id}",
    "starred_url": "https://api.github.com/users/MansurAshraf/starred{/owner}{/repo}",
    "subscriptions_url": "https://api.github.com/users/MansurAshraf/subscriptions",
    "organizations_url": "https://api.github.com/users/MansurAshraf/orgs",
    "repos_url": "https://api.github.com/users/MansurAshraf/repos",
    "events_url": "https://api.github.com/users/MansurAshraf/events{/privacy}",
    "received_events_url": "https://api.github.com/users/MansurAshraf/received_events",
    "type": "User",
    "site_admin": false
  },
  "created_at": "2014-09-26T18:46:04Z",
  "updated_at": "2014-09-26T18:46:04Z",
  "body": "@mohangadm I have fixed the issue you raised, please verify it"
}
, {
  "url": "https://api.github.com/repos/twitter/chill/issues/comments/57141175",
  "html_url": "https://github.com/twitter/chill/issues/199#issuecomment-57141175",
  "issue_url": "https://api.github.com/repos/twitter/chill/issues/199",
  "id": 57141175,
  "user": {
    "login": "mohangadm",
    "id": 8579482,
    "avatar_url": "https://avatars.githubusercontent.com/u/8579482?v=3",
    "gravatar_id": "",
    "url": "https://api.github.com/users/mohangadm",
    "html_url": "https://github.com/mohangadm",
    "followers_url": "https://api.github.com/users/mohangadm/followers",
    "following_url": "https://api.github.com/users/mohangadm/following{/other_user}",
    "gists_url": "https://api.github.com/users/mohangadm/gists{/gist_id}",
    "starred_url": "https://api.github.com/users/mohangadm/starred{/owner}{/repo}",
    "subscriptions_url": "https://api.github.com/users/mohangadm/subscriptions",
    "organizations_url": "https://api.github.com/users/mohangadm/orgs",
    "repos_url": "https://api.github.com/users/mohangadm/repos",
    "events_url": "https://api.github.com/users/mohangadm/events{/privacy}",
    "received_events_url": "https://api.github.com/users/mohangadm/received_events",
    "type": "User",
    "site_admin": false
  },
  "created_at": "2014-09-29T10:14:26Z",
  "updated_at": "2014-09-29T10:14:26Z",
  "body": "thanks for the fix mansur, works well. but it needs a  scala library to be included in java api to pass ClassTag. It would be much more flexible if the method directly takes Class instead ClassTag"
}
, {
  "url": "https://api.github.com/repos/twitter/chill/issues/comments/57194697",
  "html_url": "https://github.com/twitter/chill/issues/199#issuecomment-57194697",
  "issue_url": "https://api.github.com/repos/twitter/chill/issues/199",
  "id": 57194697,
  "user": {
    "login": "MansurAshraf",
    "id": 535144,
    "avatar_url": "https://avatars.githubusercontent.com/u/535144?v=3",
    "gravatar_id": "",
    "url": "https://api.github.com/users/MansurAshraf",
    "html_url": "https://github.com/MansurAshraf",
    "followers_url": "https://api.github.com/users/MansurAshraf/followers",
    "following_url": "https://api.github.com/users/MansurAshraf/following{/other_user}",
    "gists_url": "https://api.github.com/users/MansurAshraf/gists{/gist_id}",
    "starred_url": "https://api.github.com/users/MansurAshraf/starred{/owner}{/repo}",
    "subscriptions_url": "https://api.github.com/users/MansurAshraf/subscriptions",
    "organizations_url": "https://api.github.com/users/MansurAshraf/orgs",
    "repos_url": "https://api.github.com/users/MansurAshraf/repos",
    "events_url": "https://api.github.com/users/MansurAshraf/events{/privacy}",
    "received_events_url": "https://api.github.com/users/MansurAshraf/received_events",
    "type": "User",
    "site_admin": false
  },
  "created_at": "2014-09-29T17:13:40Z",
  "updated_at": "2014-09-29T17:13:40Z",
  "body": "@mohangadm I am not sure if it is possible to completely remove scala dependency as Chill is a Scala wrapper over Kryo. If you want a pure Java version then maybe use Kryo directly? \r\n\r\nI will copy @johnynek and see if he has a better solution"
}
, {
  "url": "https://api.github.com/repos/twitter/chill/issues/comments/57213409",
  "html_url": "https://github.com/twitter/chill/issues/199#issuecomment-57213409",
  "issue_url": "https://api.github.com/repos/twitter/chill/issues/199",
  "id": 57213409,
  "user": {
    "login": "ianoc",
    "id": 446652,
    "avatar_url": "https://avatars.githubusercontent.com/u/446652?v=3",
    "gravatar_id": "",
    "url": "https://api.github.com/users/ianoc",
    "html_url": "https://github.com/ianoc",
    "followers_url": "https://api.github.com/users/ianoc/followers",
    "following_url": "https://api.github.com/users/ianoc/following{/other_user}",
    "gists_url": "https://api.github.com/users/ianoc/gists{/gist_id}",
    "starred_url": "https://api.github.com/users/ianoc/starred{/owner}{/repo}",
    "subscriptions_url": "https://api.github.com/users/ianoc/subscriptions",
    "organizations_url": "https://api.github.com/users/ianoc/orgs",
    "repos_url": "https://api.github.com/users/ianoc/repos",
    "events_url": "https://api.github.com/users/ianoc/events{/privacy}",
    "received_events_url": "https://api.github.com/users/ianoc/received_events",
    "type": "User",
    "site_admin": false
  },
  "created_at": "2014-09-29T19:18:01Z",
  "updated_at": "2014-09-29T19:18:01Z",
  "body": "Chill-avro gets its serializers from bijection, which is a scala library. So there isn't really any way to separate it from scala.\r\n\r\nAn interface could be added to make calling from java easier that takes a Class[_], then \r\nhttp://www.scala-lang.org/files/archive/nightly/docs/library/index.html#scala.reflect.ClassTag$\r\nCan be used to create a class tag from that and call the main one. Don't think its required in the lib/this PR but we would accept a PR from someone if they wanted to add it...\r\n"
}
, {
  "url": "https://api.github.com/repos/twitter/chill/issues/comments/57230419",
  "html_url": "https://github.com/twitter/chill/issues/199#issuecomment-57230419",
  "issue_url": "https://api.github.com/repos/twitter/chill/issues/199",
  "id": 57230419,
  "user": {
    "login": "johnynek",
    "id": 67958,
    "avatar_url": "https://avatars.githubusercontent.com/u/67958?v=3",
    "gravatar_id": "",
    "url": "https://api.github.com/users/johnynek",
    "html_url": "https://github.com/johnynek",
    "followers_url": "https://api.github.com/users/johnynek/followers",
    "following_url": "https://api.github.com/users/johnynek/following{/other_user}",
    "gists_url": "https://api.github.com/users/johnynek/gists{/gist_id}",
    "starred_url": "https://api.github.com/users/johnynek/starred{/owner}{/repo}",
    "subscriptions_url": "https://api.github.com/users/johnynek/subscriptions",
    "organizations_url": "https://api.github.com/users/johnynek/orgs",
    "repos_url": "https://api.github.com/users/johnynek/repos",
    "events_url": "https://api.github.com/users/johnynek/events{/privacy}",
    "received_events_url": "https://api.github.com/users/johnynek/received_events",
    "type": "User",
    "site_admin": false
  },
  "created_at": "2014-09-29T21:09:36Z",
  "updated_at": "2014-09-29T21:09:36Z",
  "body": "+1 to what @ianoc said. If we relax to ClassTag, which I think we can, a java Class should be enough. We can make sure we expose a Java friendly version using that, I think."
}
]
