[
{
  "login": "anothem",
  "id": 237122,
  "avatar_url": "https://avatars.githubusercontent.com/u/237122?v=3",
  "gravatar_id": "",
  "url": "https://api.github.com/users/anothem",
  "html_url": "https://github.com/anothem",
  "followers_url": "https://api.github.com/users/anothem/followers",
  "following_url": "https://api.github.com/users/anothem/following{/other_user}",
  "gists_url": "https://api.github.com/users/anothem/gists{/gist_id}",
  "starred_url": "https://api.github.com/users/anothem/starred{/owner}{/repo}",
  "subscriptions_url": "https://api.github.com/users/anothem/subscriptions",
  "organizations_url": "https://api.github.com/users/anothem/orgs",
  "repos_url": "https://api.github.com/users/anothem/repos",
  "events_url": "https://api.github.com/users/anothem/events{/privacy}",
  "received_events_url": "https://api.github.com/users/anothem/received_events",
  "type": "User",
  "site_admin": false,
  "contributions": 26
}
, {
  "login": "niedzielski",
  "id": 1071806,
  "avatar_url": "https://avatars.githubusercontent.com/u/1071806?v=3",
  "gravatar_id": "",
  "url": "https://api.github.com/users/niedzielski",
  "html_url": "https://github.com/niedzielski",
  "followers_url": "https://api.github.com/users/niedzielski/followers",
  "following_url": "https://api.github.com/users/niedzielski/following{/other_user}",
  "gists_url": "https://api.github.com/users/niedzielski/gists{/gist_id}",
  "starred_url": "https://api.github.com/users/niedzielski/starred{/owner}{/repo}",
  "subscriptions_url": "https://api.github.com/users/niedzielski/subscriptions",
  "organizations_url": "https://api.github.com/users/niedzielski/orgs",
  "repos_url": "https://api.github.com/users/niedzielski/repos",
  "events_url": "https://api.github.com/users/niedzielski/events{/privacy}",
  "received_events_url": "https://api.github.com/users/niedzielski/received_events",
  "type": "User",
  "site_admin": false,
  "contributions": 1
}
]
