[
{
  "url": "https://api.github.com/repos/mapbox/tilemill/issues/comments/2781325",
  "html_url": "https://github.com/mapbox/tilemill/issues/802#issuecomment-2781325",
  "issue_url": "https://api.github.com/repos/mapbox/tilemill/issues/802",
  "id": 2781325,
  "user": {
    "login": "springmeyer",
    "id": 20300,
    "avatar_url": "https://avatars.githubusercontent.com/u/20300?v=3",
    "gravatar_id": "",
    "url": "https://api.github.com/users/springmeyer",
    "html_url": "https://github.com/springmeyer",
    "followers_url": "https://api.github.com/users/springmeyer/followers",
    "following_url": "https://api.github.com/users/springmeyer/following{/other_user}",
    "gists_url": "https://api.github.com/users/springmeyer/gists{/gist_id}",
    "starred_url": "https://api.github.com/users/springmeyer/starred{/owner}{/repo}",
    "subscriptions_url": "https://api.github.com/users/springmeyer/subscriptions",
    "organizations_url": "https://api.github.com/users/springmeyer/orgs",
    "repos_url": "https://api.github.com/users/springmeyer/repos",
    "events_url": "https://api.github.com/users/springmeyer/events{/privacy}",
    "received_events_url": "https://api.github.com/users/springmeyer/received_events",
    "type": "User",
    "site_admin": false
  },
  "created_at": "2011-11-17T20:20:16Z",
  "updated_at": "2011-11-17T20:20:16Z",
  "body": "pushing forward, not critical for 0.7.0 release."
}
, {
  "url": "https://api.github.com/repos/mapbox/tilemill/issues/comments/6462519",
  "html_url": "https://github.com/mapbox/tilemill/issues/802#issuecomment-6462519",
  "issue_url": "https://api.github.com/repos/mapbox/tilemill/issues/802",
  "id": 6462519,
  "user": {
    "login": "springmeyer",
    "id": 20300,
    "avatar_url": "https://avatars.githubusercontent.com/u/20300?v=3",
    "gravatar_id": "",
    "url": "https://api.github.com/users/springmeyer",
    "html_url": "https://github.com/springmeyer",
    "followers_url": "https://api.github.com/users/springmeyer/followers",
    "following_url": "https://api.github.com/users/springmeyer/following{/other_user}",
    "gists_url": "https://api.github.com/users/springmeyer/gists{/gist_id}",
    "starred_url": "https://api.github.com/users/springmeyer/starred{/owner}{/repo}",
    "subscriptions_url": "https://api.github.com/users/springmeyer/subscriptions",
    "organizations_url": "https://api.github.com/users/springmeyer/orgs",
    "repos_url": "https://api.github.com/users/springmeyer/repos",
    "events_url": "https://api.github.com/users/springmeyer/events{/privacy}",
    "received_events_url": "https://api.github.com/users/springmeyer/received_events",
    "type": "User",
    "site_admin": false
  },
  "created_at": "2012-06-20T18:11:03Z",
  "updated_at": "2012-06-20T18:11:03Z",
  "body": "no longer relevant - mapnik no reports just the basic types: `point,linestring,polygon,collection'. closing."
}
]
