[
{
  "url": "https://api.github.com/repos/mapbox/tilemill/issues/comments/1082307",
  "html_url": "https://github.com/mapbox/tilemill/issues/319#issuecomment-1082307",
  "issue_url": "https://api.github.com/repos/mapbox/tilemill/issues/319",
  "id": 1082307,
  "user": {
    "login": "tmcw",
    "id": 32314,
    "avatar_url": "https://avatars.githubusercontent.com/u/32314?v=3",
    "gravatar_id": "",
    "url": "https://api.github.com/users/tmcw",
    "html_url": "https://github.com/tmcw",
    "followers_url": "https://api.github.com/users/tmcw/followers",
    "following_url": "https://api.github.com/users/tmcw/following{/other_user}",
    "gists_url": "https://api.github.com/users/tmcw/gists{/gist_id}",
    "starred_url": "https://api.github.com/users/tmcw/starred{/owner}{/repo}",
    "subscriptions_url": "https://api.github.com/users/tmcw/subscriptions",
    "organizations_url": "https://api.github.com/users/tmcw/orgs",
    "repos_url": "https://api.github.com/users/tmcw/repos",
    "events_url": "https://api.github.com/users/tmcw/events{/privacy}",
    "received_events_url": "https://api.github.com/users/tmcw/received_events",
    "type": "User",
    "site_admin": false
  },
  "created_at": "2011-05-01T02:38:07Z",
  "updated_at": "2011-05-01T02:38:07Z",
  "body": "The upgrade will break TileMill, but I doubt it doesn't run on 11.04. \n\nYou'll need to rebuild the modules that are compiled against libicu44:\n\n    rm -rf modules/node-mapnik\n    ./ndistro\n\nAnd you'll possibly need to recompile mapnik itself."
}
, {
  "url": "https://api.github.com/repos/mapbox/tilemill/issues/comments/1083332",
  "html_url": "https://github.com/mapbox/tilemill/issues/319#issuecomment-1083332",
  "issue_url": "https://api.github.com/repos/mapbox/tilemill/issues/319",
  "id": 1083332,
  "user": {
    "login": "olafveerman",
    "id": 751330,
    "avatar_url": "https://avatars.githubusercontent.com/u/751330?v=3",
    "gravatar_id": "",
    "url": "https://api.github.com/users/olafveerman",
    "html_url": "https://github.com/olafveerman",
    "followers_url": "https://api.github.com/users/olafveerman/followers",
    "following_url": "https://api.github.com/users/olafveerman/following{/other_user}",
    "gists_url": "https://api.github.com/users/olafveerman/gists{/gist_id}",
    "starred_url": "https://api.github.com/users/olafveerman/starred{/owner}{/repo}",
    "subscriptions_url": "https://api.github.com/users/olafveerman/subscriptions",
    "organizations_url": "https://api.github.com/users/olafveerman/orgs",
    "repos_url": "https://api.github.com/users/olafveerman/repos",
    "events_url": "https://api.github.com/users/olafveerman/events{/privacy}",
    "received_events_url": "https://api.github.com/users/olafveerman/received_events",
    "type": "User",
    "site_admin": false
  },
  "created_at": "2011-05-01T14:37:19Z",
  "updated_at": "2011-05-01T14:37:19Z",
  "body": "Thanks for the quick reply. You were right that Mapnik also needed to be recompiled.\n\nTilemill seems to be running without any issue now, though at startup I get the message:\n\n```\nDEBUG: tilelive.js: node-get not found.\nStarted TileMill on port 8889.\n```"
}
, {
  "url": "https://api.github.com/repos/mapbox/tilemill/issues/comments/1083458",
  "html_url": "https://github.com/mapbox/tilemill/issues/319#issuecomment-1083458",
  "issue_url": "https://api.github.com/repos/mapbox/tilemill/issues/319",
  "id": 1083458,
  "user": {
    "login": "tmcw",
    "id": 32314,
    "avatar_url": "https://avatars.githubusercontent.com/u/32314?v=3",
    "gravatar_id": "",
    "url": "https://api.github.com/users/tmcw",
    "html_url": "https://github.com/tmcw",
    "followers_url": "https://api.github.com/users/tmcw/followers",
    "following_url": "https://api.github.com/users/tmcw/following{/other_user}",
    "gists_url": "https://api.github.com/users/tmcw/gists{/gist_id}",
    "starred_url": "https://api.github.com/users/tmcw/starred{/owner}{/repo}",
    "subscriptions_url": "https://api.github.com/users/tmcw/subscriptions",
    "organizations_url": "https://api.github.com/users/tmcw/orgs",
    "repos_url": "https://api.github.com/users/tmcw/repos",
    "events_url": "https://api.github.com/users/tmcw/events{/privacy}",
    "received_events_url": "https://api.github.com/users/tmcw/received_events",
    "type": "User",
    "site_admin": false
  },
  "created_at": "2011-05-01T15:32:43Z",
  "updated_at": "2011-05-01T15:32:43Z",
  "body": "Ah, you're running TileMill head? node-get is now get.\n\n    rm -rf modules/tilelive modules/node-get\n    ./ndistro"
}
, {
  "url": "https://api.github.com/repos/mapbox/tilemill/issues/comments/1085064",
  "html_url": "https://github.com/mapbox/tilemill/issues/319#issuecomment-1085064",
  "issue_url": "https://api.github.com/repos/mapbox/tilemill/issues/319",
  "id": 1085064,
  "user": {
    "login": "olafveerman",
    "id": 751330,
    "avatar_url": "https://avatars.githubusercontent.com/u/751330?v=3",
    "gravatar_id": "",
    "url": "https://api.github.com/users/olafveerman",
    "html_url": "https://github.com/olafveerman",
    "followers_url": "https://api.github.com/users/olafveerman/followers",
    "following_url": "https://api.github.com/users/olafveerman/following{/other_user}",
    "gists_url": "https://api.github.com/users/olafveerman/gists{/gist_id}",
    "starred_url": "https://api.github.com/users/olafveerman/starred{/owner}{/repo}",
    "subscriptions_url": "https://api.github.com/users/olafveerman/subscriptions",
    "organizations_url": "https://api.github.com/users/olafveerman/orgs",
    "repos_url": "https://api.github.com/users/olafveerman/repos",
    "events_url": "https://api.github.com/users/olafveerman/events{/privacy}",
    "received_events_url": "https://api.github.com/users/olafveerman/received_events",
    "type": "User",
    "site_admin": false
  },
  "created_at": "2011-05-01T21:52:03Z",
  "updated_at": "2011-05-01T21:52:03Z",
  "body": "Ah yes, forgot to mention I'm running head. Wanted to play a bit with the interactivity, which is pretty neat btw.\n\nI removed node-get & tilelive and rebuilt TM, but I still get the same message."
}
, {
  "url": "https://api.github.com/repos/mapbox/tilemill/issues/comments/1087954",
  "html_url": "https://github.com/mapbox/tilemill/issues/319#issuecomment-1087954",
  "issue_url": "https://api.github.com/repos/mapbox/tilemill/issues/319",
  "id": 1087954,
  "user": {
    "login": "tmcw",
    "id": 32314,
    "avatar_url": "https://avatars.githubusercontent.com/u/32314?v=3",
    "gravatar_id": "",
    "url": "https://api.github.com/users/tmcw",
    "html_url": "https://github.com/tmcw",
    "followers_url": "https://api.github.com/users/tmcw/followers",
    "following_url": "https://api.github.com/users/tmcw/following{/other_user}",
    "gists_url": "https://api.github.com/users/tmcw/gists{/gist_id}",
    "starred_url": "https://api.github.com/users/tmcw/starred{/owner}{/repo}",
    "subscriptions_url": "https://api.github.com/users/tmcw/subscriptions",
    "organizations_url": "https://api.github.com/users/tmcw/orgs",
    "repos_url": "https://api.github.com/users/tmcw/repos",
    "events_url": "https://api.github.com/users/tmcw/events{/privacy}",
    "received_events_url": "https://api.github.com/users/tmcw/received_events",
    "type": "User",
    "site_admin": false
  },
  "created_at": "2011-05-02T13:38:07Z",
  "updated_at": "2011-05-02T13:38:07Z",
  "body": "Ah, my bad.\n\n    rm -rf modules/carto\n    ./ndistro"
}
, {
  "url": "https://api.github.com/repos/mapbox/tilemill/issues/comments/1088766",
  "html_url": "https://github.com/mapbox/tilemill/issues/319#issuecomment-1088766",
  "issue_url": "https://api.github.com/repos/mapbox/tilemill/issues/319",
  "id": 1088766,
  "user": {
    "login": "olafveerman",
    "id": 751330,
    "avatar_url": "https://avatars.githubusercontent.com/u/751330?v=3",
    "gravatar_id": "",
    "url": "https://api.github.com/users/olafveerman",
    "html_url": "https://github.com/olafveerman",
    "followers_url": "https://api.github.com/users/olafveerman/followers",
    "following_url": "https://api.github.com/users/olafveerman/following{/other_user}",
    "gists_url": "https://api.github.com/users/olafveerman/gists{/gist_id}",
    "starred_url": "https://api.github.com/users/olafveerman/starred{/owner}{/repo}",
    "subscriptions_url": "https://api.github.com/users/olafveerman/subscriptions",
    "organizations_url": "https://api.github.com/users/olafveerman/orgs",
    "repos_url": "https://api.github.com/users/olafveerman/repos",
    "events_url": "https://api.github.com/users/olafveerman/events{/privacy}",
    "received_events_url": "https://api.github.com/users/olafveerman/received_events",
    "type": "User",
    "site_admin": false
  },
  "created_at": "2011-05-02T16:43:38Z",
  "updated_at": "2011-05-02T16:43:38Z",
  "body": "Not that I'm running into any issues with Tilemill, but removing Carto also didn't make the debug message disappear."
}
, {
  "url": "https://api.github.com/repos/mapbox/tilemill/issues/comments/1097687",
  "html_url": "https://github.com/mapbox/tilemill/issues/319#issuecomment-1097687",
  "issue_url": "https://api.github.com/repos/mapbox/tilemill/issues/319",
  "id": 1097687,
  "user": {
    "login": "olafveerman",
    "id": 751330,
    "avatar_url": "https://avatars.githubusercontent.com/u/751330?v=3",
    "gravatar_id": "",
    "url": "https://api.github.com/users/olafveerman",
    "html_url": "https://github.com/olafveerman",
    "followers_url": "https://api.github.com/users/olafveerman/followers",
    "following_url": "https://api.github.com/users/olafveerman/following{/other_user}",
    "gists_url": "https://api.github.com/users/olafveerman/gists{/gist_id}",
    "starred_url": "https://api.github.com/users/olafveerman/starred{/owner}{/repo}",
    "subscriptions_url": "https://api.github.com/users/olafveerman/subscriptions",
    "organizations_url": "https://api.github.com/users/olafveerman/orgs",
    "repos_url": "https://api.github.com/users/olafveerman/repos",
    "events_url": "https://api.github.com/users/olafveerman/events{/privacy}",
    "received_events_url": "https://api.github.com/users/olafveerman/received_events",
    "type": "User",
    "site_admin": false
  },
  "created_at": "2011-05-04T02:38:09Z",
  "updated_at": "2011-05-04T02:38:09Z",
  "body": "Updated to latest GIT and cleaned and rebuilt Tilemill. The error message is gone."
}
, {
  "url": "https://api.github.com/repos/mapbox/tilemill/issues/comments/1113686",
  "html_url": "https://github.com/mapbox/tilemill/issues/319#issuecomment-1113686",
  "issue_url": "https://api.github.com/repos/mapbox/tilemill/issues/319",
  "id": 1113686,
  "user": {
    "login": "jones139",
    "id": 309603,
    "avatar_url": "https://avatars.githubusercontent.com/u/309603?v=3",
    "gravatar_id": "",
    "url": "https://api.github.com/users/jones139",
    "html_url": "https://github.com/jones139",
    "followers_url": "https://api.github.com/users/jones139/followers",
    "following_url": "https://api.github.com/users/jones139/following{/other_user}",
    "gists_url": "https://api.github.com/users/jones139/gists{/gist_id}",
    "starred_url": "https://api.github.com/users/jones139/starred{/owner}{/repo}",
    "subscriptions_url": "https://api.github.com/users/jones139/subscriptions",
    "organizations_url": "https://api.github.com/users/jones139/orgs",
    "repos_url": "https://api.github.com/users/jones139/repos",
    "events_url": "https://api.github.com/users/jones139/events{/privacy}",
    "received_events_url": "https://api.github.com/users/jones139/received_events",
    "type": "User",
    "site_admin": false
  },
  "created_at": "2011-05-06T21:21:10Z",
  "updated_at": "2011-05-06T21:21:10Z",
  "body": "It is probably worth adding that you have to re-compile both the mapnik library iteslf and the node-mapnik module in tilecache - I missed that to start with!"
}
]
