[
{
  "url": "https://api.github.com/repos/mapbox/tilemill/issues/comments/32666120",
  "html_url": "https://github.com/mapbox/tilemill/issues/1589#issuecomment-32666120",
  "issue_url": "https://api.github.com/repos/mapbox/tilemill/issues/1589",
  "id": 32666120,
  "user": {
    "login": "cperryk",
    "id": 1660273,
    "avatar_url": "https://avatars.githubusercontent.com/u/1660273?v=3",
    "gravatar_id": "",
    "url": "https://api.github.com/users/cperryk",
    "html_url": "https://github.com/cperryk",
    "followers_url": "https://api.github.com/users/cperryk/followers",
    "following_url": "https://api.github.com/users/cperryk/following{/other_user}",
    "gists_url": "https://api.github.com/users/cperryk/gists{/gist_id}",
    "starred_url": "https://api.github.com/users/cperryk/starred{/owner}{/repo}",
    "subscriptions_url": "https://api.github.com/users/cperryk/subscriptions",
    "organizations_url": "https://api.github.com/users/cperryk/orgs",
    "repos_url": "https://api.github.com/users/cperryk/repos",
    "events_url": "https://api.github.com/users/cperryk/events{/privacy}",
    "received_events_url": "https://api.github.com/users/cperryk/received_events",
    "type": "User",
    "site_admin": false
  },
  "created_at": "2014-01-18T00:06:25Z",
  "updated_at": "2014-01-18T00:06:25Z",
  "body": "This would be great."
}
]
