[
{
  "url": "https://api.github.com/repos/mapbox/tilemill/issues/comments/673449",
  "html_url": "https://github.com/mapbox/tilemill/issues/86#issuecomment-673449",
  "issue_url": "https://api.github.com/repos/mapbox/tilemill/issues/86",
  "id": 673449,
  "user": {
    "login": "AdrianRossouw",
    "id": 115108,
    "avatar_url": "https://avatars.githubusercontent.com/u/115108?v=3",
    "gravatar_id": "",
    "url": "https://api.github.com/users/AdrianRossouw",
    "html_url": "https://github.com/AdrianRossouw",
    "followers_url": "https://api.github.com/users/AdrianRossouw/followers",
    "following_url": "https://api.github.com/users/AdrianRossouw/following{/other_user}",
    "gists_url": "https://api.github.com/users/AdrianRossouw/gists{/gist_id}",
    "starred_url": "https://api.github.com/users/AdrianRossouw/starred{/owner}{/repo}",
    "subscriptions_url": "https://api.github.com/users/AdrianRossouw/subscriptions",
    "organizations_url": "https://api.github.com/users/AdrianRossouw/orgs",
    "repos_url": "https://api.github.com/users/AdrianRossouw/repos",
    "events_url": "https://api.github.com/users/AdrianRossouw/events{/privacy}",
    "received_events_url": "https://api.github.com/users/AdrianRossouw/received_events",
    "type": "User",
    "site_admin": false
  },
  "created_at": "2011-01-12T23:31:36Z",
  "updated_at": "2011-01-12T23:31:36Z",
  "body": "This seems to happen in the mess renderer, when it attempts to iterate through layers of an object that doesnt have a layers property.\r\n\r\nThe code in question is :\r\n\r\n    m.Layer.forEach(function(l) {\r\n        if (l.Datasource.file) {\r\n            that.grab(l.Datasource.file, group());\r\n        }\r\n    });\r\n\r\nFrom what I have learnt, it seems to be recommended to use the Array.forEach style, like this :\r\n\r\n    Array.forEach(m.Layer, function(l) { // snip\r\n\r\nWhich would also allow us to default to an empty array like so :\r\n\r\n    Array.forEach(m.Layer || [], function(l) { // snip\r\n\r\nRunning this past Tom, he also pointed out that it may be more applicable to wrap the loop in a try/catch block, because a map without any layers should not be possible.\r\n\r\nIf I could reproduce the error i could track down why these properties are not being initialized properly, but i dont seem to be able to reproduce the error at all with the latest codebase."
}
, {
  "url": "https://api.github.com/repos/mapbox/tilemill/issues/comments/675812",
  "html_url": "https://github.com/mapbox/tilemill/issues/86#issuecomment-675812",
  "issue_url": "https://api.github.com/repos/mapbox/tilemill/issues/86",
  "id": 675812,
  "user": {
    "login": "tmcw",
    "id": 32314,
    "avatar_url": "https://avatars.githubusercontent.com/u/32314?v=3",
    "gravatar_id": "",
    "url": "https://api.github.com/users/tmcw",
    "html_url": "https://github.com/tmcw",
    "followers_url": "https://api.github.com/users/tmcw/followers",
    "following_url": "https://api.github.com/users/tmcw/following{/other_user}",
    "gists_url": "https://api.github.com/users/tmcw/gists{/gist_id}",
    "starred_url": "https://api.github.com/users/tmcw/starred{/owner}{/repo}",
    "subscriptions_url": "https://api.github.com/users/tmcw/subscriptions",
    "organizations_url": "https://api.github.com/users/tmcw/orgs",
    "repos_url": "https://api.github.com/users/tmcw/repos",
    "events_url": "https://api.github.com/users/tmcw/events{/privacy}",
    "received_events_url": "https://api.github.com/users/tmcw/received_events",
    "type": "User",
    "site_admin": false
  },
  "created_at": "2011-01-13T20:24:06Z",
  "updated_at": "2011-01-13T20:24:06Z",
  "body": "Maps without layers are an edge condition handled by this change: tmcw/mess.js@8d841e3c5b3a7aa64069e6e0a94aa47e1f5e3d4c . However, I think that this error is a little different, so keeping this open for a bit."
}
, {
  "url": "https://api.github.com/repos/mapbox/tilemill/issues/comments/707242",
  "html_url": "https://github.com/mapbox/tilemill/issues/86#issuecomment-707242",
  "issue_url": "https://api.github.com/repos/mapbox/tilemill/issues/86",
  "id": 707242,
  "user": {
    "login": "tmcw",
    "id": 32314,
    "avatar_url": "https://avatars.githubusercontent.com/u/32314?v=3",
    "gravatar_id": "",
    "url": "https://api.github.com/users/tmcw",
    "html_url": "https://github.com/tmcw",
    "followers_url": "https://api.github.com/users/tmcw/followers",
    "following_url": "https://api.github.com/users/tmcw/following{/other_user}",
    "gists_url": "https://api.github.com/users/tmcw/gists{/gist_id}",
    "starred_url": "https://api.github.com/users/tmcw/starred{/owner}{/repo}",
    "subscriptions_url": "https://api.github.com/users/tmcw/subscriptions",
    "organizations_url": "https://api.github.com/users/tmcw/orgs",
    "repos_url": "https://api.github.com/users/tmcw/repos",
    "events_url": "https://api.github.com/users/tmcw/events{/privacy}",
    "received_events_url": "https://api.github.com/users/tmcw/received_events",
    "type": "User",
    "site_admin": false
  },
  "created_at": "2011-01-25T20:57:22Z",
  "updated_at": "2011-01-25T20:57:22Z",
  "body": "No longer applicable/debuggable in mess.js."
}
]
