[
{
  "url": "https://api.github.com/repos/mapbox/tilemill/issues/comments/11167857",
  "html_url": "https://github.com/mapbox/tilemill/issues/1839#issuecomment-11167857",
  "issue_url": "https://api.github.com/repos/mapbox/tilemill/issues/1839",
  "id": 11167857,
  "user": {
    "login": "springmeyer",
    "id": 20300,
    "avatar_url": "https://avatars.githubusercontent.com/u/20300?v=3",
    "gravatar_id": "",
    "url": "https://api.github.com/users/springmeyer",
    "html_url": "https://github.com/springmeyer",
    "followers_url": "https://api.github.com/users/springmeyer/followers",
    "following_url": "https://api.github.com/users/springmeyer/following{/other_user}",
    "gists_url": "https://api.github.com/users/springmeyer/gists{/gist_id}",
    "starred_url": "https://api.github.com/users/springmeyer/starred{/owner}{/repo}",
    "subscriptions_url": "https://api.github.com/users/springmeyer/subscriptions",
    "organizations_url": "https://api.github.com/users/springmeyer/orgs",
    "repos_url": "https://api.github.com/users/springmeyer/repos",
    "events_url": "https://api.github.com/users/springmeyer/events{/privacy}",
    "received_events_url": "https://api.github.com/users/springmeyer/received_events",
    "type": "User",
    "site_admin": false
  },
  "created_at": "2012-12-09T05:37:02Z",
  "updated_at": "2012-12-09T05:37:02Z",
  "body": "TileMill actually does not do any rendering. Rendering is done by Mapnik. We have plans for an OpenGL backend for Mapnik. Anyway, if you are posting this because you think rendering is slow I doubt your problem is rendering, it's almost always i/o. "
}
, {
  "url": "https://api.github.com/repos/mapbox/tilemill/issues/comments/11265324",
  "html_url": "https://github.com/mapbox/tilemill/issues/1839#issuecomment-11265324",
  "issue_url": "https://api.github.com/repos/mapbox/tilemill/issues/1839",
  "id": 11265324,
  "user": {
    "login": "masterspambot",
    "id": 581121,
    "avatar_url": "https://avatars.githubusercontent.com/u/581121?v=3",
    "gravatar_id": "",
    "url": "https://api.github.com/users/masterspambot",
    "html_url": "https://github.com/masterspambot",
    "followers_url": "https://api.github.com/users/masterspambot/followers",
    "following_url": "https://api.github.com/users/masterspambot/following{/other_user}",
    "gists_url": "https://api.github.com/users/masterspambot/gists{/gist_id}",
    "starred_url": "https://api.github.com/users/masterspambot/starred{/owner}{/repo}",
    "subscriptions_url": "https://api.github.com/users/masterspambot/subscriptions",
    "organizations_url": "https://api.github.com/users/masterspambot/orgs",
    "repos_url": "https://api.github.com/users/masterspambot/repos",
    "events_url": "https://api.github.com/users/masterspambot/events{/privacy}",
    "received_events_url": "https://api.github.com/users/masterspambot/received_events",
    "type": "User",
    "site_admin": false
  },
  "created_at": "2012-12-11T21:35:55Z",
  "updated_at": "2012-12-11T21:37:23Z",
  "body": "No. I'm simply rendering more than half of the world form OSM and I'm sad that that Nvidia Quadro cant help my Xeon, because the ssd-raid is working without any pant. I was also wondering if its the bottleneck, but it isn't. It simply need OpenGL to speed up for huge datasets.\r\n+1 for that option \r\n"
}
, {
  "url": "https://api.github.com/repos/mapbox/tilemill/issues/comments/11265938",
  "html_url": "https://github.com/mapbox/tilemill/issues/1839#issuecomment-11265938",
  "issue_url": "https://api.github.com/repos/mapbox/tilemill/issues/1839",
  "id": 11265938,
  "user": {
    "login": "springmeyer",
    "id": 20300,
    "avatar_url": "https://avatars.githubusercontent.com/u/20300?v=3",
    "gravatar_id": "",
    "url": "https://api.github.com/users/springmeyer",
    "html_url": "https://github.com/springmeyer",
    "followers_url": "https://api.github.com/users/springmeyer/followers",
    "following_url": "https://api.github.com/users/springmeyer/following{/other_user}",
    "gists_url": "https://api.github.com/users/springmeyer/gists{/gist_id}",
    "starred_url": "https://api.github.com/users/springmeyer/starred{/owner}{/repo}",
    "subscriptions_url": "https://api.github.com/users/springmeyer/subscriptions",
    "organizations_url": "https://api.github.com/users/springmeyer/orgs",
    "repos_url": "https://api.github.com/users/springmeyer/repos",
    "events_url": "https://api.github.com/users/springmeyer/events{/privacy}",
    "received_events_url": "https://api.github.com/users/springmeyer/received_events",
    "type": "User",
    "site_admin": false
  },
  "created_at": "2012-12-11T21:49:56Z",
  "updated_at": "2012-12-11T21:50:06Z",
  "body": "If you don't know what what the bottleneck is then you should figure out what the bottleneck is, right?\r\n\r\nIf you are on Linux please run `perf top` for 1-2 minutes why rendering is working hard, or on OS X run an activity monitor sample, then post it here. More details at https://gist.github.com/2945049"
}
, {
  "url": "https://api.github.com/repos/mapbox/tilemill/issues/comments/11286922",
  "html_url": "https://github.com/mapbox/tilemill/issues/1839#issuecomment-11286922",
  "issue_url": "https://api.github.com/repos/mapbox/tilemill/issues/1839",
  "id": 11286922,
  "user": {
    "login": "masterspambot",
    "id": 581121,
    "avatar_url": "https://avatars.githubusercontent.com/u/581121?v=3",
    "gravatar_id": "",
    "url": "https://api.github.com/users/masterspambot",
    "html_url": "https://github.com/masterspambot",
    "followers_url": "https://api.github.com/users/masterspambot/followers",
    "following_url": "https://api.github.com/users/masterspambot/following{/other_user}",
    "gists_url": "https://api.github.com/users/masterspambot/gists{/gist_id}",
    "starred_url": "https://api.github.com/users/masterspambot/starred{/owner}{/repo}",
    "subscriptions_url": "https://api.github.com/users/masterspambot/subscriptions",
    "organizations_url": "https://api.github.com/users/masterspambot/orgs",
    "repos_url": "https://api.github.com/users/masterspambot/repos",
    "events_url": "https://api.github.com/users/masterspambot/events{/privacy}",
    "received_events_url": "https://api.github.com/users/masterspambot/received_events",
    "type": "User",
    "site_admin": false
  },
  "created_at": "2012-12-12T12:23:03Z",
  "updated_at": "2012-12-12T13:41:52Z",
  "body": "I had some fun to make perf work in VMware, but here goes the results:\r\n  \r\n![Tilemill IFR - VMware Workstation_2012-12-12_14-34-05](https://f.cloud.github.com/assets/581121/8074/aa2dccfa-4460-11e2-8987-3f15504ea16f.png)\r\n\r\nSorry but I see lot of renderes here.... :)\r\n"
}
, {
  "url": "https://api.github.com/repos/mapbox/tilemill/issues/comments/11303262",
  "html_url": "https://github.com/mapbox/tilemill/issues/1839#issuecomment-11303262",
  "issue_url": "https://api.github.com/repos/mapbox/tilemill/issues/1839",
  "id": 11303262,
  "user": {
    "login": "springmeyer",
    "id": 20300,
    "avatar_url": "https://avatars.githubusercontent.com/u/20300?v=3",
    "gravatar_id": "",
    "url": "https://api.github.com/users/springmeyer",
    "html_url": "https://github.com/springmeyer",
    "followers_url": "https://api.github.com/users/springmeyer/followers",
    "following_url": "https://api.github.com/users/springmeyer/following{/other_user}",
    "gists_url": "https://api.github.com/users/springmeyer/gists{/gist_id}",
    "starred_url": "https://api.github.com/users/springmeyer/starred{/owner}{/repo}",
    "subscriptions_url": "https://api.github.com/users/springmeyer/subscriptions",
    "organizations_url": "https://api.github.com/users/springmeyer/orgs",
    "repos_url": "https://api.github.com/users/springmeyer/repos",
    "events_url": "https://api.github.com/users/springmeyer/events{/privacy}",
    "received_events_url": "https://api.github.com/users/springmeyer/received_events",
    "type": "User",
    "site_admin": false
  },
  "created_at": "2012-12-12T19:01:54Z",
  "updated_at": "2012-12-12T19:01:54Z",
  "body": "You are running ubuntu within VMware? What is your host operating system?"
}
, {
  "url": "https://api.github.com/repos/mapbox/tilemill/issues/comments/11303690",
  "html_url": "https://github.com/mapbox/tilemill/issues/1839#issuecomment-11303690",
  "issue_url": "https://api.github.com/repos/mapbox/tilemill/issues/1839",
  "id": 11303690,
  "user": {
    "login": "springmeyer",
    "id": 20300,
    "avatar_url": "https://avatars.githubusercontent.com/u/20300?v=3",
    "gravatar_id": "",
    "url": "https://api.github.com/users/springmeyer",
    "html_url": "https://github.com/springmeyer",
    "followers_url": "https://api.github.com/users/springmeyer/followers",
    "following_url": "https://api.github.com/users/springmeyer/following{/other_user}",
    "gists_url": "https://api.github.com/users/springmeyer/gists{/gist_id}",
    "starred_url": "https://api.github.com/users/springmeyer/starred{/owner}{/repo}",
    "subscriptions_url": "https://api.github.com/users/springmeyer/subscriptions",
    "organizations_url": "https://api.github.com/users/springmeyer/orgs",
    "repos_url": "https://api.github.com/users/springmeyer/repos",
    "events_url": "https://api.github.com/users/springmeyer/events{/privacy}",
    "received_events_url": "https://api.github.com/users/springmeyer/received_events",
    "type": "User",
    "site_admin": false
  },
  "created_at": "2012-12-12T19:06:49Z",
  "updated_at": "2012-12-12T19:06:49Z",
  "body": "Also, yes, it appears that font rendering is an extreme bottleneck. This is not something I've seen before. Could you describe what kind of labeling you are doing - or ideally, post your entire style?"
}
, {
  "url": "https://api.github.com/repos/mapbox/tilemill/issues/comments/11305020",
  "html_url": "https://github.com/mapbox/tilemill/issues/1839#issuecomment-11305020",
  "issue_url": "https://api.github.com/repos/mapbox/tilemill/issues/1839",
  "id": 11305020,
  "user": {
    "login": "masterspambot",
    "id": 581121,
    "avatar_url": "https://avatars.githubusercontent.com/u/581121?v=3",
    "gravatar_id": "",
    "url": "https://api.github.com/users/masterspambot",
    "html_url": "https://github.com/masterspambot",
    "followers_url": "https://api.github.com/users/masterspambot/followers",
    "following_url": "https://api.github.com/users/masterspambot/following{/other_user}",
    "gists_url": "https://api.github.com/users/masterspambot/gists{/gist_id}",
    "starred_url": "https://api.github.com/users/masterspambot/starred{/owner}{/repo}",
    "subscriptions_url": "https://api.github.com/users/masterspambot/subscriptions",
    "organizations_url": "https://api.github.com/users/masterspambot/orgs",
    "repos_url": "https://api.github.com/users/masterspambot/repos",
    "events_url": "https://api.github.com/users/masterspambot/events{/privacy}",
    "received_events_url": "https://api.github.com/users/masterspambot/received_events",
    "type": "User",
    "site_admin": false
  },
  "created_at": "2012-12-12T19:28:03Z",
  "updated_at": "2012-12-12T21:02:37Z",
  "body": "For test purposes I use Windows 7 as host system (cuz of Adobe stuff), but ultimately it will be Oracle SolarisOS, if you ask for that.\r\n\r\nMy styles are at: https://gist.github.com/4271598\r\n"
}
, {
  "url": "https://api.github.com/repos/mapbox/tilemill/issues/comments/11309481",
  "html_url": "https://github.com/mapbox/tilemill/issues/1839#issuecomment-11309481",
  "issue_url": "https://api.github.com/repos/mapbox/tilemill/issues/1839",
  "id": 11309481,
  "user": {
    "login": "springmeyer",
    "id": 20300,
    "avatar_url": "https://avatars.githubusercontent.com/u/20300?v=3",
    "gravatar_id": "",
    "url": "https://api.github.com/users/springmeyer",
    "html_url": "https://github.com/springmeyer",
    "followers_url": "https://api.github.com/users/springmeyer/followers",
    "following_url": "https://api.github.com/users/springmeyer/following{/other_user}",
    "gists_url": "https://api.github.com/users/springmeyer/gists{/gist_id}",
    "starred_url": "https://api.github.com/users/springmeyer/starred{/owner}{/repo}",
    "subscriptions_url": "https://api.github.com/users/springmeyer/subscriptions",
    "organizations_url": "https://api.github.com/users/springmeyer/orgs",
    "repos_url": "https://api.github.com/users/springmeyer/repos",
    "events_url": "https://api.github.com/users/springmeyer/events{/privacy}",
    "received_events_url": "https://api.github.com/users/springmeyer/received_events",
    "type": "User",
    "site_admin": false
  },
  "created_at": "2012-12-12T21:08:10Z",
  "updated_at": "2012-12-12T21:08:36Z",
  "body": "I moved your styles to a gist, to make this issue easier to read.\r\n\r\nMy thoughts:\r\n\r\n1) Yes, makes sense now that font rendering is an extreme bottleneck for you. The concatenation and complexity of text like that during rendering is pretty intense. To optimize this you should do aggressive pre-processing on your input data, so that as much work is done once, up front, on the data. Otherwise you can be guaranteed that rendering is slow: opengl or not.\r\n\r\n2) If you care about performance, virtualizing using a Windows host seems like lose lose approach. I would recommend using a linux machine with ssd's and as many CPU's as you can pay for. Also, TileMill has never been compiled on solaris as Mapnik is quite hard to get running, due to ancient gcc versions. So, I would caution you against trying Solaris unless you are quite experienced at compiling code.\r\n\r\n3) I'm going to close this ticket. While OpenGL has promise, it is not a solution to your problems and luckily there are  solutions (as above) that are necessary even if rendering were hardware accelerated."
}
, {
  "url": "https://api.github.com/repos/mapbox/tilemill/issues/comments/11312189",
  "html_url": "https://github.com/mapbox/tilemill/issues/1839#issuecomment-11312189",
  "issue_url": "https://api.github.com/repos/mapbox/tilemill/issues/1839",
  "id": 11312189,
  "user": {
    "login": "masterspambot",
    "id": 581121,
    "avatar_url": "https://avatars.githubusercontent.com/u/581121?v=3",
    "gravatar_id": "",
    "url": "https://api.github.com/users/masterspambot",
    "html_url": "https://github.com/masterspambot",
    "followers_url": "https://api.github.com/users/masterspambot/followers",
    "following_url": "https://api.github.com/users/masterspambot/following{/other_user}",
    "gists_url": "https://api.github.com/users/masterspambot/gists{/gist_id}",
    "starred_url": "https://api.github.com/users/masterspambot/starred{/owner}{/repo}",
    "subscriptions_url": "https://api.github.com/users/masterspambot/subscriptions",
    "organizations_url": "https://api.github.com/users/masterspambot/orgs",
    "repos_url": "https://api.github.com/users/masterspambot/repos",
    "events_url": "https://api.github.com/users/masterspambot/events{/privacy}",
    "received_events_url": "https://api.github.com/users/masterspambot/received_events",
    "type": "User",
    "site_admin": false
  },
  "created_at": "2012-12-12T22:12:19Z",
  "updated_at": "2012-12-12T22:12:19Z",
  "body": "1) I definitely re-factor the data to speed up the processing and avoid concatenation. I hope that helps somehow, but due to very condense text-type information on layers it will not speed up much. \r\n\r\nIn my opinion OpenGL will speed up this process, simply because if you compare Xeon x5690 (~180 gflops) and Nvidia Quadro 5000 (~340 gflops) its double speed of the processor, so even without very efficient hardware acceleration support, it will be processed noticeably faster.\r\n\r\n2) I cant afford to switch to linux just for rendering. I have to control the amount of used resources for processing. BTW Solaris will be host system, linux will be still linux :)\r\n\r\nThanks for all your help and spent time with my problem. Maybe i fond some time to make some pull request for Mapnik for OpenGL support.  \r\n   "
}
, {
  "url": "https://api.github.com/repos/mapbox/tilemill/issues/comments/11313723",
  "html_url": "https://github.com/mapbox/tilemill/issues/1839#issuecomment-11313723",
  "issue_url": "https://api.github.com/repos/mapbox/tilemill/issues/1839",
  "id": 11313723,
  "user": {
    "login": "springmeyer",
    "id": 20300,
    "avatar_url": "https://avatars.githubusercontent.com/u/20300?v=3",
    "gravatar_id": "",
    "url": "https://api.github.com/users/springmeyer",
    "html_url": "https://github.com/springmeyer",
    "followers_url": "https://api.github.com/users/springmeyer/followers",
    "following_url": "https://api.github.com/users/springmeyer/following{/other_user}",
    "gists_url": "https://api.github.com/users/springmeyer/gists{/gist_id}",
    "starred_url": "https://api.github.com/users/springmeyer/starred{/owner}{/repo}",
    "subscriptions_url": "https://api.github.com/users/springmeyer/subscriptions",
    "organizations_url": "https://api.github.com/users/springmeyer/orgs",
    "repos_url": "https://api.github.com/users/springmeyer/repos",
    "events_url": "https://api.github.com/users/springmeyer/events{/privacy}",
    "received_events_url": "https://api.github.com/users/springmeyer/received_events",
    "type": "User",
    "site_admin": false
  },
  "created_at": "2012-12-12T22:49:42Z",
  "updated_at": "2012-12-12T22:49:42Z",
  "body": "Thanks for the extra thoughts. If we were talking about bottlenecks being rendering lines or polygons, then yes OpenGL would be a likely win. In terms of text, there is very little support for high quality hardware text rendering but you might be interested to check out http://code.google.com/p/glyphy/."
}
]
