[
{
  "url": "https://api.github.com/repos/mapbox/tilemill/issues/comments/20057086",
  "html_url": "https://github.com/mapbox/tilemill/issues/2000#issuecomment-20057086",
  "issue_url": "https://api.github.com/repos/mapbox/tilemill/issues/2000",
  "id": 20057086,
  "user": {
    "login": "incanus",
    "id": 17722,
    "avatar_url": "https://avatars.githubusercontent.com/u/17722?v=3",
    "gravatar_id": "",
    "url": "https://api.github.com/users/incanus",
    "html_url": "https://github.com/incanus",
    "followers_url": "https://api.github.com/users/incanus/followers",
    "following_url": "https://api.github.com/users/incanus/following{/other_user}",
    "gists_url": "https://api.github.com/users/incanus/gists{/gist_id}",
    "starred_url": "https://api.github.com/users/incanus/starred{/owner}{/repo}",
    "subscriptions_url": "https://api.github.com/users/incanus/subscriptions",
    "organizations_url": "https://api.github.com/users/incanus/orgs",
    "repos_url": "https://api.github.com/users/incanus/repos",
    "events_url": "https://api.github.com/users/incanus/events{/privacy}",
    "received_events_url": "https://api.github.com/users/incanus/received_events",
    "type": "User",
    "site_admin": false
  },
  "created_at": "2013-06-26T15:42:34Z",
  "updated_at": "2013-06-26T15:42:34Z",
  "body": "Desired result: do nothing or, better yet, focus the editor pane and delete a character. "
}
, {
  "url": "https://api.github.com/repos/mapbox/tilemill/issues/comments/20057188",
  "html_url": "https://github.com/mapbox/tilemill/issues/2000#issuecomment-20057188",
  "issue_url": "https://api.github.com/repos/mapbox/tilemill/issues/2000",
  "id": 20057188,
  "user": {
    "login": "ian29",
    "id": 1056106,
    "avatar_url": "https://avatars.githubusercontent.com/u/1056106?v=3",
    "gravatar_id": "",
    "url": "https://api.github.com/users/ian29",
    "html_url": "https://github.com/ian29",
    "followers_url": "https://api.github.com/users/ian29/followers",
    "following_url": "https://api.github.com/users/ian29/following{/other_user}",
    "gists_url": "https://api.github.com/users/ian29/gists{/gist_id}",
    "starred_url": "https://api.github.com/users/ian29/starred{/owner}{/repo}",
    "subscriptions_url": "https://api.github.com/users/ian29/subscriptions",
    "organizations_url": "https://api.github.com/users/ian29/orgs",
    "repos_url": "https://api.github.com/users/ian29/repos",
    "events_url": "https://api.github.com/users/ian29/events{/privacy}",
    "received_events_url": "https://api.github.com/users/ian29/received_events",
    "type": "User",
    "site_admin": false
  },
  "created_at": "2013-06-26T15:43:18Z",
  "updated_at": "2013-06-26T15:43:18Z",
  "body": "+1 \r\n\r\nhappens in the app too. "
}
, {
  "url": "https://api.github.com/repos/mapbox/tilemill/issues/comments/20057332",
  "html_url": "https://github.com/mapbox/tilemill/issues/2000#issuecomment-20057332",
  "issue_url": "https://api.github.com/repos/mapbox/tilemill/issues/2000",
  "id": 20057332,
  "user": {
    "login": "incanus",
    "id": 17722,
    "avatar_url": "https://avatars.githubusercontent.com/u/17722?v=3",
    "gravatar_id": "",
    "url": "https://api.github.com/users/incanus",
    "html_url": "https://github.com/incanus",
    "followers_url": "https://api.github.com/users/incanus/followers",
    "following_url": "https://api.github.com/users/incanus/following{/other_user}",
    "gists_url": "https://api.github.com/users/incanus/gists{/gist_id}",
    "starred_url": "https://api.github.com/users/incanus/starred{/owner}{/repo}",
    "subscriptions_url": "https://api.github.com/users/incanus/subscriptions",
    "organizations_url": "https://api.github.com/users/incanus/orgs",
    "repos_url": "https://api.github.com/users/incanus/repos",
    "events_url": "https://api.github.com/users/incanus/events{/privacy}",
    "received_events_url": "https://api.github.com/users/incanus/received_events",
    "type": "User",
    "site_admin": false
  },
  "created_at": "2013-06-26T15:44:13Z",
  "updated_at": "2013-06-26T15:44:13Z",
  "body": "That's what I mean, in the app. Probably could happen in a browser as well, but I haven't seen it in Safari. "
}
, {
  "url": "https://api.github.com/repos/mapbox/tilemill/issues/comments/20057952",
  "html_url": "https://github.com/mapbox/tilemill/issues/2000#issuecomment-20057952",
  "issue_url": "https://api.github.com/repos/mapbox/tilemill/issues/2000",
  "id": 20057952,
  "user": {
    "login": "incanus",
    "id": 17722,
    "avatar_url": "https://avatars.githubusercontent.com/u/17722?v=3",
    "gravatar_id": "",
    "url": "https://api.github.com/users/incanus",
    "html_url": "https://github.com/incanus",
    "followers_url": "https://api.github.com/users/incanus/followers",
    "following_url": "https://api.github.com/users/incanus/following{/other_user}",
    "gists_url": "https://api.github.com/users/incanus/gists{/gist_id}",
    "starred_url": "https://api.github.com/users/incanus/starred{/owner}{/repo}",
    "subscriptions_url": "https://api.github.com/users/incanus/subscriptions",
    "organizations_url": "https://api.github.com/users/incanus/orgs",
    "repos_url": "https://api.github.com/users/incanus/repos",
    "events_url": "https://api.github.com/users/incanus/events{/privacy}",
    "received_events_url": "https://api.github.com/users/incanus/received_events",
    "type": "User",
    "site_admin": false
  },
  "created_at": "2013-06-26T15:49:14Z",
  "updated_at": "2013-06-26T15:49:14Z",
  "body": "Can anyone verify this on Linux (@yhahn) or Windows? "
}
, {
  "url": "https://api.github.com/repos/mapbox/tilemill/issues/comments/20065641",
  "html_url": "https://github.com/mapbox/tilemill/issues/2000#issuecomment-20065641",
  "issue_url": "https://api.github.com/repos/mapbox/tilemill/issues/2000",
  "id": 20065641,
  "user": {
    "login": "incanus",
    "id": 17722,
    "avatar_url": "https://avatars.githubusercontent.com/u/17722?v=3",
    "gravatar_id": "",
    "url": "https://api.github.com/users/incanus",
    "html_url": "https://github.com/incanus",
    "followers_url": "https://api.github.com/users/incanus/followers",
    "following_url": "https://api.github.com/users/incanus/following{/other_user}",
    "gists_url": "https://api.github.com/users/incanus/gists{/gist_id}",
    "starred_url": "https://api.github.com/users/incanus/starred{/owner}{/repo}",
    "subscriptions_url": "https://api.github.com/users/incanus/subscriptions",
    "organizations_url": "https://api.github.com/users/incanus/orgs",
    "repos_url": "https://api.github.com/users/incanus/repos",
    "events_url": "https://api.github.com/users/incanus/events{/privacy}",
    "received_events_url": "https://api.github.com/users/incanus/received_events",
    "type": "User",
    "site_admin": false
  },
  "created_at": "2013-06-26T17:33:44Z",
  "updated_at": "2013-06-26T17:33:44Z",
  "body": "Closing in favor of the much longer-standing #1692, which I also opened :-P\r\n\r\nI don't have the JS chops to figure this out reliably (I can fix, but not destroy some desired behavior) but the place to do this seems to be roundabout https://github.com/mapbox/tilemill/blob/master/views/App.bones#L184-L212"
}
]
