[
{
  "url": "https://api.github.com/repos/mapbox/tilemill/issues/comments/8827264",
  "html_url": "https://github.com/mapbox/tilemill/pull/1721#issuecomment-8827264",
  "issue_url": "https://api.github.com/repos/mapbox/tilemill/issues/1721",
  "id": 8827264,
  "user": {
    "login": "springmeyer",
    "id": 20300,
    "avatar_url": "https://avatars.githubusercontent.com/u/20300?v=3",
    "gravatar_id": "",
    "url": "https://api.github.com/users/springmeyer",
    "html_url": "https://github.com/springmeyer",
    "followers_url": "https://api.github.com/users/springmeyer/followers",
    "following_url": "https://api.github.com/users/springmeyer/following{/other_user}",
    "gists_url": "https://api.github.com/users/springmeyer/gists{/gist_id}",
    "starred_url": "https://api.github.com/users/springmeyer/starred{/owner}{/repo}",
    "subscriptions_url": "https://api.github.com/users/springmeyer/subscriptions",
    "organizations_url": "https://api.github.com/users/springmeyer/orgs",
    "repos_url": "https://api.github.com/users/springmeyer/repos",
    "events_url": "https://api.github.com/users/springmeyer/events{/privacy}",
    "received_events_url": "https://api.github.com/users/springmeyer/received_events",
    "type": "User",
    "site_admin": false
  },
  "created_at": "2012-09-24T17:36:03Z",
  "updated_at": "2012-09-24T17:36:03Z",
  "body": "thanks, nice improvement."
}
]
