[
{
  "url": "https://api.github.com/repos/docker/kitematic/issues/comments/94005021",
  "html_url": "https://github.com/docker/kitematic/pull/390#issuecomment-94005021",
  "issue_url": "https://api.github.com/repos/docker/kitematic/issues/390",
  "id": 94005021,
  "user": {
    "login": "coveralls",
    "id": 2354108,
    "avatar_url": "https://avatars.githubusercontent.com/u/2354108?v=3",
    "gravatar_id": "",
    "url": "https://api.github.com/users/coveralls",
    "html_url": "https://github.com/coveralls",
    "followers_url": "https://api.github.com/users/coveralls/followers",
    "following_url": "https://api.github.com/users/coveralls/following{/other_user}",
    "gists_url": "https://api.github.com/users/coveralls/gists{/gist_id}",
    "starred_url": "https://api.github.com/users/coveralls/starred{/owner}{/repo}",
    "subscriptions_url": "https://api.github.com/users/coveralls/subscriptions",
    "organizations_url": "https://api.github.com/users/coveralls/orgs",
    "repos_url": "https://api.github.com/users/coveralls/repos",
    "events_url": "https://api.github.com/users/coveralls/events{/privacy}",
    "received_events_url": "https://api.github.com/users/coveralls/received_events",
    "type": "User",
    "site_admin": false
  },
  "created_at": "2015-04-17T15:08:21Z",
  "updated_at": "2015-04-17T15:08:21Z",
  "body": "\n[![Coverage Status](https://coveralls.io/builds/2362143/badge)](https://coveralls.io/builds/2362143)\n\nCoverage remained the same at 21.94% when pulling **614e034167ac7a29ebc8835e68c7ec9b9d9f048f on atom-shell-electron** into **734b779df63a33367d0d1382e358e3d3b90be494 on master**.\n"
}
, {
  "url": "https://api.github.com/repos/docker/kitematic/issues/comments/94009515",
  "html_url": "https://github.com/docker/kitematic/pull/390#issuecomment-94009515",
  "issue_url": "https://api.github.com/repos/docker/kitematic/issues/390",
  "id": 94009515,
  "user": {
    "login": "coveralls",
    "id": 2354108,
    "avatar_url": "https://avatars.githubusercontent.com/u/2354108?v=3",
    "gravatar_id": "",
    "url": "https://api.github.com/users/coveralls",
    "html_url": "https://github.com/coveralls",
    "followers_url": "https://api.github.com/users/coveralls/followers",
    "following_url": "https://api.github.com/users/coveralls/following{/other_user}",
    "gists_url": "https://api.github.com/users/coveralls/gists{/gist_id}",
    "starred_url": "https://api.github.com/users/coveralls/starred{/owner}{/repo}",
    "subscriptions_url": "https://api.github.com/users/coveralls/subscriptions",
    "organizations_url": "https://api.github.com/users/coveralls/orgs",
    "repos_url": "https://api.github.com/users/coveralls/repos",
    "events_url": "https://api.github.com/users/coveralls/events{/privacy}",
    "received_events_url": "https://api.github.com/users/coveralls/received_events",
    "type": "User",
    "site_admin": false
  },
  "created_at": "2015-04-17T15:29:40Z",
  "updated_at": "2015-04-17T15:29:40Z",
  "body": "\n[![Coverage Status](https://coveralls.io/builds/2362353/badge)](https://coveralls.io/builds/2362353)\n\nCoverage remained the same at 21.94% when pulling **18b97e28b62b1716c7be5eda531c8328525f9973 on atom-shell-electron** into **734b779df63a33367d0d1382e358e3d3b90be494 on master**.\n"
}
]
