[
{
  "url": "https://api.github.com/repos/docker/kitematic/issues/comments/159696859",
  "html_url": "https://github.com/docker/kitematic/issues/1251#issuecomment-159696859",
  "issue_url": "https://api.github.com/repos/docker/kitematic/issues/1251",
  "id": 159696859,
  "user": {
    "login": "FrenchBen",
    "id": 3965324,
    "avatar_url": "https://avatars.githubusercontent.com/u/3965324?v=3",
    "gravatar_id": "",
    "url": "https://api.github.com/users/FrenchBen",
    "html_url": "https://github.com/FrenchBen",
    "followers_url": "https://api.github.com/users/FrenchBen/followers",
    "following_url": "https://api.github.com/users/FrenchBen/following{/other_user}",
    "gists_url": "https://api.github.com/users/FrenchBen/gists{/gist_id}",
    "starred_url": "https://api.github.com/users/FrenchBen/starred{/owner}{/repo}",
    "subscriptions_url": "https://api.github.com/users/FrenchBen/subscriptions",
    "organizations_url": "https://api.github.com/users/FrenchBen/orgs",
    "repos_url": "https://api.github.com/users/FrenchBen/repos",
    "events_url": "https://api.github.com/users/FrenchBen/events{/privacy}",
    "received_events_url": "https://api.github.com/users/FrenchBen/received_events",
    "type": "User",
    "site_admin": false
  },
  "created_at": "2015-11-25T18:38:08Z",
  "updated_at": "2015-11-25T18:38:33Z",
  "body": "Are you behind a proxy? \r\nWe have a list of things that can be done to make sure Kitematic can work behind a proxy:\r\nhttps://github.com/docker/kitematic/wiki/Common-Proxy-Issues-&-Fixes"
}
, {
  "url": "https://api.github.com/repos/docker/kitematic/issues/comments/159701579",
  "html_url": "https://github.com/docker/kitematic/issues/1251#issuecomment-159701579",
  "issue_url": "https://api.github.com/repos/docker/kitematic/issues/1251",
  "id": 159701579,
  "user": {
    "login": "rjsicko",
    "id": 7218576,
    "avatar_url": "https://avatars.githubusercontent.com/u/7218576?v=3",
    "gravatar_id": "",
    "url": "https://api.github.com/users/rjsicko",
    "html_url": "https://github.com/rjsicko",
    "followers_url": "https://api.github.com/users/rjsicko/followers",
    "following_url": "https://api.github.com/users/rjsicko/following{/other_user}",
    "gists_url": "https://api.github.com/users/rjsicko/gists{/gist_id}",
    "starred_url": "https://api.github.com/users/rjsicko/starred{/owner}{/repo}",
    "subscriptions_url": "https://api.github.com/users/rjsicko/subscriptions",
    "organizations_url": "https://api.github.com/users/rjsicko/orgs",
    "repos_url": "https://api.github.com/users/rjsicko/repos",
    "events_url": "https://api.github.com/users/rjsicko/events{/privacy}",
    "received_events_url": "https://api.github.com/users/rjsicko/received_events",
    "type": "User",
    "site_admin": false
  },
  "created_at": "2015-11-25T18:59:53Z",
  "updated_at": "2015-11-25T18:59:53Z",
  "body": "Unfortunately they did away with the proxy when identity agent software was implemented... The new system is a check point software that I don't  fully  understand,  but their site says it allows users to \"acquire and report identities to the Security Gateway\" \r\n\r\nI use other virtual boxes and when this was implemented I had to remove all the proxy  info from them and I believe they  just connect through  my regular connection as long as I am logged into the identity agent. "
}
, {
  "url": "https://api.github.com/repos/docker/kitematic/issues/comments/159725751",
  "html_url": "https://github.com/docker/kitematic/issues/1251#issuecomment-159725751",
  "issue_url": "https://api.github.com/repos/docker/kitematic/issues/1251",
  "id": 159725751,
  "user": {
    "login": "FrenchBen",
    "id": 3965324,
    "avatar_url": "https://avatars.githubusercontent.com/u/3965324?v=3",
    "gravatar_id": "",
    "url": "https://api.github.com/users/FrenchBen",
    "html_url": "https://github.com/FrenchBen",
    "followers_url": "https://api.github.com/users/FrenchBen/followers",
    "following_url": "https://api.github.com/users/FrenchBen/following{/other_user}",
    "gists_url": "https://api.github.com/users/FrenchBen/gists{/gist_id}",
    "starred_url": "https://api.github.com/users/FrenchBen/starred{/owner}{/repo}",
    "subscriptions_url": "https://api.github.com/users/FrenchBen/subscriptions",
    "organizations_url": "https://api.github.com/users/FrenchBen/orgs",
    "repos_url": "https://api.github.com/users/FrenchBen/repos",
    "events_url": "https://api.github.com/users/FrenchBen/events{/privacy}",
    "received_events_url": "https://api.github.com/users/FrenchBen/received_events",
    "type": "User",
    "site_admin": false
  },
  "created_at": "2015-11-25T20:38:23Z",
  "updated_at": "2015-11-25T20:38:23Z",
  "body": "Do you have a link to the software?"
}
, {
  "url": "https://api.github.com/repos/docker/kitematic/issues/comments/159727986",
  "html_url": "https://github.com/docker/kitematic/issues/1251#issuecomment-159727986",
  "issue_url": "https://api.github.com/repos/docker/kitematic/issues/1251",
  "id": 159727986,
  "user": {
    "login": "rjsicko",
    "id": 7218576,
    "avatar_url": "https://avatars.githubusercontent.com/u/7218576?v=3",
    "gravatar_id": "",
    "url": "https://api.github.com/users/rjsicko",
    "html_url": "https://github.com/rjsicko",
    "followers_url": "https://api.github.com/users/rjsicko/followers",
    "following_url": "https://api.github.com/users/rjsicko/following{/other_user}",
    "gists_url": "https://api.github.com/users/rjsicko/gists{/gist_id}",
    "starred_url": "https://api.github.com/users/rjsicko/starred{/owner}{/repo}",
    "subscriptions_url": "https://api.github.com/users/rjsicko/subscriptions",
    "organizations_url": "https://api.github.com/users/rjsicko/orgs",
    "repos_url": "https://api.github.com/users/rjsicko/repos",
    "events_url": "https://api.github.com/users/rjsicko/events{/privacy}",
    "received_events_url": "https://api.github.com/users/rjsicko/received_events",
    "type": "User",
    "site_admin": false
  },
  "created_at": "2015-11-25T20:47:02Z",
  "updated_at": "2015-11-25T20:47:02Z",
  "body": "http://www.checkpoint.com/products/identity-awareness-software-blade/index.html"
}
, {
  "url": "https://api.github.com/repos/docker/kitematic/issues/comments/159730290",
  "html_url": "https://github.com/docker/kitematic/issues/1251#issuecomment-159730290",
  "issue_url": "https://api.github.com/repos/docker/kitematic/issues/1251",
  "id": 159730290,
  "user": {
    "login": "FrenchBen",
    "id": 3965324,
    "avatar_url": "https://avatars.githubusercontent.com/u/3965324?v=3",
    "gravatar_id": "",
    "url": "https://api.github.com/users/FrenchBen",
    "html_url": "https://github.com/FrenchBen",
    "followers_url": "https://api.github.com/users/FrenchBen/followers",
    "following_url": "https://api.github.com/users/FrenchBen/following{/other_user}",
    "gists_url": "https://api.github.com/users/FrenchBen/gists{/gist_id}",
    "starred_url": "https://api.github.com/users/FrenchBen/starred{/owner}{/repo}",
    "subscriptions_url": "https://api.github.com/users/FrenchBen/subscriptions",
    "organizations_url": "https://api.github.com/users/FrenchBen/orgs",
    "repos_url": "https://api.github.com/users/FrenchBen/repos",
    "events_url": "https://api.github.com/users/FrenchBen/events{/privacy}",
    "received_events_url": "https://api.github.com/users/FrenchBen/received_events",
    "type": "User",
    "site_admin": false
  },
  "created_at": "2015-11-25T20:59:24Z",
  "updated_at": "2015-11-25T20:59:24Z",
  "body": "unfortunately you may need to get more information from your admin on getting the VM connected/allowed to the internet, as it's outside the scope of kitematic."
}
]
