[
{
  "url": "https://api.github.com/repos/docker/kitematic/issues/comments/88707303",
  "html_url": "https://github.com/docker/kitematic/issues/351#issuecomment-88707303",
  "issue_url": "https://api.github.com/repos/docker/kitematic/issues/351",
  "id": 88707303,
  "user": {
    "login": "jeffdm",
    "id": 251292,
    "avatar_url": "https://avatars.githubusercontent.com/u/251292?v=3",
    "gravatar_id": "",
    "url": "https://api.github.com/users/jeffdm",
    "html_url": "https://github.com/jeffdm",
    "followers_url": "https://api.github.com/users/jeffdm/followers",
    "following_url": "https://api.github.com/users/jeffdm/following{/other_user}",
    "gists_url": "https://api.github.com/users/jeffdm/gists{/gist_id}",
    "starred_url": "https://api.github.com/users/jeffdm/starred{/owner}{/repo}",
    "subscriptions_url": "https://api.github.com/users/jeffdm/subscriptions",
    "organizations_url": "https://api.github.com/users/jeffdm/orgs",
    "repos_url": "https://api.github.com/users/jeffdm/repos",
    "events_url": "https://api.github.com/users/jeffdm/events{/privacy}",
    "received_events_url": "https://api.github.com/users/jeffdm/received_events",
    "type": "User",
    "site_admin": false
  },
  "created_at": "2015-04-02T02:46:44Z",
  "updated_at": "2015-04-02T02:46:44Z",
  "body": "Thanks for the issue,\r\n\r\nAre the files in the `/var/mqm` directory? They may have UID of 1000 because of the VirtualBox shared folders feature used to host-mount volumes on Mac OS X."
}
, {
  "url": "https://api.github.com/repos/docker/kitematic/issues/comments/88795648",
  "html_url": "https://github.com/docker/kitematic/issues/351#issuecomment-88795648",
  "issue_url": "https://api.github.com/repos/docker/kitematic/issues/351",
  "id": 88795648,
  "user": {
    "login": "RobQuads",
    "id": 2182970,
    "avatar_url": "https://avatars.githubusercontent.com/u/2182970?v=3",
    "gravatar_id": "",
    "url": "https://api.github.com/users/RobQuads",
    "html_url": "https://github.com/RobQuads",
    "followers_url": "https://api.github.com/users/RobQuads/followers",
    "following_url": "https://api.github.com/users/RobQuads/following{/other_user}",
    "gists_url": "https://api.github.com/users/RobQuads/gists{/gist_id}",
    "starred_url": "https://api.github.com/users/RobQuads/starred{/owner}{/repo}",
    "subscriptions_url": "https://api.github.com/users/RobQuads/subscriptions",
    "organizations_url": "https://api.github.com/users/RobQuads/orgs",
    "repos_url": "https://api.github.com/users/RobQuads/repos",
    "events_url": "https://api.github.com/users/RobQuads/events{/privacy}",
    "received_events_url": "https://api.github.com/users/RobQuads/received_events",
    "type": "User",
    "site_admin": false
  },
  "created_at": "2015-04-02T07:36:59Z",
  "updated_at": "2015-04-02T07:36:59Z",
  "body": "Yes the files are created in the local /var/mqm directory"
}
, {
  "url": "https://api.github.com/repos/docker/kitematic/issues/comments/89390253",
  "html_url": "https://github.com/docker/kitematic/issues/351#issuecomment-89390253",
  "issue_url": "https://api.github.com/repos/docker/kitematic/issues/351",
  "id": 89390253,
  "user": {
    "login": "jeffdm",
    "id": 251292,
    "avatar_url": "https://avatars.githubusercontent.com/u/251292?v=3",
    "gravatar_id": "",
    "url": "https://api.github.com/users/jeffdm",
    "html_url": "https://github.com/jeffdm",
    "followers_url": "https://api.github.com/users/jeffdm/followers",
    "following_url": "https://api.github.com/users/jeffdm/following{/other_user}",
    "gists_url": "https://api.github.com/users/jeffdm/gists{/gist_id}",
    "starred_url": "https://api.github.com/users/jeffdm/starred{/owner}{/repo}",
    "subscriptions_url": "https://api.github.com/users/jeffdm/subscriptions",
    "organizations_url": "https://api.github.com/users/jeffdm/orgs",
    "repos_url": "https://api.github.com/users/jeffdm/repos",
    "events_url": "https://api.github.com/users/jeffdm/events{/privacy}",
    "received_events_url": "https://api.github.com/users/jeffdm/received_events",
    "type": "User",
    "site_admin": false
  },
  "created_at": "2015-04-03T18:49:00Z",
  "updated_at": "2015-04-03T18:49:00Z",
  "body": "For now, would this work? Re-create the container, but make sure _not_ to:\r\n- Click on the \"edit files\" directory icons in Kitematic (that will host mount the volumes)\r\n- Choose a directory to host mount\r\n\r\nThe UI/UX around mounting volumes needs some work, thanks for posting the issue."
}
, {
  "url": "https://api.github.com/repos/docker/kitematic/issues/comments/99360954",
  "html_url": "https://github.com/docker/kitematic/issues/351#issuecomment-99360954",
  "issue_url": "https://api.github.com/repos/docker/kitematic/issues/351",
  "id": 99360954,
  "user": {
    "login": "RobQuads",
    "id": 2182970,
    "avatar_url": "https://avatars.githubusercontent.com/u/2182970?v=3",
    "gravatar_id": "",
    "url": "https://api.github.com/users/RobQuads",
    "html_url": "https://github.com/RobQuads",
    "followers_url": "https://api.github.com/users/RobQuads/followers",
    "following_url": "https://api.github.com/users/RobQuads/following{/other_user}",
    "gists_url": "https://api.github.com/users/RobQuads/gists{/gist_id}",
    "starred_url": "https://api.github.com/users/RobQuads/starred{/owner}{/repo}",
    "subscriptions_url": "https://api.github.com/users/RobQuads/subscriptions",
    "organizations_url": "https://api.github.com/users/RobQuads/orgs",
    "repos_url": "https://api.github.com/users/RobQuads/repos",
    "events_url": "https://api.github.com/users/RobQuads/events{/privacy}",
    "received_events_url": "https://api.github.com/users/RobQuads/received_events",
    "type": "User",
    "site_admin": false
  },
  "created_at": "2015-05-06T07:52:01Z",
  "updated_at": "2015-05-06T07:52:01Z",
  "body": "It looks like the problem is down to [boot2docker issue #587 ](https://github.com/boot2docker/boot2docker/issues/587#issuecomment-99145322) which has been around for months so doesn't looks like there is an outlook on the fix.\r\n\r\nIs it possible to enable the ability to use the storage on the boot2docker image instead of a local folder i.e. something like /mnt/sda1/mqadvanced/. Running with that from the docker command line seems to work."
}
, {
  "url": "https://api.github.com/repos/docker/kitematic/issues/comments/119490645",
  "html_url": "https://github.com/docker/kitematic/issues/351#issuecomment-119490645",
  "issue_url": "https://api.github.com/repos/docker/kitematic/issues/351",
  "id": 119490645,
  "user": {
    "login": "timbrandin",
    "id": 1715834,
    "avatar_url": "https://avatars.githubusercontent.com/u/1715834?v=3",
    "gravatar_id": "",
    "url": "https://api.github.com/users/timbrandin",
    "html_url": "https://github.com/timbrandin",
    "followers_url": "https://api.github.com/users/timbrandin/followers",
    "following_url": "https://api.github.com/users/timbrandin/following{/other_user}",
    "gists_url": "https://api.github.com/users/timbrandin/gists{/gist_id}",
    "starred_url": "https://api.github.com/users/timbrandin/starred{/owner}{/repo}",
    "subscriptions_url": "https://api.github.com/users/timbrandin/subscriptions",
    "organizations_url": "https://api.github.com/users/timbrandin/orgs",
    "repos_url": "https://api.github.com/users/timbrandin/repos",
    "events_url": "https://api.github.com/users/timbrandin/events{/privacy}",
    "received_events_url": "https://api.github.com/users/timbrandin/received_events",
    "type": "User",
    "site_admin": false
  },
  "created_at": "2015-07-08T08:25:17Z",
  "updated_at": "2015-07-08T08:25:17Z",
  "body": "Why not use NFS?\r\nhttps://github.com/boot2docker/boot2docker/issues/581#issuecomment-74535277"
}
, {
  "url": "https://api.github.com/repos/docker/kitematic/issues/comments/119503424",
  "html_url": "https://github.com/docker/kitematic/issues/351#issuecomment-119503424",
  "issue_url": "https://api.github.com/repos/docker/kitematic/issues/351",
  "id": 119503424,
  "user": {
    "login": "timbrandin",
    "id": 1715834,
    "avatar_url": "https://avatars.githubusercontent.com/u/1715834?v=3",
    "gravatar_id": "",
    "url": "https://api.github.com/users/timbrandin",
    "html_url": "https://github.com/timbrandin",
    "followers_url": "https://api.github.com/users/timbrandin/followers",
    "following_url": "https://api.github.com/users/timbrandin/following{/other_user}",
    "gists_url": "https://api.github.com/users/timbrandin/gists{/gist_id}",
    "starred_url": "https://api.github.com/users/timbrandin/starred{/owner}{/repo}",
    "subscriptions_url": "https://api.github.com/users/timbrandin/subscriptions",
    "organizations_url": "https://api.github.com/users/timbrandin/orgs",
    "repos_url": "https://api.github.com/users/timbrandin/repos",
    "events_url": "https://api.github.com/users/timbrandin/events{/privacy}",
    "received_events_url": "https://api.github.com/users/timbrandin/received_events",
    "type": "User",
    "site_admin": false
  },
  "created_at": "2015-07-08T08:52:56Z",
  "updated_at": "2015-07-08T08:52:56Z",
  "body": "We could also add a guide telling this helps:\r\nhttps://github.com/mybethel/docker-drupal-kitematic/compare/master...timbrandin:master"
}
]
