[
{
  "url": "https://api.github.com/repos/heroku/heroku-buildpack-apt/issues/1",
  "labels_url": "https://api.github.com/repos/heroku/heroku-buildpack-apt/issues/1/labels{/name}",
  "comments_url": "https://api.github.com/repos/heroku/heroku-buildpack-apt/issues/1/comments",
  "events_url": "https://api.github.com/repos/heroku/heroku-buildpack-apt/issues/1/events",
  "html_url": "https://github.com/heroku/heroku-buildpack-apt/pull/1",
  "id": 64691237,
  "number": 1,
  "title": "Catch all subdirectories from .app/usr/lib",
  "user": {
    "login": "zunda",
    "id": 30968,
    "avatar_url": "https://avatars.githubusercontent.com/u/30968?v=3",
    "gravatar_id": "",
    "url": "https://api.github.com/users/zunda",
    "html_url": "https://github.com/zunda",
    "followers_url": "https://api.github.com/users/zunda/followers",
    "following_url": "https://api.github.com/users/zunda/following{/other_user}",
    "gists_url": "https://api.github.com/users/zunda/gists{/gist_id}",
    "starred_url": "https://api.github.com/users/zunda/starred{/owner}{/repo}",
    "subscriptions_url": "https://api.github.com/users/zunda/subscriptions",
    "organizations_url": "https://api.github.com/users/zunda/orgs",
    "repos_url": "https://api.github.com/users/zunda/repos",
    "events_url": "https://api.github.com/users/zunda/events{/privacy}",
    "received_events_url": "https://api.github.com/users/zunda/received_events",
    "type": "User",
    "site_admin": false
  },
  "labels": [],
  "state": "closed",
  "locked": false,
  "assignee": null,
  "milestone": null,
  "comments": 1,
  "created_at": "2015-03-27T04:29:59Z",
  "updated_at": "2015-03-27T07:51:07Z",
  "closed_at": "2015-03-27T07:51:07Z",
  "pull_request": {
    "url": "https://api.github.com/repos/heroku/heroku-buildpack-apt/pulls/1",
    "html_url": "https://github.com/heroku/heroku-buildpack-apt/pull/1",
    "diff_url": "https://github.com/heroku/heroku-buildpack-apt/pull/1.diff",
    "patch_url": "https://github.com/heroku/heroku-buildpack-apt/pull/1.patch"
  },
  "body": "Include .app/usr/lib and its sub directories for `LD_LIBRARY_PATH` and `LIBRARY_PATH`\r\n\r\nSome apt packages leave their libraries under sub-directories of `/usr/lib` and let Debian alternatives system create symbolic links back to `/usr/lib`. Because builpack-apt can not run alternatives, those libraries can not be found by binaries installed by buildpack-apt unless their paths are included in `LD_LIBRARY_PATH` and `LIBRARY_PATH`. For example, `ogr2ogr` command from gdal-bin package requires `libblas.so.3` installed in `/usr/lib/libblas/`.\r\n\r\nThis pull request is to let the build process find sub-directories of `/usr/lib` so that those libraries will be found by linker when a binary is executed.\r\n\r\n"
}
]
