[
{
  "url": "https://api.github.com/repos/heroku/hk/issues/198",
  "labels_url": "https://api.github.com/repos/heroku/hk/issues/198/labels{/name}",
  "comments_url": "https://api.github.com/repos/heroku/hk/issues/198/comments",
  "events_url": "https://api.github.com/repos/heroku/hk/issues/198/events",
  "html_url": "https://github.com/heroku/hk/pull/198",
  "id": 109458775,
  "number": 198,
  "title": "update short description for ssl-cert-rollback",
  "user": {
    "login": "koenpunt",
    "id": 351038,
    "avatar_url": "https://avatars.githubusercontent.com/u/351038?v=3",
    "gravatar_id": "",
    "url": "https://api.github.com/users/koenpunt",
    "html_url": "https://github.com/koenpunt",
    "followers_url": "https://api.github.com/users/koenpunt/followers",
    "following_url": "https://api.github.com/users/koenpunt/following{/other_user}",
    "gists_url": "https://api.github.com/users/koenpunt/gists{/gist_id}",
    "starred_url": "https://api.github.com/users/koenpunt/starred{/owner}{/repo}",
    "subscriptions_url": "https://api.github.com/users/koenpunt/subscriptions",
    "organizations_url": "https://api.github.com/users/koenpunt/orgs",
    "repos_url": "https://api.github.com/users/koenpunt/repos",
    "events_url": "https://api.github.com/users/koenpunt/events{/privacy}",
    "received_events_url": "https://api.github.com/users/koenpunt/received_events",
    "type": "User",
    "site_admin": false
  },
  "labels": [],
  "state": "open",
  "locked": false,
  "assignee": null,
  "milestone": null,
  "comments": 1,
  "created_at": "2015-10-02T09:24:11Z",
  "updated_at": "2015-10-02T16:34:07Z",
  "closed_at": null,
  "pull_request": {
    "url": "https://api.github.com/repos/heroku/hk/pulls/198",
    "html_url": "https://github.com/heroku/hk/pull/198",
    "diff_url": "https://github.com/heroku/hk/pull/198.diff",
    "patch_url": "https://github.com/heroku/hk/pull/198.patch"
  },
  "body": ""
}
, {
  "url": "https://api.github.com/repos/heroku/hk/issues/197",
  "labels_url": "https://api.github.com/repos/heroku/hk/issues/197/labels{/name}",
  "comments_url": "https://api.github.com/repos/heroku/hk/issues/197/comments",
  "events_url": "https://api.github.com/repos/heroku/hk/issues/197/events",
  "html_url": "https://github.com/heroku/hk/issues/197",
  "id": 89397160,
  "number": 197,
  "title": "Pipe'ing to hk run",
  "user": {
    "login": "divoxx",
    "id": 2863,
    "avatar_url": "https://avatars.githubusercontent.com/u/2863?v=3",
    "gravatar_id": "",
    "url": "https://api.github.com/users/divoxx",
    "html_url": "https://github.com/divoxx",
    "followers_url": "https://api.github.com/users/divoxx/followers",
    "following_url": "https://api.github.com/users/divoxx/following{/other_user}",
    "gists_url": "https://api.github.com/users/divoxx/gists{/gist_id}",
    "starred_url": "https://api.github.com/users/divoxx/starred{/owner}{/repo}",
    "subscriptions_url": "https://api.github.com/users/divoxx/subscriptions",
    "organizations_url": "https://api.github.com/users/divoxx/orgs",
    "repos_url": "https://api.github.com/users/divoxx/repos",
    "events_url": "https://api.github.com/users/divoxx/events{/privacy}",
    "received_events_url": "https://api.github.com/users/divoxx/received_events",
    "type": "User",
    "site_admin": false
  },
  "labels": [],
  "state": "open",
  "locked": false,
  "assignee": null,
  "milestone": null,
  "comments": 2,
  "created_at": "2015-06-18T21:02:00Z",
  "updated_at": "2015-06-18T23:50:13Z",
  "closed_at": null,
  "body": "Would be really really nice if `hk run` STDIN would be piped through the connection to the remote command stdin.\r\n\r\nSo for example `cat foo | hk run \"cat` would actually work."
}
, {
  "url": "https://api.github.com/repos/heroku/hk/issues/196",
  "labels_url": "https://api.github.com/repos/heroku/hk/issues/196/labels{/name}",
  "comments_url": "https://api.github.com/repos/heroku/hk/issues/196/comments",
  "events_url": "https://api.github.com/repos/heroku/hk/issues/196/events",
  "html_url": "https://github.com/heroku/hk/issues/196",
  "id": 71429159,
  "number": 196,
  "title": "https://hk.heroku.com/hk.gz endpoint seems to be 404-ing",
  "user": {
    "login": "paxan",
    "id": 20566,
    "avatar_url": "https://avatars.githubusercontent.com/u/20566?v=3",
    "gravatar_id": "",
    "url": "https://api.github.com/users/paxan",
    "html_url": "https://github.com/paxan",
    "followers_url": "https://api.github.com/users/paxan/followers",
    "following_url": "https://api.github.com/users/paxan/following{/other_user}",
    "gists_url": "https://api.github.com/users/paxan/gists{/gist_id}",
    "starred_url": "https://api.github.com/users/paxan/starred{/owner}{/repo}",
    "subscriptions_url": "https://api.github.com/users/paxan/subscriptions",
    "organizations_url": "https://api.github.com/users/paxan/orgs",
    "repos_url": "https://api.github.com/users/paxan/repos",
    "events_url": "https://api.github.com/users/paxan/events{/privacy}",
    "received_events_url": "https://api.github.com/users/paxan/received_events",
    "type": "User",
    "site_admin": false
  },
  "labels": [],
  "state": "open",
  "locked": false,
  "assignee": null,
  "milestone": null,
  "comments": 4,
  "created_at": "2015-04-27T23:24:50Z",
  "updated_at": "2015-04-28T17:36:50Z",
  "closed_at": null,
  "body": "```\r\n$ curl -L -A \"$(uname -sp)\" https://hk.heroku.com/hk.gz\r\n404 page not found\r\n```"
}
, {
  "url": "https://api.github.com/repos/heroku/hk/issues/194",
  "labels_url": "https://api.github.com/repos/heroku/hk/issues/194/labels{/name}",
  "comments_url": "https://api.github.com/repos/heroku/hk/issues/194/comments",
  "events_url": "https://api.github.com/repos/heroku/hk/issues/194/events",
  "html_url": "https://github.com/heroku/hk/issues/194",
  "id": 67227357,
  "number": 194,
  "title": "-s <size> argument for run only accepts allcaps arguments",
  "user": {
    "login": "bgentry",
    "id": 114033,
    "avatar_url": "https://avatars.githubusercontent.com/u/114033?v=3",
    "gravatar_id": "",
    "url": "https://api.github.com/users/bgentry",
    "html_url": "https://github.com/bgentry",
    "followers_url": "https://api.github.com/users/bgentry/followers",
    "following_url": "https://api.github.com/users/bgentry/following{/other_user}",
    "gists_url": "https://api.github.com/users/bgentry/gists{/gist_id}",
    "starred_url": "https://api.github.com/users/bgentry/starred{/owner}{/repo}",
    "subscriptions_url": "https://api.github.com/users/bgentry/subscriptions",
    "organizations_url": "https://api.github.com/users/bgentry/orgs",
    "repos_url": "https://api.github.com/users/bgentry/repos",
    "events_url": "https://api.github.com/users/bgentry/events{/privacy}",
    "received_events_url": "https://api.github.com/users/bgentry/received_events",
    "type": "User",
    "site_admin": false
  },
  "labels": [],
  "state": "open",
  "locked": false,
  "assignee": null,
  "milestone": null,
  "comments": 0,
  "created_at": "2015-04-08T21:48:33Z",
  "updated_at": "2015-04-08T21:48:33Z",
  "closed_at": null,
  "body": "I was quite confused when `hk run -s px` didn't work, eventually figured out I had to `hk run -s PX`. It didn't tell me why it was failing, either, just gave me usage:\r\n\r\n```\r\n➜  hk run -s px bash\r\nUsage: hk run [-a <app or remote>] [-s <size>] [-d] <command> [<argument>...]\r\nUse 'hk help run' for more information.\r\n➜  hk run -s 2x bash      \r\nUsage: hk run [-a <app or remote>] [-s <size>] [-d] <command> [<argument>...]\r\nUse 'hk help run' for more information.\r\n```\r\n\r\nSeems like it should be more tolerant of lowercase.\r\n\r\nMaybe this also applies to other commands that accept a dyno size arg? (scale in particular)"
}
, {
  "url": "https://api.github.com/repos/heroku/hk/issues/193",
  "labels_url": "https://api.github.com/repos/heroku/hk/issues/193/labels{/name}",
  "comments_url": "https://api.github.com/repos/heroku/hk/issues/193/comments",
  "events_url": "https://api.github.com/repos/heroku/hk/issues/193/events",
  "html_url": "https://github.com/heroku/hk/issues/193",
  "id": 60549721,
  "number": 193,
  "title": "stack-related commands",
  "user": {
    "login": "zacronos",
    "id": 3067460,
    "avatar_url": "https://avatars.githubusercontent.com/u/3067460?v=3",
    "gravatar_id": "",
    "url": "https://api.github.com/users/zacronos",
    "html_url": "https://github.com/zacronos",
    "followers_url": "https://api.github.com/users/zacronos/followers",
    "following_url": "https://api.github.com/users/zacronos/following{/other_user}",
    "gists_url": "https://api.github.com/users/zacronos/gists{/gist_id}",
    "starred_url": "https://api.github.com/users/zacronos/starred{/owner}{/repo}",
    "subscriptions_url": "https://api.github.com/users/zacronos/subscriptions",
    "organizations_url": "https://api.github.com/users/zacronos/orgs",
    "repos_url": "https://api.github.com/users/zacronos/repos",
    "events_url": "https://api.github.com/users/zacronos/events{/privacy}",
    "received_events_url": "https://api.github.com/users/zacronos/received_events",
    "type": "User",
    "site_admin": false
  },
  "labels": [],
  "state": "open",
  "locked": false,
  "assignee": null,
  "milestone": null,
  "comments": 0,
  "created_at": "2015-03-10T18:50:35Z",
  "updated_at": "2015-03-11T14:08:13Z",
  "closed_at": null,
  "body": "When upgrading the stack for an app (such as from cedar to cedar-14), the easiest method is to use the `heroku stack:set` command.  There is currently no equivalent in `hk`.\r\n\r\nWhen testing on a new stack before migrating a production app, it is also very important to be able to use `heroku fork --stack` or at least `heroku create --stack`, neither of which has an equivalent in `hk`.\r\n\r\nAs I'm sure cedar-14 will not be the last stack ever released, this will be useful not just for cedar to cedar-14 upgrades, but also for other stack upgrades in the future.\r\n\r\nFor reference, Heroku's official recommended steps for migrating between stacks: https://devcenter.heroku.com/articles/cedar-14-migration"
}
, {
  "url": "https://api.github.com/repos/heroku/hk/issues/186",
  "labels_url": "https://api.github.com/repos/heroku/hk/issues/186/labels{/name}",
  "comments_url": "https://api.github.com/repos/heroku/hk/issues/186/comments",
  "events_url": "https://api.github.com/repos/heroku/hk/issues/186/events",
  "html_url": "https://github.com/heroku/hk/pull/186",
  "id": 53429276,
  "number": 186,
  "title": "Don't error when organization endpoint 404's",
  "user": {
    "login": "brandur",
    "id": 96890,
    "avatar_url": "https://avatars.githubusercontent.com/u/96890?v=3",
    "gravatar_id": "",
    "url": "https://api.github.com/users/brandur",
    "html_url": "https://github.com/brandur",
    "followers_url": "https://api.github.com/users/brandur/followers",
    "following_url": "https://api.github.com/users/brandur/following{/other_user}",
    "gists_url": "https://api.github.com/users/brandur/gists{/gist_id}",
    "starred_url": "https://api.github.com/users/brandur/starred{/owner}{/repo}",
    "subscriptions_url": "https://api.github.com/users/brandur/subscriptions",
    "organizations_url": "https://api.github.com/users/brandur/orgs",
    "repos_url": "https://api.github.com/users/brandur/repos",
    "events_url": "https://api.github.com/users/brandur/events{/privacy}",
    "received_events_url": "https://api.github.com/users/brandur/received_events",
    "type": "User",
    "site_admin": false
  },
  "labels": [],
  "state": "open",
  "locked": false,
  "assignee": null,
  "milestone": null,
  "comments": 4,
  "created_at": "2015-01-05T18:52:54Z",
  "updated_at": "2015-04-23T22:36:53Z",
  "closed_at": null,
  "pull_request": {
    "url": "https://api.github.com/repos/heroku/hk/pulls/186",
    "html_url": "https://github.com/heroku/hk/pull/186",
    "diff_url": "https://github.com/heroku/hk/pull/186.diff",
    "patch_url": "https://github.com/heroku/hk/pull/186.patch"
  },
  "body": "This is expected to happen if requesting an app that's not in an org.\n\nFixes #184."
}
, {
  "url": "https://api.github.com/repos/heroku/hk/issues/185",
  "labels_url": "https://api.github.com/repos/heroku/hk/issues/185/labels{/name}",
  "comments_url": "https://api.github.com/repos/heroku/hk/issues/185/comments",
  "events_url": "https://api.github.com/repos/heroku/hk/issues/185/events",
  "html_url": "https://github.com/heroku/hk/pull/185",
  "id": 53028456,
  "number": 185,
  "title": "Correct command name in usage description",
  "user": {
    "login": "koenpunt",
    "id": 351038,
    "avatar_url": "https://avatars.githubusercontent.com/u/351038?v=3",
    "gravatar_id": "",
    "url": "https://api.github.com/users/koenpunt",
    "html_url": "https://github.com/koenpunt",
    "followers_url": "https://api.github.com/users/koenpunt/followers",
    "following_url": "https://api.github.com/users/koenpunt/following{/other_user}",
    "gists_url": "https://api.github.com/users/koenpunt/gists{/gist_id}",
    "starred_url": "https://api.github.com/users/koenpunt/starred{/owner}{/repo}",
    "subscriptions_url": "https://api.github.com/users/koenpunt/subscriptions",
    "organizations_url": "https://api.github.com/users/koenpunt/orgs",
    "repos_url": "https://api.github.com/users/koenpunt/repos",
    "events_url": "https://api.github.com/users/koenpunt/events{/privacy}",
    "received_events_url": "https://api.github.com/users/koenpunt/received_events",
    "type": "User",
    "site_admin": false
  },
  "labels": [],
  "state": "open",
  "locked": false,
  "assignee": null,
  "milestone": null,
  "comments": 0,
  "created_at": "2014-12-29T09:13:17Z",
  "updated_at": "2014-12-29T09:13:17Z",
  "closed_at": null,
  "pull_request": {
    "url": "https://api.github.com/repos/heroku/hk/pulls/185",
    "html_url": "https://github.com/heroku/hk/pull/185",
    "diff_url": "https://github.com/heroku/hk/pull/185.diff",
    "patch_url": "https://github.com/heroku/hk/pull/185.patch"
  },
  "body": "Doesn't need any more explanation I guess :)"
}
, {
  "url": "https://api.github.com/repos/heroku/hk/issues/184",
  "labels_url": "https://api.github.com/repos/heroku/hk/issues/184/labels{/name}",
  "comments_url": "https://api.github.com/repos/heroku/hk/issues/184/comments",
  "events_url": "https://api.github.com/repos/heroku/hk/issues/184/events",
  "html_url": "https://github.com/heroku/hk/issues/184",
  "id": 52632398,
  "number": 184,
  "title": "access-add cannot find the app",
  "user": {
    "login": "watson",
    "id": 10602,
    "avatar_url": "https://avatars.githubusercontent.com/u/10602?v=3",
    "gravatar_id": "",
    "url": "https://api.github.com/users/watson",
    "html_url": "https://github.com/watson",
    "followers_url": "https://api.github.com/users/watson/followers",
    "following_url": "https://api.github.com/users/watson/following{/other_user}",
    "gists_url": "https://api.github.com/users/watson/gists{/gist_id}",
    "starred_url": "https://api.github.com/users/watson/starred{/owner}{/repo}",
    "subscriptions_url": "https://api.github.com/users/watson/subscriptions",
    "organizations_url": "https://api.github.com/users/watson/orgs",
    "repos_url": "https://api.github.com/users/watson/repos",
    "events_url": "https://api.github.com/users/watson/events{/privacy}",
    "received_events_url": "https://api.github.com/users/watson/received_events",
    "type": "User",
    "site_admin": false
  },
  "labels": [],
  "state": "open",
  "locked": false,
  "assignee": null,
  "milestone": null,
  "comments": 2,
  "created_at": "2014-12-22T09:23:28Z",
  "updated_at": "2015-01-05T18:54:11Z",
  "closed_at": null,
  "body": "The `hk access-add` command fails 100% of the time with the error `error: Couldn't find that app.`. It doesn't matter if I use the `-a <app name>` option or not. And if I write any other command it finds the app just fine. I'm using hk version 20140604."
}
, {
  "url": "https://api.github.com/repos/heroku/hk/issues/179",
  "labels_url": "https://api.github.com/repos/heroku/hk/issues/179/labels{/name}",
  "comments_url": "https://api.github.com/repos/heroku/hk/issues/179/comments",
  "events_url": "https://api.github.com/repos/heroku/hk/issues/179/events",
  "html_url": "https://github.com/heroku/hk/issues/179",
  "id": 47791925,
  "number": 179,
  "title": "\"hk drains\" should print token in addition to (instead of?) the drain id",
  "user": {
    "login": "paxan",
    "id": 20566,
    "avatar_url": "https://avatars.githubusercontent.com/u/20566?v=3",
    "gravatar_id": "",
    "url": "https://api.github.com/users/paxan",
    "html_url": "https://github.com/paxan",
    "followers_url": "https://api.github.com/users/paxan/followers",
    "following_url": "https://api.github.com/users/paxan/following{/other_user}",
    "gists_url": "https://api.github.com/users/paxan/gists{/gist_id}",
    "starred_url": "https://api.github.com/users/paxan/starred{/owner}{/repo}",
    "subscriptions_url": "https://api.github.com/users/paxan/subscriptions",
    "organizations_url": "https://api.github.com/users/paxan/orgs",
    "repos_url": "https://api.github.com/users/paxan/repos",
    "events_url": "https://api.github.com/users/paxan/events{/privacy}",
    "received_events_url": "https://api.github.com/users/paxan/received_events",
    "type": "User",
    "site_admin": false
  },
  "labels": [],
  "state": "open",
  "locked": false,
  "assignee": null,
  "milestone": null,
  "comments": 4,
  "created_at": "2014-11-05T02:12:45Z",
  "updated_at": "2014-11-05T18:12:17Z",
  "closed_at": null,
  "body": "When I ask `hk` to display the app's drains it prints:\r\n```\r\n19f25436-459e-400c-83d4-25901999b4af  https://...\r\n48cc936e-bb42-47ec-a684-fd4b071f8883  https://...\r\n```\r\n... the UUIDs shown above are the drain ids.\r\nThis leads to confusion because elsewhere the drain tokens are used to identify the drain.\r\nFor example, Logplex sends the drain token in `Logplex-Drain-Token` HTTP request header.\r\nProbably should consider showing both id and token. Or just token. I am not exactly sure.\r\n\r\nAs a workaround, I've been using this command to get the drain tokens:\r\n```\r\nhk api get /apps/<YOURAPPHERE>/log-drains | jq '.[].token'\r\n```"
}
, {
  "url": "https://api.github.com/repos/heroku/hk/issues/177",
  "labels_url": "https://api.github.com/repos/heroku/hk/issues/177/labels{/name}",
  "comments_url": "https://api.github.com/repos/heroku/hk/issues/177/comments",
  "events_url": "https://api.github.com/repos/heroku/hk/issues/177/events",
  "html_url": "https://github.com/heroku/hk/issues/177",
  "id": 46857156,
  "number": 177,
  "title": "feature request: merge which-app into info command",
  "user": {
    "login": "kr",
    "id": 4178,
    "avatar_url": "https://avatars.githubusercontent.com/u/4178?v=3",
    "gravatar_id": "",
    "url": "https://api.github.com/users/kr",
    "html_url": "https://github.com/kr",
    "followers_url": "https://api.github.com/users/kr/followers",
    "following_url": "https://api.github.com/users/kr/following{/other_user}",
    "gists_url": "https://api.github.com/users/kr/gists{/gist_id}",
    "starred_url": "https://api.github.com/users/kr/starred{/owner}{/repo}",
    "subscriptions_url": "https://api.github.com/users/kr/subscriptions",
    "organizations_url": "https://api.github.com/users/kr/orgs",
    "repos_url": "https://api.github.com/users/kr/repos",
    "events_url": "https://api.github.com/users/kr/events{/privacy}",
    "received_events_url": "https://api.github.com/users/kr/received_events",
    "type": "User",
    "site_admin": false
  },
  "labels": [],
  "state": "open",
  "locked": false,
  "assignee": null,
  "milestone": null,
  "comments": 0,
  "created_at": "2014-10-26T22:28:24Z",
  "updated_at": "2014-10-26T22:28:24Z",
  "closed_at": null,
  "body": "Instead of a command just for the app name, `hk which-app`, it might be cool if we could type `hk info name`. Same goes for `hk url`."
}
, {
  "url": "https://api.github.com/repos/heroku/hk/issues/175",
  "labels_url": "https://api.github.com/repos/heroku/hk/issues/175/labels{/name}",
  "comments_url": "https://api.github.com/repos/heroku/hk/issues/175/comments",
  "events_url": "https://api.github.com/repos/heroku/hk/issues/175/events",
  "html_url": "https://github.com/heroku/hk/issues/175",
  "id": 44349555,
  "number": 175,
  "title": "hk's use of the plugin system modifies its own behavior",
  "user": {
    "login": "brandur",
    "id": 96890,
    "avatar_url": "https://avatars.githubusercontent.com/u/96890?v=3",
    "gravatar_id": "",
    "url": "https://api.github.com/users/brandur",
    "html_url": "https://github.com/brandur",
    "followers_url": "https://api.github.com/users/brandur/followers",
    "following_url": "https://api.github.com/users/brandur/following{/other_user}",
    "gists_url": "https://api.github.com/users/brandur/gists{/gist_id}",
    "starred_url": "https://api.github.com/users/brandur/starred{/owner}{/repo}",
    "subscriptions_url": "https://api.github.com/users/brandur/subscriptions",
    "organizations_url": "https://api.github.com/users/brandur/orgs",
    "repos_url": "https://api.github.com/users/brandur/repos",
    "events_url": "https://api.github.com/users/brandur/events{/privacy}",
    "received_events_url": "https://api.github.com/users/brandur/received_events",
    "type": "User",
    "site_admin": false
  },
  "labels": [],
  "state": "open",
  "locked": false,
  "assignee": null,
  "milestone": null,
  "comments": 4,
  "created_at": "2014-09-29T20:08:58Z",
  "updated_at": "2014-09-30T15:57:38Z",
  "closed_at": null,
  "body": "I'm logging an issue to track this because I just spent quite some time trying to debug some very confusing behavior that resulted from it.\r\n\r\nWhen hk is called, it will allow the env var `HEROKU_API_URL` to overwrite whatever credentials it might otherwise have pulled from `.netrc`.\r\n\r\nWhen hk calls into a plugin, it passes that plugin `HEROKU_API_URL` (which includes user/pass credentials) so that it may interact with the API if it so desires.\r\n\r\nIf a plugin calls back into hk, the `HEROKU_API_URL` that was set by hk on the first pass will actually be picked up and used for the second pass of hk. This may be desirable under some circumstances in that a plugin might want to modify the URL and/or credentials that are used on the second run of hk, but in most cases, it's probably just confusing.\r\n\r\nAs a fix, I'd suggest that we make the env vars that hk respects and that its plugins respect different (say `HEROKU_API_URL` + `HEROKU_PLUGIN_API_URL`; I hate that latter name, but for example), and if a plugin did want to modify credentials of hk, it would explicitly override the former itself. That way, hk would never change its behavior implicitly, as it does today."
}
, {
  "url": "https://api.github.com/repos/heroku/hk/issues/163",
  "labels_url": "https://api.github.com/repos/heroku/hk/issues/163/labels{/name}",
  "comments_url": "https://api.github.com/repos/heroku/hk/issues/163/comments",
  "events_url": "https://api.github.com/repos/heroku/hk/issues/163/events",
  "html_url": "https://github.com/heroku/hk/issues/163",
  "id": 34815536,
  "number": 163,
  "title": "Add command to roll Postgres credentials (e.g. `pg-credentials-reset`)",
  "user": {
    "login": "wuputah",
    "id": 3321,
    "avatar_url": "https://avatars.githubusercontent.com/u/3321?v=3",
    "gravatar_id": "",
    "url": "https://api.github.com/users/wuputah",
    "html_url": "https://github.com/wuputah",
    "followers_url": "https://api.github.com/users/wuputah/followers",
    "following_url": "https://api.github.com/users/wuputah/following{/other_user}",
    "gists_url": "https://api.github.com/users/wuputah/gists{/gist_id}",
    "starred_url": "https://api.github.com/users/wuputah/starred{/owner}{/repo}",
    "subscriptions_url": "https://api.github.com/users/wuputah/subscriptions",
    "organizations_url": "https://api.github.com/users/wuputah/orgs",
    "repos_url": "https://api.github.com/users/wuputah/repos",
    "events_url": "https://api.github.com/users/wuputah/events{/privacy}",
    "received_events_url": "https://api.github.com/users/wuputah/received_events",
    "type": "User",
    "site_admin": false
  },
  "labels": [
    {
      "url": "https://api.github.com/repos/heroku/hk/labels/feature%20request",
      "name": "feature request",
      "color": "c7def8"
    }
  ],
  "state": "open",
  "locked": false,
  "assignee": null,
  "milestone": null,
  "comments": 0,
  "created_at": "2014-06-02T22:09:09Z",
  "updated_at": "2014-06-02T22:09:23Z",
  "closed_at": null,
  "body": "Just documenting that this is missing."
}
, {
  "url": "https://api.github.com/repos/heroku/hk/issues/161",
  "labels_url": "https://api.github.com/repos/heroku/hk/issues/161/labels{/name}",
  "comments_url": "https://api.github.com/repos/heroku/hk/issues/161/comments",
  "events_url": "https://api.github.com/repos/heroku/hk/issues/161/events",
  "html_url": "https://github.com/heroku/hk/issues/161",
  "id": 33826573,
  "number": 161,
  "title": "Do we make sure it's never interactive when stdout is not a tty?",
  "user": {
    "login": "kch",
    "id": 8216,
    "avatar_url": "https://avatars.githubusercontent.com/u/8216?v=3",
    "gravatar_id": "",
    "url": "https://api.github.com/users/kch",
    "html_url": "https://github.com/kch",
    "followers_url": "https://api.github.com/users/kch/followers",
    "following_url": "https://api.github.com/users/kch/following{/other_user}",
    "gists_url": "https://api.github.com/users/kch/gists{/gist_id}",
    "starred_url": "https://api.github.com/users/kch/starred{/owner}{/repo}",
    "subscriptions_url": "https://api.github.com/users/kch/subscriptions",
    "organizations_url": "https://api.github.com/users/kch/orgs",
    "repos_url": "https://api.github.com/users/kch/repos",
    "events_url": "https://api.github.com/users/kch/events{/privacy}",
    "received_events_url": "https://api.github.com/users/kch/received_events",
    "type": "User",
    "site_admin": false
  },
  "labels": [],
  "state": "open",
  "locked": false,
  "assignee": null,
  "milestone": null,
  "comments": 3,
  "created_at": "2014-05-19T18:54:58Z",
  "updated_at": "2014-05-20T05:57:19Z",
  "closed_at": null,
  "body": "I haven't tried to see if it's true or not, just noticed this with the ruby client tho.\r\n\r\nI had a script call out to whoami and wait forever because heroku cli was expecting input.\r\n\r\n```\r\n+ heroku auth:whoami\r\n    …\r\n    Error:       Expected(200) <=> Actual(401 Unauthorized)\r\n    …\r\n    The plugin heroku-two-factor has been deprecated. Would you like to remove it? (y/N) \r\n```\r\n\r\nThis should have just died with non-zero code.\r\n\r\nJust another unixy thing to keep in mind."
}
, {
  "url": "https://api.github.com/repos/heroku/hk/issues/160",
  "labels_url": "https://api.github.com/repos/heroku/hk/issues/160/labels{/name}",
  "comments_url": "https://api.github.com/repos/heroku/hk/issues/160/comments",
  "events_url": "https://api.github.com/repos/heroku/hk/issues/160/events",
  "html_url": "https://github.com/heroku/hk/issues/160",
  "id": 33739416,
  "number": 160,
  "title": "Duplication \"unknown flag\" error?",
  "user": {
    "login": "mmcgrana",
    "id": 2432,
    "avatar_url": "https://avatars.githubusercontent.com/u/2432?v=3",
    "gravatar_id": "",
    "url": "https://api.github.com/users/mmcgrana",
    "html_url": "https://github.com/mmcgrana",
    "followers_url": "https://api.github.com/users/mmcgrana/followers",
    "following_url": "https://api.github.com/users/mmcgrana/following{/other_user}",
    "gists_url": "https://api.github.com/users/mmcgrana/gists{/gist_id}",
    "starred_url": "https://api.github.com/users/mmcgrana/starred{/owner}{/repo}",
    "subscriptions_url": "https://api.github.com/users/mmcgrana/subscriptions",
    "organizations_url": "https://api.github.com/users/mmcgrana/orgs",
    "repos_url": "https://api.github.com/users/mmcgrana/repos",
    "events_url": "https://api.github.com/users/mmcgrana/events{/privacy}",
    "received_events_url": "https://api.github.com/users/mmcgrana/received_events",
    "type": "User",
    "site_admin": false
  },
  "labels": [
    {
      "url": "https://api.github.com/repos/heroku/hk/labels/question",
      "name": "question",
      "color": "cc317c"
    },
    {
      "url": "https://api.github.com/repos/heroku/hk/labels/UX",
      "name": "UX",
      "color": "fbca04"
    }
  ],
  "state": "open",
  "locked": false,
  "assignee": null,
  "milestone": null,
  "comments": 0,
  "created_at": "2014-05-17T20:44:48Z",
  "updated_at": "2014-05-17T20:44:48Z",
  "closed_at": null,
  "body": "I noticed that hk prints 2 \"unknown flag\" errors in cases like:\r\n\r\n```console\r\n$ hk info --wat\r\nunknown flag: --wat\r\nUsage: hk info [-a <app or remote>]\r\nUse 'hk help info' for more information.\r\nerror: unknown flag: --wat                    # this one is red\r\n```\r\n\r\nIs this intentional?\r\n\r\nIn contrast, there is only one error for e.g. a missing positional arg:\r\n\r\n```console\r\n$ hk info\r\nerror: no app specified                       # this on is red\r\nUsage: hk info [-a <app or remote>]\r\nUse 'hk help info' for more information.\r\n```\r\n"
}
, {
  "url": "https://api.github.com/repos/heroku/hk/issues/159",
  "labels_url": "https://api.github.com/repos/heroku/hk/issues/159/labels{/name}",
  "comments_url": "https://api.github.com/repos/heroku/hk/issues/159/comments",
  "events_url": "https://api.github.com/repos/heroku/hk/issues/159/events",
  "html_url": "https://github.com/heroku/hk/pull/159",
  "id": 33717265,
  "number": 159,
  "title": "Add `member-add` command",
  "user": {
    "login": "dominic",
    "id": 185645,
    "avatar_url": "https://avatars.githubusercontent.com/u/185645?v=3",
    "gravatar_id": "",
    "url": "https://api.github.com/users/dominic",
    "html_url": "https://github.com/dominic",
    "followers_url": "https://api.github.com/users/dominic/followers",
    "following_url": "https://api.github.com/users/dominic/following{/other_user}",
    "gists_url": "https://api.github.com/users/dominic/gists{/gist_id}",
    "starred_url": "https://api.github.com/users/dominic/starred{/owner}{/repo}",
    "subscriptions_url": "https://api.github.com/users/dominic/subscriptions",
    "organizations_url": "https://api.github.com/users/dominic/orgs",
    "repos_url": "https://api.github.com/users/dominic/repos",
    "events_url": "https://api.github.com/users/dominic/events{/privacy}",
    "received_events_url": "https://api.github.com/users/dominic/received_events",
    "type": "User",
    "site_admin": false
  },
  "labels": [],
  "state": "open",
  "locked": false,
  "assignee": null,
  "milestone": null,
  "comments": 5,
  "created_at": "2014-05-16T23:31:38Z",
  "updated_at": "2015-02-12T05:34:28Z",
  "closed_at": null,
  "pull_request": {
    "url": "https://api.github.com/repos/heroku/hk/pulls/159",
    "html_url": "https://github.com/heroku/hk/pull/159",
    "diff_url": "https://github.com/heroku/hk/pull/159.diff",
    "patch_url": "https://github.com/heroku/hk/pull/159.patch"
  },
  "body": ""
}
, {
  "url": "https://api.github.com/repos/heroku/hk/issues/157",
  "labels_url": "https://api.github.com/repos/heroku/hk/issues/157/labels{/name}",
  "comments_url": "https://api.github.com/repos/heroku/hk/issues/157/comments",
  "events_url": "https://api.github.com/repos/heroku/hk/issues/157/events",
  "html_url": "https://github.com/heroku/hk/issues/157",
  "id": 33611806,
  "number": 157,
  "title": "Rework update server to be compatible with go-update / Equinox.io server",
  "user": {
    "login": "bgentry",
    "id": 114033,
    "avatar_url": "https://avatars.githubusercontent.com/u/114033?v=3",
    "gravatar_id": "",
    "url": "https://api.github.com/users/bgentry",
    "html_url": "https://github.com/bgentry",
    "followers_url": "https://api.github.com/users/bgentry/followers",
    "following_url": "https://api.github.com/users/bgentry/following{/other_user}",
    "gists_url": "https://api.github.com/users/bgentry/gists{/gist_id}",
    "starred_url": "https://api.github.com/users/bgentry/starred{/owner}{/repo}",
    "subscriptions_url": "https://api.github.com/users/bgentry/subscriptions",
    "organizations_url": "https://api.github.com/users/bgentry/orgs",
    "repos_url": "https://api.github.com/users/bgentry/repos",
    "events_url": "https://api.github.com/users/bgentry/events{/privacy}",
    "received_events_url": "https://api.github.com/users/bgentry/received_events",
    "type": "User",
    "site_admin": false
  },
  "labels": [],
  "state": "open",
  "locked": false,
  "assignee": null,
  "milestone": null,
  "comments": 0,
  "created_at": "2014-05-15T18:28:11Z",
  "updated_at": "2014-05-15T18:28:11Z",
  "closed_at": null,
  "body": "This would let us use [go-update](https://github.com/inconshreveable/go-update)'s built-in functionality to update from a server, rather than having to maintain our own code that duplicates many of those functions."
}
, {
  "url": "https://api.github.com/repos/heroku/hk/issues/156",
  "labels_url": "https://api.github.com/repos/heroku/hk/issues/156/labels{/name}",
  "comments_url": "https://api.github.com/repos/heroku/hk/issues/156/comments",
  "events_url": "https://api.github.com/repos/heroku/hk/issues/156/events",
  "html_url": "https://github.com/heroku/hk/issues/156",
  "id": 33452370,
  "number": 156,
  "title": "Help with multiple git remote management",
  "user": {
    "login": "dpiddy",
    "id": 2182,
    "avatar_url": "https://avatars.githubusercontent.com/u/2182?v=3",
    "gravatar_id": "",
    "url": "https://api.github.com/users/dpiddy",
    "html_url": "https://github.com/dpiddy",
    "followers_url": "https://api.github.com/users/dpiddy/followers",
    "following_url": "https://api.github.com/users/dpiddy/following{/other_user}",
    "gists_url": "https://api.github.com/users/dpiddy/gists{/gist_id}",
    "starred_url": "https://api.github.com/users/dpiddy/starred{/owner}{/repo}",
    "subscriptions_url": "https://api.github.com/users/dpiddy/subscriptions",
    "organizations_url": "https://api.github.com/users/dpiddy/orgs",
    "repos_url": "https://api.github.com/users/dpiddy/repos",
    "events_url": "https://api.github.com/users/dpiddy/events{/privacy}",
    "received_events_url": "https://api.github.com/users/dpiddy/received_events",
    "type": "User",
    "site_admin": false
  },
  "labels": [
    {
      "url": "https://api.github.com/repos/heroku/hk/labels/feature%20request",
      "name": "feature request",
      "color": "c7def8"
    }
  ],
  "state": "open",
  "locked": false,
  "assignee": null,
  "milestone": null,
  "comments": 2,
  "created_at": "2014-05-14T00:36:53Z",
  "updated_at": "2014-05-14T02:04:28Z",
  "closed_at": null,
  "body": "Toolbelt has a [`git:remote`](https://github.com/heroku/heroku/blob/841a2a1d50c2c7f69ae8bbafa6b19c4c5bba162a/lib/heroku/command/git.rb#L52) command for easily creating remotes for apps. Would be nice if hk had something similar."
}
, {
  "url": "https://api.github.com/repos/heroku/hk/issues/152",
  "labels_url": "https://api.github.com/repos/heroku/hk/issues/152/labels{/name}",
  "comments_url": "https://api.github.com/repos/heroku/hk/issues/152/comments",
  "events_url": "https://api.github.com/repos/heroku/hk/issues/152/events",
  "html_url": "https://github.com/heroku/hk/issues/152",
  "id": 33000575,
  "number": 152,
  "title": "hkdist returns 404s sometimes until a restart",
  "user": {
    "login": "razzius",
    "id": 2244895,
    "avatar_url": "https://avatars.githubusercontent.com/u/2244895?v=3",
    "gravatar_id": "",
    "url": "https://api.github.com/users/razzius",
    "html_url": "https://github.com/razzius",
    "followers_url": "https://api.github.com/users/razzius/followers",
    "following_url": "https://api.github.com/users/razzius/following{/other_user}",
    "gists_url": "https://api.github.com/users/razzius/gists{/gist_id}",
    "starred_url": "https://api.github.com/users/razzius/starred{/owner}{/repo}",
    "subscriptions_url": "https://api.github.com/users/razzius/subscriptions",
    "organizations_url": "https://api.github.com/users/razzius/orgs",
    "repos_url": "https://api.github.com/users/razzius/repos",
    "events_url": "https://api.github.com/users/razzius/events{/privacy}",
    "received_events_url": "https://api.github.com/users/razzius/received_events",
    "type": "User",
    "site_admin": false
  },
  "labels": [
    {
      "url": "https://api.github.com/repos/heroku/hk/labels/bug",
      "name": "bug",
      "color": "fc2929"
    }
  ],
  "state": "open",
  "locked": false,
  "assignee": null,
  "milestone": null,
  "comments": 3,
  "created_at": "2014-05-07T16:17:54Z",
  "updated_at": "2014-05-15T18:26:46Z",
  "closed_at": null,
  "body": "As a result, the one-line installer doesn't work.\r\n\r\n    $ L=/usr/local/bin/hk && curl -sL -A \"`uname -sp`\" https://hk.heroku.com/hk.gz | zcat >$L && chmod +x $L\r\n    zcat: unknown compression format\r\n\r\n    $ curl https://hk.heroku.com/hk.gz\r\n    404 page not found"
}
, {
  "url": "https://api.github.com/repos/heroku/hk/issues/149",
  "labels_url": "https://api.github.com/repos/heroku/hk/issues/149/labels{/name}",
  "comments_url": "https://api.github.com/repos/heroku/hk/issues/149/comments",
  "events_url": "https://api.github.com/repos/heroku/hk/issues/149/events",
  "html_url": "https://github.com/heroku/hk/issues/149",
  "id": 32453669,
  "number": 149,
  "title": "Add ability to see env for a specific release",
  "user": {
    "login": "dpiddy",
    "id": 2182,
    "avatar_url": "https://avatars.githubusercontent.com/u/2182?v=3",
    "gravatar_id": "",
    "url": "https://api.github.com/users/dpiddy",
    "html_url": "https://github.com/dpiddy",
    "followers_url": "https://api.github.com/users/dpiddy/followers",
    "following_url": "https://api.github.com/users/dpiddy/following{/other_user}",
    "gists_url": "https://api.github.com/users/dpiddy/gists{/gist_id}",
    "starred_url": "https://api.github.com/users/dpiddy/starred{/owner}{/repo}",
    "subscriptions_url": "https://api.github.com/users/dpiddy/subscriptions",
    "organizations_url": "https://api.github.com/users/dpiddy/orgs",
    "repos_url": "https://api.github.com/users/dpiddy/repos",
    "events_url": "https://api.github.com/users/dpiddy/events{/privacy}",
    "received_events_url": "https://api.github.com/users/dpiddy/received_events",
    "type": "User",
    "site_admin": false
  },
  "labels": [
    {
      "url": "https://api.github.com/repos/heroku/hk/labels/feature%20request",
      "name": "feature request",
      "color": "c7def8"
    }
  ],
  "state": "open",
  "locked": false,
  "assignee": null,
  "milestone": null,
  "comments": 3,
  "created_at": "2014-04-29T15:05:38Z",
  "updated_at": "2014-05-15T18:26:57Z",
  "closed_at": null,
  "body": "The toolbelt includes env in `heroku releases:info`. hk has `release-info` but it does not show env. Maybe `hk env` could take a specific release to show env for?"
}
, {
  "url": "https://api.github.com/repos/heroku/hk/issues/146",
  "labels_url": "https://api.github.com/repos/heroku/hk/issues/146/labels{/name}",
  "comments_url": "https://api.github.com/repos/heroku/hk/issues/146/comments",
  "events_url": "https://api.github.com/repos/heroku/hk/issues/146/events",
  "html_url": "https://github.com/heroku/hk/issues/146",
  "id": 31669673,
  "number": 146,
  "title": "Add config:pull and :push functionality",
  "user": {
    "login": "markpundsack",
    "id": 319891,
    "avatar_url": "https://avatars.githubusercontent.com/u/319891?v=3",
    "gravatar_id": "",
    "url": "https://api.github.com/users/markpundsack",
    "html_url": "https://github.com/markpundsack",
    "followers_url": "https://api.github.com/users/markpundsack/followers",
    "following_url": "https://api.github.com/users/markpundsack/following{/other_user}",
    "gists_url": "https://api.github.com/users/markpundsack/gists{/gist_id}",
    "starred_url": "https://api.github.com/users/markpundsack/starred{/owner}{/repo}",
    "subscriptions_url": "https://api.github.com/users/markpundsack/subscriptions",
    "organizations_url": "https://api.github.com/users/markpundsack/orgs",
    "repos_url": "https://api.github.com/users/markpundsack/repos",
    "events_url": "https://api.github.com/users/markpundsack/events{/privacy}",
    "received_events_url": "https://api.github.com/users/markpundsack/received_events",
    "type": "User",
    "site_admin": false
  },
  "labels": [
    {
      "url": "https://api.github.com/repos/heroku/hk/labels/feature%20request",
      "name": "feature request",
      "color": "c7def8"
    }
  ],
  "state": "open",
  "locked": false,
  "assignee": null,
  "milestone": null,
  "comments": 7,
  "created_at": "2014-04-16T19:01:26Z",
  "updated_at": "2014-04-28T21:15:20Z",
  "closed_at": null,
  "body": "Dev Center mentions heroku-config plugin. If that functionality is that useful, why not include it by default?\r\n\r\nhttps://devcenter.heroku.com/articles/config-vars#using-foreman-and-heroku-config\r\n"
}
, {
  "url": "https://api.github.com/repos/heroku/hk/issues/145",
  "labels_url": "https://api.github.com/repos/heroku/hk/issues/145/labels{/name}",
  "comments_url": "https://api.github.com/repos/heroku/hk/issues/145/comments",
  "events_url": "https://api.github.com/repos/heroku/hk/issues/145/events",
  "html_url": "https://github.com/heroku/hk/issues/145",
  "id": 31194242,
  "number": 145,
  "title": "panic if netrc is nil",
  "user": {
    "login": "bgentry",
    "id": 114033,
    "avatar_url": "https://avatars.githubusercontent.com/u/114033?v=3",
    "gravatar_id": "",
    "url": "https://api.github.com/users/bgentry",
    "html_url": "https://github.com/bgentry",
    "followers_url": "https://api.github.com/users/bgentry/followers",
    "following_url": "https://api.github.com/users/bgentry/following{/other_user}",
    "gists_url": "https://api.github.com/users/bgentry/gists{/gist_id}",
    "starred_url": "https://api.github.com/users/bgentry/starred{/owner}{/repo}",
    "subscriptions_url": "https://api.github.com/users/bgentry/subscriptions",
    "organizations_url": "https://api.github.com/users/bgentry/orgs",
    "repos_url": "https://api.github.com/users/bgentry/repos",
    "events_url": "https://api.github.com/users/bgentry/events{/privacy}",
    "received_events_url": "https://api.github.com/users/bgentry/received_events",
    "type": "User",
    "site_admin": false
  },
  "labels": [
    {
      "url": "https://api.github.com/repos/heroku/hk/labels/bug",
      "name": "bug",
      "color": "fc2929"
    }
  ],
  "state": "open",
  "locked": false,
  "assignee": null,
  "milestone": null,
  "comments": 4,
  "created_at": "2014-04-09T21:03:33Z",
  "updated_at": "2014-04-22T17:58:37Z",
  "closed_at": null,
  "body": "Not sure where we introduced another bug around netrc handling, but I saw this exception come in on Rollbar:\r\n\r\n```\r\nTraceback (most recent call last):\r\n  File \"/usr/local/go/src/pkg/runtime/panic.c\", line 482\r\n  File \"/usr/local/go/src/pkg/runtime/os_darwin.c\", line 450\r\n  File \"/Users/bgentry/go/src/github.com/heroku/hk/hkclient/creds.go\", line 54\r\n  File \"/private/tmp/hk-build/auth.go\", line 117\r\n  File \"/private/tmp/hk-build/main.go\", line 250\r\n  File \"/usr/local/go/src/pkg/runtime/proc.c\", line 220\r\n  File \"/usr/local/go/src/pkg/runtime/proc.c\", line 1394\r\nruntime error: invalid memory address or nil pointer dereference\r\n```"
}
, {
  "url": "https://api.github.com/repos/heroku/hk/issues/139",
  "labels_url": "https://api.github.com/repos/heroku/hk/issues/139/labels{/name}",
  "comments_url": "https://api.github.com/repos/heroku/hk/issues/139/comments",
  "events_url": "https://api.github.com/repos/heroku/hk/issues/139/events",
  "html_url": "https://github.com/heroku/hk/issues/139",
  "id": 30822451,
  "number": 139,
  "title": "Corrupted .netrc File After Successful Login",
  "user": {
    "login": "naaman",
    "id": 143326,
    "avatar_url": "https://avatars.githubusercontent.com/u/143326?v=3",
    "gravatar_id": "",
    "url": "https://api.github.com/users/naaman",
    "html_url": "https://github.com/naaman",
    "followers_url": "https://api.github.com/users/naaman/followers",
    "following_url": "https://api.github.com/users/naaman/following{/other_user}",
    "gists_url": "https://api.github.com/users/naaman/gists{/gist_id}",
    "starred_url": "https://api.github.com/users/naaman/starred{/owner}{/repo}",
    "subscriptions_url": "https://api.github.com/users/naaman/subscriptions",
    "organizations_url": "https://api.github.com/users/naaman/orgs",
    "repos_url": "https://api.github.com/users/naaman/repos",
    "events_url": "https://api.github.com/users/naaman/events{/privacy}",
    "received_events_url": "https://api.github.com/users/naaman/received_events",
    "type": "User",
    "site_admin": false
  },
  "labels": [
    {
      "url": "https://api.github.com/repos/heroku/hk/labels/bug",
      "name": "bug",
      "color": "fc2929"
    }
  ],
  "state": "open",
  "locked": false,
  "assignee": null,
  "milestone": null,
  "comments": 2,
  "created_at": "2014-04-03T23:14:54Z",
  "updated_at": "2014-04-07T14:25:26Z",
  "closed_at": null,
  "body": "I was prompted to login (using 2fa) and after a successful login, my netrc file was corrupted. After the successful login, typing a command points to the error:\r\n\r\n```sh\r\n$ hk dynos -a s3pository\r\nerror: loading netrc: line 1: keyword expected; got <redacted; api-key>@heroku.comnaaman@heroku.com\r\n```\r\n\r\nViewing the netrc file shows my `heroku.com` machine entry is missing and appears as if it was overwritten with:\r\n\r\n```sh\r\n <redacted; api-key>@heroku.comnaaman@heroku.com\r\n  password <redacted; old-api-key>\r\n```"
}
, {
  "url": "https://api.github.com/repos/heroku/hk/issues/130",
  "labels_url": "https://api.github.com/repos/heroku/hk/issues/130/labels{/name}",
  "comments_url": "https://api.github.com/repos/heroku/hk/issues/130/comments",
  "events_url": "https://api.github.com/repos/heroku/hk/issues/130/events",
  "html_url": "https://github.com/heroku/hk/issues/130",
  "id": 30133498,
  "number": 130,
  "title": "apps - sortable please",
  "user": {
    "login": "jonmountjoy",
    "id": 545244,
    "avatar_url": "https://avatars.githubusercontent.com/u/545244?v=3",
    "gravatar_id": "",
    "url": "https://api.github.com/users/jonmountjoy",
    "html_url": "https://github.com/jonmountjoy",
    "followers_url": "https://api.github.com/users/jonmountjoy/followers",
    "following_url": "https://api.github.com/users/jonmountjoy/following{/other_user}",
    "gists_url": "https://api.github.com/users/jonmountjoy/gists{/gist_id}",
    "starred_url": "https://api.github.com/users/jonmountjoy/starred{/owner}{/repo}",
    "subscriptions_url": "https://api.github.com/users/jonmountjoy/subscriptions",
    "organizations_url": "https://api.github.com/users/jonmountjoy/orgs",
    "repos_url": "https://api.github.com/users/jonmountjoy/repos",
    "events_url": "https://api.github.com/users/jonmountjoy/events{/privacy}",
    "received_events_url": "https://api.github.com/users/jonmountjoy/received_events",
    "type": "User",
    "site_admin": false
  },
  "labels": [
    {
      "url": "https://api.github.com/repos/heroku/hk/labels/feature%20request",
      "name": "feature request",
      "color": "c7def8"
    }
  ],
  "state": "open",
  "locked": false,
  "assignee": null,
  "milestone": null,
  "comments": 12,
  "created_at": "2014-03-25T15:28:18Z",
  "updated_at": "2014-05-08T20:59:31Z",
  "closed_at": null,
  "body": "hk provides more information than the other CLI when I go `hk apps` - including the last release time.  This is super userful.  I almost never want to see my apps alphabetically.\r\n\r\nNow I wish you had a sort option.  I would dearly like to see this sorted by last release -either by default or via a flag."
}
, {
  "url": "https://api.github.com/repos/heroku/hk/issues/127",
  "labels_url": "https://api.github.com/repos/heroku/hk/issues/127/labels{/name}",
  "comments_url": "https://api.github.com/repos/heroku/hk/issues/127/comments",
  "events_url": "https://api.github.com/repos/heroku/hk/issues/127/events",
  "html_url": "https://github.com/heroku/hk/issues/127",
  "id": 29674957,
  "number": 127,
  "title": "sort releases in descending order",
  "user": {
    "login": "sclasen",
    "id": 523338,
    "avatar_url": "https://avatars.githubusercontent.com/u/523338?v=3",
    "gravatar_id": "",
    "url": "https://api.github.com/users/sclasen",
    "html_url": "https://github.com/sclasen",
    "followers_url": "https://api.github.com/users/sclasen/followers",
    "following_url": "https://api.github.com/users/sclasen/following{/other_user}",
    "gists_url": "https://api.github.com/users/sclasen/gists{/gist_id}",
    "starred_url": "https://api.github.com/users/sclasen/starred{/owner}{/repo}",
    "subscriptions_url": "https://api.github.com/users/sclasen/subscriptions",
    "organizations_url": "https://api.github.com/users/sclasen/orgs",
    "repos_url": "https://api.github.com/users/sclasen/repos",
    "events_url": "https://api.github.com/users/sclasen/events{/privacy}",
    "received_events_url": "https://api.github.com/users/sclasen/received_events",
    "type": "User",
    "site_admin": false
  },
  "labels": [
    {
      "url": "https://api.github.com/repos/heroku/hk/labels/UX",
      "name": "UX",
      "color": "fbca04"
    }
  ],
  "state": "open",
  "locked": false,
  "assignee": null,
  "milestone": null,
  "comments": 7,
  "created_at": "2014-03-18T19:06:08Z",
  "updated_at": "2014-03-28T00:24:05Z",
  "closed_at": null,
  "body": "I am most likely to care about the latest release, so shouldnt it be on top?"
}
, {
  "url": "https://api.github.com/repos/heroku/hk/issues/121",
  "labels_url": "https://api.github.com/repos/heroku/hk/issues/121/labels{/name}",
  "comments_url": "https://api.github.com/repos/heroku/hk/issues/121/comments",
  "events_url": "https://api.github.com/repos/heroku/hk/issues/121/events",
  "html_url": "https://github.com/heroku/hk/issues/121",
  "id": 29207726,
  "number": 121,
  "title": "logout sometimes removes a `machine` keyword from the beginning of a netrc file",
  "user": {
    "login": "bgentry",
    "id": 114033,
    "avatar_url": "https://avatars.githubusercontent.com/u/114033?v=3",
    "gravatar_id": "",
    "url": "https://api.github.com/users/bgentry",
    "html_url": "https://github.com/bgentry",
    "followers_url": "https://api.github.com/users/bgentry/followers",
    "following_url": "https://api.github.com/users/bgentry/following{/other_user}",
    "gists_url": "https://api.github.com/users/bgentry/gists{/gist_id}",
    "starred_url": "https://api.github.com/users/bgentry/starred{/owner}{/repo}",
    "subscriptions_url": "https://api.github.com/users/bgentry/subscriptions",
    "organizations_url": "https://api.github.com/users/bgentry/orgs",
    "repos_url": "https://api.github.com/users/bgentry/repos",
    "events_url": "https://api.github.com/users/bgentry/events{/privacy}",
    "received_events_url": "https://api.github.com/users/bgentry/received_events",
    "type": "User",
    "site_admin": false
  },
  "labels": [
    {
      "url": "https://api.github.com/repos/heroku/hk/labels/bug",
      "name": "bug",
      "color": "fc2929"
    }
  ],
  "state": "open",
  "locked": false,
  "assignee": null,
  "milestone": null,
  "comments": 0,
  "created_at": "2014-03-11T19:08:56Z",
  "updated_at": "2014-04-04T13:45:47Z",
  "closed_at": null,
  "body": "Just ran into this bug while testing something for @dominic.\r\n\r\nI logged into his dev cloud, and the following was appended to the end of my netrc (including preceding newline):\r\n\r\n```\r\n\r\nmachine heroku-test.test.com\r\n\tlogin domtest@test.com\r\n\tpassword hisapikeypassword\r\n```\r\n\r\nEverything works fine at this point. However, running `hk logout` deletes the credentials and preceding newline as expected, but also removed just the `machine` keyword at the beginning of my netrc file.\r\n\r\nI was able to reproduce it once, but unfortunately it's not happening again. Might be a race condition or buffer issue w/ the netrc package we're using."
}
, {
  "url": "https://api.github.com/repos/heroku/hk/issues/120",
  "labels_url": "https://api.github.com/repos/heroku/hk/issues/120/labels{/name}",
  "comments_url": "https://api.github.com/repos/heroku/hk/issues/120/comments",
  "events_url": "https://api.github.com/repos/heroku/hk/issues/120/events",
  "html_url": "https://github.com/heroku/hk/issues/120",
  "id": 29145444,
  "number": 120,
  "title": "[wishlist] non-long listing",
  "user": {
    "login": "kr",
    "id": 4178,
    "avatar_url": "https://avatars.githubusercontent.com/u/4178?v=3",
    "gravatar_id": "",
    "url": "https://api.github.com/users/kr",
    "html_url": "https://github.com/kr",
    "followers_url": "https://api.github.com/users/kr/followers",
    "following_url": "https://api.github.com/users/kr/following{/other_user}",
    "gists_url": "https://api.github.com/users/kr/gists{/gist_id}",
    "starred_url": "https://api.github.com/users/kr/starred{/owner}{/repo}",
    "subscriptions_url": "https://api.github.com/users/kr/subscriptions",
    "organizations_url": "https://api.github.com/users/kr/orgs",
    "repos_url": "https://api.github.com/users/kr/repos",
    "events_url": "https://api.github.com/users/kr/events{/privacy}",
    "received_events_url": "https://api.github.com/users/kr/received_events",
    "type": "User",
    "site_admin": false
  },
  "labels": [
    {
      "url": "https://api.github.com/repos/heroku/hk/labels/feature%20request",
      "name": "feature request",
      "color": "c7def8"
    }
  ],
  "state": "open",
  "locked": false,
  "assignee": null,
  "milestone": null,
  "comments": 2,
  "created_at": "2014-03-11T00:38:10Z",
  "updated_at": "2014-03-18T15:13:50Z",
  "closed_at": null,
  "body": "Now that the old `-l` behavior for listing apps (and other stuff) is the default (and only option), I miss being able to do things like:\r\n\r\n```\r\nfor a in `hk apps`; do hk get -a $a BUILDPACK_URL; done >x\r\n```\r\n\r\nI can get it by using `cut -f1 -d' '` but that's a slightly sad workaround."
}
, {
  "url": "https://api.github.com/repos/heroku/hk/issues/103",
  "labels_url": "https://api.github.com/repos/heroku/hk/issues/103/labels{/name}",
  "comments_url": "https://api.github.com/repos/heroku/hk/issues/103/comments",
  "events_url": "https://api.github.com/repos/heroku/hk/issues/103/events",
  "html_url": "https://github.com/heroku/hk/issues/103",
  "id": 27296009,
  "number": 103,
  "title": "two commands that do the same thing",
  "user": {
    "login": "kr",
    "id": 4178,
    "avatar_url": "https://avatars.githubusercontent.com/u/4178?v=3",
    "gravatar_id": "",
    "url": "https://api.github.com/users/kr",
    "html_url": "https://github.com/kr",
    "followers_url": "https://api.github.com/users/kr/followers",
    "following_url": "https://api.github.com/users/kr/following{/other_user}",
    "gists_url": "https://api.github.com/users/kr/gists{/gist_id}",
    "starred_url": "https://api.github.com/users/kr/starred{/owner}{/repo}",
    "subscriptions_url": "https://api.github.com/users/kr/subscriptions",
    "organizations_url": "https://api.github.com/users/kr/orgs",
    "repos_url": "https://api.github.com/users/kr/repos",
    "events_url": "https://api.github.com/users/kr/events{/privacy}",
    "received_events_url": "https://api.github.com/users/kr/received_events",
    "type": "User",
    "site_admin": false
  },
  "labels": [],
  "state": "open",
  "locked": false,
  "assignee": null,
  "milestone": null,
  "comments": 5,
  "created_at": "2014-02-10T20:11:15Z",
  "updated_at": "2014-02-13T16:51:35Z",
  "closed_at": null,
  "body": "Comment https://github.com/heroku/hk/pull/98#issuecomment-34672031 reminded me of another issue I've been struggling with since working on hk:\r\n\r\nThis is one of those cases where we have two different verbs ('destroy' and 'addon-destroy') that do the same thing. I'd like to see a single command, 'destroy', that can destroy either an app or an addon.\r\n\r\nThey are currently split in two because of technical restrictions that are irrelevant to me as a user.\r\n\r\nI understand that it's difficult to make that happen, and it opens up difficult design questions around other commands and names of objects.\r\n\r\nBut it feels weird to me that I have to use a different command to destroy addons vs apps."
}
, {
  "url": "https://api.github.com/repos/heroku/hk/issues/92",
  "labels_url": "https://api.github.com/repos/heroku/hk/issues/92/labels{/name}",
  "comments_url": "https://api.github.com/repos/heroku/hk/issues/92/comments",
  "events_url": "https://api.github.com/repos/heroku/hk/issues/92/events",
  "html_url": "https://github.com/heroku/hk/issues/92",
  "id": 27072784,
  "number": 92,
  "title": "ugly alternative command output for \"help environ\"",
  "user": {
    "login": "bgentry",
    "id": 114033,
    "avatar_url": "https://avatars.githubusercontent.com/u/114033?v=3",
    "gravatar_id": "",
    "url": "https://api.github.com/users/bgentry",
    "html_url": "https://github.com/bgentry",
    "followers_url": "https://api.github.com/users/bgentry/followers",
    "following_url": "https://api.github.com/users/bgentry/following{/other_user}",
    "gists_url": "https://api.github.com/users/bgentry/gists{/gist_id}",
    "starred_url": "https://api.github.com/users/bgentry/starred{/owner}{/repo}",
    "subscriptions_url": "https://api.github.com/users/bgentry/subscriptions",
    "organizations_url": "https://api.github.com/users/bgentry/orgs",
    "repos_url": "https://api.github.com/users/bgentry/repos",
    "events_url": "https://api.github.com/users/bgentry/events{/privacy}",
    "received_events_url": "https://api.github.com/users/bgentry/received_events",
    "type": "User",
    "site_admin": false
  },
  "labels": [
    {
      "url": "https://api.github.com/repos/heroku/hk/labels/UX",
      "name": "UX",
      "color": "fbca04"
    }
  ],
  "state": "open",
  "locked": false,
  "assignee": null,
  "milestone": null,
  "comments": 2,
  "created_at": "2014-02-06T18:41:06Z",
  "updated_at": "2014-02-06T19:24:14Z",
  "closed_at": null,
  "body": "This output looks pretty bad:\r\n\r\n```\r\n➜  ~  hk envi\r\nUnknown command: envi\r\nPossible alternatives: env info \"help environ\" api\r\nRun 'hk help' for usage.\r\n```\r\n\r\nSpecifically, the \"help environ\" bit in quotes is confusing. Should we even be showing help subcommands here?"
}
, {
  "url": "https://api.github.com/repos/heroku/hk/issues/88",
  "labels_url": "https://api.github.com/repos/heroku/hk/issues/88/labels{/name}",
  "comments_url": "https://api.github.com/repos/heroku/hk/issues/88/comments",
  "events_url": "https://api.github.com/repos/heroku/hk/issues/88/events",
  "html_url": "https://github.com/heroku/hk/issues/88",
  "id": 26642833,
  "number": 88,
  "title": "Should `hk rollback` default to rolling back to the latest release?",
  "user": {
    "login": "dpiddy",
    "id": 2182,
    "avatar_url": "https://avatars.githubusercontent.com/u/2182?v=3",
    "gravatar_id": "",
    "url": "https://api.github.com/users/dpiddy",
    "html_url": "https://github.com/dpiddy",
    "followers_url": "https://api.github.com/users/dpiddy/followers",
    "following_url": "https://api.github.com/users/dpiddy/following{/other_user}",
    "gists_url": "https://api.github.com/users/dpiddy/gists{/gist_id}",
    "starred_url": "https://api.github.com/users/dpiddy/starred{/owner}{/repo}",
    "subscriptions_url": "https://api.github.com/users/dpiddy/subscriptions",
    "organizations_url": "https://api.github.com/users/dpiddy/orgs",
    "repos_url": "https://api.github.com/users/dpiddy/repos",
    "events_url": "https://api.github.com/users/dpiddy/events{/privacy}",
    "received_events_url": "https://api.github.com/users/dpiddy/received_events",
    "type": "User",
    "site_admin": false
  },
  "labels": [],
  "state": "open",
  "locked": false,
  "assignee": null,
  "milestone": null,
  "comments": 13,
  "created_at": "2014-01-30T23:04:42Z",
  "updated_at": "2014-02-18T20:31:08Z",
  "closed_at": null,
  "body": "I think @naaman would like that!"
}
, {
  "url": "https://api.github.com/repos/heroku/hk/issues/76",
  "labels_url": "https://api.github.com/repos/heroku/hk/issues/76/labels{/name}",
  "comments_url": "https://api.github.com/repos/heroku/hk/issues/76/comments",
  "events_url": "https://api.github.com/repos/heroku/hk/issues/76/events",
  "html_url": "https://github.com/heroku/hk/issues/76",
  "id": 26137896,
  "number": 76,
  "title": "install location is in a sudo-protected dir on Linux",
  "user": {
    "login": "bgentry",
    "id": 114033,
    "avatar_url": "https://avatars.githubusercontent.com/u/114033?v=3",
    "gravatar_id": "",
    "url": "https://api.github.com/users/bgentry",
    "html_url": "https://github.com/bgentry",
    "followers_url": "https://api.github.com/users/bgentry/followers",
    "following_url": "https://api.github.com/users/bgentry/following{/other_user}",
    "gists_url": "https://api.github.com/users/bgentry/gists{/gist_id}",
    "starred_url": "https://api.github.com/users/bgentry/starred{/owner}{/repo}",
    "subscriptions_url": "https://api.github.com/users/bgentry/subscriptions",
    "organizations_url": "https://api.github.com/users/bgentry/orgs",
    "repos_url": "https://api.github.com/users/bgentry/repos",
    "events_url": "https://api.github.com/users/bgentry/events{/privacy}",
    "received_events_url": "https://api.github.com/users/bgentry/received_events",
    "type": "User",
    "site_admin": false
  },
  "labels": [],
  "state": "open",
  "locked": false,
  "assignee": null,
  "milestone": null,
  "comments": 2,
  "created_at": "2014-01-23T01:22:52Z",
  "updated_at": "2014-01-23T19:46:48Z",
  "closed_at": null,
  "body": "Here is the install instruction:\r\n\r\n```bash\r\ncurl -sL -A \"`uname -sp`\" https://hk.heroku.com/hk.gz | zcat >/usr/local/bin/hk && chmod +x /usr/local/bin/hk\r\n```\r\n\r\nTurns out `/usr/local/bin` is owned by root on Linux systems. Is there a better location for hk to be installed on these machines? It shouldn't need to be owned by root."
}
, {
  "url": "https://api.github.com/repos/heroku/hk/issues/70",
  "labels_url": "https://api.github.com/repos/heroku/hk/issues/70/labels{/name}",
  "comments_url": "https://api.github.com/repos/heroku/hk/issues/70/comments",
  "events_url": "https://api.github.com/repos/heroku/hk/issues/70/events",
  "html_url": "https://github.com/heroku/hk/issues/70",
  "id": 26021374,
  "number": 70,
  "title": "app and user features take a lot of interface surface area",
  "user": {
    "login": "kr",
    "id": 4178,
    "avatar_url": "https://avatars.githubusercontent.com/u/4178?v=3",
    "gravatar_id": "",
    "url": "https://api.github.com/users/kr",
    "html_url": "https://github.com/kr",
    "followers_url": "https://api.github.com/users/kr/followers",
    "following_url": "https://api.github.com/users/kr/following{/other_user}",
    "gists_url": "https://api.github.com/users/kr/gists{/gist_id}",
    "starred_url": "https://api.github.com/users/kr/starred{/owner}{/repo}",
    "subscriptions_url": "https://api.github.com/users/kr/subscriptions",
    "organizations_url": "https://api.github.com/users/kr/orgs",
    "repos_url": "https://api.github.com/users/kr/repos",
    "events_url": "https://api.github.com/users/kr/events{/privacy}",
    "received_events_url": "https://api.github.com/users/kr/received_events",
    "type": "User",
    "site_admin": false
  },
  "labels": [
    {
      "url": "https://api.github.com/repos/heroku/hk/labels/UX",
      "name": "UX",
      "color": "fbca04"
    }
  ],
  "state": "open",
  "locked": false,
  "assignee": null,
  "milestone": null,
  "comments": 2,
  "created_at": "2014-01-21T18:19:50Z",
  "updated_at": "2014-01-27T01:59:36Z",
  "closed_at": null,
  "body": "I noticed something a few days ago:\r\n\r\n```\r\n    account-features         list account features\r\n    account-feature-info     show info for an account feature\r\n    account-feature-enable   enable an account feature\r\n    account-feature-disable  disable an account feature\r\n    features                 list app features\r\n    feature-info             show info for an app feature\r\n    feature-enable           enable an app feature\r\n    feature-disable          disable an app feature\r\n    maintenance              show app maintenance mode\r\n    maintenance-enable       enable maintenance mode\r\n    maintenance-disable      disable maintenance mode\r\n```\r\n\r\nThis is awfully bulky, and mostly redundant. Could maintenance\r\nmode be merged in with the other app-level features and the\r\napp and user features exposed under one command, sort of\r\nlike the existing heroku gem?\r\n\r\nHere's a straw man design:\r\n\r\n```\r\nUsage: hk features [-a app] [-u]\r\n\r\nFeatures lists available features for an app or user.\r\nIf flag -u is given, the logged-in user's features are\r\nlisted. Otherwise, features for the specified app\r\nare listed.\r\n\r\nUsage: hk enable [-a app] <feature>\r\n\r\nUsage: hk disable [-a app] <feature>\r\n```"
}
, {
  "url": "https://api.github.com/repos/heroku/hk/issues/68",
  "labels_url": "https://api.github.com/repos/heroku/hk/issues/68/labels{/name}",
  "comments_url": "https://api.github.com/repos/heroku/hk/issues/68/comments",
  "events_url": "https://api.github.com/repos/heroku/hk/issues/68/events",
  "html_url": "https://github.com/heroku/hk/issues/68",
  "id": 25891909,
  "number": 68,
  "title": "Reevaluate whether a combined app + remote flag makes sense",
  "user": {
    "login": "bgentry",
    "id": 114033,
    "avatar_url": "https://avatars.githubusercontent.com/u/114033?v=3",
    "gravatar_id": "",
    "url": "https://api.github.com/users/bgentry",
    "html_url": "https://github.com/bgentry",
    "followers_url": "https://api.github.com/users/bgentry/followers",
    "following_url": "https://api.github.com/users/bgentry/following{/other_user}",
    "gists_url": "https://api.github.com/users/bgentry/gists{/gist_id}",
    "starred_url": "https://api.github.com/users/bgentry/starred{/owner}{/repo}",
    "subscriptions_url": "https://api.github.com/users/bgentry/subscriptions",
    "organizations_url": "https://api.github.com/users/bgentry/orgs",
    "repos_url": "https://api.github.com/users/bgentry/repos",
    "events_url": "https://api.github.com/users/bgentry/events{/privacy}",
    "received_events_url": "https://api.github.com/users/bgentry/received_events",
    "type": "User",
    "site_admin": false
  },
  "labels": [
    {
      "url": "https://api.github.com/repos/heroku/hk/labels/UX",
      "name": "UX",
      "color": "fbca04"
    }
  ],
  "state": "open",
  "locked": false,
  "assignee": null,
  "milestone": null,
  "comments": 8,
  "created_at": "2014-01-19T23:37:56Z",
  "updated_at": "2014-04-29T20:45:30Z",
  "closed_at": null,
  "body": "As discussed in #49, it may be confusing for `-a` to accept both an app name and a remote name. It may also lead to ambiguous behavior in some cases.\r\n\r\nThis seems like a core usability question to me, so we should reconsider whether it makes sense to stay as it is now.\r\n\r\n/cc @max "
}
, {
  "url": "https://api.github.com/repos/heroku/hk/issues/63",
  "labels_url": "https://api.github.com/repos/heroku/hk/issues/63/labels{/name}",
  "comments_url": "https://api.github.com/repos/heroku/hk/issues/63/comments",
  "events_url": "https://api.github.com/repos/heroku/hk/issues/63/events",
  "html_url": "https://github.com/heroku/hk/issues/63",
  "id": 25840729,
  "number": 63,
  "title": "HTML escaping in `hk help more`",
  "user": {
    "login": "bgentry",
    "id": 114033,
    "avatar_url": "https://avatars.githubusercontent.com/u/114033?v=3",
    "gravatar_id": "",
    "url": "https://api.github.com/users/bgentry",
    "html_url": "https://github.com/bgentry",
    "followers_url": "https://api.github.com/users/bgentry/followers",
    "following_url": "https://api.github.com/users/bgentry/following{/other_user}",
    "gists_url": "https://api.github.com/users/bgentry/gists{/gist_id}",
    "starred_url": "https://api.github.com/users/bgentry/starred{/owner}{/repo}",
    "subscriptions_url": "https://api.github.com/users/bgentry/subscriptions",
    "organizations_url": "https://api.github.com/users/bgentry/orgs",
    "repos_url": "https://api.github.com/users/bgentry/repos",
    "events_url": "https://api.github.com/users/bgentry/events{/privacy}",
    "received_events_url": "https://api.github.com/users/bgentry/received_events",
    "type": "User",
    "site_admin": false
  },
  "labels": [
    {
      "url": "https://api.github.com/repos/heroku/hk/labels/bug",
      "name": "bug",
      "color": "fc2929"
    }
  ],
  "state": "open",
  "locked": false,
  "assignee": null,
  "milestone": null,
  "comments": 0,
  "created_at": "2014-01-17T22:05:06Z",
  "updated_at": "2014-01-17T22:05:06Z",
  "closed_at": null,
  "body": "The use of `html/template` instead of `text/template` in `help.go` is causing subtle behavior differences:\r\n\r\n```\r\n$ hk help more | grep access-remove\r\n    access-remove            remove a user&#39;s access to an app\r\n```\r\n\r\nNeed to see if there's a straightforward way to treat these templates as regular text instead of HTML.\r\n\r\nBut, on a related note, @max is hoping to re-do the styleguide as a bootstrap site that will simply fetch a usage JSON file from hk's server, which will probably make the `html/template` usage unnecessary."
}
]
