[
{
  "login": "sqs",
  "id": 1976,
  "avatar_url": "https://avatars.githubusercontent.com/u/1976?v=3",
  "gravatar_id": "",
  "url": "https://api.github.com/users/sqs",
  "html_url": "https://github.com/sqs",
  "followers_url": "https://api.github.com/users/sqs/followers",
  "following_url": "https://api.github.com/users/sqs/following{/other_user}",
  "gists_url": "https://api.github.com/users/sqs/gists{/gist_id}",
  "starred_url": "https://api.github.com/users/sqs/starred{/owner}{/repo}",
  "subscriptions_url": "https://api.github.com/users/sqs/subscriptions",
  "organizations_url": "https://api.github.com/users/sqs/orgs",
  "repos_url": "https://api.github.com/users/sqs/repos",
  "events_url": "https://api.github.com/users/sqs/events{/privacy}",
  "received_events_url": "https://api.github.com/users/sqs/received_events",
  "type": "User",
  "site_admin": false
}
, {
  "login": "beyang",
  "id": 1646931,
  "avatar_url": "https://avatars.githubusercontent.com/u/1646931?v=3",
  "gravatar_id": "",
  "url": "https://api.github.com/users/beyang",
  "html_url": "https://github.com/beyang",
  "followers_url": "https://api.github.com/users/beyang/followers",
  "following_url": "https://api.github.com/users/beyang/following{/other_user}",
  "gists_url": "https://api.github.com/users/beyang/gists{/gist_id}",
  "starred_url": "https://api.github.com/users/beyang/starred{/owner}{/repo}",
  "subscriptions_url": "https://api.github.com/users/beyang/subscriptions",
  "organizations_url": "https://api.github.com/users/beyang/orgs",
  "repos_url": "https://api.github.com/users/beyang/repos",
  "events_url": "https://api.github.com/users/beyang/events{/privacy}",
  "received_events_url": "https://api.github.com/users/beyang/received_events",
  "type": "User",
  "site_admin": false
}
]
