[
{
  "url": "https://api.github.com/repos/chef/knife-openstack/issues/comments/137808723",
  "html_url": "https://github.com/chef/knife-openstack/pull/174#issuecomment-137808723",
  "issue_url": "https://api.github.com/repos/chef/knife-openstack/issues/174",
  "id": 137808723,
  "user": {
    "login": "jjasghar",
    "id": 810824,
    "avatar_url": "https://avatars.githubusercontent.com/u/810824?v=3",
    "gravatar_id": "",
    "url": "https://api.github.com/users/jjasghar",
    "html_url": "https://github.com/jjasghar",
    "followers_url": "https://api.github.com/users/jjasghar/followers",
    "following_url": "https://api.github.com/users/jjasghar/following{/other_user}",
    "gists_url": "https://api.github.com/users/jjasghar/gists{/gist_id}",
    "starred_url": "https://api.github.com/users/jjasghar/starred{/owner}{/repo}",
    "subscriptions_url": "https://api.github.com/users/jjasghar/subscriptions",
    "organizations_url": "https://api.github.com/users/jjasghar/orgs",
    "repos_url": "https://api.github.com/users/jjasghar/repos",
    "events_url": "https://api.github.com/users/jjasghar/events{/privacy}",
    "received_events_url": "https://api.github.com/users/jjasghar/received_events",
    "type": "User",
    "site_admin": false
  },
  "created_at": "2015-09-04T18:10:24Z",
  "updated_at": "2015-09-04T18:10:24Z",
  "body": "Ok, this looks good. I'm gonna merge this and send out a pre release gem here in a bit."
}
]
