[
{
  "url": "https://api.github.com/repos/chef/knife-openstack/issues/comments/2464689",
  "html_url": "https://github.com/chef/knife-openstack/pull/9#issuecomment-2464689",
  "issue_url": "https://api.github.com/repos/chef/knife-openstack/issues/9",
  "id": 2464689,
  "user": {
    "login": "retr0h",
    "id": 9895,
    "avatar_url": "https://avatars.githubusercontent.com/u/9895?v=3",
    "gravatar_id": "",
    "url": "https://api.github.com/users/retr0h",
    "html_url": "https://github.com/retr0h",
    "followers_url": "https://api.github.com/users/retr0h/followers",
    "following_url": "https://api.github.com/users/retr0h/following{/other_user}",
    "gists_url": "https://api.github.com/users/retr0h/gists{/gist_id}",
    "starred_url": "https://api.github.com/users/retr0h/starred{/owner}{/repo}",
    "subscriptions_url": "https://api.github.com/users/retr0h/subscriptions",
    "organizations_url": "https://api.github.com/users/retr0h/orgs",
    "repos_url": "https://api.github.com/users/retr0h/repos",
    "events_url": "https://api.github.com/users/retr0h/events{/privacy}",
    "received_events_url": "https://api.github.com/users/retr0h/received_events",
    "type": "User",
    "site_admin": false
  },
  "created_at": "2011-10-20T04:43:16Z",
  "updated_at": "2011-10-20T04:43:16Z",
  "body": "Any interest in getting these pulled in?  Just curious if useful."
}
]
