[
{
  "url": "https://api.github.com/repos/twitter/hogan.js/issues/comments/3240474",
  "html_url": "https://github.com/twitter/hogan.js/issues/1#issuecomment-3240474",
  "issue_url": "https://api.github.com/repos/twitter/hogan.js/issues/1",
  "id": 3240474,
  "user": {
    "login": "zikes",
    "id": 410905,
    "avatar_url": "https://avatars.githubusercontent.com/u/410905?v=3",
    "gravatar_id": "",
    "url": "https://api.github.com/users/zikes",
    "html_url": "https://github.com/zikes",
    "followers_url": "https://api.github.com/users/zikes/followers",
    "following_url": "https://api.github.com/users/zikes/following{/other_user}",
    "gists_url": "https://api.github.com/users/zikes/gists{/gist_id}",
    "starred_url": "https://api.github.com/users/zikes/starred{/owner}{/repo}",
    "subscriptions_url": "https://api.github.com/users/zikes/subscriptions",
    "organizations_url": "https://api.github.com/users/zikes/orgs",
    "repos_url": "https://api.github.com/users/zikes/repos",
    "events_url": "https://api.github.com/users/zikes/events{/privacy}",
    "received_events_url": "https://api.github.com/users/zikes/received_events",
    "type": "User",
    "site_admin": false
  },
  "created_at": "2011-12-21T22:15:36Z",
  "updated_at": "2011-12-21T22:15:36Z",
  "body": "Seems to have been related to brief network issues on Github.  Not an issue."
}
, {
  "url": "https://api.github.com/repos/twitter/hogan.js/issues/comments/3240497",
  "html_url": "https://github.com/twitter/hogan.js/issues/1#issuecomment-3240497",
  "issue_url": "https://api.github.com/repos/twitter/hogan.js/issues/1",
  "id": 3240497,
  "user": {
    "login": "fat",
    "id": 169705,
    "avatar_url": "https://avatars.githubusercontent.com/u/169705?v=3",
    "gravatar_id": "",
    "url": "https://api.github.com/users/fat",
    "html_url": "https://github.com/fat",
    "followers_url": "https://api.github.com/users/fat/followers",
    "following_url": "https://api.github.com/users/fat/following{/other_user}",
    "gists_url": "https://api.github.com/users/fat/gists{/gist_id}",
    "starred_url": "https://api.github.com/users/fat/starred{/owner}{/repo}",
    "subscriptions_url": "https://api.github.com/users/fat/subscriptions",
    "organizations_url": "https://api.github.com/users/fat/orgs",
    "repos_url": "https://api.github.com/users/fat/repos",
    "events_url": "https://api.github.com/users/fat/events{/privacy}",
    "received_events_url": "https://api.github.com/users/fat/received_events",
    "type": "User",
    "site_admin": false
  },
  "created_at": "2011-12-21T22:16:36Z",
  "updated_at": "2011-12-21T22:16:36Z",
  "body": "actually i just fixed it ;)"
}
]
