[
{
  "url": "https://api.github.com/repos/google/ggrc-core/issues/comments/158817971",
  "html_url": "https://github.com/google/ggrc-core/pull/3261#issuecomment-158817971",
  "issue_url": "https://api.github.com/repos/google/ggrc-core/issues/3261",
  "id": 158817971,
  "user": {
    "login": "Smotko",
    "id": 513444,
    "avatar_url": "https://avatars.githubusercontent.com/u/513444?v=3",
    "gravatar_id": "",
    "url": "https://api.github.com/users/Smotko",
    "html_url": "https://github.com/Smotko",
    "followers_url": "https://api.github.com/users/Smotko/followers",
    "following_url": "https://api.github.com/users/Smotko/following{/other_user}",
    "gists_url": "https://api.github.com/users/Smotko/gists{/gist_id}",
    "starred_url": "https://api.github.com/users/Smotko/starred{/owner}{/repo}",
    "subscriptions_url": "https://api.github.com/users/Smotko/subscriptions",
    "organizations_url": "https://api.github.com/users/Smotko/orgs",
    "repos_url": "https://api.github.com/users/Smotko/repos",
    "events_url": "https://api.github.com/users/Smotko/events{/privacy}",
    "received_events_url": "https://api.github.com/users/Smotko/received_events",
    "type": "User",
    "site_admin": false
  },
  "created_at": "2015-11-22T23:25:19Z",
  "updated_at": "2015-11-22T23:25:19Z",
  "body": "Is this still needed? It doesn't actually remove the count on info page..."
}
, {
  "url": "https://api.github.com/repos/google/ggrc-core/issues/comments/158913090",
  "html_url": "https://github.com/google/ggrc-core/pull/3261#issuecomment-158913090",
  "issue_url": "https://api.github.com/repos/google/ggrc-core/issues/3261",
  "id": 158913090,
  "user": {
    "login": "hyperNURb",
    "id": 59742,
    "avatar_url": "https://avatars.githubusercontent.com/u/59742?v=3",
    "gravatar_id": "",
    "url": "https://api.github.com/users/hyperNURb",
    "html_url": "https://github.com/hyperNURb",
    "followers_url": "https://api.github.com/users/hyperNURb/followers",
    "following_url": "https://api.github.com/users/hyperNURb/following{/other_user}",
    "gists_url": "https://api.github.com/users/hyperNURb/gists{/gist_id}",
    "starred_url": "https://api.github.com/users/hyperNURb/starred{/owner}{/repo}",
    "subscriptions_url": "https://api.github.com/users/hyperNURb/subscriptions",
    "organizations_url": "https://api.github.com/users/hyperNURb/orgs",
    "repos_url": "https://api.github.com/users/hyperNURb/repos",
    "events_url": "https://api.github.com/users/hyperNURb/events{/privacy}",
    "received_events_url": "https://api.github.com/users/hyperNURb/received_events",
    "type": "User",
    "site_admin": false
  },
  "created_at": "2015-11-23T11:48:13Z",
  "updated_at": "2015-11-23T11:48:13Z",
  "body": "@Smotko Yes we do :-("
}
]
