[
{
  "url": "https://api.github.com/repos/google/ggrc-core/issues/comments/91645614",
  "html_url": "https://github.com/google/ggrc-core/pull/2602#issuecomment-91645614",
  "issue_url": "https://api.github.com/repos/google/ggrc-core/issues/2602",
  "id": 91645614,
  "user": {
    "login": "prasannav7",
    "id": 7989550,
    "avatar_url": "https://avatars.githubusercontent.com/u/7989550?v=3",
    "gravatar_id": "",
    "url": "https://api.github.com/users/prasannav7",
    "html_url": "https://github.com/prasannav7",
    "followers_url": "https://api.github.com/users/prasannav7/followers",
    "following_url": "https://api.github.com/users/prasannav7/following{/other_user}",
    "gists_url": "https://api.github.com/users/prasannav7/gists{/gist_id}",
    "starred_url": "https://api.github.com/users/prasannav7/starred{/owner}{/repo}",
    "subscriptions_url": "https://api.github.com/users/prasannav7/subscriptions",
    "organizations_url": "https://api.github.com/users/prasannav7/orgs",
    "repos_url": "https://api.github.com/users/prasannav7/repos",
    "events_url": "https://api.github.com/users/prasannav7/events{/privacy}",
    "received_events_url": "https://api.github.com/users/prasannav7/received_events",
    "type": "User",
    "site_admin": false
  },
  "created_at": "2015-04-10T18:28:38Z",
  "updated_at": "2015-04-10T18:28:38Z",
  "body": "Hi Smotko,   \r\nshouldn't the type of scaling be configurable too?\r\n\r\nAlso, will appreciate if you can also update deployment guide with brief information about what the newly available settings are for scaling and how they need to be specified in the deployment settings file"
}
, {
  "url": "https://api.github.com/repos/google/ggrc-core/issues/comments/91646486",
  "html_url": "https://github.com/google/ggrc-core/pull/2602#issuecomment-91646486",
  "issue_url": "https://api.github.com/repos/google/ggrc-core/issues/2602",
  "id": 91646486,
  "user": {
    "login": "zidarsk8",
    "id": 566311,
    "avatar_url": "https://avatars.githubusercontent.com/u/566311?v=3",
    "gravatar_id": "",
    "url": "https://api.github.com/users/zidarsk8",
    "html_url": "https://github.com/zidarsk8",
    "followers_url": "https://api.github.com/users/zidarsk8/followers",
    "following_url": "https://api.github.com/users/zidarsk8/following{/other_user}",
    "gists_url": "https://api.github.com/users/zidarsk8/gists{/gist_id}",
    "starred_url": "https://api.github.com/users/zidarsk8/starred{/owner}{/repo}",
    "subscriptions_url": "https://api.github.com/users/zidarsk8/subscriptions",
    "organizations_url": "https://api.github.com/users/zidarsk8/orgs",
    "repos_url": "https://api.github.com/users/zidarsk8/repos",
    "events_url": "https://api.github.com/users/zidarsk8/events{/privacy}",
    "received_events_url": "https://api.github.com/users/zidarsk8/received_events",
    "type": "User",
    "site_admin": false
  },
  "created_at": "2015-04-10T18:33:31Z",
  "updated_at": "2015-04-10T18:33:31Z",
  "body": ":+1: \r\n"
}
, {
  "url": "https://api.github.com/repos/google/ggrc-core/issues/comments/91649154",
  "html_url": "https://github.com/google/ggrc-core/pull/2602#issuecomment-91649154",
  "issue_url": "https://api.github.com/repos/google/ggrc-core/issues/2602",
  "id": 91649154,
  "user": {
    "login": "Smotko",
    "id": 513444,
    "avatar_url": "https://avatars.githubusercontent.com/u/513444?v=3",
    "gravatar_id": "",
    "url": "https://api.github.com/users/Smotko",
    "html_url": "https://github.com/Smotko",
    "followers_url": "https://api.github.com/users/Smotko/followers",
    "following_url": "https://api.github.com/users/Smotko/following{/other_user}",
    "gists_url": "https://api.github.com/users/Smotko/gists{/gist_id}",
    "starred_url": "https://api.github.com/users/Smotko/starred{/owner}{/repo}",
    "subscriptions_url": "https://api.github.com/users/Smotko/subscriptions",
    "organizations_url": "https://api.github.com/users/Smotko/orgs",
    "repos_url": "https://api.github.com/users/Smotko/repos",
    "events_url": "https://api.github.com/users/Smotko/events{/privacy}",
    "received_events_url": "https://api.github.com/users/Smotko/received_events",
    "type": "User",
    "site_admin": false
  },
  "created_at": "2015-04-10T18:45:47Z",
  "updated_at": "2015-04-10T18:45:47Z",
  "body": "@prasannav7 Yes, I'll make scaling type configurable, but that will require a change on how we generate the yaml file, since the current way doesn't support if clauses... I want this smaller change to go in before Monday so that Kostya isn't blocked.\r\n\r\nI've created a jira story to track remaining issues: CORE-1635."
}
]
