[
{
  "url": "https://api.github.com/repos/mapbox/mapbox.js/issues/comments/36775881",
  "html_url": "https://github.com/mapbox/mapbox.js/issues/701#issuecomment-36775881",
  "issue_url": "https://api.github.com/repos/mapbox/mapbox.js/issues/701",
  "id": 36775881,
  "user": {
    "login": "tmcw",
    "id": 32314,
    "avatar_url": "https://avatars.githubusercontent.com/u/32314?v=3",
    "gravatar_id": "",
    "url": "https://api.github.com/users/tmcw",
    "html_url": "https://github.com/tmcw",
    "followers_url": "https://api.github.com/users/tmcw/followers",
    "following_url": "https://api.github.com/users/tmcw/following{/other_user}",
    "gists_url": "https://api.github.com/users/tmcw/gists{/gist_id}",
    "starred_url": "https://api.github.com/users/tmcw/starred{/owner}{/repo}",
    "subscriptions_url": "https://api.github.com/users/tmcw/subscriptions",
    "organizations_url": "https://api.github.com/users/tmcw/orgs",
    "repos_url": "https://api.github.com/users/tmcw/repos",
    "events_url": "https://api.github.com/users/tmcw/events{/privacy}",
    "received_events_url": "https://api.github.com/users/tmcw/received_events",
    "type": "User",
    "site_admin": false
  },
  "created_at": "2014-03-05T18:28:46Z",
  "updated_at": "2014-03-05T18:28:46Z",
  "body": "I've got time tomorrow night to review and deploy a revision, and then the blog post will go live friday? Would love to get #702 out there as well."
}
, {
  "url": "https://api.github.com/repos/mapbox/mapbox.js/issues/comments/36779251",
  "html_url": "https://github.com/mapbox/mapbox.js/issues/701#issuecomment-36779251",
  "issue_url": "https://api.github.com/repos/mapbox/mapbox.js/issues/701",
  "id": 36779251,
  "user": {
    "login": "jfirebaugh",
    "id": 98601,
    "avatar_url": "https://avatars.githubusercontent.com/u/98601?v=3",
    "gravatar_id": "",
    "url": "https://api.github.com/users/jfirebaugh",
    "html_url": "https://github.com/jfirebaugh",
    "followers_url": "https://api.github.com/users/jfirebaugh/followers",
    "following_url": "https://api.github.com/users/jfirebaugh/following{/other_user}",
    "gists_url": "https://api.github.com/users/jfirebaugh/gists{/gist_id}",
    "starred_url": "https://api.github.com/users/jfirebaugh/starred{/owner}{/repo}",
    "subscriptions_url": "https://api.github.com/users/jfirebaugh/subscriptions",
    "organizations_url": "https://api.github.com/users/jfirebaugh/orgs",
    "repos_url": "https://api.github.com/users/jfirebaugh/repos",
    "events_url": "https://api.github.com/users/jfirebaugh/events{/privacy}",
    "received_events_url": "https://api.github.com/users/jfirebaugh/received_events",
    "type": "User",
    "site_admin": false
  },
  "created_at": "2014-03-05T18:58:02Z",
  "updated_at": "2014-03-05T18:58:02Z",
  "body": "Would be nice to get a fix for https://github.com/Leaflet/Leaflet/issues/2510 in if it's ready in time. If not, not a big deal, we can reroll or make a special build for embeds when it becomes a hard blocker for instrumentile."
}
, {
  "url": "https://api.github.com/repos/mapbox/mapbox.js/issues/comments/36779496",
  "html_url": "https://github.com/mapbox/mapbox.js/issues/701#issuecomment-36779496",
  "issue_url": "https://api.github.com/repos/mapbox/mapbox.js/issues/701",
  "id": 36779496,
  "user": {
    "login": "tmcw",
    "id": 32314,
    "avatar_url": "https://avatars.githubusercontent.com/u/32314?v=3",
    "gravatar_id": "",
    "url": "https://api.github.com/users/tmcw",
    "html_url": "https://github.com/tmcw",
    "followers_url": "https://api.github.com/users/tmcw/followers",
    "following_url": "https://api.github.com/users/tmcw/following{/other_user}",
    "gists_url": "https://api.github.com/users/tmcw/gists{/gist_id}",
    "starred_url": "https://api.github.com/users/tmcw/starred{/owner}{/repo}",
    "subscriptions_url": "https://api.github.com/users/tmcw/subscriptions",
    "organizations_url": "https://api.github.com/users/tmcw/orgs",
    "repos_url": "https://api.github.com/users/tmcw/repos",
    "events_url": "https://api.github.com/users/tmcw/events{/privacy}",
    "received_events_url": "https://api.github.com/users/tmcw/received_events",
    "type": "User",
    "site_admin": false
  },
  "created_at": "2014-03-05T19:00:10Z",
  "updated_at": "2014-03-05T19:00:10Z",
  "body": "@jfirebaugh let's do a special build for embeds instead of bundling that with a release, it'll keep the schedules for instrumentile & this release decoupled."
}
, {
  "url": "https://api.github.com/repos/mapbox/mapbox.js/issues/comments/36890233",
  "html_url": "https://github.com/mapbox/mapbox.js/issues/701#issuecomment-36890233",
  "issue_url": "https://api.github.com/repos/mapbox/mapbox.js/issues/701",
  "id": 36890233,
  "user": {
    "login": "mourner",
    "id": 25395,
    "avatar_url": "https://avatars.githubusercontent.com/u/25395?v=3",
    "gravatar_id": "",
    "url": "https://api.github.com/users/mourner",
    "html_url": "https://github.com/mourner",
    "followers_url": "https://api.github.com/users/mourner/followers",
    "following_url": "https://api.github.com/users/mourner/following{/other_user}",
    "gists_url": "https://api.github.com/users/mourner/gists{/gist_id}",
    "starred_url": "https://api.github.com/users/mourner/starred{/owner}{/repo}",
    "subscriptions_url": "https://api.github.com/users/mourner/subscriptions",
    "organizations_url": "https://api.github.com/users/mourner/orgs",
    "repos_url": "https://api.github.com/users/mourner/repos",
    "events_url": "https://api.github.com/users/mourner/events{/privacy}",
    "received_events_url": "https://api.github.com/users/mourner/received_events",
    "type": "User",
    "site_admin": false
  },
  "created_at": "2014-03-06T14:04:48Z",
  "updated_at": "2014-03-06T14:04:48Z",
  "body": "@jfirebaugh I've fixed that issue yesterday."
}
, {
  "url": "https://api.github.com/repos/mapbox/mapbox.js/issues/comments/36916029",
  "html_url": "https://github.com/mapbox/mapbox.js/issues/701#issuecomment-36916029",
  "issue_url": "https://api.github.com/repos/mapbox/mapbox.js/issues/701",
  "id": 36916029,
  "user": {
    "login": "jfirebaugh",
    "id": 98601,
    "avatar_url": "https://avatars.githubusercontent.com/u/98601?v=3",
    "gravatar_id": "",
    "url": "https://api.github.com/users/jfirebaugh",
    "html_url": "https://github.com/jfirebaugh",
    "followers_url": "https://api.github.com/users/jfirebaugh/followers",
    "following_url": "https://api.github.com/users/jfirebaugh/following{/other_user}",
    "gists_url": "https://api.github.com/users/jfirebaugh/gists{/gist_id}",
    "starred_url": "https://api.github.com/users/jfirebaugh/starred{/owner}{/repo}",
    "subscriptions_url": "https://api.github.com/users/jfirebaugh/subscriptions",
    "organizations_url": "https://api.github.com/users/jfirebaugh/orgs",
    "repos_url": "https://api.github.com/users/jfirebaugh/repos",
    "events_url": "https://api.github.com/users/jfirebaugh/events{/privacy}",
    "received_events_url": "https://api.github.com/users/jfirebaugh/received_events",
    "type": "User",
    "site_admin": false
  },
  "created_at": "2014-03-06T17:54:50Z",
  "updated_at": "2014-03-06T17:54:50Z",
  "body": "Thanks @mourner. I agree with @tmcw, this can wait for a separate release."
}
, {
  "url": "https://api.github.com/repos/mapbox/mapbox.js/issues/comments/36961009",
  "html_url": "https://github.com/mapbox/mapbox.js/issues/701#issuecomment-36961009",
  "issue_url": "https://api.github.com/repos/mapbox/mapbox.js/issues/701",
  "id": 36961009,
  "user": {
    "login": "tmcw",
    "id": 32314,
    "avatar_url": "https://avatars.githubusercontent.com/u/32314?v=3",
    "gravatar_id": "",
    "url": "https://api.github.com/users/tmcw",
    "html_url": "https://github.com/tmcw",
    "followers_url": "https://api.github.com/users/tmcw/followers",
    "following_url": "https://api.github.com/users/tmcw/following{/other_user}",
    "gists_url": "https://api.github.com/users/tmcw/gists{/gist_id}",
    "starred_url": "https://api.github.com/users/tmcw/starred{/owner}{/repo}",
    "subscriptions_url": "https://api.github.com/users/tmcw/subscriptions",
    "organizations_url": "https://api.github.com/users/tmcw/orgs",
    "repos_url": "https://api.github.com/users/tmcw/repos",
    "events_url": "https://api.github.com/users/tmcw/events{/privacy}",
    "received_events_url": "https://api.github.com/users/tmcw/received_events",
    "type": "User",
    "site_admin": false
  },
  "created_at": "2014-03-07T02:05:33Z",
  "updated_at": "2014-03-07T02:05:33Z",
  "body": "Deployed npm+tag+cdn+mapboxjs+documentation."
}
]
