[
{
  "url": "https://api.github.com/repos/mapbox/mapbox.js/issues/comments/13585546",
  "html_url": "https://github.com/mapbox/mapbox.js/issues/168#issuecomment-13585546",
  "issue_url": "https://api.github.com/repos/mapbox/mapbox.js/issues/168",
  "id": 13585546,
  "user": {
    "login": "jfirebaugh",
    "id": 98601,
    "avatar_url": "https://avatars.githubusercontent.com/u/98601?v=3",
    "gravatar_id": "",
    "url": "https://api.github.com/users/jfirebaugh",
    "html_url": "https://github.com/jfirebaugh",
    "followers_url": "https://api.github.com/users/jfirebaugh/followers",
    "following_url": "https://api.github.com/users/jfirebaugh/following{/other_user}",
    "gists_url": "https://api.github.com/users/jfirebaugh/gists{/gist_id}",
    "starred_url": "https://api.github.com/users/jfirebaugh/starred{/owner}{/repo}",
    "subscriptions_url": "https://api.github.com/users/jfirebaugh/subscriptions",
    "organizations_url": "https://api.github.com/users/jfirebaugh/orgs",
    "repos_url": "https://api.github.com/users/jfirebaugh/repos",
    "events_url": "https://api.github.com/users/jfirebaugh/events{/privacy}",
    "received_events_url": "https://api.github.com/users/jfirebaugh/received_events",
    "type": "User",
    "site_admin": false
  },
  "created_at": "2013-02-14T23:46:45Z",
  "updated_at": "2013-02-14T23:46:45Z",
  "body": "Main issue here is the [lack of a public API](https://github.com/mapbox/mapbox.js/commit/9b450083d044bc584bb541e97b8a5a39f43faa75#L0R55) to get a DOM element for the layer."
}
, {
  "url": "https://api.github.com/repos/mapbox/mapbox.js/issues/comments/13589602",
  "html_url": "https://github.com/mapbox/mapbox.js/issues/168#issuecomment-13589602",
  "issue_url": "https://api.github.com/repos/mapbox/mapbox.js/issues/168",
  "id": 13589602,
  "user": {
    "login": "jfirebaugh",
    "id": 98601,
    "avatar_url": "https://avatars.githubusercontent.com/u/98601?v=3",
    "gravatar_id": "",
    "url": "https://api.github.com/users/jfirebaugh",
    "html_url": "https://github.com/jfirebaugh",
    "followers_url": "https://api.github.com/users/jfirebaugh/followers",
    "following_url": "https://api.github.com/users/jfirebaugh/following{/other_user}",
    "gists_url": "https://api.github.com/users/jfirebaugh/gists{/gist_id}",
    "starred_url": "https://api.github.com/users/jfirebaugh/starred{/owner}{/repo}",
    "subscriptions_url": "https://api.github.com/users/jfirebaugh/subscriptions",
    "organizations_url": "https://api.github.com/users/jfirebaugh/orgs",
    "repos_url": "https://api.github.com/users/jfirebaugh/repos",
    "events_url": "https://api.github.com/users/jfirebaugh/events{/privacy}",
    "received_events_url": "https://api.github.com/users/jfirebaugh/received_events",
    "type": "User",
    "site_admin": false
  },
  "created_at": "2013-02-15T01:55:35Z",
  "updated_at": "2013-02-15T01:55:35Z",
  "body": "Also panning and zooming is broken (same as the mailing list post)."
}
, {
  "url": "https://api.github.com/repos/mapbox/mapbox.js/issues/comments/13736965",
  "html_url": "https://github.com/mapbox/mapbox.js/issues/168#issuecomment-13736965",
  "issue_url": "https://api.github.com/repos/mapbox/mapbox.js/issues/168",
  "id": 13736965,
  "user": {
    "login": "tmcw",
    "id": 32314,
    "avatar_url": "https://avatars.githubusercontent.com/u/32314?v=3",
    "gravatar_id": "",
    "url": "https://api.github.com/users/tmcw",
    "html_url": "https://github.com/tmcw",
    "followers_url": "https://api.github.com/users/tmcw/followers",
    "following_url": "https://api.github.com/users/tmcw/following{/other_user}",
    "gists_url": "https://api.github.com/users/tmcw/gists{/gist_id}",
    "starred_url": "https://api.github.com/users/tmcw/starred{/owner}{/repo}",
    "subscriptions_url": "https://api.github.com/users/tmcw/subscriptions",
    "organizations_url": "https://api.github.com/users/tmcw/orgs",
    "repos_url": "https://api.github.com/users/tmcw/repos",
    "events_url": "https://api.github.com/users/tmcw/events{/privacy}",
    "received_events_url": "https://api.github.com/users/tmcw/received_events",
    "type": "User",
    "site_admin": false
  },
  "created_at": "2013-02-18T18:53:34Z",
  "updated_at": "2013-02-18T18:53:34Z",
  "body": "@mourner any way you can see this working in Leaflet?"
}
, {
  "url": "https://api.github.com/repos/mapbox/mapbox.js/issues/comments/13746346",
  "html_url": "https://github.com/mapbox/mapbox.js/issues/168#issuecomment-13746346",
  "issue_url": "https://api.github.com/repos/mapbox/mapbox.js/issues/168",
  "id": 13746346,
  "user": {
    "login": "mourner",
    "id": 25395,
    "avatar_url": "https://avatars.githubusercontent.com/u/25395?v=3",
    "gravatar_id": "",
    "url": "https://api.github.com/users/mourner",
    "html_url": "https://github.com/mourner",
    "followers_url": "https://api.github.com/users/mourner/followers",
    "following_url": "https://api.github.com/users/mourner/following{/other_user}",
    "gists_url": "https://api.github.com/users/mourner/gists{/gist_id}",
    "starred_url": "https://api.github.com/users/mourner/starred{/owner}{/repo}",
    "subscriptions_url": "https://api.github.com/users/mourner/subscriptions",
    "organizations_url": "https://api.github.com/users/mourner/orgs",
    "repos_url": "https://api.github.com/users/mourner/repos",
    "events_url": "https://api.github.com/users/mourner/events{/privacy}",
    "received_events_url": "https://api.github.com/users/mourner/received_events",
    "type": "User",
    "site_admin": false
  },
  "created_at": "2013-02-18T22:20:54Z",
  "updated_at": "2013-02-18T22:20:54Z",
  "body": "I'll check this out."
}
, {
  "url": "https://api.github.com/repos/mapbox/mapbox.js/issues/comments/16256422",
  "html_url": "https://github.com/mapbox/mapbox.js/issues/168#issuecomment-16256422",
  "issue_url": "https://api.github.com/repos/mapbox/mapbox.js/issues/168",
  "id": 16256422,
  "user": {
    "login": "tmcw",
    "id": 32314,
    "avatar_url": "https://avatars.githubusercontent.com/u/32314?v=3",
    "gravatar_id": "",
    "url": "https://api.github.com/users/tmcw",
    "html_url": "https://github.com/tmcw",
    "followers_url": "https://api.github.com/users/tmcw/followers",
    "following_url": "https://api.github.com/users/tmcw/following{/other_user}",
    "gists_url": "https://api.github.com/users/tmcw/gists{/gist_id}",
    "starred_url": "https://api.github.com/users/tmcw/starred{/owner}{/repo}",
    "subscriptions_url": "https://api.github.com/users/tmcw/subscriptions",
    "organizations_url": "https://api.github.com/users/tmcw/orgs",
    "repos_url": "https://api.github.com/users/tmcw/repos",
    "events_url": "https://api.github.com/users/tmcw/events{/privacy}",
    "received_events_url": "https://api.github.com/users/tmcw/received_events",
    "type": "User",
    "site_admin": false
  },
  "created_at": "2013-04-11T19:38:18Z",
  "updated_at": "2013-04-11T19:38:18Z",
  "body": "Waiting for the GridLayer refactor in Leaflet I assume. Retagging postv1"
}
, {
  "url": "https://api.github.com/repos/mapbox/mapbox.js/issues/comments/17076840",
  "html_url": "https://github.com/mapbox/mapbox.js/issues/168#issuecomment-17076840",
  "issue_url": "https://api.github.com/repos/mapbox/mapbox.js/issues/168",
  "id": 17076840,
  "user": {
    "login": "hrwgc",
    "id": 1704627,
    "avatar_url": "https://avatars.githubusercontent.com/u/1704627?v=3",
    "gravatar_id": "",
    "url": "https://api.github.com/users/hrwgc",
    "html_url": "https://github.com/hrwgc",
    "followers_url": "https://api.github.com/users/hrwgc/followers",
    "following_url": "https://api.github.com/users/hrwgc/following{/other_user}",
    "gists_url": "https://api.github.com/users/hrwgc/gists{/gist_id}",
    "starred_url": "https://api.github.com/users/hrwgc/starred{/owner}{/repo}",
    "subscriptions_url": "https://api.github.com/users/hrwgc/subscriptions",
    "organizations_url": "https://api.github.com/users/hrwgc/orgs",
    "repos_url": "https://api.github.com/users/hrwgc/repos",
    "events_url": "https://api.github.com/users/hrwgc/events{/privacy}",
    "received_events_url": "https://api.github.com/users/hrwgc/received_events",
    "type": "User",
    "site_admin": false
  },
  "created_at": "2013-04-26T14:17:07Z",
  "updated_at": "2013-04-26T14:17:07Z",
  "body": "fwiw, a swipe demo using v1 would be helpful for us to build something for a Monday released blog post. It looks like it is a bigger challenge than originally expected, so we can plan on using previous mapbox.js unless I hear otherwise.  @tmcw "
}
, {
  "url": "https://api.github.com/repos/mapbox/mapbox.js/issues/comments/17081607",
  "html_url": "https://github.com/mapbox/mapbox.js/issues/168#issuecomment-17081607",
  "issue_url": "https://api.github.com/repos/mapbox/mapbox.js/issues/168",
  "id": 17081607,
  "user": {
    "login": "jfirebaugh",
    "id": 98601,
    "avatar_url": "https://avatars.githubusercontent.com/u/98601?v=3",
    "gravatar_id": "",
    "url": "https://api.github.com/users/jfirebaugh",
    "html_url": "https://github.com/jfirebaugh",
    "followers_url": "https://api.github.com/users/jfirebaugh/followers",
    "following_url": "https://api.github.com/users/jfirebaugh/following{/other_user}",
    "gists_url": "https://api.github.com/users/jfirebaugh/gists{/gist_id}",
    "starred_url": "https://api.github.com/users/jfirebaugh/starred{/owner}{/repo}",
    "subscriptions_url": "https://api.github.com/users/jfirebaugh/subscriptions",
    "organizations_url": "https://api.github.com/users/jfirebaugh/orgs",
    "repos_url": "https://api.github.com/users/jfirebaugh/repos",
    "events_url": "https://api.github.com/users/jfirebaugh/events{/privacy}",
    "received_events_url": "https://api.github.com/users/jfirebaugh/received_events",
    "type": "User",
    "site_admin": false
  },
  "created_at": "2013-04-26T15:32:37Z",
  "updated_at": "2013-04-26T15:32:37Z",
  "body": "It looked difficult to reimplement swipe with Leaflet, so I would go with v0 if you're on a deadline.\r\n\r\nOn Apr 26, 2013, at 7:17 AM, Chris Herwig <notifications@github.com> wrote:\r\n\r\n> fwiw, a swipe demo using v1 would be helpful for us to build something for a Monday released blog post. It looks like it is a bigger challenge than originally expected, so we can plan on using previous mapbox.js unless I hear otherwise. @tmcw\r\n> \r\n> —\r\n> Reply to this email directly or view it on GitHub."
}
, {
  "url": "https://api.github.com/repos/mapbox/mapbox.js/issues/comments/31127418",
  "html_url": "https://github.com/mapbox/mapbox.js/issues/168#issuecomment-31127418",
  "issue_url": "https://api.github.com/repos/mapbox/mapbox.js/issues/168",
  "id": 31127418,
  "user": {
    "login": "mourner",
    "id": 25395,
    "avatar_url": "https://avatars.githubusercontent.com/u/25395?v=3",
    "gravatar_id": "",
    "url": "https://api.github.com/users/mourner",
    "html_url": "https://github.com/mourner",
    "followers_url": "https://api.github.com/users/mourner/followers",
    "following_url": "https://api.github.com/users/mourner/following{/other_user}",
    "gists_url": "https://api.github.com/users/mourner/gists{/gist_id}",
    "starred_url": "https://api.github.com/users/mourner/starred{/owner}{/repo}",
    "subscriptions_url": "https://api.github.com/users/mourner/subscriptions",
    "organizations_url": "https://api.github.com/users/mourner/orgs",
    "repos_url": "https://api.github.com/users/mourner/repos",
    "events_url": "https://api.github.com/users/mourner/events{/privacy}",
    "received_events_url": "https://api.github.com/users/mourner/received_events",
    "type": "User",
    "site_admin": false
  },
  "created_at": "2013-12-23T16:14:08Z",
  "updated_at": "2013-12-23T16:14:08Z",
  "body": "@tmcw I rebuilt the swipe example in Leaflet, commiting it to mapbox.js examples now. Do we need to support IE9 in it? I'd love to use input type=range instead of using the old hacked-together custom slider."
}
, {
  "url": "https://api.github.com/repos/mapbox/mapbox.js/issues/comments/31127556",
  "html_url": "https://github.com/mapbox/mapbox.js/issues/168#issuecomment-31127556",
  "issue_url": "https://api.github.com/repos/mapbox/mapbox.js/issues/168",
  "id": 31127556,
  "user": {
    "login": "tmcw",
    "id": 32314,
    "avatar_url": "https://avatars.githubusercontent.com/u/32314?v=3",
    "gravatar_id": "",
    "url": "https://api.github.com/users/tmcw",
    "html_url": "https://github.com/tmcw",
    "followers_url": "https://api.github.com/users/tmcw/followers",
    "following_url": "https://api.github.com/users/tmcw/following{/other_user}",
    "gists_url": "https://api.github.com/users/tmcw/gists{/gist_id}",
    "starred_url": "https://api.github.com/users/tmcw/starred{/owner}{/repo}",
    "subscriptions_url": "https://api.github.com/users/tmcw/subscriptions",
    "organizations_url": "https://api.github.com/users/tmcw/orgs",
    "repos_url": "https://api.github.com/users/tmcw/repos",
    "events_url": "https://api.github.com/users/tmcw/events{/privacy}",
    "received_events_url": "https://api.github.com/users/tmcw/received_events",
    "type": "User",
    "site_admin": false
  },
  "created_at": "2013-12-23T16:16:47Z",
  "updated_at": "2013-12-23T16:16:47Z",
  "body": "Examples don't need to support all browsers - implement it the way you think is best."
}
, {
  "url": "https://api.github.com/repos/mapbox/mapbox.js/issues/comments/31130161",
  "html_url": "https://github.com/mapbox/mapbox.js/issues/168#issuecomment-31130161",
  "issue_url": "https://api.github.com/repos/mapbox/mapbox.js/issues/168",
  "id": 31130161,
  "user": {
    "login": "mourner",
    "id": 25395,
    "avatar_url": "https://avatars.githubusercontent.com/u/25395?v=3",
    "gravatar_id": "",
    "url": "https://api.github.com/users/mourner",
    "html_url": "https://github.com/mourner",
    "followers_url": "https://api.github.com/users/mourner/followers",
    "following_url": "https://api.github.com/users/mourner/following{/other_user}",
    "gists_url": "https://api.github.com/users/mourner/gists{/gist_id}",
    "starred_url": "https://api.github.com/users/mourner/starred{/owner}{/repo}",
    "subscriptions_url": "https://api.github.com/users/mourner/subscriptions",
    "organizations_url": "https://api.github.com/users/mourner/orgs",
    "repos_url": "https://api.github.com/users/mourner/repos",
    "events_url": "https://api.github.com/users/mourner/events{/privacy}",
    "received_events_url": "https://api.github.com/users/mourner/received_events",
    "type": "User",
    "site_admin": false
  },
  "created_at": "2013-12-23T16:59:43Z",
  "updated_at": "2013-12-23T16:59:43Z",
  "body": "Awesome, will do."
}
, {
  "url": "https://api.github.com/repos/mapbox/mapbox.js/issues/comments/31134422",
  "html_url": "https://github.com/mapbox/mapbox.js/issues/168#issuecomment-31134422",
  "issue_url": "https://api.github.com/repos/mapbox/mapbox.js/issues/168",
  "id": 31134422,
  "user": {
    "login": "mourner",
    "id": 25395,
    "avatar_url": "https://avatars.githubusercontent.com/u/25395?v=3",
    "gravatar_id": "",
    "url": "https://api.github.com/users/mourner",
    "html_url": "https://github.com/mourner",
    "followers_url": "https://api.github.com/users/mourner/followers",
    "following_url": "https://api.github.com/users/mourner/following{/other_user}",
    "gists_url": "https://api.github.com/users/mourner/gists{/gist_id}",
    "starred_url": "https://api.github.com/users/mourner/starred{/owner}{/repo}",
    "subscriptions_url": "https://api.github.com/users/mourner/subscriptions",
    "organizations_url": "https://api.github.com/users/mourner/orgs",
    "repos_url": "https://api.github.com/users/mourner/repos",
    "events_url": "https://api.github.com/users/mourner/events{/privacy}",
    "received_events_url": "https://api.github.com/users/mourner/received_events",
    "type": "User",
    "site_admin": false
  },
  "created_at": "2013-12-23T18:12:04Z",
  "updated_at": "2013-12-23T18:12:04Z",
  "body": "https://www.mapbox.com/mapbox.js/example/v1.0.0/swipe-layers/"
}
, {
  "url": "https://api.github.com/repos/mapbox/mapbox.js/issues/comments/31134542",
  "html_url": "https://github.com/mapbox/mapbox.js/issues/168#issuecomment-31134542",
  "issue_url": "https://api.github.com/repos/mapbox/mapbox.js/issues/168",
  "id": 31134542,
  "user": {
    "login": "tmcw",
    "id": 32314,
    "avatar_url": "https://avatars.githubusercontent.com/u/32314?v=3",
    "gravatar_id": "",
    "url": "https://api.github.com/users/tmcw",
    "html_url": "https://github.com/tmcw",
    "followers_url": "https://api.github.com/users/tmcw/followers",
    "following_url": "https://api.github.com/users/tmcw/following{/other_user}",
    "gists_url": "https://api.github.com/users/tmcw/gists{/gist_id}",
    "starred_url": "https://api.github.com/users/tmcw/starred{/owner}{/repo}",
    "subscriptions_url": "https://api.github.com/users/tmcw/subscriptions",
    "organizations_url": "https://api.github.com/users/tmcw/orgs",
    "repos_url": "https://api.github.com/users/tmcw/repos",
    "events_url": "https://api.github.com/users/tmcw/events{/privacy}",
    "received_events_url": "https://api.github.com/users/tmcw/received_events",
    "type": "User",
    "site_admin": false
  },
  "created_at": "2013-12-23T18:14:15Z",
  "updated_at": "2013-12-23T18:14:15Z",
  "body": "![](http://media3.giphy.com/media/WKdPOVCG5LPaM/giphy.gif)\r\n\r\nTweeted from MapBox: https://twitter.com/Mapbox/status/415183516226564096"
}
]
