[
{
  "url": "https://api.github.com/repos/mapbox/mapbox.js/issues/comments/33084445",
  "html_url": "https://github.com/mapbox/mapbox.js/issues/650#issuecomment-33084445",
  "issue_url": "https://api.github.com/repos/mapbox/mapbox.js/issues/650",
  "id": 33084445,
  "user": {
    "login": "aaronlidman",
    "id": 58878,
    "avatar_url": "https://avatars.githubusercontent.com/u/58878?v=3",
    "gravatar_id": "",
    "url": "https://api.github.com/users/aaronlidman",
    "html_url": "https://github.com/aaronlidman",
    "followers_url": "https://api.github.com/users/aaronlidman/followers",
    "following_url": "https://api.github.com/users/aaronlidman/following{/other_user}",
    "gists_url": "https://api.github.com/users/aaronlidman/gists{/gist_id}",
    "starred_url": "https://api.github.com/users/aaronlidman/starred{/owner}{/repo}",
    "subscriptions_url": "https://api.github.com/users/aaronlidman/subscriptions",
    "organizations_url": "https://api.github.com/users/aaronlidman/orgs",
    "repos_url": "https://api.github.com/users/aaronlidman/repos",
    "events_url": "https://api.github.com/users/aaronlidman/events{/privacy}",
    "received_events_url": "https://api.github.com/users/aaronlidman/received_events",
    "type": "User",
    "site_admin": false
  },
  "created_at": "2014-01-23T00:13:28Z",
  "updated_at": "2014-01-23T00:13:28Z",
  "body": "These and all mapbox.js docs 'select' buttons are going to be zeroclickboard buttons, #644, which should be much smaller. I'll hopefully get to that soon."
}
, {
  "url": "https://api.github.com/repos/mapbox/mapbox.js/issues/comments/33305287",
  "html_url": "https://github.com/mapbox/mapbox.js/issues/650#issuecomment-33305287",
  "issue_url": "https://api.github.com/repos/mapbox/mapbox.js/issues/650",
  "id": 33305287,
  "user": {
    "login": "aaronlidman",
    "id": 58878,
    "avatar_url": "https://avatars.githubusercontent.com/u/58878?v=3",
    "gravatar_id": "",
    "url": "https://api.github.com/users/aaronlidman",
    "html_url": "https://github.com/aaronlidman",
    "followers_url": "https://api.github.com/users/aaronlidman/followers",
    "following_url": "https://api.github.com/users/aaronlidman/following{/other_user}",
    "gists_url": "https://api.github.com/users/aaronlidman/gists{/gist_id}",
    "starred_url": "https://api.github.com/users/aaronlidman/starred{/owner}{/repo}",
    "subscriptions_url": "https://api.github.com/users/aaronlidman/subscriptions",
    "organizations_url": "https://api.github.com/users/aaronlidman/orgs",
    "repos_url": "https://api.github.com/users/aaronlidman/repos",
    "events_url": "https://api.github.com/users/aaronlidman/events{/privacy}",
    "received_events_url": "https://api.github.com/users/aaronlidman/received_events",
    "type": "User",
    "site_admin": false
  },
  "created_at": "2014-01-26T00:33:59Z",
  "updated_at": "2014-01-26T00:33:59Z",
  "body": "![screen shot 2014-01-25 at 7 33 15 pm](https://f.cloud.github.com/assets/58878/2002977/81fa4336-8621-11e3-8984-980175b26eb6.png)\r\n"
}
]
