{
  "id": 2561221,
  "name": "kensa-create-sinatra",
  "full_name": "heroku/kensa-create-sinatra",
  "owner": {
    "login": "heroku",
    "id": 23211,
    "avatar_url": "https://avatars.githubusercontent.com/u/23211?v=3",
    "gravatar_id": "",
    "url": "https://api.github.com/users/heroku",
    "html_url": "https://github.com/heroku",
    "followers_url": "https://api.github.com/users/heroku/followers",
    "following_url": "https://api.github.com/users/heroku/following{/other_user}",
    "gists_url": "https://api.github.com/users/heroku/gists{/gist_id}",
    "starred_url": "https://api.github.com/users/heroku/starred{/owner}{/repo}",
    "subscriptions_url": "https://api.github.com/users/heroku/subscriptions",
    "organizations_url": "https://api.github.com/users/heroku/orgs",
    "repos_url": "https://api.github.com/users/heroku/repos",
    "events_url": "https://api.github.com/users/heroku/events{/privacy}",
    "received_events_url": "https://api.github.com/users/heroku/received_events",
    "type": "Organization",
    "site_admin": false
  },
  "private": false,
  "html_url": "https://github.com/heroku/kensa-create-sinatra",
  "description": "template app for kensa create command",
  "fork": false,
  "url": "https://api.github.com/repos/heroku/kensa-create-sinatra",
  "forks_url": "https://api.github.com/repos/heroku/kensa-create-sinatra/forks",
  "keys_url": "https://api.github.com/repos/heroku/kensa-create-sinatra/keys{/key_id}",
  "collaborators_url": "https://api.github.com/repos/heroku/kensa-create-sinatra/collaborators{/collaborator}",
  "teams_url": "https://api.github.com/repos/heroku/kensa-create-sinatra/teams",
  "hooks_url": "https://api.github.com/repos/heroku/kensa-create-sinatra/hooks",
  "issue_events_url": "https://api.github.com/repos/heroku/kensa-create-sinatra/issues/events{/number}",
  "events_url": "https://api.github.com/repos/heroku/kensa-create-sinatra/events",
  "assignees_url": "https://api.github.com/repos/heroku/kensa-create-sinatra/assignees{/user}",
  "branches_url": "https://api.github.com/repos/heroku/kensa-create-sinatra/branches{/branch}",
  "tags_url": "https://api.github.com/repos/heroku/kensa-create-sinatra/tags",
  "blobs_url": "https://api.github.com/repos/heroku/kensa-create-sinatra/git/blobs{/sha}",
  "git_tags_url": "https://api.github.com/repos/heroku/kensa-create-sinatra/git/tags{/sha}",
  "git_refs_url": "https://api.github.com/repos/heroku/kensa-create-sinatra/git/refs{/sha}",
  "trees_url": "https://api.github.com/repos/heroku/kensa-create-sinatra/git/trees{/sha}",
  "statuses_url": "https://api.github.com/repos/heroku/kensa-create-sinatra/statuses/{sha}",
  "languages_url": "https://api.github.com/repos/heroku/kensa-create-sinatra/languages",
  "stargazers_url": "https://api.github.com/repos/heroku/kensa-create-sinatra/stargazers",
  "contributors_url": "https://api.github.com/repos/heroku/kensa-create-sinatra/contributors",
  "subscribers_url": "https://api.github.com/repos/heroku/kensa-create-sinatra/subscribers",
  "subscription_url": "https://api.github.com/repos/heroku/kensa-create-sinatra/subscription",
  "commits_url": "https://api.github.com/repos/heroku/kensa-create-sinatra/commits{/sha}",
  "git_commits_url": "https://api.github.com/repos/heroku/kensa-create-sinatra/git/commits{/sha}",
  "comments_url": "https://api.github.com/repos/heroku/kensa-create-sinatra/comments{/number}",
  "issue_comment_url": "https://api.github.com/repos/heroku/kensa-create-sinatra/issues/comments{/number}",
  "contents_url": "https://api.github.com/repos/heroku/kensa-create-sinatra/contents/{+path}",
  "compare_url": "https://api.github.com/repos/heroku/kensa-create-sinatra/compare/{base}...{head}",
  "merges_url": "https://api.github.com/repos/heroku/kensa-create-sinatra/merges",
  "archive_url": "https://api.github.com/repos/heroku/kensa-create-sinatra/{archive_format}{/ref}",
  "downloads_url": "https://api.github.com/repos/heroku/kensa-create-sinatra/downloads",
  "issues_url": "https://api.github.com/repos/heroku/kensa-create-sinatra/issues{/number}",
  "pulls_url": "https://api.github.com/repos/heroku/kensa-create-sinatra/pulls{/number}",
  "milestones_url": "https://api.github.com/repos/heroku/kensa-create-sinatra/milestones{/number}",
  "notifications_url": "https://api.github.com/repos/heroku/kensa-create-sinatra/notifications{?since,all,participating}",
  "labels_url": "https://api.github.com/repos/heroku/kensa-create-sinatra/labels{/name}",
  "releases_url": "https://api.github.com/repos/heroku/kensa-create-sinatra/releases{/id}",
  "deployments_url": "https://api.github.com/repos/heroku/kensa-create-sinatra/deployments",
  "created_at": "2011-10-12T08:49:49Z",
  "updated_at": "2015-11-05T08:52:51Z",
  "pushed_at": "2014-11-03T23:17:28Z",
  "git_url": "git://github.com/heroku/kensa-create-sinatra.git",
  "ssh_url": "git@github.com:heroku/kensa-create-sinatra.git",
  "clone_url": "https://github.com/heroku/kensa-create-sinatra.git",
  "svn_url": "https://github.com/heroku/kensa-create-sinatra",
  "homepage": "http://addons.heroku.com",
  "size": 203,
  "stargazers_count": 17,
  "watchers_count": 17,
  "language": "Ruby",
  "has_issues": true,
  "has_downloads": true,
  "has_wiki": true,
  "has_pages": false,
  "forks_count": 10,
  "mirror_url": null,
  "open_issues_count": 2,
  "forks": 10,
  "open_issues": 2,
  "watchers": 17,
  "default_branch": "master",
  "master_branch": "master",
  "permissions": {
    "admin": false,
    "push": false,
    "pull": true
  },
  "license": null,
  "organization": {
    "login": "heroku",
    "id": 23211,
    "avatar_url": "https://avatars.githubusercontent.com/u/23211?v=3",
    "gravatar_id": "",
    "url": "https://api.github.com/users/heroku",
    "html_url": "https://github.com/heroku",
    "followers_url": "https://api.github.com/users/heroku/followers",
    "following_url": "https://api.github.com/users/heroku/following{/other_user}",
    "gists_url": "https://api.github.com/users/heroku/gists{/gist_id}",
    "starred_url": "https://api.github.com/users/heroku/starred{/owner}{/repo}",
    "subscriptions_url": "https://api.github.com/users/heroku/subscriptions",
    "organizations_url": "https://api.github.com/users/heroku/orgs",
    "repos_url": "https://api.github.com/users/heroku/repos",
    "events_url": "https://api.github.com/users/heroku/events{/privacy}",
    "received_events_url": "https://api.github.com/users/heroku/received_events",
    "type": "Organization",
    "site_admin": false
  },
  "network_count": 10,
  "subscribers_count": 29
}
