[
{
  "url": "https://api.github.com/repos/etsy/deployinator/issues/comments/4159713",
  "html_url": "https://github.com/etsy/deployinator/pull/16#issuecomment-4159713",
  "issue_url": "https://api.github.com/repos/etsy/deployinator/issues/16",
  "id": 4159713,
  "user": {
    "login": "tomvachon",
    "id": 331845,
    "avatar_url": "https://avatars.githubusercontent.com/u/331845?v=3",
    "gravatar_id": "",
    "url": "https://api.github.com/users/tomvachon",
    "html_url": "https://github.com/tomvachon",
    "followers_url": "https://api.github.com/users/tomvachon/followers",
    "following_url": "https://api.github.com/users/tomvachon/following{/other_user}",
    "gists_url": "https://api.github.com/users/tomvachon/gists{/gist_id}",
    "starred_url": "https://api.github.com/users/tomvachon/starred{/owner}{/repo}",
    "subscriptions_url": "https://api.github.com/users/tomvachon/subscriptions",
    "organizations_url": "https://api.github.com/users/tomvachon/orgs",
    "repos_url": "https://api.github.com/users/tomvachon/repos",
    "events_url": "https://api.github.com/users/tomvachon/events{/privacy}",
    "received_events_url": "https://api.github.com/users/tomvachon/received_events",
    "type": "User",
    "site_admin": false
  },
  "created_at": "2012-02-24T16:22:03Z",
  "updated_at": "2012-02-24T16:22:03Z",
  "body": "Going to do jgoulah's approach, its cleaner."
}
]
