[
{
  "url": "https://api.github.com/repos/google/guice/issues/comments/48216300",
  "html_url": "https://github.com/google/guice/issues/256#issuecomment-48216300",
  "issue_url": "https://api.github.com/repos/google/guice/issues/256",
  "id": 48216300,
  "user": {
    "login": "gissuebot",
    "id": 8091570,
    "avatar_url": "https://avatars.githubusercontent.com/u/8091570?v=3",
    "gravatar_id": "",
    "url": "https://api.github.com/users/gissuebot",
    "html_url": "https://github.com/gissuebot",
    "followers_url": "https://api.github.com/users/gissuebot/followers",
    "following_url": "https://api.github.com/users/gissuebot/following{/other_user}",
    "gists_url": "https://api.github.com/users/gissuebot/gists{/gist_id}",
    "starred_url": "https://api.github.com/users/gissuebot/starred{/owner}{/repo}",
    "subscriptions_url": "https://api.github.com/users/gissuebot/subscriptions",
    "organizations_url": "https://api.github.com/users/gissuebot/orgs",
    "repos_url": "https://api.github.com/users/gissuebot/repos",
    "events_url": "https://api.github.com/users/gissuebot/events{/privacy}",
    "received_events_url": "https://api.github.com/users/gissuebot/received_events",
    "type": "User",
    "site_admin": false
  },
  "created_at": "2014-07-07T18:07:24Z",
  "updated_at": "2014-07-07T18:07:24Z",
  "body": "_From [limpbizkit](https://code.google.com/u/limpbizkit/) on November 02, 2008 01:38:11_\n\nFixed by r658 https://code.google.com/p/google-guice/source/detail?r=658\n\n**Status:** Fixed  \n"
}
]
