[
{
  "url": "https://api.github.com/repos/owncloud/apps/issues/comments/12341305",
  "html_url": "https://github.com/owncloud/apps/issues/444#issuecomment-12341305",
  "issue_url": "https://api.github.com/repos/owncloud/apps/issues/444",
  "id": 12341305,
  "user": {
    "login": "eMerzh",
    "id": 177003,
    "avatar_url": "https://avatars.githubusercontent.com/u/177003?v=3",
    "gravatar_id": "",
    "url": "https://api.github.com/users/eMerzh",
    "html_url": "https://github.com/eMerzh",
    "followers_url": "https://api.github.com/users/eMerzh/followers",
    "following_url": "https://api.github.com/users/eMerzh/following{/other_user}",
    "gists_url": "https://api.github.com/users/eMerzh/gists{/gist_id}",
    "starred_url": "https://api.github.com/users/eMerzh/starred{/owner}{/repo}",
    "subscriptions_url": "https://api.github.com/users/eMerzh/subscriptions",
    "organizations_url": "https://api.github.com/users/eMerzh/orgs",
    "repos_url": "https://api.github.com/users/eMerzh/repos",
    "events_url": "https://api.github.com/users/eMerzh/events{/privacy}",
    "received_events_url": "https://api.github.com/users/eMerzh/received_events",
    "type": "User",
    "site_admin": false
  },
  "created_at": "2013-01-16T21:32:26Z",
  "updated_at": "2013-01-16T21:32:26Z",
  "body": "Hi, thanks for the report, \r\ni'm not sure to understand the problem exactly... could you provide a screenshot or smth?\r\n\r\nThanks\r\n\r\n"
}
, {
  "url": "https://api.github.com/repos/owncloud/apps/issues/comments/13119177",
  "html_url": "https://github.com/owncloud/apps/issues/444#issuecomment-13119177",
  "issue_url": "https://api.github.com/repos/owncloud/apps/issues/444",
  "id": 13119177,
  "user": {
    "login": "raghunayyar",
    "id": 992488,
    "avatar_url": "https://avatars.githubusercontent.com/u/992488?v=3",
    "gravatar_id": "",
    "url": "https://api.github.com/users/raghunayyar",
    "html_url": "https://github.com/raghunayyar",
    "followers_url": "https://api.github.com/users/raghunayyar/followers",
    "following_url": "https://api.github.com/users/raghunayyar/following{/other_user}",
    "gists_url": "https://api.github.com/users/raghunayyar/gists{/gist_id}",
    "starred_url": "https://api.github.com/users/raghunayyar/starred{/owner}{/repo}",
    "subscriptions_url": "https://api.github.com/users/raghunayyar/subscriptions",
    "organizations_url": "https://api.github.com/users/raghunayyar/orgs",
    "repos_url": "https://api.github.com/users/raghunayyar/repos",
    "events_url": "https://api.github.com/users/raghunayyar/events{/privacy}",
    "received_events_url": "https://api.github.com/users/raghunayyar/received_events",
    "type": "User",
    "site_admin": false
  },
  "created_at": "2013-02-05T08:27:23Z",
  "updated_at": "2013-02-23T14:47:28Z",
  "body": "Here is a screenshot : The first word is Raghu followed by ownCloud. Raghu doesn't load well, ownCloud does and so is development. I may be dumb here, but does tag-it uses ellipses by percentage basis? I hope you are getting my point! ;)\r\n![Screen Shot 2013-02-05 at 1 53 48 PM](https://f.cloud.github.com/assets/992488/126690/6b6f9cf4-6f6d-11e2-9f26-5fd5e189e612.png)\r\ncc @eMerzh "
}
, {
  "url": "https://api.github.com/repos/owncloud/apps/issues/comments/15144770",
  "html_url": "https://github.com/owncloud/apps/issues/444#issuecomment-15144770",
  "issue_url": "https://api.github.com/repos/owncloud/apps/issues/444",
  "id": 15144770,
  "user": {
    "login": "eMerzh",
    "id": 177003,
    "avatar_url": "https://avatars.githubusercontent.com/u/177003?v=3",
    "gravatar_id": "",
    "url": "https://api.github.com/users/eMerzh",
    "html_url": "https://github.com/eMerzh",
    "followers_url": "https://api.github.com/users/eMerzh/followers",
    "following_url": "https://api.github.com/users/eMerzh/following{/other_user}",
    "gists_url": "https://api.github.com/users/eMerzh/gists{/gist_id}",
    "starred_url": "https://api.github.com/users/eMerzh/starred{/owner}{/repo}",
    "subscriptions_url": "https://api.github.com/users/eMerzh/subscriptions",
    "organizations_url": "https://api.github.com/users/eMerzh/orgs",
    "repos_url": "https://api.github.com/users/eMerzh/repos",
    "events_url": "https://api.github.com/users/eMerzh/events{/privacy}",
    "received_events_url": "https://api.github.com/users/eMerzh/received_events",
    "type": "User",
    "site_admin": false
  },
  "created_at": "2013-03-19T21:35:59Z",
  "updated_at": "2013-03-19T21:35:59Z",
  "body": "i guess this is still happening right? \r\non which browser ?"
}
, {
  "url": "https://api.github.com/repos/owncloud/apps/issues/comments/15146107",
  "html_url": "https://github.com/owncloud/apps/issues/444#issuecomment-15146107",
  "issue_url": "https://api.github.com/repos/owncloud/apps/issues/444",
  "id": 15146107,
  "user": {
    "login": "eMerzh",
    "id": 177003,
    "avatar_url": "https://avatars.githubusercontent.com/u/177003?v=3",
    "gravatar_id": "",
    "url": "https://api.github.com/users/eMerzh",
    "html_url": "https://github.com/eMerzh",
    "followers_url": "https://api.github.com/users/eMerzh/followers",
    "following_url": "https://api.github.com/users/eMerzh/following{/other_user}",
    "gists_url": "https://api.github.com/users/eMerzh/gists{/gist_id}",
    "starred_url": "https://api.github.com/users/eMerzh/starred{/owner}{/repo}",
    "subscriptions_url": "https://api.github.com/users/eMerzh/subscriptions",
    "organizations_url": "https://api.github.com/users/eMerzh/orgs",
    "repos_url": "https://api.github.com/users/eMerzh/repos",
    "events_url": "https://api.github.com/users/eMerzh/events{/privacy}",
    "received_events_url": "https://api.github.com/users/eMerzh/received_events",
    "type": "User",
    "site_admin": false
  },
  "created_at": "2013-03-19T21:59:36Z",
  "updated_at": "2013-03-19T21:59:36Z",
  "body": "could you please test if smth is setting a width or smth on li.tagit-choice ? \r\ni can't see a place where we do that"
}
]
