[
{
  "url": "https://api.github.com/repos/owncloud/apps/issues/comments/21941916",
  "html_url": "https://github.com/owncloud/apps/pull/1280#issuecomment-21941916",
  "issue_url": "https://api.github.com/repos/owncloud/apps/issues/1280",
  "id": 21941916,
  "user": {
    "login": "karlitschek",
    "id": 867445,
    "avatar_url": "https://avatars.githubusercontent.com/u/867445?v=3",
    "gravatar_id": "",
    "url": "https://api.github.com/users/karlitschek",
    "html_url": "https://github.com/karlitschek",
    "followers_url": "https://api.github.com/users/karlitschek/followers",
    "following_url": "https://api.github.com/users/karlitschek/following{/other_user}",
    "gists_url": "https://api.github.com/users/karlitschek/gists{/gist_id}",
    "starred_url": "https://api.github.com/users/karlitschek/starred{/owner}{/repo}",
    "subscriptions_url": "https://api.github.com/users/karlitschek/subscriptions",
    "organizations_url": "https://api.github.com/users/karlitschek/orgs",
    "repos_url": "https://api.github.com/users/karlitschek/repos",
    "events_url": "https://api.github.com/users/karlitschek/events{/privacy}",
    "received_events_url": "https://api.github.com/users/karlitschek/received_events",
    "type": "User",
    "site_admin": false
  },
  "created_at": "2013-08-01T14:54:56Z",
  "updated_at": "2013-08-01T14:54:56Z",
  "body": "very nice :+1: "
}
, {
  "url": "https://api.github.com/repos/owncloud/apps/issues/comments/21942668",
  "html_url": "https://github.com/owncloud/apps/pull/1280#issuecomment-21942668",
  "issue_url": "https://api.github.com/repos/owncloud/apps/issues/1280",
  "id": 21942668,
  "user": {
    "login": "icewind1991",
    "id": 1283854,
    "avatar_url": "https://avatars.githubusercontent.com/u/1283854?v=3",
    "gravatar_id": "",
    "url": "https://api.github.com/users/icewind1991",
    "html_url": "https://github.com/icewind1991",
    "followers_url": "https://api.github.com/users/icewind1991/followers",
    "following_url": "https://api.github.com/users/icewind1991/following{/other_user}",
    "gists_url": "https://api.github.com/users/icewind1991/gists{/gist_id}",
    "starred_url": "https://api.github.com/users/icewind1991/starred{/owner}{/repo}",
    "subscriptions_url": "https://api.github.com/users/icewind1991/subscriptions",
    "organizations_url": "https://api.github.com/users/icewind1991/orgs",
    "repos_url": "https://api.github.com/users/icewind1991/repos",
    "events_url": "https://api.github.com/users/icewind1991/events{/privacy}",
    "received_events_url": "https://api.github.com/users/icewind1991/received_events",
    "type": "User",
    "site_admin": false
  },
  "created_at": "2013-08-01T15:05:23Z",
  "updated_at": "2013-08-01T15:05:23Z",
  "body": "Tested, looks good.\r\n\r\nOne minor issue though, if the only folder shared to you by someone doesn't contain any images you still see the \"Shared by X\" header without any galleries underneath."
}
, {
  "url": "https://api.github.com/repos/owncloud/apps/issues/comments/21942712",
  "html_url": "https://github.com/owncloud/apps/pull/1280#issuecomment-21942712",
  "issue_url": "https://api.github.com/repos/owncloud/apps/issues/1280",
  "id": 21942712,
  "user": {
    "login": "MTGap",
    "id": 1097106,
    "avatar_url": "https://avatars.githubusercontent.com/u/1097106?v=3",
    "gravatar_id": "",
    "url": "https://api.github.com/users/MTGap",
    "html_url": "https://github.com/MTGap",
    "followers_url": "https://api.github.com/users/MTGap/followers",
    "following_url": "https://api.github.com/users/MTGap/following{/other_user}",
    "gists_url": "https://api.github.com/users/MTGap/gists{/gist_id}",
    "starred_url": "https://api.github.com/users/MTGap/starred{/owner}{/repo}",
    "subscriptions_url": "https://api.github.com/users/MTGap/subscriptions",
    "organizations_url": "https://api.github.com/users/MTGap/orgs",
    "repos_url": "https://api.github.com/users/MTGap/repos",
    "events_url": "https://api.github.com/users/MTGap/events{/privacy}",
    "received_events_url": "https://api.github.com/users/MTGap/received_events",
    "type": "User",
    "site_admin": false
  },
  "created_at": "2013-08-01T15:05:50Z",
  "updated_at": "2013-08-01T15:06:07Z",
  "body": "Are the albums always in the same physical folder?\r\n\r\nThis app is pretty much pointless at this point in time... I don't understand why we still have this."
}
, {
  "url": "https://api.github.com/repos/owncloud/apps/issues/comments/21942760",
  "html_url": "https://github.com/owncloud/apps/pull/1280#issuecomment-21942760",
  "issue_url": "https://api.github.com/repos/owncloud/apps/issues/1280",
  "id": 21942760,
  "user": {
    "login": "icewind1991",
    "id": 1283854,
    "avatar_url": "https://avatars.githubusercontent.com/u/1283854?v=3",
    "gravatar_id": "",
    "url": "https://api.github.com/users/icewind1991",
    "html_url": "https://github.com/icewind1991",
    "followers_url": "https://api.github.com/users/icewind1991/followers",
    "following_url": "https://api.github.com/users/icewind1991/following{/other_user}",
    "gists_url": "https://api.github.com/users/icewind1991/gists{/gist_id}",
    "starred_url": "https://api.github.com/users/icewind1991/starred{/owner}{/repo}",
    "subscriptions_url": "https://api.github.com/users/icewind1991/subscriptions",
    "organizations_url": "https://api.github.com/users/icewind1991/orgs",
    "repos_url": "https://api.github.com/users/icewind1991/repos",
    "events_url": "https://api.github.com/users/icewind1991/events{/privacy}",
    "received_events_url": "https://api.github.com/users/icewind1991/received_events",
    "type": "User",
    "site_admin": false
  },
  "created_at": "2013-08-01T15:06:28Z",
  "updated_at": "2013-08-01T15:06:28Z",
  "body": "Another issue that it might have is when sharing from the gallery app, the user might not realize that he is sharing all files in the gallery/folder and not only the images."
}
, {
  "url": "https://api.github.com/repos/owncloud/apps/issues/comments/21942885",
  "html_url": "https://github.com/owncloud/apps/pull/1280#issuecomment-21942885",
  "issue_url": "https://api.github.com/repos/owncloud/apps/issues/1280",
  "id": 21942885,
  "user": {
    "login": "icewind1991",
    "id": 1283854,
    "avatar_url": "https://avatars.githubusercontent.com/u/1283854?v=3",
    "gravatar_id": "",
    "url": "https://api.github.com/users/icewind1991",
    "html_url": "https://github.com/icewind1991",
    "followers_url": "https://api.github.com/users/icewind1991/followers",
    "following_url": "https://api.github.com/users/icewind1991/following{/other_user}",
    "gists_url": "https://api.github.com/users/icewind1991/gists{/gist_id}",
    "starred_url": "https://api.github.com/users/icewind1991/starred{/owner}{/repo}",
    "subscriptions_url": "https://api.github.com/users/icewind1991/subscriptions",
    "organizations_url": "https://api.github.com/users/icewind1991/orgs",
    "repos_url": "https://api.github.com/users/icewind1991/repos",
    "events_url": "https://api.github.com/users/icewind1991/events{/privacy}",
    "received_events_url": "https://api.github.com/users/icewind1991/received_events",
    "type": "User",
    "site_admin": false
  },
  "created_at": "2013-08-01T15:08:16Z",
  "updated_at": "2013-08-01T15:08:16Z",
  "body": "@MTGap because the pictures app can give a better, tailored view for pictures, the same reason we have the notes and music app even when both functionalities can be done from the files app"
}
, {
  "url": "https://api.github.com/repos/owncloud/apps/issues/comments/21943491",
  "html_url": "https://github.com/owncloud/apps/pull/1280#issuecomment-21943491",
  "issue_url": "https://api.github.com/repos/owncloud/apps/issues/1280",
  "id": 21943491,
  "user": {
    "login": "MTGap",
    "id": 1097106,
    "avatar_url": "https://avatars.githubusercontent.com/u/1097106?v=3",
    "gravatar_id": "",
    "url": "https://api.github.com/users/MTGap",
    "html_url": "https://github.com/MTGap",
    "followers_url": "https://api.github.com/users/MTGap/followers",
    "following_url": "https://api.github.com/users/MTGap/following{/other_user}",
    "gists_url": "https://api.github.com/users/MTGap/gists{/gist_id}",
    "starred_url": "https://api.github.com/users/MTGap/starred{/owner}{/repo}",
    "subscriptions_url": "https://api.github.com/users/MTGap/subscriptions",
    "organizations_url": "https://api.github.com/users/MTGap/orgs",
    "repos_url": "https://api.github.com/users/MTGap/repos",
    "events_url": "https://api.github.com/users/MTGap/events{/privacy}",
    "received_events_url": "https://api.github.com/users/MTGap/received_events",
    "type": "User",
    "site_admin": false
  },
  "created_at": "2013-08-01T15:16:06Z",
  "updated_at": "2013-08-01T15:16:06Z",
  "body": "It wastes resources creating thumbnails, but doesn't do anything else... It has no actual features besides showing the pictures."
}
, {
  "url": "https://api.github.com/repos/owncloud/apps/issues/comments/21948540",
  "html_url": "https://github.com/owncloud/apps/pull/1280#issuecomment-21948540",
  "issue_url": "https://api.github.com/repos/owncloud/apps/issues/1280",
  "id": 21948540,
  "user": {
    "login": "butonic",
    "id": 956847,
    "avatar_url": "https://avatars.githubusercontent.com/u/956847?v=3",
    "gravatar_id": "",
    "url": "https://api.github.com/users/butonic",
    "html_url": "https://github.com/butonic",
    "followers_url": "https://api.github.com/users/butonic/followers",
    "following_url": "https://api.github.com/users/butonic/following{/other_user}",
    "gists_url": "https://api.github.com/users/butonic/gists{/gist_id}",
    "starred_url": "https://api.github.com/users/butonic/starred{/owner}{/repo}",
    "subscriptions_url": "https://api.github.com/users/butonic/subscriptions",
    "organizations_url": "https://api.github.com/users/butonic/orgs",
    "repos_url": "https://api.github.com/users/butonic/repos",
    "events_url": "https://api.github.com/users/butonic/events{/privacy}",
    "received_events_url": "https://api.github.com/users/butonic/received_events",
    "type": "User",
    "site_admin": false
  },
  "created_at": "2013-08-01T16:15:15Z",
  "updated_at": "2013-08-01T16:15:15Z",
  "body": "@MTGap The gallery currently contains the slideshow js. I think @georgehrke is working on a preview mechanism that we can use to show thumbnails for images, PDFs etc. That might find its way into the default files app as a different view. Kind of list vs preview icons. The gallery should evolve into something like fspot or shotwell. IMHO it has a different focus. @jancborchardt might be able to better explain this. "
}
, {
  "url": "https://api.github.com/repos/owncloud/apps/issues/comments/21954213",
  "html_url": "https://github.com/owncloud/apps/pull/1280#issuecomment-21954213",
  "issue_url": "https://api.github.com/repos/owncloud/apps/issues/1280",
  "id": 21954213,
  "user": {
    "login": "icewind1991",
    "id": 1283854,
    "avatar_url": "https://avatars.githubusercontent.com/u/1283854?v=3",
    "gravatar_id": "",
    "url": "https://api.github.com/users/icewind1991",
    "html_url": "https://github.com/icewind1991",
    "followers_url": "https://api.github.com/users/icewind1991/followers",
    "following_url": "https://api.github.com/users/icewind1991/following{/other_user}",
    "gists_url": "https://api.github.com/users/icewind1991/gists{/gist_id}",
    "starred_url": "https://api.github.com/users/icewind1991/starred{/owner}{/repo}",
    "subscriptions_url": "https://api.github.com/users/icewind1991/subscriptions",
    "organizations_url": "https://api.github.com/users/icewind1991/orgs",
    "repos_url": "https://api.github.com/users/icewind1991/repos",
    "events_url": "https://api.github.com/users/icewind1991/events{/privacy}",
    "received_events_url": "https://api.github.com/users/icewind1991/received_events",
    "type": "User",
    "site_admin": false
  },
  "created_at": "2013-08-01T17:23:09Z",
  "updated_at": "2013-08-01T17:23:09Z",
  "body": "> It has no actual features besides showing the pictures.\r\n\r\nWhich is exactly what I'm looking for in a Pictures app"
}
, {
  "url": "https://api.github.com/repos/owncloud/apps/issues/comments/21972375",
  "html_url": "https://github.com/owncloud/apps/pull/1280#issuecomment-21972375",
  "issue_url": "https://api.github.com/repos/owncloud/apps/issues/1280",
  "id": 21972375,
  "user": {
    "login": "icewind1991",
    "id": 1283854,
    "avatar_url": "https://avatars.githubusercontent.com/u/1283854?v=3",
    "gravatar_id": "",
    "url": "https://api.github.com/users/icewind1991",
    "html_url": "https://github.com/icewind1991",
    "followers_url": "https://api.github.com/users/icewind1991/followers",
    "following_url": "https://api.github.com/users/icewind1991/following{/other_user}",
    "gists_url": "https://api.github.com/users/icewind1991/gists{/gist_id}",
    "starred_url": "https://api.github.com/users/icewind1991/starred{/owner}{/repo}",
    "subscriptions_url": "https://api.github.com/users/icewind1991/subscriptions",
    "organizations_url": "https://api.github.com/users/icewind1991/orgs",
    "repos_url": "https://api.github.com/users/icewind1991/repos",
    "events_url": "https://api.github.com/users/icewind1991/events{/privacy}",
    "received_events_url": "https://api.github.com/users/icewind1991/received_events",
    "type": "User",
    "site_admin": false
  },
  "created_at": "2013-08-01T21:48:59Z",
  "updated_at": "2013-08-01T21:48:59Z",
  "body": "Fixed my first issue.\r\n\r\nOnly issue left for me is the possible unexpected behavior when sharing a folder from the Pictures app"
}
, {
  "url": "https://api.github.com/repos/owncloud/apps/issues/comments/22097363",
  "html_url": "https://github.com/owncloud/apps/pull/1280#issuecomment-22097363",
  "issue_url": "https://api.github.com/repos/owncloud/apps/issues/1280",
  "id": 22097363,
  "user": {
    "login": "jancborchardt",
    "id": 925062,
    "avatar_url": "https://avatars.githubusercontent.com/u/925062?v=3",
    "gravatar_id": "",
    "url": "https://api.github.com/users/jancborchardt",
    "html_url": "https://github.com/jancborchardt",
    "followers_url": "https://api.github.com/users/jancborchardt/followers",
    "following_url": "https://api.github.com/users/jancborchardt/following{/other_user}",
    "gists_url": "https://api.github.com/users/jancborchardt/gists{/gist_id}",
    "starred_url": "https://api.github.com/users/jancborchardt/starred{/owner}{/repo}",
    "subscriptions_url": "https://api.github.com/users/jancborchardt/subscriptions",
    "organizations_url": "https://api.github.com/users/jancborchardt/orgs",
    "repos_url": "https://api.github.com/users/jancborchardt/repos",
    "events_url": "https://api.github.com/users/jancborchardt/events{/privacy}",
    "received_events_url": "https://api.github.com/users/jancborchardt/received_events",
    "type": "User",
    "site_admin": false
  },
  "created_at": "2013-08-05T10:13:24Z",
  "updated_at": "2013-08-05T10:13:24Z",
  "body": "Regarding the Pictures app:\r\n* Yes, it only shows pictures. That’s great, because the Files app is a kitchen sink of everything. You don’t want to wade through that when showing pictures to your friends.\r\n* And as @butonic said, it will hopefully evolve to have some basic editing features. Think cropping, one-click-enhance, rotating, basic stuff."
}
, {
  "url": "https://api.github.com/repos/owncloud/apps/issues/comments/22482581",
  "html_url": "https://github.com/owncloud/apps/pull/1280#issuecomment-22482581",
  "issue_url": "https://api.github.com/repos/owncloud/apps/issues/1280",
  "id": 22482581,
  "user": {
    "login": "butonic",
    "id": 956847,
    "avatar_url": "https://avatars.githubusercontent.com/u/956847?v=3",
    "gravatar_id": "",
    "url": "https://api.github.com/users/butonic",
    "html_url": "https://github.com/butonic",
    "followers_url": "https://api.github.com/users/butonic/followers",
    "following_url": "https://api.github.com/users/butonic/following{/other_user}",
    "gists_url": "https://api.github.com/users/butonic/gists{/gist_id}",
    "starred_url": "https://api.github.com/users/butonic/starred{/owner}{/repo}",
    "subscriptions_url": "https://api.github.com/users/butonic/subscriptions",
    "organizations_url": "https://api.github.com/users/butonic/orgs",
    "repos_url": "https://api.github.com/users/butonic/repos",
    "events_url": "https://api.github.com/users/butonic/events{/privacy}",
    "received_events_url": "https://api.github.com/users/butonic/received_events",
    "type": "User",
    "site_admin": false
  },
  "created_at": "2013-08-12T09:43:42Z",
  "updated_at": "2013-08-12T09:43:42Z",
  "body": "@jancborchardt I agree with @icewind1991 that sharing an album from the gallery should only share images in that folder. What is your opinion on that? Should we assume users know they are sharing a folder? If we share files individually they will currently all show up directly under /Shared.\r\n\r\nI think we need a conceptual solution, but I would go with sharing the whole folder for now. Album is synonym for folder and we could show that info when a users hovers over the share button in the gallery app.\r\n\r\ncan I get another :thumbsup: ?\r\n\r\ncc @MTGap "
}
, {
  "url": "https://api.github.com/repos/owncloud/apps/issues/comments/22555493",
  "html_url": "https://github.com/owncloud/apps/pull/1280#issuecomment-22555493",
  "issue_url": "https://api.github.com/repos/owncloud/apps/issues/1280",
  "id": 22555493,
  "user": {
    "login": "butonic",
    "id": 956847,
    "avatar_url": "https://avatars.githubusercontent.com/u/956847?v=3",
    "gravatar_id": "",
    "url": "https://api.github.com/users/butonic",
    "html_url": "https://github.com/butonic",
    "followers_url": "https://api.github.com/users/butonic/followers",
    "following_url": "https://api.github.com/users/butonic/following{/other_user}",
    "gists_url": "https://api.github.com/users/butonic/gists{/gist_id}",
    "starred_url": "https://api.github.com/users/butonic/starred{/owner}{/repo}",
    "subscriptions_url": "https://api.github.com/users/butonic/subscriptions",
    "organizations_url": "https://api.github.com/users/butonic/orgs",
    "repos_url": "https://api.github.com/users/butonic/repos",
    "events_url": "https://api.github.com/users/butonic/events{/privacy}",
    "received_events_url": "https://api.github.com/users/butonic/received_events",
    "type": "User",
    "site_admin": false
  },
  "created_at": "2013-08-13T10:22:57Z",
  "updated_at": "2013-08-13T10:22:57Z",
  "body": "cc @schiesbn"
}
, {
  "url": "https://api.github.com/repos/owncloud/apps/issues/comments/22556203",
  "html_url": "https://github.com/owncloud/apps/pull/1280#issuecomment-22556203",
  "issue_url": "https://api.github.com/repos/owncloud/apps/issues/1280",
  "id": 22556203,
  "user": {
    "login": "schiesbn",
    "id": 1589737,
    "avatar_url": "https://avatars.githubusercontent.com/u/1589737?v=3",
    "gravatar_id": "",
    "url": "https://api.github.com/users/schiesbn",
    "html_url": "https://github.com/schiesbn",
    "followers_url": "https://api.github.com/users/schiesbn/followers",
    "following_url": "https://api.github.com/users/schiesbn/following{/other_user}",
    "gists_url": "https://api.github.com/users/schiesbn/gists{/gist_id}",
    "starred_url": "https://api.github.com/users/schiesbn/starred{/owner}{/repo}",
    "subscriptions_url": "https://api.github.com/users/schiesbn/subscriptions",
    "organizations_url": "https://api.github.com/users/schiesbn/orgs",
    "repos_url": "https://api.github.com/users/schiesbn/repos",
    "events_url": "https://api.github.com/users/schiesbn/events{/privacy}",
    "received_events_url": "https://api.github.com/users/schiesbn/received_events",
    "type": "User",
    "site_admin": false
  },
  "created_at": "2013-08-13T10:38:53Z",
  "updated_at": "2013-08-13T10:43:51Z",
  "body": "I agree with @butonic. It is not nice that also other files might be shared this way, but I think it solves more problems than it creates (see also #1186), therefore I give a :+1: here. \r\n\r\nFurther I think it is a fair assumption that most galleries will not contain any other files. I think most galleries will come from folders like Pictures/Holiday/2012 which will contain pictures only.\r\n\r\nIf we want to be 100% sure to avoid that other files get shared we could indicate somehow that this share comes from the gallery and not directly from the files app and do a mime filter before displaying the file in the files app. But that's also not a nice solution."
}
, {
  "url": "https://api.github.com/repos/owncloud/apps/issues/comments/22809660",
  "html_url": "https://github.com/owncloud/apps/pull/1280#issuecomment-22809660",
  "issue_url": "https://api.github.com/repos/owncloud/apps/issues/1280",
  "id": 22809660,
  "user": {
    "login": "DeepDiver1975",
    "id": 1005065,
    "avatar_url": "https://avatars.githubusercontent.com/u/1005065?v=3",
    "gravatar_id": "",
    "url": "https://api.github.com/users/DeepDiver1975",
    "html_url": "https://github.com/DeepDiver1975",
    "followers_url": "https://api.github.com/users/DeepDiver1975/followers",
    "following_url": "https://api.github.com/users/DeepDiver1975/following{/other_user}",
    "gists_url": "https://api.github.com/users/DeepDiver1975/gists{/gist_id}",
    "starred_url": "https://api.github.com/users/DeepDiver1975/starred{/owner}{/repo}",
    "subscriptions_url": "https://api.github.com/users/DeepDiver1975/subscriptions",
    "organizations_url": "https://api.github.com/users/DeepDiver1975/orgs",
    "repos_url": "https://api.github.com/users/DeepDiver1975/repos",
    "events_url": "https://api.github.com/users/DeepDiver1975/events{/privacy}",
    "received_events_url": "https://api.github.com/users/DeepDiver1975/received_events",
    "type": "User",
    "site_admin": false
  },
  "created_at": "2013-08-17T10:56:34Z",
  "updated_at": "2013-08-17T10:56:34Z",
  "body": "tested - big step ahead :+1: "
}
]
