[
{
  "url": "https://api.github.com/repos/owncloud/apps/issues/comments/10695409",
  "html_url": "https://github.com/owncloud/apps/issues/234#issuecomment-10695409",
  "issue_url": "https://api.github.com/repos/owncloud/apps/issues/234",
  "id": 10695409,
  "user": {
    "login": "hombibi",
    "id": 2799002,
    "avatar_url": "https://avatars.githubusercontent.com/u/2799002?v=3",
    "gravatar_id": "",
    "url": "https://api.github.com/users/hombibi",
    "html_url": "https://github.com/hombibi",
    "followers_url": "https://api.github.com/users/hombibi/followers",
    "following_url": "https://api.github.com/users/hombibi/following{/other_user}",
    "gists_url": "https://api.github.com/users/hombibi/gists{/gist_id}",
    "starred_url": "https://api.github.com/users/hombibi/starred{/owner}{/repo}",
    "subscriptions_url": "https://api.github.com/users/hombibi/subscriptions",
    "organizations_url": "https://api.github.com/users/hombibi/orgs",
    "repos_url": "https://api.github.com/users/hombibi/repos",
    "events_url": "https://api.github.com/users/hombibi/events{/privacy}",
    "received_events_url": "https://api.github.com/users/hombibi/received_events",
    "type": "User",
    "site_admin": false
  },
  "created_at": "2012-11-25T16:49:25Z",
  "updated_at": "2012-11-25T16:49:25Z",
  "body": "Making shared items visible and is solved with the fixes mentioned in #198\r\n"
}
]
