[
{
  "url": "https://api.github.com/repos/owncloud/apps/issues/comments/46669850",
  "html_url": "https://github.com/owncloud/apps/pull/1819#issuecomment-46669850",
  "issue_url": "https://api.github.com/repos/owncloud/apps/issues/1819",
  "id": 46669850,
  "user": {
    "login": "karlitschek",
    "id": 867445,
    "avatar_url": "https://avatars.githubusercontent.com/u/867445?v=3",
    "gravatar_id": "",
    "url": "https://api.github.com/users/karlitschek",
    "html_url": "https://github.com/karlitschek",
    "followers_url": "https://api.github.com/users/karlitschek/followers",
    "following_url": "https://api.github.com/users/karlitschek/following{/other_user}",
    "gists_url": "https://api.github.com/users/karlitschek/gists{/gist_id}",
    "starred_url": "https://api.github.com/users/karlitschek/starred{/owner}{/repo}",
    "subscriptions_url": "https://api.github.com/users/karlitschek/subscriptions",
    "organizations_url": "https://api.github.com/users/karlitschek/orgs",
    "repos_url": "https://api.github.com/users/karlitschek/repos",
    "events_url": "https://api.github.com/users/karlitschek/events{/privacy}",
    "received_events_url": "https://api.github.com/users/karlitschek/received_events",
    "type": "User",
    "site_admin": false
  },
  "created_at": "2014-06-20T11:43:16Z",
  "updated_at": "2014-06-20T11:43:16Z",
  "body": "looks good :+1: "
}
, {
  "url": "https://api.github.com/repos/owncloud/apps/issues/comments/46725881",
  "html_url": "https://github.com/owncloud/apps/pull/1819#issuecomment-46725881",
  "issue_url": "https://api.github.com/repos/owncloud/apps/issues/1819",
  "id": 46725881,
  "user": {
    "login": "MorrisJobke",
    "id": 245432,
    "avatar_url": "https://avatars.githubusercontent.com/u/245432?v=3",
    "gravatar_id": "",
    "url": "https://api.github.com/users/MorrisJobke",
    "html_url": "https://github.com/MorrisJobke",
    "followers_url": "https://api.github.com/users/MorrisJobke/followers",
    "following_url": "https://api.github.com/users/MorrisJobke/following{/other_user}",
    "gists_url": "https://api.github.com/users/MorrisJobke/gists{/gist_id}",
    "starred_url": "https://api.github.com/users/MorrisJobke/starred{/owner}{/repo}",
    "subscriptions_url": "https://api.github.com/users/MorrisJobke/subscriptions",
    "organizations_url": "https://api.github.com/users/MorrisJobke/orgs",
    "repos_url": "https://api.github.com/users/MorrisJobke/repos",
    "events_url": "https://api.github.com/users/MorrisJobke/events{/privacy}",
    "received_events_url": "https://api.github.com/users/MorrisJobke/received_events",
    "type": "User",
    "site_admin": false
  },
  "created_at": "2014-06-20T20:58:53Z",
  "updated_at": "2014-06-20T20:58:53Z",
  "body": "Works as expected :+1: "
}
]
