[
{
  "url": "https://api.github.com/repos/owncloud/apps/issues/comments/19452939",
  "html_url": "https://github.com/owncloud/apps/issues/1136#issuecomment-19452939",
  "issue_url": "https://api.github.com/repos/owncloud/apps/issues/1136",
  "id": 19452939,
  "user": {
    "login": "jancborchardt",
    "id": 925062,
    "avatar_url": "https://avatars.githubusercontent.com/u/925062?v=3",
    "gravatar_id": "",
    "url": "https://api.github.com/users/jancborchardt",
    "html_url": "https://github.com/jancborchardt",
    "followers_url": "https://api.github.com/users/jancborchardt/followers",
    "following_url": "https://api.github.com/users/jancborchardt/following{/other_user}",
    "gists_url": "https://api.github.com/users/jancborchardt/gists{/gist_id}",
    "starred_url": "https://api.github.com/users/jancborchardt/starred{/owner}{/repo}",
    "subscriptions_url": "https://api.github.com/users/jancborchardt/subscriptions",
    "organizations_url": "https://api.github.com/users/jancborchardt/orgs",
    "repos_url": "https://api.github.com/users/jancborchardt/repos",
    "events_url": "https://api.github.com/users/jancborchardt/events{/privacy}",
    "received_events_url": "https://api.github.com/users/jancborchardt/received_events",
    "type": "User",
    "site_admin": false
  },
  "created_at": "2013-06-14T11:56:01Z",
  "updated_at": "2013-06-14T11:56:01Z",
  "body": "Yes! Completely agree. And not only hovering over an album, but also over single images."
}
, {
  "url": "https://api.github.com/repos/owncloud/apps/issues/comments/115712033",
  "html_url": "https://github.com/owncloud/apps/issues/1136#issuecomment-115712033",
  "issue_url": "https://api.github.com/repos/owncloud/apps/issues/1136",
  "id": 115712033,
  "user": {
    "login": "jancborchardt",
    "id": 925062,
    "avatar_url": "https://avatars.githubusercontent.com/u/925062?v=3",
    "gravatar_id": "",
    "url": "https://api.github.com/users/jancborchardt",
    "html_url": "https://github.com/jancborchardt",
    "followers_url": "https://api.github.com/users/jancborchardt/followers",
    "following_url": "https://api.github.com/users/jancborchardt/following{/other_user}",
    "gists_url": "https://api.github.com/users/jancborchardt/gists{/gist_id}",
    "starred_url": "https://api.github.com/users/jancborchardt/starred{/owner}{/repo}",
    "subscriptions_url": "https://api.github.com/users/jancborchardt/subscriptions",
    "organizations_url": "https://api.github.com/users/jancborchardt/orgs",
    "repos_url": "https://api.github.com/users/jancborchardt/repos",
    "events_url": "https://api.github.com/users/jancborchardt/events{/privacy}",
    "received_events_url": "https://api.github.com/users/jancborchardt/received_events",
    "type": "User",
    "site_admin": false
  },
  "created_at": "2015-06-26T14:44:12Z",
  "updated_at": "2015-06-26T14:44:12Z",
  "body": "Any enhancement should be done to https://github.com/owncloud/galleryplus\r\n\r\ncc @oparoz as a note for easier sharing here."
}
]
