[
{
  "url": "https://api.github.com/repos/Shopify/shipit-engine/issues/comments/51096849",
  "html_url": "https://github.com/Shopify/shipit-engine/pull/190#issuecomment-51096849",
  "issue_url": "https://api.github.com/repos/Shopify/shipit-engine/issues/190",
  "id": 51096849,
  "user": {
    "login": "davidcornu",
    "id": 325821,
    "avatar_url": "https://avatars.githubusercontent.com/u/325821?v=3",
    "gravatar_id": "",
    "url": "https://api.github.com/users/davidcornu",
    "html_url": "https://github.com/davidcornu",
    "followers_url": "https://api.github.com/users/davidcornu/followers",
    "following_url": "https://api.github.com/users/davidcornu/following{/other_user}",
    "gists_url": "https://api.github.com/users/davidcornu/gists{/gist_id}",
    "starred_url": "https://api.github.com/users/davidcornu/starred{/owner}{/repo}",
    "subscriptions_url": "https://api.github.com/users/davidcornu/subscriptions",
    "organizations_url": "https://api.github.com/users/davidcornu/orgs",
    "repos_url": "https://api.github.com/users/davidcornu/repos",
    "events_url": "https://api.github.com/users/davidcornu/events{/privacy}",
    "received_events_url": "https://api.github.com/users/davidcornu/received_events",
    "type": "User",
    "site_admin": false
  },
  "created_at": "2014-08-04T18:17:46Z",
  "updated_at": "2014-08-04T18:17:46Z",
  "body": "Makes sense. :shipit: "
}
, {
  "url": "https://api.github.com/repos/Shopify/shipit-engine/issues/comments/51097247",
  "html_url": "https://github.com/Shopify/shipit-engine/pull/190#issuecomment-51097247",
  "issue_url": "https://api.github.com/repos/Shopify/shipit-engine/issues/190",
  "id": 51097247,
  "user": {
    "login": "byroot",
    "id": 44640,
    "avatar_url": "https://avatars.githubusercontent.com/u/44640?v=3",
    "gravatar_id": "",
    "url": "https://api.github.com/users/byroot",
    "html_url": "https://github.com/byroot",
    "followers_url": "https://api.github.com/users/byroot/followers",
    "following_url": "https://api.github.com/users/byroot/following{/other_user}",
    "gists_url": "https://api.github.com/users/byroot/gists{/gist_id}",
    "starred_url": "https://api.github.com/users/byroot/starred{/owner}{/repo}",
    "subscriptions_url": "https://api.github.com/users/byroot/subscriptions",
    "organizations_url": "https://api.github.com/users/byroot/orgs",
    "repos_url": "https://api.github.com/users/byroot/repos",
    "events_url": "https://api.github.com/users/byroot/events{/privacy}",
    "received_events_url": "https://api.github.com/users/byroot/received_events",
    "type": "User",
    "site_admin": false
  },
  "created_at": "2014-08-04T18:20:48Z",
  "updated_at": "2014-08-04T18:20:48Z",
  "body": "Depends on https://github.com/Shopify/cookbooks/pull/3230"
}
, {
  "url": "https://api.github.com/repos/Shopify/shipit-engine/issues/comments/51097790",
  "html_url": "https://github.com/Shopify/shipit-engine/pull/190#issuecomment-51097790",
  "issue_url": "https://api.github.com/repos/Shopify/shipit-engine/issues/190",
  "id": 51097790,
  "user": {
    "login": "gmalette",
    "id": 351915,
    "avatar_url": "https://avatars.githubusercontent.com/u/351915?v=3",
    "gravatar_id": "",
    "url": "https://api.github.com/users/gmalette",
    "html_url": "https://github.com/gmalette",
    "followers_url": "https://api.github.com/users/gmalette/followers",
    "following_url": "https://api.github.com/users/gmalette/following{/other_user}",
    "gists_url": "https://api.github.com/users/gmalette/gists{/gist_id}",
    "starred_url": "https://api.github.com/users/gmalette/starred{/owner}{/repo}",
    "subscriptions_url": "https://api.github.com/users/gmalette/subscriptions",
    "organizations_url": "https://api.github.com/users/gmalette/orgs",
    "repos_url": "https://api.github.com/users/gmalette/repos",
    "events_url": "https://api.github.com/users/gmalette/events{/privacy}",
    "received_events_url": "https://api.github.com/users/gmalette/received_events",
    "type": "User",
    "site_admin": false
  },
  "created_at": "2014-08-04T18:25:06Z",
  "updated_at": "2014-08-04T18:25:06Z",
  "body": ":+1: "
}
, {
  "url": "https://api.github.com/repos/Shopify/shipit-engine/issues/comments/51106019",
  "html_url": "https://github.com/Shopify/shipit-engine/pull/190#issuecomment-51106019",
  "issue_url": "https://api.github.com/repos/Shopify/shipit-engine/issues/190",
  "id": 51106019,
  "user": {
    "login": "Sirupsen",
    "id": 97400,
    "avatar_url": "https://avatars.githubusercontent.com/u/97400?v=3",
    "gravatar_id": "",
    "url": "https://api.github.com/users/Sirupsen",
    "html_url": "https://github.com/Sirupsen",
    "followers_url": "https://api.github.com/users/Sirupsen/followers",
    "following_url": "https://api.github.com/users/Sirupsen/following{/other_user}",
    "gists_url": "https://api.github.com/users/Sirupsen/gists{/gist_id}",
    "starred_url": "https://api.github.com/users/Sirupsen/starred{/owner}{/repo}",
    "subscriptions_url": "https://api.github.com/users/Sirupsen/subscriptions",
    "organizations_url": "https://api.github.com/users/Sirupsen/orgs",
    "repos_url": "https://api.github.com/users/Sirupsen/repos",
    "events_url": "https://api.github.com/users/Sirupsen/events{/privacy}",
    "received_events_url": "https://api.github.com/users/Sirupsen/received_events",
    "type": "User",
    "site_admin": false
  },
  "created_at": "2014-08-04T19:30:53Z",
  "updated_at": "2014-08-04T19:30:53Z",
  "body": ":whale:"
}
, {
  "url": "https://api.github.com/repos/Shopify/shipit-engine/issues/comments/52614587",
  "html_url": "https://github.com/Shopify/shipit-engine/pull/190#issuecomment-52614587",
  "issue_url": "https://api.github.com/repos/Shopify/shipit-engine/issues/190",
  "id": 52614587,
  "user": {
    "login": "phoet",
    "id": 48745,
    "avatar_url": "https://avatars.githubusercontent.com/u/48745?v=3",
    "gravatar_id": "",
    "url": "https://api.github.com/users/phoet",
    "html_url": "https://github.com/phoet",
    "followers_url": "https://api.github.com/users/phoet/followers",
    "following_url": "https://api.github.com/users/phoet/following{/other_user}",
    "gists_url": "https://api.github.com/users/phoet/gists{/gist_id}",
    "starred_url": "https://api.github.com/users/phoet/starred{/owner}{/repo}",
    "subscriptions_url": "https://api.github.com/users/phoet/subscriptions",
    "organizations_url": "https://api.github.com/users/phoet/orgs",
    "repos_url": "https://api.github.com/users/phoet/repos",
    "events_url": "https://api.github.com/users/phoet/events{/privacy}",
    "received_events_url": "https://api.github.com/users/phoet/received_events",
    "type": "User",
    "site_admin": false
  },
  "created_at": "2014-08-19T10:18:03Z",
  "updated_at": "2014-08-19T10:18:03Z",
  "body": "rebased on master, going to deploy this now with adapted cookbook"
}
, {
  "url": "https://api.github.com/repos/Shopify/shipit-engine/issues/comments/52617748",
  "html_url": "https://github.com/Shopify/shipit-engine/pull/190#issuecomment-52617748",
  "issue_url": "https://api.github.com/repos/Shopify/shipit-engine/issues/190",
  "id": 52617748,
  "user": {
    "login": "phoet",
    "id": 48745,
    "avatar_url": "https://avatars.githubusercontent.com/u/48745?v=3",
    "gravatar_id": "",
    "url": "https://api.github.com/users/phoet",
    "html_url": "https://github.com/phoet",
    "followers_url": "https://api.github.com/users/phoet/followers",
    "following_url": "https://api.github.com/users/phoet/following{/other_user}",
    "gists_url": "https://api.github.com/users/phoet/gists{/gist_id}",
    "starred_url": "https://api.github.com/users/phoet/starred{/owner}{/repo}",
    "subscriptions_url": "https://api.github.com/users/phoet/subscriptions",
    "organizations_url": "https://api.github.com/users/phoet/orgs",
    "repos_url": "https://api.github.com/users/phoet/repos",
    "events_url": "https://api.github.com/users/phoet/events{/privacy}",
    "received_events_url": "https://api.github.com/users/phoet/received_events",
    "type": "User",
    "site_admin": false
  },
  "created_at": "2014-08-19T10:55:35Z",
  "updated_at": "2014-08-19T10:55:35Z",
  "body": "the configuration was broken because it changed to be a hash, fixed it here: https://github.com/Shopify/shipit2/commit/767f4c03e1bcdde0de6a43e07ae88a356d92aa29"
}
, {
  "url": "https://api.github.com/repos/Shopify/shipit-engine/issues/comments/52625966",
  "html_url": "https://github.com/Shopify/shipit-engine/pull/190#issuecomment-52625966",
  "issue_url": "https://api.github.com/repos/Shopify/shipit-engine/issues/190",
  "id": 52625966,
  "user": {
    "login": "byroot",
    "id": 44640,
    "avatar_url": "https://avatars.githubusercontent.com/u/44640?v=3",
    "gravatar_id": "",
    "url": "https://api.github.com/users/byroot",
    "html_url": "https://github.com/byroot",
    "followers_url": "https://api.github.com/users/byroot/followers",
    "following_url": "https://api.github.com/users/byroot/following{/other_user}",
    "gists_url": "https://api.github.com/users/byroot/gists{/gist_id}",
    "starred_url": "https://api.github.com/users/byroot/starred{/owner}{/repo}",
    "subscriptions_url": "https://api.github.com/users/byroot/subscriptions",
    "organizations_url": "https://api.github.com/users/byroot/orgs",
    "repos_url": "https://api.github.com/users/byroot/repos",
    "events_url": "https://api.github.com/users/byroot/events{/privacy}",
    "received_events_url": "https://api.github.com/users/byroot/received_events",
    "type": "User",
    "site_admin": false
  },
  "created_at": "2014-08-19T12:29:56Z",
  "updated_at": "2014-08-19T12:29:56Z",
  "body": "Thanks!"
}
, {
  "url": "https://api.github.com/repos/Shopify/shipit-engine/issues/comments/52626170",
  "html_url": "https://github.com/Shopify/shipit-engine/pull/190#issuecomment-52626170",
  "issue_url": "https://api.github.com/repos/Shopify/shipit-engine/issues/190",
  "id": 52626170,
  "user": {
    "login": "gmalette",
    "id": 351915,
    "avatar_url": "https://avatars.githubusercontent.com/u/351915?v=3",
    "gravatar_id": "",
    "url": "https://api.github.com/users/gmalette",
    "html_url": "https://github.com/gmalette",
    "followers_url": "https://api.github.com/users/gmalette/followers",
    "following_url": "https://api.github.com/users/gmalette/following{/other_user}",
    "gists_url": "https://api.github.com/users/gmalette/gists{/gist_id}",
    "starred_url": "https://api.github.com/users/gmalette/starred{/owner}{/repo}",
    "subscriptions_url": "https://api.github.com/users/gmalette/subscriptions",
    "organizations_url": "https://api.github.com/users/gmalette/orgs",
    "repos_url": "https://api.github.com/users/gmalette/repos",
    "events_url": "https://api.github.com/users/gmalette/events{/privacy}",
    "received_events_url": "https://api.github.com/users/gmalette/received_events",
    "type": "User",
    "site_admin": false
  },
  "created_at": "2014-08-19T12:31:59Z",
  "updated_at": "2014-08-19T12:31:59Z",
  "body": "Can you please update the `example` file please?"
}
, {
  "url": "https://api.github.com/repos/Shopify/shipit-engine/issues/comments/52627022",
  "html_url": "https://github.com/Shopify/shipit-engine/pull/190#issuecomment-52627022",
  "issue_url": "https://api.github.com/repos/Shopify/shipit-engine/issues/190",
  "id": 52627022,
  "user": {
    "login": "byroot",
    "id": 44640,
    "avatar_url": "https://avatars.githubusercontent.com/u/44640?v=3",
    "gravatar_id": "",
    "url": "https://api.github.com/users/byroot",
    "html_url": "https://github.com/byroot",
    "followers_url": "https://api.github.com/users/byroot/followers",
    "following_url": "https://api.github.com/users/byroot/following{/other_user}",
    "gists_url": "https://api.github.com/users/byroot/gists{/gist_id}",
    "starred_url": "https://api.github.com/users/byroot/starred{/owner}{/repo}",
    "subscriptions_url": "https://api.github.com/users/byroot/subscriptions",
    "organizations_url": "https://api.github.com/users/byroot/orgs",
    "repos_url": "https://api.github.com/users/byroot/repos",
    "events_url": "https://api.github.com/users/byroot/events{/privacy}",
    "received_events_url": "https://api.github.com/users/byroot/received_events",
    "type": "User",
    "site_admin": false
  },
  "created_at": "2014-08-19T12:40:45Z",
  "updated_at": "2014-08-19T12:40:45Z",
  "body": "@gmalette look like it's up to date."
}
, {
  "url": "https://api.github.com/repos/Shopify/shipit-engine/issues/comments/52627431",
  "html_url": "https://github.com/Shopify/shipit-engine/pull/190#issuecomment-52627431",
  "issue_url": "https://api.github.com/repos/Shopify/shipit-engine/issues/190",
  "id": 52627431,
  "user": {
    "login": "gmalette",
    "id": 351915,
    "avatar_url": "https://avatars.githubusercontent.com/u/351915?v=3",
    "gravatar_id": "",
    "url": "https://api.github.com/users/gmalette",
    "html_url": "https://github.com/gmalette",
    "followers_url": "https://api.github.com/users/gmalette/followers",
    "following_url": "https://api.github.com/users/gmalette/following{/other_user}",
    "gists_url": "https://api.github.com/users/gmalette/gists{/gist_id}",
    "starred_url": "https://api.github.com/users/gmalette/starred{/owner}{/repo}",
    "subscriptions_url": "https://api.github.com/users/gmalette/subscriptions",
    "organizations_url": "https://api.github.com/users/gmalette/orgs",
    "repos_url": "https://api.github.com/users/gmalette/repos",
    "events_url": "https://api.github.com/users/gmalette/events{/privacy}",
    "received_events_url": "https://api.github.com/users/gmalette/received_events",
    "type": "User",
    "site_admin": false
  },
  "created_at": "2014-08-19T12:45:08Z",
  "updated_at": "2014-08-19T12:45:08Z",
  "body": "Kk, I assumed you'd have the `ENV['config']` but I guess that's not required"
}
, {
  "url": "https://api.github.com/repos/Shopify/shipit-engine/issues/comments/52627440",
  "html_url": "https://github.com/Shopify/shipit-engine/pull/190#issuecomment-52627440",
  "issue_url": "https://api.github.com/repos/Shopify/shipit-engine/issues/190",
  "id": 52627440,
  "user": {
    "login": "gmalette",
    "id": 351915,
    "avatar_url": "https://avatars.githubusercontent.com/u/351915?v=3",
    "gravatar_id": "",
    "url": "https://api.github.com/users/gmalette",
    "html_url": "https://github.com/gmalette",
    "followers_url": "https://api.github.com/users/gmalette/followers",
    "following_url": "https://api.github.com/users/gmalette/following{/other_user}",
    "gists_url": "https://api.github.com/users/gmalette/gists{/gist_id}",
    "starred_url": "https://api.github.com/users/gmalette/starred{/owner}{/repo}",
    "subscriptions_url": "https://api.github.com/users/gmalette/subscriptions",
    "organizations_url": "https://api.github.com/users/gmalette/orgs",
    "repos_url": "https://api.github.com/users/gmalette/repos",
    "events_url": "https://api.github.com/users/gmalette/events{/privacy}",
    "received_events_url": "https://api.github.com/users/gmalette/received_events",
    "type": "User",
    "site_admin": false
  },
  "created_at": "2014-08-19T12:45:12Z",
  "updated_at": "2014-08-19T12:45:12Z",
  "body": "Thanks for this!"
}
]
