[
{
  "url": "https://api.github.com/repos/Shopify/shipit-engine/issues/comments/49078219",
  "html_url": "https://github.com/Shopify/shipit-engine/pull/180#issuecomment-49078219",
  "issue_url": "https://api.github.com/repos/Shopify/shipit-engine/issues/180",
  "id": 49078219,
  "user": {
    "login": "EiNSTeiN-",
    "id": 2053039,
    "avatar_url": "https://avatars.githubusercontent.com/u/2053039?v=3",
    "gravatar_id": "",
    "url": "https://api.github.com/users/EiNSTeiN-",
    "html_url": "https://github.com/EiNSTeiN-",
    "followers_url": "https://api.github.com/users/EiNSTeiN-/followers",
    "following_url": "https://api.github.com/users/EiNSTeiN-/following{/other_user}",
    "gists_url": "https://api.github.com/users/EiNSTeiN-/gists{/gist_id}",
    "starred_url": "https://api.github.com/users/EiNSTeiN-/starred{/owner}{/repo}",
    "subscriptions_url": "https://api.github.com/users/EiNSTeiN-/subscriptions",
    "organizations_url": "https://api.github.com/users/EiNSTeiN-/orgs",
    "repos_url": "https://api.github.com/users/EiNSTeiN-/repos",
    "events_url": "https://api.github.com/users/EiNSTeiN-/events{/privacy}",
    "received_events_url": "https://api.github.com/users/EiNSTeiN-/received_events",
    "type": "User",
    "site_admin": false
  },
  "created_at": "2014-07-15T19:08:31Z",
  "updated_at": "2014-07-15T19:08:31Z",
  "body": "As long as the private key is added through chef and stored in a databag as usual, it seems OK to me.\r\n\r\nI would like to see a test that make sure secrets are not output to the deploy console..."
}
, {
  "url": "https://api.github.com/repos/Shopify/shipit-engine/issues/comments/49081641",
  "html_url": "https://github.com/Shopify/shipit-engine/pull/180#issuecomment-49081641",
  "issue_url": "https://api.github.com/repos/Shopify/shipit-engine/issues/180",
  "id": 49081641,
  "user": {
    "login": "yagnik",
    "id": 777296,
    "avatar_url": "https://avatars.githubusercontent.com/u/777296?v=3",
    "gravatar_id": "",
    "url": "https://api.github.com/users/yagnik",
    "html_url": "https://github.com/yagnik",
    "followers_url": "https://api.github.com/users/yagnik/followers",
    "following_url": "https://api.github.com/users/yagnik/following{/other_user}",
    "gists_url": "https://api.github.com/users/yagnik/gists{/gist_id}",
    "starred_url": "https://api.github.com/users/yagnik/starred{/owner}{/repo}",
    "subscriptions_url": "https://api.github.com/users/yagnik/subscriptions",
    "organizations_url": "https://api.github.com/users/yagnik/orgs",
    "repos_url": "https://api.github.com/users/yagnik/repos",
    "events_url": "https://api.github.com/users/yagnik/events{/privacy}",
    "received_events_url": "https://api.github.com/users/yagnik/received_events",
    "type": "User",
    "site_admin": false
  },
  "created_at": "2014-07-15T19:36:12Z",
  "updated_at": "2014-07-15T19:36:12Z",
  "body": ":heart: thank you!! apart from what @EiNSTeiN- mentioned this looks good to me "
}
, {
  "url": "https://api.github.com/repos/Shopify/shipit-engine/issues/comments/49351360",
  "html_url": "https://github.com/Shopify/shipit-engine/pull/180#issuecomment-49351360",
  "issue_url": "https://api.github.com/repos/Shopify/shipit-engine/issues/180",
  "id": 49351360,
  "user": {
    "login": "yagnik",
    "id": 777296,
    "avatar_url": "https://avatars.githubusercontent.com/u/777296?v=3",
    "gravatar_id": "",
    "url": "https://api.github.com/users/yagnik",
    "html_url": "https://github.com/yagnik",
    "followers_url": "https://api.github.com/users/yagnik/followers",
    "following_url": "https://api.github.com/users/yagnik/following{/other_user}",
    "gists_url": "https://api.github.com/users/yagnik/gists{/gist_id}",
    "starred_url": "https://api.github.com/users/yagnik/starred{/owner}{/repo}",
    "subscriptions_url": "https://api.github.com/users/yagnik/subscriptions",
    "organizations_url": "https://api.github.com/users/yagnik/orgs",
    "repos_url": "https://api.github.com/users/yagnik/repos",
    "events_url": "https://api.github.com/users/yagnik/events{/privacy}",
    "received_events_url": "https://api.github.com/users/yagnik/received_events",
    "type": "User",
    "site_admin": false
  },
  "created_at": "2014-07-17T19:18:03Z",
  "updated_at": "2014-07-17T19:18:03Z",
  "body": "bump, good to merge? "
}
, {
  "url": "https://api.github.com/repos/Shopify/shipit-engine/issues/comments/49352641",
  "html_url": "https://github.com/Shopify/shipit-engine/pull/180#issuecomment-49352641",
  "issue_url": "https://api.github.com/repos/Shopify/shipit-engine/issues/180",
  "id": 49352641,
  "user": {
    "login": "gmalette",
    "id": 351915,
    "avatar_url": "https://avatars.githubusercontent.com/u/351915?v=3",
    "gravatar_id": "",
    "url": "https://api.github.com/users/gmalette",
    "html_url": "https://github.com/gmalette",
    "followers_url": "https://api.github.com/users/gmalette/followers",
    "following_url": "https://api.github.com/users/gmalette/following{/other_user}",
    "gists_url": "https://api.github.com/users/gmalette/gists{/gist_id}",
    "starred_url": "https://api.github.com/users/gmalette/starred{/owner}{/repo}",
    "subscriptions_url": "https://api.github.com/users/gmalette/subscriptions",
    "organizations_url": "https://api.github.com/users/gmalette/orgs",
    "repos_url": "https://api.github.com/users/gmalette/repos",
    "events_url": "https://api.github.com/users/gmalette/events{/privacy}",
    "received_events_url": "https://api.github.com/users/gmalette/received_events",
    "type": "User",
    "site_admin": false
  },
  "created_at": "2014-07-17T19:28:38Z",
  "updated_at": "2014-07-17T19:28:38Z",
  "body": "> bump, good to merge?\r\n\r\nCookbooks need to be updated"
}
, {
  "url": "https://api.github.com/repos/Shopify/shipit-engine/issues/comments/49444523",
  "html_url": "https://github.com/Shopify/shipit-engine/pull/180#issuecomment-49444523",
  "issue_url": "https://api.github.com/repos/Shopify/shipit-engine/issues/180",
  "id": 49444523,
  "user": {
    "login": "byroot",
    "id": 44640,
    "avatar_url": "https://avatars.githubusercontent.com/u/44640?v=3",
    "gravatar_id": "",
    "url": "https://api.github.com/users/byroot",
    "html_url": "https://github.com/byroot",
    "followers_url": "https://api.github.com/users/byroot/followers",
    "following_url": "https://api.github.com/users/byroot/following{/other_user}",
    "gists_url": "https://api.github.com/users/byroot/gists{/gist_id}",
    "starred_url": "https://api.github.com/users/byroot/starred{/owner}{/repo}",
    "subscriptions_url": "https://api.github.com/users/byroot/subscriptions",
    "organizations_url": "https://api.github.com/users/byroot/orgs",
    "repos_url": "https://api.github.com/users/byroot/repos",
    "events_url": "https://api.github.com/users/byroot/events{/privacy}",
    "received_events_url": "https://api.github.com/users/byroot/received_events",
    "type": "User",
    "site_admin": false
  },
  "created_at": "2014-07-18T15:32:41Z",
  "updated_at": "2014-07-18T15:32:41Z",
  "body": "I created an ops issue: https://github.com/Shopify/ops/issues/1544"
}
, {
  "url": "https://api.github.com/repos/Shopify/shipit-engine/issues/comments/49445780",
  "html_url": "https://github.com/Shopify/shipit-engine/pull/180#issuecomment-49445780",
  "issue_url": "https://api.github.com/repos/Shopify/shipit-engine/issues/180",
  "id": 49445780,
  "user": {
    "login": "gmalette",
    "id": 351915,
    "avatar_url": "https://avatars.githubusercontent.com/u/351915?v=3",
    "gravatar_id": "",
    "url": "https://api.github.com/users/gmalette",
    "html_url": "https://github.com/gmalette",
    "followers_url": "https://api.github.com/users/gmalette/followers",
    "following_url": "https://api.github.com/users/gmalette/following{/other_user}",
    "gists_url": "https://api.github.com/users/gmalette/gists{/gist_id}",
    "starred_url": "https://api.github.com/users/gmalette/starred{/owner}{/repo}",
    "subscriptions_url": "https://api.github.com/users/gmalette/subscriptions",
    "organizations_url": "https://api.github.com/users/gmalette/orgs",
    "repos_url": "https://api.github.com/users/gmalette/repos",
    "events_url": "https://api.github.com/users/gmalette/events{/privacy}",
    "received_events_url": "https://api.github.com/users/gmalette/received_events",
    "type": "User",
    "site_admin": false
  },
  "created_at": "2014-07-18T15:42:56Z",
  "updated_at": "2014-07-18T15:42:56Z",
  "body": "I think we should allow Shipit deployments to not have the secrets if they don't have ejson configs. Thoughts?"
}
, {
  "url": "https://api.github.com/repos/Shopify/shipit-engine/issues/comments/49447410",
  "html_url": "https://github.com/Shopify/shipit-engine/pull/180#issuecomment-49447410",
  "issue_url": "https://api.github.com/repos/Shopify/shipit-engine/issues/180",
  "id": 49447410,
  "user": {
    "login": "byroot",
    "id": 44640,
    "avatar_url": "https://avatars.githubusercontent.com/u/44640?v=3",
    "gravatar_id": "",
    "url": "https://api.github.com/users/byroot",
    "html_url": "https://github.com/byroot",
    "followers_url": "https://api.github.com/users/byroot/followers",
    "following_url": "https://api.github.com/users/byroot/following{/other_user}",
    "gists_url": "https://api.github.com/users/byroot/gists{/gist_id}",
    "starred_url": "https://api.github.com/users/byroot/starred{/owner}{/repo}",
    "subscriptions_url": "https://api.github.com/users/byroot/subscriptions",
    "organizations_url": "https://api.github.com/users/byroot/orgs",
    "repos_url": "https://api.github.com/users/byroot/repos",
    "events_url": "https://api.github.com/users/byroot/events{/privacy}",
    "received_events_url": "https://api.github.com/users/byroot/received_events",
    "type": "User",
    "site_admin": false
  },
  "created_at": "2014-07-18T15:55:55Z",
  "updated_at": "2014-07-18T15:55:55Z",
  "body": "Yep, I just though about that, like 5 minutes ago.\r\n\r\nI'll do that in another PR though."
}
, {
  "url": "https://api.github.com/repos/Shopify/shipit-engine/issues/comments/53583348",
  "html_url": "https://github.com/Shopify/shipit-engine/pull/180#issuecomment-53583348",
  "issue_url": "https://api.github.com/repos/Shopify/shipit-engine/issues/180",
  "id": 53583348,
  "user": {
    "login": "byroot",
    "id": 44640,
    "avatar_url": "https://avatars.githubusercontent.com/u/44640?v=3",
    "gravatar_id": "",
    "url": "https://api.github.com/users/byroot",
    "html_url": "https://github.com/byroot",
    "followers_url": "https://api.github.com/users/byroot/followers",
    "following_url": "https://api.github.com/users/byroot/following{/other_user}",
    "gists_url": "https://api.github.com/users/byroot/gists{/gist_id}",
    "starred_url": "https://api.github.com/users/byroot/starred{/owner}{/repo}",
    "subscriptions_url": "https://api.github.com/users/byroot/subscriptions",
    "organizations_url": "https://api.github.com/users/byroot/orgs",
    "repos_url": "https://api.github.com/users/byroot/repos",
    "events_url": "https://api.github.com/users/byroot/events{/privacy}",
    "received_events_url": "https://api.github.com/users/byroot/received_events",
    "type": "User",
    "site_admin": false
  },
  "created_at": "2014-08-27T14:48:19Z",
  "updated_at": "2014-08-27T14:48:19Z",
  "body": "Finally we did it with ejson in the repo itself."
}
]
