[
{
  "url": "https://api.github.com/repos/Shopify/shipit-engine/issues/comments/108187819",
  "html_url": "https://github.com/Shopify/shipit-engine/issues/173#issuecomment-108187819",
  "issue_url": "https://api.github.com/repos/Shopify/shipit-engine/issues/173",
  "id": 108187819,
  "user": {
    "login": "gmalette",
    "id": 351915,
    "avatar_url": "https://avatars.githubusercontent.com/u/351915?v=3",
    "gravatar_id": "",
    "url": "https://api.github.com/users/gmalette",
    "html_url": "https://github.com/gmalette",
    "followers_url": "https://api.github.com/users/gmalette/followers",
    "following_url": "https://api.github.com/users/gmalette/following{/other_user}",
    "gists_url": "https://api.github.com/users/gmalette/gists{/gist_id}",
    "starred_url": "https://api.github.com/users/gmalette/starred{/owner}{/repo}",
    "subscriptions_url": "https://api.github.com/users/gmalette/subscriptions",
    "organizations_url": "https://api.github.com/users/gmalette/orgs",
    "repos_url": "https://api.github.com/users/gmalette/repos",
    "events_url": "https://api.github.com/users/gmalette/events{/privacy}",
    "received_events_url": "https://api.github.com/users/gmalette/received_events",
    "type": "User",
    "site_admin": false
  },
  "created_at": "2015-06-03T04:37:58Z",
  "updated_at": "2015-06-03T04:37:58Z",
  "body": "This has been addressed in the new design, reopen if it's unsatisfactory"
}
]
