[
{
  "url": "https://api.github.com/repos/thoughtbot/pester/issues/comments/66806671",
  "html_url": "https://github.com/thoughtbot/pester/pull/12#issuecomment-66806671",
  "issue_url": "https://api.github.com/repos/thoughtbot/pester/issues/12",
  "id": 66806671,
  "user": {
    "login": "joshuaogle",
    "id": 111194,
    "avatar_url": "https://avatars.githubusercontent.com/u/111194?v=3",
    "gravatar_id": "",
    "url": "https://api.github.com/users/joshuaogle",
    "html_url": "https://github.com/joshuaogle",
    "followers_url": "https://api.github.com/users/joshuaogle/followers",
    "following_url": "https://api.github.com/users/joshuaogle/following{/other_user}",
    "gists_url": "https://api.github.com/users/joshuaogle/gists{/gist_id}",
    "starred_url": "https://api.github.com/users/joshuaogle/starred{/owner}{/repo}",
    "subscriptions_url": "https://api.github.com/users/joshuaogle/subscriptions",
    "organizations_url": "https://api.github.com/users/joshuaogle/orgs",
    "repos_url": "https://api.github.com/users/joshuaogle/repos",
    "events_url": "https://api.github.com/users/joshuaogle/events{/privacy}",
    "received_events_url": "https://api.github.com/users/joshuaogle/received_events",
    "type": "User",
    "site_admin": false
  },
  "created_at": "2014-12-12T17:39:56Z",
  "updated_at": "2014-12-12T17:39:56Z",
  "body": "Oh this is going to be amazing\r\n\r\n![](http://replygif.net/i/500.gif)\r\n\r\n:+1: "
}
, {
  "url": "https://api.github.com/repos/thoughtbot/pester/issues/comments/66809188",
  "html_url": "https://github.com/thoughtbot/pester/pull/12#issuecomment-66809188",
  "issue_url": "https://api.github.com/repos/thoughtbot/pester/issues/12",
  "id": 66809188,
  "user": {
    "login": "creuter",
    "id": 2317604,
    "avatar_url": "https://avatars.githubusercontent.com/u/2317604?v=3",
    "gravatar_id": "",
    "url": "https://api.github.com/users/creuter",
    "html_url": "https://github.com/creuter",
    "followers_url": "https://api.github.com/users/creuter/followers",
    "following_url": "https://api.github.com/users/creuter/following{/other_user}",
    "gists_url": "https://api.github.com/users/creuter/gists{/gist_id}",
    "starred_url": "https://api.github.com/users/creuter/starred{/owner}{/repo}",
    "subscriptions_url": "https://api.github.com/users/creuter/subscriptions",
    "organizations_url": "https://api.github.com/users/creuter/orgs",
    "repos_url": "https://api.github.com/users/creuter/repos",
    "events_url": "https://api.github.com/users/creuter/events{/privacy}",
    "received_events_url": "https://api.github.com/users/creuter/received_events",
    "type": "User",
    "site_admin": false
  },
  "created_at": "2014-12-12T17:58:34Z",
  "updated_at": "2014-12-12T17:58:34Z",
  "body": "![giphy](https://cloud.githubusercontent.com/assets/2317604/5416556/c5f5d6a4-81ed-11e4-8c6d-6636819b957b.gif)\r\n"
}
]
