[
{
  "url": "https://api.github.com/repos/google/oauth2client/issues/comments/148122241",
  "html_url": "https://github.com/google/oauth2client/issues/326#issuecomment-148122241",
  "issue_url": "https://api.github.com/repos/google/oauth2client/issues/326",
  "id": 148122241,
  "user": {
    "login": "jonparrott",
    "id": 250995,
    "avatar_url": "https://avatars.githubusercontent.com/u/250995?v=3",
    "gravatar_id": "",
    "url": "https://api.github.com/users/jonparrott",
    "html_url": "https://github.com/jonparrott",
    "followers_url": "https://api.github.com/users/jonparrott/followers",
    "following_url": "https://api.github.com/users/jonparrott/following{/other_user}",
    "gists_url": "https://api.github.com/users/jonparrott/gists{/gist_id}",
    "starred_url": "https://api.github.com/users/jonparrott/starred{/owner}{/repo}",
    "subscriptions_url": "https://api.github.com/users/jonparrott/subscriptions",
    "organizations_url": "https://api.github.com/users/jonparrott/orgs",
    "repos_url": "https://api.github.com/users/jonparrott/repos",
    "events_url": "https://api.github.com/users/jonparrott/events{/privacy}",
    "received_events_url": "https://api.github.com/users/jonparrott/received_events",
    "type": "User",
    "site_admin": false
  },
  "created_at": "2015-10-14T17:13:01Z",
  "updated_at": "2015-10-14T17:13:01Z",
  "body": "/cc @waprin"
}
, {
  "url": "https://api.github.com/repos/google/oauth2client/issues/comments/148127746",
  "html_url": "https://github.com/google/oauth2client/issues/326#issuecomment-148127746",
  "issue_url": "https://api.github.com/repos/google/oauth2client/issues/326",
  "id": 148127746,
  "user": {
    "login": "nathanielmanistaatgoogle",
    "id": 10131044,
    "avatar_url": "https://avatars.githubusercontent.com/u/10131044?v=3",
    "gravatar_id": "",
    "url": "https://api.github.com/users/nathanielmanistaatgoogle",
    "html_url": "https://github.com/nathanielmanistaatgoogle",
    "followers_url": "https://api.github.com/users/nathanielmanistaatgoogle/followers",
    "following_url": "https://api.github.com/users/nathanielmanistaatgoogle/following{/other_user}",
    "gists_url": "https://api.github.com/users/nathanielmanistaatgoogle/gists{/gist_id}",
    "starred_url": "https://api.github.com/users/nathanielmanistaatgoogle/starred{/owner}{/repo}",
    "subscriptions_url": "https://api.github.com/users/nathanielmanistaatgoogle/subscriptions",
    "organizations_url": "https://api.github.com/users/nathanielmanistaatgoogle/orgs",
    "repos_url": "https://api.github.com/users/nathanielmanistaatgoogle/repos",
    "events_url": "https://api.github.com/users/nathanielmanistaatgoogle/events{/privacy}",
    "received_events_url": "https://api.github.com/users/nathanielmanistaatgoogle/received_events",
    "type": "User",
    "site_admin": false
  },
  "created_at": "2015-10-14T17:33:19Z",
  "updated_at": "2015-10-14T17:33:19Z",
  "body": "If we have import aliases let's keep them no later than a 1.6.0 or later release."
}
, {
  "url": "https://api.github.com/repos/google/oauth2client/issues/comments/148131943",
  "html_url": "https://github.com/google/oauth2client/issues/326#issuecomment-148131943",
  "issue_url": "https://api.github.com/repos/google/oauth2client/issues/326",
  "id": 148131943,
  "user": {
    "login": "jonparrott",
    "id": 250995,
    "avatar_url": "https://avatars.githubusercontent.com/u/250995?v=3",
    "gravatar_id": "",
    "url": "https://api.github.com/users/jonparrott",
    "html_url": "https://github.com/jonparrott",
    "followers_url": "https://api.github.com/users/jonparrott/followers",
    "following_url": "https://api.github.com/users/jonparrott/following{/other_user}",
    "gists_url": "https://api.github.com/users/jonparrott/gists{/gist_id}",
    "starred_url": "https://api.github.com/users/jonparrott/starred{/owner}{/repo}",
    "subscriptions_url": "https://api.github.com/users/jonparrott/subscriptions",
    "organizations_url": "https://api.github.com/users/jonparrott/orgs",
    "repos_url": "https://api.github.com/users/jonparrott/repos",
    "events_url": "https://api.github.com/users/jonparrott/events{/privacy}",
    "received_events_url": "https://api.github.com/users/jonparrott/received_events",
    "type": "User",
    "site_admin": false
  },
  "created_at": "2015-10-14T17:45:33Z",
  "updated_at": "2015-10-14T17:45:33Z",
  "body": "SGTM, we can also put a deprecation warning in there."
}
, {
  "url": "https://api.github.com/repos/google/oauth2client/issues/comments/148153845",
  "html_url": "https://github.com/google/oauth2client/issues/326#issuecomment-148153845",
  "issue_url": "https://api.github.com/repos/google/oauth2client/issues/326",
  "id": 148153845,
  "user": {
    "login": "dhermes",
    "id": 520669,
    "avatar_url": "https://avatars.githubusercontent.com/u/520669?v=3",
    "gravatar_id": "",
    "url": "https://api.github.com/users/dhermes",
    "html_url": "https://github.com/dhermes",
    "followers_url": "https://api.github.com/users/dhermes/followers",
    "following_url": "https://api.github.com/users/dhermes/following{/other_user}",
    "gists_url": "https://api.github.com/users/dhermes/gists{/gist_id}",
    "starred_url": "https://api.github.com/users/dhermes/starred{/owner}{/repo}",
    "subscriptions_url": "https://api.github.com/users/dhermes/subscriptions",
    "organizations_url": "https://api.github.com/users/dhermes/orgs",
    "repos_url": "https://api.github.com/users/dhermes/repos",
    "events_url": "https://api.github.com/users/dhermes/events{/privacy}",
    "received_events_url": "https://api.github.com/users/dhermes/received_events",
    "type": "User",
    "site_admin": false
  },
  "created_at": "2015-10-14T18:47:00Z",
  "updated_at": "2015-10-14T18:47:00Z",
  "body": "@jonparrott FWIW I had in mind something like a well-defined surface for packages to interact with and just endorse / list other plugins as PyPI packages (not as native part of `oauth2client` source code)"
}
, {
  "url": "https://api.github.com/repos/google/oauth2client/issues/comments/148154227",
  "html_url": "https://github.com/google/oauth2client/issues/326#issuecomment-148154227",
  "issue_url": "https://api.github.com/repos/google/oauth2client/issues/326",
  "id": 148154227,
  "user": {
    "login": "jonparrott",
    "id": 250995,
    "avatar_url": "https://avatars.githubusercontent.com/u/250995?v=3",
    "gravatar_id": "",
    "url": "https://api.github.com/users/jonparrott",
    "html_url": "https://github.com/jonparrott",
    "followers_url": "https://api.github.com/users/jonparrott/followers",
    "following_url": "https://api.github.com/users/jonparrott/following{/other_user}",
    "gists_url": "https://api.github.com/users/jonparrott/gists{/gist_id}",
    "starred_url": "https://api.github.com/users/jonparrott/starred{/owner}{/repo}",
    "subscriptions_url": "https://api.github.com/users/jonparrott/subscriptions",
    "organizations_url": "https://api.github.com/users/jonparrott/orgs",
    "repos_url": "https://api.github.com/users/jonparrott/repos",
    "events_url": "https://api.github.com/users/jonparrott/events{/privacy}",
    "received_events_url": "https://api.github.com/users/jonparrott/received_events",
    "type": "User",
    "site_admin": false
  },
  "created_at": "2015-10-14T18:48:23Z",
  "updated_at": "2015-10-14T18:48:23Z",
  "body": "Not sure I follow, but imo this is a good starting point if we do want to spin these off separately."
}
, {
  "url": "https://api.github.com/repos/google/oauth2client/issues/comments/148180161",
  "html_url": "https://github.com/google/oauth2client/issues/326#issuecomment-148180161",
  "issue_url": "https://api.github.com/repos/google/oauth2client/issues/326",
  "id": 148180161,
  "user": {
    "login": "dhermes",
    "id": 520669,
    "avatar_url": "https://avatars.githubusercontent.com/u/520669?v=3",
    "gravatar_id": "",
    "url": "https://api.github.com/users/dhermes",
    "html_url": "https://github.com/dhermes",
    "followers_url": "https://api.github.com/users/dhermes/followers",
    "following_url": "https://api.github.com/users/dhermes/following{/other_user}",
    "gists_url": "https://api.github.com/users/dhermes/gists{/gist_id}",
    "starred_url": "https://api.github.com/users/dhermes/starred{/owner}{/repo}",
    "subscriptions_url": "https://api.github.com/users/dhermes/subscriptions",
    "organizations_url": "https://api.github.com/users/dhermes/orgs",
    "repos_url": "https://api.github.com/users/dhermes/repos",
    "events_url": "https://api.github.com/users/dhermes/events{/privacy}",
    "received_events_url": "https://api.github.com/users/dhermes/received_events",
    "type": "User",
    "site_admin": false
  },
  "created_at": "2015-10-14T20:05:19Z",
  "updated_at": "2015-10-14T20:05:19Z",
  "body": "@jonparrott Sorry, code is easier than words sometimes:\r\n\r\n```bash\r\n$ pip install oauthclient\r\n$ pip install oauthclient-flask-plugin\r\n```\r\n\r\nthen\r\n\r\n```python\r\nfrom oauth2client import kitchen_sink\r\nfrom flask_oauth2client import FancyFlow\r\n```\r\n\r\n----\r\n\r\nCould \"allow\" `oauth2client` to be a namespace package, but I think that would muddle the lines between endorsed plugins and ones we've never heard of. I.E. if `oauth2client` was a namespace package then someone could have\r\n\r\n```python\r\nfrom oauth2client.endorsed_plugin import safe_gun_that_totally_wont_shoot_foot\r\nfrom oauth2client.who_am_eye import mystery_meat\r\n```\r\n"
}
, {
  "url": "https://api.github.com/repos/google/oauth2client/issues/comments/148180740",
  "html_url": "https://github.com/google/oauth2client/issues/326#issuecomment-148180740",
  "issue_url": "https://api.github.com/repos/google/oauth2client/issues/326",
  "id": 148180740,
  "user": {
    "login": "jonparrott",
    "id": 250995,
    "avatar_url": "https://avatars.githubusercontent.com/u/250995?v=3",
    "gravatar_id": "",
    "url": "https://api.github.com/users/jonparrott",
    "html_url": "https://github.com/jonparrott",
    "followers_url": "https://api.github.com/users/jonparrott/followers",
    "following_url": "https://api.github.com/users/jonparrott/following{/other_user}",
    "gists_url": "https://api.github.com/users/jonparrott/gists{/gist_id}",
    "starred_url": "https://api.github.com/users/jonparrott/starred{/owner}{/repo}",
    "subscriptions_url": "https://api.github.com/users/jonparrott/subscriptions",
    "organizations_url": "https://api.github.com/users/jonparrott/orgs",
    "repos_url": "https://api.github.com/users/jonparrott/repos",
    "events_url": "https://api.github.com/users/jonparrott/events{/privacy}",
    "received_events_url": "https://api.github.com/users/jonparrott/received_events",
    "type": "User",
    "site_admin": false
  },
  "created_at": "2015-10-14T20:07:55Z",
  "updated_at": "2015-10-14T20:07:55Z",
  "body": "I see, okay, we want the same thing, I'm just doing baby steps.\r\n\r\nFirst step is:\r\n\r\n```\r\n$ pip install oauth2client\r\n```\r\n\r\n```\r\nfrom oauth2client.contrib import flask_util\r\n```\r\n\r\nSecond step, if we want:\r\n\r\n```\r\n$ pip install oauth2client oauth2client-flask\r\n```\r\n\r\n```\r\nfrom oauth2client.contrib import flask_util\r\n```\r\n\r\n---\r\n\r\n``oauth2client.contrib`` would be the namespace package, not ``oauth2client``."
}
, {
  "url": "https://api.github.com/repos/google/oauth2client/issues/comments/148211961",
  "html_url": "https://github.com/google/oauth2client/issues/326#issuecomment-148211961",
  "issue_url": "https://api.github.com/repos/google/oauth2client/issues/326",
  "id": 148211961,
  "user": {
    "login": "dhermes",
    "id": 520669,
    "avatar_url": "https://avatars.githubusercontent.com/u/520669?v=3",
    "gravatar_id": "",
    "url": "https://api.github.com/users/dhermes",
    "html_url": "https://github.com/dhermes",
    "followers_url": "https://api.github.com/users/dhermes/followers",
    "following_url": "https://api.github.com/users/dhermes/following{/other_user}",
    "gists_url": "https://api.github.com/users/dhermes/gists{/gist_id}",
    "starred_url": "https://api.github.com/users/dhermes/starred{/owner}{/repo}",
    "subscriptions_url": "https://api.github.com/users/dhermes/subscriptions",
    "organizations_url": "https://api.github.com/users/dhermes/orgs",
    "repos_url": "https://api.github.com/users/dhermes/repos",
    "events_url": "https://api.github.com/users/dhermes/events{/privacy}",
    "received_events_url": "https://api.github.com/users/dhermes/received_events",
    "type": "User",
    "site_admin": false
  },
  "created_at": "2015-10-14T21:47:48Z",
  "updated_at": "2015-10-14T21:47:48Z",
  "body": "That seems more reasonable in terms of `oauth2client` endorsement of something's validity. Not sure if it's possible to make a sub-package (`oauth2client.contrib`) be a namespace package unless the parent (`oauth2client`) is.\r\n\r\nWe shall see."
}
, {
  "url": "https://api.github.com/repos/google/oauth2client/issues/comments/148215590",
  "html_url": "https://github.com/google/oauth2client/issues/326#issuecomment-148215590",
  "issue_url": "https://api.github.com/repos/google/oauth2client/issues/326",
  "id": 148215590,
  "user": {
    "login": "jonparrott",
    "id": 250995,
    "avatar_url": "https://avatars.githubusercontent.com/u/250995?v=3",
    "gravatar_id": "",
    "url": "https://api.github.com/users/jonparrott",
    "html_url": "https://github.com/jonparrott",
    "followers_url": "https://api.github.com/users/jonparrott/followers",
    "following_url": "https://api.github.com/users/jonparrott/following{/other_user}",
    "gists_url": "https://api.github.com/users/jonparrott/gists{/gist_id}",
    "starred_url": "https://api.github.com/users/jonparrott/starred{/owner}{/repo}",
    "subscriptions_url": "https://api.github.com/users/jonparrott/subscriptions",
    "organizations_url": "https://api.github.com/users/jonparrott/orgs",
    "repos_url": "https://api.github.com/users/jonparrott/repos",
    "events_url": "https://api.github.com/users/jonparrott/events{/privacy}",
    "received_events_url": "https://api.github.com/users/jonparrott/received_events",
    "type": "User",
    "site_admin": false
  },
  "created_at": "2015-10-14T22:00:37Z",
  "updated_at": "2015-10-14T22:00:37Z",
  "body": "If we can't, we can steal a page from flask's playbook and use a [redirect package](http://flask.pocoo.org/docs/0.10/extensiondev/#extension-import-transition)."
}
]
