[
{
  "url": "https://api.github.com/repos/google/oauth2client/issues/comments/46696278",
  "html_url": "https://github.com/google/oauth2client/pull/19#issuecomment-46696278",
  "issue_url": "https://api.github.com/repos/google/oauth2client/issues/19",
  "id": 46696278,
  "user": {
    "login": "craigcitro",
    "id": 468559,
    "avatar_url": "https://avatars.githubusercontent.com/u/468559?v=3",
    "gravatar_id": "",
    "url": "https://api.github.com/users/craigcitro",
    "html_url": "https://github.com/craigcitro",
    "followers_url": "https://api.github.com/users/craigcitro/followers",
    "following_url": "https://api.github.com/users/craigcitro/following{/other_user}",
    "gists_url": "https://api.github.com/users/craigcitro/gists{/gist_id}",
    "starred_url": "https://api.github.com/users/craigcitro/starred{/owner}{/repo}",
    "subscriptions_url": "https://api.github.com/users/craigcitro/subscriptions",
    "organizations_url": "https://api.github.com/users/craigcitro/orgs",
    "repos_url": "https://api.github.com/users/craigcitro/repos",
    "events_url": "https://api.github.com/users/craigcitro/events{/privacy}",
    "received_events_url": "https://api.github.com/users/craigcitro/received_events",
    "type": "User",
    "site_admin": false
  },
  "created_at": "2014-06-20T16:08:27Z",
  "updated_at": "2014-06-20T16:08:27Z",
  "body": "hi @uguatel, thanks for the fix. first question -- have you signed the CLA?"
}
, {
  "url": "https://api.github.com/repos/google/oauth2client/issues/comments/46700491",
  "html_url": "https://github.com/google/oauth2client/pull/19#issuecomment-46700491",
  "issue_url": "https://api.github.com/repos/google/oauth2client/issues/19",
  "id": 46700491,
  "user": {
    "login": "skelterjohn",
    "id": 334294,
    "avatar_url": "https://avatars.githubusercontent.com/u/334294?v=3",
    "gravatar_id": "",
    "url": "https://api.github.com/users/skelterjohn",
    "html_url": "https://github.com/skelterjohn",
    "followers_url": "https://api.github.com/users/skelterjohn/followers",
    "following_url": "https://api.github.com/users/skelterjohn/following{/other_user}",
    "gists_url": "https://api.github.com/users/skelterjohn/gists{/gist_id}",
    "starred_url": "https://api.github.com/users/skelterjohn/starred{/owner}{/repo}",
    "subscriptions_url": "https://api.github.com/users/skelterjohn/subscriptions",
    "organizations_url": "https://api.github.com/users/skelterjohn/orgs",
    "repos_url": "https://api.github.com/users/skelterjohn/repos",
    "events_url": "https://api.github.com/users/skelterjohn/events{/privacy}",
    "received_events_url": "https://api.github.com/users/skelterjohn/received_events",
    "type": "User",
    "site_admin": false
  },
  "created_at": "2014-06-20T16:47:25Z",
  "updated_at": "2014-06-20T16:47:25Z",
  "body": "uguatel is a Googler."
}
]
