[
{
  "url": "https://api.github.com/repos/Microsoft/CodeContracts/issues/comments/142365892",
  "html_url": "https://github.com/Microsoft/CodeContracts/issues/252#issuecomment-142365892",
  "issue_url": "https://api.github.com/repos/Microsoft/CodeContracts/issues/252",
  "id": 142365892,
  "user": {
    "login": "fedotovalex",
    "id": 12578737,
    "avatar_url": "https://avatars.githubusercontent.com/u/12578737?v=3",
    "gravatar_id": "",
    "url": "https://api.github.com/users/fedotovalex",
    "html_url": "https://github.com/fedotovalex",
    "followers_url": "https://api.github.com/users/fedotovalex/followers",
    "following_url": "https://api.github.com/users/fedotovalex/following{/other_user}",
    "gists_url": "https://api.github.com/users/fedotovalex/gists{/gist_id}",
    "starred_url": "https://api.github.com/users/fedotovalex/starred{/owner}{/repo}",
    "subscriptions_url": "https://api.github.com/users/fedotovalex/subscriptions",
    "organizations_url": "https://api.github.com/users/fedotovalex/orgs",
    "repos_url": "https://api.github.com/users/fedotovalex/repos",
    "events_url": "https://api.github.com/users/fedotovalex/events{/privacy}",
    "received_events_url": "https://api.github.com/users/fedotovalex/received_events",
    "type": "User",
    "site_admin": false
  },
  "created_at": "2015-09-22T18:00:18Z",
  "updated_at": "2015-09-22T18:00:18Z",
  "body": "This looks very similar to #191."
}
, {
  "url": "https://api.github.com/repos/Microsoft/CodeContracts/issues/comments/142522580",
  "html_url": "https://github.com/Microsoft/CodeContracts/issues/252#issuecomment-142522580",
  "issue_url": "https://api.github.com/repos/Microsoft/CodeContracts/issues/252",
  "id": 142522580,
  "user": {
    "login": "IPWright83",
    "id": 1374775,
    "avatar_url": "https://avatars.githubusercontent.com/u/1374775?v=3",
    "gravatar_id": "",
    "url": "https://api.github.com/users/IPWright83",
    "html_url": "https://github.com/IPWright83",
    "followers_url": "https://api.github.com/users/IPWright83/followers",
    "following_url": "https://api.github.com/users/IPWright83/following{/other_user}",
    "gists_url": "https://api.github.com/users/IPWright83/gists{/gist_id}",
    "starred_url": "https://api.github.com/users/IPWright83/starred{/owner}{/repo}",
    "subscriptions_url": "https://api.github.com/users/IPWright83/subscriptions",
    "organizations_url": "https://api.github.com/users/IPWright83/orgs",
    "repos_url": "https://api.github.com/users/IPWright83/repos",
    "events_url": "https://api.github.com/users/IPWright83/events{/privacy}",
    "received_events_url": "https://api.github.com/users/IPWright83/received_events",
    "type": "User",
    "site_admin": false
  },
  "created_at": "2015-09-23T07:51:56Z",
  "updated_at": "2015-09-23T07:51:56Z",
  "body": "@fedotovalex Looking at it yeah, the result is certainly the same. I'll leave it open for now in-case the circumstances that trigger the issue are different at all. If not I imagine @SergeyTeplyakov should be able to verify and close."
}
]
