[
{
  "url": "https://api.github.com/repos/Microsoft/visualfsharp/issues/comments/70525065",
  "html_url": "https://github.com/Microsoft/visualfsharp/pull/54#issuecomment-70525065",
  "issue_url": "https://api.github.com/repos/Microsoft/visualfsharp/issues/54",
  "id": 70525065,
  "user": {
    "login": "dsyme",
    "id": 7204669,
    "avatar_url": "https://avatars.githubusercontent.com/u/7204669?v=3",
    "gravatar_id": "",
    "url": "https://api.github.com/users/dsyme",
    "html_url": "https://github.com/dsyme",
    "followers_url": "https://api.github.com/users/dsyme/followers",
    "following_url": "https://api.github.com/users/dsyme/following{/other_user}",
    "gists_url": "https://api.github.com/users/dsyme/gists{/gist_id}",
    "starred_url": "https://api.github.com/users/dsyme/starred{/owner}{/repo}",
    "subscriptions_url": "https://api.github.com/users/dsyme/subscriptions",
    "organizations_url": "https://api.github.com/users/dsyme/orgs",
    "repos_url": "https://api.github.com/users/dsyme/repos",
    "events_url": "https://api.github.com/users/dsyme/events{/privacy}",
    "received_events_url": "https://api.github.com/users/dsyme/received_events",
    "type": "User",
    "site_admin": false
  },
  "created_at": "2015-01-19T16:50:55Z",
  "updated_at": "2015-01-19T16:50:55Z",
  "body": "(Yes please! I also normally do compiler work on a laptop without VS 14.0)"
}
, {
  "url": "https://api.github.com/repos/Microsoft/visualfsharp/issues/comments/70530231",
  "html_url": "https://github.com/Microsoft/visualfsharp/pull/54#issuecomment-70530231",
  "issue_url": "https://api.github.com/repos/Microsoft/visualfsharp/issues/54",
  "id": 70530231,
  "user": {
    "login": "latkin",
    "id": 5943573,
    "avatar_url": "https://avatars.githubusercontent.com/u/5943573?v=3",
    "gravatar_id": "",
    "url": "https://api.github.com/users/latkin",
    "html_url": "https://github.com/latkin",
    "followers_url": "https://api.github.com/users/latkin/followers",
    "following_url": "https://api.github.com/users/latkin/following{/other_user}",
    "gists_url": "https://api.github.com/users/latkin/gists{/gist_id}",
    "starred_url": "https://api.github.com/users/latkin/starred{/owner}{/repo}",
    "subscriptions_url": "https://api.github.com/users/latkin/subscriptions",
    "organizations_url": "https://api.github.com/users/latkin/orgs",
    "repos_url": "https://api.github.com/users/latkin/repos",
    "events_url": "https://api.github.com/users/latkin/events{/privacy}",
    "received_events_url": "https://api.github.com/users/latkin/received_events",
    "type": "User",
    "site_admin": false
  },
  "created_at": "2015-01-19T17:25:47Z",
  "updated_at": "2015-01-19T17:25:47Z",
  "body": "The VS 14.0 preview is free to install, what is preventing you from using it?\r\n\r\nF# 4.0 is shipping in 14.0.  If you want to do F# 4.0 IDE development, it does not seem unreasonable to require you to dev and test on the VS version it will ship with (once a public version is available, of course)."
}
, {
  "url": "https://api.github.com/repos/Microsoft/visualfsharp/issues/comments/70530383",
  "html_url": "https://github.com/Microsoft/visualfsharp/pull/54#issuecomment-70530383",
  "issue_url": "https://api.github.com/repos/Microsoft/visualfsharp/issues/54",
  "id": 70530383,
  "user": {
    "login": "forki",
    "id": 57396,
    "avatar_url": "https://avatars.githubusercontent.com/u/57396?v=3",
    "gravatar_id": "",
    "url": "https://api.github.com/users/forki",
    "html_url": "https://github.com/forki",
    "followers_url": "https://api.github.com/users/forki/followers",
    "following_url": "https://api.github.com/users/forki/following{/other_user}",
    "gists_url": "https://api.github.com/users/forki/gists{/gist_id}",
    "starred_url": "https://api.github.com/users/forki/starred{/owner}{/repo}",
    "subscriptions_url": "https://api.github.com/users/forki/subscriptions",
    "organizations_url": "https://api.github.com/users/forki/orgs",
    "repos_url": "https://api.github.com/users/forki/repos",
    "events_url": "https://api.github.com/users/forki/events{/privacy}",
    "received_events_url": "https://api.github.com/users/forki/received_events",
    "type": "User",
    "site_admin": false
  },
  "created_at": "2015-01-19T17:26:55Z",
  "updated_at": "2015-01-19T17:26:55Z",
  "body": "no way! ;-) I will never again install a beta of VS"
}
, {
  "url": "https://api.github.com/repos/Microsoft/visualfsharp/issues/comments/70530578",
  "html_url": "https://github.com/Microsoft/visualfsharp/pull/54#issuecomment-70530578",
  "issue_url": "https://api.github.com/repos/Microsoft/visualfsharp/issues/54",
  "id": 70530578,
  "user": {
    "login": "forki",
    "id": 57396,
    "avatar_url": "https://avatars.githubusercontent.com/u/57396?v=3",
    "gravatar_id": "",
    "url": "https://api.github.com/users/forki",
    "html_url": "https://github.com/forki",
    "followers_url": "https://api.github.com/users/forki/followers",
    "following_url": "https://api.github.com/users/forki/following{/other_user}",
    "gists_url": "https://api.github.com/users/forki/gists{/gist_id}",
    "starred_url": "https://api.github.com/users/forki/starred{/owner}{/repo}",
    "subscriptions_url": "https://api.github.com/users/forki/subscriptions",
    "organizations_url": "https://api.github.com/users/forki/orgs",
    "repos_url": "https://api.github.com/users/forki/repos",
    "events_url": "https://api.github.com/users/forki/events{/privacy}",
    "received_events_url": "https://api.github.com/users/forki/received_events",
    "type": "User",
    "site_admin": false
  },
  "created_at": "2015-01-19T17:28:05Z",
  "updated_at": "2015-01-19T17:28:05Z",
  "body": "That said: I always assumed F# 4.0 should also work in older VS instances?!"
}
, {
  "url": "https://api.github.com/repos/Microsoft/visualfsharp/issues/comments/70530932",
  "html_url": "https://github.com/Microsoft/visualfsharp/pull/54#issuecomment-70530932",
  "issue_url": "https://api.github.com/repos/Microsoft/visualfsharp/issues/54",
  "id": 70530932,
  "user": {
    "login": "latkin",
    "id": 5943573,
    "avatar_url": "https://avatars.githubusercontent.com/u/5943573?v=3",
    "gravatar_id": "",
    "url": "https://api.github.com/users/latkin",
    "html_url": "https://github.com/latkin",
    "followers_url": "https://api.github.com/users/latkin/followers",
    "following_url": "https://api.github.com/users/latkin/following{/other_user}",
    "gists_url": "https://api.github.com/users/latkin/gists{/gist_id}",
    "starred_url": "https://api.github.com/users/latkin/starred{/owner}{/repo}",
    "subscriptions_url": "https://api.github.com/users/latkin/subscriptions",
    "organizations_url": "https://api.github.com/users/latkin/orgs",
    "repos_url": "https://api.github.com/users/latkin/repos",
    "events_url": "https://api.github.com/users/latkin/events{/privacy}",
    "received_events_url": "https://api.github.com/users/latkin/received_events",
    "type": "User",
    "site_admin": false
  },
  "created_at": "2015-01-19T17:30:13Z",
  "updated_at": "2015-01-19T17:30:13Z",
  "body": "If you are doing VS development, you need to be willing to work with pre-release VS.\r\n\r\nF# 4.0 is targeting VS 14.0, there are no plans to back-release it on older versions."
}
, {
  "url": "https://api.github.com/repos/Microsoft/visualfsharp/issues/comments/70532086",
  "html_url": "https://github.com/Microsoft/visualfsharp/pull/54#issuecomment-70532086",
  "issue_url": "https://api.github.com/repos/Microsoft/visualfsharp/issues/54",
  "id": 70532086,
  "user": {
    "login": "forki",
    "id": 57396,
    "avatar_url": "https://avatars.githubusercontent.com/u/57396?v=3",
    "gravatar_id": "",
    "url": "https://api.github.com/users/forki",
    "html_url": "https://github.com/forki",
    "followers_url": "https://api.github.com/users/forki/followers",
    "following_url": "https://api.github.com/users/forki/following{/other_user}",
    "gists_url": "https://api.github.com/users/forki/gists{/gist_id}",
    "starred_url": "https://api.github.com/users/forki/starred{/owner}{/repo}",
    "subscriptions_url": "https://api.github.com/users/forki/subscriptions",
    "organizations_url": "https://api.github.com/users/forki/orgs",
    "repos_url": "https://api.github.com/users/forki/repos",
    "events_url": "https://api.github.com/users/forki/events{/privacy}",
    "received_events_url": "https://api.github.com/users/forki/received_events",
    "type": "User",
    "site_admin": false
  },
  "created_at": "2015-01-19T17:38:02Z",
  "updated_at": "2015-01-19T17:38:02Z",
  "body": "Honestly I don't want to do VS development. I just wanted to make some tests pass in order to find an issue further down in the compiler. As I said before I can't install VS beta since experience says this will fuck up my settings and influence my day work. I'm sure I'm not alone ;-) "
}
, {
  "url": "https://api.github.com/repos/Microsoft/visualfsharp/issues/comments/70534359",
  "html_url": "https://github.com/Microsoft/visualfsharp/pull/54#issuecomment-70534359",
  "issue_url": "https://api.github.com/repos/Microsoft/visualfsharp/issues/54",
  "id": 70534359,
  "user": {
    "login": "ctaggart",
    "id": 80104,
    "avatar_url": "https://avatars.githubusercontent.com/u/80104?v=3",
    "gravatar_id": "",
    "url": "https://api.github.com/users/ctaggart",
    "html_url": "https://github.com/ctaggart",
    "followers_url": "https://api.github.com/users/ctaggart/followers",
    "following_url": "https://api.github.com/users/ctaggart/following{/other_user}",
    "gists_url": "https://api.github.com/users/ctaggart/gists{/gist_id}",
    "starred_url": "https://api.github.com/users/ctaggart/starred{/owner}{/repo}",
    "subscriptions_url": "https://api.github.com/users/ctaggart/subscriptions",
    "organizations_url": "https://api.github.com/users/ctaggart/orgs",
    "repos_url": "https://api.github.com/users/ctaggart/repos",
    "events_url": "https://api.github.com/users/ctaggart/events{/privacy}",
    "received_events_url": "https://api.github.com/users/ctaggart/received_events",
    "type": "User",
    "site_admin": false
  },
  "created_at": "2015-01-19T17:54:04Z",
  "updated_at": "2015-01-19T17:54:04Z",
  "body": "@forki It is wise to put them on their own virtual machines. I'm running the VS beta on a Windows 10 VM. :)"
}
, {
  "url": "https://api.github.com/repos/Microsoft/visualfsharp/issues/comments/71261381",
  "html_url": "https://github.com/Microsoft/visualfsharp/pull/54#issuecomment-71261381",
  "issue_url": "https://api.github.com/repos/Microsoft/visualfsharp/issues/54",
  "id": 71261381,
  "user": {
    "login": "KevinRansom",
    "id": 5175830,
    "avatar_url": "https://avatars.githubusercontent.com/u/5175830?v=3",
    "gravatar_id": "",
    "url": "https://api.github.com/users/KevinRansom",
    "html_url": "https://github.com/KevinRansom",
    "followers_url": "https://api.github.com/users/KevinRansom/followers",
    "following_url": "https://api.github.com/users/KevinRansom/following{/other_user}",
    "gists_url": "https://api.github.com/users/KevinRansom/gists{/gist_id}",
    "starred_url": "https://api.github.com/users/KevinRansom/starred{/owner}{/repo}",
    "subscriptions_url": "https://api.github.com/users/KevinRansom/subscriptions",
    "organizations_url": "https://api.github.com/users/KevinRansom/orgs",
    "repos_url": "https://api.github.com/users/KevinRansom/repos",
    "events_url": "https://api.github.com/users/KevinRansom/events{/privacy}",
    "received_events_url": "https://api.github.com/users/KevinRansom/received_events",
    "type": "User",
    "site_admin": false
  },
  "created_at": "2015-01-23T20:37:03Z",
  "updated_at": "2015-01-23T20:37:03Z",
  "body": "This is not an approach we are comfortable with.  The vsintegration tree of the fsharp4 repo is only expected to work with VisualStudio 2014.  If you can make it appear to work then that is a fortunate accident.  In fact it probably does work but there is no guarantee that it will continue to work, and so we will be declining this request.\r\n\r\nVS 2014 is a free preview and after it is released there will be a community edition of it still free and it has support for F# 4.0.  It seems to me like there is not much reason not install it.  Unless disk space is cramped I suppose.\r\n\r\nTry it out, you'll like it.\r\nKevin"
}
, {
  "url": "https://api.github.com/repos/Microsoft/visualfsharp/issues/comments/71263776",
  "html_url": "https://github.com/Microsoft/visualfsharp/pull/54#issuecomment-71263776",
  "issue_url": "https://api.github.com/repos/Microsoft/visualfsharp/issues/54",
  "id": 71263776,
  "user": {
    "login": "forki",
    "id": 57396,
    "avatar_url": "https://avatars.githubusercontent.com/u/57396?v=3",
    "gravatar_id": "",
    "url": "https://api.github.com/users/forki",
    "html_url": "https://github.com/forki",
    "followers_url": "https://api.github.com/users/forki/followers",
    "following_url": "https://api.github.com/users/forki/following{/other_user}",
    "gists_url": "https://api.github.com/users/forki/gists{/gist_id}",
    "starred_url": "https://api.github.com/users/forki/starred{/owner}{/repo}",
    "subscriptions_url": "https://api.github.com/users/forki/subscriptions",
    "organizations_url": "https://api.github.com/users/forki/orgs",
    "repos_url": "https://api.github.com/users/forki/repos",
    "events_url": "https://api.github.com/users/forki/events{/privacy}",
    "received_events_url": "https://api.github.com/users/forki/received_events",
    "type": "User",
    "site_admin": false
  },
  "created_at": "2015-01-23T20:52:51Z",
  "updated_at": "2015-01-23T20:52:51Z",
  "body": "It's not about disk space. After release I'll install it.\r\n\r\nIf you don't merge it, it's fine. Then I'll just maintain it in my fork and use it to get things done. I'll always have to cherry-picked but that's OK."
}
, {
  "url": "https://api.github.com/repos/Microsoft/visualfsharp/issues/comments/71282461",
  "html_url": "https://github.com/Microsoft/visualfsharp/pull/54#issuecomment-71282461",
  "issue_url": "https://api.github.com/repos/Microsoft/visualfsharp/issues/54",
  "id": 71282461,
  "user": {
    "login": "KevinRansom",
    "id": 5175830,
    "avatar_url": "https://avatars.githubusercontent.com/u/5175830?v=3",
    "gravatar_id": "",
    "url": "https://api.github.com/users/KevinRansom",
    "html_url": "https://github.com/KevinRansom",
    "followers_url": "https://api.github.com/users/KevinRansom/followers",
    "following_url": "https://api.github.com/users/KevinRansom/following{/other_user}",
    "gists_url": "https://api.github.com/users/KevinRansom/gists{/gist_id}",
    "starred_url": "https://api.github.com/users/KevinRansom/starred{/owner}{/repo}",
    "subscriptions_url": "https://api.github.com/users/KevinRansom/subscriptions",
    "organizations_url": "https://api.github.com/users/KevinRansom/orgs",
    "repos_url": "https://api.github.com/users/KevinRansom/repos",
    "events_url": "https://api.github.com/users/KevinRansom/events{/privacy}",
    "received_events_url": "https://api.github.com/users/KevinRansom/received_events",
    "type": "User",
    "site_admin": false
  },
  "created_at": "2015-01-23T23:10:07Z",
  "updated_at": "2015-01-23T23:10:07Z",
  "body": "I'm sorry about that my friend. We believe it's important to dogfood our product, if we don't run the software we work on then how do we really know if it's any good.  And to be clear Steffen you are a huge part of F# 4.0, I would hope you would want to dogfood the product you work on."
}
, {
  "url": "https://api.github.com/repos/Microsoft/visualfsharp/issues/comments/71283244",
  "html_url": "https://github.com/Microsoft/visualfsharp/pull/54#issuecomment-71283244",
  "issue_url": "https://api.github.com/repos/Microsoft/visualfsharp/issues/54",
  "id": 71283244,
  "user": {
    "login": "latkin",
    "id": 5943573,
    "avatar_url": "https://avatars.githubusercontent.com/u/5943573?v=3",
    "gravatar_id": "",
    "url": "https://api.github.com/users/latkin",
    "html_url": "https://github.com/latkin",
    "followers_url": "https://api.github.com/users/latkin/followers",
    "following_url": "https://api.github.com/users/latkin/following{/other_user}",
    "gists_url": "https://api.github.com/users/latkin/gists{/gist_id}",
    "starred_url": "https://api.github.com/users/latkin/starred{/owner}{/repo}",
    "subscriptions_url": "https://api.github.com/users/latkin/subscriptions",
    "organizations_url": "https://api.github.com/users/latkin/orgs",
    "repos_url": "https://api.github.com/users/latkin/repos",
    "events_url": "https://api.github.com/users/latkin/events{/privacy}",
    "received_events_url": "https://api.github.com/users/latkin/received_events",
    "type": "User",
    "site_admin": false
  },
  "created_at": "2015-01-23T23:17:00Z",
  "updated_at": "2015-01-23T23:17:00Z",
  "body": "Kevin and I agree here. We are certainly sympathetic to the pains of working with pre-release installs of VS, but the solution is not to just ignore the version that we are ultimately targeting.  Once there is a free public preview available, that should be the primary target for build and test.\r\n\r\nYou are of course welcome to add whatever workarounds you need in your own environment."
}
]
