[
{
  "url": "https://api.github.com/repos/Microsoft/visualfsharp/issues/comments/101472562",
  "html_url": "https://github.com/Microsoft/visualfsharp/pull/446#issuecomment-101472562",
  "issue_url": "https://api.github.com/repos/Microsoft/visualfsharp/issues/446",
  "id": 101472562,
  "user": {
    "login": "dsyme",
    "id": 7204669,
    "avatar_url": "https://avatars.githubusercontent.com/u/7204669?v=3",
    "gravatar_id": "",
    "url": "https://api.github.com/users/dsyme",
    "html_url": "https://github.com/dsyme",
    "followers_url": "https://api.github.com/users/dsyme/followers",
    "following_url": "https://api.github.com/users/dsyme/following{/other_user}",
    "gists_url": "https://api.github.com/users/dsyme/gists{/gist_id}",
    "starred_url": "https://api.github.com/users/dsyme/starred{/owner}{/repo}",
    "subscriptions_url": "https://api.github.com/users/dsyme/subscriptions",
    "organizations_url": "https://api.github.com/users/dsyme/orgs",
    "repos_url": "https://api.github.com/users/dsyme/repos",
    "events_url": "https://api.github.com/users/dsyme/events{/privacy}",
    "received_events_url": "https://api.github.com/users/dsyme/received_events",
    "type": "User",
    "site_admin": false
  },
  "created_at": "2015-05-13T00:57:08Z",
  "updated_at": "2015-05-13T00:57:08Z",
  "body": "I haven't checked the code yet, but the fact you're addressing this will make me sleep more easily as we evolve F# and its core library! :)"
}
, {
  "url": "https://api.github.com/repos/Microsoft/visualfsharp/issues/comments/101783820",
  "html_url": "https://github.com/Microsoft/visualfsharp/pull/446#issuecomment-101783820",
  "issue_url": "https://api.github.com/repos/Microsoft/visualfsharp/issues/446",
  "id": 101783820,
  "user": {
    "login": "latkin",
    "id": 5943573,
    "avatar_url": "https://avatars.githubusercontent.com/u/5943573?v=3",
    "gravatar_id": "",
    "url": "https://api.github.com/users/latkin",
    "html_url": "https://github.com/latkin",
    "followers_url": "https://api.github.com/users/latkin/followers",
    "following_url": "https://api.github.com/users/latkin/following{/other_user}",
    "gists_url": "https://api.github.com/users/latkin/gists{/gist_id}",
    "starred_url": "https://api.github.com/users/latkin/starred{/owner}{/repo}",
    "subscriptions_url": "https://api.github.com/users/latkin/subscriptions",
    "organizations_url": "https://api.github.com/users/latkin/orgs",
    "repos_url": "https://api.github.com/users/latkin/repos",
    "events_url": "https://api.github.com/users/latkin/events{/privacy}",
    "received_events_url": "https://api.github.com/users/latkin/received_events",
    "type": "User",
    "site_admin": false
  },
  "created_at": "2015-05-13T19:26:41Z",
  "updated_at": "2015-05-13T19:26:41Z",
  "body": "CI build is failing because it's timing out, that's ok.\r\n\r\nI did not encounter anything that I'm sure is a bug.  Mostly just minor by-design behavior changes (particularly in reference resolution, when `--noframework` is used).  That's \"good\", though it doesn't vouch for the efficacy of this approach.  Maybe we are just bug-free? :smile:\r\n\r\nOnly questionable failure was [`.\\tests\\fsharpqa\\Source\\misc\\SerializableClosure01.fs`](https://github.com/Microsoft/visualfsharp/blob/fsharp4/tests/fsharpqa/Source/Misc/SerializableClosure01.fs), which fails when built against 3.1 then executed in 4.0 appdomain.  I'm guessing this is expected and some artifact of nested appdomains."
}
]
