[
{
  "url": "https://api.github.com/repos/owncloud/News-Android-App/issues/comments/19772560",
  "html_url": "https://github.com/owncloud/News-Android-App/issues/52#issuecomment-19772560",
  "issue_url": "https://api.github.com/repos/owncloud/News-Android-App/issues/52",
  "id": 19772560,
  "user": {
    "login": "David-Development",
    "id": 4489723,
    "avatar_url": "https://avatars.githubusercontent.com/u/4489723?v=3",
    "gravatar_id": "",
    "url": "https://api.github.com/users/David-Development",
    "html_url": "https://github.com/David-Development",
    "followers_url": "https://api.github.com/users/David-Development/followers",
    "following_url": "https://api.github.com/users/David-Development/following{/other_user}",
    "gists_url": "https://api.github.com/users/David-Development/gists{/gist_id}",
    "starred_url": "https://api.github.com/users/David-Development/starred{/owner}{/repo}",
    "subscriptions_url": "https://api.github.com/users/David-Development/subscriptions",
    "organizations_url": "https://api.github.com/users/David-Development/orgs",
    "repos_url": "https://api.github.com/users/David-Development/repos",
    "events_url": "https://api.github.com/users/David-Development/events{/privacy}",
    "received_events_url": "https://api.github.com/users/David-Development/received_events",
    "type": "User",
    "site_admin": false
  },
  "created_at": "2013-06-20T18:15:17Z",
  "updated_at": "2013-06-20T18:15:17Z",
  "body": "Okaay.. strange behaviour. Can you please offer some more information ? Which OS are you using ? Device ?\r\n--> are you able to click the \"dublicate\" folders ? behaviour as expected ?\r\nI haven't noticed this issue yet and I think it's rarely.\r\n\r\nBut I hope I can fix it when you offer me some more information!. "
}
, {
  "url": "https://api.github.com/repos/owncloud/News-Android-App/issues/comments/19774658",
  "html_url": "https://github.com/owncloud/News-Android-App/issues/52#issuecomment-19774658",
  "issue_url": "https://api.github.com/repos/owncloud/News-Android-App/issues/52",
  "id": 19774658,
  "user": {
    "login": "jzarl",
    "id": 1199511,
    "avatar_url": "https://avatars.githubusercontent.com/u/1199511?v=3",
    "gravatar_id": "",
    "url": "https://api.github.com/users/jzarl",
    "html_url": "https://github.com/jzarl",
    "followers_url": "https://api.github.com/users/jzarl/followers",
    "following_url": "https://api.github.com/users/jzarl/following{/other_user}",
    "gists_url": "https://api.github.com/users/jzarl/gists{/gist_id}",
    "starred_url": "https://api.github.com/users/jzarl/starred{/owner}{/repo}",
    "subscriptions_url": "https://api.github.com/users/jzarl/subscriptions",
    "organizations_url": "https://api.github.com/users/jzarl/orgs",
    "repos_url": "https://api.github.com/users/jzarl/repos",
    "events_url": "https://api.github.com/users/jzarl/events{/privacy}",
    "received_events_url": "https://api.github.com/users/jzarl/received_events",
    "type": "User",
    "site_admin": false
  },
  "created_at": "2013-06-20T18:45:26Z",
  "updated_at": "2013-06-20T18:45:26Z",
  "body": "To me this looks like bug #38."
}
, {
  "url": "https://api.github.com/repos/owncloud/News-Android-App/issues/comments/19774878",
  "html_url": "https://github.com/owncloud/News-Android-App/issues/52#issuecomment-19774878",
  "issue_url": "https://api.github.com/repos/owncloud/News-Android-App/issues/52",
  "id": 19774878,
  "user": {
    "login": "David-Development",
    "id": 4489723,
    "avatar_url": "https://avatars.githubusercontent.com/u/4489723?v=3",
    "gravatar_id": "",
    "url": "https://api.github.com/users/David-Development",
    "html_url": "https://github.com/David-Development",
    "followers_url": "https://api.github.com/users/David-Development/followers",
    "following_url": "https://api.github.com/users/David-Development/following{/other_user}",
    "gists_url": "https://api.github.com/users/David-Development/gists{/gist_id}",
    "starred_url": "https://api.github.com/users/David-Development/starred{/owner}{/repo}",
    "subscriptions_url": "https://api.github.com/users/David-Development/subscriptions",
    "organizations_url": "https://api.github.com/users/David-Development/orgs",
    "repos_url": "https://api.github.com/users/David-Development/repos",
    "events_url": "https://api.github.com/users/David-Development/events{/privacy}",
    "received_events_url": "https://api.github.com/users/David-Development/received_events",
    "type": "User",
    "site_admin": false
  },
  "created_at": "2013-06-20T18:49:04Z",
  "updated_at": "2013-06-20T18:49:04Z",
  "body": "Yes, you're right. I thought I fixed this issue since 0.3.4 but when you say you get this error, it doesn't seem like it is fixed :( So can you offer me some more information ?"
}
, {
  "url": "https://api.github.com/repos/owncloud/News-Android-App/issues/comments/19776790",
  "html_url": "https://github.com/owncloud/News-Android-App/issues/52#issuecomment-19776790",
  "issue_url": "https://api.github.com/repos/owncloud/News-Android-App/issues/52",
  "id": 19776790,
  "user": {
    "login": "mase76",
    "id": 2173853,
    "avatar_url": "https://avatars.githubusercontent.com/u/2173853?v=3",
    "gravatar_id": "",
    "url": "https://api.github.com/users/mase76",
    "html_url": "https://github.com/mase76",
    "followers_url": "https://api.github.com/users/mase76/followers",
    "following_url": "https://api.github.com/users/mase76/following{/other_user}",
    "gists_url": "https://api.github.com/users/mase76/gists{/gist_id}",
    "starred_url": "https://api.github.com/users/mase76/starred{/owner}{/repo}",
    "subscriptions_url": "https://api.github.com/users/mase76/subscriptions",
    "organizations_url": "https://api.github.com/users/mase76/orgs",
    "repos_url": "https://api.github.com/users/mase76/repos",
    "events_url": "https://api.github.com/users/mase76/events{/privacy}",
    "received_events_url": "https://api.github.com/users/mase76/received_events",
    "type": "User",
    "site_admin": false
  },
  "created_at": "2013-06-20T19:19:18Z",
  "updated_at": "2013-06-20T19:20:32Z",
  "body": "I can click these folders, but they are empty. The server is Debian Wheezy with OC 5.0.7.\r\nAppframework and news from git. The client is Cyanogenmod 10.1 with the news app 0.3.4\r\nfrom git. I think, this happens only, if you use folders. Single feeds are not affected.\r\nYes, it looks like https://github.com/owncloud/News-Android-App/issues/38\r\nWhat additional info do you need?"
}
, {
  "url": "https://api.github.com/repos/owncloud/News-Android-App/issues/comments/19779543",
  "html_url": "https://github.com/owncloud/News-Android-App/issues/52#issuecomment-19779543",
  "issue_url": "https://api.github.com/repos/owncloud/News-Android-App/issues/52",
  "id": 19779543,
  "user": {
    "login": "jzarl",
    "id": 1199511,
    "avatar_url": "https://avatars.githubusercontent.com/u/1199511?v=3",
    "gravatar_id": "",
    "url": "https://api.github.com/users/jzarl",
    "html_url": "https://github.com/jzarl",
    "followers_url": "https://api.github.com/users/jzarl/followers",
    "following_url": "https://api.github.com/users/jzarl/following{/other_user}",
    "gists_url": "https://api.github.com/users/jzarl/gists{/gist_id}",
    "starred_url": "https://api.github.com/users/jzarl/starred{/owner}{/repo}",
    "subscriptions_url": "https://api.github.com/users/jzarl/subscriptions",
    "organizations_url": "https://api.github.com/users/jzarl/orgs",
    "repos_url": "https://api.github.com/users/jzarl/repos",
    "events_url": "https://api.github.com/users/jzarl/events{/privacy}",
    "received_events_url": "https://api.github.com/users/jzarl/received_events",
    "type": "User",
    "site_admin": false
  },
  "created_at": "2013-06-20T20:05:32Z",
  "updated_at": "2013-06-20T20:06:00Z",
  "body": "Sorry I didn't test the \"fixed\" version before - I thought I'd just wait for the app on the market, but then I read that it's delayed and the git version needs a pre-release version of appframework.\r\n\r\nMy server versions:\r\nowncloud: 5.0.7\r\nappframework: 0.101\r\nnews: 1.1001"
}
, {
  "url": "https://api.github.com/repos/owncloud/News-Android-App/issues/comments/19821020",
  "html_url": "https://github.com/owncloud/News-Android-App/issues/52#issuecomment-19821020",
  "issue_url": "https://api.github.com/repos/owncloud/News-Android-App/issues/52",
  "id": 19821020,
  "user": {
    "login": "David-Development",
    "id": 4489723,
    "avatar_url": "https://avatars.githubusercontent.com/u/4489723?v=3",
    "gravatar_id": "",
    "url": "https://api.github.com/users/David-Development",
    "html_url": "https://github.com/David-Development",
    "followers_url": "https://api.github.com/users/David-Development/followers",
    "following_url": "https://api.github.com/users/David-Development/following{/other_user}",
    "gists_url": "https://api.github.com/users/David-Development/gists{/gist_id}",
    "starred_url": "https://api.github.com/users/David-Development/starred{/owner}{/repo}",
    "subscriptions_url": "https://api.github.com/users/David-Development/subscriptions",
    "organizations_url": "https://api.github.com/users/David-Development/orgs",
    "repos_url": "https://api.github.com/users/David-Development/repos",
    "events_url": "https://api.github.com/users/David-Development/events{/privacy}",
    "received_events_url": "https://api.github.com/users/David-Development/received_events",
    "type": "User",
    "site_admin": false
  },
  "created_at": "2013-06-21T14:59:42Z",
  "updated_at": "2013-06-21T14:59:42Z",
  "body": "Got this issue now, too! I'm trying to fix it soon. Thank you for the report. It only happens when you have unchecked show only unread items."
}
]
