[
{
  "url": "https://api.github.com/repos/aws/aws-sdk-java/issues/comments/120989175",
  "html_url": "https://github.com/aws/aws-sdk-java/issues/461#issuecomment-120989175",
  "issue_url": "https://api.github.com/repos/aws/aws-sdk-java/issues/461",
  "id": 120989175,
  "user": {
    "login": "david-at-aws",
    "id": 5216241,
    "avatar_url": "https://avatars.githubusercontent.com/u/5216241?v=3",
    "gravatar_id": "",
    "url": "https://api.github.com/users/david-at-aws",
    "html_url": "https://github.com/david-at-aws",
    "followers_url": "https://api.github.com/users/david-at-aws/followers",
    "following_url": "https://api.github.com/users/david-at-aws/following{/other_user}",
    "gists_url": "https://api.github.com/users/david-at-aws/gists{/gist_id}",
    "starred_url": "https://api.github.com/users/david-at-aws/starred{/owner}{/repo}",
    "subscriptions_url": "https://api.github.com/users/david-at-aws/subscriptions",
    "organizations_url": "https://api.github.com/users/david-at-aws/orgs",
    "repos_url": "https://api.github.com/users/david-at-aws/repos",
    "events_url": "https://api.github.com/users/david-at-aws/events{/privacy}",
    "received_events_url": "https://api.github.com/users/david-at-aws/received_events",
    "type": "User",
    "site_admin": false
  },
  "created_at": "2015-07-13T16:39:27Z",
  "updated_at": "2015-07-13T16:39:27Z",
  "body": "You can do it today by JSON-parsing the String into a List<?> yourself and passing it to `Item.withList`, but it'd definitely be nice to support this out of the box - either by adding an explicit `withJsonArray` or having `withJson` try to figure out whether the input is an array or object. We'll add this to our backlog, or we'd be happy to look at a pull request."
}
]
