[
{
  "url": "https://api.github.com/repos/aws/aws-sdk-java/issues/comments/17556928",
  "html_url": "https://github.com/aws/aws-sdk-java/issues/31#issuecomment-17556928",
  "issue_url": "https://api.github.com/repos/aws/aws-sdk-java/issues/31",
  "id": 17556928,
  "user": {
    "login": "wmatveyenko",
    "id": 450252,
    "avatar_url": "https://avatars.githubusercontent.com/u/450252?v=3",
    "gravatar_id": "",
    "url": "https://api.github.com/users/wmatveyenko",
    "html_url": "https://github.com/wmatveyenko",
    "followers_url": "https://api.github.com/users/wmatveyenko/followers",
    "following_url": "https://api.github.com/users/wmatveyenko/following{/other_user}",
    "gists_url": "https://api.github.com/users/wmatveyenko/gists{/gist_id}",
    "starred_url": "https://api.github.com/users/wmatveyenko/starred{/owner}{/repo}",
    "subscriptions_url": "https://api.github.com/users/wmatveyenko/subscriptions",
    "organizations_url": "https://api.github.com/users/wmatveyenko/orgs",
    "repos_url": "https://api.github.com/users/wmatveyenko/repos",
    "events_url": "https://api.github.com/users/wmatveyenko/events{/privacy}",
    "received_events_url": "https://api.github.com/users/wmatveyenko/received_events",
    "type": "User",
    "site_admin": false
  },
  "created_at": "2013-05-07T17:27:42Z",
  "updated_at": "2013-05-07T17:27:42Z",
  "body": "Closing as this has been fixed. Thanks for the bug report."
}
]
