[
{
  "url": "https://api.github.com/repos/aws/aws-sdk-java/issues/comments/32065165",
  "html_url": "https://github.com/aws/aws-sdk-java/pull/166#issuecomment-32065165",
  "issue_url": "https://api.github.com/repos/aws/aws-sdk-java/issues/166",
  "id": 32065165,
  "user": {
    "login": "wmatveyenko",
    "id": 450252,
    "avatar_url": "https://avatars.githubusercontent.com/u/450252?v=3",
    "gravatar_id": "",
    "url": "https://api.github.com/users/wmatveyenko",
    "html_url": "https://github.com/wmatveyenko",
    "followers_url": "https://api.github.com/users/wmatveyenko/followers",
    "following_url": "https://api.github.com/users/wmatveyenko/following{/other_user}",
    "gists_url": "https://api.github.com/users/wmatveyenko/gists{/gist_id}",
    "starred_url": "https://api.github.com/users/wmatveyenko/starred{/owner}{/repo}",
    "subscriptions_url": "https://api.github.com/users/wmatveyenko/subscriptions",
    "organizations_url": "https://api.github.com/users/wmatveyenko/orgs",
    "repos_url": "https://api.github.com/users/wmatveyenko/repos",
    "events_url": "https://api.github.com/users/wmatveyenko/events{/privacy}",
    "received_events_url": "https://api.github.com/users/wmatveyenko/received_events",
    "type": "User",
    "site_admin": false
  },
  "created_at": "2014-01-10T20:56:00Z",
  "updated_at": "2014-01-10T20:56:00Z",
  "body": "Hi @makotan,\r\nThanks for the pull request. Can you quantify the amount of performance gain you see? Doing signing correctly is extremely important and we are always cautious when making these types of changes. This will help us decide if we want to accept this request.\r\n\r\nThanks!"
}
, {
  "url": "https://api.github.com/repos/aws/aws-sdk-java/issues/comments/32329708",
  "html_url": "https://github.com/aws/aws-sdk-java/pull/166#issuecomment-32329708",
  "issue_url": "https://api.github.com/repos/aws/aws-sdk-java/issues/166",
  "id": 32329708,
  "user": {
    "login": "makotan",
    "id": 407884,
    "avatar_url": "https://avatars.githubusercontent.com/u/407884?v=3",
    "gravatar_id": "",
    "url": "https://api.github.com/users/makotan",
    "html_url": "https://github.com/makotan",
    "followers_url": "https://api.github.com/users/makotan/followers",
    "following_url": "https://api.github.com/users/makotan/following{/other_user}",
    "gists_url": "https://api.github.com/users/makotan/gists{/gist_id}",
    "starred_url": "https://api.github.com/users/makotan/starred{/owner}{/repo}",
    "subscriptions_url": "https://api.github.com/users/makotan/subscriptions",
    "organizations_url": "https://api.github.com/users/makotan/orgs",
    "repos_url": "https://api.github.com/users/makotan/repos",
    "events_url": "https://api.github.com/users/makotan/events{/privacy}",
    "received_events_url": "https://api.github.com/users/makotan/received_events",
    "type": "User",
    "site_admin": false
  },
  "created_at": "2014-01-15T02:35:28Z",
  "updated_at": "2014-01-15T02:35:28Z",
  "body": "The update to the latest version nss library. It was the improvement of 2% result. will close."
}
]
