[
{
  "url": "https://api.github.com/repos/aws/aws-sdk-java/issues/comments/95761948",
  "html_url": "https://github.com/aws/aws-sdk-java/issues/402#issuecomment-95761948",
  "issue_url": "https://api.github.com/repos/aws/aws-sdk-java/issues/402",
  "id": 95761948,
  "user": {
    "login": "manikandanrs",
    "id": 2710935,
    "avatar_url": "https://avatars.githubusercontent.com/u/2710935?v=3",
    "gravatar_id": "",
    "url": "https://api.github.com/users/manikandanrs",
    "html_url": "https://github.com/manikandanrs",
    "followers_url": "https://api.github.com/users/manikandanrs/followers",
    "following_url": "https://api.github.com/users/manikandanrs/following{/other_user}",
    "gists_url": "https://api.github.com/users/manikandanrs/gists{/gist_id}",
    "starred_url": "https://api.github.com/users/manikandanrs/starred{/owner}{/repo}",
    "subscriptions_url": "https://api.github.com/users/manikandanrs/subscriptions",
    "organizations_url": "https://api.github.com/users/manikandanrs/orgs",
    "repos_url": "https://api.github.com/users/manikandanrs/repos",
    "events_url": "https://api.github.com/users/manikandanrs/events{/privacy}",
    "received_events_url": "https://api.github.com/users/manikandanrs/received_events",
    "type": "User",
    "site_admin": false
  },
  "created_at": "2015-04-24T00:27:51Z",
  "updated_at": "2015-04-24T00:27:51Z",
  "body": "We have fixed this in the latest SDK 1.9.32"
}
, {
  "url": "https://api.github.com/repos/aws/aws-sdk-java/issues/comments/95766011",
  "html_url": "https://github.com/aws/aws-sdk-java/issues/402#issuecomment-95766011",
  "issue_url": "https://api.github.com/repos/aws/aws-sdk-java/issues/402",
  "id": 95766011,
  "user": {
    "login": "cliffano",
    "id": 86285,
    "avatar_url": "https://avatars.githubusercontent.com/u/86285?v=3",
    "gravatar_id": "",
    "url": "https://api.github.com/users/cliffano",
    "html_url": "https://github.com/cliffano",
    "followers_url": "https://api.github.com/users/cliffano/followers",
    "following_url": "https://api.github.com/users/cliffano/following{/other_user}",
    "gists_url": "https://api.github.com/users/cliffano/gists{/gist_id}",
    "starred_url": "https://api.github.com/users/cliffano/starred{/owner}{/repo}",
    "subscriptions_url": "https://api.github.com/users/cliffano/subscriptions",
    "organizations_url": "https://api.github.com/users/cliffano/orgs",
    "repos_url": "https://api.github.com/users/cliffano/repos",
    "events_url": "https://api.github.com/users/cliffano/events{/privacy}",
    "received_events_url": "https://api.github.com/users/cliffano/received_events",
    "type": "User",
    "site_admin": false
  },
  "created_at": "2015-04-24T01:08:19Z",
  "updated_at": "2015-04-24T01:08:19Z",
  "body": "@manikandanrs I see that the fix is part of this gigantic commit affecting 460 files https://github.com/aws/aws-sdk-java/commit/67c41ad054e1ab635316adab86ebd6a380360e00 \r\nIs that coming from an internal upstream repo at Amazon?\r\n\r\nIs there any particular reason why the fix to this issue was not initially made publicly on GitHub? (instead of piling everything in one large commit)"
}
, {
  "url": "https://api.github.com/repos/aws/aws-sdk-java/issues/comments/95992395",
  "html_url": "https://github.com/aws/aws-sdk-java/issues/402#issuecomment-95992395",
  "issue_url": "https://api.github.com/repos/aws/aws-sdk-java/issues/402",
  "id": 95992395,
  "user": {
    "login": "manikandanrs",
    "id": 2710935,
    "avatar_url": "https://avatars.githubusercontent.com/u/2710935?v=3",
    "gravatar_id": "",
    "url": "https://api.github.com/users/manikandanrs",
    "html_url": "https://github.com/manikandanrs",
    "followers_url": "https://api.github.com/users/manikandanrs/followers",
    "following_url": "https://api.github.com/users/manikandanrs/following{/other_user}",
    "gists_url": "https://api.github.com/users/manikandanrs/gists{/gist_id}",
    "starred_url": "https://api.github.com/users/manikandanrs/starred{/owner}{/repo}",
    "subscriptions_url": "https://api.github.com/users/manikandanrs/subscriptions",
    "organizations_url": "https://api.github.com/users/manikandanrs/orgs",
    "repos_url": "https://api.github.com/users/manikandanrs/repos",
    "events_url": "https://api.github.com/users/manikandanrs/events{/privacy}",
    "received_events_url": "https://api.github.com/users/manikandanrs/received_events",
    "type": "User",
    "site_admin": false
  },
  "created_at": "2015-04-24T17:00:07Z",
  "updated_at": "2015-04-24T17:00:07Z",
  "body": "@cliffano \r\n > Is that coming from an internal upstream repo at Amazon?\r\n\r\nYes. Our releases include feature updates to existing service clients, doc updates, bug fixes and enhancements. We would want to make Github as our master repo instead of Amazon repo and we are  working towards it. You should expect big commits like this till then. \r\n\r\n> Is there any particular reason why the fix to this issue was not initially made publicly on GitHub?\r\n\r\nWe encourage pull requests from customers to improve the SDK. However this issue needed some internal investigation to make sure all the fields in InstanceInfo class are mapped correctly to their data types. As you can see, not just billingProducts but devpayProductCodes had a wrong type. Hence the reason for not accepting the pull request initially. \r\n\r\n\r\n"
}
, {
  "url": "https://api.github.com/repos/aws/aws-sdk-java/issues/comments/96133617",
  "html_url": "https://github.com/aws/aws-sdk-java/issues/402#issuecomment-96133617",
  "issue_url": "https://api.github.com/repos/aws/aws-sdk-java/issues/402",
  "id": 96133617,
  "user": {
    "login": "cliffano",
    "id": 86285,
    "avatar_url": "https://avatars.githubusercontent.com/u/86285?v=3",
    "gravatar_id": "",
    "url": "https://api.github.com/users/cliffano",
    "html_url": "https://github.com/cliffano",
    "followers_url": "https://api.github.com/users/cliffano/followers",
    "following_url": "https://api.github.com/users/cliffano/following{/other_user}",
    "gists_url": "https://api.github.com/users/cliffano/gists{/gist_id}",
    "starred_url": "https://api.github.com/users/cliffano/starred{/owner}{/repo}",
    "subscriptions_url": "https://api.github.com/users/cliffano/subscriptions",
    "organizations_url": "https://api.github.com/users/cliffano/orgs",
    "repos_url": "https://api.github.com/users/cliffano/repos",
    "events_url": "https://api.github.com/users/cliffano/events{/privacy}",
    "received_events_url": "https://api.github.com/users/cliffano/received_events",
    "type": "User",
    "site_admin": false
  },
  "created_at": "2015-04-25T05:38:48Z",
  "updated_at": "2015-04-25T05:39:01Z",
  "body": "@manikandanrs I would've been happy to help as well by improving the PR if you told me that N other fields also need to be fixed :). It's a bit discouraging to get a feedback 2 weeks after the PR, because the next time I encounter any bug, my first thinking is that it's being worked on anyway, so any time I spend on creating and testing a PR would've been a waste.\r\n\r\nHowever, I understand that you're working hard on making Github as a master repo. +1 on that.\r\nAnd great job with the frequent releases, kudos to Amazon."
}
]
