[
{
  "url": "https://api.github.com/repos/spotify/luigi/issues/comments/71093591",
  "html_url": "https://github.com/spotify/luigi/pull/632#issuecomment-71093591",
  "issue_url": "https://api.github.com/repos/spotify/luigi/issues/632",
  "id": 71093591,
  "user": {
    "login": "erikbern",
    "id": 1027979,
    "avatar_url": "https://avatars.githubusercontent.com/u/1027979?v=3",
    "gravatar_id": "",
    "url": "https://api.github.com/users/erikbern",
    "html_url": "https://github.com/erikbern",
    "followers_url": "https://api.github.com/users/erikbern/followers",
    "following_url": "https://api.github.com/users/erikbern/following{/other_user}",
    "gists_url": "https://api.github.com/users/erikbern/gists{/gist_id}",
    "starred_url": "https://api.github.com/users/erikbern/starred{/owner}{/repo}",
    "subscriptions_url": "https://api.github.com/users/erikbern/subscriptions",
    "organizations_url": "https://api.github.com/users/erikbern/orgs",
    "repos_url": "https://api.github.com/users/erikbern/repos",
    "events_url": "https://api.github.com/users/erikbern/events{/privacy}",
    "received_events_url": "https://api.github.com/users/erikbern/received_events",
    "type": "User",
    "site_admin": false
  },
  "created_at": "2015-01-22T20:35:12Z",
  "updated_at": "2015-01-22T20:35:12Z",
  "body": "LGTM but don't we already have a format argument that lets you do gzip?"
}
, {
  "url": "https://api.github.com/repos/spotify/luigi/issues/comments/71094226",
  "html_url": "https://github.com/spotify/luigi/pull/632#issuecomment-71094226",
  "issue_url": "https://api.github.com/repos/spotify/luigi/issues/632",
  "id": 71094226,
  "user": {
    "login": "themalkolm",
    "id": 864186,
    "avatar_url": "https://avatars.githubusercontent.com/u/864186?v=3",
    "gravatar_id": "",
    "url": "https://api.github.com/users/themalkolm",
    "html_url": "https://github.com/themalkolm",
    "followers_url": "https://api.github.com/users/themalkolm/followers",
    "following_url": "https://api.github.com/users/themalkolm/following{/other_user}",
    "gists_url": "https://api.github.com/users/themalkolm/gists{/gist_id}",
    "starred_url": "https://api.github.com/users/themalkolm/starred{/owner}{/repo}",
    "subscriptions_url": "https://api.github.com/users/themalkolm/subscriptions",
    "organizations_url": "https://api.github.com/users/themalkolm/orgs",
    "repos_url": "https://api.github.com/users/themalkolm/repos",
    "events_url": "https://api.github.com/users/themalkolm/events{/privacy}",
    "received_events_url": "https://api.github.com/users/themalkolm/received_events",
    "type": "User",
    "site_admin": false
  },
  "created_at": "2015-01-22T20:39:18Z",
  "updated_at": "2015-01-22T20:39:18Z",
  "body": "@erikbern \r\n\r\n>Sure, I understand that this duplicates luigi.format.Gzip logic. But this works better for us as doesn't require to install gunzip everywhere. Not sure if you want it, though."
}
, {
  "url": "https://api.github.com/repos/spotify/luigi/issues/comments/71170772",
  "html_url": "https://github.com/spotify/luigi/pull/632#issuecomment-71170772",
  "issue_url": "https://api.github.com/repos/spotify/luigi/issues/632",
  "id": 71170772,
  "user": {
    "login": "Tarrasch",
    "id": 294349,
    "avatar_url": "https://avatars.githubusercontent.com/u/294349?v=3",
    "gravatar_id": "",
    "url": "https://api.github.com/users/Tarrasch",
    "html_url": "https://github.com/Tarrasch",
    "followers_url": "https://api.github.com/users/Tarrasch/followers",
    "following_url": "https://api.github.com/users/Tarrasch/following{/other_user}",
    "gists_url": "https://api.github.com/users/Tarrasch/gists{/gist_id}",
    "starred_url": "https://api.github.com/users/Tarrasch/starred{/owner}{/repo}",
    "subscriptions_url": "https://api.github.com/users/Tarrasch/subscriptions",
    "organizations_url": "https://api.github.com/users/Tarrasch/orgs",
    "repos_url": "https://api.github.com/users/Tarrasch/repos",
    "events_url": "https://api.github.com/users/Tarrasch/events{/privacy}",
    "received_events_url": "https://api.github.com/users/Tarrasch/received_events",
    "type": "User",
    "site_admin": false
  },
  "created_at": "2015-01-23T09:55:29Z",
  "updated_at": "2015-01-23T09:55:29Z",
  "body": "I don't know. Can you somehow squeeze this into `luigi.contrib`? It's not core functionality and really all non-core stuff should go there, even `luigi.hdfs` I think."
}
, {
  "url": "https://api.github.com/repos/spotify/luigi/issues/comments/71190753",
  "html_url": "https://github.com/spotify/luigi/pull/632#issuecomment-71190753",
  "issue_url": "https://api.github.com/repos/spotify/luigi/issues/632",
  "id": 71190753,
  "user": {
    "login": "erikbern",
    "id": 1027979,
    "avatar_url": "https://avatars.githubusercontent.com/u/1027979?v=3",
    "gravatar_id": "",
    "url": "https://api.github.com/users/erikbern",
    "html_url": "https://github.com/erikbern",
    "followers_url": "https://api.github.com/users/erikbern/followers",
    "following_url": "https://api.github.com/users/erikbern/following{/other_user}",
    "gists_url": "https://api.github.com/users/erikbern/gists{/gist_id}",
    "starred_url": "https://api.github.com/users/erikbern/starred{/owner}{/repo}",
    "subscriptions_url": "https://api.github.com/users/erikbern/subscriptions",
    "organizations_url": "https://api.github.com/users/erikbern/orgs",
    "repos_url": "https://api.github.com/users/erikbern/repos",
    "events_url": "https://api.github.com/users/erikbern/events{/privacy}",
    "received_events_url": "https://api.github.com/users/erikbern/received_events",
    "type": "User",
    "site_admin": false
  },
  "created_at": "2015-01-23T13:08:55Z",
  "updated_at": "2015-01-23T13:08:55Z",
  "body": "Yeah good point, makes sense."
}
, {
  "url": "https://api.github.com/repos/spotify/luigi/issues/comments/72743797",
  "html_url": "https://github.com/spotify/luigi/pull/632#issuecomment-72743797",
  "issue_url": "https://api.github.com/repos/spotify/luigi/issues/632",
  "id": 72743797,
  "user": {
    "login": "themalkolm",
    "id": 864186,
    "avatar_url": "https://avatars.githubusercontent.com/u/864186?v=3",
    "gravatar_id": "",
    "url": "https://api.github.com/users/themalkolm",
    "html_url": "https://github.com/themalkolm",
    "followers_url": "https://api.github.com/users/themalkolm/followers",
    "following_url": "https://api.github.com/users/themalkolm/following{/other_user}",
    "gists_url": "https://api.github.com/users/themalkolm/gists{/gist_id}",
    "starred_url": "https://api.github.com/users/themalkolm/starred{/owner}{/repo}",
    "subscriptions_url": "https://api.github.com/users/themalkolm/subscriptions",
    "organizations_url": "https://api.github.com/users/themalkolm/orgs",
    "repos_url": "https://api.github.com/users/themalkolm/repos",
    "events_url": "https://api.github.com/users/themalkolm/events{/privacy}",
    "received_events_url": "https://api.github.com/users/themalkolm/received_events",
    "type": "User",
    "site_admin": false
  },
  "created_at": "2015-02-03T21:56:59Z",
  "updated_at": "2015-02-03T21:56:59Z",
  "body": "Nah, maybe in next life."
}
]
