[
{
  "url": "https://api.github.com/repos/mapbox/geo-googledocs/issues/comments/1447756",
  "html_url": "https://github.com/mapbox/geo-googledocs/issues/8#issuecomment-1447756",
  "issue_url": "https://api.github.com/repos/mapbox/geo-googledocs/issues/8",
  "id": 1447756,
  "user": {
    "login": "tmcw",
    "id": 32314,
    "avatar_url": "https://avatars.githubusercontent.com/u/32314?v=3",
    "gravatar_id": "",
    "url": "https://api.github.com/users/tmcw",
    "html_url": "https://github.com/tmcw",
    "followers_url": "https://api.github.com/users/tmcw/followers",
    "following_url": "https://api.github.com/users/tmcw/following{/other_user}",
    "gists_url": "https://api.github.com/users/tmcw/gists{/gist_id}",
    "starred_url": "https://api.github.com/users/tmcw/starred{/owner}{/repo}",
    "subscriptions_url": "https://api.github.com/users/tmcw/subscriptions",
    "organizations_url": "https://api.github.com/users/tmcw/orgs",
    "repos_url": "https://api.github.com/users/tmcw/repos",
    "events_url": "https://api.github.com/users/tmcw/events{/privacy}",
    "received_events_url": "https://api.github.com/users/tmcw/received_events",
    "type": "User",
    "site_admin": false
  },
  "created_at": "2011-06-27T14:42:52Z",
  "updated_at": "2011-06-27T14:42:52Z",
  "body": "Generally, no. We can document converting GeoJSON to a better format, but doing this in javascript is a nogo."
}
, {
  "url": "https://api.github.com/repos/mapbox/geo-googledocs/issues/comments/182131868",
  "html_url": "https://github.com/mapbox/geo-googledocs/issues/8#issuecomment-182131868",
  "issue_url": "https://api.github.com/repos/mapbox/geo-googledocs/issues/8",
  "id": 182131868,
  "user": {
    "login": "tmcw",
    "id": 32314,
    "avatar_url": "https://avatars.githubusercontent.com/u/32314?v=3",
    "gravatar_id": "",
    "url": "https://api.github.com/users/tmcw",
    "html_url": "https://github.com/tmcw",
    "followers_url": "https://api.github.com/users/tmcw/followers",
    "following_url": "https://api.github.com/users/tmcw/following{/other_user}",
    "gists_url": "https://api.github.com/users/tmcw/gists{/gist_id}",
    "starred_url": "https://api.github.com/users/tmcw/starred{/owner}{/repo}",
    "subscriptions_url": "https://api.github.com/users/tmcw/subscriptions",
    "organizations_url": "https://api.github.com/users/tmcw/orgs",
    "repos_url": "https://api.github.com/users/tmcw/repos",
    "events_url": "https://api.github.com/users/tmcw/events{/privacy}",
    "received_events_url": "https://api.github.com/users/tmcw/received_events",
    "type": "User",
    "site_admin": false
  },
  "created_at": "2016-02-09T23:26:44Z",
  "updated_at": "2016-02-09T23:26:44Z",
  "body": "Closing as idle. PRs are accepted that would complete this task but it is not one of my own priorities to implement it myself."
}
]
