[
{
  "url": "https://api.github.com/repos/Azure/azure-sdk-for-node/issues/comments/30505597",
  "html_url": "https://github.com/Azure/azure-sdk-for-node/issues/440#issuecomment-30505597",
  "issue_url": "https://api.github.com/repos/Azure/azure-sdk-for-node/issues/440",
  "id": 30505597,
  "user": {
    "login": "andrerod",
    "id": 457481,
    "avatar_url": "https://avatars.githubusercontent.com/u/457481?v=3",
    "gravatar_id": "",
    "url": "https://api.github.com/users/andrerod",
    "html_url": "https://github.com/andrerod",
    "followers_url": "https://api.github.com/users/andrerod/followers",
    "following_url": "https://api.github.com/users/andrerod/following{/other_user}",
    "gists_url": "https://api.github.com/users/andrerod/gists{/gist_id}",
    "starred_url": "https://api.github.com/users/andrerod/starred{/owner}{/repo}",
    "subscriptions_url": "https://api.github.com/users/andrerod/subscriptions",
    "organizations_url": "https://api.github.com/users/andrerod/orgs",
    "repos_url": "https://api.github.com/users/andrerod/repos",
    "events_url": "https://api.github.com/users/andrerod/events{/privacy}",
    "received_events_url": "https://api.github.com/users/andrerod/received_events",
    "type": "User",
    "site_admin": false
  },
  "created_at": "2013-12-13T12:21:07Z",
  "updated_at": "2013-12-13T12:21:07Z",
  "body": "Done"
}
]
