[
{
  "url": "https://api.github.com/repos/Azure/azure-sdk-for-node/issues/comments/154285878",
  "html_url": "https://github.com/Azure/azure-sdk-for-node/pull/1529#issuecomment-154285878",
  "issue_url": "https://api.github.com/repos/Azure/azure-sdk-for-node/issues/1529",
  "id": 154285878,
  "user": {
    "login": "azurecla",
    "id": 8030856,
    "avatar_url": "https://avatars.githubusercontent.com/u/8030856?v=3",
    "gravatar_id": "",
    "url": "https://api.github.com/users/azurecla",
    "html_url": "https://github.com/azurecla",
    "followers_url": "https://api.github.com/users/azurecla/followers",
    "following_url": "https://api.github.com/users/azurecla/following{/other_user}",
    "gists_url": "https://api.github.com/users/azurecla/gists{/gist_id}",
    "starred_url": "https://api.github.com/users/azurecla/starred{/owner}{/repo}",
    "subscriptions_url": "https://api.github.com/users/azurecla/subscriptions",
    "organizations_url": "https://api.github.com/users/azurecla/orgs",
    "repos_url": "https://api.github.com/users/azurecla/repos",
    "events_url": "https://api.github.com/users/azurecla/events{/privacy}",
    "received_events_url": "https://api.github.com/users/azurecla/received_events",
    "type": "User",
    "site_admin": false
  },
  "created_at": "2015-11-06T04:57:53Z",
  "updated_at": "2015-11-06T04:57:53Z",
  "body": "Hi __@amarzavery__, I'm your friendly neighborhood Azure Pull Request Bot (You can call me AZPRBOT). Thanks for your contribution!\n    <p>\n        It looks like you're working at Microsoft (amzavery). If you're full-time, we DON'T require a contribution license agreement.\n    </p>\n    <p>\n        If you are a vendor, DO please sign the electronic contribution license agreement. It will take 2 minutes and there's no faxing! https://cla.azure.com.\n    </p>\n\nTTYL, AZPRBOT;\n"
}
]
