[
{
  "url": "https://api.github.com/repos/Microsoft/PowerBI-visuals/issues/comments/149457285",
  "html_url": "https://github.com/Microsoft/PowerBI-visuals/pull/124#issuecomment-149457285",
  "issue_url": "https://api.github.com/repos/Microsoft/PowerBI-visuals/issues/124",
  "id": 149457285,
  "user": {
    "login": "jcludwig",
    "id": 6378083,
    "avatar_url": "https://avatars.githubusercontent.com/u/6378083?v=3",
    "gravatar_id": "",
    "url": "https://api.github.com/users/jcludwig",
    "html_url": "https://github.com/jcludwig",
    "followers_url": "https://api.github.com/users/jcludwig/followers",
    "following_url": "https://api.github.com/users/jcludwig/following{/other_user}",
    "gists_url": "https://api.github.com/users/jcludwig/gists{/gist_id}",
    "starred_url": "https://api.github.com/users/jcludwig/starred{/owner}{/repo}",
    "subscriptions_url": "https://api.github.com/users/jcludwig/subscriptions",
    "organizations_url": "https://api.github.com/users/jcludwig/orgs",
    "repos_url": "https://api.github.com/users/jcludwig/repos",
    "events_url": "https://api.github.com/users/jcludwig/events{/privacy}",
    "received_events_url": "https://api.github.com/users/jcludwig/received_events",
    "type": "User",
    "site_admin": false
  },
  "created_at": "2015-10-20T07:06:04Z",
  "updated_at": "2015-10-20T07:06:04Z",
  "body": "\n\n\n\nReviewed 6 of 8 files at r1.\nReview status: 6 of 8 files reviewed at latest revision, 12 unresolved discussions, all commit checks successful.\n\n---\n\n<sup>**[src/Clients/PowerBIVisualsPlayground/sampleData.ts, line 44 \\[r1\\]](https://reviewable.io:443/reviews/microsoft/powerbi-visuals/124#-K126tjUbNqAUXllY1OQ)** ([raw file](https://github.com/microsoft/powerbi-visuals/blob/db5142718fe6def405084744f95e9e428ac6effd/src/Clients/PowerBIVisualsPlayground/sampleData.ts#L44)):</sup>\nremove empty line\n<!-- Reviewable comment -K126tjUbNqAUXllY1OR:1034091934 -->\n\n---\n\n<sup>**[src/Clients/Visuals/visuals/samples/areaRangeChart.ts, line 36 \\[r1\\]](https://reviewable.io:443/reviews/microsoft/powerbi-visuals/124#-K128kwvuL4iv6eWYKno)** ([raw file](https://github.com/microsoft/powerbi-visuals/blob/db5142718fe6def405084744f95e9e428ac6effd/src/Clients/Visuals/visuals/samples/areaRangeChart.ts#L36)):</sup>\nWhen do we ever pass in svg or margin?\n<!-- Reviewable comment -K128kwvuL4iv6eWYKnp:-2026759296 -->\n\n---\n\n<sup>**[src/Clients/Visuals/visuals/samples/areaRangeChart.ts, line 68 \\[r1\\]](https://reviewable.io:443/reviews/microsoft/powerbi-visuals/124#-K127dukOmBqF34kJgII)** ([raw file](https://github.com/microsoft/powerbi-visuals/blob/db5142718fe6def405084744f95e9e428ac6effd/src/Clients/Visuals/visuals/samples/areaRangeChart.ts#L68)):</sup>\nDon't bother with \"any\" type.\n<!-- Reviewable comment -K127dukOmBqF34kJgIJ:2136278287 -->\n\n---\n\n<sup>**[src/Clients/Visuals/visuals/samples/areaRangeChart.ts, line 111 \\[r1\\]](https://reviewable.io:443/reviews/microsoft/powerbi-visuals/124#-K133AaPhzCrwokJKLEk)** ([raw file](https://github.com/microsoft/powerbi-visuals/blob/db5142718fe6def405084744f95e9e428ac6effd/src/Clients/Visuals/visuals/samples/areaRangeChart.ts#L111)):</sup>\nThere's no way to get data in the form you have for the sample with data mappings like this (as far as I know). We really need to test these visuals in the product and not just construct sample data in the playground.\n<!-- Reviewable comment -K133AaPhzCrwokJKLEl:-1433774902 -->\n\n---\n\n<sup>**[src/Clients/Visuals/visuals/samples/areaRangeChart.ts, line 124 \\[r1\\]](https://reviewable.io:443/reviews/microsoft/powerbi-visuals/124#-K1285hfJ5YTmFfT35iV)** ([raw file](https://github.com/microsoft/powerbi-visuals/blob/db5142718fe6def405084744f95e9e428ac6effd/src/Clients/Visuals/visuals/samples/areaRangeChart.ts#L124)):</sup>\ndataPoint? Did you try this?\n<!-- Reviewable comment -K1285hfJ5YTmFfT35iW:1473700376 -->\n\n---\n\n<sup>**[src/Clients/Visuals/visuals/samples/areaRangeChart.ts, line 125 \\[r1\\]](https://reviewable.io:443/reviews/microsoft/powerbi-visuals/124#-K128BGZuCCN8Ma1Tdc_)** ([raw file](https://github.com/microsoft/powerbi-visuals/blob/db5142718fe6def405084744f95e9e428ac6effd/src/Clients/Visuals/visuals/samples/areaRangeChart.ts#L125)):</sup>\ndata.createDisplayNameGetter('Visual_DataPoint'),\n<!-- Reviewable comment -K128BGZuCCN8Ma1Tdca:-948353113 -->\n\n---\n\n<sup>**[src/Clients/Visuals/visuals/samples/areaRangeChart.ts, line 128 \\[r1\\]](https://reviewable.io:443/reviews/microsoft/powerbi-visuals/124#-K128FOfrRUfCAWxwywc)** ([raw file](https://github.com/microsoft/powerbi-visuals/blob/db5142718fe6def405084744f95e9e428ac6effd/src/Clients/Visuals/visuals/samples/areaRangeChart.ts#L128)):</sup>\ndata.createDisplayNameGetter('Visual_Fill'),\n<!-- Reviewable comment -K128FOgdj_oOIxwEWMA:-202832028 -->\n\n---\n\n<sup>**[src/Clients/Visuals/visuals/samples/areaRangeChart.ts, line 171 \\[r1\\]](https://reviewable.io:443/reviews/microsoft/powerbi-visuals/124#-K128PMlJdcak2EReHYE)** ([raw file](https://github.com/microsoft/powerbi-visuals/blob/db5142718fe6def405084744f95e9e428ac6effd/src/Clients/Visuals/visuals/samples/areaRangeChart.ts#L171)):</sup>\nUse our palette.\n<!-- Reviewable comment -K128PMlJdcak2EReHYF:-1576530811 -->\n\n---\n\n<sup>**[src/Clients/Visuals/visuals/samples/areaRangeChart.ts, line 205 \\[r1\\]](https://reviewable.io:443/reviews/microsoft/powerbi-visuals/124#-K129SAJSrz9OSV2-W1W)** ([raw file](https://github.com/microsoft/powerbi-visuals/blob/db5142718fe6def405084744f95e9e428ac6effd/src/Clients/Visuals/visuals/samples/areaRangeChart.ts#L205)):</sup>\nUnfortunately we have to stick with \"var\" until our DevTools are updated.\n<!-- Reviewable comment -K129SAJSrz9OSV2-W1X:-143911790 -->\n\n---\n\n<sup>**[src/Clients/Visuals/visuals/samples/areaRangeChart.ts, line 242 \\[r1\\]](https://reviewable.io:443/reviews/microsoft/powerbi-visuals/124#-K129FDOJSJHjCSFcUH2)** ([raw file](https://github.com/microsoft/powerbi-visuals/blob/db5142718fe6def405084744f95e9e428ac6effd/src/Clients/Visuals/visuals/samples/areaRangeChart.ts#L242)):</sup>\nWe do these checks in converter(), that should be sufficient.\n<!-- Reviewable comment -K129FDOJSJHjCSFcUH3:91814353 -->\n\n---\n\n<sup>**[src/Clients/Visuals/visuals/samples/areaRangeChart.ts, line 250 \\[r1\\]](https://reviewable.io:443/reviews/microsoft/powerbi-visuals/124#-K1291iuVQQDV48K8VfJ)** ([raw file](https://github.com/microsoft/powerbi-visuals/blob/db5142718fe6def405084744f95e9e428ac6effd/src/Clients/Visuals/visuals/samples/areaRangeChart.ts#L250)):</sup>\nNo need for Boolean() here.\n<!-- Reviewable comment -K1291ivSFk4U_keAlfh:657242048 -->\n\n---\n\n<sup>**[src/Clients/Visuals/visuals/samples/areaRangeChart.ts, line 310 \\[r1\\]](https://reviewable.io:443/reviews/microsoft/powerbi-visuals/124#-K129KOjnSK19m9Y0vWl)** ([raw file](https://github.com/microsoft/powerbi-visuals/blob/db5142718fe6def405084744f95e9e428ac6effd/src/Clients/Visuals/visuals/samples/areaRangeChart.ts#L310)):</sup>\nGenerally we just \"return\" which returns undefined.\n<!-- Reviewable comment -K129KOjnSK19m9Y0vWm:608475772 -->\n\n---\n\n\nComments from the [review on Reviewable.io](https://reviewable.io:443/reviews/microsoft/powerbi-visuals/124)\n<!-- Sent from Reviewable.io -->\n"
}
, {
  "url": "https://api.github.com/repos/Microsoft/PowerBI-visuals/issues/comments/149940185",
  "html_url": "https://github.com/Microsoft/PowerBI-visuals/pull/124#issuecomment-149940185",
  "issue_url": "https://api.github.com/repos/Microsoft/PowerBI-visuals/issues/124",
  "id": 149940185,
  "user": {
    "login": "uve",
    "id": 534586,
    "avatar_url": "https://avatars.githubusercontent.com/u/534586?v=3",
    "gravatar_id": "",
    "url": "https://api.github.com/users/uve",
    "html_url": "https://github.com/uve",
    "followers_url": "https://api.github.com/users/uve/followers",
    "following_url": "https://api.github.com/users/uve/following{/other_user}",
    "gists_url": "https://api.github.com/users/uve/gists{/gist_id}",
    "starred_url": "https://api.github.com/users/uve/starred{/owner}{/repo}",
    "subscriptions_url": "https://api.github.com/users/uve/subscriptions",
    "organizations_url": "https://api.github.com/users/uve/orgs",
    "repos_url": "https://api.github.com/users/uve/repos",
    "events_url": "https://api.github.com/users/uve/events{/privacy}",
    "received_events_url": "https://api.github.com/users/uve/received_events",
    "type": "User",
    "site_admin": false
  },
  "created_at": "2015-10-21T15:50:39Z",
  "updated_at": "2015-10-21T15:50:39Z",
  "body": "\n\n\n\nReview status: 6 of 8 files reviewed at latest revision, 12 unresolved discussions, all commit checks successful.\n\n---\n\n<sup>**[src/Clients/PowerBIVisualsPlayground/sampleData.ts, line 44 \\[r1\\]](https://reviewable.io:443/reviews/microsoft/powerbi-visuals/124#-K126tjUbNqAUXllY1OQ)** ([raw file](https://github.com/microsoft/powerbi-visuals/blob/db5142718fe6def405084744f95e9e428ac6effd/src/Clients/PowerBIVisualsPlayground/sampleData.ts#L44)):</sup>\nDone.\n<!-- Reviewable comment -K1A3i9ZeAGQw6mpnYJs:-499146009 -->\n\n---\n\n<sup>**[src/Clients/Visuals/visuals/samples/areaRangeChart.ts, line 36 \\[r1\\]](https://reviewable.io:443/reviews/microsoft/powerbi-visuals/124#-K128kwvuL4iv6eWYKno)** ([raw file](https://github.com/microsoft/powerbi-visuals/blob/db5142718fe6def405084744f95e9e428ac6effd/src/Clients/Visuals/visuals/samples/areaRangeChart.ts#L36)):</sup>\nDone.\n<!-- Reviewable comment -K1A3iq8-19Fe0gm2BoR:-499146009 -->\n\n---\n\n<sup>**[src/Clients/Visuals/visuals/samples/areaRangeChart.ts, line 68 \\[r1\\]](https://reviewable.io:443/reviews/microsoft/powerbi-visuals/124#-K127dukOmBqF34kJgII)** ([raw file](https://github.com/microsoft/powerbi-visuals/blob/db5142718fe6def405084744f95e9e428ac6effd/src/Clients/Visuals/visuals/samples/areaRangeChart.ts#L68)):</sup>\nwithout \"any\" it results in the following errors: \nerror TS2339: Property 'fill' does not exist on type '{ general: { formatString: DataViewObjectPropertyIdentifier; }; dataPoint: { fill: DataViewObject...'.\nerror TS2339: Property 'formatString' does not exist on type '{ general: { formatString: DataViewObjectPropertyIdentifier; }; dataPoint: { fill: DataViewObject...'.\nerror TS2339: Property 'formatString' does not exist on type '{ general: { formatString: DataViewObjectPropertyIdentifier; }; dataPoint: { fill: DataViewObject...'.\n<!-- Reviewable comment -K1A3jIm2TVOByx07OYt:1837342493 -->\n\n---\n\n<sup>**[src/Clients/Visuals/visuals/samples/areaRangeChart.ts, line 111 \\[r1\\]](https://reviewable.io:443/reviews/microsoft/powerbi-visuals/124#-K133AaPhzCrwokJKLEk)** ([raw file](https://github.com/microsoft/powerbi-visuals/blob/db5142718fe6def405084744f95e9e428ac6effd/src/Clients/Visuals/visuals/samples/areaRangeChart.ts#L111)):</sup>\nDone.\n<!-- Reviewable comment -K1A3kNyAY_Mc5QGeH02:-499146009 -->\n\n---\n\n<sup>**[src/Clients/Visuals/visuals/samples/areaRangeChart.ts, line 124 \\[r1\\]](https://reviewable.io:443/reviews/microsoft/powerbi-visuals/124#-K1285hfJ5YTmFfT35iV)** ([raw file](https://github.com/microsoft/powerbi-visuals/blob/db5142718fe6def405084744f95e9e428ac6effd/src/Clients/Visuals/visuals/samples/areaRangeChart.ts#L124)):</sup>\nDone.\n<!-- Reviewable comment -K1A3mKWr9Qo6bRWR4kc:-499146009 -->\n\n---\n\n<sup>**[src/Clients/Visuals/visuals/samples/areaRangeChart.ts, line 125 \\[r1\\]](https://reviewable.io:443/reviews/microsoft/powerbi-visuals/124#-K128BGZuCCN8Ma1Tdc_)** ([raw file](https://github.com/microsoft/powerbi-visuals/blob/db5142718fe6def405084744f95e9e428ac6effd/src/Clients/Visuals/visuals/samples/areaRangeChart.ts#L125)):</sup>\nDone.\n<!-- Reviewable comment -K1A3zzpojCumZyitLQv:-499146009 -->\n\n---\n\n<sup>**[src/Clients/Visuals/visuals/samples/areaRangeChart.ts, line 128 \\[r1\\]](https://reviewable.io:443/reviews/microsoft/powerbi-visuals/124#-K128FOfrRUfCAWxwywc)** ([raw file](https://github.com/microsoft/powerbi-visuals/blob/db5142718fe6def405084744f95e9e428ac6effd/src/Clients/Visuals/visuals/samples/areaRangeChart.ts#L128)):</sup>\nDone.\n<!-- Reviewable comment -K1A3o22WiiJFpTe757t:-499146009 -->\n\n---\n\n<sup>**[src/Clients/Visuals/visuals/samples/areaRangeChart.ts, line 171 \\[r1\\]](https://reviewable.io:443/reviews/microsoft/powerbi-visuals/124#-K128PMlJdcak2EReHYE)** ([raw file](https://github.com/microsoft/powerbi-visuals/blob/db5142718fe6def405084744f95e9e428ac6effd/src/Clients/Visuals/visuals/samples/areaRangeChart.ts#L171)):</sup>\nDone.\n<!-- Reviewable comment -K1A3ox7HBdN0PKO_Xfa:-499146009 -->\n\n---\n\n<sup>**[src/Clients/Visuals/visuals/samples/areaRangeChart.ts, line 205 \\[r1\\]](https://reviewable.io:443/reviews/microsoft/powerbi-visuals/124#-K129SAJSrz9OSV2-W1W)** ([raw file](https://github.com/microsoft/powerbi-visuals/blob/db5142718fe6def405084744f95e9e428ac6effd/src/Clients/Visuals/visuals/samples/areaRangeChart.ts#L205)):</sup>\nDone.\n<!-- Reviewable comment -K1A3pWVK6TunMHxxYtI:-499146009 -->\n\n---\n\n<sup>**[src/Clients/Visuals/visuals/samples/areaRangeChart.ts, line 242 \\[r1\\]](https://reviewable.io:443/reviews/microsoft/powerbi-visuals/124#-K129FDOJSJHjCSFcUH2)** ([raw file](https://github.com/microsoft/powerbi-visuals/blob/db5142718fe6def405084744f95e9e428ac6effd/src/Clients/Visuals/visuals/samples/areaRangeChart.ts#L242)):</sup>\nDone.\n<!-- Reviewable comment -K1A3qCcc_Wkm4eGLY2h:-499146009 -->\n\n---\n\n<sup>**[src/Clients/Visuals/visuals/samples/areaRangeChart.ts, line 250 \\[r1\\]](https://reviewable.io:443/reviews/microsoft/powerbi-visuals/124#-K1291iuVQQDV48K8VfJ)** ([raw file](https://github.com/microsoft/powerbi-visuals/blob/db5142718fe6def405084744f95e9e428ac6effd/src/Clients/Visuals/visuals/samples/areaRangeChart.ts#L250)):</sup>\nDone.\n<!-- Reviewable comment -K1A3t-wquF86-Sfrt1Y:-499146009 -->\n\n---\n\n<sup>**[src/Clients/Visuals/visuals/samples/areaRangeChart.ts, line 310 \\[r1\\]](https://reviewable.io:443/reviews/microsoft/powerbi-visuals/124#-K129KOjnSK19m9Y0vWl)** ([raw file](https://github.com/microsoft/powerbi-visuals/blob/db5142718fe6def405084744f95e9e428ac6effd/src/Clients/Visuals/visuals/samples/areaRangeChart.ts#L310)):</sup>\nDone.\n<!-- Reviewable comment -K1A3xNwtQ6T2nYm67fr:-499146009 -->\n\n---\n\n\nComments from the [review on Reviewable.io](https://reviewable.io:443/reviews/microsoft/powerbi-visuals/124)\n<!-- Sent from Reviewable.io -->\n"
}
, {
  "url": "https://api.github.com/repos/Microsoft/PowerBI-visuals/issues/comments/149981140",
  "html_url": "https://github.com/Microsoft/PowerBI-visuals/pull/124#issuecomment-149981140",
  "issue_url": "https://api.github.com/repos/Microsoft/PowerBI-visuals/issues/124",
  "id": 149981140,
  "user": {
    "login": "jcludwig",
    "id": 6378083,
    "avatar_url": "https://avatars.githubusercontent.com/u/6378083?v=3",
    "gravatar_id": "",
    "url": "https://api.github.com/users/jcludwig",
    "html_url": "https://github.com/jcludwig",
    "followers_url": "https://api.github.com/users/jcludwig/followers",
    "following_url": "https://api.github.com/users/jcludwig/following{/other_user}",
    "gists_url": "https://api.github.com/users/jcludwig/gists{/gist_id}",
    "starred_url": "https://api.github.com/users/jcludwig/starred{/owner}{/repo}",
    "subscriptions_url": "https://api.github.com/users/jcludwig/subscriptions",
    "organizations_url": "https://api.github.com/users/jcludwig/orgs",
    "repos_url": "https://api.github.com/users/jcludwig/repos",
    "events_url": "https://api.github.com/users/jcludwig/events{/privacy}",
    "received_events_url": "https://api.github.com/users/jcludwig/received_events",
    "type": "User",
    "site_admin": false
  },
  "created_at": "2015-10-21T18:10:20Z",
  "updated_at": "2015-10-21T18:10:20Z",
  "body": "\n\n\n\n\n\n\n\n<sup>**[src/Clients/Visuals/visuals/samples/areaRangeChart.ts, line 205 \\[r1\\]](https://reviewable.io:443/reviews/microsoft/powerbi-visuals/124#-K129SAJSrz9OSV2-W1W)** ([raw file](https://github.com/microsoft/powerbi-visuals/blob/db5142718fe6def405084744f95e9e428ac6effd/src/Clients/Visuals/visuals/samples/areaRangeChart.ts#L205)):</sup>\nActually, maybe we just do the let->var conversion when we make the package...we can leave as let. Sorry for the flip-flop.\n<!-- Reviewable comment -K1A_wWZCww9zD5yY09B:35032248 -->\n\n---\n\n\nComments from the [review on Reviewable.io](https://reviewable.io:443/reviews/microsoft/powerbi-visuals/124)\n<!-- Sent from Reviewable.io -->\n"
}
, {
  "url": "https://api.github.com/repos/Microsoft/PowerBI-visuals/issues/comments/149981628",
  "html_url": "https://github.com/Microsoft/PowerBI-visuals/pull/124#issuecomment-149981628",
  "issue_url": "https://api.github.com/repos/Microsoft/PowerBI-visuals/issues/124",
  "id": 149981628,
  "user": {
    "login": "jcludwig",
    "id": 6378083,
    "avatar_url": "https://avatars.githubusercontent.com/u/6378083?v=3",
    "gravatar_id": "",
    "url": "https://api.github.com/users/jcludwig",
    "html_url": "https://github.com/jcludwig",
    "followers_url": "https://api.github.com/users/jcludwig/followers",
    "following_url": "https://api.github.com/users/jcludwig/following{/other_user}",
    "gists_url": "https://api.github.com/users/jcludwig/gists{/gist_id}",
    "starred_url": "https://api.github.com/users/jcludwig/starred{/owner}{/repo}",
    "subscriptions_url": "https://api.github.com/users/jcludwig/subscriptions",
    "organizations_url": "https://api.github.com/users/jcludwig/orgs",
    "repos_url": "https://api.github.com/users/jcludwig/repos",
    "events_url": "https://api.github.com/users/jcludwig/events{/privacy}",
    "received_events_url": "https://api.github.com/users/jcludwig/received_events",
    "type": "User",
    "site_admin": false
  },
  "created_at": "2015-10-21T18:12:09Z",
  "updated_at": "2015-10-21T18:12:09Z",
  "body": "\n\n\n\n\n\n\n\n<sup>**[src/Clients/PowerBIVisualsPlayground/sampleDataViews/SimpleAreaRangeData.ts, line 76 \\[r3\\]](https://reviewable.io:443/reviews/microsoft/powerbi-visuals/124#-K1AaKOEO_rqFP2oIKNo)** ([raw file](https://github.com/microsoft/powerbi-visuals/blob/289e437f76d7b2113c37ead7bdeddc30e9417e54/src/Clients/PowerBIVisualsPlayground/sampleDataViews/SimpleAreaRangeData.ts#L76)):</sup>\nYou can skip the series metadata, we're not actually using it here.\n<!-- Reviewable comment -K1AaKOEO_rqFP2oIKNp:333854839 -->\n\n---\n\n\nComments from the [review on Reviewable.io](https://reviewable.io:443/reviews/microsoft/powerbi-visuals/124)\n<!-- Sent from Reviewable.io -->\n"
}
, {
  "url": "https://api.github.com/repos/Microsoft/PowerBI-visuals/issues/comments/149981810",
  "html_url": "https://github.com/Microsoft/PowerBI-visuals/pull/124#issuecomment-149981810",
  "issue_url": "https://api.github.com/repos/Microsoft/PowerBI-visuals/issues/124",
  "id": 149981810,
  "user": {
    "login": "jcludwig",
    "id": 6378083,
    "avatar_url": "https://avatars.githubusercontent.com/u/6378083?v=3",
    "gravatar_id": "",
    "url": "https://api.github.com/users/jcludwig",
    "html_url": "https://github.com/jcludwig",
    "followers_url": "https://api.github.com/users/jcludwig/followers",
    "following_url": "https://api.github.com/users/jcludwig/following{/other_user}",
    "gists_url": "https://api.github.com/users/jcludwig/gists{/gist_id}",
    "starred_url": "https://api.github.com/users/jcludwig/starred{/owner}{/repo}",
    "subscriptions_url": "https://api.github.com/users/jcludwig/subscriptions",
    "organizations_url": "https://api.github.com/users/jcludwig/orgs",
    "repos_url": "https://api.github.com/users/jcludwig/repos",
    "events_url": "https://api.github.com/users/jcludwig/events{/privacy}",
    "received_events_url": "https://api.github.com/users/jcludwig/received_events",
    "type": "User",
    "site_admin": false
  },
  "created_at": "2015-10-21T18:12:34Z",
  "updated_at": "2015-10-21T18:12:34Z",
  "body": "\n\n\n\n\n\n\n\n<sup>**[src/Clients/Visuals/services/visualPluginService.ts, line 355 \\[r3\\]](https://reviewable.io:443/reviews/microsoft/powerbi-visuals/124#-K1AaWJ5SmO3QCrTjAkT)** ([raw file](https://github.com/microsoft/powerbi-visuals/blob/289e437f76d7b2113c37ead7bdeddc30e9417e54/src/Clients/Visuals/services/visualPluginService.ts#L355)):</sup>\nJust remember to remove this before merging ;)\n<!-- Reviewable comment -K1AaWJ5SmO3QCrTjAkU:-1201292237 -->\n\n---\n\n\nComments from the [review on Reviewable.io](https://reviewable.io:443/reviews/microsoft/powerbi-visuals/124)\n<!-- Sent from Reviewable.io -->\n"
}
, {
  "url": "https://api.github.com/repos/Microsoft/PowerBI-visuals/issues/comments/149994911",
  "html_url": "https://github.com/Microsoft/PowerBI-visuals/pull/124#issuecomment-149994911",
  "issue_url": "https://api.github.com/repos/Microsoft/PowerBI-visuals/issues/124",
  "id": 149994911,
  "user": {
    "login": "uve",
    "id": 534586,
    "avatar_url": "https://avatars.githubusercontent.com/u/534586?v=3",
    "gravatar_id": "",
    "url": "https://api.github.com/users/uve",
    "html_url": "https://github.com/uve",
    "followers_url": "https://api.github.com/users/uve/followers",
    "following_url": "https://api.github.com/users/uve/following{/other_user}",
    "gists_url": "https://api.github.com/users/uve/gists{/gist_id}",
    "starred_url": "https://api.github.com/users/uve/starred{/owner}{/repo}",
    "subscriptions_url": "https://api.github.com/users/uve/subscriptions",
    "organizations_url": "https://api.github.com/users/uve/orgs",
    "repos_url": "https://api.github.com/users/uve/repos",
    "events_url": "https://api.github.com/users/uve/events{/privacy}",
    "received_events_url": "https://api.github.com/users/uve/received_events",
    "type": "User",
    "site_admin": false
  },
  "created_at": "2015-10-21T19:01:39Z",
  "updated_at": "2015-10-21T19:01:39Z",
  "body": "\n\n\n\nReview status: 3 of 9 files reviewed at latest revision, 3 unresolved discussions, some commit checks pending.\n\n---\n\n<sup>**[src/Clients/PowerBIVisualsPlayground/sampleDataViews/SimpleAreaRangeData.ts, line 76 \\[r3\\]](https://reviewable.io:443/reviews/microsoft/powerbi-visuals/124#-K1AaKOEO_rqFP2oIKNo)** ([raw file](https://github.com/microsoft/powerbi-visuals/blob/289e437f76d7b2113c37ead7bdeddc30e9417e54/src/Clients/PowerBIVisualsPlayground/sampleDataViews/SimpleAreaRangeData.ts#L76)):</sup>\nDone.\n<!-- Reviewable comment -K1AlXrpjssuz6LhMpBp:-499146009 -->\n\n---\n\n<sup>**[src/Clients/Visuals/services/visualPluginService.ts, line 355 \\[r3\\]](https://reviewable.io:443/reviews/microsoft/powerbi-visuals/124#-K1AaWJ5SmO3QCrTjAkT)** ([raw file](https://github.com/microsoft/powerbi-visuals/blob/289e437f76d7b2113c37ead7bdeddc30e9417e54/src/Clients/Visuals/services/visualPluginService.ts#L355)):</sup>\nSure.\n<!-- Reviewable comment -K1AlZ4uNBEl_s_1fej3:-485110604 -->\n\n---\n\n<sup>**[src/Clients/Visuals/visuals/samples/areaRangeChart.ts, line 205 \\[r1\\]](https://reviewable.io:443/reviews/microsoft/powerbi-visuals/124#-K129SAJSrz9OSV2-W1W)** ([raw file](https://github.com/microsoft/powerbi-visuals/blob/db5142718fe6def405084744f95e9e428ac6effd/src/Clients/Visuals/visuals/samples/areaRangeChart.ts#L205)):</sup>\nDone.\n<!-- Reviewable comment -K1AleWRcy9LJGjyY_NX:-499146009 -->\n\n---\n\n\nComments from the [review on Reviewable.io](https://reviewable.io:443/reviews/microsoft/powerbi-visuals/124)\n<!-- Sent from Reviewable.io -->\n"
}
, {
  "url": "https://api.github.com/repos/Microsoft/PowerBI-visuals/issues/comments/149995125",
  "html_url": "https://github.com/Microsoft/PowerBI-visuals/pull/124#issuecomment-149995125",
  "issue_url": "https://api.github.com/repos/Microsoft/PowerBI-visuals/issues/124",
  "id": 149995125,
  "user": {
    "login": "uve",
    "id": 534586,
    "avatar_url": "https://avatars.githubusercontent.com/u/534586?v=3",
    "gravatar_id": "",
    "url": "https://api.github.com/users/uve",
    "html_url": "https://github.com/uve",
    "followers_url": "https://api.github.com/users/uve/followers",
    "following_url": "https://api.github.com/users/uve/following{/other_user}",
    "gists_url": "https://api.github.com/users/uve/gists{/gist_id}",
    "starred_url": "https://api.github.com/users/uve/starred{/owner}{/repo}",
    "subscriptions_url": "https://api.github.com/users/uve/subscriptions",
    "organizations_url": "https://api.github.com/users/uve/orgs",
    "repos_url": "https://api.github.com/users/uve/repos",
    "events_url": "https://api.github.com/users/uve/events{/privacy}",
    "received_events_url": "https://api.github.com/users/uve/received_events",
    "type": "User",
    "site_admin": false
  },
  "created_at": "2015-10-21T19:02:37Z",
  "updated_at": "2015-10-21T19:02:37Z",
  "body": "\n\n\n\nReview status: 3 of 9 files reviewed at latest revision, 3 unresolved discussions, some commit checks pending.\n\n---\n\n<sup>**[src/Clients/PowerBIVisualsPlayground/sampleDataViews/SimpleAreaRangeData.ts, line 76 \\[r3\\]](https://reviewable.io:443/reviews/microsoft/powerbi-visuals/124#-K1AaKOEO_rqFP2oIKNo)** ([raw file](https://github.com/microsoft/powerbi-visuals/blob/289e437f76d7b2113c37ead7bdeddc30e9417e54/src/Clients/PowerBIVisualsPlayground/sampleDataViews/SimpleAreaRangeData.ts#L76)):</sup>\nDone.\n<!-- Reviewable comment -K1Am-WPre3F5N4fapKO:-499146009 -->\n\n---\n\n\nComments from the [review on Reviewable.io](https://reviewable.io:443/reviews/microsoft/powerbi-visuals/124)\n<!-- Sent from Reviewable.io -->\n"
}
, {
  "url": "https://api.github.com/repos/Microsoft/PowerBI-visuals/issues/comments/150005735",
  "html_url": "https://github.com/Microsoft/PowerBI-visuals/pull/124#issuecomment-150005735",
  "issue_url": "https://api.github.com/repos/Microsoft/PowerBI-visuals/issues/124",
  "id": 150005735,
  "user": {
    "login": "jcludwig",
    "id": 6378083,
    "avatar_url": "https://avatars.githubusercontent.com/u/6378083?v=3",
    "gravatar_id": "",
    "url": "https://api.github.com/users/jcludwig",
    "html_url": "https://github.com/jcludwig",
    "followers_url": "https://api.github.com/users/jcludwig/followers",
    "following_url": "https://api.github.com/users/jcludwig/following{/other_user}",
    "gists_url": "https://api.github.com/users/jcludwig/gists{/gist_id}",
    "starred_url": "https://api.github.com/users/jcludwig/starred{/owner}{/repo}",
    "subscriptions_url": "https://api.github.com/users/jcludwig/subscriptions",
    "organizations_url": "https://api.github.com/users/jcludwig/orgs",
    "repos_url": "https://api.github.com/users/jcludwig/repos",
    "events_url": "https://api.github.com/users/jcludwig/events{/privacy}",
    "received_events_url": "https://api.github.com/users/jcludwig/received_events",
    "type": "User",
    "site_admin": false
  },
  "created_at": "2015-10-21T19:47:12Z",
  "updated_at": "2015-10-21T19:47:12Z",
  "body": "\n\n\n\n\n\n\n\n<sup>**[src/Clients/PowerBIVisualsPlayground/sampleDataViews/SimpleAreaRangeData.ts, line 136 \\[r4\\]](https://reviewable.io:443/reviews/microsoft/powerbi-visuals/124#-K1Avi8_8AGJOt9hpwET)** ([raw file](https://github.com/microsoft/powerbi-visuals/blob/c52901b761b426d0e110278c87d3052c0fc31b19/src/Clients/PowerBIVisualsPlayground/sampleDataViews/SimpleAreaRangeData.ts#L136)):</sup>\nI think this call needs to be: \ncreateValueColumns(columns, [districtExpr], dataViewMetadata.columns[1])\n<!-- Reviewable comment -K1Avi8a84LPm1caQUzd:1753933116 -->\n\n---\n\n\nComments from the [review on Reviewable.io](https://reviewable.io:443/reviews/microsoft/powerbi-visuals/124)\n<!-- Sent from Reviewable.io -->\n"
}
, {
  "url": "https://api.github.com/repos/Microsoft/PowerBI-visuals/issues/comments/150007324",
  "html_url": "https://github.com/Microsoft/PowerBI-visuals/pull/124#issuecomment-150007324",
  "issue_url": "https://api.github.com/repos/Microsoft/PowerBI-visuals/issues/124",
  "id": 150007324,
  "user": {
    "login": "jcludwig",
    "id": 6378083,
    "avatar_url": "https://avatars.githubusercontent.com/u/6378083?v=3",
    "gravatar_id": "",
    "url": "https://api.github.com/users/jcludwig",
    "html_url": "https://github.com/jcludwig",
    "followers_url": "https://api.github.com/users/jcludwig/followers",
    "following_url": "https://api.github.com/users/jcludwig/following{/other_user}",
    "gists_url": "https://api.github.com/users/jcludwig/gists{/gist_id}",
    "starred_url": "https://api.github.com/users/jcludwig/starred{/owner}{/repo}",
    "subscriptions_url": "https://api.github.com/users/jcludwig/subscriptions",
    "organizations_url": "https://api.github.com/users/jcludwig/orgs",
    "repos_url": "https://api.github.com/users/jcludwig/repos",
    "events_url": "https://api.github.com/users/jcludwig/events{/privacy}",
    "received_events_url": "https://api.github.com/users/jcludwig/received_events",
    "type": "User",
    "site_admin": false
  },
  "created_at": "2015-10-21T19:54:04Z",
  "updated_at": "2015-10-21T19:54:04Z",
  "body": "\n\n\n\n\n\n\n\n<sup>**[src/Clients/Visuals/visuals/samples/areaRangeChart.ts, line 562 \\[r4\\]](https://reviewable.io:443/reviews/microsoft/powerbi-visuals/124#-K1AxkLBe-G6qRadlkoR)** ([raw file](https://github.com/microsoft/powerbi-visuals/blob/c52901b761b426d0e110278c87d3052c0fc31b19/src/Clients/Visuals/visuals/samples/areaRangeChart.ts#L562)):</sup>\nNot sure if this is right, please double-check.\n<!-- Reviewable comment -K1AxkLBe-G6qRadlkoS:-358434914 -->\n\n---\n\n\nComments from the [review on Reviewable.io](https://reviewable.io:443/reviews/microsoft/powerbi-visuals/124)\n<!-- Sent from Reviewable.io -->\n"
}
, {
  "url": "https://api.github.com/repos/Microsoft/PowerBI-visuals/issues/comments/150007332",
  "html_url": "https://github.com/Microsoft/PowerBI-visuals/pull/124#issuecomment-150007332",
  "issue_url": "https://api.github.com/repos/Microsoft/PowerBI-visuals/issues/124",
  "id": 150007332,
  "user": {
    "login": "jcludwig",
    "id": 6378083,
    "avatar_url": "https://avatars.githubusercontent.com/u/6378083?v=3",
    "gravatar_id": "",
    "url": "https://api.github.com/users/jcludwig",
    "html_url": "https://github.com/jcludwig",
    "followers_url": "https://api.github.com/users/jcludwig/followers",
    "following_url": "https://api.github.com/users/jcludwig/following{/other_user}",
    "gists_url": "https://api.github.com/users/jcludwig/gists{/gist_id}",
    "starred_url": "https://api.github.com/users/jcludwig/starred{/owner}{/repo}",
    "subscriptions_url": "https://api.github.com/users/jcludwig/subscriptions",
    "organizations_url": "https://api.github.com/users/jcludwig/orgs",
    "repos_url": "https://api.github.com/users/jcludwig/repos",
    "events_url": "https://api.github.com/users/jcludwig/events{/privacy}",
    "received_events_url": "https://api.github.com/users/jcludwig/received_events",
    "type": "User",
    "site_admin": false
  },
  "created_at": "2015-10-21T19:54:05Z",
  "updated_at": "2015-10-21T19:54:05Z",
  "body": "\n\n\n\nReviewed 1 of 8 files at r1, 1 of 2 files at r2, 4 of 4 files at r3.\nReview status: 7 of 9 files reviewed at latest revision, 2 unresolved discussions, all commit checks successful.\n\n---\n\n\n\nComments from the [review on Reviewable.io](https://reviewable.io:443/reviews/microsoft/powerbi-visuals/124)\n<!-- Sent from Reviewable.io -->\n"
}
, {
  "url": "https://api.github.com/repos/Microsoft/PowerBI-visuals/issues/comments/150280452",
  "html_url": "https://github.com/Microsoft/PowerBI-visuals/pull/124#issuecomment-150280452",
  "issue_url": "https://api.github.com/repos/Microsoft/PowerBI-visuals/issues/124",
  "id": 150280452,
  "user": {
    "login": "uve",
    "id": 534586,
    "avatar_url": "https://avatars.githubusercontent.com/u/534586?v=3",
    "gravatar_id": "",
    "url": "https://api.github.com/users/uve",
    "html_url": "https://github.com/uve",
    "followers_url": "https://api.github.com/users/uve/followers",
    "following_url": "https://api.github.com/users/uve/following{/other_user}",
    "gists_url": "https://api.github.com/users/uve/gists{/gist_id}",
    "starred_url": "https://api.github.com/users/uve/starred{/owner}{/repo}",
    "subscriptions_url": "https://api.github.com/users/uve/subscriptions",
    "organizations_url": "https://api.github.com/users/uve/orgs",
    "repos_url": "https://api.github.com/users/uve/repos",
    "events_url": "https://api.github.com/users/uve/events{/privacy}",
    "received_events_url": "https://api.github.com/users/uve/received_events",
    "type": "User",
    "site_admin": false
  },
  "created_at": "2015-10-22T16:28:19Z",
  "updated_at": "2015-10-22T16:28:19Z",
  "body": "\n\n\n\nReview status: 7 of 9 files reviewed at latest revision, 2 unresolved discussions, all commit checks successful.\n\n---\n\n<sup>**[src/Clients/PowerBIVisualsPlayground/sampleDataViews/SimpleAreaRangeData.ts, line 136 \\[r4\\]](https://reviewable.io:443/reviews/microsoft/powerbi-visuals/124#-K1Avi8_8AGJOt9hpwET)** ([raw file](https://github.com/microsoft/powerbi-visuals/blob/c52901b761b426d0e110278c87d3052c0fc31b19/src/Clients/PowerBIVisualsPlayground/sampleDataViews/SimpleAreaRangeData.ts#L136)):</sup>\nChanged, but there is no difference\n<!-- Reviewable comment -K1FNDvajJAl-uAkQosL:-8578780 -->\n\n---\n\n<sup>**[src/Clients/Visuals/visuals/samples/areaRangeChart.ts, line 562 \\[r4\\]](https://reviewable.io:443/reviews/microsoft/powerbi-visuals/124#-K1AxkLBe-G6qRadlkoR)** ([raw file](https://github.com/microsoft/powerbi-visuals/blob/c52901b761b426d0e110278c87d3052c0fc31b19/src/Clients/Visuals/visuals/samples/areaRangeChart.ts#L562)):</sup>\nDone.\n<!-- Reviewable comment -K1FN8EVxiJM5wXM_-Ky:-499146009 -->\n\n---\n\n\nComments from the [review on Reviewable.io](https://reviewable.io:443/reviews/microsoft/powerbi-visuals/124)\n<!-- Sent from Reviewable.io -->\n"
}
, {
  "url": "https://api.github.com/repos/Microsoft/PowerBI-visuals/issues/comments/150666022",
  "html_url": "https://github.com/Microsoft/PowerBI-visuals/pull/124#issuecomment-150666022",
  "issue_url": "https://api.github.com/repos/Microsoft/PowerBI-visuals/issues/124",
  "id": 150666022,
  "user": {
    "login": "jcludwig",
    "id": 6378083,
    "avatar_url": "https://avatars.githubusercontent.com/u/6378083?v=3",
    "gravatar_id": "",
    "url": "https://api.github.com/users/jcludwig",
    "html_url": "https://github.com/jcludwig",
    "followers_url": "https://api.github.com/users/jcludwig/followers",
    "following_url": "https://api.github.com/users/jcludwig/following{/other_user}",
    "gists_url": "https://api.github.com/users/jcludwig/gists{/gist_id}",
    "starred_url": "https://api.github.com/users/jcludwig/starred{/owner}{/repo}",
    "subscriptions_url": "https://api.github.com/users/jcludwig/subscriptions",
    "organizations_url": "https://api.github.com/users/jcludwig/orgs",
    "repos_url": "https://api.github.com/users/jcludwig/repos",
    "events_url": "https://api.github.com/users/jcludwig/events{/privacy}",
    "received_events_url": "https://api.github.com/users/jcludwig/received_events",
    "type": "User",
    "site_admin": false
  },
  "created_at": "2015-10-23T19:09:35Z",
  "updated_at": "2015-10-23T19:09:35Z",
  "body": "\n\n\n\n\n\n\n\n<sup>**[src/Clients/Visuals/visuals/samples/areaRangeChart.ts, line 463 \\[r5\\]](https://reviewable.io:443/reviews/microsoft/powerbi-visuals/124#-K1L5leKKh5RO5V_PH6i)** ([raw file](https://github.com/microsoft/powerbi-visuals/blob/5b15ae934d67771acf87eb672908460b6576ee6e/src/Clients/Visuals/visuals/samples/areaRangeChart.ts#L463)):</sup>\nYou can remove these.\n<!-- Reviewable comment -K1L5leKKh5RO5V_PH6j:-922574063 -->\n\n---\n\n\nComments from the [review on Reviewable.io](https://reviewable.io:443/reviews/microsoft/powerbi-visuals/124)\n<!-- Sent from Reviewable.io -->\n"
}
, {
  "url": "https://api.github.com/repos/Microsoft/PowerBI-visuals/issues/comments/150666318",
  "html_url": "https://github.com/Microsoft/PowerBI-visuals/pull/124#issuecomment-150666318",
  "issue_url": "https://api.github.com/repos/Microsoft/PowerBI-visuals/issues/124",
  "id": 150666318,
  "user": {
    "login": "jcludwig",
    "id": 6378083,
    "avatar_url": "https://avatars.githubusercontent.com/u/6378083?v=3",
    "gravatar_id": "",
    "url": "https://api.github.com/users/jcludwig",
    "html_url": "https://github.com/jcludwig",
    "followers_url": "https://api.github.com/users/jcludwig/followers",
    "following_url": "https://api.github.com/users/jcludwig/following{/other_user}",
    "gists_url": "https://api.github.com/users/jcludwig/gists{/gist_id}",
    "starred_url": "https://api.github.com/users/jcludwig/starred{/owner}{/repo}",
    "subscriptions_url": "https://api.github.com/users/jcludwig/subscriptions",
    "organizations_url": "https://api.github.com/users/jcludwig/orgs",
    "repos_url": "https://api.github.com/users/jcludwig/repos",
    "events_url": "https://api.github.com/users/jcludwig/events{/privacy}",
    "received_events_url": "https://api.github.com/users/jcludwig/received_events",
    "type": "User",
    "site_admin": false
  },
  "created_at": "2015-10-23T19:10:50Z",
  "updated_at": "2015-10-23T19:10:50Z",
  "body": "\n\n\n\n\n\n\n\n<sup>**[src/Clients/Visuals/visuals/samples/areaRangeChart.ts, line 617 \\[r5\\]](https://reviewable.io:443/reviews/microsoft/powerbi-visuals/124#-K1L61yoE-JNaLKSwj3N)** ([raw file](https://github.com/microsoft/powerbi-visuals/blob/5b15ae934d67771acf87eb672908460b6576ee6e/src/Clients/Visuals/visuals/samples/areaRangeChart.ts#L617)):</sup>\nWe'd like to transition to using ObjectEnumerationBuilder.\n<!-- Reviewable comment -K1L61yoE-JNaLKSwj3O:-1181231783 -->\n\n---\n\n\nComments from the [review on Reviewable.io](https://reviewable.io:443/reviews/microsoft/powerbi-visuals/124)\n<!-- Sent from Reviewable.io -->\n"
}
, {
  "url": "https://api.github.com/repos/Microsoft/PowerBI-visuals/issues/comments/150666569",
  "html_url": "https://github.com/Microsoft/PowerBI-visuals/pull/124#issuecomment-150666569",
  "issue_url": "https://api.github.com/repos/Microsoft/PowerBI-visuals/issues/124",
  "id": 150666569,
  "user": {
    "login": "jcludwig",
    "id": 6378083,
    "avatar_url": "https://avatars.githubusercontent.com/u/6378083?v=3",
    "gravatar_id": "",
    "url": "https://api.github.com/users/jcludwig",
    "html_url": "https://github.com/jcludwig",
    "followers_url": "https://api.github.com/users/jcludwig/followers",
    "following_url": "https://api.github.com/users/jcludwig/following{/other_user}",
    "gists_url": "https://api.github.com/users/jcludwig/gists{/gist_id}",
    "starred_url": "https://api.github.com/users/jcludwig/starred{/owner}{/repo}",
    "subscriptions_url": "https://api.github.com/users/jcludwig/subscriptions",
    "organizations_url": "https://api.github.com/users/jcludwig/orgs",
    "repos_url": "https://api.github.com/users/jcludwig/repos",
    "events_url": "https://api.github.com/users/jcludwig/events{/privacy}",
    "received_events_url": "https://api.github.com/users/jcludwig/received_events",
    "type": "User",
    "site_admin": false
  },
  "created_at": "2015-10-23T19:12:09Z",
  "updated_at": "2015-10-23T19:12:09Z",
  "body": "\n\n\n\n\n\n\n\n<sup>**[src/Clients/Visuals/visuals/samples/areaRangeChart.ts, line 644 \\[r5\\]](https://reviewable.io:443/reviews/microsoft/powerbi-visuals/124#-K1L67ods70maiIoLe_I)** ([raw file](https://github.com/microsoft/powerbi-visuals/blob/5b15ae934d67771acf87eb672908460b6576ee6e/src/Clients/Visuals/visuals/samples/areaRangeChart.ts#L644)):</sup>\nDoes this work? I think you need to employ the selectors here to get a color per series. Check out linechart.ts: enumerateDataPoints()\n<!-- Reviewable comment -K1L67ods70maiIoLe_J:1469296382 -->\n\n---\n\n\nComments from the [review on Reviewable.io](https://reviewable.io:443/reviews/microsoft/powerbi-visuals/124)\n<!-- Sent from Reviewable.io -->\n"
}
, {
  "url": "https://api.github.com/repos/Microsoft/PowerBI-visuals/issues/comments/150666648",
  "html_url": "https://github.com/Microsoft/PowerBI-visuals/pull/124#issuecomment-150666648",
  "issue_url": "https://api.github.com/repos/Microsoft/PowerBI-visuals/issues/124",
  "id": 150666648,
  "user": {
    "login": "jcludwig",
    "id": 6378083,
    "avatar_url": "https://avatars.githubusercontent.com/u/6378083?v=3",
    "gravatar_id": "",
    "url": "https://api.github.com/users/jcludwig",
    "html_url": "https://github.com/jcludwig",
    "followers_url": "https://api.github.com/users/jcludwig/followers",
    "following_url": "https://api.github.com/users/jcludwig/following{/other_user}",
    "gists_url": "https://api.github.com/users/jcludwig/gists{/gist_id}",
    "starred_url": "https://api.github.com/users/jcludwig/starred{/owner}{/repo}",
    "subscriptions_url": "https://api.github.com/users/jcludwig/subscriptions",
    "organizations_url": "https://api.github.com/users/jcludwig/orgs",
    "repos_url": "https://api.github.com/users/jcludwig/repos",
    "events_url": "https://api.github.com/users/jcludwig/events{/privacy}",
    "received_events_url": "https://api.github.com/users/jcludwig/received_events",
    "type": "User",
    "site_admin": false
  },
  "created_at": "2015-10-23T19:12:32Z",
  "updated_at": "2015-10-23T19:12:32Z",
  "body": "\n\n\n\n\n\n\n\n<sup>**[src/Clients/PowerBIVisualsPlayground/sampleDataViews/SimpleAreaRangeData.ts, line 136 \\[r4\\]](https://reviewable.io:443/reviews/microsoft/powerbi-visuals/124#-K1Avi8_8AGJOt9hpwET)** ([raw file](https://github.com/microsoft/powerbi-visuals/blob/c52901b761b426d0e110278c87d3052c0fc31b19/src/Clients/PowerBIVisualsPlayground/sampleDataViews/SimpleAreaRangeData.ts#L136)):</sup>\nDoes this data view work now, or still having problems?\n<!-- Reviewable comment -K1L6QPGr0jRDY6DL21-:-1504227195 -->\n\n---\n\n\nComments from the [review on Reviewable.io](https://reviewable.io:443/reviews/microsoft/powerbi-visuals/124)\n<!-- Sent from Reviewable.io -->\n"
}
, {
  "url": "https://api.github.com/repos/Microsoft/PowerBI-visuals/issues/comments/150666668",
  "html_url": "https://github.com/Microsoft/PowerBI-visuals/pull/124#issuecomment-150666668",
  "issue_url": "https://api.github.com/repos/Microsoft/PowerBI-visuals/issues/124",
  "id": 150666668,
  "user": {
    "login": "jcludwig",
    "id": 6378083,
    "avatar_url": "https://avatars.githubusercontent.com/u/6378083?v=3",
    "gravatar_id": "",
    "url": "https://api.github.com/users/jcludwig",
    "html_url": "https://github.com/jcludwig",
    "followers_url": "https://api.github.com/users/jcludwig/followers",
    "following_url": "https://api.github.com/users/jcludwig/following{/other_user}",
    "gists_url": "https://api.github.com/users/jcludwig/gists{/gist_id}",
    "starred_url": "https://api.github.com/users/jcludwig/starred{/owner}{/repo}",
    "subscriptions_url": "https://api.github.com/users/jcludwig/subscriptions",
    "organizations_url": "https://api.github.com/users/jcludwig/orgs",
    "repos_url": "https://api.github.com/users/jcludwig/repos",
    "events_url": "https://api.github.com/users/jcludwig/events{/privacy}",
    "received_events_url": "https://api.github.com/users/jcludwig/received_events",
    "type": "User",
    "site_admin": false
  },
  "created_at": "2015-10-23T19:12:37Z",
  "updated_at": "2015-10-23T19:12:37Z",
  "body": "\n\n\n\nReviewed 2 of 2 files at r4, 2 of 2 files at r5.\nReview status: all files reviewed at latest revision, 5 unresolved discussions, all commit checks successful.\n\n---\n\n\n\nComments from the [review on Reviewable.io](https://reviewable.io:443/reviews/microsoft/powerbi-visuals/124)\n<!-- Sent from Reviewable.io -->\n"
}
, {
  "url": "https://api.github.com/repos/Microsoft/PowerBI-visuals/issues/comments/150959575",
  "html_url": "https://github.com/Microsoft/PowerBI-visuals/pull/124#issuecomment-150959575",
  "issue_url": "https://api.github.com/repos/Microsoft/PowerBI-visuals/issues/124",
  "id": 150959575,
  "user": {
    "login": "uve",
    "id": 534586,
    "avatar_url": "https://avatars.githubusercontent.com/u/534586?v=3",
    "gravatar_id": "",
    "url": "https://api.github.com/users/uve",
    "html_url": "https://github.com/uve",
    "followers_url": "https://api.github.com/users/uve/followers",
    "following_url": "https://api.github.com/users/uve/following{/other_user}",
    "gists_url": "https://api.github.com/users/uve/gists{/gist_id}",
    "starred_url": "https://api.github.com/users/uve/starred{/owner}{/repo}",
    "subscriptions_url": "https://api.github.com/users/uve/subscriptions",
    "organizations_url": "https://api.github.com/users/uve/orgs",
    "repos_url": "https://api.github.com/users/uve/repos",
    "events_url": "https://api.github.com/users/uve/events{/privacy}",
    "received_events_url": "https://api.github.com/users/uve/received_events",
    "type": "User",
    "site_admin": false
  },
  "created_at": "2015-10-25T19:08:01Z",
  "updated_at": "2015-10-25T19:08:01Z",
  "body": "\n\n\n\nReview status: 5 of 9 files reviewed at latest revision, 4 unresolved discussions, some commit checks pending.\n\n---\n\n<sup>**[src/Clients/PowerBIVisualsPlayground/sampleDataViews/SimpleAreaRangeData.ts, line 136 \\[r4\\]](https://reviewable.io:443/reviews/microsoft/powerbi-visuals/124#-K1Avi8_8AGJOt9hpwET)** ([raw file](https://github.com/microsoft/powerbi-visuals/blob/c52901b761b426d0e110278c87d3052c0fc31b19/src/Clients/PowerBIVisualsPlayground/sampleDataViews/SimpleAreaRangeData.ts#L136)):</sup>\nYes, unfortunately it still displays category names instead of series names.\n<!-- Reviewable comment -K1VOXhcnuHvFxkFSHAe:-1767145048 -->\n\n---\n\n<sup>**[src/Clients/Visuals/visuals/samples/areaRangeChart.ts, line 463 \\[r5\\]](https://reviewable.io:443/reviews/microsoft/powerbi-visuals/124#-K1L5leKKh5RO5V_PH6i)** ([raw file](https://github.com/microsoft/powerbi-visuals/blob/5b15ae934d67771acf87eb672908460b6576ee6e/src/Clients/Visuals/visuals/samples/areaRangeChart.ts#L463)):</sup>\nDone.\n<!-- Reviewable comment -K1VO_S3mhWTRPgAyZkJ:-499146009 -->\n\n---\n\n<sup>**[src/Clients/Visuals/visuals/samples/areaRangeChart.ts, line 617 \\[r5\\]](https://reviewable.io:443/reviews/microsoft/powerbi-visuals/124#-K1L61yoE-JNaLKSwj3N)** ([raw file](https://github.com/microsoft/powerbi-visuals/blob/5b15ae934d67771acf87eb672908460b6576ee6e/src/Clients/Visuals/visuals/samples/areaRangeChart.ts#L617)):</sup>\nDone.\n<!-- Reviewable comment -K1VO_oNuaMAn7vTIZuy:-499146009 -->\n\n---\n\n<sup>**[src/Clients/Visuals/visuals/samples/areaRangeChart.ts, line 644 \\[r5\\]](https://reviewable.io:443/reviews/microsoft/powerbi-visuals/124#-K1L67ods70maiIoLe_I)** ([raw file](https://github.com/microsoft/powerbi-visuals/blob/5b15ae934d67771acf87eb672908460b6576ee6e/src/Clients/Visuals/visuals/samples/areaRangeChart.ts#L644)):</sup>\nDone.\n<!-- Reviewable comment -K1VOaaLuaEA1CzaVqQ-:-499146009 -->\n\n---\n\n\nComments from the [review on Reviewable.io](https://reviewable.io:443/reviews/microsoft/powerbi-visuals/124)\n<!-- Sent from Reviewable.io -->\n"
}
, {
  "url": "https://api.github.com/repos/Microsoft/PowerBI-visuals/issues/comments/150966969",
  "html_url": "https://github.com/Microsoft/PowerBI-visuals/pull/124#issuecomment-150966969",
  "issue_url": "https://api.github.com/repos/Microsoft/PowerBI-visuals/issues/124",
  "id": 150966969,
  "user": {
    "login": "jcludwig",
    "id": 6378083,
    "avatar_url": "https://avatars.githubusercontent.com/u/6378083?v=3",
    "gravatar_id": "",
    "url": "https://api.github.com/users/jcludwig",
    "html_url": "https://github.com/jcludwig",
    "followers_url": "https://api.github.com/users/jcludwig/followers",
    "following_url": "https://api.github.com/users/jcludwig/following{/other_user}",
    "gists_url": "https://api.github.com/users/jcludwig/gists{/gist_id}",
    "starred_url": "https://api.github.com/users/jcludwig/starred{/owner}{/repo}",
    "subscriptions_url": "https://api.github.com/users/jcludwig/subscriptions",
    "organizations_url": "https://api.github.com/users/jcludwig/orgs",
    "repos_url": "https://api.github.com/users/jcludwig/repos",
    "events_url": "https://api.github.com/users/jcludwig/events{/privacy}",
    "received_events_url": "https://api.github.com/users/jcludwig/received_events",
    "type": "User",
    "site_admin": false
  },
  "created_at": "2015-10-25T20:36:43Z",
  "updated_at": "2015-10-25T20:36:43Z",
  "body": "\n\n\n\n\n\n\n\n<sup>**[src/Clients/PowerBIVisualsPlayground/sampleDataViews/SimpleAreaRangeData.ts, line 136 \\[r4\\]](https://reviewable.io:443/reviews/microsoft/powerbi-visuals/124#-K1Avi8_8AGJOt9hpwET)** ([raw file](https://github.com/microsoft/powerbi-visuals/blob/c52901b761b426d0e110278c87d3052c0fc31b19/src/Clients/PowerBIVisualsPlayground/sampleDataViews/SimpleAreaRangeData.ts#L136)):</sup>\nOk, the way the metadata should look when you have a series columns (dynamic series) is that you will have column for \"lower\" and a column for \"upper\" for each value of the series, and the groupName property on the column should have the value of the series. It looks like none of our sample data actually does this. For now I think just remove the \"series\" column, you should get one range and no legend.\n<!-- Reviewable comment -K1Vh7V__jc8kZjeZbhS:1017847161 -->\n\n---\n\n\nComments from the [review on Reviewable.io](https://reviewable.io:443/reviews/microsoft/powerbi-visuals/124)\n<!-- Sent from Reviewable.io -->\n"
}
, {
  "url": "https://api.github.com/repos/Microsoft/PowerBI-visuals/issues/comments/150966973",
  "html_url": "https://github.com/Microsoft/PowerBI-visuals/pull/124#issuecomment-150966973",
  "issue_url": "https://api.github.com/repos/Microsoft/PowerBI-visuals/issues/124",
  "id": 150966973,
  "user": {
    "login": "jcludwig",
    "id": 6378083,
    "avatar_url": "https://avatars.githubusercontent.com/u/6378083?v=3",
    "gravatar_id": "",
    "url": "https://api.github.com/users/jcludwig",
    "html_url": "https://github.com/jcludwig",
    "followers_url": "https://api.github.com/users/jcludwig/followers",
    "following_url": "https://api.github.com/users/jcludwig/following{/other_user}",
    "gists_url": "https://api.github.com/users/jcludwig/gists{/gist_id}",
    "starred_url": "https://api.github.com/users/jcludwig/starred{/owner}{/repo}",
    "subscriptions_url": "https://api.github.com/users/jcludwig/subscriptions",
    "organizations_url": "https://api.github.com/users/jcludwig/orgs",
    "repos_url": "https://api.github.com/users/jcludwig/repos",
    "events_url": "https://api.github.com/users/jcludwig/events{/privacy}",
    "received_events_url": "https://api.github.com/users/jcludwig/received_events",
    "type": "User",
    "site_admin": false
  },
  "created_at": "2015-10-25T20:36:45Z",
  "updated_at": "2015-10-25T20:36:45Z",
  "body": "\n\n\n\nReviewed 3 of 4 files at r6, 1 of 1 files at r7.\nReview status: all files reviewed at latest revision, 1 unresolved discussion, all commit checks successful.\n\n---\n\n\n\nComments from the [review on Reviewable.io](https://reviewable.io:443/reviews/microsoft/powerbi-visuals/124)\n<!-- Sent from Reviewable.io -->\n"
}
, {
  "url": "https://api.github.com/repos/Microsoft/PowerBI-visuals/issues/comments/151182724",
  "html_url": "https://github.com/Microsoft/PowerBI-visuals/pull/124#issuecomment-151182724",
  "issue_url": "https://api.github.com/repos/Microsoft/PowerBI-visuals/issues/124",
  "id": 151182724,
  "user": {
    "login": "uve",
    "id": 534586,
    "avatar_url": "https://avatars.githubusercontent.com/u/534586?v=3",
    "gravatar_id": "",
    "url": "https://api.github.com/users/uve",
    "html_url": "https://github.com/uve",
    "followers_url": "https://api.github.com/users/uve/followers",
    "following_url": "https://api.github.com/users/uve/following{/other_user}",
    "gists_url": "https://api.github.com/users/uve/gists{/gist_id}",
    "starred_url": "https://api.github.com/users/uve/starred{/owner}{/repo}",
    "subscriptions_url": "https://api.github.com/users/uve/subscriptions",
    "organizations_url": "https://api.github.com/users/uve/orgs",
    "repos_url": "https://api.github.com/users/uve/repos",
    "events_url": "https://api.github.com/users/uve/events{/privacy}",
    "received_events_url": "https://api.github.com/users/uve/received_events",
    "type": "User",
    "site_admin": false
  },
  "created_at": "2015-10-26T15:56:58Z",
  "updated_at": "2015-10-26T15:56:58Z",
  "body": "\n\n\n\nReview status: all files reviewed at latest revision, 1 unresolved discussion, all commit checks successful.\n\n---\n\n<sup>**[src/Clients/PowerBIVisualsPlayground/sampleDataViews/SimpleAreaRangeData.ts, line 136 \\[r4\\]](https://reviewable.io:443/reviews/microsoft/powerbi-visuals/124#-K1Avi8_8AGJOt9hpwET)** ([raw file](https://github.com/microsoft/powerbi-visuals/blob/c52901b761b426d0e110278c87d3052c0fc31b19/src/Clients/PowerBIVisualsPlayground/sampleDataViews/SimpleAreaRangeData.ts#L136)):</sup>\nDone.\n<!-- Reviewable comment -K1ZrSlHExpy2YNwam39:-499146009 -->\n\n---\n\n\nComments from the [review on Reviewable.io](https://reviewable.io:443/reviews/microsoft/powerbi-visuals/124)\n<!-- Sent from Reviewable.io -->\n"
}
]
