[
{
  "url": "https://api.github.com/repos/Microsoft/PowerBI-visuals/issues/comments/162708593",
  "html_url": "https://github.com/Microsoft/PowerBI-visuals/issues/169#issuecomment-162708593",
  "issue_url": "https://api.github.com/repos/Microsoft/PowerBI-visuals/issues/169",
  "id": 162708593,
  "user": {
    "login": "sgrebnov",
    "id": 981580,
    "avatar_url": "https://avatars.githubusercontent.com/u/981580?v=3",
    "gravatar_id": "",
    "url": "https://api.github.com/users/sgrebnov",
    "html_url": "https://github.com/sgrebnov",
    "followers_url": "https://api.github.com/users/sgrebnov/followers",
    "following_url": "https://api.github.com/users/sgrebnov/following{/other_user}",
    "gists_url": "https://api.github.com/users/sgrebnov/gists{/gist_id}",
    "starred_url": "https://api.github.com/users/sgrebnov/starred{/owner}{/repo}",
    "subscriptions_url": "https://api.github.com/users/sgrebnov/subscriptions",
    "organizations_url": "https://api.github.com/users/sgrebnov/orgs",
    "repos_url": "https://api.github.com/users/sgrebnov/repos",
    "events_url": "https://api.github.com/users/sgrebnov/events{/privacy}",
    "received_events_url": "https://api.github.com/users/sgrebnov/received_events",
    "type": "User",
    "site_admin": false
  },
  "created_at": "2015-12-07T23:52:55Z",
  "updated_at": "2015-12-07T23:52:55Z",
  "body": ":+1: same issue"
}
, {
  "url": "https://api.github.com/repos/Microsoft/PowerBI-visuals/issues/comments/162710407",
  "html_url": "https://github.com/Microsoft/PowerBI-visuals/issues/169#issuecomment-162710407",
  "issue_url": "https://api.github.com/repos/Microsoft/PowerBI-visuals/issues/169",
  "id": 162710407,
  "user": {
    "login": "proll",
    "id": 1193086,
    "avatar_url": "https://avatars.githubusercontent.com/u/1193086?v=3",
    "gravatar_id": "",
    "url": "https://api.github.com/users/proll",
    "html_url": "https://github.com/proll",
    "followers_url": "https://api.github.com/users/proll/followers",
    "following_url": "https://api.github.com/users/proll/following{/other_user}",
    "gists_url": "https://api.github.com/users/proll/gists{/gist_id}",
    "starred_url": "https://api.github.com/users/proll/starred{/owner}{/repo}",
    "subscriptions_url": "https://api.github.com/users/proll/subscriptions",
    "organizations_url": "https://api.github.com/users/proll/orgs",
    "repos_url": "https://api.github.com/users/proll/repos",
    "events_url": "https://api.github.com/users/proll/events{/privacy}",
    "received_events_url": "https://api.github.com/users/proll/received_events",
    "type": "User",
    "site_admin": false
  },
  "created_at": "2015-12-08T00:04:10Z",
  "updated_at": "2015-12-08T00:04:10Z",
  "body": "7edf86f3f32a54b179497fefa70f84b50c179dd1 by @IgnatVilesov broke it down"
}
, {
  "url": "https://api.github.com/repos/Microsoft/PowerBI-visuals/issues/comments/162738756",
  "html_url": "https://github.com/Microsoft/PowerBI-visuals/issues/169#issuecomment-162738756",
  "issue_url": "https://api.github.com/repos/Microsoft/PowerBI-visuals/issues/169",
  "id": 162738756,
  "user": {
    "login": "proll",
    "id": 1193086,
    "avatar_url": "https://avatars.githubusercontent.com/u/1193086?v=3",
    "gravatar_id": "",
    "url": "https://api.github.com/users/proll",
    "html_url": "https://github.com/proll",
    "followers_url": "https://api.github.com/users/proll/followers",
    "following_url": "https://api.github.com/users/proll/following{/other_user}",
    "gists_url": "https://api.github.com/users/proll/gists{/gist_id}",
    "starred_url": "https://api.github.com/users/proll/starred{/owner}{/repo}",
    "subscriptions_url": "https://api.github.com/users/proll/subscriptions",
    "organizations_url": "https://api.github.com/users/proll/orgs",
    "repos_url": "https://api.github.com/users/proll/repos",
    "events_url": "https://api.github.com/users/proll/events{/privacy}",
    "received_events_url": "https://api.github.com/users/proll/received_events",
    "type": "User",
    "site_admin": false
  },
  "created_at": "2015-12-08T02:25:08Z",
  "updated_at": "2015-12-08T02:25:08Z",
  "body": "And it appears only on macOS"
}
, {
  "url": "https://api.github.com/repos/Microsoft/PowerBI-visuals/issues/comments/166918812",
  "html_url": "https://github.com/Microsoft/PowerBI-visuals/issues/169#issuecomment-166918812",
  "issue_url": "https://api.github.com/repos/Microsoft/PowerBI-visuals/issues/169",
  "id": 166918812,
  "user": {
    "login": "joostshao",
    "id": 3615951,
    "avatar_url": "https://avatars.githubusercontent.com/u/3615951?v=3",
    "gravatar_id": "",
    "url": "https://api.github.com/users/joostshao",
    "html_url": "https://github.com/joostshao",
    "followers_url": "https://api.github.com/users/joostshao/followers",
    "following_url": "https://api.github.com/users/joostshao/following{/other_user}",
    "gists_url": "https://api.github.com/users/joostshao/gists{/gist_id}",
    "starred_url": "https://api.github.com/users/joostshao/starred{/owner}{/repo}",
    "subscriptions_url": "https://api.github.com/users/joostshao/subscriptions",
    "organizations_url": "https://api.github.com/users/joostshao/orgs",
    "repos_url": "https://api.github.com/users/joostshao/repos",
    "events_url": "https://api.github.com/users/joostshao/events{/privacy}",
    "received_events_url": "https://api.github.com/users/joostshao/received_events",
    "type": "User",
    "site_admin": false
  },
  "created_at": "2015-12-23T15:06:01Z",
  "updated_at": "2015-12-23T15:06:01Z",
  "body": "And it appears  on Ubuntu."
}
, {
  "url": "https://api.github.com/repos/Microsoft/PowerBI-visuals/issues/comments/167190715",
  "html_url": "https://github.com/Microsoft/PowerBI-visuals/issues/169#issuecomment-167190715",
  "issue_url": "https://api.github.com/repos/Microsoft/PowerBI-visuals/issues/169",
  "id": 167190715,
  "user": {
    "login": "sgrebnov",
    "id": 981580,
    "avatar_url": "https://avatars.githubusercontent.com/u/981580?v=3",
    "gravatar_id": "",
    "url": "https://api.github.com/users/sgrebnov",
    "html_url": "https://github.com/sgrebnov",
    "followers_url": "https://api.github.com/users/sgrebnov/followers",
    "following_url": "https://api.github.com/users/sgrebnov/following{/other_user}",
    "gists_url": "https://api.github.com/users/sgrebnov/gists{/gist_id}",
    "starred_url": "https://api.github.com/users/sgrebnov/starred{/owner}{/repo}",
    "subscriptions_url": "https://api.github.com/users/sgrebnov/subscriptions",
    "organizations_url": "https://api.github.com/users/sgrebnov/orgs",
    "repos_url": "https://api.github.com/users/sgrebnov/repos",
    "events_url": "https://api.github.com/users/sgrebnov/events{/privacy}",
    "received_events_url": "https://api.github.com/users/sgrebnov/received_events",
    "type": "User",
    "site_admin": false
  },
  "created_at": "2015-12-25T04:20:39Z",
  "updated_at": "2015-12-25T04:20:39Z",
  "body": "Fixed in master by the following commit\r\nhttps://github.com/Microsoft/PowerBI-visuals/commit/eb11270809c152b8698c43795cd4c7d3df70aa4c\r\n\r\nPlease feel free to re-open if it still does not work for you."
}
]
