[
{
  "url": "https://api.github.com/repos/google/caja/issues/comments/93631607",
  "html_url": "https://github.com/google/caja/issues/1073#issuecomment-93631607",
  "issue_url": "https://api.github.com/repos/google/caja/issues/1073",
  "id": 93631607,
  "user": {
    "login": "kpreid",
    "id": 779501,
    "avatar_url": "https://avatars.githubusercontent.com/u/779501?v=3",
    "gravatar_id": "",
    "url": "https://api.github.com/users/kpreid",
    "html_url": "https://github.com/kpreid",
    "followers_url": "https://api.github.com/users/kpreid/followers",
    "following_url": "https://api.github.com/users/kpreid/following{/other_user}",
    "gists_url": "https://api.github.com/users/kpreid/gists{/gist_id}",
    "starred_url": "https://api.github.com/users/kpreid/starred{/owner}{/repo}",
    "subscriptions_url": "https://api.github.com/users/kpreid/subscriptions",
    "organizations_url": "https://api.github.com/users/kpreid/orgs",
    "repos_url": "https://api.github.com/users/kpreid/repos",
    "events_url": "https://api.github.com/users/kpreid/events{/privacy}",
    "received_events_url": "https://api.github.com/users/kpreid/received_events",
    "type": "User",
    "site_admin": false
  },
  "created_at": "2015-04-16T03:50:14Z",
  "updated_at": "2015-04-16T03:50:14Z",
  "body": "Comment [#1](https://code.google.com/p/google-caja/issues/detail?id=1073#c1) originally posted by miraglia on 2009-07-11T00:00:54.000Z:\n\n&lt;empty&gt;"
}
, {
  "url": "https://api.github.com/repos/google/caja/issues/comments/93631610",
  "html_url": "https://github.com/google/caja/issues/1073#issuecomment-93631610",
  "issue_url": "https://api.github.com/repos/google/caja/issues/1073",
  "id": 93631610,
  "user": {
    "login": "kpreid",
    "id": 779501,
    "avatar_url": "https://avatars.githubusercontent.com/u/779501?v=3",
    "gravatar_id": "",
    "url": "https://api.github.com/users/kpreid",
    "html_url": "https://github.com/kpreid",
    "followers_url": "https://api.github.com/users/kpreid/followers",
    "following_url": "https://api.github.com/users/kpreid/following{/other_user}",
    "gists_url": "https://api.github.com/users/kpreid/gists{/gist_id}",
    "starred_url": "https://api.github.com/users/kpreid/starred{/owner}{/repo}",
    "subscriptions_url": "https://api.github.com/users/kpreid/subscriptions",
    "organizations_url": "https://api.github.com/users/kpreid/orgs",
    "repos_url": "https://api.github.com/users/kpreid/repos",
    "events_url": "https://api.github.com/users/kpreid/events{/privacy}",
    "received_events_url": "https://api.github.com/users/kpreid/received_events",
    "type": "User",
    "site_admin": false
  },
  "created_at": "2015-04-16T03:50:16Z",
  "updated_at": "2015-04-16T03:50:16Z",
  "body": "Comment [#2](https://code.google.com/p/google-caja/issues/detail?id=1073#c2) originally posted by ihab.awad on 2009-07-20T23:36:08.000Z:\n\n&lt;empty&gt;"
}
, {
  "url": "https://api.github.com/repos/google/caja/issues/comments/93631614",
  "html_url": "https://github.com/google/caja/issues/1073#issuecomment-93631614",
  "issue_url": "https://api.github.com/repos/google/caja/issues/1073",
  "id": 93631614,
  "user": {
    "login": "kpreid",
    "id": 779501,
    "avatar_url": "https://avatars.githubusercontent.com/u/779501?v=3",
    "gravatar_id": "",
    "url": "https://api.github.com/users/kpreid",
    "html_url": "https://github.com/kpreid",
    "followers_url": "https://api.github.com/users/kpreid/followers",
    "following_url": "https://api.github.com/users/kpreid/following{/other_user}",
    "gists_url": "https://api.github.com/users/kpreid/gists{/gist_id}",
    "starred_url": "https://api.github.com/users/kpreid/starred{/owner}{/repo}",
    "subscriptions_url": "https://api.github.com/users/kpreid/subscriptions",
    "organizations_url": "https://api.github.com/users/kpreid/orgs",
    "repos_url": "https://api.github.com/users/kpreid/repos",
    "events_url": "https://api.github.com/users/kpreid/events{/privacy}",
    "received_events_url": "https://api.github.com/users/kpreid/received_events",
    "type": "User",
    "site_admin": false
  },
  "created_at": "2015-04-16T03:50:18Z",
  "updated_at": "2015-04-16T03:50:18Z",
  "body": "Comment [#3](https://code.google.com/p/google-caja/issues/detail?id=1073#c3) originally posted by ihab.awad on 2009-07-20T23:48:26.000Z:\n\nResponding to Lucas's question: XML is not disallowed by design; it is an omission.\r\nIt should be possible to use most of the existing Domita taming to tame XML DOM nodes\r\nreturned by responseXML; this is how I plan to fix this bug."
}
, {
  "url": "https://api.github.com/repos/google/caja/issues/comments/93631619",
  "html_url": "https://github.com/google/caja/issues/1073#issuecomment-93631619",
  "issue_url": "https://api.github.com/repos/google/caja/issues/1073",
  "id": 93631619,
  "user": {
    "login": "kpreid",
    "id": 779501,
    "avatar_url": "https://avatars.githubusercontent.com/u/779501?v=3",
    "gravatar_id": "",
    "url": "https://api.github.com/users/kpreid",
    "html_url": "https://github.com/kpreid",
    "followers_url": "https://api.github.com/users/kpreid/followers",
    "following_url": "https://api.github.com/users/kpreid/following{/other_user}",
    "gists_url": "https://api.github.com/users/kpreid/gists{/gist_id}",
    "starred_url": "https://api.github.com/users/kpreid/starred{/owner}{/repo}",
    "subscriptions_url": "https://api.github.com/users/kpreid/subscriptions",
    "organizations_url": "https://api.github.com/users/kpreid/orgs",
    "repos_url": "https://api.github.com/users/kpreid/repos",
    "events_url": "https://api.github.com/users/kpreid/events{/privacy}",
    "received_events_url": "https://api.github.com/users/kpreid/received_events",
    "type": "User",
    "site_admin": false
  },
  "created_at": "2015-04-16T03:50:20Z",
  "updated_at": "2015-04-16T03:50:20Z",
  "body": "Comment [#4](https://code.google.com/p/google-caja/issues/detail?id=1073#c4) originally posted by ihab.awad on 2009-07-22T18:32:49.000Z:\n\nIs it okay for your current use if the responseXML tree seen by the cajoled code is a\r\nJSON (or near-JSON) object supporting a subset of the DOM API?"
}
, {
  "url": "https://api.github.com/repos/google/caja/issues/comments/93631625",
  "html_url": "https://github.com/google/caja/issues/1073#issuecomment-93631625",
  "issue_url": "https://api.github.com/repos/google/caja/issues/1073",
  "id": 93631625,
  "user": {
    "login": "kpreid",
    "id": 779501,
    "avatar_url": "https://avatars.githubusercontent.com/u/779501?v=3",
    "gravatar_id": "",
    "url": "https://api.github.com/users/kpreid",
    "html_url": "https://github.com/kpreid",
    "followers_url": "https://api.github.com/users/kpreid/followers",
    "following_url": "https://api.github.com/users/kpreid/following{/other_user}",
    "gists_url": "https://api.github.com/users/kpreid/gists{/gist_id}",
    "starred_url": "https://api.github.com/users/kpreid/starred{/owner}{/repo}",
    "subscriptions_url": "https://api.github.com/users/kpreid/subscriptions",
    "organizations_url": "https://api.github.com/users/kpreid/orgs",
    "repos_url": "https://api.github.com/users/kpreid/repos",
    "events_url": "https://api.github.com/users/kpreid/events{/privacy}",
    "received_events_url": "https://api.github.com/users/kpreid/received_events",
    "type": "User",
    "site_admin": false
  },
  "created_at": "2015-04-16T03:50:23Z",
  "updated_at": "2015-04-16T03:50:23Z",
  "body": "Comment [#5](https://code.google.com/p/google-caja/issues/detail?id=1073#c5) originally posted by lucas.e.smith on 2009-07-22T18:57:29.000Z:\n\nThe use specifically in YUI 2 DataSource util is:\r\nnode.attributes.getNamedItem(foo).value\r\nnode.getElementsByTagName(foo).item(n).text (or .textContent)\r\nnode.childNodes[n].nodeValue\r\nnode.firstChild\r\n\r\nHowever, YUI 3 uses xpath. And otherwise, YUI serves as a convenience layer for app\r\ndevelopers to get at their XML data via Connection Manager (XHR wrapper) to do with\r\nwhat they will.\r\n\r\nI realize this sort of talks around your question, but hopefully you can make sense\r\nof it for your purposes."
}
, {
  "url": "https://api.github.com/repos/google/caja/issues/comments/93631629",
  "html_url": "https://github.com/google/caja/issues/1073#issuecomment-93631629",
  "issue_url": "https://api.github.com/repos/google/caja/issues/1073",
  "id": 93631629,
  "user": {
    "login": "kpreid",
    "id": 779501,
    "avatar_url": "https://avatars.githubusercontent.com/u/779501?v=3",
    "gravatar_id": "",
    "url": "https://api.github.com/users/kpreid",
    "html_url": "https://github.com/kpreid",
    "followers_url": "https://api.github.com/users/kpreid/followers",
    "following_url": "https://api.github.com/users/kpreid/following{/other_user}",
    "gists_url": "https://api.github.com/users/kpreid/gists{/gist_id}",
    "starred_url": "https://api.github.com/users/kpreid/starred{/owner}{/repo}",
    "subscriptions_url": "https://api.github.com/users/kpreid/subscriptions",
    "organizations_url": "https://api.github.com/users/kpreid/orgs",
    "repos_url": "https://api.github.com/users/kpreid/repos",
    "events_url": "https://api.github.com/users/kpreid/events{/privacy}",
    "received_events_url": "https://api.github.com/users/kpreid/received_events",
    "type": "User",
    "site_admin": false
  },
  "created_at": "2015-04-16T03:50:25Z",
  "updated_at": "2015-04-16T03:50:25Z",
  "body": "Comment [#6](https://code.google.com/p/google-caja/issues/detail?id=1073#c6) originally posted by ihab.awad on 2009-07-22T19:00:14.000Z:\n\nThanks, that helps."
}
, {
  "url": "https://api.github.com/repos/google/caja/issues/comments/93631634",
  "html_url": "https://github.com/google/caja/issues/1073#issuecomment-93631634",
  "issue_url": "https://api.github.com/repos/google/caja/issues/1073",
  "id": 93631634,
  "user": {
    "login": "kpreid",
    "id": 779501,
    "avatar_url": "https://avatars.githubusercontent.com/u/779501?v=3",
    "gravatar_id": "",
    "url": "https://api.github.com/users/kpreid",
    "html_url": "https://github.com/kpreid",
    "followers_url": "https://api.github.com/users/kpreid/followers",
    "following_url": "https://api.github.com/users/kpreid/following{/other_user}",
    "gists_url": "https://api.github.com/users/kpreid/gists{/gist_id}",
    "starred_url": "https://api.github.com/users/kpreid/starred{/owner}{/repo}",
    "subscriptions_url": "https://api.github.com/users/kpreid/subscriptions",
    "organizations_url": "https://api.github.com/users/kpreid/orgs",
    "repos_url": "https://api.github.com/users/kpreid/repos",
    "events_url": "https://api.github.com/users/kpreid/events{/privacy}",
    "received_events_url": "https://api.github.com/users/kpreid/received_events",
    "type": "User",
    "site_admin": false
  },
  "created_at": "2015-04-16T03:50:27Z",
  "updated_at": "2015-04-16T03:50:27Z",
  "body": "Comment [#7](https://code.google.com/p/google-caja/issues/detail?id=1073#c7) originally posted by ihab.awad on 2009-07-22T23:04:40.000Z:\n\nSo: Taming full XML is nontrivial. Reverting to unassigned for the time being."
}
, {
  "url": "https://api.github.com/repos/google/caja/issues/comments/93631640",
  "html_url": "https://github.com/google/caja/issues/1073#issuecomment-93631640",
  "issue_url": "https://api.github.com/repos/google/caja/issues/1073",
  "id": 93631640,
  "user": {
    "login": "kpreid",
    "id": 779501,
    "avatar_url": "https://avatars.githubusercontent.com/u/779501?v=3",
    "gravatar_id": "",
    "url": "https://api.github.com/users/kpreid",
    "html_url": "https://github.com/kpreid",
    "followers_url": "https://api.github.com/users/kpreid/followers",
    "following_url": "https://api.github.com/users/kpreid/following{/other_user}",
    "gists_url": "https://api.github.com/users/kpreid/gists{/gist_id}",
    "starred_url": "https://api.github.com/users/kpreid/starred{/owner}{/repo}",
    "subscriptions_url": "https://api.github.com/users/kpreid/subscriptions",
    "organizations_url": "https://api.github.com/users/kpreid/orgs",
    "repos_url": "https://api.github.com/users/kpreid/repos",
    "events_url": "https://api.github.com/users/kpreid/events{/privacy}",
    "received_events_url": "https://api.github.com/users/kpreid/received_events",
    "type": "User",
    "site_admin": false
  },
  "created_at": "2015-04-16T03:50:29Z",
  "updated_at": "2015-04-16T03:50:29Z",
  "body": "Comment [#8](https://code.google.com/p/google-caja/issues/detail?id=1073#c8) originally posted by jasvir on 2009-08-31T13:49:09.000Z:\n\n&lt;empty&gt;"
}
, {
  "url": "https://api.github.com/repos/google/caja/issues/comments/93631642",
  "html_url": "https://github.com/google/caja/issues/1073#issuecomment-93631642",
  "issue_url": "https://api.github.com/repos/google/caja/issues/1073",
  "id": 93631642,
  "user": {
    "login": "kpreid",
    "id": 779501,
    "avatar_url": "https://avatars.githubusercontent.com/u/779501?v=3",
    "gravatar_id": "",
    "url": "https://api.github.com/users/kpreid",
    "html_url": "https://github.com/kpreid",
    "followers_url": "https://api.github.com/users/kpreid/followers",
    "following_url": "https://api.github.com/users/kpreid/following{/other_user}",
    "gists_url": "https://api.github.com/users/kpreid/gists{/gist_id}",
    "starred_url": "https://api.github.com/users/kpreid/starred{/owner}{/repo}",
    "subscriptions_url": "https://api.github.com/users/kpreid/subscriptions",
    "organizations_url": "https://api.github.com/users/kpreid/orgs",
    "repos_url": "https://api.github.com/users/kpreid/repos",
    "events_url": "https://api.github.com/users/kpreid/events{/privacy}",
    "received_events_url": "https://api.github.com/users/kpreid/received_events",
    "type": "User",
    "site_admin": false
  },
  "created_at": "2015-04-16T03:50:31Z",
  "updated_at": "2015-04-16T03:50:31Z",
  "body": "Comment [#9](https://code.google.com/p/google-caja/issues/detail?id=1073#c9) originally posted by kpreid.switchb.org on 2013-07-16T20:12:02.000Z:\n\nThe DOMParser object is also an interface to parsing XML (from a string)"
}
, {
  "url": "https://api.github.com/repos/google/caja/issues/comments/93631646",
  "html_url": "https://github.com/google/caja/issues/1073#issuecomment-93631646",
  "issue_url": "https://api.github.com/repos/google/caja/issues/1073",
  "id": 93631646,
  "user": {
    "login": "kpreid",
    "id": 779501,
    "avatar_url": "https://avatars.githubusercontent.com/u/779501?v=3",
    "gravatar_id": "",
    "url": "https://api.github.com/users/kpreid",
    "html_url": "https://github.com/kpreid",
    "followers_url": "https://api.github.com/users/kpreid/followers",
    "following_url": "https://api.github.com/users/kpreid/following{/other_user}",
    "gists_url": "https://api.github.com/users/kpreid/gists{/gist_id}",
    "starred_url": "https://api.github.com/users/kpreid/starred{/owner}{/repo}",
    "subscriptions_url": "https://api.github.com/users/kpreid/subscriptions",
    "organizations_url": "https://api.github.com/users/kpreid/orgs",
    "repos_url": "https://api.github.com/users/kpreid/repos",
    "events_url": "https://api.github.com/users/kpreid/events{/privacy}",
    "received_events_url": "https://api.github.com/users/kpreid/received_events",
    "type": "User",
    "site_admin": false
  },
  "created_at": "2015-04-16T03:50:33Z",
  "updated_at": "2015-04-16T03:50:33Z",
  "body": "Comment [#10](https://code.google.com/p/google-caja/issues/detail?id=1073#c10) originally posted by kpreid@google.com on 2013-11-07T20:38:08.000Z:\n\n&lt;empty&gt;"
}
]
