[
{
  "url": "https://api.github.com/repos/google/caja/issues/comments/93649793",
  "html_url": "https://github.com/google/caja/issues/1938#issuecomment-93649793",
  "issue_url": "https://api.github.com/repos/google/caja/issues/1938",
  "id": 93649793,
  "user": {
    "login": "kpreid",
    "id": 779501,
    "avatar_url": "https://avatars.githubusercontent.com/u/779501?v=3",
    "gravatar_id": "",
    "url": "https://api.github.com/users/kpreid",
    "html_url": "https://github.com/kpreid",
    "followers_url": "https://api.github.com/users/kpreid/followers",
    "following_url": "https://api.github.com/users/kpreid/following{/other_user}",
    "gists_url": "https://api.github.com/users/kpreid/gists{/gist_id}",
    "starred_url": "https://api.github.com/users/kpreid/starred{/owner}{/repo}",
    "subscriptions_url": "https://api.github.com/users/kpreid/subscriptions",
    "organizations_url": "https://api.github.com/users/kpreid/orgs",
    "repos_url": "https://api.github.com/users/kpreid/repos",
    "events_url": "https://api.github.com/users/kpreid/events{/privacy}",
    "received_events_url": "https://api.github.com/users/kpreid/received_events",
    "type": "User",
    "site_admin": false
  },
  "created_at": "2015-04-16T05:50:30Z",
  "updated_at": "2015-04-16T05:50:30Z",
  "body": "Comment [#1](https://code.google.com/p/google-caja/issues/detail?id=1940#c1) originally posted by jason@ysci.jp on 2014-09-22T03:16:22.000Z:\n\nApps Script issue 4390:\r\n\r\nhttps://code.google.com/p/google-apps-script-issues/issues/detail?id=4390&colspec=Stars%20Opened%20ID%20Type%20Status%20Summary%20Component%20Owner"
}
]
