[
{
  "url": "https://api.github.com/repos/google/caja/issues/comments/93615900",
  "html_url": "https://github.com/google/caja/issues/253#issuecomment-93615900",
  "issue_url": "https://api.github.com/repos/google/caja/issues/253",
  "id": 93615900,
  "user": {
    "login": "kpreid",
    "id": 779501,
    "avatar_url": "https://avatars.githubusercontent.com/u/779501?v=3",
    "gravatar_id": "",
    "url": "https://api.github.com/users/kpreid",
    "html_url": "https://github.com/kpreid",
    "followers_url": "https://api.github.com/users/kpreid/followers",
    "following_url": "https://api.github.com/users/kpreid/following{/other_user}",
    "gists_url": "https://api.github.com/users/kpreid/gists{/gist_id}",
    "starred_url": "https://api.github.com/users/kpreid/starred{/owner}{/repo}",
    "subscriptions_url": "https://api.github.com/users/kpreid/subscriptions",
    "organizations_url": "https://api.github.com/users/kpreid/orgs",
    "repos_url": "https://api.github.com/users/kpreid/repos",
    "events_url": "https://api.github.com/users/kpreid/events{/privacy}",
    "received_events_url": "https://api.github.com/users/kpreid/received_events",
    "type": "User",
    "site_admin": false
  },
  "created_at": "2015-04-16T01:53:44Z",
  "updated_at": "2015-04-16T01:53:44Z",
  "body": "Comment [#1](https://code.google.com/p/google-caja/issues/detail?id=253#c1) originally posted by mikesamuel on 2008-05-10T01:29:01.000Z:\n\nI get \r\n    ERROR index.html:3+12 - 15: Expected ; not bbb\r\n    index.html:3:        aaa bbb ccc;\r\n                             ^^^\r\nin the caja testbed."
}
, {
  "url": "https://api.github.com/repos/google/caja/issues/comments/93615904",
  "html_url": "https://github.com/google/caja/issues/253#issuecomment-93615904",
  "issue_url": "https://api.github.com/repos/google/caja/issues/253",
  "id": 93615904,
  "user": {
    "login": "kpreid",
    "id": 779501,
    "avatar_url": "https://avatars.githubusercontent.com/u/779501?v=3",
    "gravatar_id": "",
    "url": "https://api.github.com/users/kpreid",
    "html_url": "https://github.com/kpreid",
    "followers_url": "https://api.github.com/users/kpreid/followers",
    "following_url": "https://api.github.com/users/kpreid/following{/other_user}",
    "gists_url": "https://api.github.com/users/kpreid/gists{/gist_id}",
    "starred_url": "https://api.github.com/users/kpreid/starred{/owner}{/repo}",
    "subscriptions_url": "https://api.github.com/users/kpreid/subscriptions",
    "organizations_url": "https://api.github.com/users/kpreid/orgs",
    "repos_url": "https://api.github.com/users/kpreid/repos",
    "events_url": "https://api.github.com/users/kpreid/events{/privacy}",
    "received_events_url": "https://api.github.com/users/kpreid/received_events",
    "type": "User",
    "site_admin": false
  },
  "created_at": "2015-04-16T01:53:46Z",
  "updated_at": "2015-04-16T01:53:46Z",
  "body": "Comment [#2](https://code.google.com/p/google-caja/issues/detail?id=253#c2) originally posted by mikesamuel on 2008-05-28T01:16:00.000Z:\n\n&lt;empty&gt;"
}
, {
  "url": "https://api.github.com/repos/google/caja/issues/comments/93615906",
  "html_url": "https://github.com/google/caja/issues/253#issuecomment-93615906",
  "issue_url": "https://api.github.com/repos/google/caja/issues/253",
  "id": 93615906,
  "user": {
    "login": "kpreid",
    "id": 779501,
    "avatar_url": "https://avatars.githubusercontent.com/u/779501?v=3",
    "gravatar_id": "",
    "url": "https://api.github.com/users/kpreid",
    "html_url": "https://github.com/kpreid",
    "followers_url": "https://api.github.com/users/kpreid/followers",
    "following_url": "https://api.github.com/users/kpreid/following{/other_user}",
    "gists_url": "https://api.github.com/users/kpreid/gists{/gist_id}",
    "starred_url": "https://api.github.com/users/kpreid/starred{/owner}{/repo}",
    "subscriptions_url": "https://api.github.com/users/kpreid/subscriptions",
    "organizations_url": "https://api.github.com/users/kpreid/orgs",
    "repos_url": "https://api.github.com/users/kpreid/repos",
    "events_url": "https://api.github.com/users/kpreid/events{/privacy}",
    "received_events_url": "https://api.github.com/users/kpreid/received_events",
    "type": "User",
    "site_admin": false
  },
  "created_at": "2015-04-16T01:53:48Z",
  "updated_at": "2015-04-16T01:53:48Z",
  "body": "Comment [#3](https://code.google.com/p/google-caja/issues/detail?id=253#c3) originally posted by luana_gata@giou.com on 2010-12-07T16:04:59.000Z:\n\nlegal"
}
, {
  "url": "https://api.github.com/repos/google/caja/issues/comments/93615908",
  "html_url": "https://github.com/google/caja/issues/253#issuecomment-93615908",
  "issue_url": "https://api.github.com/repos/google/caja/issues/253",
  "id": 93615908,
  "user": {
    "login": "kpreid",
    "id": 779501,
    "avatar_url": "https://avatars.githubusercontent.com/u/779501?v=3",
    "gravatar_id": "",
    "url": "https://api.github.com/users/kpreid",
    "html_url": "https://github.com/kpreid",
    "followers_url": "https://api.github.com/users/kpreid/followers",
    "following_url": "https://api.github.com/users/kpreid/following{/other_user}",
    "gists_url": "https://api.github.com/users/kpreid/gists{/gist_id}",
    "starred_url": "https://api.github.com/users/kpreid/starred{/owner}{/repo}",
    "subscriptions_url": "https://api.github.com/users/kpreid/subscriptions",
    "organizations_url": "https://api.github.com/users/kpreid/orgs",
    "repos_url": "https://api.github.com/users/kpreid/repos",
    "events_url": "https://api.github.com/users/kpreid/events{/privacy}",
    "received_events_url": "https://api.github.com/users/kpreid/received_events",
    "type": "User",
    "site_admin": false
  },
  "created_at": "2015-04-16T01:53:50Z",
  "updated_at": "2015-04-16T01:53:50Z",
  "body": "Comment [#4](https://code.google.com/p/google-caja/issues/detail?id=253#c4) originally posted by jasvir on 2012-05-11T18:19:29.000Z:\n\nEclipse plugin is not being maintained."
}
]
