[
{
  "url": "https://api.github.com/repos/ValveSoftware/Dota-2/issues/comments/143743167",
  "html_url": "https://github.com/ValveSoftware/Dota-2/issues/495#issuecomment-143743167",
  "issue_url": "https://api.github.com/repos/ValveSoftware/Dota-2/issues/495",
  "id": 143743167,
  "user": {
    "login": "danginsburg",
    "id": 375707,
    "avatar_url": "https://avatars.githubusercontent.com/u/375707?v=3",
    "gravatar_id": "",
    "url": "https://api.github.com/users/danginsburg",
    "html_url": "https://github.com/danginsburg",
    "followers_url": "https://api.github.com/users/danginsburg/followers",
    "following_url": "https://api.github.com/users/danginsburg/following{/other_user}",
    "gists_url": "https://api.github.com/users/danginsburg/gists{/gist_id}",
    "starred_url": "https://api.github.com/users/danginsburg/starred{/owner}{/repo}",
    "subscriptions_url": "https://api.github.com/users/danginsburg/subscriptions",
    "organizations_url": "https://api.github.com/users/danginsburg/orgs",
    "repos_url": "https://api.github.com/users/danginsburg/repos",
    "events_url": "https://api.github.com/users/danginsburg/events{/privacy}",
    "received_events_url": "https://api.github.com/users/danginsburg/received_events",
    "type": "User",
    "site_admin": false
  },
  "created_at": "2015-09-28T13:25:08Z",
  "updated_at": "2015-09-28T13:25:08Z",
  "body": "If you could run with -con_logfile and post game/dota/console.log from when this problem occurs there might be something in there we could use to track this down.  Also, please post full system specs from Steam -> Help -> System Information."
}
, {
  "url": "https://api.github.com/repos/ValveSoftware/Dota-2/issues/comments/150695026",
  "html_url": "https://github.com/ValveSoftware/Dota-2/issues/495#issuecomment-150695026",
  "issue_url": "https://api.github.com/repos/ValveSoftware/Dota-2/issues/495",
  "id": 150695026,
  "user": {
    "login": "gdrewb-valve",
    "id": 3083453,
    "avatar_url": "https://avatars.githubusercontent.com/u/3083453?v=3",
    "gravatar_id": "",
    "url": "https://api.github.com/users/gdrewb-valve",
    "html_url": "https://github.com/gdrewb-valve",
    "followers_url": "https://api.github.com/users/gdrewb-valve/followers",
    "following_url": "https://api.github.com/users/gdrewb-valve/following{/other_user}",
    "gists_url": "https://api.github.com/users/gdrewb-valve/gists{/gist_id}",
    "starred_url": "https://api.github.com/users/gdrewb-valve/starred{/owner}{/repo}",
    "subscriptions_url": "https://api.github.com/users/gdrewb-valve/subscriptions",
    "organizations_url": "https://api.github.com/users/gdrewb-valve/orgs",
    "repos_url": "https://api.github.com/users/gdrewb-valve/repos",
    "events_url": "https://api.github.com/users/gdrewb-valve/events{/privacy}",
    "received_events_url": "https://api.github.com/users/gdrewb-valve/received_events",
    "type": "User",
    "site_admin": false
  },
  "created_at": "2015-10-23T21:18:31Z",
  "updated_at": "2015-10-23T21:18:31Z",
  "body": "Closing pending more info."
}
]
