[
{
  "url": "https://api.github.com/repos/aws/aws-cli/issues/comments/59583576",
  "html_url": "https://github.com/aws/aws-cli/pull/954#issuecomment-59583576",
  "issue_url": "https://api.github.com/repos/aws/aws-cli/issues/954",
  "id": 59583576,
  "user": {
    "login": "kyleknap",
    "id": 4605355,
    "avatar_url": "https://avatars.githubusercontent.com/u/4605355?v=3",
    "gravatar_id": "",
    "url": "https://api.github.com/users/kyleknap",
    "html_url": "https://github.com/kyleknap",
    "followers_url": "https://api.github.com/users/kyleknap/followers",
    "following_url": "https://api.github.com/users/kyleknap/following{/other_user}",
    "gists_url": "https://api.github.com/users/kyleknap/gists{/gist_id}",
    "starred_url": "https://api.github.com/users/kyleknap/starred{/owner}{/repo}",
    "subscriptions_url": "https://api.github.com/users/kyleknap/subscriptions",
    "organizations_url": "https://api.github.com/users/kyleknap/orgs",
    "repos_url": "https://api.github.com/users/kyleknap/repos",
    "events_url": "https://api.github.com/users/kyleknap/events{/privacy}",
    "received_events_url": "https://api.github.com/users/kyleknap/received_events",
    "type": "User",
    "site_admin": false
  },
  "created_at": "2014-10-17T22:16:04Z",
  "updated_at": "2014-10-17T22:16:04Z",
  "body": "LGTM :ship:"
}
]
