[
{
  "url": "https://api.github.com/repos/mongodb/specifications/issues/comments/145031377",
  "html_url": "https://github.com/mongodb/specifications/pull/65#issuecomment-145031377",
  "issue_url": "https://api.github.com/repos/mongodb/specifications/issues/65",
  "id": 145031377,
  "user": {
    "login": "jyemin",
    "id": 1111546,
    "avatar_url": "https://avatars.githubusercontent.com/u/1111546?v=3",
    "gravatar_id": "",
    "url": "https://api.github.com/users/jyemin",
    "html_url": "https://github.com/jyemin",
    "followers_url": "https://api.github.com/users/jyemin/followers",
    "following_url": "https://api.github.com/users/jyemin/following{/other_user}",
    "gists_url": "https://api.github.com/users/jyemin/gists{/gist_id}",
    "starred_url": "https://api.github.com/users/jyemin/starred{/owner}{/repo}",
    "subscriptions_url": "https://api.github.com/users/jyemin/subscriptions",
    "organizations_url": "https://api.github.com/users/jyemin/orgs",
    "repos_url": "https://api.github.com/users/jyemin/repos",
    "events_url": "https://api.github.com/users/jyemin/events{/privacy}",
    "received_events_url": "https://api.github.com/users/jyemin/received_events",
    "type": "User",
    "site_admin": false
  },
  "created_at": "2015-10-02T14:07:35Z",
  "updated_at": "2015-10-02T14:07:35Z",
  "body": "lgtm.  confirmed that the new tests all pass in the Java driver branch that supports find/getMore commands."
}
, {
  "url": "https://api.github.com/repos/mongodb/specifications/issues/comments/145031980",
  "html_url": "https://github.com/mongodb/specifications/pull/65#issuecomment-145031980",
  "issue_url": "https://api.github.com/repos/mongodb/specifications/issues/65",
  "id": 145031980,
  "user": {
    "login": "craiggwilson",
    "id": 167901,
    "avatar_url": "https://avatars.githubusercontent.com/u/167901?v=3",
    "gravatar_id": "",
    "url": "https://api.github.com/users/craiggwilson",
    "html_url": "https://github.com/craiggwilson",
    "followers_url": "https://api.github.com/users/craiggwilson/followers",
    "following_url": "https://api.github.com/users/craiggwilson/following{/other_user}",
    "gists_url": "https://api.github.com/users/craiggwilson/gists{/gist_id}",
    "starred_url": "https://api.github.com/users/craiggwilson/starred{/owner}{/repo}",
    "subscriptions_url": "https://api.github.com/users/craiggwilson/subscriptions",
    "organizations_url": "https://api.github.com/users/craiggwilson/orgs",
    "repos_url": "https://api.github.com/users/craiggwilson/repos",
    "events_url": "https://api.github.com/users/craiggwilson/events{/privacy}",
    "received_events_url": "https://api.github.com/users/craiggwilson/received_events",
    "type": "User",
    "site_admin": false
  },
  "created_at": "2015-10-02T14:10:13Z",
  "updated_at": "2015-10-02T14:10:13Z",
  "body": "lgtm."
}
, {
  "url": "https://api.github.com/repos/mongodb/specifications/issues/comments/145102680",
  "html_url": "https://github.com/mongodb/specifications/pull/65#issuecomment-145102680",
  "issue_url": "https://api.github.com/repos/mongodb/specifications/issues/65",
  "id": 145102680,
  "user": {
    "login": "behackett",
    "id": 573553,
    "avatar_url": "https://avatars.githubusercontent.com/u/573553?v=3",
    "gravatar_id": "",
    "url": "https://api.github.com/users/behackett",
    "html_url": "https://github.com/behackett",
    "followers_url": "https://api.github.com/users/behackett/followers",
    "following_url": "https://api.github.com/users/behackett/following{/other_user}",
    "gists_url": "https://api.github.com/users/behackett/gists{/gist_id}",
    "starred_url": "https://api.github.com/users/behackett/starred{/owner}{/repo}",
    "subscriptions_url": "https://api.github.com/users/behackett/subscriptions",
    "organizations_url": "https://api.github.com/users/behackett/orgs",
    "repos_url": "https://api.github.com/users/behackett/repos",
    "events_url": "https://api.github.com/users/behackett/events{/privacy}",
    "received_events_url": "https://api.github.com/users/behackett/received_events",
    "type": "User",
    "site_admin": false
  },
  "created_at": "2015-10-02T17:54:58Z",
  "updated_at": "2015-10-02T17:54:58Z",
  "body": "Other than fixing the getMore batchSize issue @rstam raised, this LGTM"
}
]
