[
{
  "url": "https://api.github.com/repos/Microsoft/vscode/issues/comments/171615271",
  "html_url": "https://github.com/Microsoft/vscode/issues/1636#issuecomment-171615271",
  "issue_url": "https://api.github.com/repos/Microsoft/vscode/issues/1636",
  "id": 171615271,
  "user": {
    "login": "alexandrudima",
    "id": 5047891,
    "avatar_url": "https://avatars.githubusercontent.com/u/5047891?v=3",
    "gravatar_id": "",
    "url": "https://api.github.com/users/alexandrudima",
    "html_url": "https://github.com/alexandrudima",
    "followers_url": "https://api.github.com/users/alexandrudima/followers",
    "following_url": "https://api.github.com/users/alexandrudima/following{/other_user}",
    "gists_url": "https://api.github.com/users/alexandrudima/gists{/gist_id}",
    "starred_url": "https://api.github.com/users/alexandrudima/starred{/owner}{/repo}",
    "subscriptions_url": "https://api.github.com/users/alexandrudima/subscriptions",
    "organizations_url": "https://api.github.com/users/alexandrudima/orgs",
    "repos_url": "https://api.github.com/users/alexandrudima/repos",
    "events_url": "https://api.github.com/users/alexandrudima/events{/privacy}",
    "received_events_url": "https://api.github.com/users/alexandrudima/received_events",
    "type": "User",
    "site_admin": false
  },
  "created_at": "2016-01-14T11:12:41Z",
  "updated_at": "2016-01-14T11:12:41Z",
  "body": "@bgashler1 @aeschli \r\n\r\nThe selection color comes from the monokai theme: rgba(73, 72, 62, 0.5);\r\n\r\nThe \"selection matches\" color comes from our css:\r\n```\r\n.monaco-editor.vs-dark .selectionHighlight {\r\n    background-color: rgba(173,214,255,.15);\r\n}\r\n```\r\n\r\nShould we dynamically compute the `.selectionHighlight` color starting off the theme selection color?"
}
, {
  "url": "https://api.github.com/repos/Microsoft/vscode/issues/comments/179399920",
  "html_url": "https://github.com/Microsoft/vscode/issues/1636#issuecomment-179399920",
  "issue_url": "https://api.github.com/repos/Microsoft/vscode/issues/1636",
  "id": 179399920,
  "user": {
    "login": "bgashler1",
    "id": 11839736,
    "avatar_url": "https://avatars.githubusercontent.com/u/11839736?v=3",
    "gravatar_id": "",
    "url": "https://api.github.com/users/bgashler1",
    "html_url": "https://github.com/bgashler1",
    "followers_url": "https://api.github.com/users/bgashler1/followers",
    "following_url": "https://api.github.com/users/bgashler1/following{/other_user}",
    "gists_url": "https://api.github.com/users/bgashler1/gists{/gist_id}",
    "starred_url": "https://api.github.com/users/bgashler1/starred{/owner}{/repo}",
    "subscriptions_url": "https://api.github.com/users/bgashler1/subscriptions",
    "organizations_url": "https://api.github.com/users/bgashler1/orgs",
    "repos_url": "https://api.github.com/users/bgashler1/repos",
    "events_url": "https://api.github.com/users/bgashler1/events{/privacy}",
    "received_events_url": "https://api.github.com/users/bgashler1/received_events",
    "type": "User",
    "site_admin": false
  },
  "created_at": "2016-02-03T18:46:55Z",
  "updated_at": "2016-02-03T18:48:13Z",
  "body": "@alexandrudima sorry for my delayed response on this one.  I think this raises an even more interesting question.  Should we allow themes to modify the editor styles beyond what TextMate standards support?\r\n\r\nWhat if when we convert TextMate themes to VS Code, we add a reference to  boilerplate of additional customizations in either JSON or CSS (which are commented out by default).  These customizations could include \"selection matches\" and other VS Code specific things.  JSON would be the more conservative approach so that only specific values are further customizable and we don't open up the entire stylesheet to extensions.\r\n\r\nYour approach above (computing the `.selectionHilight`) sounds like a good fix as well (and it's certainly easier and more conservative).  I just wanted to throw out one more idea.  What are your thoughts?  Also, @stevencl what do you think?"
}
, {
  "url": "https://api.github.com/repos/Microsoft/vscode/issues/comments/179404964",
  "html_url": "https://github.com/Microsoft/vscode/issues/1636#issuecomment-179404964",
  "issue_url": "https://api.github.com/repos/Microsoft/vscode/issues/1636",
  "id": 179404964,
  "user": {
    "login": "Tyriar",
    "id": 2193314,
    "avatar_url": "https://avatars.githubusercontent.com/u/2193314?v=3",
    "gravatar_id": "",
    "url": "https://api.github.com/users/Tyriar",
    "html_url": "https://github.com/Tyriar",
    "followers_url": "https://api.github.com/users/Tyriar/followers",
    "following_url": "https://api.github.com/users/Tyriar/following{/other_user}",
    "gists_url": "https://api.github.com/users/Tyriar/gists{/gist_id}",
    "starred_url": "https://api.github.com/users/Tyriar/starred{/owner}{/repo}",
    "subscriptions_url": "https://api.github.com/users/Tyriar/subscriptions",
    "organizations_url": "https://api.github.com/users/Tyriar/orgs",
    "repos_url": "https://api.github.com/users/Tyriar/repos",
    "events_url": "https://api.github.com/users/Tyriar/events{/privacy}",
    "received_events_url": "https://api.github.com/users/Tyriar/received_events",
    "type": "User",
    "site_admin": false
  },
  "created_at": "2016-02-03T18:56:31Z",
  "updated_at": "2016-02-03T18:56:31Z",
  "body": "The [tmTheme editor](https://tmtheme-editor.herokuapp.com/#!/editor/theme/Monokai) I've used in the past allows specification of a selection color. Can that value be used?\r\n\r\n```xml\r\n<dict>\r\n\t...\r\n\t<key>settings</key>\r\n\t<array>\r\n\t\t<dict>\r\n\t\t\t<key>settings</key>\r\n\t\t\t<dict>\r\n\t\t\t\t...\r\n\t\t\t\t<key>lineHighlight</key>\r\n\t\t\t\t<string>#3E3D32</string>\r\n\t\t\t\t<key>selection</key>\r\n\t\t\t\t<string>#FFEA00</string>\r\n```"
}
, {
  "url": "https://api.github.com/repos/Microsoft/vscode/issues/comments/179757094",
  "html_url": "https://github.com/Microsoft/vscode/issues/1636#issuecomment-179757094",
  "issue_url": "https://api.github.com/repos/Microsoft/vscode/issues/1636",
  "id": 179757094,
  "user": {
    "login": "aeschli",
    "id": 6461412,
    "avatar_url": "https://avatars.githubusercontent.com/u/6461412?v=3",
    "gravatar_id": "",
    "url": "https://api.github.com/users/aeschli",
    "html_url": "https://github.com/aeschli",
    "followers_url": "https://api.github.com/users/aeschli/followers",
    "following_url": "https://api.github.com/users/aeschli/following{/other_user}",
    "gists_url": "https://api.github.com/users/aeschli/gists{/gist_id}",
    "starred_url": "https://api.github.com/users/aeschli/starred{/owner}{/repo}",
    "subscriptions_url": "https://api.github.com/users/aeschli/subscriptions",
    "organizations_url": "https://api.github.com/users/aeschli/orgs",
    "repos_url": "https://api.github.com/users/aeschli/repos",
    "events_url": "https://api.github.com/users/aeschli/events{/privacy}",
    "received_events_url": "https://api.github.com/users/aeschli/received_events",
    "type": "User",
    "site_admin": false
  },
  "created_at": "2016-02-04T10:26:11Z",
  "updated_at": "2016-02-04T10:26:11Z",
  "body": "The lineHighlight from themes is already used, for the line highlight :-)\r\n\r\nAdding vscode specific settings is a good option, the tmTheme format allows that. No need to change the theme format. However, as there are already hundreds of themes out there, we could also try to compute the missing color for all themes that don't define the new setting.\r\nBut how would we compute this? In this case, with the theme's selection color being gray we must know that we must rather something colorful to make a difference. But we must not conflict with any other highlights such as the find match and the work highlight. It's tricky."
}
, {
  "url": "https://api.github.com/repos/Microsoft/vscode/issues/comments/179774174",
  "html_url": "https://github.com/Microsoft/vscode/issues/1636#issuecomment-179774174",
  "issue_url": "https://api.github.com/repos/Microsoft/vscode/issues/1636",
  "id": 179774174,
  "user": {
    "login": "klaidliadon",
    "id": 5322228,
    "avatar_url": "https://avatars.githubusercontent.com/u/5322228?v=3",
    "gravatar_id": "",
    "url": "https://api.github.com/users/klaidliadon",
    "html_url": "https://github.com/klaidliadon",
    "followers_url": "https://api.github.com/users/klaidliadon/followers",
    "following_url": "https://api.github.com/users/klaidliadon/following{/other_user}",
    "gists_url": "https://api.github.com/users/klaidliadon/gists{/gist_id}",
    "starred_url": "https://api.github.com/users/klaidliadon/starred{/owner}{/repo}",
    "subscriptions_url": "https://api.github.com/users/klaidliadon/subscriptions",
    "organizations_url": "https://api.github.com/users/klaidliadon/orgs",
    "repos_url": "https://api.github.com/users/klaidliadon/repos",
    "events_url": "https://api.github.com/users/klaidliadon/events{/privacy}",
    "received_events_url": "https://api.github.com/users/klaidliadon/received_events",
    "type": "User",
    "site_admin": false
  },
  "created_at": "2016-02-04T11:08:41Z",
  "updated_at": "2016-02-04T16:40:26Z",
  "body": "You could take the RGB difference between background and selection, and use a color that is something like:\r\n\r\n* bg + diff/2\r\n* bg - diff/2\r\n\r\nor you could just make the text less lighter/darker of the background, if it's a match and not a selection.\r\n"
}
]
