[
{
  "url": "https://api.github.com/repos/yahoo/mojito/issues/comments/9313819",
  "html_url": "https://github.com/yahoo/mojito/issues/609#issuecomment-9313819",
  "issue_url": "https://api.github.com/repos/yahoo/mojito/issues/609",
  "id": 9313819,
  "user": {
    "login": "isao",
    "id": 46951,
    "avatar_url": "https://avatars.githubusercontent.com/u/46951?v=3",
    "gravatar_id": "",
    "url": "https://api.github.com/users/isao",
    "html_url": "https://github.com/isao",
    "followers_url": "https://api.github.com/users/isao/followers",
    "following_url": "https://api.github.com/users/isao/following{/other_user}",
    "gists_url": "https://api.github.com/users/isao/gists{/gist_id}",
    "starred_url": "https://api.github.com/users/isao/starred{/owner}{/repo}",
    "subscriptions_url": "https://api.github.com/users/isao/subscriptions",
    "organizations_url": "https://api.github.com/users/isao/orgs",
    "repos_url": "https://api.github.com/users/isao/repos",
    "events_url": "https://api.github.com/users/isao/events{/privacy}",
    "received_events_url": "https://api.github.com/users/isao/received_events",
    "type": "User",
    "site_admin": false
  },
  "created_at": "2012-10-10T18:22:11Z",
  "updated_at": "2012-10-10T18:22:11Z",
  "body": "error on my part? problem may be with archtypes I'm working with. Retesting on head of develop seems ok. Closing"
}
, {
  "url": "https://api.github.com/repos/yahoo/mojito/issues/comments/9322872",
  "html_url": "https://github.com/yahoo/mojito/issues/609#issuecomment-9322872",
  "issue_url": "https://api.github.com/repos/yahoo/mojito/issues/609",
  "id": 9322872,
  "user": {
    "login": "isao",
    "id": 46951,
    "avatar_url": "https://avatars.githubusercontent.com/u/46951?v=3",
    "gravatar_id": "",
    "url": "https://api.github.com/users/isao",
    "html_url": "https://github.com/isao",
    "followers_url": "https://api.github.com/users/isao/followers",
    "following_url": "https://api.github.com/users/isao/following{/other_user}",
    "gists_url": "https://api.github.com/users/isao/gists{/gist_id}",
    "starred_url": "https://api.github.com/users/isao/starred{/owner}{/repo}",
    "subscriptions_url": "https://api.github.com/users/isao/subscriptions",
    "organizations_url": "https://api.github.com/users/isao/orgs",
    "repos_url": "https://api.github.com/users/isao/repos",
    "events_url": "https://api.github.com/users/isao/events{/privacy}",
    "received_events_url": "https://api.github.com/users/isao/received_events",
    "type": "User",
    "site_admin": false
  },
  "created_at": "2012-10-10T22:59:09Z",
  "updated_at": "2012-10-10T22:59:09Z",
  "body": "sorry for the flip-flop, the problem does indeed exist."
}
, {
  "url": "https://api.github.com/repos/yahoo/mojito/issues/comments/9323014",
  "html_url": "https://github.com/yahoo/mojito/issues/609#issuecomment-9323014",
  "issue_url": "https://api.github.com/repos/yahoo/mojito/issues/609",
  "id": 9323014,
  "user": {
    "login": "isao",
    "id": 46951,
    "avatar_url": "https://avatars.githubusercontent.com/u/46951?v=3",
    "gravatar_id": "",
    "url": "https://api.github.com/users/isao",
    "html_url": "https://github.com/isao",
    "followers_url": "https://api.github.com/users/isao/followers",
    "following_url": "https://api.github.com/users/isao/following{/other_user}",
    "gists_url": "https://api.github.com/users/isao/gists{/gist_id}",
    "starred_url": "https://api.github.com/users/isao/starred{/owner}{/repo}",
    "subscriptions_url": "https://api.github.com/users/isao/subscriptions",
    "organizations_url": "https://api.github.com/users/isao/orgs",
    "repos_url": "https://api.github.com/users/isao/repos",
    "events_url": "https://api.github.com/users/isao/events{/privacy}",
    "received_events_url": "https://api.github.com/users/isao/received_events",
    "type": "User",
    "site_admin": false
  },
  "created_at": "2012-10-10T23:04:54Z",
  "updated_at": "2012-10-10T23:04:54Z",
  "body": "ahh. not my day. error caused by mis-match of mojit name and mojit's package.json name.\r\n\r\nsorry for the noise, closing for real."
}
]
