[
{
  "url": "https://api.github.com/repos/yahoo/mojito/issues/comments/11317002",
  "html_url": "https://github.com/yahoo/mojito/pull/856#issuecomment-11317002",
  "issue_url": "https://api.github.com/repos/yahoo/mojito/issues/856",
  "id": 11317002,
  "user": {
    "login": "add0n",
    "id": 1530018,
    "avatar_url": "https://avatars.githubusercontent.com/u/1530018?v=3",
    "gravatar_id": "",
    "url": "https://api.github.com/users/add0n",
    "html_url": "https://github.com/add0n",
    "followers_url": "https://api.github.com/users/add0n/followers",
    "following_url": "https://api.github.com/users/add0n/following{/other_user}",
    "gists_url": "https://api.github.com/users/add0n/gists{/gist_id}",
    "starred_url": "https://api.github.com/users/add0n/starred{/owner}{/repo}",
    "subscriptions_url": "https://api.github.com/users/add0n/subscriptions",
    "organizations_url": "https://api.github.com/users/add0n/orgs",
    "repos_url": "https://api.github.com/users/add0n/repos",
    "events_url": "https://api.github.com/users/add0n/events{/privacy}",
    "received_events_url": "https://api.github.com/users/add0n/received_events",
    "type": "User",
    "site_admin": false
  },
  "created_at": "2012-12-13T00:32:14Z",
  "updated_at": "2012-12-13T00:32:14Z",
  "body": "+1"
}
]
