[
{
  "url": "https://api.github.com/repos/adafruit/Bluefruit_LE_Connect/issues/comments/80754100",
  "html_url": "https://github.com/adafruit/Bluefruit_LE_Connect/issues/7#issuecomment-80754100",
  "issue_url": "https://api.github.com/repos/adafruit/Bluefruit_LE_Connect/issues/7",
  "id": 80754100,
  "user": {
    "login": "Haifisch",
    "id": 880781,
    "avatar_url": "https://avatars.githubusercontent.com/u/880781?v=3",
    "gravatar_id": "",
    "url": "https://api.github.com/users/Haifisch",
    "html_url": "https://github.com/Haifisch",
    "followers_url": "https://api.github.com/users/Haifisch/followers",
    "following_url": "https://api.github.com/users/Haifisch/following{/other_user}",
    "gists_url": "https://api.github.com/users/Haifisch/gists{/gist_id}",
    "starred_url": "https://api.github.com/users/Haifisch/starred{/owner}{/repo}",
    "subscriptions_url": "https://api.github.com/users/Haifisch/subscriptions",
    "organizations_url": "https://api.github.com/users/Haifisch/orgs",
    "repos_url": "https://api.github.com/users/Haifisch/repos",
    "events_url": "https://api.github.com/users/Haifisch/events{/privacy}",
    "received_events_url": "https://api.github.com/users/Haifisch/received_events",
    "type": "User",
    "site_admin": false
  },
  "created_at": "2015-03-14T22:59:29Z",
  "updated_at": "2015-03-14T22:59:29Z",
  "body": "It would be nice to have two separate branches that splits the project between ObjC and Swift implementations, therefore we would have an example in both languages. "
}
, {
  "url": "https://api.github.com/repos/adafruit/Bluefruit_LE_Connect/issues/comments/112052982",
  "html_url": "https://github.com/adafruit/Bluefruit_LE_Connect/issues/7#issuecomment-112052982",
  "issue_url": "https://api.github.com/repos/adafruit/Bluefruit_LE_Connect/issues/7",
  "id": 112052982,
  "user": {
    "login": "heinemml",
    "id": 1272630,
    "avatar_url": "https://avatars.githubusercontent.com/u/1272630?v=3",
    "gravatar_id": "",
    "url": "https://api.github.com/users/heinemml",
    "html_url": "https://github.com/heinemml",
    "followers_url": "https://api.github.com/users/heinemml/followers",
    "following_url": "https://api.github.com/users/heinemml/following{/other_user}",
    "gists_url": "https://api.github.com/users/heinemml/gists{/gist_id}",
    "starred_url": "https://api.github.com/users/heinemml/starred{/owner}{/repo}",
    "subscriptions_url": "https://api.github.com/users/heinemml/subscriptions",
    "organizations_url": "https://api.github.com/users/heinemml/orgs",
    "repos_url": "https://api.github.com/users/heinemml/repos",
    "events_url": "https://api.github.com/users/heinemml/events{/privacy}",
    "received_events_url": "https://api.github.com/users/heinemml/received_events",
    "type": "User",
    "site_admin": false
  },
  "created_at": "2015-06-15T12:44:25Z",
  "updated_at": "2015-06-15T12:44:25Z",
  "body": "The last version in ObjC is (I think) in this Commit: https://github.com/adafruit/Bluefruit_LE_Connect/tree/04f455543c61fd1d5ea01f0145fb1871c2fd6b1f\r\nYou can check it out via git or just download the .zip file as you would from current code.\r\n\r\n"
}
]
