[
{
  "url": "https://api.github.com/repos/google/google-toolbox-for-mac/issues/comments/94952053",
  "html_url": "https://github.com/google/google-toolbox-for-mac/issues/44#issuecomment-94952053",
  "issue_url": "https://api.github.com/repos/google/google-toolbox-for-mac/issues/44",
  "id": 94952053,
  "user": {
    "login": "GoogleCodeExporter",
    "id": 9614759,
    "avatar_url": "https://avatars.githubusercontent.com/u/9614759?v=3",
    "gravatar_id": "",
    "url": "https://api.github.com/users/GoogleCodeExporter",
    "html_url": "https://github.com/GoogleCodeExporter",
    "followers_url": "https://api.github.com/users/GoogleCodeExporter/followers",
    "following_url": "https://api.github.com/users/GoogleCodeExporter/following{/other_user}",
    "gists_url": "https://api.github.com/users/GoogleCodeExporter/gists{/gist_id}",
    "starred_url": "https://api.github.com/users/GoogleCodeExporter/starred{/owner}{/repo}",
    "subscriptions_url": "https://api.github.com/users/GoogleCodeExporter/subscriptions",
    "organizations_url": "https://api.github.com/users/GoogleCodeExporter/orgs",
    "repos_url": "https://api.github.com/users/GoogleCodeExporter/repos",
    "events_url": "https://api.github.com/users/GoogleCodeExporter/events{/privacy}",
    "received_events_url": "https://api.github.com/users/GoogleCodeExporter/received_events",
    "type": "User",
    "site_admin": false
  },
  "created_at": "2015-04-21T21:44:21Z",
  "updated_at": "2015-04-21T21:44:21Z",
  "body": "\n\nOriginal comment by `dmaclach` on 20 Jan 2010 at 3:29\n* Changed state: **Duplicate**"
}
, {
  "url": "https://api.github.com/repos/google/google-toolbox-for-mac/issues/comments/94952055",
  "html_url": "https://github.com/google/google-toolbox-for-mac/issues/44#issuecomment-94952055",
  "issue_url": "https://api.github.com/repos/google/google-toolbox-for-mac/issues/44",
  "id": 94952055,
  "user": {
    "login": "GoogleCodeExporter",
    "id": 9614759,
    "avatar_url": "https://avatars.githubusercontent.com/u/9614759?v=3",
    "gravatar_id": "",
    "url": "https://api.github.com/users/GoogleCodeExporter",
    "html_url": "https://github.com/GoogleCodeExporter",
    "followers_url": "https://api.github.com/users/GoogleCodeExporter/followers",
    "following_url": "https://api.github.com/users/GoogleCodeExporter/following{/other_user}",
    "gists_url": "https://api.github.com/users/GoogleCodeExporter/gists{/gist_id}",
    "starred_url": "https://api.github.com/users/GoogleCodeExporter/starred{/owner}{/repo}",
    "subscriptions_url": "https://api.github.com/users/GoogleCodeExporter/subscriptions",
    "organizations_url": "https://api.github.com/users/GoogleCodeExporter/orgs",
    "repos_url": "https://api.github.com/users/GoogleCodeExporter/repos",
    "events_url": "https://api.github.com/users/GoogleCodeExporter/events{/privacy}",
    "received_events_url": "https://api.github.com/users/GoogleCodeExporter/received_events",
    "type": "User",
    "site_admin": false
  },
  "created_at": "2015-04-21T21:44:21Z",
  "updated_at": "2015-04-21T21:44:21Z",
  "body": "```\nFix is in for review.\n```\n\nOriginal comment by `dmaclach` on 20 Jan 2010 at 4:03\n* Changed state: **Started**"
}
, {
  "url": "https://api.github.com/repos/google/google-toolbox-for-mac/issues/comments/94952058",
  "html_url": "https://github.com/google/google-toolbox-for-mac/issues/44#issuecomment-94952058",
  "issue_url": "https://api.github.com/repos/google/google-toolbox-for-mac/issues/44",
  "id": 94952058,
  "user": {
    "login": "GoogleCodeExporter",
    "id": 9614759,
    "avatar_url": "https://avatars.githubusercontent.com/u/9614759?v=3",
    "gravatar_id": "",
    "url": "https://api.github.com/users/GoogleCodeExporter",
    "html_url": "https://github.com/GoogleCodeExporter",
    "followers_url": "https://api.github.com/users/GoogleCodeExporter/followers",
    "following_url": "https://api.github.com/users/GoogleCodeExporter/following{/other_user}",
    "gists_url": "https://api.github.com/users/GoogleCodeExporter/gists{/gist_id}",
    "starred_url": "https://api.github.com/users/GoogleCodeExporter/starred{/owner}{/repo}",
    "subscriptions_url": "https://api.github.com/users/GoogleCodeExporter/subscriptions",
    "organizations_url": "https://api.github.com/users/GoogleCodeExporter/orgs",
    "repos_url": "https://api.github.com/users/GoogleCodeExporter/repos",
    "events_url": "https://api.github.com/users/GoogleCodeExporter/events{/privacy}",
    "received_events_url": "https://api.github.com/users/GoogleCodeExporter/received_events",
    "type": "User",
    "site_admin": false
  },
  "created_at": "2015-04-21T21:44:21Z",
  "updated_at": "2015-04-21T21:44:21Z",
  "body": "\n\nOriginal comment by `dmaclach` on 20 Jan 2010 at 4:03\n* Changed state: **Duplicate**"
}
]
