[
{
  "url": "https://api.github.com/repos/Microsoft/dotnet-apiport/issues/comments/153526539",
  "html_url": "https://github.com/Microsoft/dotnet-apiport/pull/178#issuecomment-153526539",
  "issue_url": "https://api.github.com/repos/Microsoft/dotnet-apiport/issues/178",
  "id": 153526539,
  "user": {
    "login": "conniey",
    "id": 10136526,
    "avatar_url": "https://avatars.githubusercontent.com/u/10136526?v=3",
    "gravatar_id": "",
    "url": "https://api.github.com/users/conniey",
    "html_url": "https://github.com/conniey",
    "followers_url": "https://api.github.com/users/conniey/followers",
    "following_url": "https://api.github.com/users/conniey/following{/other_user}",
    "gists_url": "https://api.github.com/users/conniey/gists{/gist_id}",
    "starred_url": "https://api.github.com/users/conniey/starred{/owner}{/repo}",
    "subscriptions_url": "https://api.github.com/users/conniey/subscriptions",
    "organizations_url": "https://api.github.com/users/conniey/orgs",
    "repos_url": "https://api.github.com/users/conniey/repos",
    "events_url": "https://api.github.com/users/conniey/events{/privacy}",
    "received_events_url": "https://api.github.com/users/conniey/received_events",
    "type": "User",
    "site_admin": false
  },
  "created_at": "2015-11-03T23:47:50Z",
  "updated_at": "2015-11-03T23:47:50Z",
  "body": "LGTM"
}
]
