[
{
  "url": "https://api.github.com/repos/square/sqlbrite/issues/comments/150259125",
  "html_url": "https://github.com/square/sqlbrite/issues/69#issuecomment-150259125",
  "issue_url": "https://api.github.com/repos/square/sqlbrite/issues/69",
  "id": 150259125,
  "user": {
    "login": "JakeWharton",
    "id": 66577,
    "avatar_url": "https://avatars.githubusercontent.com/u/66577?v=3",
    "gravatar_id": "",
    "url": "https://api.github.com/users/JakeWharton",
    "html_url": "https://github.com/JakeWharton",
    "followers_url": "https://api.github.com/users/JakeWharton/followers",
    "following_url": "https://api.github.com/users/JakeWharton/following{/other_user}",
    "gists_url": "https://api.github.com/users/JakeWharton/gists{/gist_id}",
    "starred_url": "https://api.github.com/users/JakeWharton/starred{/owner}{/repo}",
    "subscriptions_url": "https://api.github.com/users/JakeWharton/subscriptions",
    "organizations_url": "https://api.github.com/users/JakeWharton/orgs",
    "repos_url": "https://api.github.com/users/JakeWharton/repos",
    "events_url": "https://api.github.com/users/JakeWharton/events{/privacy}",
    "received_events_url": "https://api.github.com/users/JakeWharton/received_events",
    "type": "User",
    "site_admin": false
  },
  "created_at": "2015-10-22T15:18:58Z",
  "updated_at": "2015-10-22T15:19:10Z",
  "body": "Both of these methods are `final` so they cannot be overridden. You can invert the order in which they're called: `mapToOne().take(1)` and `mapToOne().skip(1)`. Unfortunately in the latter case it wastes an allocation doing the map only to just drop it. The `take` case is exactly the same though."
}
, {
  "url": "https://api.github.com/repos/square/sqlbrite/issues/comments/150260852",
  "html_url": "https://github.com/square/sqlbrite/issues/69#issuecomment-150260852",
  "issue_url": "https://api.github.com/repos/square/sqlbrite/issues/69",
  "id": 150260852,
  "user": {
    "login": "chrisjenx",
    "id": 1167793,
    "avatar_url": "https://avatars.githubusercontent.com/u/1167793?v=3",
    "gravatar_id": "",
    "url": "https://api.github.com/users/chrisjenx",
    "html_url": "https://github.com/chrisjenx",
    "followers_url": "https://api.github.com/users/chrisjenx/followers",
    "following_url": "https://api.github.com/users/chrisjenx/following{/other_user}",
    "gists_url": "https://api.github.com/users/chrisjenx/gists{/gist_id}",
    "starred_url": "https://api.github.com/users/chrisjenx/starred{/owner}{/repo}",
    "subscriptions_url": "https://api.github.com/users/chrisjenx/subscriptions",
    "organizations_url": "https://api.github.com/users/chrisjenx/orgs",
    "repos_url": "https://api.github.com/users/chrisjenx/repos",
    "events_url": "https://api.github.com/users/chrisjenx/events{/privacy}",
    "received_events_url": "https://api.github.com/users/chrisjenx/received_events",
    "type": "User",
    "site_admin": false
  },
  "created_at": "2015-10-22T15:24:45Z",
  "updated_at": "2015-10-22T15:25:18Z",
  "body": "Well the problem with the former `mapToOne().take(1)` case, is that if the row does not exist nothing is emitted, then it will wait indefinitely (or at least until that row actually exists and table is triggered).\r\n\r\nIn some cases we want to do: `mapToOne().take(1).switchOnEmpty(createFooBar())`.\r\n\r\n"
}
, {
  "url": "https://api.github.com/repos/square/sqlbrite/issues/comments/150261667",
  "html_url": "https://github.com/square/sqlbrite/issues/69#issuecomment-150261667",
  "issue_url": "https://api.github.com/repos/square/sqlbrite/issues/69",
  "id": 150261667,
  "user": {
    "login": "chrisjenx",
    "id": 1167793,
    "avatar_url": "https://avatars.githubusercontent.com/u/1167793?v=3",
    "gravatar_id": "",
    "url": "https://api.github.com/users/chrisjenx",
    "html_url": "https://github.com/chrisjenx",
    "followers_url": "https://api.github.com/users/chrisjenx/followers",
    "following_url": "https://api.github.com/users/chrisjenx/following{/other_user}",
    "gists_url": "https://api.github.com/users/chrisjenx/gists{/gist_id}",
    "starred_url": "https://api.github.com/users/chrisjenx/starred{/owner}{/repo}",
    "subscriptions_url": "https://api.github.com/users/chrisjenx/subscriptions",
    "organizations_url": "https://api.github.com/users/chrisjenx/orgs",
    "repos_url": "https://api.github.com/users/chrisjenx/repos",
    "events_url": "https://api.github.com/users/chrisjenx/events{/privacy}",
    "received_events_url": "https://api.github.com/users/chrisjenx/received_events",
    "type": "User",
    "site_admin": false
  },
  "created_at": "2015-10-22T15:27:36Z",
  "updated_at": "2015-10-22T15:27:36Z",
  "body": "So to get around the _zero results_ issue I have been doing something like this:\r\n\r\n```\r\n.mapToOneOrDefault(Mappers.CAMERA_FEATURE, null)\r\n.first()\r\n.flatMap(cameraFeature -> {\r\n      if (cameraFeature == null) {\r\n            return //do something else\r\n      } \r\n      return Observable.just(cameraFeature);\r\n})\r\n```"
}
, {
  "url": "https://api.github.com/repos/square/sqlbrite/issues/comments/150891409",
  "html_url": "https://github.com/square/sqlbrite/issues/69#issuecomment-150891409",
  "issue_url": "https://api.github.com/repos/square/sqlbrite/issues/69",
  "id": 150891409,
  "user": {
    "login": "JakeWharton",
    "id": 66577,
    "avatar_url": "https://avatars.githubusercontent.com/u/66577?v=3",
    "gravatar_id": "",
    "url": "https://api.github.com/users/JakeWharton",
    "html_url": "https://github.com/JakeWharton",
    "followers_url": "https://api.github.com/users/JakeWharton/followers",
    "following_url": "https://api.github.com/users/JakeWharton/following{/other_user}",
    "gists_url": "https://api.github.com/users/JakeWharton/gists{/gist_id}",
    "starred_url": "https://api.github.com/users/JakeWharton/starred{/owner}{/repo}",
    "subscriptions_url": "https://api.github.com/users/JakeWharton/subscriptions",
    "organizations_url": "https://api.github.com/users/JakeWharton/orgs",
    "repos_url": "https://api.github.com/users/JakeWharton/repos",
    "events_url": "https://api.github.com/users/JakeWharton/events{/privacy}",
    "received_events_url": "https://api.github.com/users/JakeWharton/received_events",
    "type": "User",
    "site_admin": false
  },
  "created_at": "2015-10-25T04:35:18Z",
  "updated_at": "2015-10-25T04:35:18Z",
  "body": "Got it. Have some ideas to play with tonight or tomorrow."
}
]
