[
{
  "url": "https://api.github.com/repos/chef/omnibus-pushy/issues/comments/13557707",
  "html_url": "https://github.com/chef/omnibus-pushy/pull/20#issuecomment-13557707",
  "issue_url": "https://api.github.com/repos/chef/omnibus-pushy/issues/20",
  "id": 13557707,
  "user": {
    "login": "jkeiser",
    "id": 654882,
    "avatar_url": "https://avatars.githubusercontent.com/u/654882?v=3",
    "gravatar_id": "",
    "url": "https://api.github.com/users/jkeiser",
    "html_url": "https://github.com/jkeiser",
    "followers_url": "https://api.github.com/users/jkeiser/followers",
    "following_url": "https://api.github.com/users/jkeiser/following{/other_user}",
    "gists_url": "https://api.github.com/users/jkeiser/gists{/gist_id}",
    "starred_url": "https://api.github.com/users/jkeiser/starred{/owner}{/repo}",
    "subscriptions_url": "https://api.github.com/users/jkeiser/subscriptions",
    "organizations_url": "https://api.github.com/users/jkeiser/orgs",
    "repos_url": "https://api.github.com/users/jkeiser/repos",
    "events_url": "https://api.github.com/users/jkeiser/events{/privacy}",
    "received_events_url": "https://api.github.com/users/jkeiser/received_events",
    "type": "User",
    "site_admin": false
  },
  "created_at": "2013-02-14T15:48:14Z",
  "updated_at": "2013-02-14T15:48:14Z",
  "body": "Check it in!  chef 11 good.  FYI the commit history for this one-liner is a little large, if you care (I don't :)."
}
, {
  "url": "https://api.github.com/repos/chef/omnibus-pushy/issues/comments/13559729",
  "html_url": "https://github.com/chef/omnibus-pushy/pull/20#issuecomment-13559729",
  "issue_url": "https://api.github.com/repos/chef/omnibus-pushy/issues/20",
  "id": 13559729,
  "user": {
    "login": "seth",
    "id": 1619,
    "avatar_url": "https://avatars.githubusercontent.com/u/1619?v=3",
    "gravatar_id": "",
    "url": "https://api.github.com/users/seth",
    "html_url": "https://github.com/seth",
    "followers_url": "https://api.github.com/users/seth/followers",
    "following_url": "https://api.github.com/users/seth/following{/other_user}",
    "gists_url": "https://api.github.com/users/seth/gists{/gist_id}",
    "starred_url": "https://api.github.com/users/seth/starred{/owner}{/repo}",
    "subscriptions_url": "https://api.github.com/users/seth/subscriptions",
    "organizations_url": "https://api.github.com/users/seth/orgs",
    "repos_url": "https://api.github.com/users/seth/repos",
    "events_url": "https://api.github.com/users/seth/events{/privacy}",
    "received_events_url": "https://api.github.com/users/seth/received_events",
    "type": "User",
    "site_admin": false
  },
  "created_at": "2013-02-14T16:07:41Z",
  "updated_at": "2013-02-14T16:07:41Z",
  "body": "Please to care! :)\r\nYou can squash this to a single commit and it will make the history much easier to understand."
}
, {
  "url": "https://api.github.com/repos/chef/omnibus-pushy/issues/comments/13560729",
  "html_url": "https://github.com/chef/omnibus-pushy/pull/20#issuecomment-13560729",
  "issue_url": "https://api.github.com/repos/chef/omnibus-pushy/issues/20",
  "id": 13560729,
  "user": {
    "login": "schisamo",
    "id": 6164,
    "avatar_url": "https://avatars.githubusercontent.com/u/6164?v=3",
    "gravatar_id": "",
    "url": "https://api.github.com/users/schisamo",
    "html_url": "https://github.com/schisamo",
    "followers_url": "https://api.github.com/users/schisamo/followers",
    "following_url": "https://api.github.com/users/schisamo/following{/other_user}",
    "gists_url": "https://api.github.com/users/schisamo/gists{/gist_id}",
    "starred_url": "https://api.github.com/users/schisamo/starred{/owner}{/repo}",
    "subscriptions_url": "https://api.github.com/users/schisamo/subscriptions",
    "organizations_url": "https://api.github.com/users/schisamo/orgs",
    "repos_url": "https://api.github.com/users/schisamo/repos",
    "events_url": "https://api.github.com/users/schisamo/events{/privacy}",
    "received_events_url": "https://api.github.com/users/schisamo/received_events",
    "type": "User",
    "site_admin": false
  },
  "created_at": "2013-02-14T16:16:43Z",
  "updated_at": "2013-02-14T16:16:43Z",
  "body": "+1000000 on proper git hygiene! IMHO it needs to be engineering team policy to always take the time to clean up your feature branch before a merge. You wouldn't publish a blog post or article without proper editing! :)"
}
, {
  "url": "https://api.github.com/repos/chef/omnibus-pushy/issues/comments/13564770",
  "html_url": "https://github.com/chef/omnibus-pushy/pull/20#issuecomment-13564770",
  "issue_url": "https://api.github.com/repos/chef/omnibus-pushy/issues/20",
  "id": 13564770,
  "user": {
    "login": "adamedx",
    "id": 2422125,
    "avatar_url": "https://avatars.githubusercontent.com/u/2422125?v=3",
    "gravatar_id": "",
    "url": "https://api.github.com/users/adamedx",
    "html_url": "https://github.com/adamedx",
    "followers_url": "https://api.github.com/users/adamedx/followers",
    "following_url": "https://api.github.com/users/adamedx/following{/other_user}",
    "gists_url": "https://api.github.com/users/adamedx/gists{/gist_id}",
    "starred_url": "https://api.github.com/users/adamedx/starred{/owner}{/repo}",
    "subscriptions_url": "https://api.github.com/users/adamedx/subscriptions",
    "organizations_url": "https://api.github.com/users/adamedx/orgs",
    "repos_url": "https://api.github.com/users/adamedx/repos",
    "events_url": "https://api.github.com/users/adamedx/events{/privacy}",
    "received_events_url": "https://api.github.com/users/adamedx/received_events",
    "type": "User",
    "site_admin": false
  },
  "created_at": "2013-02-14T16:51:30Z",
  "updated_at": "2013-02-14T16:51:30Z",
  "body": "I didn't notice the history was crazy, thank you for pointing that out. Let me fix it and then find out why it turned out this way -- all I did was create a fresh clone, then edit, then branch, then a pull, then push. "
}
, {
  "url": "https://api.github.com/repos/chef/omnibus-pushy/issues/comments/13568987",
  "html_url": "https://github.com/chef/omnibus-pushy/pull/20#issuecomment-13568987",
  "issue_url": "https://api.github.com/repos/chef/omnibus-pushy/issues/20",
  "id": 13568987,
  "user": {
    "login": "adamedx",
    "id": 2422125,
    "avatar_url": "https://avatars.githubusercontent.com/u/2422125?v=3",
    "gravatar_id": "",
    "url": "https://api.github.com/users/adamedx",
    "html_url": "https://github.com/adamedx",
    "followers_url": "https://api.github.com/users/adamedx/followers",
    "following_url": "https://api.github.com/users/adamedx/following{/other_user}",
    "gists_url": "https://api.github.com/users/adamedx/gists{/gist_id}",
    "starred_url": "https://api.github.com/users/adamedx/starred{/owner}{/repo}",
    "subscriptions_url": "https://api.github.com/users/adamedx/subscriptions",
    "organizations_url": "https://api.github.com/users/adamedx/orgs",
    "repos_url": "https://api.github.com/users/adamedx/repos",
    "events_url": "https://api.github.com/users/adamedx/events{/privacy}",
    "received_events_url": "https://api.github.com/users/adamedx/received_events",
    "type": "User",
    "site_admin": false
  },
  "created_at": "2013-02-14T17:57:52Z",
  "updated_at": "2013-02-14T17:57:52Z",
  "body": "Thanks everyone. I merged this under a different PR with exactly one commit:\r\nhttps://github.com/opscode/omnibus-pushy/pull/21.\r\n\r\nStill don't know how I managed to create scrambled history, but I'll be sure to review history even for simple changes like this one to catch this before PR."
}
]
