[
{
  "url": "https://api.github.com/repos/thoughtbot/design-sprint/issues/comments/66364243",
  "html_url": "https://github.com/thoughtbot/design-sprint/issues/16#issuecomment-66364243",
  "issue_url": "https://api.github.com/repos/thoughtbot/design-sprint/issues/16",
  "id": 66364243,
  "user": {
    "login": "kylefiedler",
    "id": 223180,
    "avatar_url": "https://avatars.githubusercontent.com/u/223180?v=3",
    "gravatar_id": "",
    "url": "https://api.github.com/users/kylefiedler",
    "html_url": "https://github.com/kylefiedler",
    "followers_url": "https://api.github.com/users/kylefiedler/followers",
    "following_url": "https://api.github.com/users/kylefiedler/following{/other_user}",
    "gists_url": "https://api.github.com/users/kylefiedler/gists{/gist_id}",
    "starred_url": "https://api.github.com/users/kylefiedler/starred{/owner}{/repo}",
    "subscriptions_url": "https://api.github.com/users/kylefiedler/subscriptions",
    "organizations_url": "https://api.github.com/users/kylefiedler/orgs",
    "repos_url": "https://api.github.com/users/kylefiedler/repos",
    "events_url": "https://api.github.com/users/kylefiedler/events{/privacy}",
    "received_events_url": "https://api.github.com/users/kylefiedler/received_events",
    "type": "User",
    "site_admin": false
  },
  "created_at": "2014-12-09T21:48:21Z",
  "updated_at": "2014-12-09T21:48:21Z",
  "body": "https://github.com/thoughtbot/design-sprint/pull/41"
}
]
