[
{
  "url": "https://api.github.com/repos/facebook/C3D/issues/comments/143066189",
  "html_url": "https://github.com/facebook/C3D/issues/35#issuecomment-143066189",
  "issue_url": "https://api.github.com/repos/facebook/C3D/issues/35",
  "id": 143066189,
  "user": {
    "login": "dutran",
    "id": 2883574,
    "avatar_url": "https://avatars.githubusercontent.com/u/2883574?v=3",
    "gravatar_id": "",
    "url": "https://api.github.com/users/dutran",
    "html_url": "https://github.com/dutran",
    "followers_url": "https://api.github.com/users/dutran/followers",
    "following_url": "https://api.github.com/users/dutran/following{/other_user}",
    "gists_url": "https://api.github.com/users/dutran/gists{/gist_id}",
    "starred_url": "https://api.github.com/users/dutran/starred{/owner}{/repo}",
    "subscriptions_url": "https://api.github.com/users/dutran/subscriptions",
    "organizations_url": "https://api.github.com/users/dutran/orgs",
    "repos_url": "https://api.github.com/users/dutran/repos",
    "events_url": "https://api.github.com/users/dutran/events{/privacy}",
    "received_events_url": "https://api.github.com/users/dutran/received_events",
    "type": "User",
    "site_admin": false
  },
  "created_at": "2015-09-24T22:26:27Z",
  "updated_at": "2015-09-24T22:26:27Z",
  "body": "When you extract probability (prob blob), do you use shuffle: false?\r\nIf your shuffle: true, then you prob blobs are not in the same order with your input list."
}
, {
  "url": "https://api.github.com/repos/facebook/C3D/issues/comments/143066653",
  "html_url": "https://github.com/facebook/C3D/issues/35#issuecomment-143066653",
  "issue_url": "https://api.github.com/repos/facebook/C3D/issues/35",
  "id": 143066653,
  "user": {
    "login": "AtousaTorabi",
    "id": 4127433,
    "avatar_url": "https://avatars.githubusercontent.com/u/4127433?v=3",
    "gravatar_id": "",
    "url": "https://api.github.com/users/AtousaTorabi",
    "html_url": "https://github.com/AtousaTorabi",
    "followers_url": "https://api.github.com/users/AtousaTorabi/followers",
    "following_url": "https://api.github.com/users/AtousaTorabi/following{/other_user}",
    "gists_url": "https://api.github.com/users/AtousaTorabi/gists{/gist_id}",
    "starred_url": "https://api.github.com/users/AtousaTorabi/starred{/owner}{/repo}",
    "subscriptions_url": "https://api.github.com/users/AtousaTorabi/subscriptions",
    "organizations_url": "https://api.github.com/users/AtousaTorabi/orgs",
    "repos_url": "https://api.github.com/users/AtousaTorabi/repos",
    "events_url": "https://api.github.com/users/AtousaTorabi/events{/privacy}",
    "received_events_url": "https://api.github.com/users/AtousaTorabi/received_events",
    "type": "User",
    "site_admin": false
  },
  "created_at": "2015-09-24T22:29:29Z",
  "updated_at": "2015-09-24T22:29:29Z",
  "body": "No it is false. here it is the one I use for feature extraction:\r\nlayers {\r\n  name: \"data\"\r\n  type: VIDEO_DATA\r\n  top: \"data\"\r\n  top: \"label\"\r\n  image_data_param {\r\n    source: \"/data/Atousa/ActivityNet/ActivityNet_valid_input.txt\"\r\n    use_image: true\r\n    mean_file: \"/home/atousa/project/C3D/examples/c3d_finetuning/ActivityNet_train16_128_mean.binaryproto\"\r\n    batch_size: 80\r\n    crop_size: 112\r\n    mirror: false\r\n    show_data: 0\r\n    new_height: 128\r\n    new_width: 171\r\n    new_length: 16\r\n    shuffle: false\r\n  }\r\n}\r\n\r\nand for finetuning test:\r\n\r\nlayers {\r\n  name: \"data\"\r\n  type: VIDEO_DATA\r\n  top: \"data\"\r\n  top: \"label\"\r\n  image_data_param {\r\n    source: \"/data/Atousa/ActivityNet/ActivityNet_valid_input.txt\"\r\n    use_image: true\r\n    mean_file: \"train01_16_128_171_mean.binaryproto\"\r\n    use_temporal_jitter: false\r\n    batch_size: 50\r\n    crop_size: 112\r\n    mirror: false\r\n    show_data: 0\r\n    new_height: 128\r\n    new_width: 171\r\n    new_length: 16\r\n    shuffle: true\r\n  }\r\n}\r\n\r\n "
}
, {
  "url": "https://api.github.com/repos/facebook/C3D/issues/comments/143067066",
  "html_url": "https://github.com/facebook/C3D/issues/35#issuecomment-143067066",
  "issue_url": "https://api.github.com/repos/facebook/C3D/issues/35",
  "id": 143067066,
  "user": {
    "login": "AtousaTorabi",
    "id": 4127433,
    "avatar_url": "https://avatars.githubusercontent.com/u/4127433?v=3",
    "gravatar_id": "",
    "url": "https://api.github.com/users/AtousaTorabi",
    "html_url": "https://github.com/AtousaTorabi",
    "followers_url": "https://api.github.com/users/AtousaTorabi/followers",
    "following_url": "https://api.github.com/users/AtousaTorabi/following{/other_user}",
    "gists_url": "https://api.github.com/users/AtousaTorabi/gists{/gist_id}",
    "starred_url": "https://api.github.com/users/AtousaTorabi/starred{/owner}{/repo}",
    "subscriptions_url": "https://api.github.com/users/AtousaTorabi/subscriptions",
    "organizations_url": "https://api.github.com/users/AtousaTorabi/orgs",
    "repos_url": "https://api.github.com/users/AtousaTorabi/repos",
    "events_url": "https://api.github.com/users/AtousaTorabi/events{/privacy}",
    "received_events_url": "https://api.github.com/users/AtousaTorabi/received_events",
    "type": "User",
    "site_admin": false
  },
  "created_at": "2015-09-24T22:31:47Z",
  "updated_at": "2015-09-24T22:31:47Z",
  "body": "I am afraid that fc6/fc7 features that I am extracting are not correct either. I am using your matlab script to read blobs. "
}
, {
  "url": "https://api.github.com/repos/facebook/C3D/issues/comments/143067259",
  "html_url": "https://github.com/facebook/C3D/issues/35#issuecomment-143067259",
  "issue_url": "https://api.github.com/repos/facebook/C3D/issues/35",
  "id": 143067259,
  "user": {
    "login": "dutran",
    "id": 2883574,
    "avatar_url": "https://avatars.githubusercontent.com/u/2883574?v=3",
    "gravatar_id": "",
    "url": "https://api.github.com/users/dutran",
    "html_url": "https://github.com/dutran",
    "followers_url": "https://api.github.com/users/dutran/followers",
    "following_url": "https://api.github.com/users/dutran/following{/other_user}",
    "gists_url": "https://api.github.com/users/dutran/gists{/gist_id}",
    "starred_url": "https://api.github.com/users/dutran/starred{/owner}{/repo}",
    "subscriptions_url": "https://api.github.com/users/dutran/subscriptions",
    "organizations_url": "https://api.github.com/users/dutran/orgs",
    "repos_url": "https://api.github.com/users/dutran/repos",
    "events_url": "https://api.github.com/users/dutran/events{/privacy}",
    "received_events_url": "https://api.github.com/users/dutran/received_events",
    "type": "User",
    "site_admin": false
  },
  "created_at": "2015-09-24T22:33:07Z",
  "updated_at": "2015-09-24T22:33:07Z",
  "body": "1) I saw you have two different mean files.\r\n2) Minor: in fine-tuning, you can choose mirror: true for more data augmentation."
}
, {
  "url": "https://api.github.com/repos/facebook/C3D/issues/comments/143068522",
  "html_url": "https://github.com/facebook/C3D/issues/35#issuecomment-143068522",
  "issue_url": "https://api.github.com/repos/facebook/C3D/issues/35",
  "id": 143068522,
  "user": {
    "login": "AtousaTorabi",
    "id": 4127433,
    "avatar_url": "https://avatars.githubusercontent.com/u/4127433?v=3",
    "gravatar_id": "",
    "url": "https://api.github.com/users/AtousaTorabi",
    "html_url": "https://github.com/AtousaTorabi",
    "followers_url": "https://api.github.com/users/AtousaTorabi/followers",
    "following_url": "https://api.github.com/users/AtousaTorabi/following{/other_user}",
    "gists_url": "https://api.github.com/users/AtousaTorabi/gists{/gist_id}",
    "starred_url": "https://api.github.com/users/AtousaTorabi/starred{/owner}{/repo}",
    "subscriptions_url": "https://api.github.com/users/AtousaTorabi/subscriptions",
    "organizations_url": "https://api.github.com/users/AtousaTorabi/orgs",
    "repos_url": "https://api.github.com/users/AtousaTorabi/repos",
    "events_url": "https://api.github.com/users/AtousaTorabi/events{/privacy}",
    "received_events_url": "https://api.github.com/users/AtousaTorabi/received_events",
    "type": "User",
    "site_admin": false
  },
  "created_at": "2015-09-24T22:42:19Z",
  "updated_at": "2015-09-24T22:42:19Z",
  "body": "Unfortunately this is not the issue. The data layer I have sent you is not for finetuning. It is for testing which is provided to test the finetuned model. Using   ActivityNet_train16_128_mean.binaryproto I still get 30% accuracy which I beleive this one is correct.\r\n\r\nMy issue is for on feature extraction that gives 0 accuracy.\r\n\r\nThanks! \r\n "
}
, {
  "url": "https://api.github.com/repos/facebook/C3D/issues/comments/143071121",
  "html_url": "https://github.com/facebook/C3D/issues/35#issuecomment-143071121",
  "issue_url": "https://api.github.com/repos/facebook/C3D/issues/35",
  "id": 143071121,
  "user": {
    "login": "AtousaTorabi",
    "id": 4127433,
    "avatar_url": "https://avatars.githubusercontent.com/u/4127433?v=3",
    "gravatar_id": "",
    "url": "https://api.github.com/users/AtousaTorabi",
    "html_url": "https://github.com/AtousaTorabi",
    "followers_url": "https://api.github.com/users/AtousaTorabi/followers",
    "following_url": "https://api.github.com/users/AtousaTorabi/following{/other_user}",
    "gists_url": "https://api.github.com/users/AtousaTorabi/gists{/gist_id}",
    "starred_url": "https://api.github.com/users/AtousaTorabi/starred{/owner}{/repo}",
    "subscriptions_url": "https://api.github.com/users/AtousaTorabi/subscriptions",
    "organizations_url": "https://api.github.com/users/AtousaTorabi/orgs",
    "repos_url": "https://api.github.com/users/AtousaTorabi/repos",
    "events_url": "https://api.github.com/users/AtousaTorabi/events{/privacy}",
    "received_events_url": "https://api.github.com/users/AtousaTorabi/received_events",
    "type": "User",
    "site_admin": false
  },
  "created_at": "2015-09-24T22:55:52Z",
  "updated_at": "2015-09-24T22:55:52Z",
  "body": "Fro finetuning and features extraction I use the same mean_file: c3d_finetuning/ActivityNet_train16_128_mean.binaryproto\r\n\r\nFor testing I also tried with mean_file: ActivityNet_train16_128_mean.binaryproto I get 30% accuracy. But for feature extraction I get wrong accuracy and probabilities.\r\n\r\nIs it possible that features extraction only need video frames [1...N] and does not work on chunk of videos e.g [100..200] , [1200,1400],.......?\r\n\r\nThanks!"
}
, {
  "url": "https://api.github.com/repos/facebook/C3D/issues/comments/143083728",
  "html_url": "https://github.com/facebook/C3D/issues/35#issuecomment-143083728",
  "issue_url": "https://api.github.com/repos/facebook/C3D/issues/35",
  "id": 143083728,
  "user": {
    "login": "AtousaTorabi",
    "id": 4127433,
    "avatar_url": "https://avatars.githubusercontent.com/u/4127433?v=3",
    "gravatar_id": "",
    "url": "https://api.github.com/users/AtousaTorabi",
    "html_url": "https://github.com/AtousaTorabi",
    "followers_url": "https://api.github.com/users/AtousaTorabi/followers",
    "following_url": "https://api.github.com/users/AtousaTorabi/following{/other_user}",
    "gists_url": "https://api.github.com/users/AtousaTorabi/gists{/gist_id}",
    "starred_url": "https://api.github.com/users/AtousaTorabi/starred{/owner}{/repo}",
    "subscriptions_url": "https://api.github.com/users/AtousaTorabi/subscriptions",
    "organizations_url": "https://api.github.com/users/AtousaTorabi/orgs",
    "repos_url": "https://api.github.com/users/AtousaTorabi/repos",
    "events_url": "https://api.github.com/users/AtousaTorabi/events{/privacy}",
    "received_events_url": "https://api.github.com/users/AtousaTorabi/received_events",
    "type": "User",
    "site_admin": false
  },
  "created_at": "2015-09-24T23:52:03Z",
  "updated_at": "2015-09-24T23:52:03Z",
  "body": "I just realized that in your example for UCF101 feature extraction, you do not provide any label and for all labels you put 0. I guess your provided script extract_image_features.cpp by facebook does not correctly extract prob and accuracy layers that needs correct label? In my list I provide correct labels rather than only 0.\r\n\r\ninput/frm/v_ApplyEyeMakeup_g01_c01/ 1 0\r\ninput/frm/v_ApplyEyeMakeup_g01_c01/ 17 0\r\ninput/frm/v_ApplyEyeMakeup_g01_c01/ 33 0\r\ninput/frm/v_ApplyEyeMakeup_g01_c01/ 49 0\r\ninput/frm/v_ApplyEyeMakeup_g01_c01/ 65 0\r\ninput/frm/v_ApplyEyeMakeup_g01_c01/ 81 0\r\ninput/frm/v_ApplyEyeMakeup_g01_c01/ 97 0\r\ninput/frm/v_ApplyEyeMakeup_g01_c01/ 113 0\r\ninput/frm/v_ApplyEyeMakeup_g01_c01/ 129 0\r\ninput/frm/v_ApplyEyeMakeup_g01_c01/ 145 0\r\ninput/frm/v_BaseballPitch_g01_c01/ 1 0\r\ninput/frm/v_BaseballPitch_g01_c01/ 17 0\r\ninput/frm/v_BaseballPitch_g01_c01/ 33 0\r\ninput/frm/v_BaseballPitch_g01_c01/ 49 0\r\ninput/frm/v_BaseballPitch_g01_c01/ 65 0\r\ninput/frm/v_BaseballPitch_g01_c01/ 81 0\r\n "
}
, {
  "url": "https://api.github.com/repos/facebook/C3D/issues/comments/143085146",
  "html_url": "https://github.com/facebook/C3D/issues/35#issuecomment-143085146",
  "issue_url": "https://api.github.com/repos/facebook/C3D/issues/35",
  "id": 143085146,
  "user": {
    "login": "dutran",
    "id": 2883574,
    "avatar_url": "https://avatars.githubusercontent.com/u/2883574?v=3",
    "gravatar_id": "",
    "url": "https://api.github.com/users/dutran",
    "html_url": "https://github.com/dutran",
    "followers_url": "https://api.github.com/users/dutran/followers",
    "following_url": "https://api.github.com/users/dutran/following{/other_user}",
    "gists_url": "https://api.github.com/users/dutran/gists{/gist_id}",
    "starred_url": "https://api.github.com/users/dutran/starred{/owner}{/repo}",
    "subscriptions_url": "https://api.github.com/users/dutran/subscriptions",
    "organizations_url": "https://api.github.com/users/dutran/orgs",
    "repos_url": "https://api.github.com/users/dutran/repos",
    "events_url": "https://api.github.com/users/dutran/events{/privacy}",
    "received_events_url": "https://api.github.com/users/dutran/received_events",
    "type": "User",
    "site_admin": false
  },
  "created_at": "2015-09-25T00:03:40Z",
  "updated_at": "2015-09-25T00:03:40Z",
  "body": "A few things to note:\r\n1) Testing and feature extraction need to use the same mean file as when you do fine-tuning. That says if you use a.mean for fine-tuning, then you need to use that file for both testing and feature extraction.\r\n\r\n2) \"Is it possible that features extraction only need video frames [1...N] and does not work on chunk of videos e.g [100..200] , [1200,1400],.......?\" -> as in the list file, we specify the starting frame, so it sould work for your case. you can specific starting frame from your available frames, e.g. 10 or 1200\r\n\r\n3) For feature extraction, the labels play no role, meaning you can put whatever number. However, if you want to use the same list file for testing, then you need to have the true corresponding labels.\r\n\r\n4) In testing, shuffle: true while feature extraction shuffle: false. Also, make sure that the prefix file has the same order with the list file (corresponding one-to-one), to make sure one input clip will give you exactly one feature-prefix (*at the SAME ORDER*)"
}
, {
  "url": "https://api.github.com/repos/facebook/C3D/issues/comments/143088294",
  "html_url": "https://github.com/facebook/C3D/issues/35#issuecomment-143088294",
  "issue_url": "https://api.github.com/repos/facebook/C3D/issues/35",
  "id": 143088294,
  "user": {
    "login": "AtousaTorabi",
    "id": 4127433,
    "avatar_url": "https://avatars.githubusercontent.com/u/4127433?v=3",
    "gravatar_id": "",
    "url": "https://api.github.com/users/AtousaTorabi",
    "html_url": "https://github.com/AtousaTorabi",
    "followers_url": "https://api.github.com/users/AtousaTorabi/followers",
    "following_url": "https://api.github.com/users/AtousaTorabi/following{/other_user}",
    "gists_url": "https://api.github.com/users/AtousaTorabi/gists{/gist_id}",
    "starred_url": "https://api.github.com/users/AtousaTorabi/starred{/owner}{/repo}",
    "subscriptions_url": "https://api.github.com/users/AtousaTorabi/subscriptions",
    "organizations_url": "https://api.github.com/users/AtousaTorabi/orgs",
    "repos_url": "https://api.github.com/users/AtousaTorabi/repos",
    "events_url": "https://api.github.com/users/AtousaTorabi/events{/privacy}",
    "received_events_url": "https://api.github.com/users/AtousaTorabi/received_events",
    "type": "User",
    "site_admin": false
  },
  "created_at": "2015-09-25T00:23:34Z",
  "updated_at": "2015-09-25T00:23:34Z",
  "body": "About  3) if labels play no role, then I can not extract 'prob' and 'accuracy' using features_extraction  since softmax/accuracy computation requires labels. Is that right?\r\n \r\nAbout 1) and 4) I am doing correctly.\r\n \r\n\r\nThanks for your response!  "
}
, {
  "url": "https://api.github.com/repos/facebook/C3D/issues/comments/143088645",
  "html_url": "https://github.com/facebook/C3D/issues/35#issuecomment-143088645",
  "issue_url": "https://api.github.com/repos/facebook/C3D/issues/35",
  "id": 143088645,
  "user": {
    "login": "dutran",
    "id": 2883574,
    "avatar_url": "https://avatars.githubusercontent.com/u/2883574?v=3",
    "gravatar_id": "",
    "url": "https://api.github.com/users/dutran",
    "html_url": "https://github.com/dutran",
    "followers_url": "https://api.github.com/users/dutran/followers",
    "following_url": "https://api.github.com/users/dutran/following{/other_user}",
    "gists_url": "https://api.github.com/users/dutran/gists{/gist_id}",
    "starred_url": "https://api.github.com/users/dutran/starred{/owner}{/repo}",
    "subscriptions_url": "https://api.github.com/users/dutran/subscriptions",
    "organizations_url": "https://api.github.com/users/dutran/orgs",
    "repos_url": "https://api.github.com/users/dutran/repos",
    "events_url": "https://api.github.com/users/dutran/events{/privacy}",
    "received_events_url": "https://api.github.com/users/dutran/received_events",
    "type": "User",
    "site_admin": false
  },
  "created_at": "2015-09-25T00:25:17Z",
  "updated_at": "2015-09-25T00:25:17Z",
  "body": "you can use feature extraction tool to extract prob, then base on prob, you can compute accuracy. prob does not need labels."
}
, {
  "url": "https://api.github.com/repos/facebook/C3D/issues/comments/143089479",
  "html_url": "https://github.com/facebook/C3D/issues/35#issuecomment-143089479",
  "issue_url": "https://api.github.com/repos/facebook/C3D/issues/35",
  "id": 143089479,
  "user": {
    "login": "AtousaTorabi",
    "id": 4127433,
    "avatar_url": "https://avatars.githubusercontent.com/u/4127433?v=3",
    "gravatar_id": "",
    "url": "https://api.github.com/users/AtousaTorabi",
    "html_url": "https://github.com/AtousaTorabi",
    "followers_url": "https://api.github.com/users/AtousaTorabi/followers",
    "following_url": "https://api.github.com/users/AtousaTorabi/following{/other_user}",
    "gists_url": "https://api.github.com/users/AtousaTorabi/gists{/gist_id}",
    "starred_url": "https://api.github.com/users/AtousaTorabi/starred{/owner}{/repo}",
    "subscriptions_url": "https://api.github.com/users/AtousaTorabi/subscriptions",
    "organizations_url": "https://api.github.com/users/AtousaTorabi/orgs",
    "repos_url": "https://api.github.com/users/AtousaTorabi/repos",
    "events_url": "https://api.github.com/users/AtousaTorabi/events{/privacy}",
    "received_events_url": "https://api.github.com/users/AtousaTorabi/received_events",
    "type": "User",
    "site_admin": false
  },
  "created_at": "2015-09-25T00:33:02Z",
  "updated_at": "2015-09-25T00:33:02Z",
  "body": "Computing accuracy base on 'prob' by feature extraction is almost zero. I am doing doing step 1 and 2 correctly. I was thinking maybe your script does not support 2) which it seems this is not the case.\r\n\r\nIt is very strange that test accuracy are different from accuracy I compute based on 'prob' extracted from feature_extraction.\r\n\r\nBest! "
}
, {
  "url": "https://api.github.com/repos/facebook/C3D/issues/comments/143089703",
  "html_url": "https://github.com/facebook/C3D/issues/35#issuecomment-143089703",
  "issue_url": "https://api.github.com/repos/facebook/C3D/issues/35",
  "id": 143089703,
  "user": {
    "login": "dutran",
    "id": 2883574,
    "avatar_url": "https://avatars.githubusercontent.com/u/2883574?v=3",
    "gravatar_id": "",
    "url": "https://api.github.com/users/dutran",
    "html_url": "https://github.com/dutran",
    "followers_url": "https://api.github.com/users/dutran/followers",
    "following_url": "https://api.github.com/users/dutran/following{/other_user}",
    "gists_url": "https://api.github.com/users/dutran/gists{/gist_id}",
    "starred_url": "https://api.github.com/users/dutran/starred{/owner}{/repo}",
    "subscriptions_url": "https://api.github.com/users/dutran/subscriptions",
    "organizations_url": "https://api.github.com/users/dutran/orgs",
    "repos_url": "https://api.github.com/users/dutran/repos",
    "events_url": "https://api.github.com/users/dutran/events{/privacy}",
    "received_events_url": "https://api.github.com/users/dutran/received_events",
    "type": "User",
    "site_admin": false
  },
  "created_at": "2015-09-25T00:35:20Z",
  "updated_at": "2015-09-25T00:35:20Z",
  "body": "Hi @AtousaTorabi I did compute accuracy from prob (extracted prob) quite a few times and got consistent results. Please carefully check your part of code to make sure there is no bug. Thanks."
}
, {
  "url": "https://api.github.com/repos/facebook/C3D/issues/comments/143272647",
  "html_url": "https://github.com/facebook/C3D/issues/35#issuecomment-143272647",
  "issue_url": "https://api.github.com/repos/facebook/C3D/issues/35",
  "id": 143272647,
  "user": {
    "login": "AtousaTorabi",
    "id": 4127433,
    "avatar_url": "https://avatars.githubusercontent.com/u/4127433?v=3",
    "gravatar_id": "",
    "url": "https://api.github.com/users/AtousaTorabi",
    "html_url": "https://github.com/AtousaTorabi",
    "followers_url": "https://api.github.com/users/AtousaTorabi/followers",
    "following_url": "https://api.github.com/users/AtousaTorabi/following{/other_user}",
    "gists_url": "https://api.github.com/users/AtousaTorabi/gists{/gist_id}",
    "starred_url": "https://api.github.com/users/AtousaTorabi/starred{/owner}{/repo}",
    "subscriptions_url": "https://api.github.com/users/AtousaTorabi/subscriptions",
    "organizations_url": "https://api.github.com/users/AtousaTorabi/orgs",
    "repos_url": "https://api.github.com/users/AtousaTorabi/repos",
    "events_url": "https://api.github.com/users/AtousaTorabi/events{/privacy}",
    "received_events_url": "https://api.github.com/users/AtousaTorabi/received_events",
    "type": "User",
    "site_admin": false
  },
  "created_at": "2015-09-25T16:41:01Z",
  "updated_at": "2015-09-25T16:41:01Z",
  "body": "Hi @dutran \r\nThank you very much for your response. I have investigated prob generated from features_extraction. They are all pretty low and similar values for all classes. So even the probabilities seems not good.  And accuracy computed based on them is 0.01 while test_net gives 0.3 accuracy. So one of them should not be correct.\r\n I know it should be something wrong in the way I use feature_extraction. and based on these results fc6 features that I have extracted are also not good.  \r\n "
}
, {
  "url": "https://api.github.com/repos/facebook/C3D/issues/comments/143312587",
  "html_url": "https://github.com/facebook/C3D/issues/35#issuecomment-143312587",
  "issue_url": "https://api.github.com/repos/facebook/C3D/issues/35",
  "id": 143312587,
  "user": {
    "login": "AtousaTorabi",
    "id": 4127433,
    "avatar_url": "https://avatars.githubusercontent.com/u/4127433?v=3",
    "gravatar_id": "",
    "url": "https://api.github.com/users/AtousaTorabi",
    "html_url": "https://github.com/AtousaTorabi",
    "followers_url": "https://api.github.com/users/AtousaTorabi/followers",
    "following_url": "https://api.github.com/users/AtousaTorabi/following{/other_user}",
    "gists_url": "https://api.github.com/users/AtousaTorabi/gists{/gist_id}",
    "starred_url": "https://api.github.com/users/AtousaTorabi/starred{/owner}{/repo}",
    "subscriptions_url": "https://api.github.com/users/AtousaTorabi/subscriptions",
    "organizations_url": "https://api.github.com/users/AtousaTorabi/orgs",
    "repos_url": "https://api.github.com/users/AtousaTorabi/repos",
    "events_url": "https://api.github.com/users/AtousaTorabi/events{/privacy}",
    "received_events_url": "https://api.github.com/users/AtousaTorabi/received_events",
    "type": "User",
    "site_admin": false
  },
  "created_at": "2015-09-25T18:16:51Z",
  "updated_at": "2015-09-25T18:17:32Z",
  "body": "I think I found the issue. In fine-tuning the model prototxt that I use has the layers names \"fc6\", \"fc7\", \"fc8\". but the model prototxt that I was using for feature extraction has layers names \"fc6-1\", \"fc7-1\", \"fc8-1\". So I guess pretrained model was not copying correctly. Could this be the issue? "
}
, {
  "url": "https://api.github.com/repos/facebook/C3D/issues/comments/143335123",
  "html_url": "https://github.com/facebook/C3D/issues/35#issuecomment-143335123",
  "issue_url": "https://api.github.com/repos/facebook/C3D/issues/35",
  "id": 143335123,
  "user": {
    "login": "dutran",
    "id": 2883574,
    "avatar_url": "https://avatars.githubusercontent.com/u/2883574?v=3",
    "gravatar_id": "",
    "url": "https://api.github.com/users/dutran",
    "html_url": "https://github.com/dutran",
    "followers_url": "https://api.github.com/users/dutran/followers",
    "following_url": "https://api.github.com/users/dutran/following{/other_user}",
    "gists_url": "https://api.github.com/users/dutran/gists{/gist_id}",
    "starred_url": "https://api.github.com/users/dutran/starred{/owner}{/repo}",
    "subscriptions_url": "https://api.github.com/users/dutran/subscriptions",
    "organizations_url": "https://api.github.com/users/dutran/orgs",
    "repos_url": "https://api.github.com/users/dutran/repos",
    "events_url": "https://api.github.com/users/dutran/events{/privacy}",
    "received_events_url": "https://api.github.com/users/dutran/received_events",
    "type": "User",
    "site_admin": false
  },
  "created_at": "2015-09-25T19:44:57Z",
  "updated_at": "2015-09-25T19:44:57Z",
  "body": "Yes, it is. What happened is you just copied the learned weights for conv-layers, but all fully connected layers are randomly initialized."
}
, {
  "url": "https://api.github.com/repos/facebook/C3D/issues/comments/143336340",
  "html_url": "https://github.com/facebook/C3D/issues/35#issuecomment-143336340",
  "issue_url": "https://api.github.com/repos/facebook/C3D/issues/35",
  "id": 143336340,
  "user": {
    "login": "AtousaTorabi",
    "id": 4127433,
    "avatar_url": "https://avatars.githubusercontent.com/u/4127433?v=3",
    "gravatar_id": "",
    "url": "https://api.github.com/users/AtousaTorabi",
    "html_url": "https://github.com/AtousaTorabi",
    "followers_url": "https://api.github.com/users/AtousaTorabi/followers",
    "following_url": "https://api.github.com/users/AtousaTorabi/following{/other_user}",
    "gists_url": "https://api.github.com/users/AtousaTorabi/gists{/gist_id}",
    "starred_url": "https://api.github.com/users/AtousaTorabi/starred{/owner}{/repo}",
    "subscriptions_url": "https://api.github.com/users/AtousaTorabi/subscriptions",
    "organizations_url": "https://api.github.com/users/AtousaTorabi/orgs",
    "repos_url": "https://api.github.com/users/AtousaTorabi/repos",
    "events_url": "https://api.github.com/users/AtousaTorabi/events{/privacy}",
    "received_events_url": "https://api.github.com/users/AtousaTorabi/received_events",
    "type": "User",
    "site_admin": false
  },
  "created_at": "2015-09-25T19:51:53Z",
  "updated_at": "2015-09-25T19:51:53Z",
  "body": "I see. Thanks a lot for your response. It is much appreciated! :)"
}
, {
  "url": "https://api.github.com/repos/facebook/C3D/issues/comments/143337391",
  "html_url": "https://github.com/facebook/C3D/issues/35#issuecomment-143337391",
  "issue_url": "https://api.github.com/repos/facebook/C3D/issues/35",
  "id": 143337391,
  "user": {
    "login": "dutran",
    "id": 2883574,
    "avatar_url": "https://avatars.githubusercontent.com/u/2883574?v=3",
    "gravatar_id": "",
    "url": "https://api.github.com/users/dutran",
    "html_url": "https://github.com/dutran",
    "followers_url": "https://api.github.com/users/dutran/followers",
    "following_url": "https://api.github.com/users/dutran/following{/other_user}",
    "gists_url": "https://api.github.com/users/dutran/gists{/gist_id}",
    "starred_url": "https://api.github.com/users/dutran/starred{/owner}{/repo}",
    "subscriptions_url": "https://api.github.com/users/dutran/subscriptions",
    "organizations_url": "https://api.github.com/users/dutran/orgs",
    "repos_url": "https://api.github.com/users/dutran/repos",
    "events_url": "https://api.github.com/users/dutran/events{/privacy}",
    "received_events_url": "https://api.github.com/users/dutran/received_events",
    "type": "User",
    "site_admin": false
  },
  "created_at": "2015-09-25T19:57:12Z",
  "updated_at": "2015-09-25T19:57:12Z",
  "body": "Does it work for you after corrected those names?"
}
, {
  "url": "https://api.github.com/repos/facebook/C3D/issues/comments/143355925",
  "html_url": "https://github.com/facebook/C3D/issues/35#issuecomment-143355925",
  "issue_url": "https://api.github.com/repos/facebook/C3D/issues/35",
  "id": 143355925,
  "user": {
    "login": "AtousaTorabi",
    "id": 4127433,
    "avatar_url": "https://avatars.githubusercontent.com/u/4127433?v=3",
    "gravatar_id": "",
    "url": "https://api.github.com/users/AtousaTorabi",
    "html_url": "https://github.com/AtousaTorabi",
    "followers_url": "https://api.github.com/users/AtousaTorabi/followers",
    "following_url": "https://api.github.com/users/AtousaTorabi/following{/other_user}",
    "gists_url": "https://api.github.com/users/AtousaTorabi/gists{/gist_id}",
    "starred_url": "https://api.github.com/users/AtousaTorabi/starred{/owner}{/repo}",
    "subscriptions_url": "https://api.github.com/users/AtousaTorabi/subscriptions",
    "organizations_url": "https://api.github.com/users/AtousaTorabi/orgs",
    "repos_url": "https://api.github.com/users/AtousaTorabi/repos",
    "events_url": "https://api.github.com/users/AtousaTorabi/events{/privacy}",
    "received_events_url": "https://api.github.com/users/AtousaTorabi/received_events",
    "type": "User",
    "site_admin": false
  },
  "created_at": "2015-09-25T21:12:45Z",
  "updated_at": "2015-09-25T21:12:45Z",
  "body": "Yes now it gives the same accuracy as the one computed by test_bin. \r\nthanks a lot!"
}
, {
  "url": "https://api.github.com/repos/facebook/C3D/issues/comments/143356583",
  "html_url": "https://github.com/facebook/C3D/issues/35#issuecomment-143356583",
  "issue_url": "https://api.github.com/repos/facebook/C3D/issues/35",
  "id": 143356583,
  "user": {
    "login": "dutran",
    "id": 2883574,
    "avatar_url": "https://avatars.githubusercontent.com/u/2883574?v=3",
    "gravatar_id": "",
    "url": "https://api.github.com/users/dutran",
    "html_url": "https://github.com/dutran",
    "followers_url": "https://api.github.com/users/dutran/followers",
    "following_url": "https://api.github.com/users/dutran/following{/other_user}",
    "gists_url": "https://api.github.com/users/dutran/gists{/gist_id}",
    "starred_url": "https://api.github.com/users/dutran/starred{/owner}{/repo}",
    "subscriptions_url": "https://api.github.com/users/dutran/subscriptions",
    "organizations_url": "https://api.github.com/users/dutran/orgs",
    "repos_url": "https://api.github.com/users/dutran/repos",
    "events_url": "https://api.github.com/users/dutran/events{/privacy}",
    "received_events_url": "https://api.github.com/users/dutran/received_events",
    "type": "User",
    "site_admin": false
  },
  "created_at": "2015-09-25T21:16:51Z",
  "updated_at": "2015-09-25T21:16:51Z",
  "body": "Glad to hear. Good luck with your experiments!"
}
, {
  "url": "https://api.github.com/repos/facebook/C3D/issues/comments/144896054",
  "html_url": "https://github.com/facebook/C3D/issues/35#issuecomment-144896054",
  "issue_url": "https://api.github.com/repos/facebook/C3D/issues/35",
  "id": 144896054,
  "user": {
    "login": "yzloveyz",
    "id": 11484913,
    "avatar_url": "https://avatars.githubusercontent.com/u/11484913?v=3",
    "gravatar_id": "",
    "url": "https://api.github.com/users/yzloveyz",
    "html_url": "https://github.com/yzloveyz",
    "followers_url": "https://api.github.com/users/yzloveyz/followers",
    "following_url": "https://api.github.com/users/yzloveyz/following{/other_user}",
    "gists_url": "https://api.github.com/users/yzloveyz/gists{/gist_id}",
    "starred_url": "https://api.github.com/users/yzloveyz/starred{/owner}{/repo}",
    "subscriptions_url": "https://api.github.com/users/yzloveyz/subscriptions",
    "organizations_url": "https://api.github.com/users/yzloveyz/orgs",
    "repos_url": "https://api.github.com/users/yzloveyz/repos",
    "events_url": "https://api.github.com/users/yzloveyz/events{/privacy}",
    "received_events_url": "https://api.github.com/users/yzloveyz/received_events",
    "type": "User",
    "site_admin": false
  },
  "created_at": "2015-10-02T01:37:16Z",
  "updated_at": "2015-10-02T01:37:16Z",
  "body": "Hi Atousa @AtousaTorabi , I happened to came across this problem too. So I was wondering when you extract features, did you just use the names \"fc6\", \"fc7\"  instead of \"fc6-1\", \"fc7-1\"? Because in the fine-tuned model, there is only fc6 and fc7 layer, no fc6-1 and fc7-1 exist. Is my understanding correct? Thanks. "
}
, {
  "url": "https://api.github.com/repos/facebook/C3D/issues/comments/145027926",
  "html_url": "https://github.com/facebook/C3D/issues/35#issuecomment-145027926",
  "issue_url": "https://api.github.com/repos/facebook/C3D/issues/35",
  "id": 145027926,
  "user": {
    "login": "AtousaTorabi",
    "id": 4127433,
    "avatar_url": "https://avatars.githubusercontent.com/u/4127433?v=3",
    "gravatar_id": "",
    "url": "https://api.github.com/users/AtousaTorabi",
    "html_url": "https://github.com/AtousaTorabi",
    "followers_url": "https://api.github.com/users/AtousaTorabi/followers",
    "following_url": "https://api.github.com/users/AtousaTorabi/following{/other_user}",
    "gists_url": "https://api.github.com/users/AtousaTorabi/gists{/gist_id}",
    "starred_url": "https://api.github.com/users/AtousaTorabi/starred{/owner}{/repo}",
    "subscriptions_url": "https://api.github.com/users/AtousaTorabi/subscriptions",
    "organizations_url": "https://api.github.com/users/AtousaTorabi/orgs",
    "repos_url": "https://api.github.com/users/AtousaTorabi/repos",
    "events_url": "https://api.github.com/users/AtousaTorabi/events{/privacy}",
    "received_events_url": "https://api.github.com/users/AtousaTorabi/received_events",
    "type": "User",
    "site_admin": false
  },
  "created_at": "2015-10-02T13:52:14Z",
  "updated_at": "2015-10-02T13:54:20Z",
  "body": "Hi,\r\n\r\nI have fine-tuned the C3D model on my dataset and used names \"fc6\", \"fc7\"\r\nfor fine-tuning. However for feature extraction (i.e. using my fine-tuned\r\nmodel) I was using \"fc6-1\" \"fc7-1\" names by mistake which was initializing\r\nthe fully-connected layers 6 and 7 of model by random number rather than\r\nusing the weights that I have trained during fine-tuning. So you should use\r\nthe same feature layers names that you used in finetuning, then feature\r\nextraction correctly copy all the trained weights rather than\r\ninitializing them.\r\n\r\nI hope this help!\r\nBest,\r\nAtousa\r\n\r\n\r\nOn Thu, Oct 1, 2015 at 9:37 PM, yzloveyz <notifications@github.com> wrote:\r\n\r\n> Hi Atousa @AtousaTorabi <https://github.com/AtousaTorabi> , I happened to\r\n> came across this problem too. So I was wondering when you extract features,\r\n> did you just use the names \"fc6\", \"fc7\" instead of \"fc6-1\", \"fc7-1\"?\r\n> Because in the fine-tuned model, there is only fc6 and fc7 layer, no fc6-1\r\n> and fc7-1 exist. Is my understanding correct? Thanks.\r\n>\r\n> —\r\n> Reply to this email directly or view it on GitHub\r\n> <https://github.com/facebook/C3D/issues/35#issuecomment-144896054>.\r\n>\r\n"
}
, {
  "url": "https://api.github.com/repos/facebook/C3D/issues/comments/145710132",
  "html_url": "https://github.com/facebook/C3D/issues/35#issuecomment-145710132",
  "issue_url": "https://api.github.com/repos/facebook/C3D/issues/35",
  "id": 145710132,
  "user": {
    "login": "yzloveyz",
    "id": 11484913,
    "avatar_url": "https://avatars.githubusercontent.com/u/11484913?v=3",
    "gravatar_id": "",
    "url": "https://api.github.com/users/yzloveyz",
    "html_url": "https://github.com/yzloveyz",
    "followers_url": "https://api.github.com/users/yzloveyz/followers",
    "following_url": "https://api.github.com/users/yzloveyz/following{/other_user}",
    "gists_url": "https://api.github.com/users/yzloveyz/gists{/gist_id}",
    "starred_url": "https://api.github.com/users/yzloveyz/starred{/owner}{/repo}",
    "subscriptions_url": "https://api.github.com/users/yzloveyz/subscriptions",
    "organizations_url": "https://api.github.com/users/yzloveyz/orgs",
    "repos_url": "https://api.github.com/users/yzloveyz/repos",
    "events_url": "https://api.github.com/users/yzloveyz/events{/privacy}",
    "received_events_url": "https://api.github.com/users/yzloveyz/received_events",
    "type": "User",
    "site_admin": false
  },
  "created_at": "2015-10-06T00:46:15Z",
  "updated_at": "2015-10-06T00:46:15Z",
  "body": "Hi @AtousaTorabi , thanks for your answer. It indeed helps, just the naming problem."
}
, {
  "url": "https://api.github.com/repos/facebook/C3D/issues/comments/173809735",
  "html_url": "https://github.com/facebook/C3D/issues/35#issuecomment-173809735",
  "issue_url": "https://api.github.com/repos/facebook/C3D/issues/35",
  "id": 173809735,
  "user": {
    "login": "SuperLee506",
    "id": 13114675,
    "avatar_url": "https://avatars.githubusercontent.com/u/13114675?v=3",
    "gravatar_id": "",
    "url": "https://api.github.com/users/SuperLee506",
    "html_url": "https://github.com/SuperLee506",
    "followers_url": "https://api.github.com/users/SuperLee506/followers",
    "following_url": "https://api.github.com/users/SuperLee506/following{/other_user}",
    "gists_url": "https://api.github.com/users/SuperLee506/gists{/gist_id}",
    "starred_url": "https://api.github.com/users/SuperLee506/starred{/owner}{/repo}",
    "subscriptions_url": "https://api.github.com/users/SuperLee506/subscriptions",
    "organizations_url": "https://api.github.com/users/SuperLee506/orgs",
    "repos_url": "https://api.github.com/users/SuperLee506/repos",
    "events_url": "https://api.github.com/users/SuperLee506/events{/privacy}",
    "received_events_url": "https://api.github.com/users/SuperLee506/received_events",
    "type": "User",
    "site_admin": false
  },
  "created_at": "2016-01-22T05:08:35Z",
  "updated_at": "2016-01-22T05:08:35Z",
  "body": "Hi Atousa @AtousaTorabi ，“conv3d_deepnetA_sport1m_iter_1900000” file 's FC layers' names are \"fc6-1\",\"fc7-1\",\"fc8-1\",is it right?Why don't we use the same name except the output layer to coppy the value from “conv3d_deepnetA_sport1m_iter_1900000”  in the \"c3d_finetuning\" example?It will do better than random initial,isn't it?\r\nBut I find,in the \"c3d_finetuning\"example,the FC layers are different .Why?I'm confused.\r\nThanks."
}
]
