[
{
  "url": "https://api.github.com/repos/mapbox/tippecanoe/issues/comments/106837204",
  "html_url": "https://github.com/mapbox/tippecanoe/issues/42#issuecomment-106837204",
  "issue_url": "https://api.github.com/repos/mapbox/tippecanoe/issues/42",
  "id": 106837204,
  "user": {
    "login": "tmcw",
    "id": 32314,
    "avatar_url": "https://avatars.githubusercontent.com/u/32314?v=3",
    "gravatar_id": "",
    "url": "https://api.github.com/users/tmcw",
    "html_url": "https://github.com/tmcw",
    "followers_url": "https://api.github.com/users/tmcw/followers",
    "following_url": "https://api.github.com/users/tmcw/following{/other_user}",
    "gists_url": "https://api.github.com/users/tmcw/gists{/gist_id}",
    "starred_url": "https://api.github.com/users/tmcw/starred{/owner}{/repo}",
    "subscriptions_url": "https://api.github.com/users/tmcw/subscriptions",
    "organizations_url": "https://api.github.com/users/tmcw/orgs",
    "repos_url": "https://api.github.com/users/tmcw/repos",
    "events_url": "https://api.github.com/users/tmcw/events{/privacy}",
    "received_events_url": "https://api.github.com/users/tmcw/received_events",
    "type": "User",
    "site_admin": false
  },
  "created_at": "2015-05-29T14:52:40Z",
  "updated_at": "2015-05-29T14:52:40Z",
  "body": "67fe27f70a9b2be2ad7bbc12a52faf1aabe35321"
}
]
