[
{
  "url": "https://api.github.com/repos/collectiveidea/delayed_job/issues/comments/177230",
  "html_url": "https://github.com/collectiveidea/delayed_job/issues/51#issuecomment-177230",
  "issue_url": "https://api.github.com/repos/collectiveidea/delayed_job/issues/51",
  "id": 177230,
  "user": {
    "login": "bkeepers",
    "id": 173,
    "avatar_url": "https://avatars.githubusercontent.com/u/173?v=3",
    "gravatar_id": "",
    "url": "https://api.github.com/users/bkeepers",
    "html_url": "https://github.com/bkeepers",
    "followers_url": "https://api.github.com/users/bkeepers/followers",
    "following_url": "https://api.github.com/users/bkeepers/following{/other_user}",
    "gists_url": "https://api.github.com/users/bkeepers/gists{/gist_id}",
    "starred_url": "https://api.github.com/users/bkeepers/starred{/owner}{/repo}",
    "subscriptions_url": "https://api.github.com/users/bkeepers/subscriptions",
    "organizations_url": "https://api.github.com/users/bkeepers/orgs",
    "repos_url": "https://api.github.com/users/bkeepers/repos",
    "events_url": "https://api.github.com/users/bkeepers/events{/privacy}",
    "received_events_url": "https://api.github.com/users/bkeepers/received_events",
    "type": "User",
    "site_admin": true
  },
  "created_at": "2010-04-04T03:30:35Z",
  "updated_at": "2010-04-04T03:30:35Z",
  "body": "Would you mind putting together a patch to fix these  that maintains compatibility with 2.3?"
}
, {
  "url": "https://api.github.com/repos/collectiveidea/delayed_job/issues/comments/177592",
  "html_url": "https://github.com/collectiveidea/delayed_job/issues/51#issuecomment-177592",
  "issue_url": "https://api.github.com/repos/collectiveidea/delayed_job/issues/51",
  "id": 177592,
  "user": {
    "login": "WhyEvenTry",
    "id": 199179,
    "avatar_url": "https://avatars.githubusercontent.com/u/199179?v=3",
    "gravatar_id": "",
    "url": "https://api.github.com/users/WhyEvenTry",
    "html_url": "https://github.com/WhyEvenTry",
    "followers_url": "https://api.github.com/users/WhyEvenTry/followers",
    "following_url": "https://api.github.com/users/WhyEvenTry/following{/other_user}",
    "gists_url": "https://api.github.com/users/WhyEvenTry/gists{/gist_id}",
    "starred_url": "https://api.github.com/users/WhyEvenTry/starred{/owner}{/repo}",
    "subscriptions_url": "https://api.github.com/users/WhyEvenTry/subscriptions",
    "organizations_url": "https://api.github.com/users/WhyEvenTry/orgs",
    "repos_url": "https://api.github.com/users/WhyEvenTry/repos",
    "events_url": "https://api.github.com/users/WhyEvenTry/events{/privacy}",
    "received_events_url": "https://api.github.com/users/WhyEvenTry/received_events",
    "type": "User",
    "site_admin": false
  },
  "created_at": "2010-04-04T20:48:12Z",
  "updated_at": "2010-04-04T20:51:35Z",
  "body": "    --- a/lib/delayed/backend/active_record.rb\n    +++ b/lib/delayed/backend/active_record.rb\n    @@ -25,10 +25,10 @@ module Delayed\n         \n             before_save :set_default_run_at\n \n    -        named_scope :ready_to_run, lambda {|worker_name, max_run_time|\n    +        scope :ready_to_run, lambda {|worker_name, max_run_time|\n               {:conditions => ['(run_at <= ? AND (locked_at IS NULL OR locked_at < ?) OR locked_by = ?) AND failed_at IS NULL', db_time_now, db_time_now - max_run_time, worker_name]}\n             }\n    -        named_scope :by_priority, :order => 'priority ASC, run_at ASC'\n    +        scope :by_priority, :order => 'priority ASC, run_at ASC'\n         \n             def self.after_fork\n               ::ActiveRecord::Base.connection.reconnect!\n\n\nAND (shorter than writing it as a diff)\n\ncd delayed_job; mv rails/init.rb .; rm -r rails/\n"
}
, {
  "url": "https://api.github.com/repos/collectiveidea/delayed_job/issues/comments/179891",
  "html_url": "https://github.com/collectiveidea/delayed_job/issues/51#issuecomment-179891",
  "issue_url": "https://api.github.com/repos/collectiveidea/delayed_job/issues/51",
  "id": 179891,
  "user": {
    "login": "bkeepers",
    "id": 173,
    "avatar_url": "https://avatars.githubusercontent.com/u/173?v=3",
    "gravatar_id": "",
    "url": "https://api.github.com/users/bkeepers",
    "html_url": "https://github.com/bkeepers",
    "followers_url": "https://api.github.com/users/bkeepers/followers",
    "following_url": "https://api.github.com/users/bkeepers/following{/other_user}",
    "gists_url": "https://api.github.com/users/bkeepers/gists{/gist_id}",
    "starred_url": "https://api.github.com/users/bkeepers/starred{/owner}{/repo}",
    "subscriptions_url": "https://api.github.com/users/bkeepers/subscriptions",
    "organizations_url": "https://api.github.com/users/bkeepers/orgs",
    "repos_url": "https://api.github.com/users/bkeepers/repos",
    "events_url": "https://api.github.com/users/bkeepers/events{/privacy}",
    "received_events_url": "https://api.github.com/users/bkeepers/received_events",
    "type": "User",
    "site_admin": true
  },
  "created_at": "2010-04-07T04:07:54Z",
  "updated_at": "2010-04-07T04:07:54Z",
  "body": "I don't think those named_scope changes are backwards compatible with Rails 2.3."
}
, {
  "url": "https://api.github.com/repos/collectiveidea/delayed_job/issues/comments/179987",
  "html_url": "https://github.com/collectiveidea/delayed_job/issues/51#issuecomment-179987",
  "issue_url": "https://api.github.com/repos/collectiveidea/delayed_job/issues/51",
  "id": 179987,
  "user": {
    "login": "WhyEvenTry",
    "id": 199179,
    "avatar_url": "https://avatars.githubusercontent.com/u/199179?v=3",
    "gravatar_id": "",
    "url": "https://api.github.com/users/WhyEvenTry",
    "html_url": "https://github.com/WhyEvenTry",
    "followers_url": "https://api.github.com/users/WhyEvenTry/followers",
    "following_url": "https://api.github.com/users/WhyEvenTry/following{/other_user}",
    "gists_url": "https://api.github.com/users/WhyEvenTry/gists{/gist_id}",
    "starred_url": "https://api.github.com/users/WhyEvenTry/starred{/owner}{/repo}",
    "subscriptions_url": "https://api.github.com/users/WhyEvenTry/subscriptions",
    "organizations_url": "https://api.github.com/users/WhyEvenTry/orgs",
    "repos_url": "https://api.github.com/users/WhyEvenTry/repos",
    "events_url": "https://api.github.com/users/WhyEvenTry/events{/privacy}",
    "received_events_url": "https://api.github.com/users/WhyEvenTry/received_events",
    "type": "User",
    "site_admin": false
  },
  "created_at": "2010-04-07T06:07:55Z",
  "updated_at": "2010-04-07T06:07:55Z",
  "body": "Indeed they are not. Oh, I overlooked THAT part of your request..."
}
, {
  "url": "https://api.github.com/repos/collectiveidea/delayed_job/issues/comments/296712",
  "html_url": "https://github.com/collectiveidea/delayed_job/issues/51#issuecomment-296712",
  "issue_url": "https://api.github.com/repos/collectiveidea/delayed_job/issues/51",
  "id": 296712,
  "user": {
    "login": "pvdb",
    "id": 17322,
    "avatar_url": "https://avatars.githubusercontent.com/u/17322?v=3",
    "gravatar_id": "",
    "url": "https://api.github.com/users/pvdb",
    "html_url": "https://github.com/pvdb",
    "followers_url": "https://api.github.com/users/pvdb/followers",
    "following_url": "https://api.github.com/users/pvdb/following{/other_user}",
    "gists_url": "https://api.github.com/users/pvdb/gists{/gist_id}",
    "starred_url": "https://api.github.com/users/pvdb/starred{/owner}{/repo}",
    "subscriptions_url": "https://api.github.com/users/pvdb/subscriptions",
    "organizations_url": "https://api.github.com/users/pvdb/orgs",
    "repos_url": "https://api.github.com/users/pvdb/repos",
    "events_url": "https://api.github.com/users/pvdb/events{/privacy}",
    "received_events_url": "https://api.github.com/users/pvdb/received_events",
    "type": "User",
    "site_admin": false
  },
  "created_at": "2010-07-02T11:06:05Z",
  "updated_at": "2010-07-02T11:06:05Z",
  "body": "Agreed that the named_scope changes aren't backwards compatible with Rails 2.3, but that doesn't prevent a \"rails3\" branch to be set up in the meantime, similar to the \"rails3\" branch of - for instance - the [will_paginate](http://github.com/mislav/will_paginate/tree/rails3) gem.\r\n\r\nThat way, the deprecation warnings can be dealt with, and people can decide to gem install directly from the \"rails3\" git branch (as opposed to installing the \"official\" RubyGems version of the gem)"
}
, {
  "url": "https://api.github.com/repos/collectiveidea/delayed_job/issues/comments/300277",
  "html_url": "https://github.com/collectiveidea/delayed_job/issues/51#issuecomment-300277",
  "issue_url": "https://api.github.com/repos/collectiveidea/delayed_job/issues/51",
  "id": 300277,
  "user": {
    "login": "pvdb",
    "id": 17322,
    "avatar_url": "https://avatars.githubusercontent.com/u/17322?v=3",
    "gravatar_id": "",
    "url": "https://api.github.com/users/pvdb",
    "html_url": "https://github.com/pvdb",
    "followers_url": "https://api.github.com/users/pvdb/followers",
    "following_url": "https://api.github.com/users/pvdb/following{/other_user}",
    "gists_url": "https://api.github.com/users/pvdb/gists{/gist_id}",
    "starred_url": "https://api.github.com/users/pvdb/starred{/owner}{/repo}",
    "subscriptions_url": "https://api.github.com/users/pvdb/subscriptions",
    "organizations_url": "https://api.github.com/users/pvdb/orgs",
    "repos_url": "https://api.github.com/users/pvdb/repos",
    "events_url": "https://api.github.com/users/pvdb/events{/privacy}",
    "received_events_url": "https://api.github.com/users/pvdb/received_events",
    "type": "User",
    "site_admin": false
  },
  "created_at": "2010-07-05T17:22:43Z",
  "updated_at": "2010-07-05T17:22:43Z",
  "body": "FYI: I have forked the project and created a Rails3 compatibility branch, on which I have applied the above discussed patches (and more)... [go get you some!  ;-)](http://github.com/pvdb/delayed_job/tree/rails3)\r\n\r\nIn the Gemfile for your Rails3 project, you can use:\r\n\r\n`gem 'delayed_job', :git => 'git://github.com/pvdb/delayed_job.git', :branch => 'rails3'`\r\n\r\n... to automagically start using the Rails3-compatible version of this gem."
}
, {
  "url": "https://api.github.com/repos/collectiveidea/delayed_job/issues/comments/320378",
  "html_url": "https://github.com/collectiveidea/delayed_job/issues/51#issuecomment-320378",
  "issue_url": "https://api.github.com/repos/collectiveidea/delayed_job/issues/51",
  "id": 320378,
  "user": {
    "login": "bkeepers",
    "id": 173,
    "avatar_url": "https://avatars.githubusercontent.com/u/173?v=3",
    "gravatar_id": "",
    "url": "https://api.github.com/users/bkeepers",
    "html_url": "https://github.com/bkeepers",
    "followers_url": "https://api.github.com/users/bkeepers/followers",
    "following_url": "https://api.github.com/users/bkeepers/following{/other_user}",
    "gists_url": "https://api.github.com/users/bkeepers/gists{/gist_id}",
    "starred_url": "https://api.github.com/users/bkeepers/starred{/owner}{/repo}",
    "subscriptions_url": "https://api.github.com/users/bkeepers/subscriptions",
    "organizations_url": "https://api.github.com/users/bkeepers/orgs",
    "repos_url": "https://api.github.com/users/bkeepers/repos",
    "events_url": "https://api.github.com/users/bkeepers/events{/privacy}",
    "received_events_url": "https://api.github.com/users/bkeepers/received_events",
    "type": "User",
    "site_admin": true
  },
  "created_at": "2010-07-21T01:29:21Z",
  "updated_at": "2010-07-21T01:29:21Z",
  "body": "Fixed in 71fbb4fb94e157d51f1f0418990244341accfa13"
}
]
