[
{
  "url": "https://api.github.com/repos/mongodb/mongo-hadoop/issues/comments/66124367",
  "html_url": "https://github.com/mongodb/mongo-hadoop/pull/115#issuecomment-66124367",
  "issue_url": "https://api.github.com/repos/mongodb/mongo-hadoop/issues/115",
  "id": 66124367,
  "user": {
    "login": "evanchooly",
    "id": 195021,
    "avatar_url": "https://avatars.githubusercontent.com/u/195021?v=3",
    "gravatar_id": "",
    "url": "https://api.github.com/users/evanchooly",
    "html_url": "https://github.com/evanchooly",
    "followers_url": "https://api.github.com/users/evanchooly/followers",
    "following_url": "https://api.github.com/users/evanchooly/following{/other_user}",
    "gists_url": "https://api.github.com/users/evanchooly/gists{/gist_id}",
    "starred_url": "https://api.github.com/users/evanchooly/starred{/owner}{/repo}",
    "subscriptions_url": "https://api.github.com/users/evanchooly/subscriptions",
    "organizations_url": "https://api.github.com/users/evanchooly/orgs",
    "repos_url": "https://api.github.com/users/evanchooly/repos",
    "events_url": "https://api.github.com/users/evanchooly/events{/privacy}",
    "received_events_url": "https://api.github.com/users/evanchooly/received_events",
    "type": "User",
    "site_admin": false
  },
  "created_at": "2014-12-08T14:42:17Z",
  "updated_at": "2014-12-08T14:42:17Z",
  "body": "What \"double initialization\" are you talking about?  Can you provide a test case?"
}
, {
  "url": "https://api.github.com/repos/mongodb/mongo-hadoop/issues/comments/71053526",
  "html_url": "https://github.com/mongodb/mongo-hadoop/pull/115#issuecomment-71053526",
  "issue_url": "https://api.github.com/repos/mongodb/mongo-hadoop/issues/115",
  "id": 71053526,
  "user": {
    "login": "dselivanov",
    "id": 5123805,
    "avatar_url": "https://avatars.githubusercontent.com/u/5123805?v=3",
    "gravatar_id": "",
    "url": "https://api.github.com/users/dselivanov",
    "html_url": "https://github.com/dselivanov",
    "followers_url": "https://api.github.com/users/dselivanov/followers",
    "following_url": "https://api.github.com/users/dselivanov/following{/other_user}",
    "gists_url": "https://api.github.com/users/dselivanov/gists{/gist_id}",
    "starred_url": "https://api.github.com/users/dselivanov/starred{/owner}{/repo}",
    "subscriptions_url": "https://api.github.com/users/dselivanov/subscriptions",
    "organizations_url": "https://api.github.com/users/dselivanov/orgs",
    "repos_url": "https://api.github.com/users/dselivanov/repos",
    "events_url": "https://api.github.com/users/dselivanov/events{/privacy}",
    "received_events_url": "https://api.github.com/users/dselivanov/received_events",
    "type": "User",
    "site_admin": false
  },
  "created_at": "2015-01-22T16:52:28Z",
  "updated_at": "2015-01-22T16:53:05Z",
  "body": "@inq , thanks for fix!\r\nI can confirm, this resolves problem with reading directory input from s3. \r\n[Details here](https://groups.google.com/forum/#!topic/mongodb-user/wx8Fp8XSewE)."
}
, {
  "url": "https://api.github.com/repos/mongodb/mongo-hadoop/issues/comments/71601655",
  "html_url": "https://github.com/mongodb/mongo-hadoop/pull/115#issuecomment-71601655",
  "issue_url": "https://api.github.com/repos/mongodb/mongo-hadoop/issues/115",
  "id": 71601655,
  "user": {
    "login": "jfelectron",
    "id": 211285,
    "avatar_url": "https://avatars.githubusercontent.com/u/211285?v=3",
    "gravatar_id": "",
    "url": "https://api.github.com/users/jfelectron",
    "html_url": "https://github.com/jfelectron",
    "followers_url": "https://api.github.com/users/jfelectron/followers",
    "following_url": "https://api.github.com/users/jfelectron/following{/other_user}",
    "gists_url": "https://api.github.com/users/jfelectron/gists{/gist_id}",
    "starred_url": "https://api.github.com/users/jfelectron/starred{/owner}{/repo}",
    "subscriptions_url": "https://api.github.com/users/jfelectron/subscriptions",
    "organizations_url": "https://api.github.com/users/jfelectron/orgs",
    "repos_url": "https://api.github.com/users/jfelectron/repos",
    "events_url": "https://api.github.com/users/jfelectron/events{/privacy}",
    "received_events_url": "https://api.github.com/users/jfelectron/received_events",
    "type": "User",
    "site_admin": false
  },
  "created_at": "2015-01-27T07:35:59Z",
  "updated_at": "2015-01-27T07:35:59Z",
  "body": ":+1: "
}
, {
  "url": "https://api.github.com/repos/mongodb/mongo-hadoop/issues/comments/75680588",
  "html_url": "https://github.com/mongodb/mongo-hadoop/pull/115#issuecomment-75680588",
  "issue_url": "https://api.github.com/repos/mongodb/mongo-hadoop/issues/115",
  "id": 75680588,
  "user": {
    "login": "llvtt",
    "id": 5168837,
    "avatar_url": "https://avatars.githubusercontent.com/u/5168837?v=3",
    "gravatar_id": "",
    "url": "https://api.github.com/users/llvtt",
    "html_url": "https://github.com/llvtt",
    "followers_url": "https://api.github.com/users/llvtt/followers",
    "following_url": "https://api.github.com/users/llvtt/following{/other_user}",
    "gists_url": "https://api.github.com/users/llvtt/gists{/gist_id}",
    "starred_url": "https://api.github.com/users/llvtt/starred{/owner}{/repo}",
    "subscriptions_url": "https://api.github.com/users/llvtt/subscriptions",
    "organizations_url": "https://api.github.com/users/llvtt/orgs",
    "repos_url": "https://api.github.com/users/llvtt/repos",
    "events_url": "https://api.github.com/users/llvtt/events{/privacy}",
    "received_events_url": "https://api.github.com/users/llvtt/received_events",
    "type": "User",
    "site_admin": false
  },
  "created_at": "2015-02-24T01:20:53Z",
  "updated_at": "2015-02-24T18:42:56Z",
  "body": "@inq \r\nDoes this change need to be made in the old `mapred.BSONFileInputFormat` as well? I'm not sure who's in charge of calling `initialize` in Hadoop 1.x.\r\n\r\nEdit: looks like the code that was in the old `mapred.BSONFileInputFormat` used to be in the constructor. `initialize()` isn't defined on `mapred.RecordReader`, either, nor in any of mapred's own RecordReaders. These changes lgtm."
}
, {
  "url": "https://api.github.com/repos/mongodb/mongo-hadoop/issues/comments/75845576",
  "html_url": "https://github.com/mongodb/mongo-hadoop/pull/115#issuecomment-75845576",
  "issue_url": "https://api.github.com/repos/mongodb/mongo-hadoop/issues/115",
  "id": 75845576,
  "user": {
    "login": "llvtt",
    "id": 5168837,
    "avatar_url": "https://avatars.githubusercontent.com/u/5168837?v=3",
    "gravatar_id": "",
    "url": "https://api.github.com/users/llvtt",
    "html_url": "https://github.com/llvtt",
    "followers_url": "https://api.github.com/users/llvtt/followers",
    "following_url": "https://api.github.com/users/llvtt/following{/other_user}",
    "gists_url": "https://api.github.com/users/llvtt/gists{/gist_id}",
    "starred_url": "https://api.github.com/users/llvtt/starred{/owner}{/repo}",
    "subscriptions_url": "https://api.github.com/users/llvtt/subscriptions",
    "organizations_url": "https://api.github.com/users/llvtt/orgs",
    "repos_url": "https://api.github.com/users/llvtt/repos",
    "events_url": "https://api.github.com/users/llvtt/events{/privacy}",
    "received_events_url": "https://api.github.com/users/llvtt/received_events",
    "type": "User",
    "site_admin": false
  },
  "created_at": "2015-02-24T21:04:33Z",
  "updated_at": "2015-02-24T21:04:33Z",
  "body": "merged this in d53ecee6c4a37a1f0b65663e7190e8219726c29f. Thanks for the pull request!"
}
]
