[
{
  "url": "https://api.github.com/repos/Automattic/underscores.me/issues/comments/47686272",
  "html_url": "https://github.com/Automattic/underscores.me/issues/27#issuecomment-47686272",
  "issue_url": "https://api.github.com/repos/Automattic/underscores.me/issues/27",
  "id": 47686272,
  "user": {
    "login": "amitabhaghosh197",
    "id": 735279,
    "avatar_url": "https://avatars.githubusercontent.com/u/735279?v=3",
    "gravatar_id": "",
    "url": "https://api.github.com/users/amitabhaghosh197",
    "html_url": "https://github.com/amitabhaghosh197",
    "followers_url": "https://api.github.com/users/amitabhaghosh197/followers",
    "following_url": "https://api.github.com/users/amitabhaghosh197/following{/other_user}",
    "gists_url": "https://api.github.com/users/amitabhaghosh197/gists{/gist_id}",
    "starred_url": "https://api.github.com/users/amitabhaghosh197/starred{/owner}{/repo}",
    "subscriptions_url": "https://api.github.com/users/amitabhaghosh197/subscriptions",
    "organizations_url": "https://api.github.com/users/amitabhaghosh197/orgs",
    "repos_url": "https://api.github.com/users/amitabhaghosh197/repos",
    "events_url": "https://api.github.com/users/amitabhaghosh197/events{/privacy}",
    "received_events_url": "https://api.github.com/users/amitabhaghosh197/received_events",
    "type": "User",
    "site_admin": false
  },
  "created_at": "2014-07-01T17:34:17Z",
  "updated_at": "2014-07-01T17:34:17Z",
  "body": "I have solved it. This is my code :\r\nfunction stepup_posted_on() {\r\n\t\r\n\t$categories = get_the_category();\r\n\t$time_string = '<time class=\"entry-date published\" datetime=\"%1$s\">%2$s</time>';\r\n\tif ( get_the_time( 'U' ) !== get_the_modified_time( 'U' ) ) {\r\n\t\t$time_string .= '<time class=\"updated\" datetime=\"%3$s\">%4$s</time>';\r\n\t}\r\n    //$category = sprintf($category, esc_attr(get_the_category()));\r\n\t    $category_show .= '<span class=\"\"><a href=\" ' .get_category_link($categories). ' \">' . $categories[0]->cat_name . '</a></span>';\r\n   \t$time_string = sprintf( $time_string,\r\n\t\tesc_attr( get_the_date( 'c' ) ),\r\n\t\tesc_html( get_the_date() ),\r\n\tesc_attr( get_the_modified_date( 'c' ) ),\r\n\t\tesc_html( get_the_modified_date() )\r\n\t);\r\n\t$posted_on = sprintf(\r\n\t\t_x( 'Posted under '. $category_show. 'on %s', 'post date', 'stepup' ),\r\n\t\t'<a href=\"' . esc_url( get_permalink() ) . '\" rel=\"bookmark\">' . $time_string . '</a>'\r\n\t);\r\n\t$byline = sprintf(\r\n\t\t_x( 'by %s', 'post author', 'stepup' ),\r\n\t\t'<span class=\"author vcard\"><a class=\"url fn n\" href=\"' . esc_url( get_author_posts_url( get_the_author_meta( 'ID' ) ) ) . '\">' . esc_html( get_the_author() ) . '</a></span>'\r\n\t);\r\n\techo '<span class=\"posted-on\">' . $posted_on . '</span><span class=\"byline\"> ' . $byline . '</span>';\r\n}endif;\r\n"
}
]
