[
{
  "url": "https://api.github.com/repos/paypal/cascade/issues/comments/69239902",
  "html_url": "https://github.com/paypal/cascade/pull/79#issuecomment-69239902",
  "issue_url": "https://api.github.com/repos/paypal/cascade/issues/79",
  "id": 69239902,
  "user": {
    "login": "taylorleese",
    "id": 202401,
    "avatar_url": "https://avatars.githubusercontent.com/u/202401?v=3",
    "gravatar_id": "",
    "url": "https://api.github.com/users/taylorleese",
    "html_url": "https://github.com/taylorleese",
    "followers_url": "https://api.github.com/users/taylorleese/followers",
    "following_url": "https://api.github.com/users/taylorleese/following{/other_user}",
    "gists_url": "https://api.github.com/users/taylorleese/gists{/gist_id}",
    "starred_url": "https://api.github.com/users/taylorleese/starred{/owner}{/repo}",
    "subscriptions_url": "https://api.github.com/users/taylorleese/subscriptions",
    "organizations_url": "https://api.github.com/users/taylorleese/orgs",
    "repos_url": "https://api.github.com/users/taylorleese/repos",
    "events_url": "https://api.github.com/users/taylorleese/events{/privacy}",
    "received_events_url": "https://api.github.com/users/taylorleese/received_events",
    "type": "User",
    "site_admin": false
  },
  "created_at": "2015-01-08T20:03:44Z",
  "updated_at": "2015-01-08T20:03:44Z",
  "body": ":shipit: "
}
]
