[
{
  "url": "https://api.github.com/repos/stripe/PaymentKit/issues/comments/35051784",
  "html_url": "https://github.com/stripe/PaymentKit/pull/18#issuecomment-35051784",
  "issue_url": "https://api.github.com/repos/stripe/PaymentKit/issues/18",
  "id": 35051784,
  "user": {
    "login": "phillco",
    "id": 536668,
    "avatar_url": "https://avatars.githubusercontent.com/u/536668?v=3",
    "gravatar_id": "",
    "url": "https://api.github.com/users/phillco",
    "html_url": "https://github.com/phillco",
    "followers_url": "https://api.github.com/users/phillco/followers",
    "following_url": "https://api.github.com/users/phillco/following{/other_user}",
    "gists_url": "https://api.github.com/users/phillco/gists{/gist_id}",
    "starred_url": "https://api.github.com/users/phillco/starred{/owner}{/repo}",
    "subscriptions_url": "https://api.github.com/users/phillco/subscriptions",
    "organizations_url": "https://api.github.com/users/phillco/orgs",
    "repos_url": "https://api.github.com/users/phillco/repos",
    "events_url": "https://api.github.com/users/phillco/events{/privacy}",
    "received_events_url": "https://api.github.com/users/phillco/received_events",
    "type": "User",
    "site_admin": false
  },
  "created_at": "2014-02-14T03:11:10Z",
  "updated_at": "2014-02-14T03:11:10Z",
  "body": "Thanks for the PR! klaaspieter wrote a slightly more complete version which I ended up merging, but this is good too. Sorry for the delay here."
}
]
