[
{
  "url": "https://api.github.com/repos/owncloud/gallery/issues/comments/116361616",
  "html_url": "https://github.com/owncloud/gallery/issues/195#issuecomment-116361616",
  "issue_url": "https://api.github.com/repos/owncloud/gallery/issues/195",
  "id": 116361616,
  "user": {
    "login": "oparoz",
    "id": 323220,
    "avatar_url": "https://avatars.githubusercontent.com/u/323220?v=3",
    "gravatar_id": "",
    "url": "https://api.github.com/users/oparoz",
    "html_url": "https://github.com/oparoz",
    "followers_url": "https://api.github.com/users/oparoz/followers",
    "following_url": "https://api.github.com/users/oparoz/following{/other_user}",
    "gists_url": "https://api.github.com/users/oparoz/gists{/gist_id}",
    "starred_url": "https://api.github.com/users/oparoz/starred{/owner}{/repo}",
    "subscriptions_url": "https://api.github.com/users/oparoz/subscriptions",
    "organizations_url": "https://api.github.com/users/oparoz/orgs",
    "repos_url": "https://api.github.com/users/oparoz/repos",
    "events_url": "https://api.github.com/users/oparoz/events{/privacy}",
    "received_events_url": "https://api.github.com/users/oparoz/received_events",
    "type": "User",
    "site_admin": false
  },
  "created_at": "2015-06-28T23:59:59Z",
  "updated_at": "2015-06-28T23:59:59Z",
  "body": "The problem actually comes from the response. Redirect on 8.0 vs error message on 8.1.So, updating the OP because we need to change our approach to retrieve the features for public pages.\r\n"
}
]
