[
{
  "url": "https://api.github.com/repos/chef/chef/issues/comments/164031942",
  "html_url": "https://github.com/chef/chef/pull/4288#issuecomment-164031942",
  "issue_url": "https://api.github.com/repos/chef/chef/issues/4288",
  "id": 164031942,
  "user": {
    "login": "tylercloke",
    "id": 1899715,
    "avatar_url": "https://avatars.githubusercontent.com/u/1899715?v=3",
    "gravatar_id": "",
    "url": "https://api.github.com/users/tylercloke",
    "html_url": "https://github.com/tylercloke",
    "followers_url": "https://api.github.com/users/tylercloke/followers",
    "following_url": "https://api.github.com/users/tylercloke/following{/other_user}",
    "gists_url": "https://api.github.com/users/tylercloke/gists{/gist_id}",
    "starred_url": "https://api.github.com/users/tylercloke/starred{/owner}{/repo}",
    "subscriptions_url": "https://api.github.com/users/tylercloke/subscriptions",
    "organizations_url": "https://api.github.com/users/tylercloke/orgs",
    "repos_url": "https://api.github.com/users/tylercloke/repos",
    "events_url": "https://api.github.com/users/tylercloke/events{/privacy}",
    "received_events_url": "https://api.github.com/users/tylercloke/received_events",
    "type": "User",
    "site_admin": false
  },
  "created_at": "2015-12-11T19:46:17Z",
  "updated_at": "2015-12-11T19:46:17Z",
  "body": ":+1: "
}
, {
  "url": "https://api.github.com/repos/chef/chef/issues/comments/164035447",
  "html_url": "https://github.com/chef/chef/pull/4288#issuecomment-164035447",
  "issue_url": "https://api.github.com/repos/chef/chef/issues/4288",
  "id": 164035447,
  "user": {
    "login": "coderanger",
    "id": 128243,
    "avatar_url": "https://avatars.githubusercontent.com/u/128243?v=3",
    "gravatar_id": "",
    "url": "https://api.github.com/users/coderanger",
    "html_url": "https://github.com/coderanger",
    "followers_url": "https://api.github.com/users/coderanger/followers",
    "following_url": "https://api.github.com/users/coderanger/following{/other_user}",
    "gists_url": "https://api.github.com/users/coderanger/gists{/gist_id}",
    "starred_url": "https://api.github.com/users/coderanger/starred{/owner}{/repo}",
    "subscriptions_url": "https://api.github.com/users/coderanger/subscriptions",
    "organizations_url": "https://api.github.com/users/coderanger/orgs",
    "repos_url": "https://api.github.com/users/coderanger/repos",
    "events_url": "https://api.github.com/users/coderanger/events{/privacy}",
    "received_events_url": "https://api.github.com/users/coderanger/received_events",
    "type": "User",
    "site_admin": false
  },
  "created_at": "2015-12-11T20:03:04Z",
  "updated_at": "2015-12-11T20:03:04Z",
  "body": ":shipit: "
}
, {
  "url": "https://api.github.com/repos/chef/chef/issues/comments/164039670",
  "html_url": "https://github.com/chef/chef/pull/4288#issuecomment-164039670",
  "issue_url": "https://api.github.com/repos/chef/chef/issues/4288",
  "id": 164039670,
  "user": {
    "login": "tyler-ball",
    "id": 2481463,
    "avatar_url": "https://avatars.githubusercontent.com/u/2481463?v=3",
    "gravatar_id": "",
    "url": "https://api.github.com/users/tyler-ball",
    "html_url": "https://github.com/tyler-ball",
    "followers_url": "https://api.github.com/users/tyler-ball/followers",
    "following_url": "https://api.github.com/users/tyler-ball/following{/other_user}",
    "gists_url": "https://api.github.com/users/tyler-ball/gists{/gist_id}",
    "starred_url": "https://api.github.com/users/tyler-ball/starred{/owner}{/repo}",
    "subscriptions_url": "https://api.github.com/users/tyler-ball/subscriptions",
    "organizations_url": "https://api.github.com/users/tyler-ball/orgs",
    "repos_url": "https://api.github.com/users/tyler-ball/repos",
    "events_url": "https://api.github.com/users/tyler-ball/events{/privacy}",
    "received_events_url": "https://api.github.com/users/tyler-ball/received_events",
    "type": "User",
    "site_admin": false
  },
  "created_at": "2015-12-11T20:24:50Z",
  "updated_at": "2015-12-11T20:25:15Z",
  "body": ":+1: \r\n\r\nSorry everyone, this should never have gotten through unit testing\r\n\r\n![](http://i.imgur.com/Ccqam.png)"
}
]
