[
{
  "url": "https://api.github.com/repos/chef/chef/issues/comments/51832546",
  "html_url": "https://github.com/chef/chef/pull/1800#issuecomment-51832546",
  "issue_url": "https://api.github.com/repos/chef/chef/issues/1800",
  "id": 51832546,
  "user": {
    "login": "sersut",
    "id": 1695955,
    "avatar_url": "https://avatars.githubusercontent.com/u/1695955?v=3",
    "gravatar_id": "",
    "url": "https://api.github.com/users/sersut",
    "html_url": "https://github.com/sersut",
    "followers_url": "https://api.github.com/users/sersut/followers",
    "following_url": "https://api.github.com/users/sersut/following{/other_user}",
    "gists_url": "https://api.github.com/users/sersut/gists{/gist_id}",
    "starred_url": "https://api.github.com/users/sersut/starred{/owner}{/repo}",
    "subscriptions_url": "https://api.github.com/users/sersut/subscriptions",
    "organizations_url": "https://api.github.com/users/sersut/orgs",
    "repos_url": "https://api.github.com/users/sersut/repos",
    "events_url": "https://api.github.com/users/sersut/events{/privacy}",
    "received_events_url": "https://api.github.com/users/sersut/received_events",
    "type": "User",
    "site_admin": false
  },
  "created_at": "2014-08-11T20:01:51Z",
  "updated_at": "2014-08-11T20:01:51Z",
  "body": "Also /cc: @jtimberman \r\n\r\nThis should work for the Mac mgmt thing that you're working on :smile: "
}
, {
  "url": "https://api.github.com/repos/chef/chef/issues/comments/51946678",
  "html_url": "https://github.com/chef/chef/pull/1800#issuecomment-51946678",
  "issue_url": "https://api.github.com/repos/chef/chef/issues/1800",
  "id": 51946678,
  "user": {
    "login": "danielsdeleo",
    "id": 37162,
    "avatar_url": "https://avatars.githubusercontent.com/u/37162?v=3",
    "gravatar_id": "",
    "url": "https://api.github.com/users/danielsdeleo",
    "html_url": "https://github.com/danielsdeleo",
    "followers_url": "https://api.github.com/users/danielsdeleo/followers",
    "following_url": "https://api.github.com/users/danielsdeleo/following{/other_user}",
    "gists_url": "https://api.github.com/users/danielsdeleo/gists{/gist_id}",
    "starred_url": "https://api.github.com/users/danielsdeleo/starred{/owner}{/repo}",
    "subscriptions_url": "https://api.github.com/users/danielsdeleo/subscriptions",
    "organizations_url": "https://api.github.com/users/danielsdeleo/orgs",
    "repos_url": "https://api.github.com/users/danielsdeleo/repos",
    "events_url": "https://api.github.com/users/danielsdeleo/events{/privacy}",
    "received_events_url": "https://api.github.com/users/danielsdeleo/received_events",
    "type": "User",
    "site_admin": false
  },
  "created_at": "2014-08-12T17:21:51Z",
  "updated_at": "2014-08-12T17:21:51Z",
  "body": "Would like to see some of the really long methods broken down, but not a huge deal. :+1: "
}
, {
  "url": "https://api.github.com/repos/chef/chef/issues/comments/51973038",
  "html_url": "https://github.com/chef/chef/pull/1800#issuecomment-51973038",
  "issue_url": "https://api.github.com/repos/chef/chef/issues/1800",
  "id": 51973038,
  "user": {
    "login": "sersut",
    "id": 1695955,
    "avatar_url": "https://avatars.githubusercontent.com/u/1695955?v=3",
    "gravatar_id": "",
    "url": "https://api.github.com/users/sersut",
    "html_url": "https://github.com/sersut",
    "followers_url": "https://api.github.com/users/sersut/followers",
    "following_url": "https://api.github.com/users/sersut/following{/other_user}",
    "gists_url": "https://api.github.com/users/sersut/gists{/gist_id}",
    "starred_url": "https://api.github.com/users/sersut/starred{/owner}{/repo}",
    "subscriptions_url": "https://api.github.com/users/sersut/subscriptions",
    "organizations_url": "https://api.github.com/users/sersut/orgs",
    "repos_url": "https://api.github.com/users/sersut/repos",
    "events_url": "https://api.github.com/users/sersut/events{/privacy}",
    "received_events_url": "https://api.github.com/users/sersut/received_events",
    "type": "User",
    "site_admin": false
  },
  "created_at": "2014-08-12T20:34:14Z",
  "updated_at": "2014-08-12T20:34:14Z",
  "body": "@danielsdeleo updates are done including CHANGELOG and RELEASE_NOTES updates. \r\n\r\nLooking good?"
}
, {
  "url": "https://api.github.com/repos/chef/chef/issues/comments/51994680",
  "html_url": "https://github.com/chef/chef/pull/1800#issuecomment-51994680",
  "issue_url": "https://api.github.com/repos/chef/chef/issues/1800",
  "id": 51994680,
  "user": {
    "login": "sersut",
    "id": 1695955,
    "avatar_url": "https://avatars.githubusercontent.com/u/1695955?v=3",
    "gravatar_id": "",
    "url": "https://api.github.com/users/sersut",
    "html_url": "https://github.com/sersut",
    "followers_url": "https://api.github.com/users/sersut/followers",
    "following_url": "https://api.github.com/users/sersut/following{/other_user}",
    "gists_url": "https://api.github.com/users/sersut/gists{/gist_id}",
    "starred_url": "https://api.github.com/users/sersut/starred{/owner}{/repo}",
    "subscriptions_url": "https://api.github.com/users/sersut/subscriptions",
    "organizations_url": "https://api.github.com/users/sersut/orgs",
    "repos_url": "https://api.github.com/users/sersut/repos",
    "events_url": "https://api.github.com/users/sersut/events{/privacy}",
    "received_events_url": "https://api.github.com/users/sersut/received_events",
    "type": "User",
    "site_admin": false
  },
  "created_at": "2014-08-13T00:07:17Z",
  "updated_at": "2014-08-13T00:07:17Z",
  "body": "@danielsdeleo code / documentation updated. Anything needed before the merge?"
}
, {
  "url": "https://api.github.com/repos/chef/chef/issues/comments/51995163",
  "html_url": "https://github.com/chef/chef/pull/1800#issuecomment-51995163",
  "issue_url": "https://api.github.com/repos/chef/chef/issues/1800",
  "id": 51995163,
  "user": {
    "login": "danielsdeleo",
    "id": 37162,
    "avatar_url": "https://avatars.githubusercontent.com/u/37162?v=3",
    "gravatar_id": "",
    "url": "https://api.github.com/users/danielsdeleo",
    "html_url": "https://github.com/danielsdeleo",
    "followers_url": "https://api.github.com/users/danielsdeleo/followers",
    "following_url": "https://api.github.com/users/danielsdeleo/following{/other_user}",
    "gists_url": "https://api.github.com/users/danielsdeleo/gists{/gist_id}",
    "starred_url": "https://api.github.com/users/danielsdeleo/starred{/owner}{/repo}",
    "subscriptions_url": "https://api.github.com/users/danielsdeleo/subscriptions",
    "organizations_url": "https://api.github.com/users/danielsdeleo/orgs",
    "repos_url": "https://api.github.com/users/danielsdeleo/repos",
    "events_url": "https://api.github.com/users/danielsdeleo/events{/privacy}",
    "received_events_url": "https://api.github.com/users/danielsdeleo/received_events",
    "type": "User",
    "site_admin": false
  },
  "created_at": "2014-08-13T00:14:30Z",
  "updated_at": "2014-08-13T00:14:30Z",
  "body": "One question on the change log, good other than that."
}
]
