[
{
  "url": "https://api.github.com/repos/chef/chef/issues/comments/47230147",
  "html_url": "https://github.com/chef/chef/issues/1563#issuecomment-47230147",
  "issue_url": "https://api.github.com/repos/chef/chef/issues/1563",
  "id": 47230147,
  "user": {
    "login": "mal",
    "id": 591257,
    "avatar_url": "https://avatars.githubusercontent.com/u/591257?v=3",
    "gravatar_id": "",
    "url": "https://api.github.com/users/mal",
    "html_url": "https://github.com/mal",
    "followers_url": "https://api.github.com/users/mal/followers",
    "following_url": "https://api.github.com/users/mal/following{/other_user}",
    "gists_url": "https://api.github.com/users/mal/gists{/gist_id}",
    "starred_url": "https://api.github.com/users/mal/starred{/owner}{/repo}",
    "subscriptions_url": "https://api.github.com/users/mal/subscriptions",
    "organizations_url": "https://api.github.com/users/mal/orgs",
    "repos_url": "https://api.github.com/users/mal/repos",
    "events_url": "https://api.github.com/users/mal/events{/privacy}",
    "received_events_url": "https://api.github.com/users/mal/received_events",
    "type": "User",
    "site_admin": false
  },
  "created_at": "2014-06-26T14:11:07Z",
  "updated_at": "2014-06-27T10:52:15Z",
  "body": "Ran into this recently when testing deploys on ubuntu 14.04, seems the issue arose when git learnt the `--single-branch` flag in `1.7.10` and the default behaviour changed. The most recent git package on 12.04 was `1.7.9` so we'd never run into the issue there.\r\n\r\nYour suggestion fixes the initial deploy, but if the next deploy switches branch you run into the same issue. I think the flag to use is `--no-single-branch` which ensures you get the tip of all current branches which I believe was standard git behaviour prior to git `1.7.10`. Unfortunately, because that flag doesn't exist in versions prior to that, there likely needs to be some git version detection to avoid breaking deploy for machines still using old version of git."
}
, {
  "url": "https://api.github.com/repos/chef/chef/issues/comments/47815208",
  "html_url": "https://github.com/chef/chef/issues/1563#issuecomment-47815208",
  "issue_url": "https://api.github.com/repos/chef/chef/issues/1563",
  "id": 47815208,
  "user": {
    "login": "sersut",
    "id": 1695955,
    "avatar_url": "https://avatars.githubusercontent.com/u/1695955?v=3",
    "gravatar_id": "",
    "url": "https://api.github.com/users/sersut",
    "html_url": "https://github.com/sersut",
    "followers_url": "https://api.github.com/users/sersut/followers",
    "following_url": "https://api.github.com/users/sersut/following{/other_user}",
    "gists_url": "https://api.github.com/users/sersut/gists{/gist_id}",
    "starred_url": "https://api.github.com/users/sersut/starred{/owner}{/repo}",
    "subscriptions_url": "https://api.github.com/users/sersut/subscriptions",
    "organizations_url": "https://api.github.com/users/sersut/orgs",
    "repos_url": "https://api.github.com/users/sersut/repos",
    "events_url": "https://api.github.com/users/sersut/events{/privacy}",
    "received_events_url": "https://api.github.com/users/sersut/received_events",
    "type": "User",
    "site_admin": false
  },
  "created_at": "2014-07-02T18:21:57Z",
  "updated_at": "2014-07-02T18:21:57Z",
  "body": "@vitaliel thanks for the issue. Would be great if you can take a stab at adding the additional parameter for `-b branch_name`. Let us know if you need some pointers to get started."
}
, {
  "url": "https://api.github.com/repos/chef/chef/issues/comments/49676032",
  "html_url": "https://github.com/chef/chef/issues/1563#issuecomment-49676032",
  "issue_url": "https://api.github.com/repos/chef/chef/issues/1563",
  "id": 49676032,
  "user": {
    "login": "neallawson",
    "id": 2312891,
    "avatar_url": "https://avatars.githubusercontent.com/u/2312891?v=3",
    "gravatar_id": "",
    "url": "https://api.github.com/users/neallawson",
    "html_url": "https://github.com/neallawson",
    "followers_url": "https://api.github.com/users/neallawson/followers",
    "following_url": "https://api.github.com/users/neallawson/following{/other_user}",
    "gists_url": "https://api.github.com/users/neallawson/gists{/gist_id}",
    "starred_url": "https://api.github.com/users/neallawson/starred{/owner}{/repo}",
    "subscriptions_url": "https://api.github.com/users/neallawson/subscriptions",
    "organizations_url": "https://api.github.com/users/neallawson/orgs",
    "repos_url": "https://api.github.com/users/neallawson/repos",
    "events_url": "https://api.github.com/users/neallawson/events{/privacy}",
    "received_events_url": "https://api.github.com/users/neallawson/received_events",
    "type": "User",
    "site_admin": false
  },
  "created_at": "2014-07-21T22:40:08Z",
  "updated_at": "2014-07-21T22:40:08Z",
  "body": "Any update on this?"
}
, {
  "url": "https://api.github.com/repos/chef/chef/issues/comments/50831329",
  "html_url": "https://github.com/chef/chef/issues/1563#issuecomment-50831329",
  "issue_url": "https://api.github.com/repos/chef/chef/issues/1563",
  "id": 50831329,
  "user": {
    "login": "neallawson",
    "id": 2312891,
    "avatar_url": "https://avatars.githubusercontent.com/u/2312891?v=3",
    "gravatar_id": "",
    "url": "https://api.github.com/users/neallawson",
    "html_url": "https://github.com/neallawson",
    "followers_url": "https://api.github.com/users/neallawson/followers",
    "following_url": "https://api.github.com/users/neallawson/following{/other_user}",
    "gists_url": "https://api.github.com/users/neallawson/gists{/gist_id}",
    "starred_url": "https://api.github.com/users/neallawson/starred{/owner}{/repo}",
    "subscriptions_url": "https://api.github.com/users/neallawson/subscriptions",
    "organizations_url": "https://api.github.com/users/neallawson/orgs",
    "repos_url": "https://api.github.com/users/neallawson/repos",
    "events_url": "https://api.github.com/users/neallawson/events{/privacy}",
    "received_events_url": "https://api.github.com/users/neallawson/received_events",
    "type": "User",
    "site_admin": false
  },
  "created_at": "2014-07-31T23:18:38Z",
  "updated_at": "2014-07-31T23:18:38Z",
  "body": "Anyone have a suggested workaround for this issue, given i have several cookbooks we use to deploy code internally that are broken by this bug. "
}
, {
  "url": "https://api.github.com/repos/chef/chef/issues/comments/50861900",
  "html_url": "https://github.com/chef/chef/issues/1563#issuecomment-50861900",
  "issue_url": "https://api.github.com/repos/chef/chef/issues/1563",
  "id": 50861900,
  "user": {
    "login": "mal",
    "id": 591257,
    "avatar_url": "https://avatars.githubusercontent.com/u/591257?v=3",
    "gravatar_id": "",
    "url": "https://api.github.com/users/mal",
    "html_url": "https://github.com/mal",
    "followers_url": "https://api.github.com/users/mal/followers",
    "following_url": "https://api.github.com/users/mal/following{/other_user}",
    "gists_url": "https://api.github.com/users/mal/gists{/gist_id}",
    "starred_url": "https://api.github.com/users/mal/starred{/owner}{/repo}",
    "subscriptions_url": "https://api.github.com/users/mal/subscriptions",
    "organizations_url": "https://api.github.com/users/mal/orgs",
    "repos_url": "https://api.github.com/users/mal/repos",
    "events_url": "https://api.github.com/users/mal/events{/privacy}",
    "received_events_url": "https://api.github.com/users/mal/received_events",
    "type": "User",
    "site_admin": false
  },
  "created_at": "2014-08-01T08:39:20Z",
  "updated_at": "2014-08-01T09:02:38Z",
  "body": "You can work around in the short term with `shallow_clone false`, your deploy will take longer, but it mitigates the problem. Obviously depending on the size of the repo in question, this may or may not be viable.\r\n\r\nThe more hardcore solution is a total hack; works by monkey patching the resource to inject the necessary switch. However **be warned** this will break deploys on any machine using a version of git prior to `1.7.10`. If you're happy with that you should be able to create an `rb` file in your cookbook's `libraries` directory containing:\r\n\r\n```rb\r\nclass Chef\r\n  class Resource\r\n    class Deploy < Chef::Resource\r\n      def depth\r\n        @shallow_clone ? \"5 --no-single-branch\" : nil\r\n      end\r\n    end\r\n  end\r\nend\r\n```\r\n\r\nYou might need to play with that a bit as I only gave it a cursory test a month or so ago and just rewrote it from memory.\r\n\r\nP.S. You could probably add some version check conditional to the hack if you need to support older git versions."
}
, {
  "url": "https://api.github.com/repos/chef/chef/issues/comments/50931918",
  "html_url": "https://github.com/chef/chef/issues/1563#issuecomment-50931918",
  "issue_url": "https://api.github.com/repos/chef/chef/issues/1563",
  "id": 50931918,
  "user": {
    "login": "neallawson",
    "id": 2312891,
    "avatar_url": "https://avatars.githubusercontent.com/u/2312891?v=3",
    "gravatar_id": "",
    "url": "https://api.github.com/users/neallawson",
    "html_url": "https://github.com/neallawson",
    "followers_url": "https://api.github.com/users/neallawson/followers",
    "following_url": "https://api.github.com/users/neallawson/following{/other_user}",
    "gists_url": "https://api.github.com/users/neallawson/gists{/gist_id}",
    "starred_url": "https://api.github.com/users/neallawson/starred{/owner}{/repo}",
    "subscriptions_url": "https://api.github.com/users/neallawson/subscriptions",
    "organizations_url": "https://api.github.com/users/neallawson/orgs",
    "repos_url": "https://api.github.com/users/neallawson/repos",
    "events_url": "https://api.github.com/users/neallawson/events{/privacy}",
    "received_events_url": "https://api.github.com/users/neallawson/received_events",
    "type": "User",
    "site_admin": false
  },
  "created_at": "2014-08-01T20:36:27Z",
  "updated_at": "2014-08-01T20:40:13Z",
  "body": "Thanks! that almost worked, with a small tweek i got something that gets me out of this bind until a better solution is found!\r\n\r\n```ruby\r\nclass Chef\r\n  class Resource\r\n    class Deploy < Chef::Resource\r\n      def depth\r\n        if node[:platform_version].to_i  >= 14.04 && node[:platform] == \"ubuntu\"\r\n          @shallow_clone ? \"--depth 5 --no-single-branch\" : nil\r\n        end\r\n      end\r\n    end\r\n  end\r\nend\r\n```"
}
, {
  "url": "https://api.github.com/repos/chef/chef/issues/comments/54387347",
  "html_url": "https://github.com/chef/chef/issues/1563#issuecomment-54387347",
  "issue_url": "https://api.github.com/repos/chef/chef/issues/1563",
  "id": 54387347,
  "user": {
    "login": "neallawson",
    "id": 2312891,
    "avatar_url": "https://avatars.githubusercontent.com/u/2312891?v=3",
    "gravatar_id": "",
    "url": "https://api.github.com/users/neallawson",
    "html_url": "https://github.com/neallawson",
    "followers_url": "https://api.github.com/users/neallawson/followers",
    "following_url": "https://api.github.com/users/neallawson/following{/other_user}",
    "gists_url": "https://api.github.com/users/neallawson/gists{/gist_id}",
    "starred_url": "https://api.github.com/users/neallawson/starred{/owner}{/repo}",
    "subscriptions_url": "https://api.github.com/users/neallawson/subscriptions",
    "organizations_url": "https://api.github.com/users/neallawson/orgs",
    "repos_url": "https://api.github.com/users/neallawson/repos",
    "events_url": "https://api.github.com/users/neallawson/events{/privacy}",
    "received_events_url": "https://api.github.com/users/neallawson/received_events",
    "type": "User",
    "site_admin": false
  },
  "created_at": "2014-09-04T00:09:10Z",
  "updated_at": "2014-09-04T00:09:10Z",
  "body": "Has a official fix for this issue been identified? As a side note the fix above works great for simple cookbooks, however on a more complex cookbook, with a  non default.rb recipe this fix seems to fail. "
}
, {
  "url": "https://api.github.com/repos/chef/chef/issues/comments/55663113",
  "html_url": "https://github.com/chef/chef/issues/1563#issuecomment-55663113",
  "issue_url": "https://api.github.com/repos/chef/chef/issues/1563",
  "id": 55663113,
  "user": {
    "login": "neallawson",
    "id": 2312891,
    "avatar_url": "https://avatars.githubusercontent.com/u/2312891?v=3",
    "gravatar_id": "",
    "url": "https://api.github.com/users/neallawson",
    "html_url": "https://github.com/neallawson",
    "followers_url": "https://api.github.com/users/neallawson/followers",
    "following_url": "https://api.github.com/users/neallawson/following{/other_user}",
    "gists_url": "https://api.github.com/users/neallawson/gists{/gist_id}",
    "starred_url": "https://api.github.com/users/neallawson/starred{/owner}{/repo}",
    "subscriptions_url": "https://api.github.com/users/neallawson/subscriptions",
    "organizations_url": "https://api.github.com/users/neallawson/orgs",
    "repos_url": "https://api.github.com/users/neallawson/repos",
    "events_url": "https://api.github.com/users/neallawson/events{/privacy}",
    "received_events_url": "https://api.github.com/users/neallawson/received_events",
    "type": "User",
    "site_admin": false
  },
  "created_at": "2014-09-15T21:38:07Z",
  "updated_at": "2014-09-15T21:38:07Z",
  "body": "Any idea of the priority of this?"
}
, {
  "url": "https://api.github.com/repos/chef/chef/issues/comments/57534459",
  "html_url": "https://github.com/chef/chef/issues/1563#issuecomment-57534459",
  "issue_url": "https://api.github.com/repos/chef/chef/issues/1563",
  "id": 57534459,
  "user": {
    "login": "neallawson",
    "id": 2312891,
    "avatar_url": "https://avatars.githubusercontent.com/u/2312891?v=3",
    "gravatar_id": "",
    "url": "https://api.github.com/users/neallawson",
    "html_url": "https://github.com/neallawson",
    "followers_url": "https://api.github.com/users/neallawson/followers",
    "following_url": "https://api.github.com/users/neallawson/following{/other_user}",
    "gists_url": "https://api.github.com/users/neallawson/gists{/gist_id}",
    "starred_url": "https://api.github.com/users/neallawson/starred{/owner}{/repo}",
    "subscriptions_url": "https://api.github.com/users/neallawson/subscriptions",
    "organizations_url": "https://api.github.com/users/neallawson/orgs",
    "repos_url": "https://api.github.com/users/neallawson/repos",
    "events_url": "https://api.github.com/users/neallawson/events{/privacy}",
    "received_events_url": "https://api.github.com/users/neallawson/received_events",
    "type": "User",
    "site_admin": false
  },
  "created_at": "2014-10-01T20:38:25Z",
  "updated_at": "2014-10-01T20:38:25Z",
  "body": "based on the lack of response I'm going to guess opscode is not going to fix this"
}
, {
  "url": "https://api.github.com/repos/chef/chef/issues/comments/57815276",
  "html_url": "https://github.com/chef/chef/issues/1563#issuecomment-57815276",
  "issue_url": "https://api.github.com/repos/chef/chef/issues/1563",
  "id": 57815276,
  "user": {
    "login": "randomcamel",
    "id": 400783,
    "avatar_url": "https://avatars.githubusercontent.com/u/400783?v=3",
    "gravatar_id": "",
    "url": "https://api.github.com/users/randomcamel",
    "html_url": "https://github.com/randomcamel",
    "followers_url": "https://api.github.com/users/randomcamel/followers",
    "following_url": "https://api.github.com/users/randomcamel/following{/other_user}",
    "gists_url": "https://api.github.com/users/randomcamel/gists{/gist_id}",
    "starred_url": "https://api.github.com/users/randomcamel/starred{/owner}{/repo}",
    "subscriptions_url": "https://api.github.com/users/randomcamel/subscriptions",
    "organizations_url": "https://api.github.com/users/randomcamel/orgs",
    "repos_url": "https://api.github.com/users/randomcamel/repos",
    "events_url": "https://api.github.com/users/randomcamel/events{/privacy}",
    "received_events_url": "https://api.github.com/users/randomcamel/received_events",
    "type": "User",
    "site_admin": false
  },
  "created_at": "2014-10-03T15:54:45Z",
  "updated_at": "2014-10-03T15:54:45Z",
  "body": "@neallawson Fixed in master."
}
, {
  "url": "https://api.github.com/repos/chef/chef/issues/comments/57815384",
  "html_url": "https://github.com/chef/chef/issues/1563#issuecomment-57815384",
  "issue_url": "https://api.github.com/repos/chef/chef/issues/1563",
  "id": 57815384,
  "user": {
    "login": "neallawson",
    "id": 2312891,
    "avatar_url": "https://avatars.githubusercontent.com/u/2312891?v=3",
    "gravatar_id": "",
    "url": "https://api.github.com/users/neallawson",
    "html_url": "https://github.com/neallawson",
    "followers_url": "https://api.github.com/users/neallawson/followers",
    "following_url": "https://api.github.com/users/neallawson/following{/other_user}",
    "gists_url": "https://api.github.com/users/neallawson/gists{/gist_id}",
    "starred_url": "https://api.github.com/users/neallawson/starred{/owner}{/repo}",
    "subscriptions_url": "https://api.github.com/users/neallawson/subscriptions",
    "organizations_url": "https://api.github.com/users/neallawson/orgs",
    "repos_url": "https://api.github.com/users/neallawson/repos",
    "events_url": "https://api.github.com/users/neallawson/events{/privacy}",
    "received_events_url": "https://api.github.com/users/neallawson/received_events",
    "type": "User",
    "site_admin": false
  },
  "created_at": "2014-10-03T15:55:29Z",
  "updated_at": "2014-10-03T15:55:29Z",
  "body": "@randomcamel Thank You! this will make my life much easer!!!!"
}
]
