[
{
  "url": "https://api.github.com/repos/chef/chef/issues/comments/54530997",
  "html_url": "https://github.com/chef/chef/pull/1977#issuecomment-54530997",
  "issue_url": "https://api.github.com/repos/chef/chef/issues/1977",
  "id": 54530997,
  "user": {
    "login": "sersut",
    "id": 1695955,
    "avatar_url": "https://avatars.githubusercontent.com/u/1695955?v=3",
    "gravatar_id": "",
    "url": "https://api.github.com/users/sersut",
    "html_url": "https://github.com/sersut",
    "followers_url": "https://api.github.com/users/sersut/followers",
    "following_url": "https://api.github.com/users/sersut/following{/other_user}",
    "gists_url": "https://api.github.com/users/sersut/gists{/gist_id}",
    "starred_url": "https://api.github.com/users/sersut/starred{/owner}{/repo}",
    "subscriptions_url": "https://api.github.com/users/sersut/subscriptions",
    "organizations_url": "https://api.github.com/users/sersut/orgs",
    "repos_url": "https://api.github.com/users/sersut/repos",
    "events_url": "https://api.github.com/users/sersut/events{/privacy}",
    "received_events_url": "https://api.github.com/users/sersut/received_events",
    "type": "User",
    "site_admin": false
  },
  "created_at": "2014-09-04T19:24:38Z",
  "updated_at": "2014-09-04T19:24:38Z",
  "body": "Overall :+1: @lamont-granquist. I don't have an idea about what happens with encoding on windows. @adamedx can maybe shed some light to us around it.\r\n\r\nI didn't look over each and every spec replace but overall they look :+1:. \r\n\r\nWe definitely want to make this highly visible during the release / rc announcements. Some RELEASE_NOTES.md updates would be super sweet."
}
, {
  "url": "https://api.github.com/repos/chef/chef/issues/comments/54541778",
  "html_url": "https://github.com/chef/chef/pull/1977#issuecomment-54541778",
  "issue_url": "https://api.github.com/repos/chef/chef/issues/1977",
  "id": 54541778,
  "user": {
    "login": "lamont-granquist",
    "id": 454857,
    "avatar_url": "https://avatars.githubusercontent.com/u/454857?v=3",
    "gravatar_id": "",
    "url": "https://api.github.com/users/lamont-granquist",
    "html_url": "https://github.com/lamont-granquist",
    "followers_url": "https://api.github.com/users/lamont-granquist/followers",
    "following_url": "https://api.github.com/users/lamont-granquist/following{/other_user}",
    "gists_url": "https://api.github.com/users/lamont-granquist/gists{/gist_id}",
    "starred_url": "https://api.github.com/users/lamont-granquist/starred{/owner}{/repo}",
    "subscriptions_url": "https://api.github.com/users/lamont-granquist/subscriptions",
    "organizations_url": "https://api.github.com/users/lamont-granquist/orgs",
    "repos_url": "https://api.github.com/users/lamont-granquist/repos",
    "events_url": "https://api.github.com/users/lamont-granquist/events{/privacy}",
    "received_events_url": "https://api.github.com/users/lamont-granquist/received_events",
    "type": "User",
    "site_admin": false
  },
  "created_at": "2014-09-04T20:43:29Z",
  "updated_at": "2014-09-04T20:43:29Z",
  "body": "Yeah, i'm not sure about windows as well.  I suspect that mingw/cygwin either work roughly like unix does (in which case the code just works) or else windows just ignores LC_ALL entirely."
}
, {
  "url": "https://api.github.com/repos/chef/chef/issues/comments/54542530",
  "html_url": "https://github.com/chef/chef/pull/1977#issuecomment-54542530",
  "issue_url": "https://api.github.com/repos/chef/chef/issues/1977",
  "id": 54542530,
  "user": {
    "login": "lamont-granquist",
    "id": 454857,
    "avatar_url": "https://avatars.githubusercontent.com/u/454857?v=3",
    "gravatar_id": "",
    "url": "https://api.github.com/users/lamont-granquist",
    "html_url": "https://github.com/lamont-granquist",
    "followers_url": "https://api.github.com/users/lamont-granquist/followers",
    "following_url": "https://api.github.com/users/lamont-granquist/following{/other_user}",
    "gists_url": "https://api.github.com/users/lamont-granquist/gists{/gist_id}",
    "starred_url": "https://api.github.com/users/lamont-granquist/starred{/owner}{/repo}",
    "subscriptions_url": "https://api.github.com/users/lamont-granquist/subscriptions",
    "organizations_url": "https://api.github.com/users/lamont-granquist/orgs",
    "repos_url": "https://api.github.com/users/lamont-granquist/repos",
    "events_url": "https://api.github.com/users/lamont-granquist/events{/privacy}",
    "received_events_url": "https://api.github.com/users/lamont-granquist/received_events",
    "type": "User",
    "site_admin": false
  },
  "created_at": "2014-09-04T20:48:33Z",
  "updated_at": "2014-09-04T20:48:33Z",
  "body": "Setting Encoding.default_encoding will work on windows and should fix knife encoding issues when you fire it up with some strange japanese windows encoding and feed it UTF-8 in cookbooks or whatever."
}
, {
  "url": "https://api.github.com/repos/chef/chef/issues/comments/54551401",
  "html_url": "https://github.com/chef/chef/pull/1977#issuecomment-54551401",
  "issue_url": "https://api.github.com/repos/chef/chef/issues/1977",
  "id": 54551401,
  "user": {
    "login": "sersut",
    "id": 1695955,
    "avatar_url": "https://avatars.githubusercontent.com/u/1695955?v=3",
    "gravatar_id": "",
    "url": "https://api.github.com/users/sersut",
    "html_url": "https://github.com/sersut",
    "followers_url": "https://api.github.com/users/sersut/followers",
    "following_url": "https://api.github.com/users/sersut/following{/other_user}",
    "gists_url": "https://api.github.com/users/sersut/gists{/gist_id}",
    "starred_url": "https://api.github.com/users/sersut/starred{/owner}{/repo}",
    "subscriptions_url": "https://api.github.com/users/sersut/subscriptions",
    "organizations_url": "https://api.github.com/users/sersut/orgs",
    "repos_url": "https://api.github.com/users/sersut/repos",
    "events_url": "https://api.github.com/users/sersut/events{/privacy}",
    "received_events_url": "https://api.github.com/users/sersut/received_events",
    "type": "User",
    "site_admin": false
  },
  "created_at": "2014-09-04T21:57:54Z",
  "updated_at": "2014-09-04T21:57:54Z",
  "body": ":+1: \r\n"
}
]
