[
{
  "url": "https://api.github.com/repos/chef/chef/issues/comments/35566660",
  "html_url": "https://github.com/chef/chef/pull/1277#issuecomment-35566660",
  "issue_url": "https://api.github.com/repos/chef/chef/issues/1277",
  "id": 35566660,
  "user": {
    "login": "lamont-granquist",
    "id": 454857,
    "avatar_url": "https://avatars.githubusercontent.com/u/454857?v=3",
    "gravatar_id": "",
    "url": "https://api.github.com/users/lamont-granquist",
    "html_url": "https://github.com/lamont-granquist",
    "followers_url": "https://api.github.com/users/lamont-granquist/followers",
    "following_url": "https://api.github.com/users/lamont-granquist/following{/other_user}",
    "gists_url": "https://api.github.com/users/lamont-granquist/gists{/gist_id}",
    "starred_url": "https://api.github.com/users/lamont-granquist/starred{/owner}{/repo}",
    "subscriptions_url": "https://api.github.com/users/lamont-granquist/subscriptions",
    "organizations_url": "https://api.github.com/users/lamont-granquist/orgs",
    "repos_url": "https://api.github.com/users/lamont-granquist/repos",
    "events_url": "https://api.github.com/users/lamont-granquist/events{/privacy}",
    "received_events_url": "https://api.github.com/users/lamont-granquist/received_events",
    "type": "User",
    "site_admin": false
  },
  "created_at": "2014-02-19T23:50:38Z",
  "updated_at": "2014-02-19T23:50:38Z",
  "body": ":-1: "
}
, {
  "url": "https://api.github.com/repos/chef/chef/issues/comments/35566678",
  "html_url": "https://github.com/chef/chef/pull/1277#issuecomment-35566678",
  "issue_url": "https://api.github.com/repos/chef/chef/issues/1277",
  "id": 35566678,
  "user": {
    "login": "lamont-granquist",
    "id": 454857,
    "avatar_url": "https://avatars.githubusercontent.com/u/454857?v=3",
    "gravatar_id": "",
    "url": "https://api.github.com/users/lamont-granquist",
    "html_url": "https://github.com/lamont-granquist",
    "followers_url": "https://api.github.com/users/lamont-granquist/followers",
    "following_url": "https://api.github.com/users/lamont-granquist/following{/other_user}",
    "gists_url": "https://api.github.com/users/lamont-granquist/gists{/gist_id}",
    "starred_url": "https://api.github.com/users/lamont-granquist/starred{/owner}{/repo}",
    "subscriptions_url": "https://api.github.com/users/lamont-granquist/subscriptions",
    "organizations_url": "https://api.github.com/users/lamont-granquist/orgs",
    "repos_url": "https://api.github.com/users/lamont-granquist/repos",
    "events_url": "https://api.github.com/users/lamont-granquist/events{/privacy}",
    "received_events_url": "https://api.github.com/users/lamont-granquist/received_events",
    "type": "User",
    "site_admin": false
  },
  "created_at": "2014-02-19T23:50:51Z",
  "updated_at": "2014-02-19T23:50:51Z",
  "body": "uh...  :+1: "
}
, {
  "url": "https://api.github.com/repos/chef/chef/issues/comments/35566701",
  "html_url": "https://github.com/chef/chef/pull/1277#issuecomment-35566701",
  "issue_url": "https://api.github.com/repos/chef/chef/issues/1277",
  "id": 35566701,
  "user": {
    "login": "danielsdeleo",
    "id": 37162,
    "avatar_url": "https://avatars.githubusercontent.com/u/37162?v=3",
    "gravatar_id": "",
    "url": "https://api.github.com/users/danielsdeleo",
    "html_url": "https://github.com/danielsdeleo",
    "followers_url": "https://api.github.com/users/danielsdeleo/followers",
    "following_url": "https://api.github.com/users/danielsdeleo/following{/other_user}",
    "gists_url": "https://api.github.com/users/danielsdeleo/gists{/gist_id}",
    "starred_url": "https://api.github.com/users/danielsdeleo/starred{/owner}{/repo}",
    "subscriptions_url": "https://api.github.com/users/danielsdeleo/subscriptions",
    "organizations_url": "https://api.github.com/users/danielsdeleo/orgs",
    "repos_url": "https://api.github.com/users/danielsdeleo/repos",
    "events_url": "https://api.github.com/users/danielsdeleo/events{/privacy}",
    "received_events_url": "https://api.github.com/users/danielsdeleo/received_events",
    "type": "User",
    "site_admin": false
  },
  "created_at": "2014-02-19T23:51:10Z",
  "updated_at": "2014-02-19T23:51:10Z",
  "body": "hahaha"
}
, {
  "url": "https://api.github.com/repos/chef/chef/issues/comments/35566710",
  "html_url": "https://github.com/chef/chef/pull/1277#issuecomment-35566710",
  "issue_url": "https://api.github.com/repos/chef/chef/issues/1277",
  "id": 35566710,
  "user": {
    "login": "lamont-granquist",
    "id": 454857,
    "avatar_url": "https://avatars.githubusercontent.com/u/454857?v=3",
    "gravatar_id": "",
    "url": "https://api.github.com/users/lamont-granquist",
    "html_url": "https://github.com/lamont-granquist",
    "followers_url": "https://api.github.com/users/lamont-granquist/followers",
    "following_url": "https://api.github.com/users/lamont-granquist/following{/other_user}",
    "gists_url": "https://api.github.com/users/lamont-granquist/gists{/gist_id}",
    "starred_url": "https://api.github.com/users/lamont-granquist/starred{/owner}{/repo}",
    "subscriptions_url": "https://api.github.com/users/lamont-granquist/subscriptions",
    "organizations_url": "https://api.github.com/users/lamont-granquist/orgs",
    "repos_url": "https://api.github.com/users/lamont-granquist/repos",
    "events_url": "https://api.github.com/users/lamont-granquist/events{/privacy}",
    "received_events_url": "https://api.github.com/users/lamont-granquist/received_events",
    "type": "User",
    "site_admin": false
  },
  "created_at": "2014-02-19T23:51:22Z",
  "updated_at": "2014-02-19T23:51:22Z",
  "body": "tab complete fail..."
}
]
