[
{
  "url": "https://api.github.com/repos/chef/chef/issues/comments/65851457",
  "html_url": "https://github.com/chef/chef/issues/2542#issuecomment-65851457",
  "issue_url": "https://api.github.com/repos/chef/chef/issues/2542",
  "id": 65851457,
  "user": {
    "login": "lamont-granquist",
    "id": 454857,
    "avatar_url": "https://avatars.githubusercontent.com/u/454857?v=3",
    "gravatar_id": "",
    "url": "https://api.github.com/users/lamont-granquist",
    "html_url": "https://github.com/lamont-granquist",
    "followers_url": "https://api.github.com/users/lamont-granquist/followers",
    "following_url": "https://api.github.com/users/lamont-granquist/following{/other_user}",
    "gists_url": "https://api.github.com/users/lamont-granquist/gists{/gist_id}",
    "starred_url": "https://api.github.com/users/lamont-granquist/starred{/owner}{/repo}",
    "subscriptions_url": "https://api.github.com/users/lamont-granquist/subscriptions",
    "organizations_url": "https://api.github.com/users/lamont-granquist/orgs",
    "repos_url": "https://api.github.com/users/lamont-granquist/repos",
    "events_url": "https://api.github.com/users/lamont-granquist/events{/privacy}",
    "received_events_url": "https://api.github.com/users/lamont-granquist/received_events",
    "type": "User",
    "site_admin": false
  },
  "created_at": "2014-12-05T20:43:37Z",
  "updated_at": "2014-12-05T20:43:37Z",
  "body": "There's a bigger issue here in that the whole json_class hack needs to get removed and calls need to know what they're inflating rather than allowing the input json stream to affect the inflated objects.  I'm sure that's probably a breaking change as well."
}
, {
  "url": "https://api.github.com/repos/chef/chef/issues/comments/65854286",
  "html_url": "https://github.com/chef/chef/issues/2542#issuecomment-65854286",
  "issue_url": "https://api.github.com/repos/chef/chef/issues/2542",
  "id": 65854286,
  "user": {
    "login": "stevendanna",
    "id": 852371,
    "avatar_url": "https://avatars.githubusercontent.com/u/852371?v=3",
    "gravatar_id": "",
    "url": "https://api.github.com/users/stevendanna",
    "html_url": "https://github.com/stevendanna",
    "followers_url": "https://api.github.com/users/stevendanna/followers",
    "following_url": "https://api.github.com/users/stevendanna/following{/other_user}",
    "gists_url": "https://api.github.com/users/stevendanna/gists{/gist_id}",
    "starred_url": "https://api.github.com/users/stevendanna/starred{/owner}{/repo}",
    "subscriptions_url": "https://api.github.com/users/stevendanna/subscriptions",
    "organizations_url": "https://api.github.com/users/stevendanna/orgs",
    "repos_url": "https://api.github.com/users/stevendanna/repos",
    "events_url": "https://api.github.com/users/stevendanna/events{/privacy}",
    "received_events_url": "https://api.github.com/users/stevendanna/received_events",
    "type": "User",
    "site_admin": false
  },
  "created_at": "2014-12-05T21:04:45Z",
  "updated_at": "2014-12-05T21:04:45Z",
  "body": "Maybe fixing json_class everyone is a breaking change.  But it is trivially fixable for the knife commands."
}
, {
  "url": "https://api.github.com/repos/chef/chef/issues/comments/65855051",
  "html_url": "https://github.com/chef/chef/issues/2542#issuecomment-65855051",
  "issue_url": "https://api.github.com/repos/chef/chef/issues/2542",
  "id": 65855051,
  "user": {
    "login": "lamont-granquist",
    "id": 454857,
    "avatar_url": "https://avatars.githubusercontent.com/u/454857?v=3",
    "gravatar_id": "",
    "url": "https://api.github.com/users/lamont-granquist",
    "html_url": "https://github.com/lamont-granquist",
    "followers_url": "https://api.github.com/users/lamont-granquist/followers",
    "following_url": "https://api.github.com/users/lamont-granquist/following{/other_user}",
    "gists_url": "https://api.github.com/users/lamont-granquist/gists{/gist_id}",
    "starred_url": "https://api.github.com/users/lamont-granquist/starred{/owner}{/repo}",
    "subscriptions_url": "https://api.github.com/users/lamont-granquist/subscriptions",
    "organizations_url": "https://api.github.com/users/lamont-granquist/orgs",
    "repos_url": "https://api.github.com/users/lamont-granquist/repos",
    "events_url": "https://api.github.com/users/lamont-granquist/events{/privacy}",
    "received_events_url": "https://api.github.com/users/lamont-granquist/received_events",
    "type": "User",
    "site_admin": false
  },
  "created_at": "2014-12-05T21:10:19Z",
  "updated_at": "2014-12-05T21:10:19Z",
  "body": "Do it!"
}
, {
  "url": "https://api.github.com/repos/chef/chef/issues/comments/65855062",
  "html_url": "https://github.com/chef/chef/issues/2542#issuecomment-65855062",
  "issue_url": "https://api.github.com/repos/chef/chef/issues/2542",
  "id": 65855062,
  "user": {
    "login": "lamont-granquist",
    "id": 454857,
    "avatar_url": "https://avatars.githubusercontent.com/u/454857?v=3",
    "gravatar_id": "",
    "url": "https://api.github.com/users/lamont-granquist",
    "html_url": "https://github.com/lamont-granquist",
    "followers_url": "https://api.github.com/users/lamont-granquist/followers",
    "following_url": "https://api.github.com/users/lamont-granquist/following{/other_user}",
    "gists_url": "https://api.github.com/users/lamont-granquist/gists{/gist_id}",
    "starred_url": "https://api.github.com/users/lamont-granquist/starred{/owner}{/repo}",
    "subscriptions_url": "https://api.github.com/users/lamont-granquist/subscriptions",
    "organizations_url": "https://api.github.com/users/lamont-granquist/orgs",
    "repos_url": "https://api.github.com/users/lamont-granquist/repos",
    "events_url": "https://api.github.com/users/lamont-granquist/events{/privacy}",
    "received_events_url": "https://api.github.com/users/lamont-granquist/received_events",
    "type": "User",
    "site_admin": false
  },
  "created_at": "2014-12-05T21:10:24Z",
  "updated_at": "2014-12-05T21:10:24Z",
  "body": "=)\r\n"
}
, {
  "url": "https://api.github.com/repos/chef/chef/issues/comments/66606312",
  "html_url": "https://github.com/chef/chef/issues/2542#issuecomment-66606312",
  "issue_url": "https://api.github.com/repos/chef/chef/issues/2542",
  "id": 66606312,
  "user": {
    "login": "stevendanna",
    "id": 852371,
    "avatar_url": "https://avatars.githubusercontent.com/u/852371?v=3",
    "gravatar_id": "",
    "url": "https://api.github.com/users/stevendanna",
    "html_url": "https://github.com/stevendanna",
    "followers_url": "https://api.github.com/users/stevendanna/followers",
    "following_url": "https://api.github.com/users/stevendanna/following{/other_user}",
    "gists_url": "https://api.github.com/users/stevendanna/gists{/gist_id}",
    "starred_url": "https://api.github.com/users/stevendanna/starred{/owner}{/repo}",
    "subscriptions_url": "https://api.github.com/users/stevendanna/subscriptions",
    "organizations_url": "https://api.github.com/users/stevendanna/orgs",
    "repos_url": "https://api.github.com/users/stevendanna/repos",
    "events_url": "https://api.github.com/users/stevendanna/events{/privacy}",
    "received_events_url": "https://api.github.com/users/stevendanna/received_events",
    "type": "User",
    "site_admin": false
  },
  "created_at": "2014-12-11T11:28:51Z",
  "updated_at": "2014-12-11T11:28:51Z",
  "body": "@lamont-granquist :D Put this in my queue.  I have a feeling \"trivial\" will be final last words :)."
}
, {
  "url": "https://api.github.com/repos/chef/chef/issues/comments/103964693",
  "html_url": "https://github.com/chef/chef/issues/2542#issuecomment-103964693",
  "issue_url": "https://api.github.com/repos/chef/chef/issues/2542",
  "id": 103964693,
  "user": {
    "login": "smurawski",
    "id": 4006985,
    "avatar_url": "https://avatars.githubusercontent.com/u/4006985?v=3",
    "gravatar_id": "",
    "url": "https://api.github.com/users/smurawski",
    "html_url": "https://github.com/smurawski",
    "followers_url": "https://api.github.com/users/smurawski/followers",
    "following_url": "https://api.github.com/users/smurawski/following{/other_user}",
    "gists_url": "https://api.github.com/users/smurawski/gists{/gist_id}",
    "starred_url": "https://api.github.com/users/smurawski/starred{/owner}{/repo}",
    "subscriptions_url": "https://api.github.com/users/smurawski/subscriptions",
    "organizations_url": "https://api.github.com/users/smurawski/orgs",
    "repos_url": "https://api.github.com/users/smurawski/repos",
    "events_url": "https://api.github.com/users/smurawski/events{/privacy}",
    "received_events_url": "https://api.github.com/users/smurawski/received_events",
    "type": "User",
    "site_admin": false
  },
  "created_at": "2015-05-20T17:12:41Z",
  "updated_at": "2015-05-20T17:12:41Z",
  "body": "Resolved via #2784 "
}
]
