[
{
  "url": "https://api.github.com/repos/chef/chef/issues/comments/85237191",
  "html_url": "https://github.com/chef/chef/issues/3125#issuecomment-85237191",
  "issue_url": "https://api.github.com/repos/chef/chef/issues/3125",
  "id": 85237191,
  "user": {
    "login": "tknerr",
    "id": 365744,
    "avatar_url": "https://avatars.githubusercontent.com/u/365744?v=3",
    "gravatar_id": "",
    "url": "https://api.github.com/users/tknerr",
    "html_url": "https://github.com/tknerr",
    "followers_url": "https://api.github.com/users/tknerr/followers",
    "following_url": "https://api.github.com/users/tknerr/following{/other_user}",
    "gists_url": "https://api.github.com/users/tknerr/gists{/gist_id}",
    "starred_url": "https://api.github.com/users/tknerr/starred{/owner}{/repo}",
    "subscriptions_url": "https://api.github.com/users/tknerr/subscriptions",
    "organizations_url": "https://api.github.com/users/tknerr/orgs",
    "repos_url": "https://api.github.com/users/tknerr/repos",
    "events_url": "https://api.github.com/users/tknerr/events{/privacy}",
    "received_events_url": "https://api.github.com/users/tknerr/received_events",
    "type": "User",
    "site_admin": false
  },
  "created_at": "2015-03-23T22:51:11Z",
  "updated_at": "2015-03-23T22:51:11Z",
  "body": "A bit more details:\r\n```\r\nW:\\home\\.chefdk\\gem\\ruby\\2.0.0\\gems\\chef-12.1.2-x86-mingw32\\ext\\win32-eventlog>rake register --trace\r\nchecking for windmc... yes\r\nchecking for windres... yes\r\nchecking for gcc... yes\r\n** Invoke register (first_time)\r\n** Invoke chef-log.dll (first_time, not_needed)\r\n** Invoke resource.o (first_time, not_needed)\r\n** Invoke chef-log.rc (first_time, not_needed)\r\n** Invoke chef-log.man (first_time, not_needed)\r\n** Execute register\r\nrake aborted!\r\nErrno::EIO: Input/output error - RegCreateKeyEx\r\nW:/home/.chefdk/gem/ruby/2.0.0/gems/win32-eventlog-0.6.1/lib/win32/eventlog.rb:224:in `add_event_source'\r\nW:/home/.chefdk/gem/ruby/2.0.0/gems/chef-12.1.2-x86-mingw32/ext/win32-eventlog/Rakefile:44:in `block in <top (required)>'\r\nW:/home/.chefdk/gem/ruby/2.0.0/gems/rake-10.4.2/lib/rake/task.rb:240:in `call'\r\nW:/home/.chefdk/gem/ruby/2.0.0/gems/rake-10.4.2/lib/rake/task.rb:240:in `block in execute'\r\nW:/home/.chefdk/gem/ruby/2.0.0/gems/rake-10.4.2/lib/rake/task.rb:235:in `each'\r\nW:/home/.chefdk/gem/ruby/2.0.0/gems/rake-10.4.2/lib/rake/task.rb:235:in `execute'\r\nW:/home/.chefdk/gem/ruby/2.0.0/gems/rake-10.4.2/lib/rake/task.rb:179:in `block in invoke_with_call_chain'\r\nW:/tools/chefdk/embedded/lib/ruby/2.0.0/monitor.rb:211:in `mon_synchronize'\r\nW:/home/.chefdk/gem/ruby/2.0.0/gems/rake-10.4.2/lib/rake/task.rb:172:in `invoke_with_call_chain'\r\nW:/home/.chefdk/gem/ruby/2.0.0/gems/rake-10.4.2/lib/rake/task.rb:165:in `invoke'\r\nW:/home/.chefdk/gem/ruby/2.0.0/gems/rake-10.4.2/lib/rake/application.rb:150:in `invoke_task'\r\nW:/home/.chefdk/gem/ruby/2.0.0/gems/rake-10.4.2/lib/rake/application.rb:106:in `block (2 levels) in top_level'\r\nW:/home/.chefdk/gem/ruby/2.0.0/gems/rake-10.4.2/lib/rake/application.rb:106:in `each'\r\nW:/home/.chefdk/gem/ruby/2.0.0/gems/rake-10.4.2/lib/rake/application.rb:106:in `block in top_level'\r\nW:/home/.chefdk/gem/ruby/2.0.0/gems/rake-10.4.2/lib/rake/application.rb:115:in `run_with_threads'\r\nW:/home/.chefdk/gem/ruby/2.0.0/gems/rake-10.4.2/lib/rake/application.rb:100:in `top_level'\r\nW:/home/.chefdk/gem/ruby/2.0.0/gems/rake-10.4.2/lib/rake/application.rb:78:in `block in run'\r\nW:/home/.chefdk/gem/ruby/2.0.0/gems/rake-10.4.2/lib/rake/application.rb:176:in `standard_exception_handling'\r\nW:/home/.chefdk/gem/ruby/2.0.0/gems/rake-10.4.2/lib/rake/application.rb:75:in `run'\r\nW:/home/.chefdk/gem/ruby/2.0.0/gems/rake-10.4.2/bin/rake:33:in `<top (required)>'\r\nW:/home/.chefdk/gem/ruby/2.0.0/bin/rake:23:in `load'\r\nW:/home/.chefdk/gem/ruby/2.0.0/bin/rake:23:in `<main>'\r\nTasks: TOP => register\r\n```"
}
, {
  "url": "https://api.github.com/repos/chef/chef/issues/comments/85240001",
  "html_url": "https://github.com/chef/chef/issues/3125#issuecomment-85240001",
  "issue_url": "https://api.github.com/repos/chef/chef/issues/3125",
  "id": 85240001,
  "user": {
    "login": "jaym",
    "id": 27443,
    "avatar_url": "https://avatars.githubusercontent.com/u/27443?v=3",
    "gravatar_id": "",
    "url": "https://api.github.com/users/jaym",
    "html_url": "https://github.com/jaym",
    "followers_url": "https://api.github.com/users/jaym/followers",
    "following_url": "https://api.github.com/users/jaym/following{/other_user}",
    "gists_url": "https://api.github.com/users/jaym/gists{/gist_id}",
    "starred_url": "https://api.github.com/users/jaym/starred{/owner}{/repo}",
    "subscriptions_url": "https://api.github.com/users/jaym/subscriptions",
    "organizations_url": "https://api.github.com/users/jaym/orgs",
    "repos_url": "https://api.github.com/users/jaym/repos",
    "events_url": "https://api.github.com/users/jaym/events{/privacy}",
    "received_events_url": "https://api.github.com/users/jaym/received_events",
    "type": "User",
    "site_admin": false
  },
  "created_at": "2015-03-23T22:58:47Z",
  "updated_at": "2015-03-23T22:58:47Z",
  "body": "It's trying to install the event logging stuff. \r\nYou probably don't have the privileges to do so?\r\n\r\nMaybe we should make this a best effort somehow."
}
, {
  "url": "https://api.github.com/repos/chef/chef/issues/comments/85240355",
  "html_url": "https://github.com/chef/chef/issues/3125#issuecomment-85240355",
  "issue_url": "https://api.github.com/repos/chef/chef/issues/3125",
  "id": 85240355,
  "user": {
    "login": "tknerr",
    "id": 365744,
    "avatar_url": "https://avatars.githubusercontent.com/u/365744?v=3",
    "gravatar_id": "",
    "url": "https://api.github.com/users/tknerr",
    "html_url": "https://github.com/tknerr",
    "followers_url": "https://api.github.com/users/tknerr/followers",
    "following_url": "https://api.github.com/users/tknerr/following{/other_user}",
    "gists_url": "https://api.github.com/users/tknerr/gists{/gist_id}",
    "starred_url": "https://api.github.com/users/tknerr/starred{/owner}{/repo}",
    "subscriptions_url": "https://api.github.com/users/tknerr/subscriptions",
    "organizations_url": "https://api.github.com/users/tknerr/orgs",
    "repos_url": "https://api.github.com/users/tknerr/repos",
    "events_url": "https://api.github.com/users/tknerr/events{/privacy}",
    "received_events_url": "https://api.github.com/users/tknerr/received_events",
    "type": "User",
    "site_admin": false
  },
  "created_at": "2015-03-23T23:00:58Z",
  "updated_at": "2015-03-23T23:00:58Z",
  "body": "I'm not running with elevated privileges here. Should I have to?"
}
, {
  "url": "https://api.github.com/repos/chef/chef/issues/comments/85240624",
  "html_url": "https://github.com/chef/chef/issues/3125#issuecomment-85240624",
  "issue_url": "https://api.github.com/repos/chef/chef/issues/3125",
  "id": 85240624,
  "user": {
    "login": "jaym",
    "id": 27443,
    "avatar_url": "https://avatars.githubusercontent.com/u/27443?v=3",
    "gravatar_id": "",
    "url": "https://api.github.com/users/jaym",
    "html_url": "https://github.com/jaym",
    "followers_url": "https://api.github.com/users/jaym/followers",
    "following_url": "https://api.github.com/users/jaym/following{/other_user}",
    "gists_url": "https://api.github.com/users/jaym/gists{/gist_id}",
    "starred_url": "https://api.github.com/users/jaym/starred{/owner}{/repo}",
    "subscriptions_url": "https://api.github.com/users/jaym/subscriptions",
    "organizations_url": "https://api.github.com/users/jaym/orgs",
    "repos_url": "https://api.github.com/users/jaym/repos",
    "events_url": "https://api.github.com/users/jaym/events{/privacy}",
    "received_events_url": "https://api.github.com/users/jaym/received_events",
    "type": "User",
    "site_admin": false
  },
  "created_at": "2015-03-23T23:03:00Z",
  "updated_at": "2015-03-23T23:03:00Z",
  "body": "You do have to to if you want it to install the eventlog stuff. You'll probably have to hack up the rakefile if you don't want this stuff installed."
}
, {
  "url": "https://api.github.com/repos/chef/chef/issues/comments/85241052",
  "html_url": "https://github.com/chef/chef/issues/3125#issuecomment-85241052",
  "issue_url": "https://api.github.com/repos/chef/chef/issues/3125",
  "id": 85241052,
  "user": {
    "login": "tknerr",
    "id": 365744,
    "avatar_url": "https://avatars.githubusercontent.com/u/365744?v=3",
    "gravatar_id": "",
    "url": "https://api.github.com/users/tknerr",
    "html_url": "https://github.com/tknerr",
    "followers_url": "https://api.github.com/users/tknerr/followers",
    "following_url": "https://api.github.com/users/tknerr/following{/other_user}",
    "gists_url": "https://api.github.com/users/tknerr/gists{/gist_id}",
    "starred_url": "https://api.github.com/users/tknerr/starred{/owner}{/repo}",
    "subscriptions_url": "https://api.github.com/users/tknerr/subscriptions",
    "organizations_url": "https://api.github.com/users/tknerr/orgs",
    "repos_url": "https://api.github.com/users/tknerr/repos",
    "events_url": "https://api.github.com/users/tknerr/events{/privacy}",
    "received_events_url": "https://api.github.com/users/tknerr/received_events",
    "type": "User",
    "site_admin": false
  },
  "created_at": "2015-03-23T23:05:11Z",
  "updated_at": "2015-03-23T23:05:11Z",
  "body": "Yes, I can verify that it works when running with elevated privileges. \r\n\r\n+1 for making that a best-effort, so non-admin users can install that gem too."
}
, {
  "url": "https://api.github.com/repos/chef/chef/issues/comments/85244096",
  "html_url": "https://github.com/chef/chef/issues/3125#issuecomment-85244096",
  "issue_url": "https://api.github.com/repos/chef/chef/issues/3125",
  "id": 85244096,
  "user": {
    "login": "tknerr",
    "id": 365744,
    "avatar_url": "https://avatars.githubusercontent.com/u/365744?v=3",
    "gravatar_id": "",
    "url": "https://api.github.com/users/tknerr",
    "html_url": "https://github.com/tknerr",
    "followers_url": "https://api.github.com/users/tknerr/followers",
    "following_url": "https://api.github.com/users/tknerr/following{/other_user}",
    "gists_url": "https://api.github.com/users/tknerr/gists{/gist_id}",
    "starred_url": "https://api.github.com/users/tknerr/starred{/owner}{/repo}",
    "subscriptions_url": "https://api.github.com/users/tknerr/subscriptions",
    "organizations_url": "https://api.github.com/users/tknerr/orgs",
    "repos_url": "https://api.github.com/users/tknerr/repos",
    "events_url": "https://api.github.com/users/tknerr/events{/privacy}",
    "received_events_url": "https://api.github.com/users/tknerr/received_events",
    "type": "User",
    "site_admin": false
  },
  "created_at": "2015-03-23T23:18:07Z",
  "updated_at": "2015-03-23T23:18:07Z",
  "body": "@jdmundrawala any idea how I could hack up the Rakefile locally? Everytime I run `gem install chef -v \"12.1.2\"` the whole `W:\\home\\.chefdk\\gem\\ruby\\2.0.0\\gems\\chef-12.1.2-x86-mingw32` directory gets replaced with it's pristine contents.\r\n\r\nIs there a sane way to do this?"
}
, {
  "url": "https://api.github.com/repos/chef/chef/issues/comments/85245694",
  "html_url": "https://github.com/chef/chef/issues/3125#issuecomment-85245694",
  "issue_url": "https://api.github.com/repos/chef/chef/issues/3125",
  "id": 85245694,
  "user": {
    "login": "jaym",
    "id": 27443,
    "avatar_url": "https://avatars.githubusercontent.com/u/27443?v=3",
    "gravatar_id": "",
    "url": "https://api.github.com/users/jaym",
    "html_url": "https://github.com/jaym",
    "followers_url": "https://api.github.com/users/jaym/followers",
    "following_url": "https://api.github.com/users/jaym/following{/other_user}",
    "gists_url": "https://api.github.com/users/jaym/gists{/gist_id}",
    "starred_url": "https://api.github.com/users/jaym/starred{/owner}{/repo}",
    "subscriptions_url": "https://api.github.com/users/jaym/subscriptions",
    "organizations_url": "https://api.github.com/users/jaym/orgs",
    "repos_url": "https://api.github.com/users/jaym/repos",
    "events_url": "https://api.github.com/users/jaym/events{/privacy}",
    "received_events_url": "https://api.github.com/users/jaym/received_events",
    "type": "User",
    "site_admin": false
  },
  "created_at": "2015-03-23T23:29:40Z",
  "updated_at": "2015-03-23T23:29:40Z",
  "body": "you can git clone:\r\nHack up Rakefile\r\nbundle exec rake gem\r\ngem install pkg/chef...-x86-mingw32.gem"
}
, {
  "url": "https://api.github.com/repos/chef/chef/issues/comments/85246749",
  "html_url": "https://github.com/chef/chef/issues/3125#issuecomment-85246749",
  "issue_url": "https://api.github.com/repos/chef/chef/issues/3125",
  "id": 85246749,
  "user": {
    "login": "tknerr",
    "id": 365744,
    "avatar_url": "https://avatars.githubusercontent.com/u/365744?v=3",
    "gravatar_id": "",
    "url": "https://api.github.com/users/tknerr",
    "html_url": "https://github.com/tknerr",
    "followers_url": "https://api.github.com/users/tknerr/followers",
    "following_url": "https://api.github.com/users/tknerr/following{/other_user}",
    "gists_url": "https://api.github.com/users/tknerr/gists{/gist_id}",
    "starred_url": "https://api.github.com/users/tknerr/starred{/owner}{/repo}",
    "subscriptions_url": "https://api.github.com/users/tknerr/subscriptions",
    "organizations_url": "https://api.github.com/users/tknerr/orgs",
    "repos_url": "https://api.github.com/users/tknerr/repos",
    "events_url": "https://api.github.com/users/tknerr/events{/privacy}",
    "received_events_url": "https://api.github.com/users/tknerr/received_events",
    "type": "User",
    "site_admin": false
  },
  "created_at": "2015-03-23T23:35:10Z",
  "updated_at": "2015-03-23T23:35:10Z",
  "body": "Thanks @jdmundrawala, let me give a try"
}
, {
  "url": "https://api.github.com/repos/chef/chef/issues/comments/85253121",
  "html_url": "https://github.com/chef/chef/issues/3125#issuecomment-85253121",
  "issue_url": "https://api.github.com/repos/chef/chef/issues/3125",
  "id": 85253121,
  "user": {
    "login": "tknerr",
    "id": 365744,
    "avatar_url": "https://avatars.githubusercontent.com/u/365744?v=3",
    "gravatar_id": "",
    "url": "https://api.github.com/users/tknerr",
    "html_url": "https://github.com/tknerr",
    "followers_url": "https://api.github.com/users/tknerr/followers",
    "following_url": "https://api.github.com/users/tknerr/following{/other_user}",
    "gists_url": "https://api.github.com/users/tknerr/gists{/gist_id}",
    "starred_url": "https://api.github.com/users/tknerr/starred{/owner}{/repo}",
    "subscriptions_url": "https://api.github.com/users/tknerr/subscriptions",
    "organizations_url": "https://api.github.com/users/tknerr/orgs",
    "repos_url": "https://api.github.com/users/tknerr/repos",
    "events_url": "https://api.github.com/users/tknerr/events{/privacy}",
    "received_events_url": "https://api.github.com/users/tknerr/received_events",
    "type": "User",
    "site_admin": false
  },
  "created_at": "2015-03-23T23:59:32Z",
  "updated_at": "2015-03-23T23:59:39Z",
  "body": "Okay, after adding the begin/rescue block below to the Rakefile the rest of the gem installation runs fine. Looks like this was the only place that required elevated privileges.\r\n```ruby\r\n  begin\r\n    Win32::EventLog.add_event_source(\r\n      :source => \"Application\",\r\n      :key_name => \"Chef\",\r\n      :event_message_file => dll_file,\r\n      :category_message_file => dll_file\r\n    )\r\n  rescue Errno::EIO => e\r\n    puts \"Skipping event log registration due to missing privileges: #{e}\"\r\n  end\r\n```\r\n\r\n"
}
, {
  "url": "https://api.github.com/repos/chef/chef/issues/comments/85355213",
  "html_url": "https://github.com/chef/chef/issues/3125#issuecomment-85355213",
  "issue_url": "https://api.github.com/repos/chef/chef/issues/3125",
  "id": 85355213,
  "user": {
    "login": "tknerr",
    "id": 365744,
    "avatar_url": "https://avatars.githubusercontent.com/u/365744?v=3",
    "gravatar_id": "",
    "url": "https://api.github.com/users/tknerr",
    "html_url": "https://github.com/tknerr",
    "followers_url": "https://api.github.com/users/tknerr/followers",
    "following_url": "https://api.github.com/users/tknerr/following{/other_user}",
    "gists_url": "https://api.github.com/users/tknerr/gists{/gist_id}",
    "starred_url": "https://api.github.com/users/tknerr/starred{/owner}{/repo}",
    "subscriptions_url": "https://api.github.com/users/tknerr/subscriptions",
    "organizations_url": "https://api.github.com/users/tknerr/orgs",
    "repos_url": "https://api.github.com/users/tknerr/repos",
    "events_url": "https://api.github.com/users/tknerr/events{/privacy}",
    "received_events_url": "https://api.github.com/users/tknerr/received_events",
    "type": "User",
    "site_admin": false
  },
  "created_at": "2015-03-24T06:02:14Z",
  "updated_at": "2015-03-24T06:02:14Z",
  "body": "On a second thought: why is adding the event source during gem install required anyway?\r\n\r\nIf its really needed, isn't that something the omnibus installer should rather take care of? It wouldn't have any effect anyway, as the chef gem comes pre-bundled with chef-omnibus, right?"
}
, {
  "url": "https://api.github.com/repos/chef/chef/issues/comments/85547557",
  "html_url": "https://github.com/chef/chef/issues/3125#issuecomment-85547557",
  "issue_url": "https://api.github.com/repos/chef/chef/issues/3125",
  "id": 85547557,
  "user": {
    "login": "jaym",
    "id": 27443,
    "avatar_url": "https://avatars.githubusercontent.com/u/27443?v=3",
    "gravatar_id": "",
    "url": "https://api.github.com/users/jaym",
    "html_url": "https://github.com/jaym",
    "followers_url": "https://api.github.com/users/jaym/followers",
    "following_url": "https://api.github.com/users/jaym/following{/other_user}",
    "gists_url": "https://api.github.com/users/jaym/gists{/gist_id}",
    "starred_url": "https://api.github.com/users/jaym/starred{/owner}{/repo}",
    "subscriptions_url": "https://api.github.com/users/jaym/subscriptions",
    "organizations_url": "https://api.github.com/users/jaym/orgs",
    "repos_url": "https://api.github.com/users/jaym/repos",
    "events_url": "https://api.github.com/users/jaym/events{/privacy}",
    "received_events_url": "https://api.github.com/users/jaym/received_events",
    "type": "User",
    "site_admin": false
  },
  "created_at": "2015-03-24T15:17:40Z",
  "updated_at": "2015-03-24T15:17:40Z",
  "body": "Yea, I'm not really sure why I added the install part to the Rakefile. I think it made developing it easier and it also allows people who gem install to get that functionality. It is true that the omnibus package will take care of installing this (only for chef-client, not chef-dk)."
}
, {
  "url": "https://api.github.com/repos/chef/chef/issues/comments/85584922",
  "html_url": "https://github.com/chef/chef/issues/3125#issuecomment-85584922",
  "issue_url": "https://api.github.com/repos/chef/chef/issues/3125",
  "id": 85584922,
  "user": {
    "login": "smurawski",
    "id": 4006985,
    "avatar_url": "https://avatars.githubusercontent.com/u/4006985?v=3",
    "gravatar_id": "",
    "url": "https://api.github.com/users/smurawski",
    "html_url": "https://github.com/smurawski",
    "followers_url": "https://api.github.com/users/smurawski/followers",
    "following_url": "https://api.github.com/users/smurawski/following{/other_user}",
    "gists_url": "https://api.github.com/users/smurawski/gists{/gist_id}",
    "starred_url": "https://api.github.com/users/smurawski/starred{/owner}{/repo}",
    "subscriptions_url": "https://api.github.com/users/smurawski/subscriptions",
    "organizations_url": "https://api.github.com/users/smurawski/orgs",
    "repos_url": "https://api.github.com/users/smurawski/repos",
    "events_url": "https://api.github.com/users/smurawski/events{/privacy}",
    "received_events_url": "https://api.github.com/users/smurawski/received_events",
    "type": "User",
    "site_admin": false
  },
  "created_at": "2015-03-24T16:11:45Z",
  "updated_at": "2015-03-24T16:11:45Z",
  "body": "@jdmundrawala @tknerr Probably added to the rakefile since that is more likely to be done with admin rights (which are required to create new event sources).  Once an event source is created, it can be written to and read from via a lower permission account."
}
, {
  "url": "https://api.github.com/repos/chef/chef/issues/comments/94331084",
  "html_url": "https://github.com/chef/chef/issues/3125#issuecomment-94331084",
  "issue_url": "https://api.github.com/repos/chef/chef/issues/3125",
  "id": 94331084,
  "user": {
    "login": "tknerr",
    "id": 365744,
    "avatar_url": "https://avatars.githubusercontent.com/u/365744?v=3",
    "gravatar_id": "",
    "url": "https://api.github.com/users/tknerr",
    "html_url": "https://github.com/tknerr",
    "followers_url": "https://api.github.com/users/tknerr/followers",
    "following_url": "https://api.github.com/users/tknerr/following{/other_user}",
    "gists_url": "https://api.github.com/users/tknerr/gists{/gist_id}",
    "starred_url": "https://api.github.com/users/tknerr/starred{/owner}{/repo}",
    "subscriptions_url": "https://api.github.com/users/tknerr/subscriptions",
    "organizations_url": "https://api.github.com/users/tknerr/orgs",
    "repos_url": "https://api.github.com/users/tknerr/repos",
    "events_url": "https://api.github.com/users/tknerr/events{/privacy}",
    "received_events_url": "https://api.github.com/users/tknerr/received_events",
    "type": "User",
    "site_admin": false
  },
  "created_at": "2015-04-20T01:04:55Z",
  "updated_at": "2015-04-20T01:04:55Z",
  "body": "@jdmundrawala @smurawski I guess this can be closed, since #3126 is merged to master (12.3.x)\r\n\r\nSince the first 12.3.0 rc release might be a bit further away, I also created PR #3203 which applies the same fix on the 12-2-stable branch. Mind reviewing that and leaving a comment?"
}
, {
  "url": "https://api.github.com/repos/chef/chef/issues/comments/99217575",
  "html_url": "https://github.com/chef/chef/issues/3125#issuecomment-99217575",
  "issue_url": "https://api.github.com/repos/chef/chef/issues/3125",
  "id": 99217575,
  "user": {
    "login": "tknerr",
    "id": 365744,
    "avatar_url": "https://avatars.githubusercontent.com/u/365744?v=3",
    "gravatar_id": "",
    "url": "https://api.github.com/users/tknerr",
    "html_url": "https://github.com/tknerr",
    "followers_url": "https://api.github.com/users/tknerr/followers",
    "following_url": "https://api.github.com/users/tknerr/following{/other_user}",
    "gists_url": "https://api.github.com/users/tknerr/gists{/gist_id}",
    "starred_url": "https://api.github.com/users/tknerr/starred{/owner}{/repo}",
    "subscriptions_url": "https://api.github.com/users/tknerr/subscriptions",
    "organizations_url": "https://api.github.com/users/tknerr/orgs",
    "repos_url": "https://api.github.com/users/tknerr/repos",
    "events_url": "https://api.github.com/users/tknerr/events{/privacy}",
    "received_events_url": "https://api.github.com/users/tknerr/received_events",
    "type": "User",
    "site_admin": false
  },
  "created_at": "2015-05-05T20:49:49Z",
  "updated_at": "2015-05-05T20:49:49Z",
  "body": "fixed via #3126 and released with 12.3.0"
}
]
