[
{
  "url": "https://api.github.com/repos/chef/chef/issues/comments/66938400",
  "html_url": "https://github.com/chef/chef/issues/2636#issuecomment-66938400",
  "issue_url": "https://api.github.com/repos/chef/chef/issues/2636",
  "id": 66938400,
  "user": {
    "login": "kwilczynski",
    "id": 250723,
    "avatar_url": "https://avatars.githubusercontent.com/u/250723?v=3",
    "gravatar_id": "",
    "url": "https://api.github.com/users/kwilczynski",
    "html_url": "https://github.com/kwilczynski",
    "followers_url": "https://api.github.com/users/kwilczynski/followers",
    "following_url": "https://api.github.com/users/kwilczynski/following{/other_user}",
    "gists_url": "https://api.github.com/users/kwilczynski/gists{/gist_id}",
    "starred_url": "https://api.github.com/users/kwilczynski/starred{/owner}{/repo}",
    "subscriptions_url": "https://api.github.com/users/kwilczynski/subscriptions",
    "organizations_url": "https://api.github.com/users/kwilczynski/orgs",
    "repos_url": "https://api.github.com/users/kwilczynski/repos",
    "events_url": "https://api.github.com/users/kwilczynski/events{/privacy}",
    "received_events_url": "https://api.github.com/users/kwilczynski/received_events",
    "type": "User",
    "site_admin": false
  },
  "created_at": "2014-12-15T00:53:38Z",
  "updated_at": "2014-12-15T00:53:38Z",
  "body": "@lonniev I quite like the idea. Although, not sure what other will think."
}
, {
  "url": "https://api.github.com/repos/chef/chef/issues/comments/66939253",
  "html_url": "https://github.com/chef/chef/issues/2636#issuecomment-66939253",
  "issue_url": "https://api.github.com/repos/chef/chef/issues/2636",
  "id": 66939253,
  "user": {
    "login": "lamont-granquist",
    "id": 454857,
    "avatar_url": "https://avatars.githubusercontent.com/u/454857?v=3",
    "gravatar_id": "",
    "url": "https://api.github.com/users/lamont-granquist",
    "html_url": "https://github.com/lamont-granquist",
    "followers_url": "https://api.github.com/users/lamont-granquist/followers",
    "following_url": "https://api.github.com/users/lamont-granquist/following{/other_user}",
    "gists_url": "https://api.github.com/users/lamont-granquist/gists{/gist_id}",
    "starred_url": "https://api.github.com/users/lamont-granquist/starred{/owner}{/repo}",
    "subscriptions_url": "https://api.github.com/users/lamont-granquist/subscriptions",
    "organizations_url": "https://api.github.com/users/lamont-granquist/orgs",
    "repos_url": "https://api.github.com/users/lamont-granquist/repos",
    "events_url": "https://api.github.com/users/lamont-granquist/events{/privacy}",
    "received_events_url": "https://api.github.com/users/lamont-granquist/received_events",
    "type": "User",
    "site_admin": false
  },
  "created_at": "2014-12-15T01:13:25Z",
  "updated_at": "2014-12-15T01:13:25Z",
  "body": "This would be better with a concrete use case.  I think you probably want to do a sequence of http requests and build up some cookies which then get injected into a remote_file resource, and you can already probably do that with Chef::HTTP requests and then injecting arbitrary headers into remote_file.  It could probably use some sugar, but a working example of how to do it now (or how it can't be done now) would be useful."
}
, {
  "url": "https://api.github.com/repos/chef/chef/issues/comments/66941499",
  "html_url": "https://github.com/chef/chef/issues/2636#issuecomment-66941499",
  "issue_url": "https://api.github.com/repos/chef/chef/issues/2636",
  "id": 66941499,
  "user": {
    "login": "lonniev",
    "id": 2193384,
    "avatar_url": "https://avatars.githubusercontent.com/u/2193384?v=3",
    "gravatar_id": "",
    "url": "https://api.github.com/users/lonniev",
    "html_url": "https://github.com/lonniev",
    "followers_url": "https://api.github.com/users/lonniev/followers",
    "following_url": "https://api.github.com/users/lonniev/following{/other_user}",
    "gists_url": "https://api.github.com/users/lonniev/gists{/gist_id}",
    "starred_url": "https://api.github.com/users/lonniev/starred{/owner}{/repo}",
    "subscriptions_url": "https://api.github.com/users/lonniev/subscriptions",
    "organizations_url": "https://api.github.com/users/lonniev/orgs",
    "repos_url": "https://api.github.com/users/lonniev/repos",
    "events_url": "https://api.github.com/users/lonniev/events{/privacy}",
    "received_events_url": "https://api.github.com/users/lonniev/received_events",
    "type": "User",
    "site_admin": false
  },
  "created_at": "2014-12-15T02:04:13Z",
  "updated_at": "2014-12-15T02:04:13Z",
  "body": "Ok, here's the gist of it. The common pattern is to visit an open site to post a web-form login and to capture the response session key and cookies. Then, a second request is made to get the URL of the actual file and the saved cookies are sent along. One doesn't know, in advance, what the remote server might push back as the cookies they expect to receive on subsequent get requests--so the entire cookie set has to be saved and sent rather than specifying particular cookies in a header hash.\r\n\r\n```ruby\r\n# Using wget to download content protected by referer and cookies.\r\n# 1. get base url and save its cookies in file\r\n# 2. get protected content using stored cookies\r\n\r\nrepoSite = node['cookbook']['loginUrl']\r\nrepoId = node['cookbook']['username']\r\nrepoPass = node['cookbook']['password']\r\nremoteFile = node['cookbook']['source']\r\nlocalFile = node['cookbook']['destination']\r\njunkFile = \"wget_junk\"  \r\ncookieFile = node['cookbook']['cookieFile'] || \"cookies.txt\"\r\n\r\nwget = '\"c:\\Program Files\\GnuWin32\\bin\\wget.exe\"'\r\n\r\nDir.mktmpdir { |tdir|\r\n  \r\n  execute \"authenticate at #{repoSite} and save session cookies\" do\r\n    cwd tdir\r\n    command %Q(#{wget} --post-data \"password=#{repoPass}\" --no-check-certificate --cookies=on --keep-session-cookies --save-cookies=#{cookieFile} \"#{repoSite}?service=files&t=#{repoId}\" -O #{junkFile})\r\n  end\r\n\r\n  execute \"download #{remoteFile} as #{localFile} with session cookies\" do\r\n    cwd tdir\r\n    command %Q(#{wget} -O #{localFile} --referer=#{repoSite} --cookies=on --load-cookies=#{cookieFile} --keep-session-cookies --save-cookies=#{cookieFile} #{remoteFile})\r\n  end\r\n}\r\n```\r\n\r\nThe second `execute` could be handled by `remote_file` if there was a way to pass along the entire cookie.txt file. The first `execute` could be handled by a well-formed `http_request`. There probably is also notification setting so that the pair of blocks is executed in the right sequential order."
}
, {
  "url": "https://api.github.com/repos/chef/chef/issues/comments/67004644",
  "html_url": "https://github.com/chef/chef/issues/2636#issuecomment-67004644",
  "issue_url": "https://api.github.com/repos/chef/chef/issues/2636",
  "id": 67004644,
  "user": {
    "login": "ranjib",
    "id": 316306,
    "avatar_url": "https://avatars.githubusercontent.com/u/316306?v=3",
    "gravatar_id": "",
    "url": "https://api.github.com/users/ranjib",
    "html_url": "https://github.com/ranjib",
    "followers_url": "https://api.github.com/users/ranjib/followers",
    "following_url": "https://api.github.com/users/ranjib/following{/other_user}",
    "gists_url": "https://api.github.com/users/ranjib/gists{/gist_id}",
    "starred_url": "https://api.github.com/users/ranjib/starred{/owner}{/repo}",
    "subscriptions_url": "https://api.github.com/users/ranjib/subscriptions",
    "organizations_url": "https://api.github.com/users/ranjib/orgs",
    "repos_url": "https://api.github.com/users/ranjib/repos",
    "events_url": "https://api.github.com/users/ranjib/events{/privacy}",
    "received_events_url": "https://api.github.com/users/ranjib/received_events",
    "type": "User",
    "site_admin": false
  },
  "created_at": "2014-12-15T14:53:02Z",
  "updated_at": "2014-12-15T14:53:02Z",
  "body": "remote_file supports http/ftp and file base URI's currently. given these options are relevant only for http, i think we should add a separate sub class or extend the http_request resource, that will also allow us to evolve the new resource independently. \r\nit will be awesome to have cookie management capabilities, in fact faraday like middlewares will also be awesome, where we can hook our modules to extend the resource's behaviour."
}
, {
  "url": "https://api.github.com/repos/chef/chef/issues/comments/67083894",
  "html_url": "https://github.com/chef/chef/issues/2636#issuecomment-67083894",
  "issue_url": "https://api.github.com/repos/chef/chef/issues/2636",
  "id": 67083894,
  "user": {
    "login": "lamont-granquist",
    "id": 454857,
    "avatar_url": "https://avatars.githubusercontent.com/u/454857?v=3",
    "gravatar_id": "",
    "url": "https://api.github.com/users/lamont-granquist",
    "html_url": "https://github.com/lamont-granquist",
    "followers_url": "https://api.github.com/users/lamont-granquist/followers",
    "following_url": "https://api.github.com/users/lamont-granquist/following{/other_user}",
    "gists_url": "https://api.github.com/users/lamont-granquist/gists{/gist_id}",
    "starred_url": "https://api.github.com/users/lamont-granquist/starred{/owner}{/repo}",
    "subscriptions_url": "https://api.github.com/users/lamont-granquist/subscriptions",
    "organizations_url": "https://api.github.com/users/lamont-granquist/orgs",
    "repos_url": "https://api.github.com/users/lamont-granquist/repos",
    "events_url": "https://api.github.com/users/lamont-granquist/events{/privacy}",
    "received_events_url": "https://api.github.com/users/lamont-granquist/received_events",
    "type": "User",
    "site_admin": false
  },
  "created_at": "2014-12-15T23:07:40Z",
  "updated_at": "2014-12-15T23:07:40Z",
  "body": "So can we do the current first request inside of chef with Chef::HTTP and get the response object back with the cookies?"
}
, {
  "url": "https://api.github.com/repos/chef/chef/issues/comments/67085454",
  "html_url": "https://github.com/chef/chef/issues/2636#issuecomment-67085454",
  "issue_url": "https://api.github.com/repos/chef/chef/issues/2636",
  "id": 67085454,
  "user": {
    "login": "lonniev",
    "id": 2193384,
    "avatar_url": "https://avatars.githubusercontent.com/u/2193384?v=3",
    "gravatar_id": "",
    "url": "https://api.github.com/users/lonniev",
    "html_url": "https://github.com/lonniev",
    "followers_url": "https://api.github.com/users/lonniev/followers",
    "following_url": "https://api.github.com/users/lonniev/following{/other_user}",
    "gists_url": "https://api.github.com/users/lonniev/gists{/gist_id}",
    "starred_url": "https://api.github.com/users/lonniev/starred{/owner}{/repo}",
    "subscriptions_url": "https://api.github.com/users/lonniev/subscriptions",
    "organizations_url": "https://api.github.com/users/lonniev/orgs",
    "repos_url": "https://api.github.com/users/lonniev/repos",
    "events_url": "https://api.github.com/users/lonniev/events{/privacy}",
    "received_events_url": "https://api.github.com/users/lonniev/received_events",
    "type": "User",
    "site_admin": false
  },
  "created_at": "2014-12-15T23:20:34Z",
  "updated_at": "2014-12-16T00:38:02Z",
  "body": "I don't think there currently are attributes to pass around the cookies between requests. I could easily be wrong, though."
}
, {
  "url": "https://api.github.com/repos/chef/chef/issues/comments/67088117",
  "html_url": "https://github.com/chef/chef/issues/2636#issuecomment-67088117",
  "issue_url": "https://api.github.com/repos/chef/chef/issues/2636",
  "id": 67088117,
  "user": {
    "login": "lamont-granquist",
    "id": 454857,
    "avatar_url": "https://avatars.githubusercontent.com/u/454857?v=3",
    "gravatar_id": "",
    "url": "https://api.github.com/users/lamont-granquist",
    "html_url": "https://github.com/lamont-granquist",
    "followers_url": "https://api.github.com/users/lamont-granquist/followers",
    "following_url": "https://api.github.com/users/lamont-granquist/following{/other_user}",
    "gists_url": "https://api.github.com/users/lamont-granquist/gists{/gist_id}",
    "starred_url": "https://api.github.com/users/lamont-granquist/starred{/owner}{/repo}",
    "subscriptions_url": "https://api.github.com/users/lamont-granquist/subscriptions",
    "organizations_url": "https://api.github.com/users/lamont-granquist/orgs",
    "repos_url": "https://api.github.com/users/lamont-granquist/repos",
    "events_url": "https://api.github.com/users/lamont-granquist/events{/privacy}",
    "received_events_url": "https://api.github.com/users/lamont-granquist/received_events",
    "type": "User",
    "site_admin": false
  },
  "created_at": "2014-12-15T23:43:16Z",
  "updated_at": "2014-12-15T23:43:16Z",
  "body": "\nCookies are just headers, so I think its possible.  You won't find a \ncookie option.\n\nOn Mon Dec 15 15:20:37 2014, Lonnie VanZandt wrote:\n> I don't think there currently are attributes to pass around the\n> cookies between requests. I could easily be wrong, though.\n>\n>\n>\n> —Lonnie VanZandt\n>\n> 303-900-3048\n> Sent from Dropbox's Mailbox on Mac\n>\n> On Mon, Dec 15, 2014 at 4:07 PM, Lamont Granquist\n> <notifications@github.com> wrote:\n>\n> > So can we do the current first request inside of chef with\n> Chef::HTTP and get the response object back with the cookies?\n> > ---\n> > Reply to this email directly or view it on GitHub:\n> > https://github.com/opscode/chef/issues/2636#issuecomment-67083894\n>\n> —\n> Reply to this email directly or view it on GitHub\n> <https://github.com/opscode/chef/issues/2636#issuecomment-67085454>.\n>"
}
]
