[
{
  "url": "https://api.github.com/repos/chef/chef/issues/comments/175115868",
  "html_url": "https://github.com/chef/chef/pull/4460#issuecomment-175115868",
  "issue_url": "https://api.github.com/repos/chef/chef/issues/4460",
  "id": 175115868,
  "user": {
    "login": "lamont-granquist",
    "id": 454857,
    "avatar_url": "https://avatars.githubusercontent.com/u/454857?v=3",
    "gravatar_id": "",
    "url": "https://api.github.com/users/lamont-granquist",
    "html_url": "https://github.com/lamont-granquist",
    "followers_url": "https://api.github.com/users/lamont-granquist/followers",
    "following_url": "https://api.github.com/users/lamont-granquist/following{/other_user}",
    "gists_url": "https://api.github.com/users/lamont-granquist/gists{/gist_id}",
    "starred_url": "https://api.github.com/users/lamont-granquist/starred{/owner}{/repo}",
    "subscriptions_url": "https://api.github.com/users/lamont-granquist/subscriptions",
    "organizations_url": "https://api.github.com/users/lamont-granquist/orgs",
    "repos_url": "https://api.github.com/users/lamont-granquist/repos",
    "events_url": "https://api.github.com/users/lamont-granquist/events{/privacy}",
    "received_events_url": "https://api.github.com/users/lamont-granquist/received_events",
    "type": "User",
    "site_admin": false
  },
  "created_at": "2016-01-26T16:59:25Z",
  "updated_at": "2016-01-26T16:59:25Z",
  "body": ":+1: "
}
, {
  "url": "https://api.github.com/repos/chef/chef/issues/comments/175116680",
  "html_url": "https://github.com/chef/chef/pull/4460#issuecomment-175116680",
  "issue_url": "https://api.github.com/repos/chef/chef/issues/4460",
  "id": 175116680,
  "user": {
    "login": "danielsdeleo",
    "id": 37162,
    "avatar_url": "https://avatars.githubusercontent.com/u/37162?v=3",
    "gravatar_id": "",
    "url": "https://api.github.com/users/danielsdeleo",
    "html_url": "https://github.com/danielsdeleo",
    "followers_url": "https://api.github.com/users/danielsdeleo/followers",
    "following_url": "https://api.github.com/users/danielsdeleo/following{/other_user}",
    "gists_url": "https://api.github.com/users/danielsdeleo/gists{/gist_id}",
    "starred_url": "https://api.github.com/users/danielsdeleo/starred{/owner}{/repo}",
    "subscriptions_url": "https://api.github.com/users/danielsdeleo/subscriptions",
    "organizations_url": "https://api.github.com/users/danielsdeleo/orgs",
    "repos_url": "https://api.github.com/users/danielsdeleo/repos",
    "events_url": "https://api.github.com/users/danielsdeleo/events{/privacy}",
    "received_events_url": "https://api.github.com/users/danielsdeleo/received_events",
    "type": "User",
    "site_admin": false
  },
  "created_at": "2016-01-26T17:01:19Z",
  "updated_at": "2016-01-26T17:01:19Z",
  "body": ":+1: "
}
, {
  "url": "https://api.github.com/repos/chef/chef/issues/comments/175125741",
  "html_url": "https://github.com/chef/chef/pull/4460#issuecomment-175125741",
  "issue_url": "https://api.github.com/repos/chef/chef/issues/4460",
  "id": 175125741,
  "user": {
    "login": "btm",
    "id": 4381,
    "avatar_url": "https://avatars.githubusercontent.com/u/4381?v=3",
    "gravatar_id": "",
    "url": "https://api.github.com/users/btm",
    "html_url": "https://github.com/btm",
    "followers_url": "https://api.github.com/users/btm/followers",
    "following_url": "https://api.github.com/users/btm/following{/other_user}",
    "gists_url": "https://api.github.com/users/btm/gists{/gist_id}",
    "starred_url": "https://api.github.com/users/btm/starred{/owner}{/repo}",
    "subscriptions_url": "https://api.github.com/users/btm/subscriptions",
    "organizations_url": "https://api.github.com/users/btm/orgs",
    "repos_url": "https://api.github.com/users/btm/repos",
    "events_url": "https://api.github.com/users/btm/events{/privacy}",
    "received_events_url": "https://api.github.com/users/btm/received_events",
    "type": "User",
    "site_admin": false
  },
  "created_at": "2016-01-26T17:18:19Z",
  "updated_at": "2016-01-26T17:18:19Z",
  "body": ":+1: "
}
, {
  "url": "https://api.github.com/repos/chef/chef/issues/comments/175125909",
  "html_url": "https://github.com/chef/chef/pull/4460#issuecomment-175125909",
  "issue_url": "https://api.github.com/repos/chef/chef/issues/4460",
  "id": 175125909,
  "user": {
    "login": "btm",
    "id": 4381,
    "avatar_url": "https://avatars.githubusercontent.com/u/4381?v=3",
    "gravatar_id": "",
    "url": "https://api.github.com/users/btm",
    "html_url": "https://github.com/btm",
    "followers_url": "https://api.github.com/users/btm/followers",
    "following_url": "https://api.github.com/users/btm/following{/other_user}",
    "gists_url": "https://api.github.com/users/btm/gists{/gist_id}",
    "starred_url": "https://api.github.com/users/btm/starred{/owner}{/repo}",
    "subscriptions_url": "https://api.github.com/users/btm/subscriptions",
    "organizations_url": "https://api.github.com/users/btm/orgs",
    "repos_url": "https://api.github.com/users/btm/repos",
    "events_url": "https://api.github.com/users/btm/events{/privacy}",
    "received_events_url": "https://api.github.com/users/btm/received_events",
    "type": "User",
    "site_admin": false
  },
  "created_at": "2016-01-26T17:18:59Z",
  "updated_at": "2016-01-26T17:18:59Z",
  "body": "this won't run on any of the travis/appveyor testers so I'll mash it."
}
]
