[
{
  "url": "https://api.github.com/repos/google/web_notifications.dart/issues/6",
  "labels_url": "https://api.github.com/repos/google/web_notifications.dart/issues/6/labels{/name}",
  "comments_url": "https://api.github.com/repos/google/web_notifications.dart/issues/6/comments",
  "events_url": "https://api.github.com/repos/google/web_notifications.dart/issues/6/events",
  "html_url": "https://github.com/google/web_notifications.dart/pull/6",
  "id": 82830538,
  "number": 6,
  "title": "add a travis badge",
  "user": {
    "login": "devoncarew",
    "id": 1269969,
    "avatar_url": "https://avatars.githubusercontent.com/u/1269969?v=3",
    "gravatar_id": "",
    "url": "https://api.github.com/users/devoncarew",
    "html_url": "https://github.com/devoncarew",
    "followers_url": "https://api.github.com/users/devoncarew/followers",
    "following_url": "https://api.github.com/users/devoncarew/following{/other_user}",
    "gists_url": "https://api.github.com/users/devoncarew/gists{/gist_id}",
    "starred_url": "https://api.github.com/users/devoncarew/starred{/owner}{/repo}",
    "subscriptions_url": "https://api.github.com/users/devoncarew/subscriptions",
    "organizations_url": "https://api.github.com/users/devoncarew/orgs",
    "repos_url": "https://api.github.com/users/devoncarew/repos",
    "events_url": "https://api.github.com/users/devoncarew/events{/privacy}",
    "received_events_url": "https://api.github.com/users/devoncarew/received_events",
    "type": "User",
    "site_admin": false
  },
  "labels": [],
  "state": "closed",
  "locked": false,
  "assignee": null,
  "milestone": null,
  "comments": 0,
  "created_at": "2015-05-30T14:44:14Z",
  "updated_at": "2015-06-03T19:48:42Z",
  "closed_at": "2015-06-03T19:48:42Z",
  "pull_request": {
    "url": "https://api.github.com/repos/google/web_notifications.dart/pulls/6",
    "html_url": "https://github.com/google/web_notifications.dart/pull/6",
    "diff_url": "https://github.com/google/web_notifications.dart/pull/6.diff",
    "patch_url": "https://github.com/google/web_notifications.dart/pull/6.patch"
  },
  "body": "- add a travis badge to the readme (#4)"
}
, {
  "url": "https://api.github.com/repos/google/web_notifications.dart/issues/5",
  "labels_url": "https://api.github.com/repos/google/web_notifications.dart/issues/5/labels{/name}",
  "comments_url": "https://api.github.com/repos/google/web_notifications.dart/issues/5/comments",
  "events_url": "https://api.github.com/repos/google/web_notifications.dart/issues/5/events",
  "html_url": "https://github.com/google/web_notifications.dart/pull/5",
  "id": 82821855,
  "number": 5,
  "title": "update readme",
  "user": {
    "login": "devoncarew",
    "id": 1269969,
    "avatar_url": "https://avatars.githubusercontent.com/u/1269969?v=3",
    "gravatar_id": "",
    "url": "https://api.github.com/users/devoncarew",
    "html_url": "https://github.com/devoncarew",
    "followers_url": "https://api.github.com/users/devoncarew/followers",
    "following_url": "https://api.github.com/users/devoncarew/following{/other_user}",
    "gists_url": "https://api.github.com/users/devoncarew/gists{/gist_id}",
    "starred_url": "https://api.github.com/users/devoncarew/starred{/owner}{/repo}",
    "subscriptions_url": "https://api.github.com/users/devoncarew/subscriptions",
    "organizations_url": "https://api.github.com/users/devoncarew/orgs",
    "repos_url": "https://api.github.com/users/devoncarew/repos",
    "events_url": "https://api.github.com/users/devoncarew/events{/privacy}",
    "received_events_url": "https://api.github.com/users/devoncarew/received_events",
    "type": "User",
    "site_admin": false
  },
  "labels": [],
  "state": "closed",
  "locked": false,
  "assignee": null,
  "milestone": null,
  "comments": 1,
  "created_at": "2015-05-30T14:09:00Z",
  "updated_at": "2015-06-03T19:48:11Z",
  "closed_at": "2015-06-03T19:48:11Z",
  "pull_request": {
    "url": "https://api.github.com/repos/google/web_notifications.dart/pulls/5",
    "html_url": "https://github.com/google/web_notifications.dart/pull/5",
    "diff_url": "https://github.com/google/web_notifications.dart/pull/5.diff",
    "patch_url": "https://github.com/google/web_notifications.dart/pull/5.patch"
  },
  "body": "- update the readme w/ the current project name\r\n- update the AUTHORS file"
}
, {
  "url": "https://api.github.com/repos/google/web_notifications.dart/issues/3",
  "labels_url": "https://api.github.com/repos/google/web_notifications.dart/issues/3/labels{/name}",
  "comments_url": "https://api.github.com/repos/google/web_notifications.dart/issues/3/comments",
  "events_url": "https://api.github.com/repos/google/web_notifications.dart/issues/3/events",
  "html_url": "https://github.com/google/web_notifications.dart/pull/3",
  "id": 82156240,
  "number": 3,
  "title": "Enable Travis testing",
  "user": {
    "login": "alan-knight",
    "id": 3476088,
    "avatar_url": "https://avatars.githubusercontent.com/u/3476088?v=3",
    "gravatar_id": "",
    "url": "https://api.github.com/users/alan-knight",
    "html_url": "https://github.com/alan-knight",
    "followers_url": "https://api.github.com/users/alan-knight/followers",
    "following_url": "https://api.github.com/users/alan-knight/following{/other_user}",
    "gists_url": "https://api.github.com/users/alan-knight/gists{/gist_id}",
    "starred_url": "https://api.github.com/users/alan-knight/starred{/owner}{/repo}",
    "subscriptions_url": "https://api.github.com/users/alan-knight/subscriptions",
    "organizations_url": "https://api.github.com/users/alan-knight/orgs",
    "repos_url": "https://api.github.com/users/alan-knight/repos",
    "events_url": "https://api.github.com/users/alan-knight/events{/privacy}",
    "received_events_url": "https://api.github.com/users/alan-knight/received_events",
    "type": "User",
    "site_admin": false
  },
  "labels": [],
  "state": "closed",
  "locked": false,
  "assignee": null,
  "milestone": null,
  "comments": 0,
  "created_at": "2015-05-28T22:42:04Z",
  "updated_at": "2015-05-29T23:41:32Z",
  "closed_at": "2015-05-29T23:41:32Z",
  "pull_request": {
    "url": "https://api.github.com/repos/google/web_notifications.dart/pulls/3",
    "html_url": "https://github.com/google/web_notifications.dart/pull/3",
    "diff_url": "https://github.com/google/web_notifications.dart/pull/3.diff",
    "patch_url": "https://github.com/google/web_notifications.dart/pull/3.patch"
  },
  "body": ""
}
, {
  "url": "https://api.github.com/repos/google/web_notifications.dart/issues/2",
  "labels_url": "https://api.github.com/repos/google/web_notifications.dart/issues/2/labels{/name}",
  "comments_url": "https://api.github.com/repos/google/web_notifications.dart/issues/2/comments",
  "events_url": "https://api.github.com/repos/google/web_notifications.dart/issues/2/events",
  "html_url": "https://github.com/google/web_notifications.dart/pull/2",
  "id": 78235815,
  "number": 2,
  "title": "migrate to test^0.12.0",
  "user": {
    "login": "a14n",
    "id": 1206632,
    "avatar_url": "https://avatars.githubusercontent.com/u/1206632?v=3",
    "gravatar_id": "",
    "url": "https://api.github.com/users/a14n",
    "html_url": "https://github.com/a14n",
    "followers_url": "https://api.github.com/users/a14n/followers",
    "following_url": "https://api.github.com/users/a14n/following{/other_user}",
    "gists_url": "https://api.github.com/users/a14n/gists{/gist_id}",
    "starred_url": "https://api.github.com/users/a14n/starred{/owner}{/repo}",
    "subscriptions_url": "https://api.github.com/users/a14n/subscriptions",
    "organizations_url": "https://api.github.com/users/a14n/orgs",
    "repos_url": "https://api.github.com/users/a14n/repos",
    "events_url": "https://api.github.com/users/a14n/events{/privacy}",
    "received_events_url": "https://api.github.com/users/a14n/received_events",
    "type": "User",
    "site_admin": false
  },
  "labels": [],
  "state": "closed",
  "locked": false,
  "assignee": null,
  "milestone": null,
  "comments": 2,
  "created_at": "2015-05-19T20:18:16Z",
  "updated_at": "2015-05-30T14:41:07Z",
  "closed_at": "2015-05-30T14:41:07Z",
  "pull_request": {
    "url": "https://api.github.com/repos/google/web_notifications.dart/pulls/2",
    "html_url": "https://github.com/google/web_notifications.dart/pull/2",
    "diff_url": "https://github.com/google/web_notifications.dart/pull/2.diff",
    "patch_url": "https://github.com/google/web_notifications.dart/pull/2.patch"
  },
  "body": "To use with `pub run test -p dartium -p chrome -p firefox`."
}
, {
  "url": "https://api.github.com/repos/google/web_notifications.dart/issues/1",
  "labels_url": "https://api.github.com/repos/google/web_notifications.dart/issues/1/labels{/name}",
  "comments_url": "https://api.github.com/repos/google/web_notifications.dart/issues/1/comments",
  "events_url": "https://api.github.com/repos/google/web_notifications.dart/issues/1/events",
  "html_url": "https://github.com/google/web_notifications.dart/pull/1",
  "id": 78229417,
  "number": 1,
  "title": "Fix homepage in pubspec.yaml",
  "user": {
    "login": "a14n",
    "id": 1206632,
    "avatar_url": "https://avatars.githubusercontent.com/u/1206632?v=3",
    "gravatar_id": "",
    "url": "https://api.github.com/users/a14n",
    "html_url": "https://github.com/a14n",
    "followers_url": "https://api.github.com/users/a14n/followers",
    "following_url": "https://api.github.com/users/a14n/following{/other_user}",
    "gists_url": "https://api.github.com/users/a14n/gists{/gist_id}",
    "starred_url": "https://api.github.com/users/a14n/starred{/owner}{/repo}",
    "subscriptions_url": "https://api.github.com/users/a14n/subscriptions",
    "organizations_url": "https://api.github.com/users/a14n/orgs",
    "repos_url": "https://api.github.com/users/a14n/repos",
    "events_url": "https://api.github.com/users/a14n/events{/privacy}",
    "received_events_url": "https://api.github.com/users/a14n/received_events",
    "type": "User",
    "site_admin": false
  },
  "labels": [],
  "state": "closed",
  "locked": false,
  "assignee": null,
  "milestone": null,
  "comments": 1,
  "created_at": "2015-05-19T19:55:46Z",
  "updated_at": "2015-05-19T20:17:35Z",
  "closed_at": "2015-05-19T20:13:00Z",
  "pull_request": {
    "url": "https://api.github.com/repos/google/web_notifications.dart/pulls/1",
    "html_url": "https://github.com/google/web_notifications.dart/pull/1",
    "diff_url": "https://github.com/google/web_notifications.dart/pull/1.diff",
    "patch_url": "https://github.com/google/web_notifications.dart/pull/1.patch"
  },
  "body": ""
}
]
