[
{
  "url": "https://api.github.com/repos/Azure/azure-sdk-for-java/issues/comments/66710110",
  "html_url": "https://github.com/Azure/azure-sdk-for-java/pull/451#issuecomment-66710110",
  "issue_url": "https://api.github.com/repos/Azure/azure-sdk-for-java/issues/451",
  "id": 66710110,
  "user": {
    "login": "azuresdkci",
    "id": 1087595,
    "avatar_url": "https://avatars.githubusercontent.com/u/1087595?v=3",
    "gravatar_id": "",
    "url": "https://api.github.com/users/azuresdkci",
    "html_url": "https://github.com/azuresdkci",
    "followers_url": "https://api.github.com/users/azuresdkci/followers",
    "following_url": "https://api.github.com/users/azuresdkci/following{/other_user}",
    "gists_url": "https://api.github.com/users/azuresdkci/gists{/gist_id}",
    "starred_url": "https://api.github.com/users/azuresdkci/starred{/owner}{/repo}",
    "subscriptions_url": "https://api.github.com/users/azuresdkci/subscriptions",
    "organizations_url": "https://api.github.com/users/azuresdkci/orgs",
    "repos_url": "https://api.github.com/users/azuresdkci/repos",
    "events_url": "https://api.github.com/users/azuresdkci/events{/privacy}",
    "received_events_url": "https://api.github.com/users/azuresdkci/received_events",
    "type": "User",
    "site_admin": false
  },
  "created_at": "2014-12-11T23:45:03Z",
  "updated_at": "2014-12-11T23:45:03Z",
  "body": "Can one of the admins verify this patch?"
}
]
