[
{
  "url": "https://api.github.com/repos/Azure/azure-sdk-for-java/issues/comments/53516353",
  "html_url": "https://github.com/Azure/azure-sdk-for-java/pull/435#issuecomment-53516353",
  "issue_url": "https://api.github.com/repos/Azure/azure-sdk-for-java/issues/435",
  "id": 53516353,
  "user": {
    "login": "azuresdkci",
    "id": 1087595,
    "avatar_url": "https://avatars.githubusercontent.com/u/1087595?v=3",
    "gravatar_id": "",
    "url": "https://api.github.com/users/azuresdkci",
    "html_url": "https://github.com/azuresdkci",
    "followers_url": "https://api.github.com/users/azuresdkci/followers",
    "following_url": "https://api.github.com/users/azuresdkci/following{/other_user}",
    "gists_url": "https://api.github.com/users/azuresdkci/gists{/gist_id}",
    "starred_url": "https://api.github.com/users/azuresdkci/starred{/owner}{/repo}",
    "subscriptions_url": "https://api.github.com/users/azuresdkci/subscriptions",
    "organizations_url": "https://api.github.com/users/azuresdkci/orgs",
    "repos_url": "https://api.github.com/users/azuresdkci/repos",
    "events_url": "https://api.github.com/users/azuresdkci/events{/privacy}",
    "received_events_url": "https://api.github.com/users/azuresdkci/received_events",
    "type": "User",
    "site_admin": false
  },
  "created_at": "2014-08-27T01:30:01Z",
  "updated_at": "2014-08-27T01:30:01Z",
  "body": "Can one of the admins verify this patch?"
}
, {
  "url": "https://api.github.com/repos/Azure/azure-sdk-for-java/issues/comments/53634249",
  "html_url": "https://github.com/Azure/azure-sdk-for-java/pull/435#issuecomment-53634249",
  "issue_url": "https://api.github.com/repos/Azure/azure-sdk-for-java/issues/435",
  "id": 53634249,
  "user": {
    "login": "jianghaolu",
    "id": 2320445,
    "avatar_url": "https://avatars.githubusercontent.com/u/2320445?v=3",
    "gravatar_id": "",
    "url": "https://api.github.com/users/jianghaolu",
    "html_url": "https://github.com/jianghaolu",
    "followers_url": "https://api.github.com/users/jianghaolu/followers",
    "following_url": "https://api.github.com/users/jianghaolu/following{/other_user}",
    "gists_url": "https://api.github.com/users/jianghaolu/gists{/gist_id}",
    "starred_url": "https://api.github.com/users/jianghaolu/starred{/owner}{/repo}",
    "subscriptions_url": "https://api.github.com/users/jianghaolu/subscriptions",
    "organizations_url": "https://api.github.com/users/jianghaolu/orgs",
    "repos_url": "https://api.github.com/users/jianghaolu/repos",
    "events_url": "https://api.github.com/users/jianghaolu/events{/privacy}",
    "received_events_url": "https://api.github.com/users/jianghaolu/received_events",
    "type": "User",
    "site_admin": false
  },
  "created_at": "2014-08-27T20:19:07Z",
  "updated_at": "2014-08-27T20:19:07Z",
  "body": "@xuezhai When you check out and do a test run for the first time, `management.recording=true` should be set. After recording is run, you can run with `management.mocked=true`.\r\n\r\nFor now I'm not including the mock files yet because there are just too many recorded tape files. We should figure out a better way to aggregate them before I can check them in."
}
, {
  "url": "https://api.github.com/repos/Azure/azure-sdk-for-java/issues/comments/54043755",
  "html_url": "https://github.com/Azure/azure-sdk-for-java/pull/435#issuecomment-54043755",
  "issue_url": "https://api.github.com/repos/Azure/azure-sdk-for-java/issues/435",
  "id": 54043755,
  "user": {
    "login": "gerasimovsanay",
    "id": 8613198,
    "avatar_url": "https://avatars.githubusercontent.com/u/8613198?v=3",
    "gravatar_id": "",
    "url": "https://api.github.com/users/gerasimovsanay",
    "html_url": "https://github.com/gerasimovsanay",
    "followers_url": "https://api.github.com/users/gerasimovsanay/followers",
    "following_url": "https://api.github.com/users/gerasimovsanay/following{/other_user}",
    "gists_url": "https://api.github.com/users/gerasimovsanay/gists{/gist_id}",
    "starred_url": "https://api.github.com/users/gerasimovsanay/starred{/owner}{/repo}",
    "subscriptions_url": "https://api.github.com/users/gerasimovsanay/subscriptions",
    "organizations_url": "https://api.github.com/users/gerasimovsanay/orgs",
    "repos_url": "https://api.github.com/users/gerasimovsanay/repos",
    "events_url": "https://api.github.com/users/gerasimovsanay/events{/privacy}",
    "received_events_url": "https://api.github.com/users/gerasimovsanay/received_events",
    "type": "User",
    "site_admin": false
  },
  "created_at": "2014-09-01T10:22:04Z",
  "updated_at": "2014-09-01T10:22:04Z",
  "body": "Java "
}
]
