[
{
  "login": "kamaljit",
  "id": 1235494,
  "avatar_url": "https://avatars.githubusercontent.com/u/1235494?v=3",
  "gravatar_id": "",
  "url": "https://api.github.com/users/kamaljit",
  "html_url": "https://github.com/kamaljit",
  "followers_url": "https://api.github.com/users/kamaljit/followers",
  "following_url": "https://api.github.com/users/kamaljit/following{/other_user}",
  "gists_url": "https://api.github.com/users/kamaljit/gists{/gist_id}",
  "starred_url": "https://api.github.com/users/kamaljit/starred{/owner}{/repo}",
  "subscriptions_url": "https://api.github.com/users/kamaljit/subscriptions",
  "organizations_url": "https://api.github.com/users/kamaljit/orgs",
  "repos_url": "https://api.github.com/users/kamaljit/repos",
  "events_url": "https://api.github.com/users/kamaljit/events{/privacy}",
  "received_events_url": "https://api.github.com/users/kamaljit/received_events",
  "type": "User",
  "site_admin": false
}
, {
  "login": "selvasingh",
  "id": 3642444,
  "avatar_url": "https://avatars.githubusercontent.com/u/3642444?v=3",
  "gravatar_id": "",
  "url": "https://api.github.com/users/selvasingh",
  "html_url": "https://github.com/selvasingh",
  "followers_url": "https://api.github.com/users/selvasingh/followers",
  "following_url": "https://api.github.com/users/selvasingh/following{/other_user}",
  "gists_url": "https://api.github.com/users/selvasingh/gists{/gist_id}",
  "starred_url": "https://api.github.com/users/selvasingh/starred{/owner}{/repo}",
  "subscriptions_url": "https://api.github.com/users/selvasingh/subscriptions",
  "organizations_url": "https://api.github.com/users/selvasingh/orgs",
  "repos_url": "https://api.github.com/users/selvasingh/repos",
  "events_url": "https://api.github.com/users/selvasingh/events{/privacy}",
  "received_events_url": "https://api.github.com/users/selvasingh/received_events",
  "type": "User",
  "site_admin": false
}
, {
  "login": "msftgits",
  "id": 9328564,
  "avatar_url": "https://avatars.githubusercontent.com/u/9328564?v=3",
  "gravatar_id": "",
  "url": "https://api.github.com/users/msftgits",
  "html_url": "https://github.com/msftgits",
  "followers_url": "https://api.github.com/users/msftgits/followers",
  "following_url": "https://api.github.com/users/msftgits/following{/other_user}",
  "gists_url": "https://api.github.com/users/msftgits/gists{/gist_id}",
  "starred_url": "https://api.github.com/users/msftgits/starred{/owner}{/repo}",
  "subscriptions_url": "https://api.github.com/users/msftgits/subscriptions",
  "organizations_url": "https://api.github.com/users/msftgits/orgs",
  "repos_url": "https://api.github.com/users/msftgits/repos",
  "events_url": "https://api.github.com/users/msftgits/events{/privacy}",
  "received_events_url": "https://api.github.com/users/msftgits/received_events",
  "type": "User",
  "site_admin": false
}
, {
  "login": "doubleyewdee",
  "id": 3023323,
  "avatar_url": "https://avatars.githubusercontent.com/u/3023323?v=3",
  "gravatar_id": "",
  "url": "https://api.github.com/users/doubleyewdee",
  "html_url": "https://github.com/doubleyewdee",
  "followers_url": "https://api.github.com/users/doubleyewdee/followers",
  "following_url": "https://api.github.com/users/doubleyewdee/following{/other_user}",
  "gists_url": "https://api.github.com/users/doubleyewdee/gists{/gist_id}",
  "starred_url": "https://api.github.com/users/doubleyewdee/starred{/owner}{/repo}",
  "subscriptions_url": "https://api.github.com/users/doubleyewdee/subscriptions",
  "organizations_url": "https://api.github.com/users/doubleyewdee/orgs",
  "repos_url": "https://api.github.com/users/doubleyewdee/repos",
  "events_url": "https://api.github.com/users/doubleyewdee/events{/privacy}",
  "received_events_url": "https://api.github.com/users/doubleyewdee/received_events",
  "type": "User",
  "site_admin": false
}
, {
  "login": "jpe316",
  "id": 10729578,
  "avatar_url": "https://avatars.githubusercontent.com/u/10729578?v=3",
  "gravatar_id": "",
  "url": "https://api.github.com/users/jpe316",
  "html_url": "https://github.com/jpe316",
  "followers_url": "https://api.github.com/users/jpe316/followers",
  "following_url": "https://api.github.com/users/jpe316/following{/other_user}",
  "gists_url": "https://api.github.com/users/jpe316/gists{/gist_id}",
  "starred_url": "https://api.github.com/users/jpe316/starred{/owner}{/repo}",
  "subscriptions_url": "https://api.github.com/users/jpe316/subscriptions",
  "organizations_url": "https://api.github.com/users/jpe316/orgs",
  "repos_url": "https://api.github.com/users/jpe316/repos",
  "events_url": "https://api.github.com/users/jpe316/events{/privacy}",
  "received_events_url": "https://api.github.com/users/jpe316/received_events",
  "type": "User",
  "site_admin": false
}
, {
  "login": "sundarapandian-balasubramanian",
  "id": 9737959,
  "avatar_url": "https://avatars.githubusercontent.com/u/9737959?v=3",
  "gravatar_id": "",
  "url": "https://api.github.com/users/sundarapandian-balasubramanian",
  "html_url": "https://github.com/sundarapandian-balasubramanian",
  "followers_url": "https://api.github.com/users/sundarapandian-balasubramanian/followers",
  "following_url": "https://api.github.com/users/sundarapandian-balasubramanian/following{/other_user}",
  "gists_url": "https://api.github.com/users/sundarapandian-balasubramanian/gists{/gist_id}",
  "starred_url": "https://api.github.com/users/sundarapandian-balasubramanian/starred{/owner}{/repo}",
  "subscriptions_url": "https://api.github.com/users/sundarapandian-balasubramanian/subscriptions",
  "organizations_url": "https://api.github.com/users/sundarapandian-balasubramanian/orgs",
  "repos_url": "https://api.github.com/users/sundarapandian-balasubramanian/repos",
  "events_url": "https://api.github.com/users/sundarapandian-balasubramanian/events{/privacy}",
  "received_events_url": "https://api.github.com/users/sundarapandian-balasubramanian/received_events",
  "type": "User",
  "site_admin": false
}
, {
  "login": "schlumpfmarkus",
  "id": 1781721,
  "avatar_url": "https://avatars.githubusercontent.com/u/1781721?v=3",
  "gravatar_id": "",
  "url": "https://api.github.com/users/schlumpfmarkus",
  "html_url": "https://github.com/schlumpfmarkus",
  "followers_url": "https://api.github.com/users/schlumpfmarkus/followers",
  "following_url": "https://api.github.com/users/schlumpfmarkus/following{/other_user}",
  "gists_url": "https://api.github.com/users/schlumpfmarkus/gists{/gist_id}",
  "starred_url": "https://api.github.com/users/schlumpfmarkus/starred{/owner}{/repo}",
  "subscriptions_url": "https://api.github.com/users/schlumpfmarkus/subscriptions",
  "organizations_url": "https://api.github.com/users/schlumpfmarkus/orgs",
  "repos_url": "https://api.github.com/users/schlumpfmarkus/repos",
  "events_url": "https://api.github.com/users/schlumpfmarkus/events{/privacy}",
  "received_events_url": "https://api.github.com/users/schlumpfmarkus/received_events",
  "type": "User",
  "site_admin": false
}
]
