[
{
  "url": "https://api.github.com/repos/square/PonyDebugger/issues/comments/8346278",
  "html_url": "https://github.com/square/PonyDebugger/pull/15#issuecomment-8346278",
  "issue_url": "https://api.github.com/repos/square/PonyDebugger/issues/15",
  "id": 8346278,
  "user": {
    "login": "jverdi",
    "id": 345050,
    "avatar_url": "https://avatars.githubusercontent.com/u/345050?v=3",
    "gravatar_id": "",
    "url": "https://api.github.com/users/jverdi",
    "html_url": "https://github.com/jverdi",
    "followers_url": "https://api.github.com/users/jverdi/followers",
    "following_url": "https://api.github.com/users/jverdi/following{/other_user}",
    "gists_url": "https://api.github.com/users/jverdi/gists{/gist_id}",
    "starred_url": "https://api.github.com/users/jverdi/starred{/owner}{/repo}",
    "subscriptions_url": "https://api.github.com/users/jverdi/subscriptions",
    "organizations_url": "https://api.github.com/users/jverdi/orgs",
    "repos_url": "https://api.github.com/users/jverdi/repos",
    "events_url": "https://api.github.com/users/jverdi/events{/privacy}",
    "received_events_url": "https://api.github.com/users/jverdi/received_events",
    "type": "User",
    "site_admin": false
  },
  "created_at": "2012-09-06T20:29:37Z",
  "updated_at": "2012-09-06T20:29:37Z",
  "body": "Thanks - this worked for me as well. \n\nWithout this fix, Xcode will generate a \"Generic Xcode Archive\" rather than an \"iOS App Archive\" which cannot be submitted to the App Store.\n\nUpon validating you will get the error: \"[Project Name] does not contain a single–bundle application or contains multiple products. Please select another archive, or adjust your scheme to create a single–bundle application.\""
}
, {
  "url": "https://api.github.com/repos/square/PonyDebugger/issues/comments/8386241",
  "html_url": "https://github.com/square/PonyDebugger/pull/15#issuecomment-8386241",
  "issue_url": "https://api.github.com/repos/square/PonyDebugger/issues/15",
  "id": 8386241,
  "user": {
    "login": "gogolok",
    "id": 9866,
    "avatar_url": "https://avatars.githubusercontent.com/u/9866?v=3",
    "gravatar_id": "",
    "url": "https://api.github.com/users/gogolok",
    "html_url": "https://github.com/gogolok",
    "followers_url": "https://api.github.com/users/gogolok/followers",
    "following_url": "https://api.github.com/users/gogolok/following{/other_user}",
    "gists_url": "https://api.github.com/users/gogolok/gists{/gist_id}",
    "starred_url": "https://api.github.com/users/gogolok/starred{/owner}{/repo}",
    "subscriptions_url": "https://api.github.com/users/gogolok/subscriptions",
    "organizations_url": "https://api.github.com/users/gogolok/orgs",
    "repos_url": "https://api.github.com/users/gogolok/repos",
    "events_url": "https://api.github.com/users/gogolok/events{/privacy}",
    "received_events_url": "https://api.github.com/users/gogolok/received_events",
    "type": "User",
    "site_admin": false
  },
  "created_at": "2012-09-08T10:14:00Z",
  "updated_at": "2012-09-08T10:14:00Z",
  "body": "+1"
}
, {
  "url": "https://api.github.com/repos/square/PonyDebugger/issues/comments/8409029",
  "html_url": "https://github.com/square/PonyDebugger/pull/15#issuecomment-8409029",
  "issue_url": "https://api.github.com/repos/square/PonyDebugger/issues/15",
  "id": 8409029,
  "user": {
    "login": "mikelikespie",
    "id": 21435,
    "avatar_url": "https://avatars.githubusercontent.com/u/21435?v=3",
    "gravatar_id": "",
    "url": "https://api.github.com/users/mikelikespie",
    "html_url": "https://github.com/mikelikespie",
    "followers_url": "https://api.github.com/users/mikelikespie/followers",
    "following_url": "https://api.github.com/users/mikelikespie/following{/other_user}",
    "gists_url": "https://api.github.com/users/mikelikespie/gists{/gist_id}",
    "starred_url": "https://api.github.com/users/mikelikespie/starred{/owner}{/repo}",
    "subscriptions_url": "https://api.github.com/users/mikelikespie/subscriptions",
    "organizations_url": "https://api.github.com/users/mikelikespie/orgs",
    "repos_url": "https://api.github.com/users/mikelikespie/repos",
    "events_url": "https://api.github.com/users/mikelikespie/events{/privacy}",
    "received_events_url": "https://api.github.com/users/mikelikespie/received_events",
    "type": "User",
    "site_admin": false
  },
  "created_at": "2012-09-09T20:36:32Z",
  "updated_at": "2012-09-09T20:36:32Z",
  "body": "I am going to have to look into this.  I think I may have overlooked this bug for two reasons.\n\n* Never archived PDTwitterTest\n* Square's codebase has build step that removes the headers when we archive.\n\nThe reason we mark these as Public is to make it so header inclusion is really easy (all the external libraries's headers are copied into the build products directory and you don't need to explicitly include every dependency)."
}
, {
  "url": "https://api.github.com/repos/square/PonyDebugger/issues/comments/8459487",
  "html_url": "https://github.com/square/PonyDebugger/pull/15#issuecomment-8459487",
  "issue_url": "https://api.github.com/repos/square/PonyDebugger/issues/15",
  "id": 8459487,
  "user": {
    "login": "diederich",
    "id": 61170,
    "avatar_url": "https://avatars.githubusercontent.com/u/61170?v=3",
    "gravatar_id": "",
    "url": "https://api.github.com/users/diederich",
    "html_url": "https://github.com/diederich",
    "followers_url": "https://api.github.com/users/diederich/followers",
    "following_url": "https://api.github.com/users/diederich/following{/other_user}",
    "gists_url": "https://api.github.com/users/diederich/gists{/gist_id}",
    "starred_url": "https://api.github.com/users/diederich/starred{/owner}{/repo}",
    "subscriptions_url": "https://api.github.com/users/diederich/subscriptions",
    "organizations_url": "https://api.github.com/users/diederich/orgs",
    "repos_url": "https://api.github.com/users/diederich/repos",
    "events_url": "https://api.github.com/users/diederich/events{/privacy}",
    "received_events_url": "https://api.github.com/users/diederich/received_events",
    "type": "User",
    "site_admin": false
  },
  "created_at": "2012-09-11T13:29:50Z",
  "updated_at": "2012-09-11T16:16:33Z",
  "body": "IIRC setting SKIP_INSTALL to YES is still needed.\n\nStill, I'd vote for keeping the headers public for easier integration in workspace projects. \nOne suggestion for the public header path is to set it like this:\n\n    PUBLIC_HEADERS_FOLDER_PATH = include/$(PRODUCT_NAME)\n\nThat way user's don't need to adjust the HEADER_SEARCH_PATH in their projects, as BUILT_PRODUCTS_PATH/include is added to the include paths by Xcode for \"normal\" builds. With this setting, headers don't end up in the archive.\n\nFor Archive builds that want to use the headers, adding \"$OBJROOT\"/UninstalledProducts/include\" to app's HEADER_SEARCH_PATH is still necessary though.\n\n\n"
}
, {
  "url": "https://api.github.com/repos/square/PonyDebugger/issues/comments/8925969",
  "html_url": "https://github.com/square/PonyDebugger/pull/15#issuecomment-8925969",
  "issue_url": "https://api.github.com/repos/square/PonyDebugger/issues/15",
  "id": 8925969,
  "user": {
    "login": "amitvaghela",
    "id": 1438301,
    "avatar_url": "https://avatars.githubusercontent.com/u/1438301?v=3",
    "gravatar_id": "",
    "url": "https://api.github.com/users/amitvaghela",
    "html_url": "https://github.com/amitvaghela",
    "followers_url": "https://api.github.com/users/amitvaghela/followers",
    "following_url": "https://api.github.com/users/amitvaghela/following{/other_user}",
    "gists_url": "https://api.github.com/users/amitvaghela/gists{/gist_id}",
    "starred_url": "https://api.github.com/users/amitvaghela/starred{/owner}{/repo}",
    "subscriptions_url": "https://api.github.com/users/amitvaghela/subscriptions",
    "organizations_url": "https://api.github.com/users/amitvaghela/orgs",
    "repos_url": "https://api.github.com/users/amitvaghela/repos",
    "events_url": "https://api.github.com/users/amitvaghela/events{/privacy}",
    "received_events_url": "https://api.github.com/users/amitvaghela/received_events",
    "type": "User",
    "site_admin": false
  },
  "created_at": "2012-09-27T05:04:10Z",
  "updated_at": "2012-09-27T05:04:10Z",
  "body": "I second the  @diederich approach. "
}
, {
  "url": "https://api.github.com/repos/square/PonyDebugger/issues/comments/9803411",
  "html_url": "https://github.com/square/PonyDebugger/pull/15#issuecomment-9803411",
  "issue_url": "https://api.github.com/repos/square/PonyDebugger/issues/15",
  "id": 9803411,
  "user": {
    "login": "mikelikespie",
    "id": 21435,
    "avatar_url": "https://avatars.githubusercontent.com/u/21435?v=3",
    "gravatar_id": "",
    "url": "https://api.github.com/users/mikelikespie",
    "html_url": "https://github.com/mikelikespie",
    "followers_url": "https://api.github.com/users/mikelikespie/followers",
    "following_url": "https://api.github.com/users/mikelikespie/following{/other_user}",
    "gists_url": "https://api.github.com/users/mikelikespie/gists{/gist_id}",
    "starred_url": "https://api.github.com/users/mikelikespie/starred{/owner}{/repo}",
    "subscriptions_url": "https://api.github.com/users/mikelikespie/subscriptions",
    "organizations_url": "https://api.github.com/users/mikelikespie/orgs",
    "repos_url": "https://api.github.com/users/mikelikespie/repos",
    "events_url": "https://api.github.com/users/mikelikespie/events{/privacy}",
    "received_events_url": "https://api.github.com/users/mikelikespie/received_events",
    "type": "User",
    "site_admin": false
  },
  "created_at": "2012-10-26T05:44:52Z",
  "updated_at": "2012-10-26T05:44:52Z",
  "body": "@diederich I was unaware of this (and apologies for the late reply).  I will give it a shot. This could solve a lot of problems."
}
, {
  "url": "https://api.github.com/repos/square/PonyDebugger/issues/comments/11186513",
  "html_url": "https://github.com/square/PonyDebugger/pull/15#issuecomment-11186513",
  "issue_url": "https://api.github.com/repos/square/PonyDebugger/issues/15",
  "id": 11186513,
  "user": {
    "login": "wlue",
    "id": 200448,
    "avatar_url": "https://avatars.githubusercontent.com/u/200448?v=3",
    "gravatar_id": "",
    "url": "https://api.github.com/users/wlue",
    "html_url": "https://github.com/wlue",
    "followers_url": "https://api.github.com/users/wlue/followers",
    "following_url": "https://api.github.com/users/wlue/following{/other_user}",
    "gists_url": "https://api.github.com/users/wlue/gists{/gist_id}",
    "starred_url": "https://api.github.com/users/wlue/starred{/owner}{/repo}",
    "subscriptions_url": "https://api.github.com/users/wlue/subscriptions",
    "organizations_url": "https://api.github.com/users/wlue/orgs",
    "repos_url": "https://api.github.com/users/wlue/repos",
    "events_url": "https://api.github.com/users/wlue/events{/privacy}",
    "received_events_url": "https://api.github.com/users/wlue/received_events",
    "type": "User",
    "site_admin": false
  },
  "created_at": "2012-12-10T09:26:26Z",
  "updated_at": "2012-12-10T09:26:26Z",
  "body": "@mikelikespie Any updates for this? It seems like something that probably should be merged in."
}
, {
  "url": "https://api.github.com/repos/square/PonyDebugger/issues/comments/11832109",
  "html_url": "https://github.com/square/PonyDebugger/pull/15#issuecomment-11832109",
  "issue_url": "https://api.github.com/repos/square/PonyDebugger/issues/15",
  "id": 11832109,
  "user": {
    "login": "mikelikespie",
    "id": 21435,
    "avatar_url": "https://avatars.githubusercontent.com/u/21435?v=3",
    "gravatar_id": "",
    "url": "https://api.github.com/users/mikelikespie",
    "html_url": "https://github.com/mikelikespie",
    "followers_url": "https://api.github.com/users/mikelikespie/followers",
    "following_url": "https://api.github.com/users/mikelikespie/following{/other_user}",
    "gists_url": "https://api.github.com/users/mikelikespie/gists{/gist_id}",
    "starred_url": "https://api.github.com/users/mikelikespie/starred{/owner}{/repo}",
    "subscriptions_url": "https://api.github.com/users/mikelikespie/subscriptions",
    "organizations_url": "https://api.github.com/users/mikelikespie/orgs",
    "repos_url": "https://api.github.com/users/mikelikespie/repos",
    "events_url": "https://api.github.com/users/mikelikespie/events{/privacy}",
    "received_events_url": "https://api.github.com/users/mikelikespie/received_events",
    "type": "User",
    "site_admin": false
  },
  "created_at": "2013-01-03T01:31:09Z",
  "updated_at": "2013-01-03T01:31:09Z",
  "body": "Closed in favor of #39 "
}
]
