[
{
  "url": "https://api.github.com/repos/Microsoft/Yams/issues/comments/166691091",
  "html_url": "https://github.com/Microsoft/Yams/pull/4#issuecomment-166691091",
  "issue_url": "https://api.github.com/repos/Microsoft/Yams/issues/4",
  "id": 166691091,
  "user": {
    "login": "msftclas",
    "id": 9287708,
    "avatar_url": "https://avatars.githubusercontent.com/u/9287708?v=3",
    "gravatar_id": "",
    "url": "https://api.github.com/users/msftclas",
    "html_url": "https://github.com/msftclas",
    "followers_url": "https://api.github.com/users/msftclas/followers",
    "following_url": "https://api.github.com/users/msftclas/following{/other_user}",
    "gists_url": "https://api.github.com/users/msftclas/gists{/gist_id}",
    "starred_url": "https://api.github.com/users/msftclas/starred{/owner}{/repo}",
    "subscriptions_url": "https://api.github.com/users/msftclas/subscriptions",
    "organizations_url": "https://api.github.com/users/msftclas/orgs",
    "repos_url": "https://api.github.com/users/msftclas/repos",
    "events_url": "https://api.github.com/users/msftclas/events{/privacy}",
    "received_events_url": "https://api.github.com/users/msftclas/received_events",
    "type": "User",
    "site_admin": false
  },
  "created_at": "2015-12-22T17:59:23Z",
  "updated_at": "2015-12-22T17:59:23Z",
  "body": "Hi __@gitter-badger__, I'm your friendly neighborhood Microsoft Pull Request Bot (You can call me MSBOT). Thanks for your contribution!\r\n    <span>\r\n        This seems like a small (but important) contribution, so no Contribution License Agreement is required at this point. Real humans will now evaluate your PR.\r\n    </span>\r\n\r\nTTYL, MSBOT;\r\n"
}
]
