[
{
  "url": "https://api.github.com/repos/mongodb/morphia/issues/comments/133701215",
  "html_url": "https://github.com/mongodb/morphia/issues/834#issuecomment-133701215",
  "issue_url": "https://api.github.com/repos/mongodb/morphia/issues/834",
  "id": 133701215,
  "user": {
    "login": "gik98",
    "id": 5212639,
    "avatar_url": "https://avatars.githubusercontent.com/u/5212639?v=3",
    "gravatar_id": "",
    "url": "https://api.github.com/users/gik98",
    "html_url": "https://github.com/gik98",
    "followers_url": "https://api.github.com/users/gik98/followers",
    "following_url": "https://api.github.com/users/gik98/following{/other_user}",
    "gists_url": "https://api.github.com/users/gik98/gists{/gist_id}",
    "starred_url": "https://api.github.com/users/gik98/starred{/owner}{/repo}",
    "subscriptions_url": "https://api.github.com/users/gik98/subscriptions",
    "organizations_url": "https://api.github.com/users/gik98/orgs",
    "repos_url": "https://api.github.com/users/gik98/repos",
    "events_url": "https://api.github.com/users/gik98/events{/privacy}",
    "received_events_url": "https://api.github.com/users/gik98/received_events",
    "type": "User",
    "site_admin": false
  },
  "created_at": "2015-08-22T13:00:21Z",
  "updated_at": "2015-08-22T13:00:21Z",
  "body": "For clarity\r\n\r\n* Not a duplicate of #608 since there's no circular reference\r\n* Classnames are stored (correctly) in database"
}
, {
  "url": "https://api.github.com/repos/mongodb/morphia/issues/comments/134587068",
  "html_url": "https://github.com/mongodb/morphia/issues/834#issuecomment-134587068",
  "issue_url": "https://api.github.com/repos/mongodb/morphia/issues/834",
  "id": 134587068,
  "user": {
    "login": "evanchooly",
    "id": 195021,
    "avatar_url": "https://avatars.githubusercontent.com/u/195021?v=3",
    "gravatar_id": "",
    "url": "https://api.github.com/users/evanchooly",
    "html_url": "https://github.com/evanchooly",
    "followers_url": "https://api.github.com/users/evanchooly/followers",
    "following_url": "https://api.github.com/users/evanchooly/following{/other_user}",
    "gists_url": "https://api.github.com/users/evanchooly/gists{/gist_id}",
    "starred_url": "https://api.github.com/users/evanchooly/starred{/owner}{/repo}",
    "subscriptions_url": "https://api.github.com/users/evanchooly/subscriptions",
    "organizations_url": "https://api.github.com/users/evanchooly/orgs",
    "repos_url": "https://api.github.com/users/evanchooly/repos",
    "events_url": "https://api.github.com/users/evanchooly/events{/privacy}",
    "received_events_url": "https://api.github.com/users/evanchooly/received_events",
    "type": "User",
    "site_admin": false
  },
  "created_at": "2015-08-25T13:35:30Z",
  "updated_at": "2015-08-25T13:35:30Z",
  "body": "Please post a test case that recreates this error to the [mailing list](https://groups.google.com/forum/#!forum/morphia).  Lazy references work (according to the tests).  You're likely missing a step in your scenario."
}
]
