[
{
  "url": "https://api.github.com/repos/mongodb/morphia/issues/comments/29717547",
  "html_url": "https://github.com/mongodb/morphia/issues/548#issuecomment-29717547",
  "issue_url": "https://api.github.com/repos/mongodb/morphia/issues/548",
  "id": 29717547,
  "user": {
    "login": "evanchooly",
    "id": 195021,
    "avatar_url": "https://avatars.githubusercontent.com/u/195021?v=3",
    "gravatar_id": "",
    "url": "https://api.github.com/users/evanchooly",
    "html_url": "https://github.com/evanchooly",
    "followers_url": "https://api.github.com/users/evanchooly/followers",
    "following_url": "https://api.github.com/users/evanchooly/following{/other_user}",
    "gists_url": "https://api.github.com/users/evanchooly/gists{/gist_id}",
    "starred_url": "https://api.github.com/users/evanchooly/starred{/owner}{/repo}",
    "subscriptions_url": "https://api.github.com/users/evanchooly/subscriptions",
    "organizations_url": "https://api.github.com/users/evanchooly/orgs",
    "repos_url": "https://api.github.com/users/evanchooly/repos",
    "events_url": "https://api.github.com/users/evanchooly/events{/privacy}",
    "received_events_url": "https://api.github.com/users/evanchooly/received_events",
    "type": "User",
    "site_admin": false
  },
  "created_at": "2013-12-03T15:14:41Z",
  "updated_at": "2013-12-03T15:14:41Z",
  "body": "I'm working on trying to recreate this and have a few questions.  What version of hadoop are you using?  Are you including the morphia/mongo jars in $HADOOP_HOME/lib (or similar) or in the shared space in HDFS?"
}
, {
  "url": "https://api.github.com/repos/mongodb/morphia/issues/comments/29727641",
  "html_url": "https://github.com/mongodb/morphia/issues/548#issuecomment-29727641",
  "issue_url": "https://api.github.com/repos/mongodb/morphia/issues/548",
  "id": 29727641,
  "user": {
    "login": "pferrel",
    "id": 326731,
    "avatar_url": "https://avatars.githubusercontent.com/u/326731?v=3",
    "gravatar_id": "",
    "url": "https://api.github.com/users/pferrel",
    "html_url": "https://github.com/pferrel",
    "followers_url": "https://api.github.com/users/pferrel/followers",
    "following_url": "https://api.github.com/users/pferrel/following{/other_user}",
    "gists_url": "https://api.github.com/users/pferrel/gists{/gist_id}",
    "starred_url": "https://api.github.com/users/pferrel/starred{/owner}{/repo}",
    "subscriptions_url": "https://api.github.com/users/pferrel/subscriptions",
    "organizations_url": "https://api.github.com/users/pferrel/orgs",
    "repos_url": "https://api.github.com/users/pferrel/repos",
    "events_url": "https://api.github.com/users/pferrel/events{/privacy}",
    "received_events_url": "https://api.github.com/users/pferrel/received_events",
    "type": "User",
    "site_admin": false
  },
  "created_at": "2013-12-03T16:50:51Z",
  "updated_at": "2013-12-03T16:50:51Z",
  "body": "This first showed up using 0.20.205 but I'm now using 1.2.1. Hadoop jars in $HADOOP_HOME. Morphia 0.106-SNAPSHOT  and Mongo Java driver 2.11.2  are included in my jar not from a shared location. You can have the POM if you care. \r\n\r\nI instantiate Morphia, once per Hadoop node. Using Hadoop to load Mongo as the end sink from a Cascading job. Mongo is a single instance and there are only three machines in the cluster. \r\n\r\nIt looks to me like it's not a config or performancy thing but a build thing. It shows up when using the repo version, then I build locally and it still shows up until I comment out those lines. I don't even see how those lines of code could get executed so can't give much help there.\r\n"
}
, {
  "url": "https://api.github.com/repos/mongodb/morphia/issues/comments/29729656",
  "html_url": "https://github.com/mongodb/morphia/issues/548#issuecomment-29729656",
  "issue_url": "https://api.github.com/repos/mongodb/morphia/issues/548",
  "id": 29729656,
  "user": {
    "login": "evanchooly",
    "id": 195021,
    "avatar_url": "https://avatars.githubusercontent.com/u/195021?v=3",
    "gravatar_id": "",
    "url": "https://api.github.com/users/evanchooly",
    "html_url": "https://github.com/evanchooly",
    "followers_url": "https://api.github.com/users/evanchooly/followers",
    "following_url": "https://api.github.com/users/evanchooly/following{/other_user}",
    "gists_url": "https://api.github.com/users/evanchooly/gists{/gist_id}",
    "starred_url": "https://api.github.com/users/evanchooly/starred{/owner}{/repo}",
    "subscriptions_url": "https://api.github.com/users/evanchooly/subscriptions",
    "organizations_url": "https://api.github.com/users/evanchooly/orgs",
    "repos_url": "https://api.github.com/users/evanchooly/repos",
    "events_url": "https://api.github.com/users/evanchooly/events{/privacy}",
    "received_events_url": "https://api.github.com/users/evanchooly/received_events",
    "type": "User",
    "site_admin": false
  },
  "created_at": "2013-12-03T17:10:22Z",
  "updated_at": "2013-12-03T17:10:22Z",
  "body": "Those lines check to see if lazy refs can be supported.  If they can't, the\r\nreferences are eagerly fetched.  It's typically only called once early on\r\nin the mapping process.  I'll see what I can track down.  I've built hadoop\r\njobs with morphia and they worked fine so I'm not sure why you're seeing\r\nthis.\r\n\r\n\r\nOn Tue, Dec 3, 2013 at 5:50 PM, Pat Ferrel <notifications@github.com> wrote:\r\n\r\n> This first showed up using 0.20.205 but I'm now using 1.2.1. Hadoop jars\r\n> in $HADOOP_HOME. Morphia 0.106-SNAPSHOT and Mongo Java driver 2.11.2 are\r\n> included in my jar not from a shared location. You can have the POM if you\r\n> care.\r\n>\r\n> I instantiate Morphia, once per Hadoop node. Using Hadoop to load Mongo as\r\n> the end sink from a Cascading job. Mongo is a single instance and there are\r\n> only three machines in the cluster.\r\n>\r\n> It looks to me like it's not a config or performancy thing but a build\r\n> thing. It shows up when using the repo version, then I build locally and it\r\n> still shows up until I comment out those lines. I don't even see how those\r\n> lines of code could get executed so can't give much help there.\r\n>\r\n> —\r\n> Reply to this email directly or view it on GitHub<https://github.com/mongodb/morphia/issues/548#issuecomment-29727641>\r\n> .\r\n>"
}
, {
  "url": "https://api.github.com/repos/mongodb/morphia/issues/comments/33517122",
  "html_url": "https://github.com/mongodb/morphia/issues/548#issuecomment-33517122",
  "issue_url": "https://api.github.com/repos/mongodb/morphia/issues/548",
  "id": 33517122,
  "user": {
    "login": "evanchooly",
    "id": 195021,
    "avatar_url": "https://avatars.githubusercontent.com/u/195021?v=3",
    "gravatar_id": "",
    "url": "https://api.github.com/users/evanchooly",
    "html_url": "https://github.com/evanchooly",
    "followers_url": "https://api.github.com/users/evanchooly/followers",
    "following_url": "https://api.github.com/users/evanchooly/following{/other_user}",
    "gists_url": "https://api.github.com/users/evanchooly/gists{/gist_id}",
    "starred_url": "https://api.github.com/users/evanchooly/starred{/owner}{/repo}",
    "subscriptions_url": "https://api.github.com/users/evanchooly/subscriptions",
    "organizations_url": "https://api.github.com/users/evanchooly/orgs",
    "repos_url": "https://api.github.com/users/evanchooly/repos",
    "events_url": "https://api.github.com/users/evanchooly/events{/privacy}",
    "received_events_url": "https://api.github.com/users/evanchooly/received_events",
    "type": "User",
    "site_admin": false
  },
  "created_at": "2014-01-28T19:52:43Z",
  "updated_at": "2014-01-28T19:52:43Z",
  "body": "OK.  So I finally had time to sit down and work up a test for this.  I updated the treasury_yield example in the mongo-hadoop project to create, save, and load entities with both eager and lazy references in a mapper using 0.105.  I never get an exception but I get, as expected, hundreds of log entries about missing deps and not being able to lazily fetch those references.  At this point, morphia is working as it should."
}
]
