[
{
  "url": "https://api.github.com/repos/google/google-api-nodejs-client/issues/comments/47846877",
  "html_url": "https://github.com/google/google-api-nodejs-client/issues/194#issuecomment-47846877",
  "issue_url": "https://api.github.com/repos/google/google-api-nodejs-client/issues/194",
  "id": 47846877,
  "user": {
    "login": "Alaneor",
    "id": 3058150,
    "avatar_url": "https://avatars.githubusercontent.com/u/3058150?v=3",
    "gravatar_id": "",
    "url": "https://api.github.com/users/Alaneor",
    "html_url": "https://github.com/Alaneor",
    "followers_url": "https://api.github.com/users/Alaneor/followers",
    "following_url": "https://api.github.com/users/Alaneor/following{/other_user}",
    "gists_url": "https://api.github.com/users/Alaneor/gists{/gist_id}",
    "starred_url": "https://api.github.com/users/Alaneor/starred{/owner}{/repo}",
    "subscriptions_url": "https://api.github.com/users/Alaneor/subscriptions",
    "organizations_url": "https://api.github.com/users/Alaneor/orgs",
    "repos_url": "https://api.github.com/users/Alaneor/repos",
    "events_url": "https://api.github.com/users/Alaneor/events{/privacy}",
    "received_events_url": "https://api.github.com/users/Alaneor/received_events",
    "type": "User",
    "site_admin": false
  },
  "created_at": "2014-07-02T22:44:19Z",
  "updated_at": "2014-07-02T22:44:19Z",
  "body": "What have you tried so far...?"
}
, {
  "url": "https://api.github.com/repos/google/google-api-nodejs-client/issues/comments/47847349",
  "html_url": "https://github.com/google/google-api-nodejs-client/issues/194#issuecomment-47847349",
  "issue_url": "https://api.github.com/repos/google/google-api-nodejs-client/issues/194",
  "id": 47847349,
  "user": {
    "login": "kim0z",
    "id": 3579282,
    "avatar_url": "https://avatars.githubusercontent.com/u/3579282?v=3",
    "gravatar_id": "",
    "url": "https://api.github.com/users/kim0z",
    "html_url": "https://github.com/kim0z",
    "followers_url": "https://api.github.com/users/kim0z/followers",
    "following_url": "https://api.github.com/users/kim0z/following{/other_user}",
    "gists_url": "https://api.github.com/users/kim0z/gists{/gist_id}",
    "starred_url": "https://api.github.com/users/kim0z/starred{/owner}{/repo}",
    "subscriptions_url": "https://api.github.com/users/kim0z/subscriptions",
    "organizations_url": "https://api.github.com/users/kim0z/orgs",
    "repos_url": "https://api.github.com/users/kim0z/repos",
    "events_url": "https://api.github.com/users/kim0z/events{/privacy}",
    "received_events_url": "https://api.github.com/users/kim0z/received_events",
    "type": "User",
    "site_admin": false
  },
  "created_at": "2014-07-02T22:50:57Z",
  "updated_at": "2014-07-02T23:14:59Z",
  "body": "```\r\nvar insertSubscription = function (client, errorCallback, successCallback) {\r\n    client.mirror.subscriptions.insert({\r\n        \"callbackUrl\":\"https://used GoogleHttps proxy/callback\",\r\n        \"collection\":\"timeline\",\r\n        \"userToken\":\"001\",\r\n        \"verifyToken\":\"secret\",\r\n        \"operation\":[\"INSERT\"]\r\n        })\r\n     })\r\n        .withAuthClient(oauth2Client)\r\n        .execute(function (err, data) {\r\n            if (!!err)\r\n                errorCallback(err);\r\n            else\r\n                successCallback(data);\r\n        });\r\n    };\r\n```    "
}
, {
  "url": "https://api.github.com/repos/google/google-api-nodejs-client/issues/comments/47847452",
  "html_url": "https://github.com/google/google-api-nodejs-client/issues/194#issuecomment-47847452",
  "issue_url": "https://api.github.com/repos/google/google-api-nodejs-client/issues/194",
  "id": 47847452,
  "user": {
    "login": "kim0z",
    "id": 3579282,
    "avatar_url": "https://avatars.githubusercontent.com/u/3579282?v=3",
    "gravatar_id": "",
    "url": "https://api.github.com/users/kim0z",
    "html_url": "https://github.com/kim0z",
    "followers_url": "https://api.github.com/users/kim0z/followers",
    "following_url": "https://api.github.com/users/kim0z/following{/other_user}",
    "gists_url": "https://api.github.com/users/kim0z/gists{/gist_id}",
    "starred_url": "https://api.github.com/users/kim0z/starred{/owner}{/repo}",
    "subscriptions_url": "https://api.github.com/users/kim0z/subscriptions",
    "organizations_url": "https://api.github.com/users/kim0z/orgs",
    "repos_url": "https://api.github.com/users/kim0z/repos",
    "events_url": "https://api.github.com/users/kim0z/events{/privacy}",
    "received_events_url": "https://api.github.com/users/kim0z/received_events",
    "type": "User",
    "site_admin": false
  },
  "created_at": "2014-07-02T22:52:28Z",
  "updated_at": "2014-07-02T23:15:10Z",
  "body": "and I did called the function from the discovery : \r\n```\r\nvar gotToken = function () {\r\n    googleapis\r\n        .discover('mirror', 'v1')\r\n        .execute(function (err, client) {\r\n            if (!!err) {\r\n                failure();\r\n                return;\r\n            }\r\n\r\n            //insertContact(client, failure, success);\r\n            insertSubscription(client, failure, success);\r\n        });\r\n    };\r\n```"
}
, {
  "url": "https://api.github.com/repos/google/google-api-nodejs-client/issues/comments/47847836",
  "html_url": "https://github.com/google/google-api-nodejs-client/issues/194#issuecomment-47847836",
  "issue_url": "https://api.github.com/repos/google/google-api-nodejs-client/issues/194",
  "id": 47847836,
  "user": {
    "login": "Alaneor",
    "id": 3058150,
    "avatar_url": "https://avatars.githubusercontent.com/u/3058150?v=3",
    "gravatar_id": "",
    "url": "https://api.github.com/users/Alaneor",
    "html_url": "https://github.com/Alaneor",
    "followers_url": "https://api.github.com/users/Alaneor/followers",
    "following_url": "https://api.github.com/users/Alaneor/following{/other_user}",
    "gists_url": "https://api.github.com/users/Alaneor/gists{/gist_id}",
    "starred_url": "https://api.github.com/users/Alaneor/starred{/owner}{/repo}",
    "subscriptions_url": "https://api.github.com/users/Alaneor/subscriptions",
    "organizations_url": "https://api.github.com/users/Alaneor/orgs",
    "repos_url": "https://api.github.com/users/Alaneor/repos",
    "events_url": "https://api.github.com/users/Alaneor/events{/privacy}",
    "received_events_url": "https://api.github.com/users/Alaneor/received_events",
    "type": "User",
    "site_admin": false
  },
  "created_at": "2014-07-02T22:57:51Z",
  "updated_at": "2014-07-02T22:57:51Z",
  "body": "And what was the response? What error message have you received? What exactly is not working?\r\n\r\nAt first glance, it seems strange that you are providing `userToken` and `verifyToken` in the subscriptions' insert request - authentication should be handled using the `oauth2Client`."
}
, {
  "url": "https://api.github.com/repos/google/google-api-nodejs-client/issues/comments/47849057",
  "html_url": "https://github.com/google/google-api-nodejs-client/issues/194#issuecomment-47849057",
  "issue_url": "https://api.github.com/repos/google/google-api-nodejs-client/issues/194",
  "id": 47849057,
  "user": {
    "login": "kim0z",
    "id": 3579282,
    "avatar_url": "https://avatars.githubusercontent.com/u/3579282?v=3",
    "gravatar_id": "",
    "url": "https://api.github.com/users/kim0z",
    "html_url": "https://github.com/kim0z",
    "followers_url": "https://api.github.com/users/kim0z/followers",
    "following_url": "https://api.github.com/users/kim0z/following{/other_user}",
    "gists_url": "https://api.github.com/users/kim0z/gists{/gist_id}",
    "starred_url": "https://api.github.com/users/kim0z/starred{/owner}{/repo}",
    "subscriptions_url": "https://api.github.com/users/kim0z/subscriptions",
    "organizations_url": "https://api.github.com/users/kim0z/orgs",
    "repos_url": "https://api.github.com/users/kim0z/repos",
    "events_url": "https://api.github.com/users/kim0z/events{/privacy}",
    "received_events_url": "https://api.github.com/users/kim0z/received_events",
    "type": "User",
    "site_admin": false
  },
  "created_at": "2014-07-02T23:13:32Z",
  "updated_at": "2014-07-02T23:13:32Z",
  "body": "Authentication handled by **oauth2Client** in my code, I don't know what for the **userToken** and **verifyToken** used for.\r\n\r\nI don't have the error now, I need to start my cloud machine (tomorrow will do it).\r\n\r\nI want to know if I am in the right direction? "
}
, {
  "url": "https://api.github.com/repos/google/google-api-nodejs-client/issues/comments/47980402",
  "html_url": "https://github.com/google/google-api-nodejs-client/issues/194#issuecomment-47980402",
  "issue_url": "https://api.github.com/repos/google/google-api-nodejs-client/issues/194",
  "id": 47980402,
  "user": {
    "login": "kim0z",
    "id": 3579282,
    "avatar_url": "https://avatars.githubusercontent.com/u/3579282?v=3",
    "gravatar_id": "",
    "url": "https://api.github.com/users/kim0z",
    "html_url": "https://github.com/kim0z",
    "followers_url": "https://api.github.com/users/kim0z/followers",
    "following_url": "https://api.github.com/users/kim0z/following{/other_user}",
    "gists_url": "https://api.github.com/users/kim0z/gists{/gist_id}",
    "starred_url": "https://api.github.com/users/kim0z/starred{/owner}{/repo}",
    "subscriptions_url": "https://api.github.com/users/kim0z/subscriptions",
    "organizations_url": "https://api.github.com/users/kim0z/orgs",
    "repos_url": "https://api.github.com/users/kim0z/repos",
    "events_url": "https://api.github.com/users/kim0z/events{/privacy}",
    "received_events_url": "https://api.github.com/users/kim0z/received_events",
    "type": "User",
    "site_admin": false
  },
  "created_at": "2014-07-03T20:24:19Z",
  "updated_at": "2014-07-03T20:24:19Z",
  "body": "The error I got:\r\nReferenceError: failur is not defined\r\n    at /home/ubuntu/server_client/app.js:70:48\r\n    at /home/ubuntu/server_client/node_modules/googleapis/lib/googleapis.js:132:23\r\n    at /home/ubuntu/server_client/node_modules/googleapis/node_modules/async/lib/async.js:232:13\r\n    at /home/ubuntu/server_client/node_modules/googleapis/node_modules/async/lib/async.js:119:25\r\n    at /home/ubuntu/server_client/node_modules/googleapis/node_modules/async/lib/async.js:24:16\r\n    at /home/ubuntu/server_client/node_modules/googleapis/node_modules/async/lib/async.js:229:17\r\n    at /home/ubuntu/server_client/node_modules/googleapis/node_modules/async/lib/async.js:516:34\r\n    at generateClient (/home/ubuntu/server_client/node_modules/googleapis/lib/googleapis.js:157:21)\r\n    at Request._callback (/home/ubuntu/server_client/node_modules/googleapis/lib/transporters.js:78:21)\r\n    at Request.self.callback (/home/ubuntu/server_client/node_modules/googleapis/node_modules/request/request.js:121:22)\r\n\r\nmy code: https://github.com/kim0z/GlassEngine/blob/master/app.js"
}
, {
  "url": "https://api.github.com/repos/google/google-api-nodejs-client/issues/comments/47980599",
  "html_url": "https://github.com/google/google-api-nodejs-client/issues/194#issuecomment-47980599",
  "issue_url": "https://api.github.com/repos/google/google-api-nodejs-client/issues/194",
  "id": 47980599,
  "user": {
    "login": "ryanseys",
    "id": 163873,
    "avatar_url": "https://avatars.githubusercontent.com/u/163873?v=3",
    "gravatar_id": "",
    "url": "https://api.github.com/users/ryanseys",
    "html_url": "https://github.com/ryanseys",
    "followers_url": "https://api.github.com/users/ryanseys/followers",
    "following_url": "https://api.github.com/users/ryanseys/following{/other_user}",
    "gists_url": "https://api.github.com/users/ryanseys/gists{/gist_id}",
    "starred_url": "https://api.github.com/users/ryanseys/starred{/owner}{/repo}",
    "subscriptions_url": "https://api.github.com/users/ryanseys/subscriptions",
    "organizations_url": "https://api.github.com/users/ryanseys/orgs",
    "repos_url": "https://api.github.com/users/ryanseys/repos",
    "events_url": "https://api.github.com/users/ryanseys/events{/privacy}",
    "received_events_url": "https://api.github.com/users/ryanseys/received_events",
    "type": "User",
    "site_admin": false
  },
  "created_at": "2014-07-03T20:26:02Z",
  "updated_at": "2014-07-03T20:26:02Z",
  "body": "Watch for typos: `failur` is undefined. Should likely be `failure`."
}
, {
  "url": "https://api.github.com/repos/google/google-api-nodejs-client/issues/comments/47983137",
  "html_url": "https://github.com/google/google-api-nodejs-client/issues/194#issuecomment-47983137",
  "issue_url": "https://api.github.com/repos/google/google-api-nodejs-client/issues/194",
  "id": 47983137,
  "user": {
    "login": "kim0z",
    "id": 3579282,
    "avatar_url": "https://avatars.githubusercontent.com/u/3579282?v=3",
    "gravatar_id": "",
    "url": "https://api.github.com/users/kim0z",
    "html_url": "https://github.com/kim0z",
    "followers_url": "https://api.github.com/users/kim0z/followers",
    "following_url": "https://api.github.com/users/kim0z/following{/other_user}",
    "gists_url": "https://api.github.com/users/kim0z/gists{/gist_id}",
    "starred_url": "https://api.github.com/users/kim0z/starred{/owner}{/repo}",
    "subscriptions_url": "https://api.github.com/users/kim0z/subscriptions",
    "organizations_url": "https://api.github.com/users/kim0z/orgs",
    "repos_url": "https://api.github.com/users/kim0z/repos",
    "events_url": "https://api.github.com/users/kim0z/events{/privacy}",
    "received_events_url": "https://api.github.com/users/kim0z/received_events",
    "type": "User",
    "site_admin": false
  },
  "created_at": "2014-07-03T20:49:09Z",
  "updated_at": "2014-07-03T20:49:09Z",
  "body": "Oppss :), sorry for the long thread, it works after the typo fix, thank you @ryanseys and @Alaneor \r\nanyway the link for my code will give example for others about subscribe."
}
, {
  "url": "https://api.github.com/repos/google/google-api-nodejs-client/issues/comments/47983323",
  "html_url": "https://github.com/google/google-api-nodejs-client/issues/194#issuecomment-47983323",
  "issue_url": "https://api.github.com/repos/google/google-api-nodejs-client/issues/194",
  "id": 47983323,
  "user": {
    "login": "ryanseys",
    "id": 163873,
    "avatar_url": "https://avatars.githubusercontent.com/u/163873?v=3",
    "gravatar_id": "",
    "url": "https://api.github.com/users/ryanseys",
    "html_url": "https://github.com/ryanseys",
    "followers_url": "https://api.github.com/users/ryanseys/followers",
    "following_url": "https://api.github.com/users/ryanseys/following{/other_user}",
    "gists_url": "https://api.github.com/users/ryanseys/gists{/gist_id}",
    "starred_url": "https://api.github.com/users/ryanseys/starred{/owner}{/repo}",
    "subscriptions_url": "https://api.github.com/users/ryanseys/subscriptions",
    "organizations_url": "https://api.github.com/users/ryanseys/orgs",
    "repos_url": "https://api.github.com/users/ryanseys/repos",
    "events_url": "https://api.github.com/users/ryanseys/events{/privacy}",
    "received_events_url": "https://api.github.com/users/ryanseys/received_events",
    "type": "User",
    "site_admin": false
  },
  "created_at": "2014-07-03T20:51:00Z",
  "updated_at": "2014-07-03T20:51:00Z",
  "body": "Glad to help! Silly typos :smile: "
}
, {
  "url": "https://api.github.com/repos/google/google-api-nodejs-client/issues/comments/47983413",
  "html_url": "https://github.com/google/google-api-nodejs-client/issues/194#issuecomment-47983413",
  "issue_url": "https://api.github.com/repos/google/google-api-nodejs-client/issues/194",
  "id": 47983413,
  "user": {
    "login": "ryanseys",
    "id": 163873,
    "avatar_url": "https://avatars.githubusercontent.com/u/163873?v=3",
    "gravatar_id": "",
    "url": "https://api.github.com/users/ryanseys",
    "html_url": "https://github.com/ryanseys",
    "followers_url": "https://api.github.com/users/ryanseys/followers",
    "following_url": "https://api.github.com/users/ryanseys/following{/other_user}",
    "gists_url": "https://api.github.com/users/ryanseys/gists{/gist_id}",
    "starred_url": "https://api.github.com/users/ryanseys/starred{/owner}{/repo}",
    "subscriptions_url": "https://api.github.com/users/ryanseys/subscriptions",
    "organizations_url": "https://api.github.com/users/ryanseys/orgs",
    "repos_url": "https://api.github.com/users/ryanseys/repos",
    "events_url": "https://api.github.com/users/ryanseys/events{/privacy}",
    "received_events_url": "https://api.github.com/users/ryanseys/received_events",
    "type": "User",
    "site_admin": false
  },
  "created_at": "2014-07-03T20:51:47Z",
  "updated_at": "2014-07-03T20:51:47Z",
  "body": "@kim0z Mind closing this?"
}
, {
  "url": "https://api.github.com/repos/google/google-api-nodejs-client/issues/comments/47983508",
  "html_url": "https://github.com/google/google-api-nodejs-client/issues/194#issuecomment-47983508",
  "issue_url": "https://api.github.com/repos/google/google-api-nodejs-client/issues/194",
  "id": 47983508,
  "user": {
    "login": "kim0z",
    "id": 3579282,
    "avatar_url": "https://avatars.githubusercontent.com/u/3579282?v=3",
    "gravatar_id": "",
    "url": "https://api.github.com/users/kim0z",
    "html_url": "https://github.com/kim0z",
    "followers_url": "https://api.github.com/users/kim0z/followers",
    "following_url": "https://api.github.com/users/kim0z/following{/other_user}",
    "gists_url": "https://api.github.com/users/kim0z/gists{/gist_id}",
    "starred_url": "https://api.github.com/users/kim0z/starred{/owner}{/repo}",
    "subscriptions_url": "https://api.github.com/users/kim0z/subscriptions",
    "organizations_url": "https://api.github.com/users/kim0z/orgs",
    "repos_url": "https://api.github.com/users/kim0z/repos",
    "events_url": "https://api.github.com/users/kim0z/events{/privacy}",
    "received_events_url": "https://api.github.com/users/kim0z/received_events",
    "type": "User",
    "site_admin": false
  },
  "created_at": "2014-07-03T20:52:42Z",
  "updated_at": "2014-07-03T20:52:42Z",
  "body": "sure"
}
]
