[
{
  "url": "https://api.github.com/repos/google/google-api-nodejs-client/issues/comments/50671475",
  "html_url": "https://github.com/google/google-api-nodejs-client/issues/238#issuecomment-50671475",
  "issue_url": "https://api.github.com/repos/google/google-api-nodejs-client/issues/238",
  "id": 50671475,
  "user": {
    "login": "ryanseys",
    "id": 163873,
    "avatar_url": "https://avatars.githubusercontent.com/u/163873?v=3",
    "gravatar_id": "",
    "url": "https://api.github.com/users/ryanseys",
    "html_url": "https://github.com/ryanseys",
    "followers_url": "https://api.github.com/users/ryanseys/followers",
    "following_url": "https://api.github.com/users/ryanseys/following{/other_user}",
    "gists_url": "https://api.github.com/users/ryanseys/gists{/gist_id}",
    "starred_url": "https://api.github.com/users/ryanseys/starred{/owner}{/repo}",
    "subscriptions_url": "https://api.github.com/users/ryanseys/subscriptions",
    "organizations_url": "https://api.github.com/users/ryanseys/orgs",
    "repos_url": "https://api.github.com/users/ryanseys/repos",
    "events_url": "https://api.github.com/users/ryanseys/events{/privacy}",
    "received_events_url": "https://api.github.com/users/ryanseys/received_events",
    "type": "User",
    "site_admin": false
  },
  "created_at": "2014-07-30T20:02:51Z",
  "updated_at": "2014-07-30T20:02:51Z",
  "body": "Should the third param be `resp` like this: err, {object}body, resp "
}
, {
  "url": "https://api.github.com/repos/google/google-api-nodejs-client/issues/comments/50680357",
  "html_url": "https://github.com/google/google-api-nodejs-client/issues/238#issuecomment-50680357",
  "issue_url": "https://api.github.com/repos/google/google-api-nodejs-client/issues/238",
  "id": 50680357,
  "user": {
    "login": "rakyll",
    "id": 108380,
    "avatar_url": "https://avatars.githubusercontent.com/u/108380?v=3",
    "gravatar_id": "",
    "url": "https://api.github.com/users/rakyll",
    "html_url": "https://github.com/rakyll",
    "followers_url": "https://api.github.com/users/rakyll/followers",
    "following_url": "https://api.github.com/users/rakyll/following{/other_user}",
    "gists_url": "https://api.github.com/users/rakyll/gists{/gist_id}",
    "starred_url": "https://api.github.com/users/rakyll/starred{/owner}{/repo}",
    "subscriptions_url": "https://api.github.com/users/rakyll/subscriptions",
    "organizations_url": "https://api.github.com/users/rakyll/orgs",
    "repos_url": "https://api.github.com/users/rakyll/repos",
    "events_url": "https://api.github.com/users/rakyll/events{/privacy}",
    "received_events_url": "https://api.github.com/users/rakyll/received_events",
    "type": "User",
    "site_admin": false
  },
  "created_at": "2014-07-30T21:09:34Z",
  "updated_at": "2014-07-30T21:09:34Z",
  "body": "+1 for having resp."
}
, {
  "url": "https://api.github.com/repos/google/google-api-nodejs-client/issues/comments/50691328",
  "html_url": "https://github.com/google/google-api-nodejs-client/issues/238#issuecomment-50691328",
  "issue_url": "https://api.github.com/repos/google/google-api-nodejs-client/issues/238",
  "id": 50691328,
  "user": {
    "login": "ryanseys",
    "id": 163873,
    "avatar_url": "https://avatars.githubusercontent.com/u/163873?v=3",
    "gravatar_id": "",
    "url": "https://api.github.com/users/ryanseys",
    "html_url": "https://github.com/ryanseys",
    "followers_url": "https://api.github.com/users/ryanseys/followers",
    "following_url": "https://api.github.com/users/ryanseys/following{/other_user}",
    "gists_url": "https://api.github.com/users/ryanseys/gists{/gist_id}",
    "starred_url": "https://api.github.com/users/ryanseys/starred{/owner}{/repo}",
    "subscriptions_url": "https://api.github.com/users/ryanseys/subscriptions",
    "organizations_url": "https://api.github.com/users/ryanseys/orgs",
    "repos_url": "https://api.github.com/users/ryanseys/repos",
    "events_url": "https://api.github.com/users/ryanseys/events{/privacy}",
    "received_events_url": "https://api.github.com/users/ryanseys/received_events",
    "type": "User",
    "site_admin": false
  },
  "created_at": "2014-07-30T22:52:03Z",
  "updated_at": "2014-07-30T22:52:03Z",
  "body": "Wait, I just use the transporter.request which wraps the callback to parse the response. Are you sure this is a bug?"
}
]
