[
{
  "url": "https://api.github.com/repos/Microsoft/Windows-appsample-quizgame/issues/comments/169802815",
  "html_url": "https://github.com/Microsoft/Windows-appsample-quizgame/pull/3#issuecomment-169802815",
  "issue_url": "https://api.github.com/repos/Microsoft/Windows-appsample-quizgame/issues/3",
  "id": 169802815,
  "user": {
    "login": "KarlErickson",
    "id": 1775795,
    "avatar_url": "https://avatars.githubusercontent.com/u/1775795?v=3",
    "gravatar_id": "",
    "url": "https://api.github.com/users/KarlErickson",
    "html_url": "https://github.com/KarlErickson",
    "followers_url": "https://api.github.com/users/KarlErickson/followers",
    "following_url": "https://api.github.com/users/KarlErickson/following{/other_user}",
    "gists_url": "https://api.github.com/users/KarlErickson/gists{/gist_id}",
    "starred_url": "https://api.github.com/users/KarlErickson/starred{/owner}{/repo}",
    "subscriptions_url": "https://api.github.com/users/KarlErickson/subscriptions",
    "organizations_url": "https://api.github.com/users/KarlErickson/orgs",
    "repos_url": "https://api.github.com/users/KarlErickson/repos",
    "events_url": "https://api.github.com/users/KarlErickson/events{/privacy}",
    "received_events_url": "https://api.github.com/users/KarlErickson/received_events",
    "type": "User",
    "site_admin": false
  },
  "created_at": "2016-01-07T20:57:13Z",
  "updated_at": "2016-01-07T20:57:13Z",
  "body": "Thanks for catching this! The better fix would be to change TCPCommunicationChannel to TcpCommunicationChannel to conform to the standard class name conventions. Could you submit a new pull request with that change?"
}
]
