[
{
  "login": "hernamesbarbara",
  "id": 738191,
  "avatar_url": "https://avatars.githubusercontent.com/u/738191?v=3",
  "gravatar_id": "",
  "url": "https://api.github.com/users/hernamesbarbara",
  "html_url": "https://github.com/hernamesbarbara",
  "followers_url": "https://api.github.com/users/hernamesbarbara/followers",
  "following_url": "https://api.github.com/users/hernamesbarbara/following{/other_user}",
  "gists_url": "https://api.github.com/users/hernamesbarbara/gists{/gist_id}",
  "starred_url": "https://api.github.com/users/hernamesbarbara/starred{/owner}{/repo}",
  "subscriptions_url": "https://api.github.com/users/hernamesbarbara/subscriptions",
  "organizations_url": "https://api.github.com/users/hernamesbarbara/orgs",
  "repos_url": "https://api.github.com/users/hernamesbarbara/repos",
  "events_url": "https://api.github.com/users/hernamesbarbara/events{/privacy}",
  "received_events_url": "https://api.github.com/users/hernamesbarbara/received_events",
  "type": "User",
  "site_admin": false
}
, {
  "login": "glamp",
  "id": 1409333,
  "avatar_url": "https://avatars.githubusercontent.com/u/1409333?v=3",
  "gravatar_id": "",
  "url": "https://api.github.com/users/glamp",
  "html_url": "https://github.com/glamp",
  "followers_url": "https://api.github.com/users/glamp/followers",
  "following_url": "https://api.github.com/users/glamp/following{/other_user}",
  "gists_url": "https://api.github.com/users/glamp/gists{/gist_id}",
  "starred_url": "https://api.github.com/users/glamp/starred{/owner}{/repo}",
  "subscriptions_url": "https://api.github.com/users/glamp/subscriptions",
  "organizations_url": "https://api.github.com/users/glamp/orgs",
  "repos_url": "https://api.github.com/users/glamp/repos",
  "events_url": "https://api.github.com/users/glamp/events{/privacy}",
  "received_events_url": "https://api.github.com/users/glamp/received_events",
  "type": "User",
  "site_admin": false
}
, {
  "login": "ryanjoneil",
  "id": 6748953,
  "avatar_url": "https://avatars.githubusercontent.com/u/6748953?v=3",
  "gravatar_id": "",
  "url": "https://api.github.com/users/ryanjoneil",
  "html_url": "https://github.com/ryanjoneil",
  "followers_url": "https://api.github.com/users/ryanjoneil/followers",
  "following_url": "https://api.github.com/users/ryanjoneil/following{/other_user}",
  "gists_url": "https://api.github.com/users/ryanjoneil/gists{/gist_id}",
  "starred_url": "https://api.github.com/users/ryanjoneil/starred{/owner}{/repo}",
  "subscriptions_url": "https://api.github.com/users/ryanjoneil/subscriptions",
  "organizations_url": "https://api.github.com/users/ryanjoneil/orgs",
  "repos_url": "https://api.github.com/users/ryanjoneil/repos",
  "events_url": "https://api.github.com/users/ryanjoneil/events{/privacy}",
  "received_events_url": "https://api.github.com/users/ryanjoneil/received_events",
  "type": "User",
  "site_admin": false
}
, {
  "login": "coristig",
  "id": 7118371,
  "avatar_url": "https://avatars.githubusercontent.com/u/7118371?v=3",
  "gravatar_id": "",
  "url": "https://api.github.com/users/coristig",
  "html_url": "https://github.com/coristig",
  "followers_url": "https://api.github.com/users/coristig/followers",
  "following_url": "https://api.github.com/users/coristig/following{/other_user}",
  "gists_url": "https://api.github.com/users/coristig/gists{/gist_id}",
  "starred_url": "https://api.github.com/users/coristig/starred{/owner}{/repo}",
  "subscriptions_url": "https://api.github.com/users/coristig/subscriptions",
  "organizations_url": "https://api.github.com/users/coristig/orgs",
  "repos_url": "https://api.github.com/users/coristig/repos",
  "events_url": "https://api.github.com/users/coristig/events{/privacy}",
  "received_events_url": "https://api.github.com/users/coristig/received_events",
  "type": "User",
  "site_admin": false
}
, {
  "login": "leetrout",
  "id": 524648,
  "avatar_url": "https://avatars.githubusercontent.com/u/524648?v=3",
  "gravatar_id": "",
  "url": "https://api.github.com/users/leetrout",
  "html_url": "https://github.com/leetrout",
  "followers_url": "https://api.github.com/users/leetrout/followers",
  "following_url": "https://api.github.com/users/leetrout/following{/other_user}",
  "gists_url": "https://api.github.com/users/leetrout/gists{/gist_id}",
  "starred_url": "https://api.github.com/users/leetrout/starred{/owner}{/repo}",
  "subscriptions_url": "https://api.github.com/users/leetrout/subscriptions",
  "organizations_url": "https://api.github.com/users/leetrout/orgs",
  "repos_url": "https://api.github.com/users/leetrout/repos",
  "events_url": "https://api.github.com/users/leetrout/events{/privacy}",
  "received_events_url": "https://api.github.com/users/leetrout/received_events",
  "type": "User",
  "site_admin": false
}
]
