{
  "id": 34340462,
  "name": "community-ops",
  "full_name": "mozilla/community-ops",
  "owner": {
    "login": "mozilla",
    "id": 131524,
    "avatar_url": "https://avatars.githubusercontent.com/u/131524?v=3",
    "gravatar_id": "",
    "url": "https://api.github.com/users/mozilla",
    "html_url": "https://github.com/mozilla",
    "followers_url": "https://api.github.com/users/mozilla/followers",
    "following_url": "https://api.github.com/users/mozilla/following{/other_user}",
    "gists_url": "https://api.github.com/users/mozilla/gists{/gist_id}",
    "starred_url": "https://api.github.com/users/mozilla/starred{/owner}{/repo}",
    "subscriptions_url": "https://api.github.com/users/mozilla/subscriptions",
    "organizations_url": "https://api.github.com/users/mozilla/orgs",
    "repos_url": "https://api.github.com/users/mozilla/repos",
    "events_url": "https://api.github.com/users/mozilla/events{/privacy}",
    "received_events_url": "https://api.github.com/users/mozilla/received_events",
    "type": "Organization",
    "site_admin": false
  },
  "private": false,
  "html_url": "https://github.com/mozilla/community-ops",
  "description": "",
  "fork": false,
  "url": "https://api.github.com/repos/mozilla/community-ops",
  "forks_url": "https://api.github.com/repos/mozilla/community-ops/forks",
  "keys_url": "https://api.github.com/repos/mozilla/community-ops/keys{/key_id}",
  "collaborators_url": "https://api.github.com/repos/mozilla/community-ops/collaborators{/collaborator}",
  "teams_url": "https://api.github.com/repos/mozilla/community-ops/teams",
  "hooks_url": "https://api.github.com/repos/mozilla/community-ops/hooks",
  "issue_events_url": "https://api.github.com/repos/mozilla/community-ops/issues/events{/number}",
  "events_url": "https://api.github.com/repos/mozilla/community-ops/events",
  "assignees_url": "https://api.github.com/repos/mozilla/community-ops/assignees{/user}",
  "branches_url": "https://api.github.com/repos/mozilla/community-ops/branches{/branch}",
  "tags_url": "https://api.github.com/repos/mozilla/community-ops/tags",
  "blobs_url": "https://api.github.com/repos/mozilla/community-ops/git/blobs{/sha}",
  "git_tags_url": "https://api.github.com/repos/mozilla/community-ops/git/tags{/sha}",
  "git_refs_url": "https://api.github.com/repos/mozilla/community-ops/git/refs{/sha}",
  "trees_url": "https://api.github.com/repos/mozilla/community-ops/git/trees{/sha}",
  "statuses_url": "https://api.github.com/repos/mozilla/community-ops/statuses/{sha}",
  "languages_url": "https://api.github.com/repos/mozilla/community-ops/languages",
  "stargazers_url": "https://api.github.com/repos/mozilla/community-ops/stargazers",
  "contributors_url": "https://api.github.com/repos/mozilla/community-ops/contributors",
  "subscribers_url": "https://api.github.com/repos/mozilla/community-ops/subscribers",
  "subscription_url": "https://api.github.com/repos/mozilla/community-ops/subscription",
  "commits_url": "https://api.github.com/repos/mozilla/community-ops/commits{/sha}",
  "git_commits_url": "https://api.github.com/repos/mozilla/community-ops/git/commits{/sha}",
  "comments_url": "https://api.github.com/repos/mozilla/community-ops/comments{/number}",
  "issue_comment_url": "https://api.github.com/repos/mozilla/community-ops/issues/comments{/number}",
  "contents_url": "https://api.github.com/repos/mozilla/community-ops/contents/{+path}",
  "compare_url": "https://api.github.com/repos/mozilla/community-ops/compare/{base}...{head}",
  "merges_url": "https://api.github.com/repos/mozilla/community-ops/merges",
  "archive_url": "https://api.github.com/repos/mozilla/community-ops/{archive_format}{/ref}",
  "downloads_url": "https://api.github.com/repos/mozilla/community-ops/downloads",
  "issues_url": "https://api.github.com/repos/mozilla/community-ops/issues{/number}",
  "pulls_url": "https://api.github.com/repos/mozilla/community-ops/pulls{/number}",
  "milestones_url": "https://api.github.com/repos/mozilla/community-ops/milestones{/number}",
  "notifications_url": "https://api.github.com/repos/mozilla/community-ops/notifications{?since,all,participating}",
  "labels_url": "https://api.github.com/repos/mozilla/community-ops/labels{/name}",
  "releases_url": "https://api.github.com/repos/mozilla/community-ops/releases{/id}",
  "deployments_url": "https://api.github.com/repos/mozilla/community-ops/deployments",
  "created_at": "2015-04-21T17:03:13Z",
  "updated_at": "2015-04-21T17:03:13Z",
  "pushed_at": "2015-04-21T17:03:13Z",
  "git_url": "git://github.com/mozilla/community-ops.git",
  "ssh_url": "git@github.com:mozilla/community-ops.git",
  "clone_url": "https://github.com/mozilla/community-ops.git",
  "svn_url": "https://github.com/mozilla/community-ops",
  "homepage": null,
  "size": 0,
  "stargazers_count": 0,
  "watchers_count": 0,
  "language": null,
  "has_issues": true,
  "has_downloads": true,
  "has_wiki": true,
  "has_pages": false,
  "forks_count": 0,
  "mirror_url": null,
  "open_issues_count": 1,
  "forks": 0,
  "open_issues": 1,
  "watchers": 0,
  "default_branch": "master",
  "master_branch": "master",
  "permissions": {
    "admin": false,
    "push": false,
    "pull": true
  },
  "license": null,
  "organization": {
    "login": "mozilla",
    "id": 131524,
    "avatar_url": "https://avatars.githubusercontent.com/u/131524?v=3",
    "gravatar_id": "",
    "url": "https://api.github.com/users/mozilla",
    "html_url": "https://github.com/mozilla",
    "followers_url": "https://api.github.com/users/mozilla/followers",
    "following_url": "https://api.github.com/users/mozilla/following{/other_user}",
    "gists_url": "https://api.github.com/users/mozilla/gists{/gist_id}",
    "starred_url": "https://api.github.com/users/mozilla/starred{/owner}{/repo}",
    "subscriptions_url": "https://api.github.com/users/mozilla/subscriptions",
    "organizations_url": "https://api.github.com/users/mozilla/orgs",
    "repos_url": "https://api.github.com/users/mozilla/repos",
    "events_url": "https://api.github.com/users/mozilla/events{/privacy}",
    "received_events_url": "https://api.github.com/users/mozilla/received_events",
    "type": "Organization",
    "site_admin": false
  },
  "network_count": 0,
  "subscribers_count": 18
}
