[
{
  "url": "https://api.github.com/repos/chef/supermarket/issues/comments/46557856",
  "html_url": "https://github.com/chef/supermarket/pull/481#issuecomment-46557856",
  "issue_url": "https://api.github.com/repos/chef/supermarket/issues/481",
  "id": 46557856,
  "user": {
    "login": "bcobb",
    "id": 35545,
    "avatar_url": "https://avatars.githubusercontent.com/u/35545?v=3",
    "gravatar_id": "",
    "url": "https://api.github.com/users/bcobb",
    "html_url": "https://github.com/bcobb",
    "followers_url": "https://api.github.com/users/bcobb/followers",
    "following_url": "https://api.github.com/users/bcobb/following{/other_user}",
    "gists_url": "https://api.github.com/users/bcobb/gists{/gist_id}",
    "starred_url": "https://api.github.com/users/bcobb/starred{/owner}{/repo}",
    "subscriptions_url": "https://api.github.com/users/bcobb/subscriptions",
    "organizations_url": "https://api.github.com/users/bcobb/orgs",
    "repos_url": "https://api.github.com/users/bcobb/repos",
    "events_url": "https://api.github.com/users/bcobb/events{/privacy}",
    "received_events_url": "https://api.github.com/users/bcobb/received_events",
    "type": "User",
    "site_admin": false
  },
  "created_at": "2014-06-19T13:11:43Z",
  "updated_at": "2014-06-19T13:11:43Z",
  "body": ":+1:"
}
]
