[
{
  "url": "https://api.github.com/repos/ValveSoftware/steam-for-linux/issues/comments/14799167",
  "html_url": "https://github.com/ValveSoftware/steam-for-linux/issues/2139#issuecomment-14799167",
  "issue_url": "https://api.github.com/repos/ValveSoftware/steam-for-linux/issues/2139",
  "id": 14799167,
  "user": {
    "login": "johndrinkwater",
    "id": 7708,
    "avatar_url": "https://avatars.githubusercontent.com/u/7708?v=3",
    "gravatar_id": "",
    "url": "https://api.github.com/users/johndrinkwater",
    "html_url": "https://github.com/johndrinkwater",
    "followers_url": "https://api.github.com/users/johndrinkwater/followers",
    "following_url": "https://api.github.com/users/johndrinkwater/following{/other_user}",
    "gists_url": "https://api.github.com/users/johndrinkwater/gists{/gist_id}",
    "starred_url": "https://api.github.com/users/johndrinkwater/starred{/owner}{/repo}",
    "subscriptions_url": "https://api.github.com/users/johndrinkwater/subscriptions",
    "organizations_url": "https://api.github.com/users/johndrinkwater/orgs",
    "repos_url": "https://api.github.com/users/johndrinkwater/repos",
    "events_url": "https://api.github.com/users/johndrinkwater/events{/privacy}",
    "received_events_url": "https://api.github.com/users/johndrinkwater/received_events",
    "type": "User",
    "site_admin": false
  },
  "created_at": "2013-03-12T19:58:28Z",
  "updated_at": "2013-03-12T19:58:28Z",
  "body": "A duplicate of #1329, `steam -silent` mode already exists, and #1519 exists for a focus bug in it"
}
]
