[
{
  "url": "https://api.github.com/repos/ValveSoftware/steam-for-linux/issues/comments/12681930",
  "html_url": "https://github.com/ValveSoftware/steam-for-linux/issues/824#issuecomment-12681930",
  "issue_url": "https://api.github.com/repos/ValveSoftware/steam-for-linux/issues/824",
  "id": 12681930,
  "user": {
    "login": "DarkDefender",
    "id": 312503,
    "avatar_url": "https://avatars.githubusercontent.com/u/312503?v=3",
    "gravatar_id": "",
    "url": "https://api.github.com/users/DarkDefender",
    "html_url": "https://github.com/DarkDefender",
    "followers_url": "https://api.github.com/users/DarkDefender/followers",
    "following_url": "https://api.github.com/users/DarkDefender/following{/other_user}",
    "gists_url": "https://api.github.com/users/DarkDefender/gists{/gist_id}",
    "starred_url": "https://api.github.com/users/DarkDefender/starred{/owner}{/repo}",
    "subscriptions_url": "https://api.github.com/users/DarkDefender/subscriptions",
    "organizations_url": "https://api.github.com/users/DarkDefender/orgs",
    "repos_url": "https://api.github.com/users/DarkDefender/repos",
    "events_url": "https://api.github.com/users/DarkDefender/events{/privacy}",
    "received_events_url": "https://api.github.com/users/DarkDefender/received_events",
    "type": "User",
    "site_admin": false
  },
  "created_at": "2013-01-25T00:29:45Z",
  "updated_at": "2013-01-25T00:29:45Z",
  "body": "Same problem here. It's the same for me with or without SDL_AUDIODRIVER=\"alsa\".\r\nHowever I also get this printed out in the terminal:\r\n\r\n    SDL_InitSubSystem(SDL_INIT_AUDIO) failed.\r\n    S_Startup: SNDDMA_Init failed.\r\n\r\n\r\nThe question is why it still plays the music and not any sound effect what so ever..."
}
, {
  "url": "https://api.github.com/repos/ValveSoftware/steam-for-linux/issues/comments/12681945",
  "html_url": "https://github.com/ValveSoftware/steam-for-linux/issues/824#issuecomment-12681945",
  "issue_url": "https://api.github.com/repos/ValveSoftware/steam-for-linux/issues/824",
  "id": 12681945,
  "user": {
    "login": "alfred-valve",
    "id": 3093825,
    "avatar_url": "https://avatars.githubusercontent.com/u/3093825?v=3",
    "gravatar_id": "",
    "url": "https://api.github.com/users/alfred-valve",
    "html_url": "https://github.com/alfred-valve",
    "followers_url": "https://api.github.com/users/alfred-valve/followers",
    "following_url": "https://api.github.com/users/alfred-valve/following{/other_user}",
    "gists_url": "https://api.github.com/users/alfred-valve/gists{/gist_id}",
    "starred_url": "https://api.github.com/users/alfred-valve/starred{/owner}{/repo}",
    "subscriptions_url": "https://api.github.com/users/alfred-valve/subscriptions",
    "organizations_url": "https://api.github.com/users/alfred-valve/orgs",
    "repos_url": "https://api.github.com/users/alfred-valve/repos",
    "events_url": "https://api.github.com/users/alfred-valve/events{/privacy}",
    "received_events_url": "https://api.github.com/users/alfred-valve/received_events",
    "type": "User",
    "site_admin": false
  },
  "created_at": "2013-01-25T00:30:12Z",
  "updated_at": "2013-01-25T00:30:12Z",
  "body": "What happens if you don't set SDL_AUDIODRIVER? "
}
, {
  "url": "https://api.github.com/repos/ValveSoftware/steam-for-linux/issues/comments/12682005",
  "html_url": "https://github.com/ValveSoftware/steam-for-linux/issues/824#issuecomment-12682005",
  "issue_url": "https://api.github.com/repos/ValveSoftware/steam-for-linux/issues/824",
  "id": 12682005,
  "user": {
    "login": "dscharrer",
    "id": 571723,
    "avatar_url": "https://avatars.githubusercontent.com/u/571723?v=3",
    "gravatar_id": "",
    "url": "https://api.github.com/users/dscharrer",
    "html_url": "https://github.com/dscharrer",
    "followers_url": "https://api.github.com/users/dscharrer/followers",
    "following_url": "https://api.github.com/users/dscharrer/following{/other_user}",
    "gists_url": "https://api.github.com/users/dscharrer/gists{/gist_id}",
    "starred_url": "https://api.github.com/users/dscharrer/starred{/owner}{/repo}",
    "subscriptions_url": "https://api.github.com/users/dscharrer/subscriptions",
    "organizations_url": "https://api.github.com/users/dscharrer/orgs",
    "repos_url": "https://api.github.com/users/dscharrer/repos",
    "events_url": "https://api.github.com/users/dscharrer/events{/privacy}",
    "received_events_url": "https://api.github.com/users/dscharrer/received_events",
    "type": "User",
    "site_admin": false
  },
  "created_at": "2013-01-25T00:31:59Z",
  "updated_at": "2013-01-25T00:31:59Z",
  "body": "I too get the same result, with either `SDL_AUDIODRIVER` unset or set to `alsa`.\r\n\r\n[system info](https://gist.github.com/7caa87cdd52457c94db9)"
}
, {
  "url": "https://api.github.com/repos/ValveSoftware/steam-for-linux/issues/comments/12682289",
  "html_url": "https://github.com/ValveSoftware/steam-for-linux/issues/824#issuecomment-12682289",
  "issue_url": "https://api.github.com/repos/ValveSoftware/steam-for-linux/issues/824",
  "id": 12682289,
  "user": {
    "login": "dorkster",
    "id": 913982,
    "avatar_url": "https://avatars.githubusercontent.com/u/913982?v=3",
    "gravatar_id": "",
    "url": "https://api.github.com/users/dorkster",
    "html_url": "https://github.com/dorkster",
    "followers_url": "https://api.github.com/users/dorkster/followers",
    "following_url": "https://api.github.com/users/dorkster/following{/other_user}",
    "gists_url": "https://api.github.com/users/dorkster/gists{/gist_id}",
    "starred_url": "https://api.github.com/users/dorkster/starred{/owner}{/repo}",
    "subscriptions_url": "https://api.github.com/users/dorkster/subscriptions",
    "organizations_url": "https://api.github.com/users/dorkster/orgs",
    "repos_url": "https://api.github.com/users/dorkster/repos",
    "events_url": "https://api.github.com/users/dorkster/events{/privacy}",
    "received_events_url": "https://api.github.com/users/dorkster/received_events",
    "type": "User",
    "site_admin": false
  },
  "created_at": "2013-01-25T00:42:25Z",
  "updated_at": "2013-01-25T00:42:25Z",
  "body": "I tried not setting `SDL_AUDIODRIVER` and got the same result."
}
, {
  "url": "https://api.github.com/repos/ValveSoftware/steam-for-linux/issues/comments/12682957",
  "html_url": "https://github.com/ValveSoftware/steam-for-linux/issues/824#issuecomment-12682957",
  "issue_url": "https://api.github.com/repos/ValveSoftware/steam-for-linux/issues/824",
  "id": 12682957,
  "user": {
    "login": "spacelike",
    "id": 3375079,
    "avatar_url": "https://avatars.githubusercontent.com/u/3375079?v=3",
    "gravatar_id": "",
    "url": "https://api.github.com/users/spacelike",
    "html_url": "https://github.com/spacelike",
    "followers_url": "https://api.github.com/users/spacelike/followers",
    "following_url": "https://api.github.com/users/spacelike/following{/other_user}",
    "gists_url": "https://api.github.com/users/spacelike/gists{/gist_id}",
    "starred_url": "https://api.github.com/users/spacelike/starred{/owner}{/repo}",
    "subscriptions_url": "https://api.github.com/users/spacelike/subscriptions",
    "organizations_url": "https://api.github.com/users/spacelike/orgs",
    "repos_url": "https://api.github.com/users/spacelike/repos",
    "events_url": "https://api.github.com/users/spacelike/events{/privacy}",
    "received_events_url": "https://api.github.com/users/spacelike/received_events",
    "type": "User",
    "site_admin": false
  },
  "created_at": "2013-01-25T01:04:55Z",
  "updated_at": "2013-01-25T01:04:55Z",
  "body": "alfred-valve\r\nI tried it with it set and with it not set (restarted steam without setting the variable) and the result is the same.\r\n\r\nAlso, I installed pulseaudio and now I get full sound working."
}
, {
  "url": "https://api.github.com/repos/ValveSoftware/steam-for-linux/issues/comments/12683474",
  "html_url": "https://github.com/ValveSoftware/steam-for-linux/issues/824#issuecomment-12683474",
  "issue_url": "https://api.github.com/repos/ValveSoftware/steam-for-linux/issues/824",
  "id": 12683474,
  "user": {
    "login": "alfred-valve",
    "id": 3093825,
    "avatar_url": "https://avatars.githubusercontent.com/u/3093825?v=3",
    "gravatar_id": "",
    "url": "https://api.github.com/users/alfred-valve",
    "html_url": "https://github.com/alfred-valve",
    "followers_url": "https://api.github.com/users/alfred-valve/followers",
    "following_url": "https://api.github.com/users/alfred-valve/following{/other_user}",
    "gists_url": "https://api.github.com/users/alfred-valve/gists{/gist_id}",
    "starred_url": "https://api.github.com/users/alfred-valve/starred{/owner}{/repo}",
    "subscriptions_url": "https://api.github.com/users/alfred-valve/subscriptions",
    "organizations_url": "https://api.github.com/users/alfred-valve/orgs",
    "repos_url": "https://api.github.com/users/alfred-valve/repos",
    "events_url": "https://api.github.com/users/alfred-valve/events{/privacy}",
    "received_events_url": "https://api.github.com/users/alfred-valve/received_events",
    "type": "User",
    "site_admin": false
  },
  "created_at": "2013-01-25T01:22:41Z",
  "updated_at": "2013-01-25T01:22:41Z",
  "body": "We have found the issue, the SDL build we picked up for HL1 is missing ALSA support, we are fixing that now."
}
, {
  "url": "https://api.github.com/repos/ValveSoftware/steam-for-linux/issues/comments/12684748",
  "html_url": "https://github.com/ValveSoftware/steam-for-linux/issues/824#issuecomment-12684748",
  "issue_url": "https://api.github.com/repos/ValveSoftware/steam-for-linux/issues/824",
  "id": 12684748,
  "user": {
    "login": "alfred-valve",
    "id": 3093825,
    "avatar_url": "https://avatars.githubusercontent.com/u/3093825?v=3",
    "gravatar_id": "",
    "url": "https://api.github.com/users/alfred-valve",
    "html_url": "https://github.com/alfred-valve",
    "followers_url": "https://api.github.com/users/alfred-valve/followers",
    "following_url": "https://api.github.com/users/alfred-valve/following{/other_user}",
    "gists_url": "https://api.github.com/users/alfred-valve/gists{/gist_id}",
    "starred_url": "https://api.github.com/users/alfred-valve/starred{/owner}{/repo}",
    "subscriptions_url": "https://api.github.com/users/alfred-valve/subscriptions",
    "organizations_url": "https://api.github.com/users/alfred-valve/orgs",
    "repos_url": "https://api.github.com/users/alfred-valve/repos",
    "events_url": "https://api.github.com/users/alfred-valve/events{/privacy}",
    "received_events_url": "https://api.github.com/users/alfred-valve/received_events",
    "type": "User",
    "site_admin": false
  },
  "created_at": "2013-01-25T02:10:49Z",
  "updated_at": "2013-01-25T02:10:49Z",
  "body": "tonights update has a libsdl with ALSA support"
}
, {
  "url": "https://api.github.com/repos/ValveSoftware/steam-for-linux/issues/comments/12685946",
  "html_url": "https://github.com/ValveSoftware/steam-for-linux/issues/824#issuecomment-12685946",
  "issue_url": "https://api.github.com/repos/ValveSoftware/steam-for-linux/issues/824",
  "id": 12685946,
  "user": {
    "login": "dscharrer",
    "id": 571723,
    "avatar_url": "https://avatars.githubusercontent.com/u/571723?v=3",
    "gravatar_id": "",
    "url": "https://api.github.com/users/dscharrer",
    "html_url": "https://github.com/dscharrer",
    "followers_url": "https://api.github.com/users/dscharrer/followers",
    "following_url": "https://api.github.com/users/dscharrer/following{/other_user}",
    "gists_url": "https://api.github.com/users/dscharrer/gists{/gist_id}",
    "starred_url": "https://api.github.com/users/dscharrer/starred{/owner}{/repo}",
    "subscriptions_url": "https://api.github.com/users/dscharrer/subscriptions",
    "organizations_url": "https://api.github.com/users/dscharrer/orgs",
    "repos_url": "https://api.github.com/users/dscharrer/repos",
    "events_url": "https://api.github.com/users/dscharrer/events{/privacy}",
    "received_events_url": "https://api.github.com/users/dscharrer/received_events",
    "type": "User",
    "site_admin": false
  },
  "created_at": "2013-01-25T03:01:08Z",
  "updated_at": "2013-01-25T03:01:08Z",
  "body": "alfred-valve: Just to be clear: is that fix supposed to be in the update that already went out after you closed this issue or is there another one planned? As it is, sound effect in Half-Life are still not working for me. Same for Counter-Strike."
}
, {
  "url": "https://api.github.com/repos/ValveSoftware/steam-for-linux/issues/comments/12693526",
  "html_url": "https://github.com/ValveSoftware/steam-for-linux/issues/824#issuecomment-12693526",
  "issue_url": "https://api.github.com/repos/ValveSoftware/steam-for-linux/issues/824",
  "id": 12693526,
  "user": {
    "login": "DarkDefender",
    "id": 312503,
    "avatar_url": "https://avatars.githubusercontent.com/u/312503?v=3",
    "gravatar_id": "",
    "url": "https://api.github.com/users/DarkDefender",
    "html_url": "https://github.com/DarkDefender",
    "followers_url": "https://api.github.com/users/DarkDefender/followers",
    "following_url": "https://api.github.com/users/DarkDefender/following{/other_user}",
    "gists_url": "https://api.github.com/users/DarkDefender/gists{/gist_id}",
    "starred_url": "https://api.github.com/users/DarkDefender/starred{/owner}{/repo}",
    "subscriptions_url": "https://api.github.com/users/DarkDefender/subscriptions",
    "organizations_url": "https://api.github.com/users/DarkDefender/orgs",
    "repos_url": "https://api.github.com/users/DarkDefender/repos",
    "events_url": "https://api.github.com/users/DarkDefender/events{/privacy}",
    "received_events_url": "https://api.github.com/users/DarkDefender/received_events",
    "type": "User",
    "site_admin": false
  },
  "created_at": "2013-01-25T09:24:49Z",
  "updated_at": "2013-01-25T09:49:42Z",
  "body": "Same here. Sound is still not working.\r\nEdit: Same problem with Counter-Strike"
}
, {
  "url": "https://api.github.com/repos/ValveSoftware/steam-for-linux/issues/comments/12695367",
  "html_url": "https://github.com/ValveSoftware/steam-for-linux/issues/824#issuecomment-12695367",
  "issue_url": "https://api.github.com/repos/ValveSoftware/steam-for-linux/issues/824",
  "id": 12695367,
  "user": {
    "login": "WindohsCrasher",
    "id": 1782508,
    "avatar_url": "https://avatars.githubusercontent.com/u/1782508?v=3",
    "gravatar_id": "",
    "url": "https://api.github.com/users/WindohsCrasher",
    "html_url": "https://github.com/WindohsCrasher",
    "followers_url": "https://api.github.com/users/WindohsCrasher/followers",
    "following_url": "https://api.github.com/users/WindohsCrasher/following{/other_user}",
    "gists_url": "https://api.github.com/users/WindohsCrasher/gists{/gist_id}",
    "starred_url": "https://api.github.com/users/WindohsCrasher/starred{/owner}{/repo}",
    "subscriptions_url": "https://api.github.com/users/WindohsCrasher/subscriptions",
    "organizations_url": "https://api.github.com/users/WindohsCrasher/orgs",
    "repos_url": "https://api.github.com/users/WindohsCrasher/repos",
    "events_url": "https://api.github.com/users/WindohsCrasher/events{/privacy}",
    "received_events_url": "https://api.github.com/users/WindohsCrasher/received_events",
    "type": "User",
    "site_admin": false
  },
  "created_at": "2013-01-25T10:26:08Z",
  "updated_at": "2013-01-25T10:26:08Z",
  "body": "Not working for me, too.\r\nThis should be re-opened."
}
, {
  "url": "https://api.github.com/repos/ValveSoftware/steam-for-linux/issues/comments/12696076",
  "html_url": "https://github.com/ValveSoftware/steam-for-linux/issues/824#issuecomment-12696076",
  "issue_url": "https://api.github.com/repos/ValveSoftware/steam-for-linux/issues/824",
  "id": 12696076,
  "user": {
    "login": "DarkDefender",
    "id": 312503,
    "avatar_url": "https://avatars.githubusercontent.com/u/312503?v=3",
    "gravatar_id": "",
    "url": "https://api.github.com/users/DarkDefender",
    "html_url": "https://github.com/DarkDefender",
    "followers_url": "https://api.github.com/users/DarkDefender/followers",
    "following_url": "https://api.github.com/users/DarkDefender/following{/other_user}",
    "gists_url": "https://api.github.com/users/DarkDefender/gists{/gist_id}",
    "starred_url": "https://api.github.com/users/DarkDefender/starred{/owner}{/repo}",
    "subscriptions_url": "https://api.github.com/users/DarkDefender/subscriptions",
    "organizations_url": "https://api.github.com/users/DarkDefender/orgs",
    "repos_url": "https://api.github.com/users/DarkDefender/repos",
    "events_url": "https://api.github.com/users/DarkDefender/events{/privacy}",
    "received_events_url": "https://api.github.com/users/DarkDefender/received_events",
    "type": "User",
    "site_admin": false
  },
  "created_at": "2013-01-25T10:48:49Z",
  "updated_at": "2013-01-25T10:48:49Z",
  "body": "If anyone like me don't want to wait you can build sdl2 for yourself to fix the sound!\r\nJust checkout the latest sdl version:\r\n\r\n    hg clone http://hg.libsdl.org/SDL\r\n\r\nRun autoconf and create a build dir\r\n\r\n    ./autogen.sh\r\n    mkdir build\r\n    cd build\r\n    ../configure\r\n\r\nIf you like me is running a 64bit system you need to add -m32 to CFLAGS and LDFLAGS in the Makefile in the build dir.\r\nAfter that \"make\" the project and when it's done and overwrite the current libsdl2 file with your own one:\r\n\r\n    cd build/.libs\r\n    cp libSDL2-2.0.so.0.0.0 ~/.local/share/Steam/SteamApps/common/Counter-Strike/libsdl2-2.0.so.0\r\n\r\nNow sound works flawlessly for me so far :)"
}
, {
  "url": "https://api.github.com/repos/ValveSoftware/steam-for-linux/issues/comments/12696533",
  "html_url": "https://github.com/ValveSoftware/steam-for-linux/issues/824#issuecomment-12696533",
  "issue_url": "https://api.github.com/repos/ValveSoftware/steam-for-linux/issues/824",
  "id": 12696533,
  "user": {
    "login": "WindohsCrasher",
    "id": 1782508,
    "avatar_url": "https://avatars.githubusercontent.com/u/1782508?v=3",
    "gravatar_id": "",
    "url": "https://api.github.com/users/WindohsCrasher",
    "html_url": "https://github.com/WindohsCrasher",
    "followers_url": "https://api.github.com/users/WindohsCrasher/followers",
    "following_url": "https://api.github.com/users/WindohsCrasher/following{/other_user}",
    "gists_url": "https://api.github.com/users/WindohsCrasher/gists{/gist_id}",
    "starred_url": "https://api.github.com/users/WindohsCrasher/starred{/owner}{/repo}",
    "subscriptions_url": "https://api.github.com/users/WindohsCrasher/subscriptions",
    "organizations_url": "https://api.github.com/users/WindohsCrasher/orgs",
    "repos_url": "https://api.github.com/users/WindohsCrasher/repos",
    "events_url": "https://api.github.com/users/WindohsCrasher/events{/privacy}",
    "received_events_url": "https://api.github.com/users/WindohsCrasher/received_events",
    "type": "User",
    "site_admin": false
  },
  "created_at": "2013-01-25T11:04:24Z",
  "updated_at": "2013-01-25T11:04:24Z",
  "body": "Thanks, but already tried that and also copying the SDL2-lib from TF2 doesn't help.\r\nI tried it with Half-Life though - maybe that only works with CS (which I don't own)."
}
, {
  "url": "https://api.github.com/repos/ValveSoftware/steam-for-linux/issues/comments/12696583",
  "html_url": "https://github.com/ValveSoftware/steam-for-linux/issues/824#issuecomment-12696583",
  "issue_url": "https://api.github.com/repos/ValveSoftware/steam-for-linux/issues/824",
  "id": 12696583,
  "user": {
    "login": "DarkDefender",
    "id": 312503,
    "avatar_url": "https://avatars.githubusercontent.com/u/312503?v=3",
    "gravatar_id": "",
    "url": "https://api.github.com/users/DarkDefender",
    "html_url": "https://github.com/DarkDefender",
    "followers_url": "https://api.github.com/users/DarkDefender/followers",
    "following_url": "https://api.github.com/users/DarkDefender/following{/other_user}",
    "gists_url": "https://api.github.com/users/DarkDefender/gists{/gist_id}",
    "starred_url": "https://api.github.com/users/DarkDefender/starred{/owner}{/repo}",
    "subscriptions_url": "https://api.github.com/users/DarkDefender/subscriptions",
    "organizations_url": "https://api.github.com/users/DarkDefender/orgs",
    "repos_url": "https://api.github.com/users/DarkDefender/repos",
    "events_url": "https://api.github.com/users/DarkDefender/events{/privacy}",
    "received_events_url": "https://api.github.com/users/DarkDefender/received_events",
    "type": "User",
    "site_admin": false
  },
  "created_at": "2013-01-25T11:06:16Z",
  "updated_at": "2013-01-25T11:06:16Z",
  "body": "Have you tried to start if from terminal?\r\nIE go to the Half-Life dir in steamapps and run:\r\n\r\n    LD_LIBRARY_PATH=$LD_LIBRARY_PATH:. ./hl_linux -game valve -console\r\n\r\nIt's strange that this works but not starting it from within steam... :S"
}
, {
  "url": "https://api.github.com/repos/ValveSoftware/steam-for-linux/issues/comments/12696697",
  "html_url": "https://github.com/ValveSoftware/steam-for-linux/issues/824#issuecomment-12696697",
  "issue_url": "https://api.github.com/repos/ValveSoftware/steam-for-linux/issues/824",
  "id": 12696697,
  "user": {
    "login": "WindohsCrasher",
    "id": 1782508,
    "avatar_url": "https://avatars.githubusercontent.com/u/1782508?v=3",
    "gravatar_id": "",
    "url": "https://api.github.com/users/WindohsCrasher",
    "html_url": "https://github.com/WindohsCrasher",
    "followers_url": "https://api.github.com/users/WindohsCrasher/followers",
    "following_url": "https://api.github.com/users/WindohsCrasher/following{/other_user}",
    "gists_url": "https://api.github.com/users/WindohsCrasher/gists{/gist_id}",
    "starred_url": "https://api.github.com/users/WindohsCrasher/starred{/owner}{/repo}",
    "subscriptions_url": "https://api.github.com/users/WindohsCrasher/subscriptions",
    "organizations_url": "https://api.github.com/users/WindohsCrasher/orgs",
    "repos_url": "https://api.github.com/users/WindohsCrasher/repos",
    "events_url": "https://api.github.com/users/WindohsCrasher/events{/privacy}",
    "received_events_url": "https://api.github.com/users/WindohsCrasher/received_events",
    "type": "User",
    "site_admin": false
  },
  "created_at": "2013-01-25T11:09:55Z",
  "updated_at": "2013-01-25T11:09:55Z",
  "body": "That works :) but only if I add SDL_AUDIODRIVER=alsa to it - Thank you very much!"
}
, {
  "url": "https://api.github.com/repos/ValveSoftware/steam-for-linux/issues/comments/12696818",
  "html_url": "https://github.com/ValveSoftware/steam-for-linux/issues/824#issuecomment-12696818",
  "issue_url": "https://api.github.com/repos/ValveSoftware/steam-for-linux/issues/824",
  "id": 12696818,
  "user": {
    "login": "dscharrer",
    "id": 571723,
    "avatar_url": "https://avatars.githubusercontent.com/u/571723?v=3",
    "gravatar_id": "",
    "url": "https://api.github.com/users/dscharrer",
    "html_url": "https://github.com/dscharrer",
    "followers_url": "https://api.github.com/users/dscharrer/followers",
    "following_url": "https://api.github.com/users/dscharrer/following{/other_user}",
    "gists_url": "https://api.github.com/users/dscharrer/gists{/gist_id}",
    "starred_url": "https://api.github.com/users/dscharrer/starred{/owner}{/repo}",
    "subscriptions_url": "https://api.github.com/users/dscharrer/subscriptions",
    "organizations_url": "https://api.github.com/users/dscharrer/orgs",
    "repos_url": "https://api.github.com/users/dscharrer/repos",
    "events_url": "https://api.github.com/users/dscharrer/events{/privacy}",
    "received_events_url": "https://api.github.com/users/dscharrer/received_events",
    "type": "User",
    "site_admin": false
  },
  "created_at": "2013-01-25T11:14:34Z",
  "updated_at": "2013-01-25T11:21:35Z",
  "body": "I can confirm that\r\n\r\n    SDL_AUDIODRIVER=alsa LD_LIBRARY_PATH=\"$LD_LIBRARY_PATH:.\" ./hl_linux -game valve\r\n\r\nworks, even without substituting your own libsdl2. My guess is that when launched from Steam it picks up `~/.steam/root/ubuntu12_32/libsdl2-2.0.so.0`\r\n\r\nEdit: confirmed that it picks up the wrong libsdl:\r\n\r\n    $ cat /proc/`pidof hl_linux`/maps | grep sdl\r\n    f61c6000-f6292000 r-xp 00000000 08:32 12867449                           /home/dscharrer/Games/Steam/ubuntu12_32/libsdl2-2.0.so.0\r\n    f6292000-f6294000 r--p 000cc000 08:32 12867449                           /home/dscharrer/Games/Steam/ubuntu12_32/libsdl2-2.0.so.0\r\n    f6294000-f629b000 rw-p 000ce000 08:32 12867449                           /home/dscharrer/Games/Steam/ubuntu12_32/libsdl2-2.0.so.0"
}
, {
  "url": "https://api.github.com/repos/ValveSoftware/steam-for-linux/issues/comments/12697176",
  "html_url": "https://github.com/ValveSoftware/steam-for-linux/issues/824#issuecomment-12697176",
  "issue_url": "https://api.github.com/repos/ValveSoftware/steam-for-linux/issues/824",
  "id": 12697176,
  "user": {
    "login": "DarkDefender",
    "id": 312503,
    "avatar_url": "https://avatars.githubusercontent.com/u/312503?v=3",
    "gravatar_id": "",
    "url": "https://api.github.com/users/DarkDefender",
    "html_url": "https://github.com/DarkDefender",
    "followers_url": "https://api.github.com/users/DarkDefender/followers",
    "following_url": "https://api.github.com/users/DarkDefender/following{/other_user}",
    "gists_url": "https://api.github.com/users/DarkDefender/gists{/gist_id}",
    "starred_url": "https://api.github.com/users/DarkDefender/starred{/owner}{/repo}",
    "subscriptions_url": "https://api.github.com/users/DarkDefender/subscriptions",
    "organizations_url": "https://api.github.com/users/DarkDefender/orgs",
    "repos_url": "https://api.github.com/users/DarkDefender/repos",
    "events_url": "https://api.github.com/users/DarkDefender/events{/privacy}",
    "received_events_url": "https://api.github.com/users/DarkDefender/received_events",
    "type": "User",
    "site_admin": false
  },
  "created_at": "2013-01-25T11:27:41Z",
  "updated_at": "2013-01-25T11:28:23Z",
  "body": "I guess you're right that it must be using \"~/.steam/root/ubuntu12_32/libsdl2-2.0.so.0\" instead.\r\nBut I can't replace it as steam crashes if I do that while it's running (not too surprising) and if I replace it while steam is not running steam will \"update\"/replace with the old one as it's probably not matching with some checksums.\r\n\r\nIs there a way to replace libsdl2 in ubuntu12_32 ?"
}
, {
  "url": "https://api.github.com/repos/ValveSoftware/steam-for-linux/issues/comments/12697796",
  "html_url": "https://github.com/ValveSoftware/steam-for-linux/issues/824#issuecomment-12697796",
  "issue_url": "https://api.github.com/repos/ValveSoftware/steam-for-linux/issues/824",
  "id": 12697796,
  "user": {
    "login": "dscharrer",
    "id": 571723,
    "avatar_url": "https://avatars.githubusercontent.com/u/571723?v=3",
    "gravatar_id": "",
    "url": "https://api.github.com/users/dscharrer",
    "html_url": "https://github.com/dscharrer",
    "followers_url": "https://api.github.com/users/dscharrer/followers",
    "following_url": "https://api.github.com/users/dscharrer/following{/other_user}",
    "gists_url": "https://api.github.com/users/dscharrer/gists{/gist_id}",
    "starred_url": "https://api.github.com/users/dscharrer/starred{/owner}{/repo}",
    "subscriptions_url": "https://api.github.com/users/dscharrer/subscriptions",
    "organizations_url": "https://api.github.com/users/dscharrer/orgs",
    "repos_url": "https://api.github.com/users/dscharrer/repos",
    "events_url": "https://api.github.com/users/dscharrer/events{/privacy}",
    "received_events_url": "https://api.github.com/users/dscharrer/received_events",
    "type": "User",
    "site_admin": false
  },
  "created_at": "2013-01-25T11:47:58Z",
  "updated_at": "2013-01-25T12:02:01Z",
  "body": "DarkDefender: I'd wait for Valve to either change the LD_LIBRARY_PATH order when HL is launched from Steam or update the libsdl in the Steam root. But if you really need to be able to launch HL/CS with sound from within Steam *now* you could just wrap the binary:\r\n\r\n    $ mv hl_linux hl_linux.bin\r\n\r\nThen create a new hl_linux file with\r\n\r\n    #!/bin/sh\r\n    export LD_LIBRARY_PATH=\".:$LD_LIBRARY_PATH\"\r\n    exec ./hl_linux.bin \"$@\"\r\n\r\nAnd finally\r\n\r\n    $ chmod +x hl_linux\r\n\r\nOf course, the wrapper will be overwritten the next time that file is updated, but that's probably desirable anyway."
}
, {
  "url": "https://api.github.com/repos/ValveSoftware/steam-for-linux/issues/comments/12698163",
  "html_url": "https://github.com/ValveSoftware/steam-for-linux/issues/824#issuecomment-12698163",
  "issue_url": "https://api.github.com/repos/ValveSoftware/steam-for-linux/issues/824",
  "id": 12698163,
  "user": {
    "login": "DarkDefender",
    "id": 312503,
    "avatar_url": "https://avatars.githubusercontent.com/u/312503?v=3",
    "gravatar_id": "",
    "url": "https://api.github.com/users/DarkDefender",
    "html_url": "https://github.com/DarkDefender",
    "followers_url": "https://api.github.com/users/DarkDefender/followers",
    "following_url": "https://api.github.com/users/DarkDefender/following{/other_user}",
    "gists_url": "https://api.github.com/users/DarkDefender/gists{/gist_id}",
    "starred_url": "https://api.github.com/users/DarkDefender/starred{/owner}{/repo}",
    "subscriptions_url": "https://api.github.com/users/DarkDefender/subscriptions",
    "organizations_url": "https://api.github.com/users/DarkDefender/orgs",
    "repos_url": "https://api.github.com/users/DarkDefender/repos",
    "events_url": "https://api.github.com/users/DarkDefender/events{/privacy}",
    "received_events_url": "https://api.github.com/users/DarkDefender/received_events",
    "type": "User",
    "site_admin": false
  },
  "created_at": "2013-01-25T12:01:08Z",
  "updated_at": "2013-01-25T12:01:08Z",
  "body": "Thanks dscharrer!\r\nI don't really need to be able to launch it via steam right now. It's just that I want to know if any additional workarounds if I need to replace libsdl2 in the future.\r\nYou see I use OSS4 instead of ALSA and I think steams libsdl2 only has alsa and pulseaudio support complied into them. So I have to compile my own libs.\r\nI'm really thankful valve uses open source libs so I can do this... "
}
, {
  "url": "https://api.github.com/repos/ValveSoftware/steam-for-linux/issues/comments/12703157",
  "html_url": "https://github.com/ValveSoftware/steam-for-linux/issues/824#issuecomment-12703157",
  "issue_url": "https://api.github.com/repos/ValveSoftware/steam-for-linux/issues/824",
  "id": 12703157,
  "user": {
    "login": "dorkster",
    "id": 913982,
    "avatar_url": "https://avatars.githubusercontent.com/u/913982?v=3",
    "gravatar_id": "",
    "url": "https://api.github.com/users/dorkster",
    "html_url": "https://github.com/dorkster",
    "followers_url": "https://api.github.com/users/dorkster/followers",
    "following_url": "https://api.github.com/users/dorkster/following{/other_user}",
    "gists_url": "https://api.github.com/users/dorkster/gists{/gist_id}",
    "starred_url": "https://api.github.com/users/dorkster/starred{/owner}{/repo}",
    "subscriptions_url": "https://api.github.com/users/dorkster/subscriptions",
    "organizations_url": "https://api.github.com/users/dorkster/orgs",
    "repos_url": "https://api.github.com/users/dorkster/repos",
    "events_url": "https://api.github.com/users/dorkster/events{/privacy}",
    "received_events_url": "https://api.github.com/users/dorkster/received_events",
    "type": "User",
    "site_admin": false
  },
  "created_at": "2013-01-25T14:42:14Z",
  "updated_at": "2013-01-25T14:42:14Z",
  "body": "@dscharrer Your fix worked! Thanks!\r\n\r\n@DarkDefender That may be true, but I can confirm this is still an issue with ALSA-only systems."
}
, {
  "url": "https://api.github.com/repos/ValveSoftware/steam-for-linux/issues/comments/12720869",
  "html_url": "https://github.com/ValveSoftware/steam-for-linux/issues/824#issuecomment-12720869",
  "issue_url": "https://api.github.com/repos/ValveSoftware/steam-for-linux/issues/824",
  "id": 12720869,
  "user": {
    "login": "WindohsCrasher",
    "id": 1782508,
    "avatar_url": "https://avatars.githubusercontent.com/u/1782508?v=3",
    "gravatar_id": "",
    "url": "https://api.github.com/users/WindohsCrasher",
    "html_url": "https://github.com/WindohsCrasher",
    "followers_url": "https://api.github.com/users/WindohsCrasher/followers",
    "following_url": "https://api.github.com/users/WindohsCrasher/following{/other_user}",
    "gists_url": "https://api.github.com/users/WindohsCrasher/gists{/gist_id}",
    "starred_url": "https://api.github.com/users/WindohsCrasher/starred{/owner}{/repo}",
    "subscriptions_url": "https://api.github.com/users/WindohsCrasher/subscriptions",
    "organizations_url": "https://api.github.com/users/WindohsCrasher/orgs",
    "repos_url": "https://api.github.com/users/WindohsCrasher/repos",
    "events_url": "https://api.github.com/users/WindohsCrasher/events{/privacy}",
    "received_events_url": "https://api.github.com/users/WindohsCrasher/received_events",
    "type": "User",
    "site_admin": false
  },
  "created_at": "2013-01-25T21:06:41Z",
  "updated_at": "2013-01-25T21:06:59Z",
  "body": "This bug does not occur anymore with the latest Steam update applied.\r\n\r\n(SDL2 has been updated I think)"
}
, {
  "url": "https://api.github.com/repos/ValveSoftware/steam-for-linux/issues/comments/12721097",
  "html_url": "https://github.com/ValveSoftware/steam-for-linux/issues/824#issuecomment-12721097",
  "issue_url": "https://api.github.com/repos/ValveSoftware/steam-for-linux/issues/824",
  "id": 12721097,
  "user": {
    "login": "dscharrer",
    "id": 571723,
    "avatar_url": "https://avatars.githubusercontent.com/u/571723?v=3",
    "gravatar_id": "",
    "url": "https://api.github.com/users/dscharrer",
    "html_url": "https://github.com/dscharrer",
    "followers_url": "https://api.github.com/users/dscharrer/followers",
    "following_url": "https://api.github.com/users/dscharrer/following{/other_user}",
    "gists_url": "https://api.github.com/users/dscharrer/gists{/gist_id}",
    "starred_url": "https://api.github.com/users/dscharrer/starred{/owner}{/repo}",
    "subscriptions_url": "https://api.github.com/users/dscharrer/subscriptions",
    "organizations_url": "https://api.github.com/users/dscharrer/orgs",
    "repos_url": "https://api.github.com/users/dscharrer/repos",
    "events_url": "https://api.github.com/users/dscharrer/events{/privacy}",
    "received_events_url": "https://api.github.com/users/dscharrer/received_events",
    "type": "User",
    "site_admin": false
  },
  "created_at": "2013-01-25T21:12:15Z",
  "updated_at": "2013-01-25T21:29:34Z",
  "body": "Fixed for me too :)\r\n\r\nIt still uses `~/.steam/root/ubuntu12_32/libsdl2-2.0.so.0` and not the libsdl in the Half-Life dir, but that one seems to work with ALSA now."
}
, {
  "url": "https://api.github.com/repos/ValveSoftware/steam-for-linux/issues/comments/12745725",
  "html_url": "https://github.com/ValveSoftware/steam-for-linux/issues/824#issuecomment-12745725",
  "issue_url": "https://api.github.com/repos/ValveSoftware/steam-for-linux/issues/824",
  "id": 12745725,
  "user": {
    "login": "fosskers",
    "id": 229679,
    "avatar_url": "https://avatars.githubusercontent.com/u/229679?v=3",
    "gravatar_id": "",
    "url": "https://api.github.com/users/fosskers",
    "html_url": "https://github.com/fosskers",
    "followers_url": "https://api.github.com/users/fosskers/followers",
    "following_url": "https://api.github.com/users/fosskers/following{/other_user}",
    "gists_url": "https://api.github.com/users/fosskers/gists{/gist_id}",
    "starred_url": "https://api.github.com/users/fosskers/starred{/owner}{/repo}",
    "subscriptions_url": "https://api.github.com/users/fosskers/subscriptions",
    "organizations_url": "https://api.github.com/users/fosskers/orgs",
    "repos_url": "https://api.github.com/users/fosskers/repos",
    "events_url": "https://api.github.com/users/fosskers/events{/privacy}",
    "received_events_url": "https://api.github.com/users/fosskers/received_events",
    "type": "User",
    "site_admin": false
  },
  "created_at": "2013-01-27T01:12:33Z",
  "updated_at": "2013-01-27T01:12:33Z",
  "body": "Sound works only when I use `SDL_AUDIODRIVER=alsa LD_LIBRARY_PATH=\"$LD_LIBRARY_PATH:.\" ./hl_linux -game valve`"
}
, {
  "url": "https://api.github.com/repos/ValveSoftware/steam-for-linux/issues/comments/12779200",
  "html_url": "https://github.com/ValveSoftware/steam-for-linux/issues/824#issuecomment-12779200",
  "issue_url": "https://api.github.com/repos/ValveSoftware/steam-for-linux/issues/824",
  "id": 12779200,
  "user": {
    "login": "lumag",
    "id": 20323,
    "avatar_url": "https://avatars.githubusercontent.com/u/20323?v=3",
    "gravatar_id": "",
    "url": "https://api.github.com/users/lumag",
    "html_url": "https://github.com/lumag",
    "followers_url": "https://api.github.com/users/lumag/followers",
    "following_url": "https://api.github.com/users/lumag/following{/other_user}",
    "gists_url": "https://api.github.com/users/lumag/gists{/gist_id}",
    "starred_url": "https://api.github.com/users/lumag/starred{/owner}{/repo}",
    "subscriptions_url": "https://api.github.com/users/lumag/subscriptions",
    "organizations_url": "https://api.github.com/users/lumag/orgs",
    "repos_url": "https://api.github.com/users/lumag/repos",
    "events_url": "https://api.github.com/users/lumag/events{/privacy}",
    "received_events_url": "https://api.github.com/users/lumag/received_events",
    "type": "User",
    "site_admin": false
  },
  "created_at": "2013-01-28T12:14:56Z",
  "updated_at": "2013-01-28T12:14:56Z",
  "body": "@alfred-valve @fosskers\r\nI also have the same issue. I have up to date HL and Steam client. If I start HL from Steam, I get no sound. I have to go to console, go to game folder and run\r\n```sh\r\nSDL_AUDIODRIVER=\"alsa\" ./hl.sh -game valve\r\n```\r\nto get sound to work.\r\nPlease, investigate the issue.\r\nFor the reference, I use Debian wheezy with no pulseaudio installed.\r\n/proc/xxx/maps shows that hl-linux uses sdl from game directory:\r\n```\r\nb5ab9000-b5b87000 r-xp 00000000 fe:03 235726688  /home/lumag/.local/share/Steam/SteamApps/common/Half-Life/libsdl2-2.0.so.0\r\nb5b87000-b5b89000 r--p 000ce000 fe:03 235726688  /home/lumag/.local/share/Steam/SteamApps/common/Half-Life/libsdl2-2.0.so.0\r\nb5b89000-b5b90000 rw-p 000d0000 fe:03 235726688  /home/lumag/.local/share/Steam/SteamApps/common/Half-Life/libsdl2-2.0.so.0\r\n```\r\n\r\nThis is the log part when sound is not working:\r\n```\r\nPlatform config directory: platform/config\r\n0:Initializing platform...\r\nSDL_InitSubSystem(SDL_INIT_AUDIO) failed.\r\nS_Startup: SNDDMA_Init failed.\r\n\r\nServer module initialized.\r\n```"
}
, {
  "url": "https://api.github.com/repos/ValveSoftware/steam-for-linux/issues/comments/12984863",
  "html_url": "https://github.com/ValveSoftware/steam-for-linux/issues/824#issuecomment-12984863",
  "issue_url": "https://api.github.com/repos/ValveSoftware/steam-for-linux/issues/824",
  "id": 12984863,
  "user": {
    "login": "nullcollision",
    "id": 3123539,
    "avatar_url": "https://avatars.githubusercontent.com/u/3123539?v=3",
    "gravatar_id": "",
    "url": "https://api.github.com/users/nullcollision",
    "html_url": "https://github.com/nullcollision",
    "followers_url": "https://api.github.com/users/nullcollision/followers",
    "following_url": "https://api.github.com/users/nullcollision/following{/other_user}",
    "gists_url": "https://api.github.com/users/nullcollision/gists{/gist_id}",
    "starred_url": "https://api.github.com/users/nullcollision/starred{/owner}{/repo}",
    "subscriptions_url": "https://api.github.com/users/nullcollision/subscriptions",
    "organizations_url": "https://api.github.com/users/nullcollision/orgs",
    "repos_url": "https://api.github.com/users/nullcollision/repos",
    "events_url": "https://api.github.com/users/nullcollision/events{/privacy}",
    "received_events_url": "https://api.github.com/users/nullcollision/received_events",
    "type": "User",
    "site_admin": false
  },
  "created_at": "2013-02-01T08:24:21Z",
  "updated_at": "2013-02-01T08:24:36Z",
  "body": "Are you guys running a logon manager or do you start X via startx? If you start it via startx add \r\n\r\n    export SDL_AUDIODRIVER=\"alsa\"\r\n\r\nto your ~/.bashrc"
}
, {
  "url": "https://api.github.com/repos/ValveSoftware/steam-for-linux/issues/comments/13021104",
  "html_url": "https://github.com/ValveSoftware/steam-for-linux/issues/824#issuecomment-13021104",
  "issue_url": "https://api.github.com/repos/ValveSoftware/steam-for-linux/issues/824",
  "id": 13021104,
  "user": {
    "login": "fosskers",
    "id": 229679,
    "avatar_url": "https://avatars.githubusercontent.com/u/229679?v=3",
    "gravatar_id": "",
    "url": "https://api.github.com/users/fosskers",
    "html_url": "https://github.com/fosskers",
    "followers_url": "https://api.github.com/users/fosskers/followers",
    "following_url": "https://api.github.com/users/fosskers/following{/other_user}",
    "gists_url": "https://api.github.com/users/fosskers/gists{/gist_id}",
    "starred_url": "https://api.github.com/users/fosskers/starred{/owner}{/repo}",
    "subscriptions_url": "https://api.github.com/users/fosskers/subscriptions",
    "organizations_url": "https://api.github.com/users/fosskers/orgs",
    "repos_url": "https://api.github.com/users/fosskers/repos",
    "events_url": "https://api.github.com/users/fosskers/events{/privacy}",
    "received_events_url": "https://api.github.com/users/fosskers/received_events",
    "type": "User",
    "site_admin": false
  },
  "created_at": "2013-02-02T00:25:53Z",
  "updated_at": "2013-02-02T00:25:53Z",
  "body": "@nullcollision I use startx and fish shell. I suppose I could add that variable, yeah."
}
, {
  "url": "https://api.github.com/repos/ValveSoftware/steam-for-linux/issues/comments/15689720",
  "html_url": "https://github.com/ValveSoftware/steam-for-linux/issues/824#issuecomment-15689720",
  "issue_url": "https://api.github.com/repos/ValveSoftware/steam-for-linux/issues/824",
  "id": 15689720,
  "user": {
    "login": "stuartm",
    "id": 475492,
    "avatar_url": "https://avatars.githubusercontent.com/u/475492?v=3",
    "gravatar_id": "",
    "url": "https://api.github.com/users/stuartm",
    "html_url": "https://github.com/stuartm",
    "followers_url": "https://api.github.com/users/stuartm/followers",
    "following_url": "https://api.github.com/users/stuartm/following{/other_user}",
    "gists_url": "https://api.github.com/users/stuartm/gists{/gist_id}",
    "starred_url": "https://api.github.com/users/stuartm/starred{/owner}{/repo}",
    "subscriptions_url": "https://api.github.com/users/stuartm/subscriptions",
    "organizations_url": "https://api.github.com/users/stuartm/orgs",
    "repos_url": "https://api.github.com/users/stuartm/repos",
    "events_url": "https://api.github.com/users/stuartm/events{/privacy}",
    "received_events_url": "https://api.github.com/users/stuartm/received_events",
    "type": "User",
    "site_admin": false
  },
  "created_at": "2013-03-31T10:43:21Z",
  "updated_at": "2013-03-31T10:43:21Z",
  "body": "I ran into this issue recently and ultimately discovered that it was linking some old libs in \"Steam/ubuntu12_32/steam-runtime.old/\" instead of the new ones. Deleting the \"steam-runtime.old\" directory fixed it. Now I'm not saying this will work for everyone but it's worth looking at."
}
]
