[
{
  "url": "https://api.github.com/repos/ValveSoftware/steam-for-linux/issues/comments/27259312",
  "html_url": "https://github.com/ValveSoftware/steam-for-linux/issues/2799#issuecomment-27259312",
  "issue_url": "https://api.github.com/repos/ValveSoftware/steam-for-linux/issues/2799",
  "id": 27259312,
  "user": {
    "login": "gdrewb-valve",
    "id": 3083453,
    "avatar_url": "https://avatars.githubusercontent.com/u/3083453?v=3",
    "gravatar_id": "",
    "url": "https://api.github.com/users/gdrewb-valve",
    "html_url": "https://github.com/gdrewb-valve",
    "followers_url": "https://api.github.com/users/gdrewb-valve/followers",
    "following_url": "https://api.github.com/users/gdrewb-valve/following{/other_user}",
    "gists_url": "https://api.github.com/users/gdrewb-valve/gists{/gist_id}",
    "starred_url": "https://api.github.com/users/gdrewb-valve/starred{/owner}{/repo}",
    "subscriptions_url": "https://api.github.com/users/gdrewb-valve/subscriptions",
    "organizations_url": "https://api.github.com/users/gdrewb-valve/orgs",
    "repos_url": "https://api.github.com/users/gdrewb-valve/repos",
    "events_url": "https://api.github.com/users/gdrewb-valve/events{/privacy}",
    "received_events_url": "https://api.github.com/users/gdrewb-valve/received_events",
    "type": "User",
    "site_admin": false
  },
  "created_at": "2013-10-28T21:36:40Z",
  "updated_at": "2013-10-28T21:36:40Z",
  "body": "Are you talking about Big Picture options?"
}
, {
  "url": "https://api.github.com/repos/ValveSoftware/steam-for-linux/issues/comments/27283478",
  "html_url": "https://github.com/ValveSoftware/steam-for-linux/issues/2799#issuecomment-27283478",
  "issue_url": "https://api.github.com/repos/ValveSoftware/steam-for-linux/issues/2799",
  "id": 27283478,
  "user": {
    "login": "minerz029",
    "id": 5304968,
    "avatar_url": "https://avatars.githubusercontent.com/u/5304968?v=3",
    "gravatar_id": "",
    "url": "https://api.github.com/users/minerz029",
    "html_url": "https://github.com/minerz029",
    "followers_url": "https://api.github.com/users/minerz029/followers",
    "following_url": "https://api.github.com/users/minerz029/following{/other_user}",
    "gists_url": "https://api.github.com/users/minerz029/gists{/gist_id}",
    "starred_url": "https://api.github.com/users/minerz029/starred{/owner}{/repo}",
    "subscriptions_url": "https://api.github.com/users/minerz029/subscriptions",
    "organizations_url": "https://api.github.com/users/minerz029/orgs",
    "repos_url": "https://api.github.com/users/minerz029/repos",
    "events_url": "https://api.github.com/users/minerz029/events{/privacy}",
    "received_events_url": "https://api.github.com/users/minerz029/received_events",
    "type": "User",
    "site_admin": false
  },
  "created_at": "2013-10-29T07:46:54Z",
  "updated_at": "2013-10-29T07:46:54Z",
  "body": "No, it is the new 13.04 Unity logout/shutdown dialog."
}
, {
  "url": "https://api.github.com/repos/ValveSoftware/steam-for-linux/issues/comments/27329069",
  "html_url": "https://github.com/ValveSoftware/steam-for-linux/issues/2799#issuecomment-27329069",
  "issue_url": "https://api.github.com/repos/ValveSoftware/steam-for-linux/issues/2799",
  "id": 27329069,
  "user": {
    "login": "gdrewb-valve",
    "id": 3083453,
    "avatar_url": "https://avatars.githubusercontent.com/u/3083453?v=3",
    "gravatar_id": "",
    "url": "https://api.github.com/users/gdrewb-valve",
    "html_url": "https://github.com/gdrewb-valve",
    "followers_url": "https://api.github.com/users/gdrewb-valve/followers",
    "following_url": "https://api.github.com/users/gdrewb-valve/following{/other_user}",
    "gists_url": "https://api.github.com/users/gdrewb-valve/gists{/gist_id}",
    "starred_url": "https://api.github.com/users/gdrewb-valve/starred{/owner}{/repo}",
    "subscriptions_url": "https://api.github.com/users/gdrewb-valve/subscriptions",
    "organizations_url": "https://api.github.com/users/gdrewb-valve/orgs",
    "repos_url": "https://api.github.com/users/gdrewb-valve/repos",
    "events_url": "https://api.github.com/users/gdrewb-valve/events{/privacy}",
    "received_events_url": "https://api.github.com/users/gdrewb-valve/received_events",
    "type": "User",
    "site_admin": false
  },
  "created_at": "2013-10-29T18:19:30Z",
  "updated_at": "2013-10-29T18:19:30Z",
  "body": "That seems more like a Unity problem (if you cancel it shouldn't do anything at all so Steam shouldn't even know) but I guess it could be something obscure."
}
, {
  "url": "https://api.github.com/repos/ValveSoftware/steam-for-linux/issues/comments/142392882",
  "html_url": "https://github.com/ValveSoftware/steam-for-linux/issues/2799#issuecomment-142392882",
  "issue_url": "https://api.github.com/repos/ValveSoftware/steam-for-linux/issues/2799",
  "id": 142392882,
  "user": {
    "login": "ElTimablo",
    "id": 5881758,
    "avatar_url": "https://avatars.githubusercontent.com/u/5881758?v=3",
    "gravatar_id": "",
    "url": "https://api.github.com/users/ElTimablo",
    "html_url": "https://github.com/ElTimablo",
    "followers_url": "https://api.github.com/users/ElTimablo/followers",
    "following_url": "https://api.github.com/users/ElTimablo/following{/other_user}",
    "gists_url": "https://api.github.com/users/ElTimablo/gists{/gist_id}",
    "starred_url": "https://api.github.com/users/ElTimablo/starred{/owner}{/repo}",
    "subscriptions_url": "https://api.github.com/users/ElTimablo/subscriptions",
    "organizations_url": "https://api.github.com/users/ElTimablo/orgs",
    "repos_url": "https://api.github.com/users/ElTimablo/repos",
    "events_url": "https://api.github.com/users/ElTimablo/events{/privacy}",
    "received_events_url": "https://api.github.com/users/ElTimablo/received_events",
    "type": "User",
    "site_admin": false
  },
  "created_at": "2015-09-22T19:29:24Z",
  "updated_at": "2015-09-22T19:29:24Z",
  "body": "Well, it's definitely not obscure. I've had this problem for months and only just traced it back to Steam. It doesn't happen all the time, but it also blocks Gnome from logging out at all when it closes. I checked what was happening by running steam from the terminal and logging out, and it looked like a completely normal shutdown. I don't even know where Steam would find out that the shutdown dialog box is open, let alone close when it does. Please take a look at this as it's causing me to have to hard power off my computer if I accidentally try to shut down with Steam running."
}
]
