[
{
  "url": "https://api.github.com/repos/ValveSoftware/steam-for-linux/issues/comments/28672448",
  "html_url": "https://github.com/ValveSoftware/steam-for-linux/issues/2994#issuecomment-28672448",
  "issue_url": "https://api.github.com/repos/ValveSoftware/steam-for-linux/issues/2994",
  "id": 28672448,
  "user": {
    "login": "Tele42",
    "id": 3130103,
    "avatar_url": "https://avatars.githubusercontent.com/u/3130103?v=3",
    "gravatar_id": "",
    "url": "https://api.github.com/users/Tele42",
    "html_url": "https://github.com/Tele42",
    "followers_url": "https://api.github.com/users/Tele42/followers",
    "following_url": "https://api.github.com/users/Tele42/following{/other_user}",
    "gists_url": "https://api.github.com/users/Tele42/gists{/gist_id}",
    "starred_url": "https://api.github.com/users/Tele42/starred{/owner}{/repo}",
    "subscriptions_url": "https://api.github.com/users/Tele42/subscriptions",
    "organizations_url": "https://api.github.com/users/Tele42/orgs",
    "repos_url": "https://api.github.com/users/Tele42/repos",
    "events_url": "https://api.github.com/users/Tele42/events{/privacy}",
    "received_events_url": "https://api.github.com/users/Tele42/received_events",
    "type": "User",
    "site_admin": false
  },
  "created_at": "2013-11-18T02:57:34Z",
  "updated_at": "2013-11-18T02:57:34Z",
  "body": "Running steam as root is not supported (and a very bad idea), and a valve dev would need a CrashID to look into your issue, this might be found when running steam from a terminal or going to Help -> System Information."
}
, {
  "url": "https://api.github.com/repos/ValveSoftware/steam-for-linux/issues/comments/28672689",
  "html_url": "https://github.com/ValveSoftware/steam-for-linux/issues/2994#issuecomment-28672689",
  "issue_url": "https://api.github.com/repos/ValveSoftware/steam-for-linux/issues/2994",
  "id": 28672689,
  "user": {
    "login": "Pon3",
    "id": 5934300,
    "avatar_url": "https://avatars.githubusercontent.com/u/5934300?v=3",
    "gravatar_id": "",
    "url": "https://api.github.com/users/Pon3",
    "html_url": "https://github.com/Pon3",
    "followers_url": "https://api.github.com/users/Pon3/followers",
    "following_url": "https://api.github.com/users/Pon3/following{/other_user}",
    "gists_url": "https://api.github.com/users/Pon3/gists{/gist_id}",
    "starred_url": "https://api.github.com/users/Pon3/starred{/owner}{/repo}",
    "subscriptions_url": "https://api.github.com/users/Pon3/subscriptions",
    "organizations_url": "https://api.github.com/users/Pon3/orgs",
    "repos_url": "https://api.github.com/users/Pon3/repos",
    "events_url": "https://api.github.com/users/Pon3/events{/privacy}",
    "received_events_url": "https://api.github.com/users/Pon3/received_events",
    "type": "User",
    "site_admin": false
  },
  "created_at": "2013-11-18T03:06:20Z",
  "updated_at": "2013-11-18T03:06:20Z",
  "body": "Don't make me laugh )\r\nRunning steam as root...\r\nIt supported, just comment some lines in /usr/bin/steam xD\r\nI don't wanna create special user just for steam, and I know what I'm doin' ) "
}
, {
  "url": "https://api.github.com/repos/ValveSoftware/steam-for-linux/issues/comments/28673422",
  "html_url": "https://github.com/ValveSoftware/steam-for-linux/issues/2994#issuecomment-28673422",
  "issue_url": "https://api.github.com/repos/ValveSoftware/steam-for-linux/issues/2994",
  "id": 28673422,
  "user": {
    "login": "danhedron",
    "id": 418211,
    "avatar_url": "https://avatars.githubusercontent.com/u/418211?v=3",
    "gravatar_id": "",
    "url": "https://api.github.com/users/danhedron",
    "html_url": "https://github.com/danhedron",
    "followers_url": "https://api.github.com/users/danhedron/followers",
    "following_url": "https://api.github.com/users/danhedron/following{/other_user}",
    "gists_url": "https://api.github.com/users/danhedron/gists{/gist_id}",
    "starred_url": "https://api.github.com/users/danhedron/starred{/owner}{/repo}",
    "subscriptions_url": "https://api.github.com/users/danhedron/subscriptions",
    "organizations_url": "https://api.github.com/users/danhedron/orgs",
    "repos_url": "https://api.github.com/users/danhedron/repos",
    "events_url": "https://api.github.com/users/danhedron/events{/privacy}",
    "received_events_url": "https://api.github.com/users/danhedron/received_events",
    "type": "User",
    "site_admin": false
  },
  "created_at": "2013-11-18T03:32:15Z",
  "updated_at": "2013-11-18T03:32:15Z",
  "body": "> It supported, just comment some lines in /usr/bin/steam xD\r\n\r\nhttps://github.com/ValveSoftware/steam-for-linux/issues/2317#issuecomment-16477020\r\n"
}
, {
  "url": "https://api.github.com/repos/ValveSoftware/steam-for-linux/issues/comments/28673558",
  "html_url": "https://github.com/ValveSoftware/steam-for-linux/issues/2994#issuecomment-28673558",
  "issue_url": "https://api.github.com/repos/ValveSoftware/steam-for-linux/issues/2994",
  "id": 28673558,
  "user": {
    "login": "computerquip",
    "id": 624819,
    "avatar_url": "https://avatars.githubusercontent.com/u/624819?v=3",
    "gravatar_id": "",
    "url": "https://api.github.com/users/computerquip",
    "html_url": "https://github.com/computerquip",
    "followers_url": "https://api.github.com/users/computerquip/followers",
    "following_url": "https://api.github.com/users/computerquip/following{/other_user}",
    "gists_url": "https://api.github.com/users/computerquip/gists{/gist_id}",
    "starred_url": "https://api.github.com/users/computerquip/starred{/owner}{/repo}",
    "subscriptions_url": "https://api.github.com/users/computerquip/subscriptions",
    "organizations_url": "https://api.github.com/users/computerquip/orgs",
    "repos_url": "https://api.github.com/users/computerquip/repos",
    "events_url": "https://api.github.com/users/computerquip/events{/privacy}",
    "received_events_url": "https://api.github.com/users/computerquip/received_events",
    "type": "User",
    "site_admin": false
  },
  "created_at": "2013-11-18T03:37:52Z",
  "updated_at": "2013-11-18T03:37:52Z",
  "body": "Even if it is supported, you should not run any application as root if it doesn't need to be (in this case, anything Steam related). \r\n\r\nAlso, I might be missing something but you shouldn't need to create another user for Steam. You should be able to use whatever user you're logging into your DE with or what you're starting Xorg with"
}
, {
  "url": "https://api.github.com/repos/ValveSoftware/steam-for-linux/issues/comments/28673764",
  "html_url": "https://github.com/ValveSoftware/steam-for-linux/issues/2994#issuecomment-28673764",
  "issue_url": "https://api.github.com/repos/ValveSoftware/steam-for-linux/issues/2994",
  "id": 28673764,
  "user": {
    "login": "Pon3",
    "id": 5934300,
    "avatar_url": "https://avatars.githubusercontent.com/u/5934300?v=3",
    "gravatar_id": "",
    "url": "https://api.github.com/users/Pon3",
    "html_url": "https://github.com/Pon3",
    "followers_url": "https://api.github.com/users/Pon3/followers",
    "following_url": "https://api.github.com/users/Pon3/following{/other_user}",
    "gists_url": "https://api.github.com/users/Pon3/gists{/gist_id}",
    "starred_url": "https://api.github.com/users/Pon3/starred{/owner}{/repo}",
    "subscriptions_url": "https://api.github.com/users/Pon3/subscriptions",
    "organizations_url": "https://api.github.com/users/Pon3/orgs",
    "repos_url": "https://api.github.com/users/Pon3/repos",
    "events_url": "https://api.github.com/users/Pon3/events{/privacy}",
    "received_events_url": "https://api.github.com/users/Pon3/received_events",
    "type": "User",
    "site_admin": false
  },
  "created_at": "2013-11-18T03:46:07Z",
  "updated_at": "2013-11-18T03:46:07Z",
  "body": "Such lines: \r\nif [ \"$(id -u)\" == \"0\" ]; then\r\nshow_message --error $\"Cannot run as root user\"\r\nexit 1\r\nfi\r\n\r\nAnd what the hell? I'm running as root, my user is root. I don't have sudoers users, all I have is ROOT. I'm starting X as root, and DE as root, using xinit (startx). There is only one user in my system, and it's root.\r\n"
}
, {
  "url": "https://api.github.com/repos/ValveSoftware/steam-for-linux/issues/comments/28673801",
  "html_url": "https://github.com/ValveSoftware/steam-for-linux/issues/2994#issuecomment-28673801",
  "issue_url": "https://api.github.com/repos/ValveSoftware/steam-for-linux/issues/2994",
  "id": 28673801,
  "user": {
    "login": "Pon3",
    "id": 5934300,
    "avatar_url": "https://avatars.githubusercontent.com/u/5934300?v=3",
    "gravatar_id": "",
    "url": "https://api.github.com/users/Pon3",
    "html_url": "https://github.com/Pon3",
    "followers_url": "https://api.github.com/users/Pon3/followers",
    "following_url": "https://api.github.com/users/Pon3/following{/other_user}",
    "gists_url": "https://api.github.com/users/Pon3/gists{/gist_id}",
    "starred_url": "https://api.github.com/users/Pon3/starred{/owner}{/repo}",
    "subscriptions_url": "https://api.github.com/users/Pon3/subscriptions",
    "organizations_url": "https://api.github.com/users/Pon3/orgs",
    "repos_url": "https://api.github.com/users/Pon3/repos",
    "events_url": "https://api.github.com/users/Pon3/events{/privacy}",
    "received_events_url": "https://api.github.com/users/Pon3/received_events",
    "type": "User",
    "site_admin": false
  },
  "created_at": "2013-11-18T03:47:53Z",
  "updated_at": "2013-11-18T03:47:53Z",
  "body": "I compiled almost all of the packages in my system by my own, even kernel (custom 3.11)"
}
, {
  "url": "https://api.github.com/repos/ValveSoftware/steam-for-linux/issues/comments/28673806",
  "html_url": "https://github.com/ValveSoftware/steam-for-linux/issues/2994#issuecomment-28673806",
  "issue_url": "https://api.github.com/repos/ValveSoftware/steam-for-linux/issues/2994",
  "id": 28673806,
  "user": {
    "login": "danhedron",
    "id": 418211,
    "avatar_url": "https://avatars.githubusercontent.com/u/418211?v=3",
    "gravatar_id": "",
    "url": "https://api.github.com/users/danhedron",
    "html_url": "https://github.com/danhedron",
    "followers_url": "https://api.github.com/users/danhedron/followers",
    "following_url": "https://api.github.com/users/danhedron/following{/other_user}",
    "gists_url": "https://api.github.com/users/danhedron/gists{/gist_id}",
    "starred_url": "https://api.github.com/users/danhedron/starred{/owner}{/repo}",
    "subscriptions_url": "https://api.github.com/users/danhedron/subscriptions",
    "organizations_url": "https://api.github.com/users/danhedron/orgs",
    "repos_url": "https://api.github.com/users/danhedron/repos",
    "events_url": "https://api.github.com/users/danhedron/events{/privacy}",
    "received_events_url": "https://api.github.com/users/danhedron/received_events",
    "type": "User",
    "site_admin": false
  },
  "created_at": "2013-11-18T03:48:03Z",
  "updated_at": "2013-11-18T03:48:03Z",
  "body": "Unless Valve have changed their minds since, that is not supported. That is\r\na HUGE security risk since everything you execute is now running with super\r\nuser privileges.\r\n\r\n\r\nOn 18 November 2013 03:46, Pon3 <notifications@github.com> wrote:\r\n\r\n> Such lines:\r\n> if [ \"$(id -u)\" == \"0\" ]; then\r\n> show_message --error $\"Cannot run as root user\"\r\n> exit 1\r\n> fi\r\n>\r\n> And what the hell? I'm running as root, my user is root. I don't have\r\n> sudoers users, all I have is ROOT. I'm starting X as root, and DE as root,\r\n> using xinit (startx). There is only one user in my system, and it's root.\r\n>\r\n> —\r\n> Reply to this email directly or view it on GitHub<https://github.com/ValveSoftware/steam-for-linux/issues/2994#issuecomment-28673764>\r\n> .\r\n>\r\n\r\n\r\n\r\n-- \r\nDaniel Evans\r\nWeb: http://bytecove.co.uk\r\nGames: http://razor-studios.co.uk\r\nOAOSIDL:\r\nhttp://officialaberystwythopensourceinternationaldevelopersleague.org"
}
, {
  "url": "https://api.github.com/repos/ValveSoftware/steam-for-linux/issues/comments/28673905",
  "html_url": "https://github.com/ValveSoftware/steam-for-linux/issues/2994#issuecomment-28673905",
  "issue_url": "https://api.github.com/repos/ValveSoftware/steam-for-linux/issues/2994",
  "id": 28673905,
  "user": {
    "login": "Pon3",
    "id": 5934300,
    "avatar_url": "https://avatars.githubusercontent.com/u/5934300?v=3",
    "gravatar_id": "",
    "url": "https://api.github.com/users/Pon3",
    "html_url": "https://github.com/Pon3",
    "followers_url": "https://api.github.com/users/Pon3/followers",
    "following_url": "https://api.github.com/users/Pon3/following{/other_user}",
    "gists_url": "https://api.github.com/users/Pon3/gists{/gist_id}",
    "starred_url": "https://api.github.com/users/Pon3/starred{/owner}{/repo}",
    "subscriptions_url": "https://api.github.com/users/Pon3/subscriptions",
    "organizations_url": "https://api.github.com/users/Pon3/orgs",
    "repos_url": "https://api.github.com/users/Pon3/repos",
    "events_url": "https://api.github.com/users/Pon3/events{/privacy}",
    "received_events_url": "https://api.github.com/users/Pon3/received_events",
    "type": "User",
    "site_admin": false
  },
  "created_at": "2013-11-18T03:51:54Z",
  "updated_at": "2013-11-18T03:51:54Z",
  "body": "@danharibo\r\n\"Security risk\" of my system, not Valve's. I'm using 2 hardware firewalls, raid 10, backups and everything I need to protect my system."
}
, {
  "url": "https://api.github.com/repos/ValveSoftware/steam-for-linux/issues/comments/28674020",
  "html_url": "https://github.com/ValveSoftware/steam-for-linux/issues/2994#issuecomment-28674020",
  "issue_url": "https://api.github.com/repos/ValveSoftware/steam-for-linux/issues/2994",
  "id": 28674020,
  "user": {
    "login": "Pon3",
    "id": 5934300,
    "avatar_url": "https://avatars.githubusercontent.com/u/5934300?v=3",
    "gravatar_id": "",
    "url": "https://api.github.com/users/Pon3",
    "html_url": "https://github.com/Pon3",
    "followers_url": "https://api.github.com/users/Pon3/followers",
    "following_url": "https://api.github.com/users/Pon3/following{/other_user}",
    "gists_url": "https://api.github.com/users/Pon3/gists{/gist_id}",
    "starred_url": "https://api.github.com/users/Pon3/starred{/owner}{/repo}",
    "subscriptions_url": "https://api.github.com/users/Pon3/subscriptions",
    "organizations_url": "https://api.github.com/users/Pon3/orgs",
    "repos_url": "https://api.github.com/users/Pon3/repos",
    "events_url": "https://api.github.com/users/Pon3/events{/privacy}",
    "received_events_url": "https://api.github.com/users/Pon3/received_events",
    "type": "User",
    "site_admin": false
  },
  "created_at": "2013-11-18T03:56:28Z",
  "updated_at": "2013-11-18T03:56:28Z",
  "body": "The user poses the greatest threat to the system. I can realize what I'm doing. I'm not a user, I'm an admin"
}
, {
  "url": "https://api.github.com/repos/ValveSoftware/steam-for-linux/issues/comments/28674075",
  "html_url": "https://github.com/ValveSoftware/steam-for-linux/issues/2994#issuecomment-28674075",
  "issue_url": "https://api.github.com/repos/ValveSoftware/steam-for-linux/issues/2994",
  "id": 28674075,
  "user": {
    "login": "computerquip",
    "id": 624819,
    "avatar_url": "https://avatars.githubusercontent.com/u/624819?v=3",
    "gravatar_id": "",
    "url": "https://api.github.com/users/computerquip",
    "html_url": "https://github.com/computerquip",
    "followers_url": "https://api.github.com/users/computerquip/followers",
    "following_url": "https://api.github.com/users/computerquip/following{/other_user}",
    "gists_url": "https://api.github.com/users/computerquip/gists{/gist_id}",
    "starred_url": "https://api.github.com/users/computerquip/starred{/owner}{/repo}",
    "subscriptions_url": "https://api.github.com/users/computerquip/subscriptions",
    "organizations_url": "https://api.github.com/users/computerquip/orgs",
    "repos_url": "https://api.github.com/users/computerquip/repos",
    "events_url": "https://api.github.com/users/computerquip/events{/privacy}",
    "received_events_url": "https://api.github.com/users/computerquip/received_events",
    "type": "User",
    "site_admin": false
  },
  "created_at": "2013-11-18T03:58:37Z",
  "updated_at": "2013-11-18T04:02:52Z",
  "body": "Given that some software doesn't even run (not to mention the software that runs incorrectly unintentionally) under root, you're clearly not doing \"everything [you] need to protect [your] system\". \r\n\r\nIt's explicitly placed in the script to not allow root execution for a reason, not just because you don't \"know what [you're] doing\". I don't think you know what you're doing if you believe running all software as root as being viable. "
}
, {
  "url": "https://api.github.com/repos/ValveSoftware/steam-for-linux/issues/comments/28674136",
  "html_url": "https://github.com/ValveSoftware/steam-for-linux/issues/2994#issuecomment-28674136",
  "issue_url": "https://api.github.com/repos/ValveSoftware/steam-for-linux/issues/2994",
  "id": 28674136,
  "user": {
    "login": "Cheeseness",
    "id": 1570520,
    "avatar_url": "https://avatars.githubusercontent.com/u/1570520?v=3",
    "gravatar_id": "",
    "url": "https://api.github.com/users/Cheeseness",
    "html_url": "https://github.com/Cheeseness",
    "followers_url": "https://api.github.com/users/Cheeseness/followers",
    "following_url": "https://api.github.com/users/Cheeseness/following{/other_user}",
    "gists_url": "https://api.github.com/users/Cheeseness/gists{/gist_id}",
    "starred_url": "https://api.github.com/users/Cheeseness/starred{/owner}{/repo}",
    "subscriptions_url": "https://api.github.com/users/Cheeseness/subscriptions",
    "organizations_url": "https://api.github.com/users/Cheeseness/orgs",
    "repos_url": "https://api.github.com/users/Cheeseness/repos",
    "events_url": "https://api.github.com/users/Cheeseness/events{/privacy}",
    "received_events_url": "https://api.github.com/users/Cheeseness/received_events",
    "type": "User",
    "site_admin": false
  },
  "created_at": "2013-11-18T04:00:35Z",
  "updated_at": "2013-11-18T04:01:58Z",
  "body": "> \"Security risk\" of my system, not Valve's. I'm using 2 hardware firewalls, raid 10, backups and everything I need to protect my system.\r\n\r\nI don't think that your firewalls are going to prevent you from getting exposed to a threat inadvertently delivered via Steam (which is why the client launch script prevents it from being run as root). Not all malicious software needs a connection to the outside world.\r\n\r\nI think focusing on running as root is probably only going to bog this issue down (and there are other issues discussing that such as the one that @danharibo linked to).\r\n\r\nWere you able to get a CrashID as @Tele42 suggested?"
}
, {
  "url": "https://api.github.com/repos/ValveSoftware/steam-for-linux/issues/comments/28674242",
  "html_url": "https://github.com/ValveSoftware/steam-for-linux/issues/2994#issuecomment-28674242",
  "issue_url": "https://api.github.com/repos/ValveSoftware/steam-for-linux/issues/2994",
  "id": 28674242,
  "user": {
    "login": "Pon3",
    "id": 5934300,
    "avatar_url": "https://avatars.githubusercontent.com/u/5934300?v=3",
    "gravatar_id": "",
    "url": "https://api.github.com/users/Pon3",
    "html_url": "https://github.com/Pon3",
    "followers_url": "https://api.github.com/users/Pon3/followers",
    "following_url": "https://api.github.com/users/Pon3/following{/other_user}",
    "gists_url": "https://api.github.com/users/Pon3/gists{/gist_id}",
    "starred_url": "https://api.github.com/users/Pon3/starred{/owner}{/repo}",
    "subscriptions_url": "https://api.github.com/users/Pon3/subscriptions",
    "organizations_url": "https://api.github.com/users/Pon3/orgs",
    "repos_url": "https://api.github.com/users/Pon3/repos",
    "events_url": "https://api.github.com/users/Pon3/events{/privacy}",
    "received_events_url": "https://api.github.com/users/Pon3/received_events",
    "type": "User",
    "site_admin": false
  },
  "created_at": "2013-11-18T04:04:59Z",
  "updated_at": "2013-11-18T04:06:53Z",
  "body": "@computerquip\r\nFor example?\r\nOkay, for example google-chrome package.\r\nRun [code] hexedit hexedit /opt/google/chrome/chrome [/code]\r\nSearch for \"geteuid\" and change it to \"getppid\".\r\nNow run your Chrome browser. Voila! Working. Same with any application which won't run as root"
}
, {
  "url": "https://api.github.com/repos/ValveSoftware/steam-for-linux/issues/comments/28674284",
  "html_url": "https://github.com/ValveSoftware/steam-for-linux/issues/2994#issuecomment-28674284",
  "issue_url": "https://api.github.com/repos/ValveSoftware/steam-for-linux/issues/2994",
  "id": 28674284,
  "user": {
    "login": "computerquip",
    "id": 624819,
    "avatar_url": "https://avatars.githubusercontent.com/u/624819?v=3",
    "gravatar_id": "",
    "url": "https://api.github.com/users/computerquip",
    "html_url": "https://github.com/computerquip",
    "followers_url": "https://api.github.com/users/computerquip/followers",
    "following_url": "https://api.github.com/users/computerquip/following{/other_user}",
    "gists_url": "https://api.github.com/users/computerquip/gists{/gist_id}",
    "starred_url": "https://api.github.com/users/computerquip/starred{/owner}{/repo}",
    "subscriptions_url": "https://api.github.com/users/computerquip/subscriptions",
    "organizations_url": "https://api.github.com/users/computerquip/orgs",
    "repos_url": "https://api.github.com/users/computerquip/repos",
    "events_url": "https://api.github.com/users/computerquip/events{/privacy}",
    "received_events_url": "https://api.github.com/users/computerquip/received_events",
    "type": "User",
    "site_admin": false
  },
  "created_at": "2013-11-18T04:07:16Z",
  "updated_at": "2013-11-18T04:09:33Z",
  "body": "What does that achieve other than cause security risks?\r\nEDIT: Also, I doubt that actually works in some cases."
}
, {
  "url": "https://api.github.com/repos/ValveSoftware/steam-for-linux/issues/comments/28674370",
  "html_url": "https://github.com/ValveSoftware/steam-for-linux/issues/2994#issuecomment-28674370",
  "issue_url": "https://api.github.com/repos/ValveSoftware/steam-for-linux/issues/2994",
  "id": 28674370,
  "user": {
    "login": "Pon3",
    "id": 5934300,
    "avatar_url": "https://avatars.githubusercontent.com/u/5934300?v=3",
    "gravatar_id": "",
    "url": "https://api.github.com/users/Pon3",
    "html_url": "https://github.com/Pon3",
    "followers_url": "https://api.github.com/users/Pon3/followers",
    "following_url": "https://api.github.com/users/Pon3/following{/other_user}",
    "gists_url": "https://api.github.com/users/Pon3/gists{/gist_id}",
    "starred_url": "https://api.github.com/users/Pon3/starred{/owner}{/repo}",
    "subscriptions_url": "https://api.github.com/users/Pon3/subscriptions",
    "organizations_url": "https://api.github.com/users/Pon3/orgs",
    "repos_url": "https://api.github.com/users/Pon3/repos",
    "events_url": "https://api.github.com/users/Pon3/events{/privacy}",
    "received_events_url": "https://api.github.com/users/Pon3/received_events",
    "type": "User",
    "site_admin": false
  },
  "created_at": "2013-11-18T04:10:45Z",
  "updated_at": "2013-11-18T04:10:45Z",
  "body": "@computerquip\r\nI don't need to write \"sudo\" every time."
}
, {
  "url": "https://api.github.com/repos/ValveSoftware/steam-for-linux/issues/comments/28674387",
  "html_url": "https://github.com/ValveSoftware/steam-for-linux/issues/2994#issuecomment-28674387",
  "issue_url": "https://api.github.com/repos/ValveSoftware/steam-for-linux/issues/2994",
  "id": 28674387,
  "user": {
    "login": "computerquip",
    "id": 624819,
    "avatar_url": "https://avatars.githubusercontent.com/u/624819?v=3",
    "gravatar_id": "",
    "url": "https://api.github.com/users/computerquip",
    "html_url": "https://github.com/computerquip",
    "followers_url": "https://api.github.com/users/computerquip/followers",
    "following_url": "https://api.github.com/users/computerquip/following{/other_user}",
    "gists_url": "https://api.github.com/users/computerquip/gists{/gist_id}",
    "starred_url": "https://api.github.com/users/computerquip/starred{/owner}{/repo}",
    "subscriptions_url": "https://api.github.com/users/computerquip/subscriptions",
    "organizations_url": "https://api.github.com/users/computerquip/orgs",
    "repos_url": "https://api.github.com/users/computerquip/repos",
    "events_url": "https://api.github.com/users/computerquip/events{/privacy}",
    "received_events_url": "https://api.github.com/users/computerquip/received_events",
    "type": "User",
    "site_admin": false
  },
  "created_at": "2013-11-18T04:11:10Z",
  "updated_at": "2013-11-18T04:11:10Z",
  "body": "You don't run chrome as root EVER. You don't need root."
}
, {
  "url": "https://api.github.com/repos/ValveSoftware/steam-for-linux/issues/comments/28674477",
  "html_url": "https://github.com/ValveSoftware/steam-for-linux/issues/2994#issuecomment-28674477",
  "issue_url": "https://api.github.com/repos/ValveSoftware/steam-for-linux/issues/2994",
  "id": 28674477,
  "user": {
    "login": "Pon3",
    "id": 5934300,
    "avatar_url": "https://avatars.githubusercontent.com/u/5934300?v=3",
    "gravatar_id": "",
    "url": "https://api.github.com/users/Pon3",
    "html_url": "https://github.com/Pon3",
    "followers_url": "https://api.github.com/users/Pon3/followers",
    "following_url": "https://api.github.com/users/Pon3/following{/other_user}",
    "gists_url": "https://api.github.com/users/Pon3/gists{/gist_id}",
    "starred_url": "https://api.github.com/users/Pon3/starred{/owner}{/repo}",
    "subscriptions_url": "https://api.github.com/users/Pon3/subscriptions",
    "organizations_url": "https://api.github.com/users/Pon3/orgs",
    "repos_url": "https://api.github.com/users/Pon3/repos",
    "events_url": "https://api.github.com/users/Pon3/events{/privacy}",
    "received_events_url": "https://api.github.com/users/Pon3/received_events",
    "type": "User",
    "site_admin": false
  },
  "created_at": "2013-11-18T04:14:36Z",
  "updated_at": "2013-11-18T04:14:36Z",
  "body": "Chrome is only my browser. I'm using a lot of apps for developing. And I always changing something in my system."
}
, {
  "url": "https://api.github.com/repos/ValveSoftware/steam-for-linux/issues/comments/28674494",
  "html_url": "https://github.com/ValveSoftware/steam-for-linux/issues/2994#issuecomment-28674494",
  "issue_url": "https://api.github.com/repos/ValveSoftware/steam-for-linux/issues/2994",
  "id": 28674494,
  "user": {
    "login": "Pon3",
    "id": 5934300,
    "avatar_url": "https://avatars.githubusercontent.com/u/5934300?v=3",
    "gravatar_id": "",
    "url": "https://api.github.com/users/Pon3",
    "html_url": "https://github.com/Pon3",
    "followers_url": "https://api.github.com/users/Pon3/followers",
    "following_url": "https://api.github.com/users/Pon3/following{/other_user}",
    "gists_url": "https://api.github.com/users/Pon3/gists{/gist_id}",
    "starred_url": "https://api.github.com/users/Pon3/starred{/owner}{/repo}",
    "subscriptions_url": "https://api.github.com/users/Pon3/subscriptions",
    "organizations_url": "https://api.github.com/users/Pon3/orgs",
    "repos_url": "https://api.github.com/users/Pon3/repos",
    "events_url": "https://api.github.com/users/Pon3/events{/privacy}",
    "received_events_url": "https://api.github.com/users/Pon3/received_events",
    "type": "User",
    "site_admin": false
  },
  "created_at": "2013-11-18T04:15:33Z",
  "updated_at": "2013-11-18T04:15:33Z",
  "body": "@Cheeseness\r\n\"delivered via Steam\"\r\nIt's their problem"
}
, {
  "url": "https://api.github.com/repos/ValveSoftware/steam-for-linux/issues/comments/28674630",
  "html_url": "https://github.com/ValveSoftware/steam-for-linux/issues/2994#issuecomment-28674630",
  "issue_url": "https://api.github.com/repos/ValveSoftware/steam-for-linux/issues/2994",
  "id": 28674630,
  "user": {
    "login": "Pon3",
    "id": 5934300,
    "avatar_url": "https://avatars.githubusercontent.com/u/5934300?v=3",
    "gravatar_id": "",
    "url": "https://api.github.com/users/Pon3",
    "html_url": "https://github.com/Pon3",
    "followers_url": "https://api.github.com/users/Pon3/followers",
    "following_url": "https://api.github.com/users/Pon3/following{/other_user}",
    "gists_url": "https://api.github.com/users/Pon3/gists{/gist_id}",
    "starred_url": "https://api.github.com/users/Pon3/starred{/owner}{/repo}",
    "subscriptions_url": "https://api.github.com/users/Pon3/subscriptions",
    "organizations_url": "https://api.github.com/users/Pon3/orgs",
    "repos_url": "https://api.github.com/users/Pon3/repos",
    "events_url": "https://api.github.com/users/Pon3/events{/privacy}",
    "received_events_url": "https://api.github.com/users/Pon3/received_events",
    "type": "User",
    "site_admin": false
  },
  "created_at": "2013-11-18T04:21:27Z",
  "updated_at": "2013-11-18T04:21:27Z",
  "body": "@computerquip\r\n\"EDIT: Also, I doubt that actually works in some cases.\"\r\nProve!"
}
, {
  "url": "https://api.github.com/repos/ValveSoftware/steam-for-linux/issues/comments/28674710",
  "html_url": "https://github.com/ValveSoftware/steam-for-linux/issues/2994#issuecomment-28674710",
  "issue_url": "https://api.github.com/repos/ValveSoftware/steam-for-linux/issues/2994",
  "id": 28674710,
  "user": {
    "login": "Cheeseness",
    "id": 1570520,
    "avatar_url": "https://avatars.githubusercontent.com/u/1570520?v=3",
    "gravatar_id": "",
    "url": "https://api.github.com/users/Cheeseness",
    "html_url": "https://github.com/Cheeseness",
    "followers_url": "https://api.github.com/users/Cheeseness/followers",
    "following_url": "https://api.github.com/users/Cheeseness/following{/other_user}",
    "gists_url": "https://api.github.com/users/Cheeseness/gists{/gist_id}",
    "starred_url": "https://api.github.com/users/Cheeseness/starred{/owner}{/repo}",
    "subscriptions_url": "https://api.github.com/users/Cheeseness/subscriptions",
    "organizations_url": "https://api.github.com/users/Cheeseness/orgs",
    "repos_url": "https://api.github.com/users/Cheeseness/repos",
    "events_url": "https://api.github.com/users/Cheeseness/events{/privacy}",
    "received_events_url": "https://api.github.com/users/Cheeseness/received_events",
    "type": "User",
    "site_admin": false
  },
  "created_at": "2013-11-18T04:25:43Z",
  "updated_at": "2013-11-18T04:25:43Z",
  "body": ">  It's their problem\r\n\r\nNot really. If you've manually edited scripts to run as root, you'd really only have yourself to blame.\r\n\r\nSeriously though, stop focusing on root related stuff. That's not going to get this issue anywhere."
}
, {
  "url": "https://api.github.com/repos/ValveSoftware/steam-for-linux/issues/comments/28674985",
  "html_url": "https://github.com/ValveSoftware/steam-for-linux/issues/2994#issuecomment-28674985",
  "issue_url": "https://api.github.com/repos/ValveSoftware/steam-for-linux/issues/2994",
  "id": 28674985,
  "user": {
    "login": "computerquip",
    "id": 624819,
    "avatar_url": "https://avatars.githubusercontent.com/u/624819?v=3",
    "gravatar_id": "",
    "url": "https://api.github.com/users/computerquip",
    "html_url": "https://github.com/computerquip",
    "followers_url": "https://api.github.com/users/computerquip/followers",
    "following_url": "https://api.github.com/users/computerquip/following{/other_user}",
    "gists_url": "https://api.github.com/users/computerquip/gists{/gist_id}",
    "starred_url": "https://api.github.com/users/computerquip/starred{/owner}{/repo}",
    "subscriptions_url": "https://api.github.com/users/computerquip/subscriptions",
    "organizations_url": "https://api.github.com/users/computerquip/orgs",
    "repos_url": "https://api.github.com/users/computerquip/repos",
    "events_url": "https://api.github.com/users/computerquip/events{/privacy}",
    "received_events_url": "https://api.github.com/users/computerquip/received_events",
    "type": "User",
    "site_admin": false
  },
  "created_at": "2013-11-18T04:38:28Z",
  "updated_at": "2013-11-18T04:39:17Z",
  "body": "I don't really need proof, it's just a hunch. I know damn well that it causes security issues in the case the software does something its not supposed such as edit a system configuration file or try to grab data its not supposed too... or delete a directory its not supposed to.  \r\n\r\nNot really the point though. You're not supposed to run some software as root. When that software doesn't work like its supposed too, you don't just blame the software."
}
, {
  "url": "https://api.github.com/repos/ValveSoftware/steam-for-linux/issues/comments/28677785",
  "html_url": "https://github.com/ValveSoftware/steam-for-linux/issues/2994#issuecomment-28677785",
  "issue_url": "https://api.github.com/repos/ValveSoftware/steam-for-linux/issues/2994",
  "id": 28677785,
  "user": {
    "login": "mmstick",
    "id": 4143535,
    "avatar_url": "https://avatars.githubusercontent.com/u/4143535?v=3",
    "gravatar_id": "",
    "url": "https://api.github.com/users/mmstick",
    "html_url": "https://github.com/mmstick",
    "followers_url": "https://api.github.com/users/mmstick/followers",
    "following_url": "https://api.github.com/users/mmstick/following{/other_user}",
    "gists_url": "https://api.github.com/users/mmstick/gists{/gist_id}",
    "starred_url": "https://api.github.com/users/mmstick/starred{/owner}{/repo}",
    "subscriptions_url": "https://api.github.com/users/mmstick/subscriptions",
    "organizations_url": "https://api.github.com/users/mmstick/orgs",
    "repos_url": "https://api.github.com/users/mmstick/repos",
    "events_url": "https://api.github.com/users/mmstick/events{/privacy}",
    "received_events_url": "https://api.github.com/users/mmstick/received_events",
    "type": "User",
    "site_admin": false
  },
  "created_at": "2013-11-18T06:25:46Z",
  "updated_at": "2013-11-18T06:25:46Z",
  "body": "Why in the heck are you trying to run something from root? I can't think of a single good reason for doing so. Are some kind of Linux noob? It's a written rule that one should NEVER run as root. Sudo/Root is for administrative tasks only. In all reality, the root account should be completely disabled because having it enabled is a security risk."
}
, {
  "url": "https://api.github.com/repos/ValveSoftware/steam-for-linux/issues/comments/28707209",
  "html_url": "https://github.com/ValveSoftware/steam-for-linux/issues/2994#issuecomment-28707209",
  "issue_url": "https://api.github.com/repos/ValveSoftware/steam-for-linux/issues/2994",
  "id": 28707209,
  "user": {
    "login": "Pon3",
    "id": 5934300,
    "avatar_url": "https://avatars.githubusercontent.com/u/5934300?v=3",
    "gravatar_id": "",
    "url": "https://api.github.com/users/Pon3",
    "html_url": "https://github.com/Pon3",
    "followers_url": "https://api.github.com/users/Pon3/followers",
    "following_url": "https://api.github.com/users/Pon3/following{/other_user}",
    "gists_url": "https://api.github.com/users/Pon3/gists{/gist_id}",
    "starred_url": "https://api.github.com/users/Pon3/starred{/owner}{/repo}",
    "subscriptions_url": "https://api.github.com/users/Pon3/subscriptions",
    "organizations_url": "https://api.github.com/users/Pon3/orgs",
    "repos_url": "https://api.github.com/users/Pon3/repos",
    "events_url": "https://api.github.com/users/Pon3/events{/privacy}",
    "received_events_url": "https://api.github.com/users/Pon3/received_events",
    "type": "User",
    "site_admin": false
  },
  "created_at": "2013-11-18T15:31:52Z",
  "updated_at": "2013-11-18T22:20:06Z",
  "body": "Stop saying me that running system as root is a terrible catastrophe, go ****. It is not related to the problem. This issue happening on ANY *[edit] USER. If you have a problems with root, [edited]. I'm running as root since 2003, and I NEVER faced such problem as \" it causes security issues in the case the software does something its not supposed such as edit a system configuration file or try to grab data its not supposed too... or delete a directory its not supposed to\". What the heck? You are running root? Faced such problems? Then the problem is in you, rather than system. Don't worry about my security, it's fine. And I have NO problems running root. \r\n\r\nIF you have nothing to say about this issue other than telling me \"root is a bad idea\", do NOT say anything. As I said, IT is NOT RELATED to the PROBLEM. "
}
, {
  "url": "https://api.github.com/repos/ValveSoftware/steam-for-linux/issues/comments/28731863",
  "html_url": "https://github.com/ValveSoftware/steam-for-linux/issues/2994#issuecomment-28731863",
  "issue_url": "https://api.github.com/repos/ValveSoftware/steam-for-linux/issues/2994",
  "id": 28731863,
  "user": {
    "login": "gdrewb-valve",
    "id": 3083453,
    "avatar_url": "https://avatars.githubusercontent.com/u/3083453?v=3",
    "gravatar_id": "",
    "url": "https://api.github.com/users/gdrewb-valve",
    "html_url": "https://github.com/gdrewb-valve",
    "followers_url": "https://api.github.com/users/gdrewb-valve/followers",
    "following_url": "https://api.github.com/users/gdrewb-valve/following{/other_user}",
    "gists_url": "https://api.github.com/users/gdrewb-valve/gists{/gist_id}",
    "starred_url": "https://api.github.com/users/gdrewb-valve/starred{/owner}{/repo}",
    "subscriptions_url": "https://api.github.com/users/gdrewb-valve/subscriptions",
    "organizations_url": "https://api.github.com/users/gdrewb-valve/orgs",
    "repos_url": "https://api.github.com/users/gdrewb-valve/repos",
    "events_url": "https://api.github.com/users/gdrewb-valve/events{/privacy}",
    "received_events_url": "https://api.github.com/users/gdrewb-valve/received_events",
    "type": "User",
    "site_admin": false
  },
  "created_at": "2013-11-18T19:55:16Z",
  "updated_at": "2013-11-18T19:55:16Z",
  "body": "We will need a crash ID to get further on this problem."
}
, {
  "url": "https://api.github.com/repos/ValveSoftware/steam-for-linux/issues/comments/28744880",
  "html_url": "https://github.com/ValveSoftware/steam-for-linux/issues/2994#issuecomment-28744880",
  "issue_url": "https://api.github.com/repos/ValveSoftware/steam-for-linux/issues/2994",
  "id": 28744880,
  "user": {
    "login": "MrSchism",
    "id": 3085862,
    "avatar_url": "https://avatars.githubusercontent.com/u/3085862?v=3",
    "gravatar_id": "",
    "url": "https://api.github.com/users/MrSchism",
    "html_url": "https://github.com/MrSchism",
    "followers_url": "https://api.github.com/users/MrSchism/followers",
    "following_url": "https://api.github.com/users/MrSchism/following{/other_user}",
    "gists_url": "https://api.github.com/users/MrSchism/gists{/gist_id}",
    "starred_url": "https://api.github.com/users/MrSchism/starred{/owner}{/repo}",
    "subscriptions_url": "https://api.github.com/users/MrSchism/subscriptions",
    "organizations_url": "https://api.github.com/users/MrSchism/orgs",
    "repos_url": "https://api.github.com/users/MrSchism/repos",
    "events_url": "https://api.github.com/users/MrSchism/events{/privacy}",
    "received_events_url": "https://api.github.com/users/MrSchism/received_events",
    "type": "User",
    "site_admin": false
  },
  "created_at": "2013-11-18T22:30:43Z",
  "updated_at": "2013-11-18T22:32:47Z",
  "body": "It's worth mentioning that my experience with HD4000 series integrated and big picture is abysmal. \r\n\r\nCrashIDs are available in the steam info (Help>System Information).\r\n\r\nOn an aside, to clarify some things, running Steam as root is not officially supported.  Furthermore, while I understand your need to be root for most of the things you do, the vast majority of professionals, admins, professors, students, and end users would say that running as root exclusively is a bad idea.  This is especially true with the new focus on Linux as a mainstream desktop (partially spurred by Steam and the poor reception of Win8) and the interest in viable 0days on a blooming market.\r\n\r\nThat being said, it's your risk to take and most likely does NOT have anything to do with the issue.  What may have something to do with it is the custom everything you've decided to deploy.  As @gdrewb-valve mentioned, a crash report would be infinitely useful."
}
, {
  "url": "https://api.github.com/repos/ValveSoftware/steam-for-linux/issues/comments/28760468",
  "html_url": "https://github.com/ValveSoftware/steam-for-linux/issues/2994#issuecomment-28760468",
  "issue_url": "https://api.github.com/repos/ValveSoftware/steam-for-linux/issues/2994",
  "id": 28760468,
  "user": {
    "login": "Pon3",
    "id": 5934300,
    "avatar_url": "https://avatars.githubusercontent.com/u/5934300?v=3",
    "gravatar_id": "",
    "url": "https://api.github.com/users/Pon3",
    "html_url": "https://github.com/Pon3",
    "followers_url": "https://api.github.com/users/Pon3/followers",
    "following_url": "https://api.github.com/users/Pon3/following{/other_user}",
    "gists_url": "https://api.github.com/users/Pon3/gists{/gist_id}",
    "starred_url": "https://api.github.com/users/Pon3/starred{/owner}{/repo}",
    "subscriptions_url": "https://api.github.com/users/Pon3/subscriptions",
    "organizations_url": "https://api.github.com/users/Pon3/orgs",
    "repos_url": "https://api.github.com/users/Pon3/repos",
    "events_url": "https://api.github.com/users/Pon3/events{/privacy}",
    "received_events_url": "https://api.github.com/users/Pon3/received_events",
    "type": "User",
    "site_admin": false
  },
  "created_at": "2013-11-19T02:35:56Z",
  "updated_at": "2013-11-19T02:35:56Z",
  "body": "@gdrewb-valve\r\nThere is no crash reports"
}
, {
  "url": "https://api.github.com/repos/ValveSoftware/steam-for-linux/issues/comments/28760708",
  "html_url": "https://github.com/ValveSoftware/steam-for-linux/issues/2994#issuecomment-28760708",
  "issue_url": "https://api.github.com/repos/ValveSoftware/steam-for-linux/issues/2994",
  "id": 28760708,
  "user": {
    "login": "Pon3",
    "id": 5934300,
    "avatar_url": "https://avatars.githubusercontent.com/u/5934300?v=3",
    "gravatar_id": "",
    "url": "https://api.github.com/users/Pon3",
    "html_url": "https://github.com/Pon3",
    "followers_url": "https://api.github.com/users/Pon3/followers",
    "following_url": "https://api.github.com/users/Pon3/following{/other_user}",
    "gists_url": "https://api.github.com/users/Pon3/gists{/gist_id}",
    "starred_url": "https://api.github.com/users/Pon3/starred{/owner}{/repo}",
    "subscriptions_url": "https://api.github.com/users/Pon3/subscriptions",
    "organizations_url": "https://api.github.com/users/Pon3/orgs",
    "repos_url": "https://api.github.com/users/Pon3/repos",
    "events_url": "https://api.github.com/users/Pon3/events{/privacy}",
    "received_events_url": "https://api.github.com/users/Pon3/received_events",
    "type": "User",
    "site_admin": false
  },
  "created_at": "2013-11-19T02:42:00Z",
  "updated_at": "2013-11-19T02:42:00Z",
  "body": "Problem has been fixed. Almost. \r\n1. Crash has been fixed after latest update. \r\n2. I still can't watch anything in Youtube. (lib32-flashplugin installed)"
}
, {
  "url": "https://api.github.com/repos/ValveSoftware/steam-for-linux/issues/comments/28760764",
  "html_url": "https://github.com/ValveSoftware/steam-for-linux/issues/2994#issuecomment-28760764",
  "issue_url": "https://api.github.com/repos/ValveSoftware/steam-for-linux/issues/2994",
  "id": 28760764,
  "user": {
    "login": "Pon3",
    "id": 5934300,
    "avatar_url": "https://avatars.githubusercontent.com/u/5934300?v=3",
    "gravatar_id": "",
    "url": "https://api.github.com/users/Pon3",
    "html_url": "https://github.com/Pon3",
    "followers_url": "https://api.github.com/users/Pon3/followers",
    "following_url": "https://api.github.com/users/Pon3/following{/other_user}",
    "gists_url": "https://api.github.com/users/Pon3/gists{/gist_id}",
    "starred_url": "https://api.github.com/users/Pon3/starred{/owner}{/repo}",
    "subscriptions_url": "https://api.github.com/users/Pon3/subscriptions",
    "organizations_url": "https://api.github.com/users/Pon3/orgs",
    "repos_url": "https://api.github.com/users/Pon3/repos",
    "events_url": "https://api.github.com/users/Pon3/events{/privacy}",
    "received_events_url": "https://api.github.com/users/Pon3/received_events",
    "type": "User",
    "site_admin": false
  },
  "created_at": "2013-11-19T02:43:23Z",
  "updated_at": "2013-11-19T02:43:23Z",
  "body": "Anyway, closing. "
}
, {
  "url": "https://api.github.com/repos/ValveSoftware/steam-for-linux/issues/comments/28885295",
  "html_url": "https://github.com/ValveSoftware/steam-for-linux/issues/2994#issuecomment-28885295",
  "issue_url": "https://api.github.com/repos/ValveSoftware/steam-for-linux/issues/2994",
  "id": 28885295,
  "user": {
    "login": "MrSchism",
    "id": 3085862,
    "avatar_url": "https://avatars.githubusercontent.com/u/3085862?v=3",
    "gravatar_id": "",
    "url": "https://api.github.com/users/MrSchism",
    "html_url": "https://github.com/MrSchism",
    "followers_url": "https://api.github.com/users/MrSchism/followers",
    "following_url": "https://api.github.com/users/MrSchism/following{/other_user}",
    "gists_url": "https://api.github.com/users/MrSchism/gists{/gist_id}",
    "starred_url": "https://api.github.com/users/MrSchism/starred{/owner}{/repo}",
    "subscriptions_url": "https://api.github.com/users/MrSchism/subscriptions",
    "organizations_url": "https://api.github.com/users/MrSchism/orgs",
    "repos_url": "https://api.github.com/users/MrSchism/repos",
    "events_url": "https://api.github.com/users/MrSchism/events{/privacy}",
    "received_events_url": "https://api.github.com/users/MrSchism/received_events",
    "type": "User",
    "site_admin": false
  },
  "created_at": "2013-11-20T12:27:22Z",
  "updated_at": "2013-11-20T12:27:22Z",
  "body": "@Pon3 - There are a few tricks to getting the flash plugin working properly with the client.  Just look around and you'll probably find one of the solutions works.\r\n"
}
, {
  "url": "https://api.github.com/repos/ValveSoftware/steam-for-linux/issues/comments/28900325",
  "html_url": "https://github.com/ValveSoftware/steam-for-linux/issues/2994#issuecomment-28900325",
  "issue_url": "https://api.github.com/repos/ValveSoftware/steam-for-linux/issues/2994",
  "id": 28900325,
  "user": {
    "login": "Pon3",
    "id": 5934300,
    "avatar_url": "https://avatars.githubusercontent.com/u/5934300?v=3",
    "gravatar_id": "",
    "url": "https://api.github.com/users/Pon3",
    "html_url": "https://github.com/Pon3",
    "followers_url": "https://api.github.com/users/Pon3/followers",
    "following_url": "https://api.github.com/users/Pon3/following{/other_user}",
    "gists_url": "https://api.github.com/users/Pon3/gists{/gist_id}",
    "starred_url": "https://api.github.com/users/Pon3/starred{/owner}{/repo}",
    "subscriptions_url": "https://api.github.com/users/Pon3/subscriptions",
    "organizations_url": "https://api.github.com/users/Pon3/orgs",
    "repos_url": "https://api.github.com/users/Pon3/repos",
    "events_url": "https://api.github.com/users/Pon3/events{/privacy}",
    "received_events_url": "https://api.github.com/users/Pon3/received_events",
    "type": "User",
    "site_admin": false
  },
  "created_at": "2013-11-20T15:50:20Z",
  "updated_at": "2013-11-20T15:50:20Z",
  "body": "@MrSchism\r\nYes, thanks for respond"
}
]
