[
{
  "url": "https://api.github.com/repos/applidium/Shutterbug/issues/comments/21204860",
  "html_url": "https://github.com/applidium/Shutterbug/issues/5#issuecomment-21204860",
  "issue_url": "https://api.github.com/repos/applidium/Shutterbug/issues/5",
  "id": 21204860,
  "user": {
    "login": "acq",
    "id": 4502798,
    "avatar_url": "https://avatars.githubusercontent.com/u/4502798?v=3",
    "gravatar_id": "",
    "url": "https://api.github.com/users/acq",
    "html_url": "https://github.com/acq",
    "followers_url": "https://api.github.com/users/acq/followers",
    "following_url": "https://api.github.com/users/acq/following{/other_user}",
    "gists_url": "https://api.github.com/users/acq/gists{/gist_id}",
    "starred_url": "https://api.github.com/users/acq/starred{/owner}{/repo}",
    "subscriptions_url": "https://api.github.com/users/acq/subscriptions",
    "organizations_url": "https://api.github.com/users/acq/orgs",
    "repos_url": "https://api.github.com/users/acq/repos",
    "events_url": "https://api.github.com/users/acq/events{/privacy}",
    "received_events_url": "https://api.github.com/users/acq/received_events",
    "type": "User",
    "site_admin": false
  },
  "created_at": "2013-07-18T18:37:43Z",
  "updated_at": "2013-07-18T18:37:43Z",
  "body": "Hi\r\nThanks for the feedback !\r\nActually, there already is a way to do that : you can query the cache via `queryCache` (on ImageCache). You give it the cache key and an `ImageCacheListener` (which is able to call you back on different methods whether it found an image in the cache or not).\r\nHere is an example :\r\n```\r\nImageCache.getSharedImageCache(context).queryCache(ShutterbugManager.getCacheKey(url), new ImageCacheListener() {\r\n    public void onImageNotFound(ImageCache imageCache, String key, DownloadRequest downloadRequest) {\r\n    }\r\n\r\n    public void onImageFound(ImageCache imageCache, Bitmap bitmap, String key, DownloadRequest downloadRequest) {\r\n    }\r\n}, null);\r\n```\r\n\r\nAlso, you should not duplicate `getCacheKey`. I made it public (and static), so you can access it directly. Since the content of the method was changed recently, I encourage you to link back to the `ShutterbugManager` one."
}
]
