[
{
  "url": "https://api.github.com/repos/cucumber/cucumber-jvm/issues/comments/25728513",
  "html_url": "https://github.com/cucumber/cucumber-jvm/pull/601#issuecomment-25728513",
  "issue_url": "https://api.github.com/repos/cucumber/cucumber-jvm/issues/601",
  "id": 25728513,
  "user": {
    "login": "tobyclemson",
    "id": 16415,
    "avatar_url": "https://avatars.githubusercontent.com/u/16415?v=3",
    "gravatar_id": "",
    "url": "https://api.github.com/users/tobyclemson",
    "html_url": "https://github.com/tobyclemson",
    "followers_url": "https://api.github.com/users/tobyclemson/followers",
    "following_url": "https://api.github.com/users/tobyclemson/following{/other_user}",
    "gists_url": "https://api.github.com/users/tobyclemson/gists{/gist_id}",
    "starred_url": "https://api.github.com/users/tobyclemson/starred{/owner}{/repo}",
    "subscriptions_url": "https://api.github.com/users/tobyclemson/subscriptions",
    "organizations_url": "https://api.github.com/users/tobyclemson/orgs",
    "repos_url": "https://api.github.com/users/tobyclemson/repos",
    "events_url": "https://api.github.com/users/tobyclemson/events{/privacy}",
    "received_events_url": "https://api.github.com/users/tobyclemson/received_events",
    "type": "User",
    "site_admin": false
  },
  "created_at": "2013-10-04T20:39:54Z",
  "updated_at": "2013-10-04T20:39:54Z",
  "body": ":+1: "
}
, {
  "url": "https://api.github.com/repos/cucumber/cucumber-jvm/issues/comments/105284749",
  "html_url": "https://github.com/cucumber/cucumber-jvm/pull/601#issuecomment-105284749",
  "issue_url": "https://api.github.com/repos/cucumber/cucumber-jvm/issues/601",
  "id": 105284749,
  "user": {
    "login": "dkowis",
    "id": 28048,
    "avatar_url": "https://avatars.githubusercontent.com/u/28048?v=3",
    "gravatar_id": "",
    "url": "https://api.github.com/users/dkowis",
    "html_url": "https://github.com/dkowis",
    "followers_url": "https://api.github.com/users/dkowis/followers",
    "following_url": "https://api.github.com/users/dkowis/following{/other_user}",
    "gists_url": "https://api.github.com/users/dkowis/gists{/gist_id}",
    "starred_url": "https://api.github.com/users/dkowis/starred{/owner}{/repo}",
    "subscriptions_url": "https://api.github.com/users/dkowis/subscriptions",
    "organizations_url": "https://api.github.com/users/dkowis/orgs",
    "repos_url": "https://api.github.com/users/dkowis/repos",
    "events_url": "https://api.github.com/users/dkowis/events{/privacy}",
    "received_events_url": "https://api.github.com/users/dkowis/received_events",
    "type": "User",
    "site_admin": false
  },
  "created_at": "2015-05-25T18:21:45Z",
  "updated_at": "2015-05-25T18:21:45Z",
  "body": "The travis build no longer succeeds, mostly because of versioning. I'm not sure how to tell travis to run the test again so you can see the failures..."
}
, {
  "url": "https://api.github.com/repos/cucumber/cucumber-jvm/issues/comments/105285156",
  "html_url": "https://github.com/cucumber/cucumber-jvm/pull/601#issuecomment-105285156",
  "issue_url": "https://api.github.com/repos/cucumber/cucumber-jvm/issues/601",
  "id": 105285156,
  "user": {
    "login": "dkowis",
    "id": 28048,
    "avatar_url": "https://avatars.githubusercontent.com/u/28048?v=3",
    "gravatar_id": "",
    "url": "https://api.github.com/users/dkowis",
    "html_url": "https://github.com/dkowis",
    "followers_url": "https://api.github.com/users/dkowis/followers",
    "following_url": "https://api.github.com/users/dkowis/following{/other_user}",
    "gists_url": "https://api.github.com/users/dkowis/gists{/gist_id}",
    "starred_url": "https://api.github.com/users/dkowis/starred{/owner}{/repo}",
    "subscriptions_url": "https://api.github.com/users/dkowis/subscriptions",
    "organizations_url": "https://api.github.com/users/dkowis/orgs",
    "repos_url": "https://api.github.com/users/dkowis/repos",
    "events_url": "https://api.github.com/users/dkowis/events{/privacy}",
    "received_events_url": "https://api.github.com/users/dkowis/received_events",
    "type": "User",
    "site_admin": false
  },
  "created_at": "2015-05-25T18:25:57Z",
  "updated_at": "2015-05-25T18:25:57Z",
  "body": "Also, I'm considering letting this one close, because it's over 2 years old. Does anyone still want this one? (One can just use spring in scala natively for dependency injection if they want...)"
}
]
