[
{
  "url": "https://api.github.com/repos/Azure/azure-iot-remote-monitoring/issues/comments/153120693",
  "html_url": "https://github.com/Azure/azure-iot-remote-monitoring/issues/65#issuecomment-153120693",
  "issue_url": "https://api.github.com/repos/Azure/azure-iot-remote-monitoring/issues/65",
  "id": 153120693,
  "user": {
    "login": "jamesweb-ms",
    "id": 10124358,
    "avatar_url": "https://avatars.githubusercontent.com/u/10124358?v=3",
    "gravatar_id": "",
    "url": "https://api.github.com/users/jamesweb-ms",
    "html_url": "https://github.com/jamesweb-ms",
    "followers_url": "https://api.github.com/users/jamesweb-ms/followers",
    "following_url": "https://api.github.com/users/jamesweb-ms/following{/other_user}",
    "gists_url": "https://api.github.com/users/jamesweb-ms/gists{/gist_id}",
    "starred_url": "https://api.github.com/users/jamesweb-ms/starred{/owner}{/repo}",
    "subscriptions_url": "https://api.github.com/users/jamesweb-ms/subscriptions",
    "organizations_url": "https://api.github.com/users/jamesweb-ms/orgs",
    "repos_url": "https://api.github.com/users/jamesweb-ms/repos",
    "events_url": "https://api.github.com/users/jamesweb-ms/events{/privacy}",
    "received_events_url": "https://api.github.com/users/jamesweb-ms/received_events",
    "type": "User",
    "site_admin": false
  },
  "created_at": "2015-11-02T18:43:12Z",
  "updated_at": "2015-11-02T18:43:12Z",
  "body": "Good catch.  You want to make a pull request off of October-Integration?"
}
]
