[
{
  "url": "https://api.github.com/repos/facebook/presto/issues/comments/96971541",
  "html_url": "https://github.com/facebook/presto/issues/2806#issuecomment-96971541",
  "issue_url": "https://api.github.com/repos/facebook/presto/issues/2806",
  "id": 96971541,
  "user": {
    "login": "damiencarol",
    "id": 1694940,
    "avatar_url": "https://avatars.githubusercontent.com/u/1694940?v=3",
    "gravatar_id": "",
    "url": "https://api.github.com/users/damiencarol",
    "html_url": "https://github.com/damiencarol",
    "followers_url": "https://api.github.com/users/damiencarol/followers",
    "following_url": "https://api.github.com/users/damiencarol/following{/other_user}",
    "gists_url": "https://api.github.com/users/damiencarol/gists{/gist_id}",
    "starred_url": "https://api.github.com/users/damiencarol/starred{/owner}{/repo}",
    "subscriptions_url": "https://api.github.com/users/damiencarol/subscriptions",
    "organizations_url": "https://api.github.com/users/damiencarol/orgs",
    "repos_url": "https://api.github.com/users/damiencarol/repos",
    "events_url": "https://api.github.com/users/damiencarol/events{/privacy}",
    "received_events_url": "https://api.github.com/users/damiencarol/received_events",
    "type": "User",
    "site_admin": false
  },
  "created_at": "2015-04-28T08:25:07Z",
  "updated_at": "2015-04-28T08:25:07Z",
  "body": "+1 for this one even if ORC is more fast currently."
}
, {
  "url": "https://api.github.com/repos/facebook/presto/issues/comments/97171621",
  "html_url": "https://github.com/facebook/presto/issues/2806#issuecomment-97171621",
  "issue_url": "https://api.github.com/repos/facebook/presto/issues/2806",
  "id": 97171621,
  "user": {
    "login": "zhenxiao",
    "id": 1274155,
    "avatar_url": "https://avatars.githubusercontent.com/u/1274155?v=3",
    "gravatar_id": "",
    "url": "https://api.github.com/users/zhenxiao",
    "html_url": "https://github.com/zhenxiao",
    "followers_url": "https://api.github.com/users/zhenxiao/followers",
    "following_url": "https://api.github.com/users/zhenxiao/following{/other_user}",
    "gists_url": "https://api.github.com/users/zhenxiao/gists{/gist_id}",
    "starred_url": "https://api.github.com/users/zhenxiao/starred{/owner}{/repo}",
    "subscriptions_url": "https://api.github.com/users/zhenxiao/subscriptions",
    "organizations_url": "https://api.github.com/users/zhenxiao/orgs",
    "repos_url": "https://api.github.com/users/zhenxiao/repos",
    "events_url": "https://api.github.com/users/zhenxiao/events{/privacy}",
    "received_events_url": "https://api.github.com/users/zhenxiao/received_events",
    "type": "User",
    "site_admin": false
  },
  "created_at": "2015-04-28T19:04:23Z",
  "updated_at": "2015-04-28T19:04:23Z",
  "body": "+1\r\nin Parquet 1.3.2, stats is not available, 1.6.0 opens the oppotunity to use stats to filter out row group and column chunks, just as how the new ORC reader is doing"
}
, {
  "url": "https://api.github.com/repos/facebook/presto/issues/comments/97192899",
  "html_url": "https://github.com/facebook/presto/issues/2806#issuecomment-97192899",
  "issue_url": "https://api.github.com/repos/facebook/presto/issues/2806",
  "id": 97192899,
  "user": {
    "login": "dain",
    "id": 58298,
    "avatar_url": "https://avatars.githubusercontent.com/u/58298?v=3",
    "gravatar_id": "",
    "url": "https://api.github.com/users/dain",
    "html_url": "https://github.com/dain",
    "followers_url": "https://api.github.com/users/dain/followers",
    "following_url": "https://api.github.com/users/dain/following{/other_user}",
    "gists_url": "https://api.github.com/users/dain/gists{/gist_id}",
    "starred_url": "https://api.github.com/users/dain/starred{/owner}{/repo}",
    "subscriptions_url": "https://api.github.com/users/dain/subscriptions",
    "organizations_url": "https://api.github.com/users/dain/orgs",
    "repos_url": "https://api.github.com/users/dain/repos",
    "events_url": "https://api.github.com/users/dain/events{/privacy}",
    "received_events_url": "https://api.github.com/users/dain/received_events",
    "type": "User",
    "site_admin": false
  },
  "created_at": "2015-04-28T20:10:23Z",
  "updated_at": "2015-04-28T20:10:23Z",
  "body": "Can one of you that uses Parquet sent a pull request?"
}
, {
  "url": "https://api.github.com/repos/facebook/presto/issues/comments/97281174",
  "html_url": "https://github.com/facebook/presto/issues/2806#issuecomment-97281174",
  "issue_url": "https://api.github.com/repos/facebook/presto/issues/2806",
  "id": 97281174,
  "user": {
    "login": "zhenxiao",
    "id": 1274155,
    "avatar_url": "https://avatars.githubusercontent.com/u/1274155?v=3",
    "gravatar_id": "",
    "url": "https://api.github.com/users/zhenxiao",
    "html_url": "https://github.com/zhenxiao",
    "followers_url": "https://api.github.com/users/zhenxiao/followers",
    "following_url": "https://api.github.com/users/zhenxiao/following{/other_user}",
    "gists_url": "https://api.github.com/users/zhenxiao/gists{/gist_id}",
    "starred_url": "https://api.github.com/users/zhenxiao/starred{/owner}{/repo}",
    "subscriptions_url": "https://api.github.com/users/zhenxiao/subscriptions",
    "organizations_url": "https://api.github.com/users/zhenxiao/orgs",
    "repos_url": "https://api.github.com/users/zhenxiao/repos",
    "events_url": "https://api.github.com/users/zhenxiao/events{/privacy}",
    "received_events_url": "https://api.github.com/users/zhenxiao/received_events",
    "type": "User",
    "site_admin": false
  },
  "created_at": "2015-04-29T01:39:13Z",
  "updated_at": "2015-04-29T01:39:13Z",
  "body": "Shall the shaded jars be updated? I send a PR there:\r\nhttps://github.com/prestodb/presto-hive-apache/pull/13"
}
, {
  "url": "https://api.github.com/repos/facebook/presto/issues/comments/102509633",
  "html_url": "https://github.com/facebook/presto/issues/2806#issuecomment-102509633",
  "issue_url": "https://api.github.com/repos/facebook/presto/issues/2806",
  "id": 102509633,
  "user": {
    "login": "electrum",
    "id": 9230,
    "avatar_url": "https://avatars.githubusercontent.com/u/9230?v=3",
    "gravatar_id": "",
    "url": "https://api.github.com/users/electrum",
    "html_url": "https://github.com/electrum",
    "followers_url": "https://api.github.com/users/electrum/followers",
    "following_url": "https://api.github.com/users/electrum/following{/other_user}",
    "gists_url": "https://api.github.com/users/electrum/gists{/gist_id}",
    "starred_url": "https://api.github.com/users/electrum/starred{/owner}{/repo}",
    "subscriptions_url": "https://api.github.com/users/electrum/subscriptions",
    "organizations_url": "https://api.github.com/users/electrum/orgs",
    "repos_url": "https://api.github.com/users/electrum/repos",
    "events_url": "https://api.github.com/users/electrum/events{/privacy}",
    "received_events_url": "https://api.github.com/users/electrum/received_events",
    "type": "User",
    "site_admin": false
  },
  "created_at": "2015-05-15T19:59:59Z",
  "updated_at": "2015-05-15T19:59:59Z",
  "body": "Merged #2926"
}
]
