[
{
  "url": "https://api.github.com/repos/facebook/presto/issues/comments/38765495",
  "html_url": "https://github.com/facebook/presto/pull/1162#issuecomment-38765495",
  "issue_url": "https://api.github.com/repos/facebook/presto/issues/1162",
  "id": 38765495,
  "user": {
    "login": "martint",
    "id": 14387,
    "avatar_url": "https://avatars.githubusercontent.com/u/14387?v=3",
    "gravatar_id": "",
    "url": "https://api.github.com/users/martint",
    "html_url": "https://github.com/martint",
    "followers_url": "https://api.github.com/users/martint/followers",
    "following_url": "https://api.github.com/users/martint/following{/other_user}",
    "gists_url": "https://api.github.com/users/martint/gists{/gist_id}",
    "starred_url": "https://api.github.com/users/martint/starred{/owner}{/repo}",
    "subscriptions_url": "https://api.github.com/users/martint/subscriptions",
    "organizations_url": "https://api.github.com/users/martint/orgs",
    "repos_url": "https://api.github.com/users/martint/repos",
    "events_url": "https://api.github.com/users/martint/events{/privacy}",
    "received_events_url": "https://api.github.com/users/martint/received_events",
    "type": "User",
    "site_admin": false
  },
  "created_at": "2014-03-27T03:21:46Z",
  "updated_at": "2014-03-27T03:21:46Z",
  "body": "That's odd. That used to work before. There wasn't any explicit optimization step, but it was a side-effect of how the planner works.\r\n\r\nAnyway, looks good"
}
, {
  "url": "https://api.github.com/repos/facebook/presto/issues/comments/38766713",
  "html_url": "https://github.com/facebook/presto/pull/1162#issuecomment-38766713",
  "issue_url": "https://api.github.com/repos/facebook/presto/issues/1162",
  "id": 38766713,
  "user": {
    "login": "erichwang",
    "id": 737851,
    "avatar_url": "https://avatars.githubusercontent.com/u/737851?v=3",
    "gravatar_id": "",
    "url": "https://api.github.com/users/erichwang",
    "html_url": "https://github.com/erichwang",
    "followers_url": "https://api.github.com/users/erichwang/followers",
    "following_url": "https://api.github.com/users/erichwang/following{/other_user}",
    "gists_url": "https://api.github.com/users/erichwang/gists{/gist_id}",
    "starred_url": "https://api.github.com/users/erichwang/starred{/owner}{/repo}",
    "subscriptions_url": "https://api.github.com/users/erichwang/subscriptions",
    "organizations_url": "https://api.github.com/users/erichwang/orgs",
    "repos_url": "https://api.github.com/users/erichwang/repos",
    "events_url": "https://api.github.com/users/erichwang/events{/privacy}",
    "received_events_url": "https://api.github.com/users/erichwang/received_events",
    "type": "User",
    "site_admin": false
  },
  "created_at": "2014-03-27T03:50:33Z",
  "updated_at": "2014-03-27T03:50:33Z",
  "body": "Actually this is a slightly different case than what you are thinking of. So the planner does take care of this if you explicitly call out a the expressions in a projection: like SELECT a+1, a+1 from A. and it happens in the initial planning phase. The problem here is that the duplicate projections expressions are implicitly generated when we coalesce multiple consecutive projections together from under a JOIN. For example consider this:\r\nSELECT * from (SELECT dummy || 'x' as dummy from dual) a JOIN dual b ON a.dummy = b.dummy;\r\nThe JOIN planner will add a projection to generate a new a.dummy for the equijoin even though an existing one was already used to produce the query output."
}
]
