[
{
  "url": "https://api.github.com/repos/facebook/presto/issues/comments/101787967",
  "html_url": "https://github.com/facebook/presto/pull/2915#issuecomment-101787967",
  "issue_url": "https://api.github.com/repos/facebook/presto/issues/2915",
  "id": 101787967,
  "user": {
    "login": "dain",
    "id": 58298,
    "avatar_url": "https://avatars.githubusercontent.com/u/58298?v=3",
    "gravatar_id": "",
    "url": "https://api.github.com/users/dain",
    "html_url": "https://github.com/dain",
    "followers_url": "https://api.github.com/users/dain/followers",
    "following_url": "https://api.github.com/users/dain/following{/other_user}",
    "gists_url": "https://api.github.com/users/dain/gists{/gist_id}",
    "starred_url": "https://api.github.com/users/dain/starred{/owner}{/repo}",
    "subscriptions_url": "https://api.github.com/users/dain/subscriptions",
    "organizations_url": "https://api.github.com/users/dain/orgs",
    "repos_url": "https://api.github.com/users/dain/repos",
    "events_url": "https://api.github.com/users/dain/events{/privacy}",
    "received_events_url": "https://api.github.com/users/dain/received_events",
    "type": "User",
    "site_admin": false
  },
  "created_at": "2015-05-13T19:35:04Z",
  "updated_at": "2015-05-13T19:35:04Z",
  "body": "looks good"
}
]
