[
{
  "url": "https://api.github.com/repos/facebook/presto/issues/comments/58976115",
  "html_url": "https://github.com/facebook/presto/pull/1807#issuecomment-58976115",
  "issue_url": "https://api.github.com/repos/facebook/presto/issues/1807",
  "id": 58976115,
  "user": {
    "login": "martint",
    "id": 14387,
    "avatar_url": "https://avatars.githubusercontent.com/u/14387?v=3",
    "gravatar_id": "",
    "url": "https://api.github.com/users/martint",
    "html_url": "https://github.com/martint",
    "followers_url": "https://api.github.com/users/martint/followers",
    "following_url": "https://api.github.com/users/martint/following{/other_user}",
    "gists_url": "https://api.github.com/users/martint/gists{/gist_id}",
    "starred_url": "https://api.github.com/users/martint/starred{/owner}{/repo}",
    "subscriptions_url": "https://api.github.com/users/martint/subscriptions",
    "organizations_url": "https://api.github.com/users/martint/orgs",
    "repos_url": "https://api.github.com/users/martint/repos",
    "events_url": "https://api.github.com/users/martint/events{/privacy}",
    "received_events_url": "https://api.github.com/users/martint/received_events",
    "type": "User",
    "site_admin": false
  },
  "created_at": "2014-10-14T00:53:49Z",
  "updated_at": "2014-10-14T00:53:49Z",
  "body": "ErrorCode is currently json-serializable. How does that work with the new structure?\r\n\r\nAlso, I'm not convinced we should introduce a type hierarchy for error codes.\r\n\r\n(I haven't look at the code, yet)"
}
, {
  "url": "https://api.github.com/repos/facebook/presto/issues/comments/58979137",
  "html_url": "https://github.com/facebook/presto/pull/1807#issuecomment-58979137",
  "issue_url": "https://api.github.com/repos/facebook/presto/issues/1807",
  "id": 58979137,
  "user": {
    "login": "electrum",
    "id": 9230,
    "avatar_url": "https://avatars.githubusercontent.com/u/9230?v=3",
    "gravatar_id": "",
    "url": "https://api.github.com/users/electrum",
    "html_url": "https://github.com/electrum",
    "followers_url": "https://api.github.com/users/electrum/followers",
    "following_url": "https://api.github.com/users/electrum/following{/other_user}",
    "gists_url": "https://api.github.com/users/electrum/gists{/gist_id}",
    "starred_url": "https://api.github.com/users/electrum/starred{/owner}{/repo}",
    "subscriptions_url": "https://api.github.com/users/electrum/subscriptions",
    "organizations_url": "https://api.github.com/users/electrum/orgs",
    "repos_url": "https://api.github.com/users/electrum/repos",
    "events_url": "https://api.github.com/users/electrum/events{/privacy}",
    "received_events_url": "https://api.github.com/users/electrum/received_events",
    "type": "User",
    "site_admin": false
  },
  "created_at": "2014-10-14T01:38:21Z",
  "updated_at": "2014-10-14T01:38:21Z",
  "body": "The serialization seems a bit hacky. What about an ErrorCodeSupplier interface that things like StandardErrorCode implement? Then make PrestoException take that instead of ErrorCode. This keeps call sites and serialization clean.="
}
, {
  "url": "https://api.github.com/repos/facebook/presto/issues/comments/58986681",
  "html_url": "https://github.com/facebook/presto/pull/1807#issuecomment-58986681",
  "issue_url": "https://api.github.com/repos/facebook/presto/issues/1807",
  "id": 58986681,
  "user": {
    "login": "cberner",
    "id": 842688,
    "avatar_url": "https://avatars.githubusercontent.com/u/842688?v=3",
    "gravatar_id": "",
    "url": "https://api.github.com/users/cberner",
    "html_url": "https://github.com/cberner",
    "followers_url": "https://api.github.com/users/cberner/followers",
    "following_url": "https://api.github.com/users/cberner/following{/other_user}",
    "gists_url": "https://api.github.com/users/cberner/gists{/gist_id}",
    "starred_url": "https://api.github.com/users/cberner/starred{/owner}{/repo}",
    "subscriptions_url": "https://api.github.com/users/cberner/subscriptions",
    "organizations_url": "https://api.github.com/users/cberner/orgs",
    "repos_url": "https://api.github.com/users/cberner/repos",
    "events_url": "https://api.github.com/users/cberner/events{/privacy}",
    "received_events_url": "https://api.github.com/users/cberner/received_events",
    "type": "User",
    "site_admin": false
  },
  "created_at": "2014-10-14T03:45:42Z",
  "updated_at": "2014-10-14T03:45:42Z",
  "body": "sure, I can do that instead"
}
, {
  "url": "https://api.github.com/repos/facebook/presto/issues/comments/59126086",
  "html_url": "https://github.com/facebook/presto/pull/1807#issuecomment-59126086",
  "issue_url": "https://api.github.com/repos/facebook/presto/issues/1807",
  "id": 59126086,
  "user": {
    "login": "electrum",
    "id": 9230,
    "avatar_url": "https://avatars.githubusercontent.com/u/9230?v=3",
    "gravatar_id": "",
    "url": "https://api.github.com/users/electrum",
    "html_url": "https://github.com/electrum",
    "followers_url": "https://api.github.com/users/electrum/followers",
    "following_url": "https://api.github.com/users/electrum/following{/other_user}",
    "gists_url": "https://api.github.com/users/electrum/gists{/gist_id}",
    "starred_url": "https://api.github.com/users/electrum/starred{/owner}{/repo}",
    "subscriptions_url": "https://api.github.com/users/electrum/subscriptions",
    "organizations_url": "https://api.github.com/users/electrum/orgs",
    "repos_url": "https://api.github.com/users/electrum/repos",
    "events_url": "https://api.github.com/users/electrum/events{/privacy}",
    "received_events_url": "https://api.github.com/users/electrum/received_events",
    "type": "User",
    "site_admin": false
  },
  "created_at": "2014-10-14T22:13:44Z",
  "updated_at": "2014-10-14T22:13:44Z",
  "body": "Rename the commit message"
}
, {
  "url": "https://api.github.com/repos/facebook/presto/issues/comments/59126096",
  "html_url": "https://github.com/facebook/presto/pull/1807#issuecomment-59126096",
  "issue_url": "https://api.github.com/repos/facebook/presto/issues/1807",
  "id": 59126096,
  "user": {
    "login": "electrum",
    "id": 9230,
    "avatar_url": "https://avatars.githubusercontent.com/u/9230?v=3",
    "gravatar_id": "",
    "url": "https://api.github.com/users/electrum",
    "html_url": "https://github.com/electrum",
    "followers_url": "https://api.github.com/users/electrum/followers",
    "following_url": "https://api.github.com/users/electrum/following{/other_user}",
    "gists_url": "https://api.github.com/users/electrum/gists{/gist_id}",
    "starred_url": "https://api.github.com/users/electrum/starred{/owner}{/repo}",
    "subscriptions_url": "https://api.github.com/users/electrum/subscriptions",
    "organizations_url": "https://api.github.com/users/electrum/orgs",
    "repos_url": "https://api.github.com/users/electrum/repos",
    "events_url": "https://api.github.com/users/electrum/events{/privacy}",
    "received_events_url": "https://api.github.com/users/electrum/received_events",
    "type": "User",
    "site_admin": false
  },
  "created_at": "2014-10-14T22:13:48Z",
  "updated_at": "2014-10-14T22:13:48Z",
  "body": "Looks good"
}
]
