[
{
  "url": "https://api.github.com/repos/facebook/presto/issues/comments/176511209",
  "html_url": "https://github.com/facebook/presto/pull/4424#issuecomment-176511209",
  "issue_url": "https://api.github.com/repos/facebook/presto/issues/4424",
  "id": 176511209,
  "user": {
    "login": "haozhun",
    "id": 2020503,
    "avatar_url": "https://avatars.githubusercontent.com/u/2020503?v=3",
    "gravatar_id": "",
    "url": "https://api.github.com/users/haozhun",
    "html_url": "https://github.com/haozhun",
    "followers_url": "https://api.github.com/users/haozhun/followers",
    "following_url": "https://api.github.com/users/haozhun/following{/other_user}",
    "gists_url": "https://api.github.com/users/haozhun/gists{/gist_id}",
    "starred_url": "https://api.github.com/users/haozhun/starred{/owner}{/repo}",
    "subscriptions_url": "https://api.github.com/users/haozhun/subscriptions",
    "organizations_url": "https://api.github.com/users/haozhun/orgs",
    "repos_url": "https://api.github.com/users/haozhun/repos",
    "events_url": "https://api.github.com/users/haozhun/events{/privacy}",
    "received_events_url": "https://api.github.com/users/haozhun/received_events",
    "type": "User",
    "site_admin": false
  },
  "created_at": "2016-01-29T01:26:43Z",
  "updated_at": "2016-01-29T20:43:31Z",
  "body": "@electrum suggested that `CustomTablePropertyHandler` should be renamed, and proposed `TablePropertyHandler`. @electrum suggest that I should get opinion from @dain."
}
, {
  "url": "https://api.github.com/repos/facebook/presto/issues/comments/178087785",
  "html_url": "https://github.com/facebook/presto/pull/4424#issuecomment-178087785",
  "issue_url": "https://api.github.com/repos/facebook/presto/issues/4424",
  "id": 178087785,
  "user": {
    "login": "haozhun",
    "id": 2020503,
    "avatar_url": "https://avatars.githubusercontent.com/u/2020503?v=3",
    "gravatar_id": "",
    "url": "https://api.github.com/users/haozhun",
    "html_url": "https://github.com/haozhun",
    "followers_url": "https://api.github.com/users/haozhun/followers",
    "following_url": "https://api.github.com/users/haozhun/following{/other_user}",
    "gists_url": "https://api.github.com/users/haozhun/gists{/gist_id}",
    "starred_url": "https://api.github.com/users/haozhun/starred{/owner}{/repo}",
    "subscriptions_url": "https://api.github.com/users/haozhun/subscriptions",
    "organizations_url": "https://api.github.com/users/haozhun/orgs",
    "repos_url": "https://api.github.com/users/haozhun/repos",
    "events_url": "https://api.github.com/users/haozhun/events{/privacy}",
    "received_events_url": "https://api.github.com/users/haozhun/received_events",
    "type": "User",
    "site_admin": false
  },
  "created_at": "2016-02-01T17:34:27Z",
  "updated_at": "2016-02-01T17:34:27Z",
  "body": "@electrum updated."
}
, {
  "url": "https://api.github.com/repos/facebook/presto/issues/comments/180616824",
  "html_url": "https://github.com/facebook/presto/pull/4424#issuecomment-180616824",
  "issue_url": "https://api.github.com/repos/facebook/presto/issues/4424",
  "id": 180616824,
  "user": {
    "login": "electrum",
    "id": 9230,
    "avatar_url": "https://avatars.githubusercontent.com/u/9230?v=3",
    "gravatar_id": "",
    "url": "https://api.github.com/users/electrum",
    "html_url": "https://github.com/electrum",
    "followers_url": "https://api.github.com/users/electrum/followers",
    "following_url": "https://api.github.com/users/electrum/following{/other_user}",
    "gists_url": "https://api.github.com/users/electrum/gists{/gist_id}",
    "starred_url": "https://api.github.com/users/electrum/starred{/owner}{/repo}",
    "subscriptions_url": "https://api.github.com/users/electrum/subscriptions",
    "organizations_url": "https://api.github.com/users/electrum/orgs",
    "repos_url": "https://api.github.com/users/electrum/repos",
    "events_url": "https://api.github.com/users/electrum/events{/privacy}",
    "received_events_url": "https://api.github.com/users/electrum/received_events",
    "type": "User",
    "site_admin": false
  },
  "created_at": "2016-02-05T23:14:11Z",
  "updated_at": "2016-02-05T23:14:11Z",
  "body": "Minor comments, otherwise looks good"
}
]
