[
{
  "url": "https://api.github.com/repos/facebook/presto/issues/comments/155612785",
  "html_url": "https://github.com/facebook/presto/pull/3941#issuecomment-155612785",
  "issue_url": "https://api.github.com/repos/facebook/presto/issues/3941",
  "id": 155612785,
  "user": {
    "login": "martint",
    "id": 14387,
    "avatar_url": "https://avatars.githubusercontent.com/u/14387?v=3",
    "gravatar_id": "",
    "url": "https://api.github.com/users/martint",
    "html_url": "https://github.com/martint",
    "followers_url": "https://api.github.com/users/martint/followers",
    "following_url": "https://api.github.com/users/martint/following{/other_user}",
    "gists_url": "https://api.github.com/users/martint/gists{/gist_id}",
    "starred_url": "https://api.github.com/users/martint/starred{/owner}{/repo}",
    "subscriptions_url": "https://api.github.com/users/martint/subscriptions",
    "organizations_url": "https://api.github.com/users/martint/orgs",
    "repos_url": "https://api.github.com/users/martint/repos",
    "events_url": "https://api.github.com/users/martint/events{/privacy}",
    "received_events_url": "https://api.github.com/users/martint/received_events",
    "type": "User",
    "site_admin": false
  },
  "created_at": "2015-11-11T00:34:52Z",
  "updated_at": "2015-11-11T00:34:52Z",
  "body": "looks good, but take a look at the travis failures."
}
, {
  "url": "https://api.github.com/repos/facebook/presto/issues/comments/155638693",
  "html_url": "https://github.com/facebook/presto/pull/3941#issuecomment-155638693",
  "issue_url": "https://api.github.com/repos/facebook/presto/issues/3941",
  "id": 155638693,
  "user": {
    "login": "electrum",
    "id": 9230,
    "avatar_url": "https://avatars.githubusercontent.com/u/9230?v=3",
    "gravatar_id": "",
    "url": "https://api.github.com/users/electrum",
    "html_url": "https://github.com/electrum",
    "followers_url": "https://api.github.com/users/electrum/followers",
    "following_url": "https://api.github.com/users/electrum/following{/other_user}",
    "gists_url": "https://api.github.com/users/electrum/gists{/gist_id}",
    "starred_url": "https://api.github.com/users/electrum/starred{/owner}{/repo}",
    "subscriptions_url": "https://api.github.com/users/electrum/subscriptions",
    "organizations_url": "https://api.github.com/users/electrum/orgs",
    "repos_url": "https://api.github.com/users/electrum/repos",
    "events_url": "https://api.github.com/users/electrum/events{/privacy}",
    "received_events_url": "https://api.github.com/users/electrum/received_events",
    "type": "User",
    "site_admin": false
  },
  "created_at": "2015-11-11T02:32:57Z",
  "updated_at": "2015-11-11T02:32:57Z",
  "body": "Does the SPI change need release notes?\n"
}
, {
  "url": "https://api.github.com/repos/facebook/presto/issues/comments/155659623",
  "html_url": "https://github.com/facebook/presto/pull/3941#issuecomment-155659623",
  "issue_url": "https://api.github.com/repos/facebook/presto/issues/3941",
  "id": 155659623,
  "user": {
    "login": "erichwang",
    "id": 737851,
    "avatar_url": "https://avatars.githubusercontent.com/u/737851?v=3",
    "gravatar_id": "",
    "url": "https://api.github.com/users/erichwang",
    "html_url": "https://github.com/erichwang",
    "followers_url": "https://api.github.com/users/erichwang/followers",
    "following_url": "https://api.github.com/users/erichwang/following{/other_user}",
    "gists_url": "https://api.github.com/users/erichwang/gists{/gist_id}",
    "starred_url": "https://api.github.com/users/erichwang/starred{/owner}{/repo}",
    "subscriptions_url": "https://api.github.com/users/erichwang/subscriptions",
    "organizations_url": "https://api.github.com/users/erichwang/orgs",
    "repos_url": "https://api.github.com/users/erichwang/repos",
    "events_url": "https://api.github.com/users/erichwang/events{/privacy}",
    "received_events_url": "https://api.github.com/users/erichwang/received_events",
    "type": "User",
    "site_admin": false
  },
  "created_at": "2015-11-11T04:35:08Z",
  "updated_at": "2015-11-11T04:35:08Z",
  "body": "@electrum, nope. this was a regression introduced in trunk"
}
]
