[
{
  "url": "https://api.github.com/repos/facebook/presto/issues/comments/166707711",
  "html_url": "https://github.com/facebook/presto/issues/4224#issuecomment-166707711",
  "issue_url": "https://api.github.com/repos/facebook/presto/issues/4224",
  "id": 166707711,
  "user": {
    "login": "maciejgrzybek",
    "id": 366501,
    "avatar_url": "https://avatars.githubusercontent.com/u/366501?v=3",
    "gravatar_id": "",
    "url": "https://api.github.com/users/maciejgrzybek",
    "html_url": "https://github.com/maciejgrzybek",
    "followers_url": "https://api.github.com/users/maciejgrzybek/followers",
    "following_url": "https://api.github.com/users/maciejgrzybek/following{/other_user}",
    "gists_url": "https://api.github.com/users/maciejgrzybek/gists{/gist_id}",
    "starred_url": "https://api.github.com/users/maciejgrzybek/starred{/owner}{/repo}",
    "subscriptions_url": "https://api.github.com/users/maciejgrzybek/subscriptions",
    "organizations_url": "https://api.github.com/users/maciejgrzybek/orgs",
    "repos_url": "https://api.github.com/users/maciejgrzybek/repos",
    "events_url": "https://api.github.com/users/maciejgrzybek/events{/privacy}",
    "received_events_url": "https://api.github.com/users/maciejgrzybek/received_events",
    "type": "User",
    "site_admin": false
  },
  "created_at": "2015-12-22T19:19:27Z",
  "updated_at": "2015-12-22T19:19:27Z",
  "body": "This would be very useful for external databases while fetching timestamps.\r\nA good example of an issue caused by adjusting a timestamp is a following test case:\r\n```java\r\nwrite_timestamp_to_external_db(timestamp); // without counter-adjustment on write\r\nResultSet rs = connection.createStatement().executeQuery(\"select ts from external_db.table\"); // on presto\r\nTimestamp ts = rs.getTimestamp(1); // adjusted ts\r\nassertThat(ts).isEqualTo(timestamp); // fails\r\n```"
}
, {
  "url": "https://api.github.com/repos/facebook/presto/issues/comments/166951616",
  "html_url": "https://github.com/facebook/presto/issues/4224#issuecomment-166951616",
  "issue_url": "https://api.github.com/repos/facebook/presto/issues/4224",
  "id": 166951616,
  "user": {
    "login": "cawallin",
    "id": 3652644,
    "avatar_url": "https://avatars.githubusercontent.com/u/3652644?v=3",
    "gravatar_id": "",
    "url": "https://api.github.com/users/cawallin",
    "html_url": "https://github.com/cawallin",
    "followers_url": "https://api.github.com/users/cawallin/followers",
    "following_url": "https://api.github.com/users/cawallin/following{/other_user}",
    "gists_url": "https://api.github.com/users/cawallin/gists{/gist_id}",
    "starred_url": "https://api.github.com/users/cawallin/starred{/owner}{/repo}",
    "subscriptions_url": "https://api.github.com/users/cawallin/subscriptions",
    "organizations_url": "https://api.github.com/users/cawallin/orgs",
    "repos_url": "https://api.github.com/users/cawallin/repos",
    "events_url": "https://api.github.com/users/cawallin/events{/privacy}",
    "received_events_url": "https://api.github.com/users/cawallin/received_events",
    "type": "User",
    "site_admin": false
  },
  "created_at": "2015-12-23T17:36:00Z",
  "updated_at": "2015-12-23T17:36:00Z",
  "body": "It is possible to set the TimeZone via the connection: see https://prestodb.io/docs/current/release/release-0.66.html (\"The time zone of the session can be set on a per-query basis using the X-Presto-Time-Zone HTTP header, or via the PrestoConnection.setTimeZoneId(String) method in the JDBC driver.\")"
}
]
