[
{
  "url": "https://api.github.com/repos/facebook/presto/issues/comments/38729276",
  "html_url": "https://github.com/facebook/presto/pull/1154#issuecomment-38729276",
  "issue_url": "https://api.github.com/repos/facebook/presto/issues/1154",
  "id": 38729276,
  "user": {
    "login": "dain",
    "id": 58298,
    "avatar_url": "https://avatars.githubusercontent.com/u/58298?v=3",
    "gravatar_id": "",
    "url": "https://api.github.com/users/dain",
    "html_url": "https://github.com/dain",
    "followers_url": "https://api.github.com/users/dain/followers",
    "following_url": "https://api.github.com/users/dain/following{/other_user}",
    "gists_url": "https://api.github.com/users/dain/gists{/gist_id}",
    "starred_url": "https://api.github.com/users/dain/starred{/owner}{/repo}",
    "subscriptions_url": "https://api.github.com/users/dain/subscriptions",
    "organizations_url": "https://api.github.com/users/dain/orgs",
    "repos_url": "https://api.github.com/users/dain/repos",
    "events_url": "https://api.github.com/users/dain/events{/privacy}",
    "received_events_url": "https://api.github.com/users/dain/received_events",
    "type": "User",
    "site_admin": false
  },
  "created_at": "2014-03-26T19:34:42Z",
  "updated_at": "2014-03-26T19:34:42Z",
  "body": "Looks good"
}
]
