[
{
  "url": "https://api.github.com/repos/aws/aws-sdk-js/issues/comments/25634450",
  "html_url": "https://github.com/aws/aws-sdk-js/pull/164#issuecomment-25634450",
  "issue_url": "https://api.github.com/repos/aws/aws-sdk-js/issues/164",
  "id": 25634450,
  "user": {
    "login": "neonstalwart",
    "id": 84763,
    "avatar_url": "https://avatars.githubusercontent.com/u/84763?v=3",
    "gravatar_id": "",
    "url": "https://api.github.com/users/neonstalwart",
    "html_url": "https://github.com/neonstalwart",
    "followers_url": "https://api.github.com/users/neonstalwart/followers",
    "following_url": "https://api.github.com/users/neonstalwart/following{/other_user}",
    "gists_url": "https://api.github.com/users/neonstalwart/gists{/gist_id}",
    "starred_url": "https://api.github.com/users/neonstalwart/starred{/owner}{/repo}",
    "subscriptions_url": "https://api.github.com/users/neonstalwart/subscriptions",
    "organizations_url": "https://api.github.com/users/neonstalwart/orgs",
    "repos_url": "https://api.github.com/users/neonstalwart/repos",
    "events_url": "https://api.github.com/users/neonstalwart/events{/privacy}",
    "received_events_url": "https://api.github.com/users/neonstalwart/received_events",
    "type": "User",
    "site_admin": false
  },
  "created_at": "2013-10-03T16:14:01Z",
  "updated_at": "2013-10-03T16:14:01Z",
  "body": "i tried to follow your existing style for tests - let me know if it needs to be improved."
}
, {
  "url": "https://api.github.com/repos/aws/aws-sdk-js/issues/comments/25647811",
  "html_url": "https://github.com/aws/aws-sdk-js/pull/164#issuecomment-25647811",
  "issue_url": "https://api.github.com/repos/aws/aws-sdk-js/issues/164",
  "id": 25647811,
  "user": {
    "login": "lsegal",
    "id": 686,
    "avatar_url": "https://avatars.githubusercontent.com/u/686?v=3",
    "gravatar_id": "",
    "url": "https://api.github.com/users/lsegal",
    "html_url": "https://github.com/lsegal",
    "followers_url": "https://api.github.com/users/lsegal/followers",
    "following_url": "https://api.github.com/users/lsegal/following{/other_user}",
    "gists_url": "https://api.github.com/users/lsegal/gists{/gist_id}",
    "starred_url": "https://api.github.com/users/lsegal/starred{/owner}{/repo}",
    "subscriptions_url": "https://api.github.com/users/lsegal/subscriptions",
    "organizations_url": "https://api.github.com/users/lsegal/orgs",
    "repos_url": "https://api.github.com/users/lsegal/repos",
    "events_url": "https://api.github.com/users/lsegal/events{/privacy}",
    "received_events_url": "https://api.github.com/users/lsegal/received_events",
    "type": "User",
    "site_admin": false
  },
  "created_at": "2013-10-03T18:54:03Z",
  "updated_at": "2013-10-03T18:54:03Z",
  "body": "Looks good, Ben. Thanks for the pull request!"
}
]
