[
{
  "url": "https://api.github.com/repos/aws/aws-sdk-js/issues/comments/21845774",
  "html_url": "https://github.com/aws/aws-sdk-js/pull/141#issuecomment-21845774",
  "issue_url": "https://api.github.com/repos/aws/aws-sdk-js/issues/141",
  "id": 21845774,
  "user": {
    "login": "lsegal",
    "id": 686,
    "avatar_url": "https://avatars.githubusercontent.com/u/686?v=3",
    "gravatar_id": "",
    "url": "https://api.github.com/users/lsegal",
    "html_url": "https://github.com/lsegal",
    "followers_url": "https://api.github.com/users/lsegal/followers",
    "following_url": "https://api.github.com/users/lsegal/following{/other_user}",
    "gists_url": "https://api.github.com/users/lsegal/gists{/gist_id}",
    "starred_url": "https://api.github.com/users/lsegal/starred{/owner}{/repo}",
    "subscriptions_url": "https://api.github.com/users/lsegal/subscriptions",
    "organizations_url": "https://api.github.com/users/lsegal/orgs",
    "repos_url": "https://api.github.com/users/lsegal/repos",
    "events_url": "https://api.github.com/users/lsegal/events{/privacy}",
    "received_events_url": "https://api.github.com/users/lsegal/received_events",
    "type": "User",
    "site_admin": false
  },
  "created_at": "2013-07-31T07:51:40Z",
  "updated_at": "2013-07-31T07:51:40Z",
  "body": "Looks good!"
}
]
