[
{
  "login": "raphaelschaad",
  "id": 439447,
  "avatar_url": "https://avatars.githubusercontent.com/u/439447?v=3",
  "gravatar_id": "",
  "url": "https://api.github.com/users/raphaelschaad",
  "html_url": "https://github.com/raphaelschaad",
  "followers_url": "https://api.github.com/users/raphaelschaad/followers",
  "following_url": "https://api.github.com/users/raphaelschaad/following{/other_user}",
  "gists_url": "https://api.github.com/users/raphaelschaad/gists{/gist_id}",
  "starred_url": "https://api.github.com/users/raphaelschaad/starred{/owner}{/repo}",
  "subscriptions_url": "https://api.github.com/users/raphaelschaad/subscriptions",
  "organizations_url": "https://api.github.com/users/raphaelschaad/orgs",
  "repos_url": "https://api.github.com/users/raphaelschaad/repos",
  "events_url": "https://api.github.com/users/raphaelschaad/events{/privacy}",
  "received_events_url": "https://api.github.com/users/raphaelschaad/received_events",
  "type": "User",
  "site_admin": false,
  "contributions": 85
}
, {
  "login": "timonus",
  "id": 522951,
  "avatar_url": "https://avatars.githubusercontent.com/u/522951?v=3",
  "gravatar_id": "",
  "url": "https://api.github.com/users/timonus",
  "html_url": "https://github.com/timonus",
  "followers_url": "https://api.github.com/users/timonus/followers",
  "following_url": "https://api.github.com/users/timonus/following{/other_user}",
  "gists_url": "https://api.github.com/users/timonus/gists{/gist_id}",
  "starred_url": "https://api.github.com/users/timonus/starred{/owner}{/repo}",
  "subscriptions_url": "https://api.github.com/users/timonus/subscriptions",
  "organizations_url": "https://api.github.com/users/timonus/orgs",
  "repos_url": "https://api.github.com/users/timonus/repos",
  "events_url": "https://api.github.com/users/timonus/events{/privacy}",
  "received_events_url": "https://api.github.com/users/timonus/received_events",
  "type": "User",
  "site_admin": false,
  "contributions": 14
}
, {
  "login": "nolanw",
  "id": 177228,
  "avatar_url": "https://avatars.githubusercontent.com/u/177228?v=3",
  "gravatar_id": "",
  "url": "https://api.github.com/users/nolanw",
  "html_url": "https://github.com/nolanw",
  "followers_url": "https://api.github.com/users/nolanw/followers",
  "following_url": "https://api.github.com/users/nolanw/following{/other_user}",
  "gists_url": "https://api.github.com/users/nolanw/gists{/gist_id}",
  "starred_url": "https://api.github.com/users/nolanw/starred{/owner}{/repo}",
  "subscriptions_url": "https://api.github.com/users/nolanw/subscriptions",
  "organizations_url": "https://api.github.com/users/nolanw/orgs",
  "repos_url": "https://api.github.com/users/nolanw/repos",
  "events_url": "https://api.github.com/users/nolanw/events{/privacy}",
  "received_events_url": "https://api.github.com/users/nolanw/received_events",
  "type": "User",
  "site_admin": false,
  "contributions": 3
}
, {
  "login": "pronebird",
  "id": 704044,
  "avatar_url": "https://avatars.githubusercontent.com/u/704044?v=3",
  "gravatar_id": "",
  "url": "https://api.github.com/users/pronebird",
  "html_url": "https://github.com/pronebird",
  "followers_url": "https://api.github.com/users/pronebird/followers",
  "following_url": "https://api.github.com/users/pronebird/following{/other_user}",
  "gists_url": "https://api.github.com/users/pronebird/gists{/gist_id}",
  "starred_url": "https://api.github.com/users/pronebird/starred{/owner}{/repo}",
  "subscriptions_url": "https://api.github.com/users/pronebird/subscriptions",
  "organizations_url": "https://api.github.com/users/pronebird/orgs",
  "repos_url": "https://api.github.com/users/pronebird/repos",
  "events_url": "https://api.github.com/users/pronebird/events{/privacy}",
  "received_events_url": "https://api.github.com/users/pronebird/received_events",
  "type": "User",
  "site_admin": false,
  "contributions": 2
}
, {
  "login": "grp",
  "id": 163390,
  "avatar_url": "https://avatars.githubusercontent.com/u/163390?v=3",
  "gravatar_id": "",
  "url": "https://api.github.com/users/grp",
  "html_url": "https://github.com/grp",
  "followers_url": "https://api.github.com/users/grp/followers",
  "following_url": "https://api.github.com/users/grp/following{/other_user}",
  "gists_url": "https://api.github.com/users/grp/gists{/gist_id}",
  "starred_url": "https://api.github.com/users/grp/starred{/owner}{/repo}",
  "subscriptions_url": "https://api.github.com/users/grp/subscriptions",
  "organizations_url": "https://api.github.com/users/grp/orgs",
  "repos_url": "https://api.github.com/users/grp/repos",
  "events_url": "https://api.github.com/users/grp/events{/privacy}",
  "received_events_url": "https://api.github.com/users/grp/received_events",
  "type": "User",
  "site_admin": false,
  "contributions": 2
}
, {
  "login": "chrismarcellino",
  "id": 1787502,
  "avatar_url": "https://avatars.githubusercontent.com/u/1787502?v=3",
  "gravatar_id": "",
  "url": "https://api.github.com/users/chrismarcellino",
  "html_url": "https://github.com/chrismarcellino",
  "followers_url": "https://api.github.com/users/chrismarcellino/followers",
  "following_url": "https://api.github.com/users/chrismarcellino/following{/other_user}",
  "gists_url": "https://api.github.com/users/chrismarcellino/gists{/gist_id}",
  "starred_url": "https://api.github.com/users/chrismarcellino/starred{/owner}{/repo}",
  "subscriptions_url": "https://api.github.com/users/chrismarcellino/subscriptions",
  "organizations_url": "https://api.github.com/users/chrismarcellino/orgs",
  "repos_url": "https://api.github.com/users/chrismarcellino/repos",
  "events_url": "https://api.github.com/users/chrismarcellino/events{/privacy}",
  "received_events_url": "https://api.github.com/users/chrismarcellino/received_events",
  "type": "User",
  "site_admin": false,
  "contributions": 1
}
, {
  "login": "NikolaiSa",
  "id": 746234,
  "avatar_url": "https://avatars.githubusercontent.com/u/746234?v=3",
  "gravatar_id": "",
  "url": "https://api.github.com/users/NikolaiSa",
  "html_url": "https://github.com/NikolaiSa",
  "followers_url": "https://api.github.com/users/NikolaiSa/followers",
  "following_url": "https://api.github.com/users/NikolaiSa/following{/other_user}",
  "gists_url": "https://api.github.com/users/NikolaiSa/gists{/gist_id}",
  "starred_url": "https://api.github.com/users/NikolaiSa/starred{/owner}{/repo}",
  "subscriptions_url": "https://api.github.com/users/NikolaiSa/subscriptions",
  "organizations_url": "https://api.github.com/users/NikolaiSa/orgs",
  "repos_url": "https://api.github.com/users/NikolaiSa/repos",
  "events_url": "https://api.github.com/users/NikolaiSa/events{/privacy}",
  "received_events_url": "https://api.github.com/users/NikolaiSa/received_events",
  "type": "User",
  "site_admin": false,
  "contributions": 1
}
, {
  "login": "ryanolsonk",
  "id": 1422245,
  "avatar_url": "https://avatars.githubusercontent.com/u/1422245?v=3",
  "gravatar_id": "",
  "url": "https://api.github.com/users/ryanolsonk",
  "html_url": "https://github.com/ryanolsonk",
  "followers_url": "https://api.github.com/users/ryanolsonk/followers",
  "following_url": "https://api.github.com/users/ryanolsonk/following{/other_user}",
  "gists_url": "https://api.github.com/users/ryanolsonk/gists{/gist_id}",
  "starred_url": "https://api.github.com/users/ryanolsonk/starred{/owner}{/repo}",
  "subscriptions_url": "https://api.github.com/users/ryanolsonk/subscriptions",
  "organizations_url": "https://api.github.com/users/ryanolsonk/orgs",
  "repos_url": "https://api.github.com/users/ryanolsonk/repos",
  "events_url": "https://api.github.com/users/ryanolsonk/events{/privacy}",
  "received_events_url": "https://api.github.com/users/ryanolsonk/received_events",
  "type": "User",
  "site_admin": false,
  "contributions": 1
}
, {
  "login": "vinibaggio",
  "id": 33053,
  "avatar_url": "https://avatars.githubusercontent.com/u/33053?v=3",
  "gravatar_id": "",
  "url": "https://api.github.com/users/vinibaggio",
  "html_url": "https://github.com/vinibaggio",
  "followers_url": "https://api.github.com/users/vinibaggio/followers",
  "following_url": "https://api.github.com/users/vinibaggio/following{/other_user}",
  "gists_url": "https://api.github.com/users/vinibaggio/gists{/gist_id}",
  "starred_url": "https://api.github.com/users/vinibaggio/starred{/owner}{/repo}",
  "subscriptions_url": "https://api.github.com/users/vinibaggio/subscriptions",
  "organizations_url": "https://api.github.com/users/vinibaggio/orgs",
  "repos_url": "https://api.github.com/users/vinibaggio/repos",
  "events_url": "https://api.github.com/users/vinibaggio/events{/privacy}",
  "received_events_url": "https://api.github.com/users/vinibaggio/received_events",
  "type": "User",
  "site_admin": false,
  "contributions": 1
}
, {
  "login": "simurai",
  "id": 378023,
  "avatar_url": "https://avatars.githubusercontent.com/u/378023?v=3",
  "gravatar_id": "",
  "url": "https://api.github.com/users/simurai",
  "html_url": "https://github.com/simurai",
  "followers_url": "https://api.github.com/users/simurai/followers",
  "following_url": "https://api.github.com/users/simurai/following{/other_user}",
  "gists_url": "https://api.github.com/users/simurai/gists{/gist_id}",
  "starred_url": "https://api.github.com/users/simurai/starred{/owner}{/repo}",
  "subscriptions_url": "https://api.github.com/users/simurai/subscriptions",
  "organizations_url": "https://api.github.com/users/simurai/orgs",
  "repos_url": "https://api.github.com/users/simurai/repos",
  "events_url": "https://api.github.com/users/simurai/events{/privacy}",
  "received_events_url": "https://api.github.com/users/simurai/received_events",
  "type": "User",
  "site_admin": true,
  "contributions": 1
}
]
