[
{
  "url": "https://api.github.com/repos/chef/chef-provisioning/issues/comments/71674662",
  "html_url": "https://github.com/chef/chef-provisioning/pull/255#issuecomment-71674662",
  "issue_url": "https://api.github.com/repos/chef/chef-provisioning/issues/255",
  "id": 71674662,
  "user": {
    "login": "jkeiser",
    "id": 654882,
    "avatar_url": "https://avatars.githubusercontent.com/u/654882?v=3",
    "gravatar_id": "",
    "url": "https://api.github.com/users/jkeiser",
    "html_url": "https://github.com/jkeiser",
    "followers_url": "https://api.github.com/users/jkeiser/followers",
    "following_url": "https://api.github.com/users/jkeiser/following{/other_user}",
    "gists_url": "https://api.github.com/users/jkeiser/gists{/gist_id}",
    "starred_url": "https://api.github.com/users/jkeiser/starred{/owner}{/repo}",
    "subscriptions_url": "https://api.github.com/users/jkeiser/subscriptions",
    "organizations_url": "https://api.github.com/users/jkeiser/orgs",
    "repos_url": "https://api.github.com/users/jkeiser/repos",
    "events_url": "https://api.github.com/users/jkeiser/events{/privacy}",
    "received_events_url": "https://api.github.com/users/jkeiser/received_events",
    "type": "User",
    "site_admin": false
  },
  "created_at": "2015-01-27T16:12:23Z",
  "updated_at": "2015-01-27T16:12:23Z",
  "body": "Merged as 4fa8f91.  Thanks!"
}
]
