[
{
  "url": "https://api.github.com/repos/chef/chef-server/issues/comments/79593225",
  "html_url": "https://github.com/chef/chef-server/issues/127#issuecomment-79593225",
  "issue_url": "https://api.github.com/repos/chef/chef-server/issues/127",
  "id": 79593225,
  "user": {
    "login": "ve7cxz",
    "id": 847087,
    "avatar_url": "https://avatars.githubusercontent.com/u/847087?v=3",
    "gravatar_id": "",
    "url": "https://api.github.com/users/ve7cxz",
    "html_url": "https://github.com/ve7cxz",
    "followers_url": "https://api.github.com/users/ve7cxz/followers",
    "following_url": "https://api.github.com/users/ve7cxz/following{/other_user}",
    "gists_url": "https://api.github.com/users/ve7cxz/gists{/gist_id}",
    "starred_url": "https://api.github.com/users/ve7cxz/starred{/owner}{/repo}",
    "subscriptions_url": "https://api.github.com/users/ve7cxz/subscriptions",
    "organizations_url": "https://api.github.com/users/ve7cxz/orgs",
    "repos_url": "https://api.github.com/users/ve7cxz/repos",
    "events_url": "https://api.github.com/users/ve7cxz/events{/privacy}",
    "received_events_url": "https://api.github.com/users/ve7cxz/received_events",
    "type": "User",
    "site_admin": false
  },
  "created_at": "2015-03-14T00:41:21Z",
  "updated_at": "2015-03-14T00:41:21Z",
  "body": "I actually managed to get this installed by starting `/opt/opscode/embedded/bin/runsvdir-start` from another terminal while `chef-server-ctl upgrade` is running. I'm still not sure why this doesn't happen automatically, though."
}
, {
  "url": "https://api.github.com/repos/chef/chef-server/issues/comments/79905000",
  "html_url": "https://github.com/chef/chef-server/issues/127#issuecomment-79905000",
  "issue_url": "https://api.github.com/repos/chef/chef-server/issues/127",
  "id": 79905000,
  "user": {
    "login": "mmzyk",
    "id": 66784,
    "avatar_url": "https://avatars.githubusercontent.com/u/66784?v=3",
    "gravatar_id": "",
    "url": "https://api.github.com/users/mmzyk",
    "html_url": "https://github.com/mmzyk",
    "followers_url": "https://api.github.com/users/mmzyk/followers",
    "following_url": "https://api.github.com/users/mmzyk/following{/other_user}",
    "gists_url": "https://api.github.com/users/mmzyk/gists{/gist_id}",
    "starred_url": "https://api.github.com/users/mmzyk/starred{/owner}{/repo}",
    "subscriptions_url": "https://api.github.com/users/mmzyk/subscriptions",
    "organizations_url": "https://api.github.com/users/mmzyk/orgs",
    "repos_url": "https://api.github.com/users/mmzyk/repos",
    "events_url": "https://api.github.com/users/mmzyk/events{/privacy}",
    "received_events_url": "https://api.github.com/users/mmzyk/received_events",
    "type": "User",
    "site_admin": false
  },
  "created_at": "2015-03-14T05:14:26Z",
  "updated_at": "2015-03-14T05:14:26Z",
  "body": "@ve7cxz I'll try to look into this when I get a chance. Glad you got it working. I wanted to note that the references to private-chef-ctl are okay (you brought this up in the original issue before it was moved here). That is because the enterprise server and open source server merged and now there is only one server and it is completely open source. This new code though is based off the enterprise code base (although the old enterprise and open source code bases did share a lot of code). So the private-chef-ctl is just a naming reference that hasn't been cleaned up. chef-server-ctl and private-chef-ctl both run the same code under the hood - one is just a symlink to the other for now to ensure backwards compatibility."
}
, {
  "url": "https://api.github.com/repos/chef/chef-server/issues/comments/80287280",
  "html_url": "https://github.com/chef/chef-server/issues/127#issuecomment-80287280",
  "issue_url": "https://api.github.com/repos/chef/chef-server/issues/127",
  "id": 80287280,
  "user": {
    "login": "ve7cxz",
    "id": 847087,
    "avatar_url": "https://avatars.githubusercontent.com/u/847087?v=3",
    "gravatar_id": "",
    "url": "https://api.github.com/users/ve7cxz",
    "html_url": "https://github.com/ve7cxz",
    "followers_url": "https://api.github.com/users/ve7cxz/followers",
    "following_url": "https://api.github.com/users/ve7cxz/following{/other_user}",
    "gists_url": "https://api.github.com/users/ve7cxz/gists{/gist_id}",
    "starred_url": "https://api.github.com/users/ve7cxz/starred{/owner}{/repo}",
    "subscriptions_url": "https://api.github.com/users/ve7cxz/subscriptions",
    "organizations_url": "https://api.github.com/users/ve7cxz/orgs",
    "repos_url": "https://api.github.com/users/ve7cxz/repos",
    "events_url": "https://api.github.com/users/ve7cxz/events{/privacy}",
    "received_events_url": "https://api.github.com/users/ve7cxz/received_events",
    "type": "User",
    "site_admin": false
  },
  "created_at": "2015-03-14T10:31:19Z",
  "updated_at": "2015-03-14T10:31:19Z",
  "body": "@mmzyk cheers! I assumed the references were benign but I wanted to mention it just in case. It's an odd one because it looks like the `runsvdir-start` command gets added to `/etc/inittab`, but doesn't get started, which makes me wonder if the init reload to reread it never happens."
}
, {
  "url": "https://api.github.com/repos/chef/chef-server/issues/comments/112872659",
  "html_url": "https://github.com/chef/chef-server/issues/127#issuecomment-112872659",
  "issue_url": "https://api.github.com/repos/chef/chef-server/issues/127",
  "id": 112872659,
  "user": {
    "login": "stevendanna",
    "id": 852371,
    "avatar_url": "https://avatars.githubusercontent.com/u/852371?v=3",
    "gravatar_id": "",
    "url": "https://api.github.com/users/stevendanna",
    "html_url": "https://github.com/stevendanna",
    "followers_url": "https://api.github.com/users/stevendanna/followers",
    "following_url": "https://api.github.com/users/stevendanna/following{/other_user}",
    "gists_url": "https://api.github.com/users/stevendanna/gists{/gist_id}",
    "starred_url": "https://api.github.com/users/stevendanna/starred{/owner}{/repo}",
    "subscriptions_url": "https://api.github.com/users/stevendanna/subscriptions",
    "organizations_url": "https://api.github.com/users/stevendanna/orgs",
    "repos_url": "https://api.github.com/users/stevendanna/repos",
    "events_url": "https://api.github.com/users/stevendanna/events{/privacy}",
    "received_events_url": "https://api.github.com/users/stevendanna/received_events",
    "type": "User",
    "site_admin": false
  },
  "created_at": "2015-06-17T16:43:27Z",
  "updated_at": "2015-06-17T16:43:27Z",
  "body": "I'm going to close this for now.  We haven't been able to reproduce this in upgrade testing.  If someone sees a reproduction case of this issue we can happily reopen it."
}
]
