[
{
  "url": "https://api.github.com/repos/chef/chef-server/issues/comments/120056074",
  "html_url": "https://github.com/chef/chef-server/pull/413#issuecomment-120056074",
  "issue_url": "https://api.github.com/repos/chef/chef-server/issues/413",
  "id": 120056074,
  "user": {
    "login": "joedevivo",
    "id": 55951,
    "avatar_url": "https://avatars.githubusercontent.com/u/55951?v=3",
    "gravatar_id": "",
    "url": "https://api.github.com/users/joedevivo",
    "html_url": "https://github.com/joedevivo",
    "followers_url": "https://api.github.com/users/joedevivo/followers",
    "following_url": "https://api.github.com/users/joedevivo/following{/other_user}",
    "gists_url": "https://api.github.com/users/joedevivo/gists{/gist_id}",
    "starred_url": "https://api.github.com/users/joedevivo/starred{/owner}{/repo}",
    "subscriptions_url": "https://api.github.com/users/joedevivo/subscriptions",
    "organizations_url": "https://api.github.com/users/joedevivo/orgs",
    "repos_url": "https://api.github.com/users/joedevivo/repos",
    "events_url": "https://api.github.com/users/joedevivo/events{/privacy}",
    "received_events_url": "https://api.github.com/users/joedevivo/received_events",
    "type": "User",
    "site_admin": false
  },
  "created_at": "2015-07-09T16:20:11Z",
  "updated_at": "2015-07-09T16:20:11Z",
  "body": ":+1: "
}
]
