[
{
  "url": "https://api.github.com/repos/chef/chef-server/issues/comments/163375233",
  "html_url": "https://github.com/chef/chef-server/pull/658#issuecomment-163375233",
  "issue_url": "https://api.github.com/repos/chef/chef-server/issues/658",
  "id": 163375233,
  "user": {
    "login": "metadave",
    "id": 58244,
    "avatar_url": "https://avatars.githubusercontent.com/u/58244?v=3",
    "gravatar_id": "",
    "url": "https://api.github.com/users/metadave",
    "html_url": "https://github.com/metadave",
    "followers_url": "https://api.github.com/users/metadave/followers",
    "following_url": "https://api.github.com/users/metadave/following{/other_user}",
    "gists_url": "https://api.github.com/users/metadave/gists{/gist_id}",
    "starred_url": "https://api.github.com/users/metadave/starred{/owner}{/repo}",
    "subscriptions_url": "https://api.github.com/users/metadave/subscriptions",
    "organizations_url": "https://api.github.com/users/metadave/orgs",
    "repos_url": "https://api.github.com/users/metadave/repos",
    "events_url": "https://api.github.com/users/metadave/events{/privacy}",
    "received_events_url": "https://api.github.com/users/metadave/received_events",
    "type": "User",
    "site_admin": false
  },
  "created_at": "2015-12-09T20:06:40Z",
  "updated_at": "2015-12-09T20:06:40Z",
  "body": "is it possible for users to access/upload files in orgs they don't have access to?"
}
, {
  "url": "https://api.github.com/repos/chef/chef-server/issues/comments/163422309",
  "html_url": "https://github.com/chef/chef-server/pull/658#issuecomment-163422309",
  "issue_url": "https://api.github.com/repos/chef/chef-server/issues/658",
  "id": 163422309,
  "user": {
    "login": "stevendanna",
    "id": 852371,
    "avatar_url": "https://avatars.githubusercontent.com/u/852371?v=3",
    "gravatar_id": "",
    "url": "https://api.github.com/users/stevendanna",
    "html_url": "https://github.com/stevendanna",
    "followers_url": "https://api.github.com/users/stevendanna/followers",
    "following_url": "https://api.github.com/users/stevendanna/following{/other_user}",
    "gists_url": "https://api.github.com/users/stevendanna/gists{/gist_id}",
    "starred_url": "https://api.github.com/users/stevendanna/starred{/owner}{/repo}",
    "subscriptions_url": "https://api.github.com/users/stevendanna/subscriptions",
    "organizations_url": "https://api.github.com/users/stevendanna/orgs",
    "repos_url": "https://api.github.com/users/stevendanna/repos",
    "events_url": "https://api.github.com/users/stevendanna/events{/privacy}",
    "received_events_url": "https://api.github.com/users/stevendanna/received_events",
    "type": "User",
    "site_admin": false
  },
  "created_at": "2015-12-09T22:34:09Z",
  "updated_at": "2015-12-09T22:34:09Z",
  "body": "What is the upgrade strategy here?  Since we have pulled out all of the filesystem handling code I'm assuming we are aiming at a one-time partybus upgrade rather than some sort of lazy upgrade?"
}
, {
  "url": "https://api.github.com/repos/chef/chef-server/issues/comments/164516388",
  "html_url": "https://github.com/chef/chef-server/pull/658#issuecomment-164516388",
  "issue_url": "https://api.github.com/repos/chef/chef-server/issues/658",
  "id": 164516388,
  "user": {
    "login": "marcparadise",
    "id": 1130204,
    "avatar_url": "https://avatars.githubusercontent.com/u/1130204?v=3",
    "gravatar_id": "",
    "url": "https://api.github.com/users/marcparadise",
    "html_url": "https://github.com/marcparadise",
    "followers_url": "https://api.github.com/users/marcparadise/followers",
    "following_url": "https://api.github.com/users/marcparadise/following{/other_user}",
    "gists_url": "https://api.github.com/users/marcparadise/gists{/gist_id}",
    "starred_url": "https://api.github.com/users/marcparadise/starred{/owner}{/repo}",
    "subscriptions_url": "https://api.github.com/users/marcparadise/subscriptions",
    "organizations_url": "https://api.github.com/users/marcparadise/orgs",
    "repos_url": "https://api.github.com/users/marcparadise/repos",
    "events_url": "https://api.github.com/users/marcparadise/events{/privacy}",
    "received_events_url": "https://api.github.com/users/marcparadise/received_events",
    "type": "User",
    "site_admin": false
  },
  "created_at": "2015-12-14T18:21:07Z",
  "updated_at": "2015-12-14T18:21:07Z",
  "body": "I apologize in advance for the comment I'm about to leave :D "
}
, {
  "url": "https://api.github.com/repos/chef/chef-server/issues/comments/164516538",
  "html_url": "https://github.com/chef/chef-server/pull/658#issuecomment-164516538",
  "issue_url": "https://api.github.com/repos/chef/chef-server/issues/658",
  "id": 164516538,
  "user": {
    "login": "marcparadise",
    "id": 1130204,
    "avatar_url": "https://avatars.githubusercontent.com/u/1130204?v=3",
    "gravatar_id": "",
    "url": "https://api.github.com/users/marcparadise",
    "html_url": "https://github.com/marcparadise",
    "followers_url": "https://api.github.com/users/marcparadise/followers",
    "following_url": "https://api.github.com/users/marcparadise/following{/other_user}",
    "gists_url": "https://api.github.com/users/marcparadise/gists{/gist_id}",
    "starred_url": "https://api.github.com/users/marcparadise/starred{/owner}{/repo}",
    "subscriptions_url": "https://api.github.com/users/marcparadise/subscriptions",
    "organizations_url": "https://api.github.com/users/marcparadise/orgs",
    "repos_url": "https://api.github.com/users/marcparadise/repos",
    "events_url": "https://api.github.com/users/marcparadise/events{/privacy}",
    "received_events_url": "https://api.github.com/users/marcparadise/received_events",
    "type": "User",
    "site_admin": false
  },
  "created_at": "2015-12-14T18:21:39Z",
  "updated_at": "2015-12-14T18:22:11Z",
  "body": "I'd like to see consistency with our other schemas and their naming, mostly where the table name doesn't repeat in the primary key field name - eg \"bucket.id\" instead of  \"bucket.bucket_id\",etc. \r\n"
}
, {
  "url": "https://api.github.com/repos/chef/chef-server/issues/comments/173626419",
  "html_url": "https://github.com/chef/chef-server/pull/658#issuecomment-173626419",
  "issue_url": "https://api.github.com/repos/chef/chef-server/issues/658",
  "id": 173626419,
  "user": {
    "login": "stevendanna",
    "id": 852371,
    "avatar_url": "https://avatars.githubusercontent.com/u/852371?v=3",
    "gravatar_id": "",
    "url": "https://api.github.com/users/stevendanna",
    "html_url": "https://github.com/stevendanna",
    "followers_url": "https://api.github.com/users/stevendanna/followers",
    "following_url": "https://api.github.com/users/stevendanna/following{/other_user}",
    "gists_url": "https://api.github.com/users/stevendanna/gists{/gist_id}",
    "starred_url": "https://api.github.com/users/stevendanna/starred{/owner}{/repo}",
    "subscriptions_url": "https://api.github.com/users/stevendanna/subscriptions",
    "organizations_url": "https://api.github.com/users/stevendanna/orgs",
    "repos_url": "https://api.github.com/users/stevendanna/repos",
    "events_url": "https://api.github.com/users/stevendanna/events{/privacy}",
    "received_events_url": "https://api.github.com/users/stevendanna/received_events",
    "type": "User",
    "site_admin": false
  },
  "created_at": "2016-01-21T16:33:49Z",
  "updated_at": "2016-01-21T16:33:49Z",
  "body": "An even more glorious pull request is now tracking this."
}
]
