[
{
  "url": "https://api.github.com/repos/yahoo/howl/issues/comments/704412",
  "html_url": "https://github.com/yahoo/howl/issues/3#issuecomment-704412",
  "issue_url": "https://api.github.com/repos/yahoo/howl/issues/3",
  "id": 704412,
  "user": {
    "login": "macyang",
    "id": 255995,
    "avatar_url": "https://avatars.githubusercontent.com/u/255995?v=3",
    "gravatar_id": "",
    "url": "https://api.github.com/users/macyang",
    "html_url": "https://github.com/macyang",
    "followers_url": "https://api.github.com/users/macyang/followers",
    "following_url": "https://api.github.com/users/macyang/following{/other_user}",
    "gists_url": "https://api.github.com/users/macyang/gists{/gist_id}",
    "starred_url": "https://api.github.com/users/macyang/starred{/owner}{/repo}",
    "subscriptions_url": "https://api.github.com/users/macyang/subscriptions",
    "organizations_url": "https://api.github.com/users/macyang/orgs",
    "repos_url": "https://api.github.com/users/macyang/repos",
    "events_url": "https://api.github.com/users/macyang/events{/privacy}",
    "received_events_url": "https://api.github.com/users/macyang/received_events",
    "type": "User",
    "site_admin": false
  },
  "created_at": "2011-01-24T23:29:35Z",
  "updated_at": "2011-01-24T23:29:35Z",
  "body": "This is now fixed in the howl branch."
}
]
