[
{
  "url": "https://api.github.com/repos/google/google-http-java-client/issues/comments/69414695",
  "html_url": "https://github.com/google/google-http-java-client/issues/114#issuecomment-69414695",
  "issue_url": "https://api.github.com/repos/google/google-http-java-client/issues/114",
  "id": 69414695,
  "user": {
    "login": "wonderfly",
    "id": 6642209,
    "avatar_url": "https://avatars.githubusercontent.com/u/6642209?v=3",
    "gravatar_id": "",
    "url": "https://api.github.com/users/wonderfly",
    "html_url": "https://github.com/wonderfly",
    "followers_url": "https://api.github.com/users/wonderfly/followers",
    "following_url": "https://api.github.com/users/wonderfly/following{/other_user}",
    "gists_url": "https://api.github.com/users/wonderfly/gists{/gist_id}",
    "starred_url": "https://api.github.com/users/wonderfly/starred{/owner}{/repo}",
    "subscriptions_url": "https://api.github.com/users/wonderfly/subscriptions",
    "organizations_url": "https://api.github.com/users/wonderfly/orgs",
    "repos_url": "https://api.github.com/users/wonderfly/repos",
    "events_url": "https://api.github.com/users/wonderfly/events{/privacy}",
    "received_events_url": "https://api.github.com/users/wonderfly/received_events",
    "type": "User",
    "site_admin": false
  },
  "created_at": "2015-01-09T22:54:59Z",
  "updated_at": "2015-01-09T22:54:59Z",
  "body": "_From [rmis...@google.com](https://code.google.com/u/107407723825400707639/) on January 14, 2013 07:26:39_\n\n**Owner:** yan...@google.com  \n  **Cc:** rmis...@google.com  \n"
}
]
