"commit","author.name","author.email","date","date_string","merges_count"
"3b3af245a9481a3754b9a05d61146965a60da929","Andrew Spyker","aspyker@netflix.com","Sat Dec 12 2015 00:50:19 GMT+0100 (CET)","Fri Dec 11 15:50:19 2015 -0800","0"
"4018859e2798c3765292fd1bfc7f5a31b07f8c6c","Brian Moore","mooreb","Tue Apr 01 2014 22:08:32 GMT+0200 (CEST)","Tue Apr 1 13:08:32 2014 -0700","0"
"9ffc8fd8158792ad61fd2f02e4b243e69e0632ca","Brian Moore","mooreb","Tue Apr 01 2014 22:00:49 GMT+0200 (CEST)","Tue Apr 1 13:00:49 2014 -0700","2"
"6f2b380c7ac673a2a3e4c43cd00bc7f36edf7483","Brian Moore","mooreb","Tue Apr 01 2014 22:00:25 GMT+0200 (CEST)","Tue Apr 1 13:00:25 2014 -0700","0"
"97a0d82da421dd742dda36623d3e9471856bdda3","Brian Moore","mooreb@mooreb.com","Wed Nov 13 2013 04:47:35 GMT+0100 (CET)","Tue Nov 12 19:47:35 2013 -0800","0"
"b25f296c44258601b12219383c33a502b0784863","Brian Moore","mooreb","Tue Nov 12 2013 20:40:34 GMT+0100 (CET)","Tue Nov 12 11:40:34 2013 -0800","0"
"f29b2eb91d48e84388e87aadb055854976f0bcb6","Brian Moore","mooreb","Tue Nov 12 2013 20:29:29 GMT+0100 (CET)","Tue Nov 12 11:29:29 2013 -0800","0"
"07299139726f827cc230e90563c84a7e93a11bef","Brian Moore","mooreb","Tue Nov 12 2013 03:00:04 GMT+0100 (CET)","Mon Nov 11 18:00:04 2013 -0800","0"
"5f561ad2e30d04eccfa08a27264a5b8adf3e42d4","Brian Moore","mooreb","Thu May 16 2013 09:05:11 GMT+0200 (CEST)","Thu May 16 00:05:11 2013 -0700","0"
"908f5af6e02b8145b3d7e0c591084b98746c723f","Sudhir Tonse","stonse@gmail.com","Thu May 16 2013 04:36:38 GMT+0200 (CEST)","Wed May 15 19:36:38 2013 -0700","0"
