"commit","author.name","author.email","date","date_string","merges_count"
"d563d052b597b297de2fcb1faaa828bb35f00ddd","Bosanac Dejan","dejanb@apache.org","Tue Aug 03 2010 14:17:11 GMT+0200 (CEST)","Tue Aug 3 12:17:11 2010 +0000","0"
"8984d0a6230baadff92c3ae32dbcc046233dd2f5","Bosanac Dejan","dejanb@apache.org","Tue Aug 03 2010 14:16:57 GMT+0200 (CEST)","Tue Aug 3 12:16:57 2010 +0000","0"
"fcae9184991e42461bc0776ed90396e9b241e0b5","Hiram R. Chirino","chirino@apache.org","Sun May 23 2010 17:37:33 GMT+0200 (CEST)","Sun May 23 15:37:33 2010 +0000","0"
"5a3028e5577a09d330d8ed6521f3db8c611ad7b9","Hiram R. Chirino","chirino@apache.org","Fri Apr 23 2010 14:47:34 GMT+0200 (CEST)","Fri Apr 23 12:47:34 2010 +0000","0"
"64445f87508e77cbd2ab100b9dabba0dfc8276fc","Bosanac Dejan","dejanb@apache.org","Sun Sep 20 2009 11:37:17 GMT+0200 (CEST)","Sun Sep 20 09:37:17 2009 +0000","0"
"e722f3268ebbf53600a275a412c9e8b98a84a22f","Bosanac Dejan","dejanb@apache.org","Sun Sep 20 2009 11:37:02 GMT+0200 (CEST)","Sun Sep 20 09:37:02 2009 +0000","0"
"3dc815d30971cbcfb7caa15d723558a17e04bc33","Hiram R. Chirino","chirino@apache.org","Sat Sep 19 2009 16:27:08 GMT+0200 (CEST)","Sat Sep 19 14:27:08 2009 +0000","0"
"655d7ec9821ab59c104c29c01ed3955404aff199","Bosanac Dejan","dejanb@apache.org","Sat Sep 19 2009 15:08:45 GMT+0200 (CEST)","Sat Sep 19 13:08:45 2009 +0000","0"
"6130f0cd795cc86b55d15d58d5d63d8ee973edf7","Bosanac Dejan","dejanb@apache.org","Sat Sep 19 2009 15:08:30 GMT+0200 (CEST)","Sat Sep 19 13:08:30 2009 +0000","0"
"0c014ee2f06b35b3d59cc1402a18eae48695f431","Bosanac Dejan","dejanb@apache.org","Sat Sep 19 2009 14:59:55 GMT+0200 (CEST)","Sat Sep 19 12:59:55 2009 +0000","0"
"14c00a69b5f7dbe4102deaae96eb8f9e0639fc24","Bosanac Dejan","dejanb@apache.org","Sat Sep 19 2009 14:47:23 GMT+0200 (CEST)","Sat Sep 19 12:47:23 2009 +0000","0"
"c66eb3f8013d1e6df73a19196c23fd32c6e6c8f8","Bosanac Dejan","dejanb@apache.org","Sat Sep 19 2009 14:15:52 GMT+0200 (CEST)","Sat Sep 19 12:15:52 2009 +0000","0"
"e141731d1d49e32321d6b0c00230e35fe9f89764","Bosanac Dejan","dejanb@apache.org","Sat Sep 19 2009 14:11:21 GMT+0200 (CEST)","Sat Sep 19 12:11:21 2009 +0000","0"
"05d1aff43e292f08428df7f1926e5f7f5ba56aaf","Bosanac Dejan","dejanb@apache.org","Sat Sep 19 2009 14:09:26 GMT+0200 (CEST)","Sat Sep 19 12:09:26 2009 +0000","0"
"af9c2eb17d336883503a20ff628a8f1092ff7dd1","Bosanac Dejan","dejanb@apache.org","Thu Sep 17 2009 11:35:09 GMT+0200 (CEST)","Thu Sep 17 09:35:09 2009 +0000","0"
"6b381ece0f474c1eff9832e65dc4ca64b55d4615","Bosanac Dejan","dejanb@apache.org","Thu Sep 17 2009 11:30:28 GMT+0200 (CEST)","Thu Sep 17 09:30:28 2009 +0000","0"
"a2f89198ddaa483fbf6c09d97a70c4f038709d7e","Bosanac Dejan","dejanb@apache.org","Thu Sep 17 2009 11:19:55 GMT+0200 (CEST)","Thu Sep 17 09:19:55 2009 +0000","0"
"54e096ef6cb20fc5f7099bdca3bb1f393a87b740","Hiram R. Chirino","chirino@apache.org","Thu Mar 26 2009 19:10:01 GMT+0100 (CET)","Thu Mar 26 18:10:01 2009 +0000","0"
"16a8b64e8829c3c95052f4f0cda1e46ed1ed7402","Hiram R. Chirino","chirino@apache.org","Wed Mar 18 2009 19:39:32 GMT+0100 (CET)","Wed Mar 18 18:39:32 2009 +0000","0"
"a7199062bc9d4c10885f32fe9272ccc97575f16b","Hiram R. Chirino","chirino@apache.org","Wed Mar 11 2009 14:26:07 GMT+0100 (CET)","Wed Mar 11 13:26:07 2009 +0000","0"
"e56d385922e7036e85da676f22d481e397fa63b3","Hiram R. Chirino","chirino@apache.org","Fri Feb 20 2009 16:00:33 GMT+0100 (CET)","Fri Feb 20 15:00:33 2009 +0000","0"
"dbac5f83e280424ad1e4f090d70cfdc7fc388444","Hiram R. Chirino","chirino@apache.org","Fri Feb 20 2009 04:52:57 GMT+0100 (CET)","Fri Feb 20 03:52:57 2009 +0000","0"
"fadceb26c9213b2677573d95af4e01b952b69bd8","Hiram R. Chirino","chirino@apache.org","Fri Feb 20 2009 03:05:08 GMT+0100 (CET)","Fri Feb 20 02:05:08 2009 +0000","0"
"76abeef7e409cd99d2c5f845cd805fa9d9bf1e0a","Hiram R. Chirino","chirino@apache.org","Thu Feb 19 2009 18:01:07 GMT+0100 (CET)","Thu Feb 19 17:01:07 2009 +0000","0"
"37c65a589a02fa6361014eb16b4de9af4c114e7a","Hiram R. Chirino","chirino@apache.org","Wed Feb 18 2009 22:10:08 GMT+0100 (CET)","Wed Feb 18 21:10:08 2009 +0000","0"
"d9ad523709b5b2251df07770cd66afffc06b30db","Hiram R. Chirino","chirino@apache.org","Tue Feb 17 2009 15:49:52 GMT+0100 (CET)","Tue Feb 17 14:49:52 2009 +0000","0"
"9df21016b37fc372300553513361c3e55b94d352","Hiram R. Chirino","chirino@apache.org","Fri Feb 13 2009 14:20:57 GMT+0100 (CET)","Fri Feb 13 13:20:57 2009 +0000","0"
"6c1efb9bf36875a7648a18333dc9efecdb72ffce","Hiram R. Chirino","chirino@apache.org","Thu Feb 05 2009 20:30:41 GMT+0100 (CET)","Thu Feb 5 19:30:41 2009 +0000","0"
"9ffb8b3f025aa604c56a93fc287cd946f12fb496","Hiram R. Chirino","chirino@apache.org","Mon Nov 24 2008 20:48:13 GMT+0100 (CET)","Mon Nov 24 19:48:13 2008 +0000","0"
"000e525b3b0bba85fbc48bc7329793b86e1a72d8","Hiram R. Chirino","chirino@apache.org","Mon Nov 24 2008 20:40:08 GMT+0100 (CET)","Mon Nov 24 19:40:08 2008 +0000","0"
"0e069913a20e9519b6a73e97a346bbf32a100e8b","Hiram R. Chirino","chirino@apache.org","Mon Nov 24 2008 20:24:22 GMT+0100 (CET)","Mon Nov 24 19:24:22 2008 +0000","0"
"16521fab90c1d11ad44fd94d2e152c30eac8e3a5","Hiram R. Chirino","chirino@apache.org","Fri Nov 21 2008 20:53:46 GMT+0100 (CET)","Fri Nov 21 19:53:46 2008 +0000","0"
"c4c18837e6ad11107c65585ebcf284b83e0fb34d","Hiram R. Chirino","chirino@apache.org","Fri Nov 21 2008 20:44:55 GMT+0100 (CET)","Fri Nov 21 19:44:55 2008 +0000","0"
"f9e3adb3712f145d7e3819e0133840307f87f2e4","Hiram R. Chirino","chirino@apache.org","Thu Nov 13 2008 22:39:10 GMT+0100 (CET)","Thu Nov 13 21:39:10 2008 +0000","0"
"5b4d8ebf0b2eae1de0abb65c4e7dc8302c0b0fa7","Hiram R. Chirino","chirino@apache.org","Thu Nov 13 2008 04:56:48 GMT+0100 (CET)","Thu Nov 13 03:56:48 2008 +0000","0"
"adacae9d09cf5115d10ab7a7d584df5eb1e779e2","Hiram R. Chirino","chirino@apache.org","Wed Nov 12 2008 18:42:27 GMT+0100 (CET)","Wed Nov 12 17:42:27 2008 +0000","0"
"bbb62ff299b1612c65c403554f8a4d350f02b543","Hiram R. Chirino","chirino@apache.org","Thu Oct 16 2008 16:23:43 GMT+0200 (CEST)","Thu Oct 16 14:23:43 2008 +0000","0"
"3764aa368756ade27da431954706e7a04cf11ffc","Hiram R. Chirino","chirino@apache.org","Thu Oct 09 2008 01:32:15 GMT+0200 (CEST)","Wed Oct 8 23:32:15 2008 +0000","0"
"1a4381414b859784057f83b54f3e58aebd347d09","Hiram R. Chirino","chirino@apache.org","Tue Oct 07 2008 22:18:39 GMT+0200 (CEST)","Tue Oct 7 20:18:39 2008 +0000","0"
"20f21636a37d98c5784a942a84a7bb6b66628ffa","Hiram R. Chirino","chirino@apache.org","Tue Sep 16 2008 20:23:45 GMT+0200 (CEST)","Tue Sep 16 18:23:45 2008 +0000","0"
"68f8bbd722124876fb3460a8b05a68ed8eda67d1","Hiram R. Chirino","chirino@apache.org","Fri Sep 05 2008 19:39:14 GMT+0200 (CEST)","Fri Sep 5 17:39:14 2008 +0000","0"
"3797da259535d325479a666e359b62cea340e10b","Hiram R. Chirino","chirino@apache.org","Wed Sep 03 2008 18:01:30 GMT+0200 (CEST)","Wed Sep 3 16:01:30 2008 +0000","0"
"566e9e1ddf348e490c46c22133a916895cf7e0ff","Hiram R. Chirino","chirino@apache.org","Tue Sep 02 2008 22:47:37 GMT+0200 (CEST)","Tue Sep 2 20:47:37 2008 +0000","0"
"25de73af70f2c65554fc0dd6237970e7551c6991","Hiram R. Chirino","chirino@apache.org","Tue Sep 02 2008 22:44:44 GMT+0200 (CEST)","Tue Sep 2 20:44:44 2008 +0000","0"
"79921c2523c56810b7ede1c7ca297cf2606f3fc4","Hiram R. Chirino","chirino@apache.org","Sun Aug 31 2008 06:06:49 GMT+0200 (CEST)","Sun Aug 31 04:06:49 2008 +0000","0"
"ba7fdf678397936641c4bf1d4a50686abfe4b429","Hiram R. Chirino","chirino@apache.org","Sat Aug 30 2008 20:54:28 GMT+0200 (CEST)","Sat Aug 30 18:54:28 2008 +0000","0"
"74edd13352f8722cd84c2ba73f8c2d0408a52c08","Hiram R. Chirino","chirino@apache.org","Fri Aug 29 2008 23:34:08 GMT+0200 (CEST)","Fri Aug 29 21:34:08 2008 +0000","0"
"f42edbc02429a2583f0eb272ec95b86bbbe358ad","Hiram R. Chirino","chirino@apache.org","Fri Aug 29 2008 21:28:26 GMT+0200 (CEST)","Fri Aug 29 19:28:26 2008 +0000","0"
"f21df4a340136f3c0465a22de515627d97044d91","Hiram R. Chirino","chirino@apache.org","Fri Aug 29 2008 21:25:33 GMT+0200 (CEST)","Fri Aug 29 19:25:33 2008 +0000","0"
"7f1c3f2d24b908208621c95ea39ba1119c0c7f85","Hiram R. Chirino","chirino@apache.org","Fri Aug 29 2008 20:41:40 GMT+0200 (CEST)","Fri Aug 29 18:41:40 2008 +0000","0"
"82b2babeb7f0b73af6a1e49c2af89f1e0ca2517b","Hiram R. Chirino","chirino@apache.org","Fri Aug 29 2008 18:53:00 GMT+0200 (CEST)","Fri Aug 29 16:53:00 2008 +0000","0"
"34d5969373d826ba8bea2272a925104111326b93","Hiram R. Chirino","chirino@apache.org","Fri Aug 29 2008 18:25:30 GMT+0200 (CEST)","Fri Aug 29 16:25:30 2008 +0000","0"
