"commit","author.name","author.email","date","date_string","merges_count"
"7a158af76906d4a9b753e9344ce3e7abeb91dc01","Andrew Spyker","aspyker@netflix.com","Sat Dec 12 2015 00:47:08 GMT+0100 (CET)","Fri Dec 11 15:47:08 2015 -0800","0"
"63f90677be1a4b0264e3639dd234d10d0a102264","Peter Stout","pds@netflix.com","Thu Dec 03 2015 21:20:45 GMT+0100 (CET)","Thu Dec 3 12:20:45 2015 -0800","2"
"7b4a6b187e7910c101e4e0053c75291f7b08f11c","Peter D. Stout","pds@netflix.com","Thu Dec 03 2015 21:17:17 GMT+0100 (CET)","Thu Dec 3 12:17:17 2015 -0800","0"
"0cdfb59830d7050cfd86d04bbe90aa0fb254f2b6","Peter D. Stout","pds@netflix.com","Thu Dec 03 2015 21:14:38 GMT+0100 (CET)","Thu Dec 3 12:14:38 2015 -0800","0"
"31770b6fbb1827b9ecdb7b67b60da54f14cd7e27","Peter D. Stout","pds@netflix.com","Thu Dec 03 2015 16:24:40 GMT+0100 (CET)","Thu Dec 3 07:24:40 2015 -0800","0"
"10d09b7fd6ea8bbd63a19ffba5c9852f95ee16c6","Michael Smith","michaels@netflix.com","Wed Dec 02 2015 02:07:39 GMT+0100 (CET)","Tue Dec 1 17:07:39 2015 -0800","0"
"69d4703147939e665822492364991c714dc40733","Michael Smith","michaels@netflix.com","Wed Dec 02 2015 02:07:24 GMT+0100 (CET)","Tue Dec 1 17:07:24 2015 -0800","0"
"c53d114045f21d5eeea8e7b6e07fc5da4078ecb7","Michael Smith","michaels@netflix.com","Wed Dec 02 2015 02:05:01 GMT+0100 (CET)","Tue Dec 1 17:05:01 2015 -0800","0"
"dd668ea3359acdbf2c68d1d6fadb8e5f37b74b70","Michael Smith","michaels@netflix.com","Wed Dec 02 2015 02:03:28 GMT+0100 (CET)","Tue Dec 1 17:03:28 2015 -0800","0"
"e59d41924ef5cf03f078cf6a6b0dca4274f0a9bb","tbak","tbak@netflix.com","Tue Nov 17 2015 00:25:03 GMT+0100 (CET)","Mon Nov 16 15:25:03 2015 -0800","2"
"ef3173ddc258b7fe70a485aa2cb9417f6c5d58b7","Jon Schneider","jkschneider@gmail.com","Mon Nov 16 2015 23:29:59 GMT+0100 (CET)","Mon Nov 16 14:29:59 2015 -0800","0"
"df8ec8c82ab597ce2e6de34e1862c70f93c3e92b","Justin Ryan","justin@halfempty.org","Tue Mar 10 2015 06:59:47 GMT+0100 (CET)","Mon Mar 9 22:59:47 2015 -0700","2"
"99ebd4e03d0d2fd37679925c5a372383a4781f7b","Justin Ryan","jryan@netflix.com","Tue Mar 10 2015 06:58:55 GMT+0100 (CET)","Mon Mar 9 22:58:55 2015 -0700","0"
"55343e919628b68df19e4b3aa992d9a70ca698b1","Bob T Builder","builds@netflix.com","Thu Apr 24 2014 19:21:35 GMT+0200 (CEST)","Thu Apr 24 17:21:35 2014 +0000","0"
"41b7b50d24f67b00f09fc8e9230ccc5a52aa0c85","Bob T Builder","builds@netflix.com","Thu Apr 24 2014 19:21:31 GMT+0200 (CEST)","Thu Apr 24 17:21:31 2014 +0000","0"
"bc8d3323f415bdcef4977493fda1672f84d56696","elandau","elandau@yahoo.com","Thu Apr 24 2014 18:55:50 GMT+0200 (CEST)","Thu Apr 24 09:55:50 2014 -0700","2"
"7a2e7a6e1a4ba023fee580529247d634461e9754","elandau","elandau@yahoo.com","Thu Apr 24 2014 18:54:53 GMT+0200 (CEST)","Thu Apr 24 09:54:53 2014 -0700","0"
"6ab282f0ed2aa617c30e21317e0e29a09e36fa4b","elandau","elandau@yahoo.com","Thu Apr 24 2014 18:48:42 GMT+0200 (CEST)","Thu Apr 24 09:48:42 2014 -0700","2"
"224f7e687dce605bd2667170c1f7b2bf29806e02","elandau","elandau@yahoo.com","Thu Apr 24 2014 18:32:30 GMT+0200 (CEST)","Thu Apr 24 09:32:30 2014 -0700","2"
"ae1d2fc92107f7e58b3d959dce19ea638cdb53a7","Amit Joshi","ajoshi@netflix.com","Fri Apr 18 2014 02:02:54 GMT+0200 (CEST)","Thu Apr 17 17:02:54 2014 -0700","0"
"fc0d3c3c4e88107d4e2d6a4ab6b867852b0752ec","elandau","elandau@yahoo.com","Thu Apr 17 2014 05:24:35 GMT+0200 (CEST)","Wed Apr 16 20:24:35 2014 -0700","0"
"3c763e03fd223d3888b13ae7f61cbe48def623c3","Amit Joshi","ajoshi@netflix.com","Thu Apr 17 2014 02:37:31 GMT+0200 (CEST)","Wed Apr 16 17:37:31 2014 -0700","0"
"55ef0d9d04554058c476f2fe5c42fb9cf218999b","elandau","elandau@yahoo.com","Wed Apr 16 2014 23:14:12 GMT+0200 (CEST)","Wed Apr 16 14:14:12 2014 -0700","2"
"1e54a4784f3ee15099255d143a1903f18407e012","elandau","elandau@yahoo.com","Wed Apr 16 2014 23:12:28 GMT+0200 (CEST)","Wed Apr 16 14:12:28 2014 -0700","0"
"578985af60791657d6f4826318e04297a53317fe","elandau","elandau@yahoo.com","Wed Apr 16 2014 22:47:15 GMT+0200 (CEST)","Wed Apr 16 13:47:15 2014 -0700","2"
"4397288a3dc78e12af52340c03c5b3d902a43aa8","elandau","elandau@yahoo.com","Wed Apr 16 2014 20:06:42 GMT+0200 (CEST)","Wed Apr 16 11:06:42 2014 -0700","0"
"e2bec0c29b00f3f19e2cdfcd31d72191f4529881","elandau","elandau@yahoo.com","Fri Mar 28 2014 19:55:22 GMT+0100 (CET)","Fri Mar 28 11:55:22 2014 -0700","2"
"e0b63584239156bbcf993c0757215e9f979e5567","elandau","elandau@yahoo.com","Fri Mar 28 2014 19:54:54 GMT+0100 (CET)","Fri Mar 28 11:54:54 2014 -0700","0"
"7ba132d9d2968b4ffdceaa1afc578fd9ab267dad","Steven Zhen Wu","stevenz3wu@gmail.com","Wed Mar 26 2014 22:14:50 GMT+0100 (CET)","Wed Mar 26 14:14:50 2014 -0700","2"
"772a00b28a4da3ea30725ebeb2c673c3e64e5b84","elandau","elandau@yahoo.com","Wed Mar 26 2014 21:00:24 GMT+0100 (CET)","Wed Mar 26 13:00:24 2014 -0700","0"
"44d17c1f9c9584b6317aeba3d9740d836ebfc3bd","Bob T Builder","builds@netflix.com","Fri Jan 31 2014 01:42:19 GMT+0100 (CET)","Fri Jan 31 00:42:19 2014 +0000","0"
"abf8c286fb5c35c3220d23aae0f123caee988fd6","Bob T Builder","builds@netflix.com","Fri Jan 31 2014 01:42:15 GMT+0100 (CET)","Fri Jan 31 00:42:15 2014 +0000","0"
"5eff6472d10ce1d29b6741d4cb5c571163f263aa","elandau","elandau@yahoo.com","Fri Jan 31 2014 01:38:36 GMT+0100 (CET)","Thu Jan 30 16:38:36 2014 -0800","2"
"8fefb1150cd9e0f15a3f6590326725000833fe04","elandau","elandau@yahoo.com","Fri Jan 31 2014 01:38:08 GMT+0100 (CET)","Thu Jan 30 16:38:08 2014 -0800","0"
"1226a56a71672b6c2e2211af838fe86bfe74a022","elandau","elandau@yahoo.com","Fri Jan 31 2014 01:35:17 GMT+0100 (CET)","Thu Jan 30 16:35:17 2014 -0800","0"
"6afb819cc5b4d559a71fbf2d3c19f6b3a5c74aea","Bob T Builder","builds@netflix.com","Thu Jan 30 2014 23:51:00 GMT+0100 (CET)","Thu Jan 30 22:51:00 2014 +0000","0"
"30db5148802d90d839128aeeb7f58cf8d8c8dded","Bob T Builder","builds@netflix.com","Thu Jan 30 2014 23:50:56 GMT+0100 (CET)","Thu Jan 30 22:50:56 2014 +0000","0"
"d1639d44c2559f291741b3348ea669bd83543e6e","elandau","elandau@yahoo.com","Wed Jan 29 2014 22:05:53 GMT+0100 (CET)","Wed Jan 29 13:05:53 2014 -0800","0"
"6fa210677b5dbdcf3625444ba0f1ad4e86e5af52","elandau","elandau@yahoo.com","Tue Jan 28 2014 18:14:12 GMT+0100 (CET)","Tue Jan 28 09:14:12 2014 -0800","2"
"fa22694548bb28db9055db65a742771f6d151e11","elandau","elandau@yahoo.com","Tue Jan 28 2014 18:09:35 GMT+0100 (CET)","Tue Jan 28 09:09:35 2014 -0800","0"
"22990699dbcd49cf8b52a1a549da8454ab858658","elandau","elandau@yahoo.com","Tue Jan 28 2014 01:50:12 GMT+0100 (CET)","Mon Jan 27 16:50:12 2014 -0800","2"
"d78618d12c42065f5bf94d53ac9c4958e4603b06","elandau","elandau@yahoo.com","Tue Jan 28 2014 01:47:02 GMT+0100 (CET)","Mon Jan 27 16:47:02 2014 -0800","0"
"1a89173f67b310462ad0ae6ac2247f8e9803af1b","elandau","elandau@yahoo.com","Tue Jan 28 2014 01:43:55 GMT+0100 (CET)","Mon Jan 27 16:43:55 2014 -0800","2"
"f784709a9ad5647ccc0fe5bb8965dd32e0eb7b42","elandau","elandau@yahoo.com","Tue Jan 28 2014 01:43:06 GMT+0100 (CET)","Mon Jan 27 16:43:06 2014 -0800","0"
"76928d48662e7239cfb5655733e997200d3a8bef","elandau","elandau@yahoo.com","Tue Jan 28 2014 01:40:36 GMT+0100 (CET)","Mon Jan 27 16:40:36 2014 -0800","2"
"535912bd1d10c092ddd8e15393e351218277719b","elandau","elandau@yahoo.com","Tue Jan 28 2014 01:14:31 GMT+0100 (CET)","Mon Jan 27 16:14:31 2014 -0800","0"
"e212468d43973c46b3cb98590f2566bc62744832","elandau","elandau@yahoo.com","Tue Jan 28 2014 00:39:24 GMT+0100 (CET)","Mon Jan 27 15:39:24 2014 -0800","0"
"1fedefdc8b6f656ac45e6efe349f60b7116fc9a9","elandau","elandau@yahoo.com","Sat Jan 25 2014 00:38:37 GMT+0100 (CET)","Fri Jan 24 15:38:37 2014 -0800","0"
"75ef258fa95ff7ddb8f555429176cc0d6e26a072","elandau","elandau@yahoo.com","Fri Jan 24 2014 19:34:57 GMT+0100 (CET)","Fri Jan 24 10:34:57 2014 -0800","0"
"6303488fbf34e5259321428f179e750b29fdbd2e","elandau","elandau@yahoo.com","Thu Jan 23 2014 21:42:45 GMT+0100 (CET)","Thu Jan 23 12:42:45 2014 -0800","0"
"92d3a520887371e9851ec62b0317687dfdc34839","elandau","elandau@yahoo.com","Wed Jan 22 2014 22:27:42 GMT+0100 (CET)","Wed Jan 22 13:27:42 2014 -0800","0"
"09c07b268e43564f30fe94662624d9e7a0337847","elandau","elandau@yahoo.com","Wed Jan 22 2014 20:36:27 GMT+0100 (CET)","Wed Jan 22 11:36:27 2014 -0800","0"
"080f888eda571fbc4fd6afa52114e7e78b52ef02","elandau","elandau@yahoo.com","Wed Jan 22 2014 20:22:40 GMT+0100 (CET)","Wed Jan 22 11:22:40 2014 -0800","0"
"c6ab8f06c0caa179abbdbabb8e9396035912b2b5","elandau","elandau@yahoo.com","Fri Jan 17 2014 21:46:53 GMT+0100 (CET)","Fri Jan 17 12:46:53 2014 -0800","0"
"4ca972a8805aaf39024a8475df33acfe317047c8","elandau","elandau@yahoo.com","Thu Jan 16 2014 23:42:09 GMT+0100 (CET)","Thu Jan 16 14:42:09 2014 -0800","0"
"fa724ac5f2cc749ef1f4edcb9d00f4d5e07c5030","elandau","elandau@yahoo.com","Thu Jan 16 2014 20:50:51 GMT+0100 (CET)","Thu Jan 16 11:50:51 2014 -0800","0"
"9c4ba48107f068c55947deb1e3d2e28ee370ea66","elandau","elandau@yahoo.com","Thu Jan 16 2014 19:57:28 GMT+0100 (CET)","Thu Jan 16 10:57:28 2014 -0800","0"
"85bc5a67b333739570e341b1cc90987df413b052","elandau","elandau@yahoo.com","Wed Aug 28 2013 19:58:16 GMT+0200 (CEST)","Wed Aug 28 10:58:16 2013 -0700","0"
"e1c63ee1a8c3a26d341737994d860242e304726a","elandau","elandau@yahoo.com","Wed Aug 28 2013 18:59:11 GMT+0200 (CEST)","Wed Aug 28 09:59:11 2013 -0700","0"
"59a3cd090661fcd3f88014790cfd942fbe711882","elandau","elandau@yahoo.com","Mon Aug 26 2013 19:27:53 GMT+0200 (CEST)","Mon Aug 26 10:27:53 2013 -0700","0"
"a427d2438e59bf5842a4317ffa5c56d38b29f958","elandau","elandau@yahoo.com","Mon Aug 26 2013 19:25:19 GMT+0200 (CEST)","Mon Aug 26 10:25:19 2013 -0700","0"
"ec16cc2dece51a2a679cc88930789cfd346308bf","elandau","elandau@yahoo.com","Mon Aug 12 2013 22:18:44 GMT+0200 (CEST)","Mon Aug 12 13:18:44 2013 -0700","0"
"55d3cb2d70ccf67970d50f897d2cff3e4eacc615","elandau","elandau@yahoo.com","Mon Aug 12 2013 19:29:50 GMT+0200 (CEST)","Mon Aug 12 10:29:50 2013 -0700","0"
"76db6d8b8798d21d129db53800d5dbb39600d518","elandau","elandau@yahoo.com","Sat Aug 10 2013 01:18:05 GMT+0200 (CEST)","Fri Aug 9 16:18:05 2013 -0700","0"
"0679e72ba89da8d45daf03e02c3dc67073927497","elandau","elandau@yahoo.com","Fri Aug 09 2013 20:43:53 GMT+0200 (CEST)","Fri Aug 9 11:43:53 2013 -0700","0"
"9f7adc85fb1a45b227fe5ce9dc17a45d2578c60d","elandau","elandau@yahoo.com","Fri Aug 09 2013 20:41:17 GMT+0200 (CEST)","Fri Aug 9 11:41:17 2013 -0700","0"
"c00343d94fd65f7dd885875f257c5c170f197229","allenxwang","awang@netflix.com","Wed Jan 30 2013 05:46:13 GMT+0100 (CET)","Tue Jan 29 20:46:13 2013 -0800","2"
"51e1caa031fe42acad9bcd3fb61806613d9f3cfe","Allen Wang","awang@netflix.com","Wed Jan 30 2013 03:16:56 GMT+0100 (CET)","Tue Jan 29 18:16:56 2013 -0800","0"
"d548fe04dc816a32158ebb67c282021fda18ae4e","Allen Wang","awang@netflix.com","Wed Jan 30 2013 03:14:19 GMT+0100 (CET)","Tue Jan 29 18:14:19 2013 -0800","0"
"a8af10087cc69adba2af8668c1564f8fec149a1d","Sudhir Tonse","stonse@gmail.com","Fri Jan 18 2013 01:43:32 GMT+0100 (CET)","Thu Jan 17 16:43:32 2013 -0800","0"
"e4d40ad3fe1fdd1e5f90036bc3f30fc8c0815d3e","Sudhir Tonse","stonse@gmail.com","Fri Jan 18 2013 01:23:30 GMT+0100 (CET)","Thu Jan 17 16:23:30 2013 -0800","0"
"519178ade96fdf4751471b962dab84944f6f7ba3","Sudhir Tonse","stonse@gmail.com","Fri Jan 18 2013 01:19:34 GMT+0100 (CET)","Thu Jan 17 16:19:34 2013 -0800","0"
"ba6d35c7081c394b84b90f9a2811ee250f1e0c8a","Sudhir Tonse","stonse@gmail.com","Fri Jan 18 2013 00:02:25 GMT+0100 (CET)","Thu Jan 17 15:02:25 2013 -0800","0"
"1c3ed728706a0cc857654ce9e5b0b5b2e80a3ad4","Sudhir Tonse","stonse@gmail.com","Thu Jan 17 2013 23:56:20 GMT+0100 (CET)","Thu Jan 17 14:56:20 2013 -0800","0"
"31b6ca4c823d0bd04e6372ebde03bb46113f137e","Sudhir Tonse","stonse@gmail.com","Thu Jan 17 2013 23:45:14 GMT+0100 (CET)","Thu Jan 17 14:45:14 2013 -0800","0"
"95b8ffb42f68deadf75a5c6aac67f31fc9918fc2","Sudhir Tonse","stonse@gmail.com","Thu Jan 17 2013 23:42:50 GMT+0100 (CET)","Thu Jan 17 14:42:50 2013 -0800","0"
"58562adcee106a85a85dcfaf3b68173b3420fcce","Allen Wang","awang@netflix.com","Tue Jan 15 2013 03:40:07 GMT+0100 (CET)","Mon Jan 14 18:40:07 2013 -0800","0"
"cfea64de1153280f88337f9d8496e9e0de39fc82","Allen Wang","awang@netflix.com","Tue Jan 15 2013 01:27:04 GMT+0100 (CET)","Mon Jan 14 16:27:04 2013 -0800","2"
"737c7c12cb7d57876eae03d6b7561a526bbc9d29","Sudhir Tonse","stonse@gmail.com","Tue Jan 08 2013 23:24:29 GMT+0100 (CET)","Tue Jan 8 14:24:29 2013 -0800","0"
"b7847eb946161b85609621f0392eb33e32b5cf42","Justin Ryan","jryan@netflix.com","Wed Jan 02 2013 06:12:24 GMT+0100 (CET)","Tue Jan 1 21:12:24 2013 -0800","0"
"36e5b8f5d64e08147ea98ae17e15a21d716b8b10","Justin Ryan","jryan@netflix.com","Fri Dec 14 2012 20:09:19 GMT+0100 (CET)","Fri Dec 14 11:09:19 2012 -0800","0"
"66ff83f789785e9351cec4fb54b6f6ffa0eb9874","Justin Ryan","jryan@netflix.com","Fri Nov 16 2012 23:46:32 GMT+0100 (CET)","Fri Nov 16 14:46:32 2012 -0800","0"
"1cbb4d6dbe34998f4caa2cbe52c59abc8e0e4886","Justin Ryan","jryan@netflix.com","Wed Oct 24 2012 01:05:35 GMT+0200 (CEST)","Tue Oct 23 16:05:35 2012 -0700","0"
"05c4d0660d4f5317e430f0dc7f0c1487ac4f51e2","Justin Ryan","jryan@netflix.com","Tue Oct 23 2012 05:49:26 GMT+0200 (CEST)","Mon Oct 22 20:49:26 2012 -0700","0"
"61bd2b059be16052e2372e792ec8698af9589d79","Justin Ryan","jryan@netflix.com","Thu Oct 11 2012 05:34:02 GMT+0200 (CEST)","Wed Oct 10 20:34:02 2012 -0700","0"
"6d4a854dca49cbfd989b468efc4e7bce89796e08","Justin Ryan","jryan@netflix.com","Fri Oct 05 2012 02:47:56 GMT+0200 (CEST)","Thu Oct 4 17:47:56 2012 -0700","0"
"a8674db7d92f5a6669b8f373205cfef52b995ba9","Justin Ryan","jryan@netflix.com","Mon Sep 24 2012 23:53:11 GMT+0200 (CEST)","Mon Sep 24 14:53:11 2012 -0700","0"
"2b31d36a03edcc93a3d2c478ba8b8c3b315df85a","Justin Ryan","jryan@netflix.com","Fri Sep 07 2012 00:27:23 GMT+0200 (CEST)","Thu Sep 6 15:27:23 2012 -0700","0"
"1954d730193a6ee7300cbcdf5f4cfaa74e9faa3e","Justin Ryan","jryan@netflix.com","Thu Sep 06 2012 01:33:00 GMT+0200 (CEST)","Wed Sep 5 16:33:00 2012 -0700","0"
"f170238c6df0e5991758ea14058e1b6ef05fa905","Justin Ryan","jryan@netflix.com","Tue Sep 04 2012 20:46:58 GMT+0200 (CEST)","Tue Sep 4 11:46:58 2012 -0700","0"
"ddedbd72afbfbd786614983f3ffbc10e1522c6ec","Justin Ryan","jryan@netflix.com","Sat Sep 01 2012 00:35:27 GMT+0200 (CEST)","Fri Aug 31 15:35:27 2012 -0700","0"
"8f289b73e539edc34a4fcd22df1c6dc9d97f216f","Justin Ryan","jryan@netflix.com","Tue Aug 21 2012 08:34:49 GMT+0200 (CEST)","Mon Aug 20 23:34:49 2012 -0700","0"
"a85e1963ffaacd0d695baa356f69adccfcbbebf4","Justin Ryan","jryan@netflix.com","Mon Aug 20 2012 23:26:35 GMT+0200 (CEST)","Mon Aug 20 14:26:35 2012 -0700","0"
"c2af08e723518a2191e51bf9eae694fda12d1bbc","Justin Ryan","jryan@netflix.com","Sat Aug 18 2012 01:02:31 GMT+0200 (CEST)","Fri Aug 17 16:02:31 2012 -0700","0"
"0f0c6114889de1c0c3d702661aa44f95ec76edea","Justin Ryan","jryan@netflix.com","Sat Aug 18 2012 01:02:17 GMT+0200 (CEST)","Fri Aug 17 16:02:17 2012 -0700","0"
"cc1b04ce986105cc04a141554902e5cb699efbcc","Justin Ryan","justin@halfempty.org","Fri Aug 03 2012 21:18:09 GMT+0200 (CEST)","Fri Aug 3 12:18:09 2012 -0700","2"
"eaa8fc97a4427d51bf8637570a263d4f4e33e5af","Jordan Zimmerman","jordan@jordanzimmerman.com","Fri Aug 03 2012 20:59:35 GMT+0200 (CEST)","Fri Aug 3 11:59:35 2012 -0700","0"
"7728a0cd9bb84a4d8c74d41bef298a3790d1944a","Allen Wang","awang@netflix.com","Fri Jul 13 2012 03:27:07 GMT+0200 (CEST)","Thu Jul 12 18:27:07 2012 -0700","0"
"bf5b268244d4eea430049627a734b3fa19307b3e","Justin Ryan","jryan@netflix.com","Sat Apr 14 2012 00:40:46 GMT+0200 (CEST)","Fri Apr 13 15:40:46 2012 -0700","0"
"e9cdf18da174446ca4f50c4633f5c7bf37628903","Justin Ryan","jryan@netflix.com","Tue Apr 10 2012 04:15:31 GMT+0200 (CEST)","Mon Apr 9 19:15:31 2012 -0700","2"
"bc662051d8c72ea7b20350b1746e1a8f527c9244","Justin Ryan","jryan@netflix.com","Tue Apr 10 2012 04:14:47 GMT+0200 (CEST)","Mon Apr 9 19:14:47 2012 -0700","0"
"7c28a7637fbaf8c78ee8efcdae85592663960ea6","Justin Ryan","jryan@netflix.com","Tue Apr 10 2012 04:10:02 GMT+0200 (CEST)","Mon Apr 9 19:10:02 2012 -0700","0"
"1df6e445488edfec78512c70e4db7352a1df57ec","Justin Ryan","jryan@netflix.com","Tue Apr 10 2012 02:04:28 GMT+0200 (CEST)","Mon Apr 9 17:04:28 2012 -0700","0"
"66332d8b8fe98c8068c85c215dbbacc66397a68f","Justin Ryan","jryan@netflix.com","Tue Apr 10 2012 01:00:55 GMT+0200 (CEST)","Mon Apr 9 16:00:55 2012 -0700","0"
"61b1710621d138556fe2d5621076ea40ad47f8af","Justin Ryan","jryan@netflix.com","Tue Apr 10 2012 00:56:00 GMT+0200 (CEST)","Mon Apr 9 15:56:00 2012 -0700","0"
"3a10a077f9fc6c3aff7b7b1eebe9365d34b5acb4","Justin Ryan","jryan@netflix.com","Tue Apr 10 2012 00:30:00 GMT+0200 (CEST)","Mon Apr 9 15:30:00 2012 -0700","0"
"9fa9ec0acce8afc01da943b1922a731059cb4cd2","Justin Ryan","jryan@netflix.com","Tue Apr 10 2012 00:06:15 GMT+0200 (CEST)","Mon Apr 9 15:06:15 2012 -0700","0"
"b5b2f5ef9e908a3c53e4afe017a60f2b878a93b3","Justin Ryan","jryan@netflix.com","Mon Apr 09 2012 19:52:02 GMT+0200 (CEST)","Mon Apr 9 10:52:02 2012 -0700","0"
"52bd53f5ea5eec84818d65b40e81d0a82ada6ba8","Justin Ryan","jryan@netflix.com","Tue Apr 03 2012 01:18:03 GMT+0200 (CEST)","Mon Apr 2 16:18:03 2012 -0700","0"
"697fd66aae9beed107e13f49a741455f1d9d8dd9","Justin Ryan","jryan@netflix.com","Sun Mar 18 2012 09:07:52 GMT+0100 (CET)","Sun Mar 18 01:07:52 2012 -0700","0"
