"commit","author.name","author.email","date","date_string","merges_count"
"2cbfc682c06d3286609c5b49962b5653aa7a60cc","David Genord II","david@collectiveidea.com","Fri Sep 18 2015 19:40:39 GMT+0200 (CEST)","Fri Sep 18 13:40:39 2015 -0400","2"
"af0b0d999ff398561e60a4c7532e65da4467ded1","Joshua Kovach","kovach.jc@gmail.com","Thu Sep 17 2015 20:20:34 GMT+0200 (CEST)","Thu Sep 17 14:20:34 2015 -0400","0"
"5f775daa8fbdad4e4de62a88ad643d1db333a6b4","Daniel Morrison","daniel@collectiveidea.com","Wed Jul 08 2015 21:40:49 GMT+0200 (CEST)","Wed Jul 8 15:40:49 2015 -0400","0"
"b08b2f441d900847f34ee751451f65dd45744ea1","Daniel Morrison","daniel@collectiveidea.com","Wed Jul 08 2015 21:39:30 GMT+0200 (CEST)","Wed Jul 8 15:39:30 2015 -0400","0"
"e7ddf138023488cc16ee8c9b11da921d6e2074a0","Daniel Morrison","daniel@collectiveidea.com","Wed Jul 08 2015 21:38:23 GMT+0200 (CEST)","Wed Jul 8 15:38:23 2015 -0400","0"
