"commit","author.name","author.email","date","date_string","merges_count"
"4b5eae7a69c382c1854989e7844ab672d62b7054","Tim Channell","tim.channell@gmail.com","Fri Dec 25 2015 02:34:56 GMT+0100 (CET)","Thu Dec 24 20:34:56 2015 -0500","0"
"ee59e15a58cf7be42490e53d0b703eade19b0a32","Tim Channell","tim.channell@gmail.com","Fri Dec 25 2015 02:34:52 GMT+0100 (CET)","Thu Dec 24 20:34:52 2015 -0500","0"
"2ff11817e44a05c62ed2a81f030df7b7890ded48","Tim Channell","tim.channell@gmail.com","Fri Dec 25 2015 02:21:35 GMT+0100 (CET)","Thu Dec 24 20:21:35 2015 -0500","0"
"249f9b336ed28bf596e41e42169bb9de7eb11068","Tim Channell","tim.channell@gmail.com","Fri Dec 25 2015 02:03:36 GMT+0100 (CET)","Thu Dec 24 20:03:36 2015 -0500","0"
"5bc6aefb2a06628ce00607028f46b7660d33a58d","Tim Channell","tim.channell@gmail.com","Fri Dec 25 2015 02:00:09 GMT+0100 (CET)","Thu Dec 24 20:00:09 2015 -0500","0"
"551473c5241a4839fa2d05aeaca5f6689703786f","Tim Channell","tim.channell@gmail.com","Fri Dec 25 2015 01:12:06 GMT+0100 (CET)","Thu Dec 24 19:12:06 2015 -0500","0"
