"commit","author.name","author.email","date","date_string","merges_count"
"dfa4116f06106e76faf7be9667975249413191d3","Olivier Bourdon","obourdon@mirantis.com","Fri Jan 15 2016 17:04:31 GMT+0100 (CET)","Fri Jan 15 17:04:31 2016 +0100","0"
"b996d01a39d68ca3f3438aab0e589a4c2cb59b8b","Jenkins","jenkins@review.openstack.org","Wed Nov 25 2015 10:13:49 GMT+0100 (CET)","Wed Nov 25 09:13:49 2015 +0000","2"
"ccda6fccd520375828fb4f832d0407918f1a3c86","Swann Croiset","scroiset@mirantis.com","Fri Nov 20 2015 10:49:49 GMT+0100 (CET)","Fri Nov 20 10:49:49 2015 +0100","0"
"a008b181eb00e1fc1307dd96ab373ab23e27b6ac","Jeremy Stanley","fungi@yuggoth.org","Sun Oct 18 2015 00:26:50 GMT+0200 (CEST)","Sat Oct 17 22:26:50 2015 +0000","0"
"9aecc210466ab7595805c775db472759f351684e","Maciej Relewicz","mrelewicz@mirantis.com","Wed Sep 02 2015 15:07:42 GMT+0200 (CEST)","Wed Sep 2 15:07:42 2015 +0200","0"
"4961ae97214d3741bb77756b87638c40608f8f81","Piotr Misiak","pmisiak@mirantis.com","Wed Aug 19 2015 17:22:39 GMT+0200 (CEST)","Wed Aug 19 17:22:39 2015 +0200","0"
"924d68fa30163e1c180ca3b643a0374c39ee029e","Piotr Misiak","pmisiak@mirantis.com","Wed Aug 12 2015 12:07:46 GMT+0200 (CEST)","Wed Aug 12 12:07:46 2015 +0200","0"
"1e6fe34139d920df69fa13d2563d40c6ecb630e8","Piotr Misiak","pmisiak@mirantis.com","Wed Aug 12 2015 11:40:02 GMT+0200 (CEST)","Wed Aug 12 11:40:02 2015 +0200","0"
"942a67d040430644bedb7e7ac815d874915f84b8","Piotr Misiak","pmisiak@mirantis.com","Fri Aug 07 2015 10:17:45 GMT+0200 (CEST)","Fri Aug 7 10:17:45 2015 +0200","0"
"66e007426ceaacf0c1dc7fc5869264b8b8f6e112","Bartosz Kupidura","bkupidura@mirantis.com","Wed Jul 29 2015 14:18:57 GMT+0200 (CEST)","Wed Jul 29 14:18:57 2015 +0200","0"
"522bfcef03e3455b1f4e358c73f4793a6b6c53c3","Bartosz Kupidura","bkupidura@mirantis.com","Mon Jul 06 2015 14:52:49 GMT+0200 (CEST)","Mon Jul 6 12:52:49 2015 +0000","0"
"377a6c27c4f58217ca816a3b062b854893caf18c","Jenkins","jenkins@review.openstack.org","Wed Jun 24 2015 10:17:43 GMT+0200 (CEST)","Wed Jun 24 08:17:43 2015 +0000","2"
"21ca7895bd914fc559f6f1ff2869b2f2dab9f8e0","Piotr Misiak","pmisiak@mirantis.com","Mon Jun 22 2015 14:56:49 GMT+0200 (CEST)","Mon Jun 22 14:56:49 2015 +0200","0"
"69bbb2dbe87998c9a42254232c57dd2261e8bf21","Piotr Misiak","pmisiak@mirantis.com","Fri Jun 19 2015 19:02:46 GMT+0200 (CEST)","Fri Jun 19 19:02:46 2015 +0200","0"
"f35aa27530c3ce6b7355929c4564314b54adaecb","Jenkins","jenkins@review.openstack.org","Thu Jun 18 2015 12:34:08 GMT+0200 (CEST)","Thu Jun 18 10:34:08 2015 +0000","2"
"480b752561a979aa487d2e74fb69a616bf1bfd4b","Jenkins","jenkins@review.openstack.org","Thu Jun 18 2015 12:31:20 GMT+0200 (CEST)","Thu Jun 18 10:31:20 2015 +0000","2"
"0eaf06480fbdc9936b892139dc8d03e4bd250422","Piotr Misiak","pmisiak@mirantis.com","Tue Jun 09 2015 16:03:46 GMT+0200 (CEST)","Tue Jun 9 16:03:46 2015 +0200","0"
"10277535ecded5207550f7b06c814f9d23415148","Piotr Misiak","pmisiak@mirantis.com","Tue Jun 09 2015 11:36:23 GMT+0200 (CEST)","Tue Jun 9 11:36:23 2015 +0200","0"
"8962ed056342d9fb979f2b54f6e3a796e9a23a37","Piotr Misiak","pmisiak@mirantis.com","Fri Jun 05 2015 13:49:38 GMT+0200 (CEST)","Fri Jun 5 13:49:38 2015 +0200","0"
"2f85e8d6a3894f65247550c1444461d087438276","OpenStack Project Creator","openstack-infra@lists.openstack.org","Tue Jun 02 2015 17:50:49 GMT+0200 (CEST)","Tue Jun 2 15:50:49 2015 +0000","0"
