"commit","author.name","author.email","date","date_string","merges_count"
"af0df999735b29259b2a64342d616bc04bce54de","shnhrrsn","shnhrrsn@gmail.com","Wed Nov 18 2009 17:38:26 GMT+0100 (CET)","Wed Nov 18 11:38:26 2009 -0500","0"
"61cabc242e11c2d84ef8a38a75a9d6a20e260a35","shnhrrsn","shnhrrsn@gmail.com","Mon Oct 12 2009 21:31:42 GMT+0200 (CEST)","Mon Oct 12 15:31:42 2009 -0400","0"
"4c5f38758cd91a93f8bf61c677ab3fb4e21599c6","shnhrrsn","shnhrrsn@gmail.com","Mon Oct 12 2009 00:09:25 GMT+0200 (CEST)","Sun Oct 11 18:09:25 2009 -0400","0"
"fc34148ac5363e83adbd59a87304a3ee8dd931c0","shnhrrsn","shnhrrsn@gmail.com","Sun Oct 11 2009 21:28:37 GMT+0200 (CEST)","Sun Oct 11 15:28:37 2009 -0400","0"
"925ed51467ce5adbaf7fa00320a08e8e74d71f7e","shnhrrsn","shnhrrsn@gmail.com","Sun Oct 11 2009 02:53:57 GMT+0200 (CEST)","Sat Oct 10 20:53:57 2009 -0400","0"
"36d2b1504f3ce841ba0f18f758e34f8758618ded","Shaun Harrison","Shaun@Shauns-MacBook-Pro.local","Tue Jul 21 2009 04:29:06 GMT+0200 (CEST)","Mon Jul 20 22:29:06 2009 -0400","0"
"a3ae917336ae9b0fa8e1e84fd66389f66f6ef49a","Shaun Harrison","Shaun@Shauns-MacBook-Pro.local","Sun Jul 19 2009 21:45:19 GMT+0200 (CEST)","Sun Jul 19 15:45:19 2009 -0400","0"
"4d5b1cb4cadb19a9d011b622cfde439f554b3859","Shaun Harrison","Shaun@Shauns-MacBook-Pro.local","Sun Jul 19 2009 20:06:36 GMT+0200 (CEST)","Sun Jul 19 14:06:36 2009 -0400","0"
"ec3d815a7108685cb8bdb878b79d1fb0202cba40","Shaun Harrison","Shaun@Shauns-MacBook-Pro.local","Sun Jul 19 2009 18:14:40 GMT+0200 (CEST)","Sun Jul 19 12:14:40 2009 -0400","0"
"4f0435f197dec89e4b42e7a922b96f73bbf14c03","Shaun Harrison","Shaun@Shauns-MacBook-Pro.local","Sun Jul 19 2009 03:39:37 GMT+0200 (CEST)","Sat Jul 18 21:39:37 2009 -0400","0"
"cacfad13eb463199674747ac5a6164fe1720703d","Shaun Harrison","Shaun@Shauns-MacBook.local","Fri May 01 2009 02:11:07 GMT+0200 (CEST)","Thu Apr 30 20:11:07 2009 -0400","0"
"de190363da7043373ebf4f08e8c5ae1a0ffc5b00","Shaun Harrison","shaun@enormego.com","Fri May 01 2009 00:03:27 GMT+0200 (CEST)","Thu Apr 30 18:03:27 2009 -0400","0"
