"commit","author.name","author.email","date","date_string","merges_count"
"e704198cf507737d0d638de04ecc688dea65a977","Andrey Stroilov","astroilov@google.com","Tue Dec 15 2015 21:11:21 GMT+0100 (CET)","Tue Dec 15 12:11:21 2015 -0800","2"
"64c8a0e79c34acea87dcead1e9c7a86deb170e0b","Andrey Stroilov","astroilov@google.com","Sat Dec 12 2015 00:50:27 GMT+0100 (CET)","Fri Dec 11 15:50:27 2015 -0800","0"
"78eb0ae1952a846188108b11b1c34f634a8689fd","Andrey Stroilov","astroilov@google.com","Fri Dec 11 2015 23:22:40 GMT+0100 (CET)","Fri Dec 11 14:22:40 2015 -0800","0"
"9becad0a1ea30884ddb419dfba46da4b63b5100d","Andrey Stroilov","astroilov@google.com","Fri Dec 11 2015 21:23:09 GMT+0100 (CET)","Fri Dec 11 12:23:09 2015 -0800","0"
"bcb14851e0f363272b9b689feb9a807c36c033bd","Andrey Stroilov","astroilov@google.com","Tue Dec 08 2015 22:11:56 GMT+0100 (CET)","Tue Dec 8 13:11:56 2015 -0800","2"
"eba4830606e7004551bdb5f94bd211f658aee449","ojarjur@google.com","ojarjur@google.com","Fri Dec 04 2015 02:48:33 GMT+0100 (CET)","Thu Dec 3 17:48:33 2015 -0800","2"
"8e087e58603d6cf69cb332c8c7aef0a5b2e78c0e","ojarjur@google.com","ojarjur@google.com","Fri Dec 04 2015 00:43:09 GMT+0100 (CET)","Thu Dec 3 15:43:09 2015 -0800","0"
"49ca9b936605f745184ab8b26132d1b4cfe710e9","Andrey Stroilov","astroilov@google.com","Fri Dec 04 2015 00:00:53 GMT+0100 (CET)","Thu Dec 3 15:00:53 2015 -0800","0"
"2d701e970106f32e515e4ea4376f54b4ca4a9309","Chiquita Kerur","ckerur@google.com","Thu Dec 03 2015 23:37:36 GMT+0100 (CET)","Thu Dec 3 14:37:36 2015 -0800","0"
"8d88a217d5badbe65ff083cc0a1e271021120199","Andrey Stroilov","astroilov@google.com","Thu Dec 03 2015 19:57:36 GMT+0100 (CET)","Thu Dec 3 10:57:36 2015 -0800","2"
"eec136fdbc055b4141d6187514d84b5a8f4c12de","Andrey Stroilov","astroilov@google.com","Thu Dec 03 2015 19:56:48 GMT+0100 (CET)","Thu Dec 3 10:56:48 2015 -0800","0"
"046ab42677f817a7d424c6a095fb87fe3c0cd6db","Chiquita Kerur","ckerur@google.com","Wed Dec 02 2015 23:26:00 GMT+0100 (CET)","Wed Dec 2 14:26:00 2015 -0800","2"
"481d0f5fd55bf37d5407e0a7a60a4649e27ddf4d","Chiquita Kerur","ckerur@google.com","Wed Dec 02 2015 23:25:08 GMT+0100 (CET)","Wed Dec 2 14:25:08 2015 -0800","2"
"f91069177cae40344640bdb4a8f7384c6e200ca9","Chiquita Kerur","ckerur@google.com","Tue Dec 01 2015 23:31:17 GMT+0100 (CET)","Tue Dec 1 14:31:17 2015 -0800","0"
"8d0086760cf8f961116cffd65d2d7c2c3101e955","Chiquita Kerur","ckerur@google.com","Tue Dec 01 2015 19:14:57 GMT+0100 (CET)","Tue Dec 1 10:14:57 2015 -0800","0"
"1947fd0c742dbdf1259199b63e613c256ceedb1d","Chiquita Kerur","ckerur@google.com","Mon Nov 23 2015 22:29:35 GMT+0100 (CET)","Mon Nov 23 13:29:35 2015 -0800","0"
"57a9fef9f6abc60ff5b1b313093f7298d61aeae4","Chiquita Kerur","ckerur@google.com","Mon Nov 23 2015 20:53:23 GMT+0100 (CET)","Mon Nov 23 11:53:23 2015 -0800","0"
"c4e7e00ee9ad700721a3786cadcc50711ef5ec1d","Andrey Stroilov","astroilov@google.com","Thu Nov 19 2015 21:46:21 GMT+0100 (CET)","Thu Nov 19 12:46:21 2015 -0800","0"
"49c447b2c1dad56ba11ee0598ef773b50f55a164","Andrey Stroilov","astroilov@google.com","Fri Nov 13 2015 04:31:25 GMT+0100 (CET)","Thu Nov 12 19:31:25 2015 -0800","0"
"b6c4eb002d3399836ac9a288e6c85c92517257f1","Wei Zheng","weizheng@google.com","Mon Nov 09 2015 22:40:49 GMT+0100 (CET)","Mon Nov 9 13:40:49 2015 -0800","0"
"b1a8bcb89f8ecb4fef306d46df239b4635d524a9","Andrey Stroilov","astroilov@google.com","Tue Oct 27 2015 22:08:01 GMT+0100 (CET)","Tue Oct 27 14:08:01 2015 -0700","0"
"32175f7096ebbd86a13e7eb431a4cb163854794a","Wei Zheng","weizheng@google.com","Wed Oct 21 2015 02:15:30 GMT+0200 (CEST)","Tue Oct 20 17:15:30 2015 -0700","0"
"811d1a34dc8fe2a4e66fa444942a5aa7d8840daa","Andrey Stroilov","astroilov@google.com","Fri Oct 16 2015 23:12:54 GMT+0200 (CEST)","Fri Oct 16 14:12:54 2015 -0700","0"
"3975ea1ed10446ba9116f7d82f7f1411b6cc9766","Wei Zheng","weizheng@google.com","Fri Oct 02 2015 20:47:10 GMT+0200 (CEST)","Fri Oct 2 11:47:10 2015 -0700","0"
"a662c448c8d90ea2be6b5d9f634c40fb32fcfea2","Wei Zheng","weizheng@google.com","Thu Oct 01 2015 05:08:23 GMT+0200 (CEST)","Wed Sep 30 20:08:23 2015 -0700","0"
"06f353cdc8cbd715283bbb237ea5bdf3aeb4265b","Wei Zheng","weizheng@google.com","Thu Oct 01 2015 02:31:27 GMT+0200 (CEST)","Wed Sep 30 17:31:27 2015 -0700","0"
"db2f15e1521a6bcd335b2a41230e7aeb2adb0a23","Wei Zheng","weizheng@google.com","Thu Oct 01 2015 00:01:05 GMT+0200 (CEST)","Wed Sep 30 15:01:05 2015 -0700","0"
"9420afc38d09a4f3fcfa9127fde5b5c3818694c0","Andrey Stroilov","astroilov@google.com","Wed Sep 30 2015 23:04:39 GMT+0200 (CEST)","Wed Sep 30 14:04:39 2015 -0700","2"
"4c5b507d159d2c2a9ee39984bfe6f6c9e0a44a9b","Andrey Stroilov","astroilov@google.com","Wed Sep 30 2015 23:04:01 GMT+0200 (CEST)","Wed Sep 30 14:04:01 2015 -0700","0"
"c7ea3ed765a66dd55c3de44bffa3892d3351ada6","Wei Zheng","weizheng@google.com","Wed Sep 30 2015 22:57:34 GMT+0200 (CEST)","Wed Sep 30 13:57:34 2015 -0700","2"
"b3e8de0ffdcf2d81607d1b2c04f7f12c9932b56b","Wei Zheng","weizheng@google.com","Wed Sep 30 2015 00:56:24 GMT+0200 (CEST)","Tue Sep 29 15:56:24 2015 -0700","0"
"7249bf37031a88b93d748d8ea55f24d333f2d2c0","Andrey Stroilov","astroilov@google.com","Tue Sep 29 2015 04:06:18 GMT+0200 (CEST)","Mon Sep 28 19:06:18 2015 -0700","0"
"0599786fae1d8fd45c2b0bf6c6a91a60e7183663","Wei Zheng","weizheng@google.com","Mon Sep 28 2015 23:21:06 GMT+0200 (CEST)","Mon Sep 28 14:21:06 2015 -0700","0"
"5d51e1fb944e655173d90b29251151e558af1a93","Wei Zheng","weizheng@google.com","Mon Sep 28 2015 22:42:02 GMT+0200 (CEST)","Mon Sep 28 13:42:02 2015 -0700","0"
"ab598e401bba6ce8bb8aff53dbe4436a4d87705e","Andrey Stroilov","astroilov@google.com","Fri Sep 25 2015 00:13:37 GMT+0200 (CEST)","Thu Sep 24 15:13:37 2015 -0700","0"
"a8a56c5d15e35f87382ffb1ef7dc9077a4253cf1","Andrey Stroilov","astroilov@google.com","Thu Sep 24 2015 21:24:23 GMT+0200 (CEST)","Thu Sep 24 12:24:23 2015 -0700","0"
"7022024f633424b46829cb125adb9de4ae8bea51","Andrey Stroilov","astroilov@google.com","Thu Sep 24 2015 00:28:20 GMT+0200 (CEST)","Wed Sep 23 15:28:20 2015 -0700","0"
"daf89839337416d46bbb9fbe383b07f711c30211","Andrey Stroilov","astroilov@google.com","Tue Sep 08 2015 21:41:56 GMT+0200 (CEST)","Tue Sep 8 12:41:56 2015 -0700","0"
