"commit","author.name","author.email","date","date_string","merges_count"
"d83b73b8c6eec4641951722d123bca0a898ea663","Xavier Shay","xavier@rhnh.net","Thu Mar 26 2015 17:30:00 GMT+0100 (CET)","Thu Mar 26 09:30:00 2015 -0700","2"
"0f10ef12e7449365f6028cbbb25dcdb8ae01cdf7","Xavier Shay","xavier@squareup.com","Thu Mar 26 2015 02:17:31 GMT+0100 (CET)","Wed Mar 25 18:17:31 2015 -0700","0"
"25d10b29aaeb6b73c48e495854b452d13431068a","Xavier Shay","xavier@squareup.com","Thu Mar 26 2015 02:16:14 GMT+0100 (CET)","Wed Mar 25 18:16:14 2015 -0700","0"
"01fc0ee456d16f50c292baa2e3647a1f4f9c4cbe","Xavier Shay","xavier@rhnh.net","Thu Mar 19 2015 18:02:02 GMT+0100 (CET)","Thu Mar 19 10:02:02 2015 -0700","2"
"e739d9860380526fb307a24642485abbf6ba2c7b","Xavier Shay","xavier@squareup.com","Thu Mar 19 2015 17:37:56 GMT+0100 (CET)","Thu Mar 19 09:37:56 2015 -0700","0"
"f82264522ea6f71abb4eeb9a2b3717f61f9628e2","Xavier Shay","xavier@squareup.com","Thu Mar 19 2015 16:36:48 GMT+0100 (CET)","Thu Mar 19 08:36:48 2015 -0700","0"
"9cf9365fd97a41be3f99617e88bf1436edee811c","Xavier Shay","xavier@squareup.com","Thu Mar 19 2015 02:23:50 GMT+0100 (CET)","Wed Mar 18 18:23:50 2015 -0700","0"
"62f03414ac6db3a8b7c9ec11770bd0a06241aafd","Xavier Shay","xavier@squareup.com","Thu Mar 19 2015 02:07:34 GMT+0100 (CET)","Wed Mar 18 18:07:34 2015 -0700","0"
"0720d80440f44491706285a25de5e19c1551a931","Xavier Shay","xavier@squareup.com","Thu Mar 19 2015 01:54:03 GMT+0100 (CET)","Wed Mar 18 17:54:03 2015 -0700","0"
"0679d01e1220b209a0586da7f75dcab6f7dbe409","Xavier Shay","xavier@squareup.com","Thu Mar 19 2015 01:51:52 GMT+0100 (CET)","Wed Mar 18 17:51:52 2015 -0700","0"
"dbeaa6cc6d991ac84a57092534571fe5e9dad6fc","Xavier Shay","xavier@squareup.com","Thu Mar 19 2015 01:46:24 GMT+0100 (CET)","Wed Mar 18 17:46:24 2015 -0700","0"
