"commit","author.name","author.email","date","date_string","merges_count"
"b5f35eb77ae40227a4201d21e75d9cf38851c550","Carlos Diaz-Padron","cpadron@mozilla.com","Mon Aug 18 2014 09:38:48 GMT+0200 (CEST)","Mon Aug 18 00:38:48 2014 -0700","2"
"51fcda7889af12778b60401d684393b5efb391d9","Carlos Diaz-Padron","cpadron@mozilla.com","Mon Aug 18 2014 09:32:48 GMT+0200 (CEST)","Mon Aug 18 00:32:48 2014 -0700","0"
"a5de69a9568a8eff3802ab01c20353db823ea6f8","Carlos Diaz-Padron","cpadron@mozilla.com","Fri Aug 08 2014 19:58:39 GMT+0200 (CEST)","Fri Aug 8 10:58:39 2014 -0700","0"
"752417fb495b6e69885557eaefc01ed4c54d2477","Jared Hirsch","ohai@6a68.net","Wed Jul 30 2014 01:04:28 GMT+0200 (CEST)","Tue Jul 29 16:04:28 2014 -0700","2"
"6460efa075e50614b04b9c82fab4ec7a87722f93","Jared Hirsch","ohai@6a68.net","Wed Jul 30 2014 00:51:31 GMT+0200 (CEST)","Tue Jul 29 15:51:31 2014 -0700","2"
"33ccfb3d2361ffb6d288adf0ce1870cd2c56d324","Carlos Diaz-Padron","cpadron@mozilla.com","Wed Jul 30 2014 00:15:38 GMT+0200 (CEST)","Tue Jul 29 15:15:38 2014 -0700","0"
"6170bb955fdd9e64ec24adff392f6f6dfb21a18e","Carlos Diaz-Padron","cpadron@mozilla.com","Tue Jul 29 2014 22:20:47 GMT+0200 (CEST)","Tue Jul 29 13:20:47 2014 -0700","0"
"692e3bbd415a64f345bca3e4c986d7b550207f41","Jared Hirsch","ohai@6a68.net","Tue Jul 29 2014 21:59:34 GMT+0200 (CEST)","Tue Jul 29 12:59:34 2014 -0700","0"
"03f7a15650c7253602614adbfab98915e1a89730","Carlos Diaz-Padron","cpadron@mozilla.com","Wed Jul 23 2014 19:42:13 GMT+0200 (CEST)","Wed Jul 23 10:42:13 2014 -0700","0"
"b0edc289f86a3a41cdb8be4b12cc19448acb5724","Jed Parsons","jedp@me.com","Wed Jun 25 2014 00:12:09 GMT+0200 (CEST)","Tue Jun 24 15:12:09 2014 -0700","0"
