"commit","author.name","author.email","date","date_string","merges_count"
"c8701839bac55a27600beb36d81ad7a74c7dabc2","Vladimir Agafonkin","agafonkin@gmail.com","Mon Jan 04 2016 12:36:01 GMT+0100 (CET)","Mon Jan 4 13:36:01 2016 +0200","0"
"7067c10cdf55cf71f5906e711c6a979299b47c93","John Firebaugh","john.firebaugh@gmail.com","Wed Oct 21 2015 23:11:02 GMT+0200 (CEST)","Wed Oct 21 14:11:02 2015 -0700","0"
"f56a2be4bdfb82e7eb1e3b79320904eaac32bee9","John Firebaugh","john.firebaugh@gmail.com","Wed Oct 21 2015 21:44:06 GMT+0200 (CEST)","Wed Oct 21 12:44:06 2015 -0700","0"
"196a7b99aba099aadf177bdc4fc85cef9da182fe","John Firebaugh","john.firebaugh@gmail.com","Wed Oct 21 2015 21:11:00 GMT+0200 (CEST)","Wed Oct 21 12:11:00 2015 -0700","0"
"f74c9c50b7ea841b0c15757418b719706a4b405b","John Firebaugh","john.firebaugh@gmail.com","Wed Sep 30 2015 00:40:39 GMT+0200 (CEST)","Tue Sep 29 15:40:39 2015 -0700","0"
"3cb78fdfd818a7b9adcac42550cde0f489fd6b81","John Firebaugh","john.firebaugh@gmail.com","Wed Sep 30 2015 00:30:08 GMT+0200 (CEST)","Tue Sep 29 15:30:08 2015 -0700","0"
"154f101933f69f56f69c99d596ec6a7b2766f2f1","John Firebaugh","john.firebaugh@gmail.com","Wed Sep 30 2015 00:19:29 GMT+0200 (CEST)","Tue Sep 29 15:19:29 2015 -0700","0"
"4b3d6223669d205e4f523c0577fcf6ec110efe74","John Firebaugh","john.firebaugh@gmail.com","Tue Oct 13 2015 01:19:30 GMT+0200 (CEST)","Mon Oct 12 16:19:30 2015 -0700","0"
"7d05de16d9a63c858011737bdaf85b21c7851906","John Firebaugh","john.firebaugh@gmail.com","Tue Oct 13 2015 01:17:28 GMT+0200 (CEST)","Mon Oct 12 16:17:28 2015 -0700","0"
"83972e58404ac4676cb1c5f5b52378d2edcb0b77","John Firebaugh","john.firebaugh@gmail.com","Tue Oct 13 2015 01:11:28 GMT+0200 (CEST)","Mon Oct 12 16:11:28 2015 -0700","0"
"0d7d2b9c3df0c5512f425bca6fb14a520afa234c","Dane Springmeyer","dane@mapbox.com","Thu Oct 08 2015 23:55:47 GMT+0200 (CEST)","Thu Oct 8 14:55:47 2015 -0700","0"
"51b80ba6e46da9e2158691b8309dac7ab15bc475","Vladimir Agafonkin","agafonkin@gmail.com","Thu Oct 08 2015 14:47:22 GMT+0200 (CEST)","Thu Oct 8 15:47:22 2015 +0300","0"
"bfbe17d74dd68207219c8c63d6338d116741799d","John Firebaugh","john.firebaugh@gmail.com","Wed Oct 07 2015 22:02:46 GMT+0200 (CEST)","Wed Oct 7 13:02:46 2015 -0700","0"
"b96bf77de13cf2c201aa1be56ab4c6d955368b53","John Firebaugh","john.firebaugh@gmail.com","Wed Oct 07 2015 02:39:27 GMT+0200 (CEST)","Tue Oct 6 17:39:27 2015 -0700","0"
"cbdcbd425dc27b8523321390ca5218af7ecc95c4","John Firebaugh","john.firebaugh@gmail.com","Tue Oct 06 2015 02:35:16 GMT+0200 (CEST)","Mon Oct 5 17:35:16 2015 -0700","0"
"b579f742add60f4dd437a39c779dc5b34edeb243","John Firebaugh","john.firebaugh@gmail.com","Tue Oct 06 2015 01:49:55 GMT+0200 (CEST)","Mon Oct 5 16:49:55 2015 -0700","0"
"dcd2a2c019d42c4f069656b82d002155fd8f31e8","John Firebaugh","john.firebaugh@gmail.com","Tue Oct 06 2015 00:55:01 GMT+0200 (CEST)","Mon Oct 5 15:55:01 2015 -0700","0"
"624a6be0374b53616cc538939a384ee1c170ef89","John Firebaugh","john.firebaugh@gmail.com","Mon Oct 05 2015 23:10:48 GMT+0200 (CEST)","Mon Oct 5 14:10:48 2015 -0700","0"
"39e3265e11322853e7a6f49eadeb0a263f37a874","John Firebaugh","john.firebaugh@gmail.com","Mon Oct 05 2015 21:26:51 GMT+0200 (CEST)","Mon Oct 5 12:26:51 2015 -0700","0"
"3c1401cb597d3c482e7874d03027e5bd88948b68","John Firebaugh","john.firebaugh@gmail.com","Wed Sep 30 2015 00:34:26 GMT+0200 (CEST)","Tue Sep 29 15:34:26 2015 -0700","0"
"fa622f3601239f4baac7b3deff9da44aa6f828a7","John Firebaugh","john.firebaugh@gmail.com","Wed Sep 30 2015 01:18:32 GMT+0200 (CEST)","Tue Sep 29 16:18:32 2015 -0700","0"
"3f8d9b1132c45e478a103a6a34413c075a4abb8c","Konstantin Käfer","mail@kkaefer.com","Tue Jul 07 2015 13:22:27 GMT+0200 (CEST)","Tue Jul 7 13:22:27 2015 +0200","0"
"6c40d5d4e13fd5ceeff43b57c4bfa362b64599f6","Konstantin Käfer","mail@kkaefer.com","Fri Feb 27 2015 15:17:46 GMT+0100 (CET)","Fri Feb 27 15:17:46 2015 +0100","0"
"21b65718ba6fcb778e9bcaff9959f638dabb62d0","Konstantin Käfer","mail@kkaefer.com","Fri Feb 27 2015 15:10:31 GMT+0100 (CET)","Fri Feb 27 15:10:31 2015 +0100","0"
"52b2528b80efcc11c3f25f2abf750a11a0fc84ff","Konstantin Käfer","mail@kkaefer.com","Thu Feb 26 2015 20:38:01 GMT+0100 (CET)","Thu Feb 26 20:38:01 2015 +0100","0"
"75b733b4a07e6bc2a38bd98a3ed256f58241ed27","Konstantin Käfer","mail@kkaefer.com","Thu Feb 26 2015 20:28:25 GMT+0100 (CET)","Thu Feb 26 20:28:25 2015 +0100","0"
"c8b9cc870c60932a4c7e99cb1f97004232ea57bf","Konstantin Käfer","mail@kkaefer.com","Thu Feb 26 2015 20:21:07 GMT+0100 (CET)","Thu Feb 26 20:21:07 2015 +0100","0"
"fde042387c6d6d3c39450795ac86c3a3fe67acb9","Konstantin Käfer","mail@kkaefer.com","Thu Feb 26 2015 20:01:30 GMT+0100 (CET)","Thu Feb 26 20:01:30 2015 +0100","0"
"58a06659def6f04528999a078fdc306c8eefd72f","Konstantin Käfer","mail@kkaefer.com","Thu Feb 26 2015 19:46:39 GMT+0100 (CET)","Thu Feb 26 19:46:39 2015 +0100","0"
"f71ae3f701c768bc606d3179d54718ecb5902d04","Konstantin Käfer","mail@kkaefer.com","Thu Feb 26 2015 14:45:09 GMT+0100 (CET)","Thu Feb 26 14:45:09 2015 +0100","0"
"c43cd742c38918c72c5fed066e20500e5fe43a0f","Konstantin Käfer","mail@kkaefer.com","Tue Feb 24 2015 16:06:43 GMT+0100 (CET)","Tue Feb 24 16:06:43 2015 +0100","0"
"fa1e05b6ae4a69a1d4c52edb48ab559fd8bc8cc4","Konstantin Käfer","mail@kkaefer.com","Tue Feb 24 2015 15:47:44 GMT+0100 (CET)","Tue Feb 24 06:47:44 2015 -0800","0"
"5de631cd01f72cc5141c25921bf3989108c74fcd","Konstantin Käfer","mail@kkaefer.com","Tue Feb 24 2015 14:59:36 GMT+0100 (CET)","Tue Feb 24 05:59:36 2015 -0800","0"
"a735feb5777de2d3f5ae8520f923688d7f79d47f","Konstantin Käfer","mail@kkaefer.com","Tue Feb 24 2015 14:55:47 GMT+0100 (CET)","Tue Feb 24 14:55:47 2015 +0100","0"
"26b6d71141ee4eae40a2d0f7dca0e6695ccbee55","Konstantin Käfer","mail@kkaefer.com","Mon Feb 23 2015 19:46:41 GMT+0100 (CET)","Mon Feb 23 19:46:41 2015 +0100","0"
"2e8c1b2a8ff1b76419e8b8e56df784b86282dcb9","Konstantin Käfer","mail@kkaefer.com","Mon Feb 23 2015 19:43:50 GMT+0100 (CET)","Mon Feb 23 19:43:50 2015 +0100","0"
"28c2f2a6bcd1c8534c2dba9ec887bd803cdc1400","Konstantin Käfer","mail@kkaefer.com","Mon Feb 23 2015 19:38:17 GMT+0100 (CET)","Mon Feb 23 19:38:17 2015 +0100","0"
"4b8a65e3733cd44ad4d155eaa47c456e592d6497","Konstantin Käfer","mail@kkaefer.com","Mon Feb 23 2015 18:42:46 GMT+0100 (CET)","Mon Feb 23 18:42:46 2015 +0100","0"
"81f58c70ff461b59637f1b532517e2189acb142a","Konstantin Käfer","mail@kkaefer.com","Sat Feb 21 2015 01:41:59 GMT+0100 (CET)","Fri Feb 20 16:41:59 2015 -0800","0"
"656df1251345086220424716f1cefaab15471d15","Konstantin Käfer","mail@kkaefer.com","Thu Feb 19 2015 05:37:18 GMT+0100 (CET)","Wed Feb 18 20:37:18 2015 -0800","0"
"a6a83a13225a86a2827861521efe164df4c36b93","Konstantin Käfer","mail@kkaefer.com","Thu Feb 19 2015 02:24:06 GMT+0100 (CET)","Wed Feb 18 17:24:06 2015 -0800","0"
