"commit","author.name","author.email","date","date_string","merges_count"
"eb1623ec726003fe92dabf5b1639afae5e0f7aeb","Jon Buckley","jon@jbuckley.ca","Fri Oct 23 2015 23:33:34 GMT+0200 (CEST)","Fri Oct 23 17:33:34 2015 -0400","0"
"08597c4daa75cc2d954b98cf72be782eabfb385a","Pomax","pomax@nihongoresources.com","Tue Oct 20 2015 00:01:49 GMT+0200 (CEST)","Mon Oct 19 15:01:49 2015 -0700","0"
"be538ee1f356723cbac129d61bd4ddda4682110e","Mike Kamermans","pomax@nihongoresources.com","Tue Oct 20 2015 00:01:14 GMT+0200 (CEST)","Mon Oct 19 15:01:14 2015 -0700","2"
"f6640171358702dda67678292f3af9c66cca7cac","Pomax","pomax@nihongoresources.com","Mon Oct 19 2015 23:58:15 GMT+0200 (CEST)","Mon Oct 19 14:58:15 2015 -0700","0"
"43386c5a942e40bb67b9291885e2f89d7609a99a","Pomax","pomax@nihongoresources.com","Mon Oct 19 2015 23:46:44 GMT+0200 (CEST)","Mon Oct 19 14:46:44 2015 -0700","0"
"197ccec774538dfcdbe2c852f8f037813d831433","Christopher De Cairos","cade@mozillafoundation.org","Thu Oct 08 2015 17:10:22 GMT+0200 (CEST)","Thu Oct 8 11:10:22 2015 -0400","2"
"75b81c80b7e894b7aa5171c31073ada2afe489b4","Christopher De Cairos","cade@mozillafoundation.org","Wed Oct 07 2015 23:13:42 GMT+0200 (CEST)","Wed Oct 7 17:13:42 2015 -0400","0"
"d24ce8e135b174a8857018b10dbe99969f40b7fe","Jon Buckley","jon@jbuckley.ca","Wed Oct 07 2015 07:19:22 GMT+0200 (CEST)","Wed Oct 7 01:19:22 2015 -0400","0"
"bb21289976be70997af508bb3a5c9d01a1453875","Jon Buckley","jon@jbuckley.ca","Wed Oct 07 2015 06:49:51 GMT+0200 (CEST)","Wed Oct 7 00:49:51 2015 -0400","0"
"5271a16b3287a254b6d15928c82a75b889e9b244","Christopher De Cairos","cade@mozillafoundation.org","Fri Oct 02 2015 21:37:58 GMT+0200 (CEST)","Fri Oct 2 15:37:58 2015 -0400","2"
"4d2601f7cb82b1b84d334fde885ae22ca9eb200b","Christopher De Cairos","cade@mozillafoundation.org","Fri Oct 02 2015 21:32:22 GMT+0200 (CEST)","Fri Oct 2 15:32:22 2015 -0400","0"
"85620486b2799c10a94b2170ece303e0c2ccfe67","Christopher De Cairos","cade@mozillafoundation.org","Fri Oct 02 2015 20:52:35 GMT+0200 (CEST)","Fri Oct 2 14:52:35 2015 -0400","0"
"c098e10cf5cc30798141d1844b4dbd324a6889ff","Christopher De Cairos","cade@mozillafoundation.org","Fri Oct 02 2015 20:38:07 GMT+0200 (CEST)","Fri Oct 2 14:38:07 2015 -0400","0"
"a38085a29fd2c32f01d62cf00d626582ceeaa547","Christopher De Cairos","cade@mozillafoundation.org","Fri Oct 02 2015 18:44:06 GMT+0200 (CEST)","Fri Oct 2 12:44:06 2015 -0400","2"
"a63f825dcb7aba0a15ad91f7068e44343ee776ad","Christopher De Cairos","cade@mozillafoundation.org","Fri Oct 02 2015 18:44:00 GMT+0200 (CEST)","Fri Oct 2 12:44:00 2015 -0400","2"
"d62e5d1446556335c0e9d4d42619e0f5077ffdbb","Christopher De Cairos","cade@mozillafoundation.org","Fri Oct 02 2015 18:35:02 GMT+0200 (CEST)","Fri Oct 2 12:35:02 2015 -0400","0"
"024987c3f43db03fd835838242a910b0743e2058","Christopher De Cairos","cade@mozillafoundation.org","Fri Oct 02 2015 18:29:25 GMT+0200 (CEST)","Fri Oct 2 12:29:25 2015 -0400","0"
"bd4e141e7065add4894bd5a1edbce4b82821960c","Christopher De Cairos","cade@mozillafoundation.org","Fri Oct 02 2015 18:20:48 GMT+0200 (CEST)","Fri Oct 2 12:20:48 2015 -0400","0"
"8bdbc2b132f09b0cd81f2e95eef828e243a46ea0","Christopher De Cairos","cade@mozillafoundation.org","Fri Oct 02 2015 18:15:03 GMT+0200 (CEST)","Fri Oct 2 12:15:03 2015 -0400","0"
"b9ac024092ef041bb4bfabde139434bac9774da4","Christopher De Cairos","cade@mozillafoundation.org","Fri Oct 02 2015 01:33:07 GMT+0200 (CEST)","Thu Oct 1 19:33:07 2015 -0400","2"
"ce6db3ebdc1dd4d4d053fb4b42d5d57db838dc35","Christopher De Cairos","cade@mozillafoundation.org","Thu Oct 01 2015 20:44:55 GMT+0200 (CEST)","Thu Oct 1 14:44:55 2015 -0400","0"
"b2a7ae9b7d4f5ece4a4d16f717683881db0cefff","Christopher De Cairos","cade@mozillafoundation.org","Thu Oct 01 2015 20:39:39 GMT+0200 (CEST)","Thu Oct 1 14:39:39 2015 -0400","0"
"039cd18000f046ec306cc488c370adea58a2770a","Christopher De Cairos","cade@mozillafoundation.org","Thu Oct 01 2015 20:05:36 GMT+0200 (CEST)","Thu Oct 1 14:05:36 2015 -0400","2"
"5029f5428002a0017fcb10956e8688784c28d160","Christopher De Cairos","cade@mozillafoundation.org","Thu Oct 01 2015 18:10:48 GMT+0200 (CEST)","Thu Oct 1 12:10:48 2015 -0400","0"
"a237e1047621219f0dbc05bc8af14501da932da2","Jon Buckley","jon@jbuckley.ca","Thu Mar 12 2015 16:51:30 GMT+0100 (CET)","Thu Mar 12 11:51:30 2015 -0400","0"
"0db5b2f3ed1169845831004a7a2d1ecc11661a97","Jon Buckley","jon@jbuckley.ca","Thu Mar 12 2015 16:51:22 GMT+0100 (CET)","Thu Mar 12 11:51:22 2015 -0400","2"
"c7b7608a9cbe1735931ab60128b3dd27e4233aaa","Jon Buckley","jon@jbuckley.ca","Thu Mar 12 2015 16:51:13 GMT+0100 (CET)","Thu Mar 12 11:51:13 2015 -0400","0"
"cb90530e2dd74f3c39a445309622ef7645703acc","Adam Lofting","contactme@adamlofting.com","Thu Feb 26 2015 22:30:48 GMT+0100 (CET)","Thu Feb 26 16:30:48 2015 -0500","0"
"00cec78db6214e75456298578abffce7a1bb57c9","Jon Buckley","jon@jbuckley.ca","Mon Sep 29 2014 19:11:02 GMT+0200 (CEST)","Mon Sep 29 13:11:02 2014 -0400","0"
"6d976e535558e8bc2fb1c5491e37dc3e7a7d70cc","Jon Buckley","jon@jbuckley.ca","Mon Sep 29 2014 19:09:07 GMT+0200 (CEST)","Mon Sep 29 13:09:07 2014 -0400","0"
"3fd9b922d819dc085c5322409d9f4ae205a70e0e","Jon Buckley","jon@jbuckley.ca","Mon Sep 29 2014 19:07:12 GMT+0200 (CEST)","Mon Sep 29 13:07:12 2014 -0400","0"
"1ac8b4c8d373e918eab06bbc7587ef94f7a4bae8","JP Schneider","johns@mozillafoundation.org","Wed Jun 18 2014 05:01:12 GMT+0200 (CEST)","Tue Jun 17 22:01:12 2014 -0500","0"
"7e1c01e2c41fd21f83b71afdfd4b0803296e6add","JP Schneider","johns@mozillafoundation.org","Wed Jun 18 2014 04:59:14 GMT+0200 (CEST)","Tue Jun 17 21:59:14 2014 -0500","0"
"7938fc4827bc692f91b3d6fab3651679c92f0f72","Jon Buckley","jon@jbuckley.ca","Sat Jun 14 2014 00:48:13 GMT+0200 (CEST)","Fri Jun 13 18:48:13 2014 -0400","0"
"b8c8745ece49efafeee8597d1b3df34bd329028b","Jon Buckley","jon@jbuckley.ca","Fri Jun 13 2014 23:59:57 GMT+0200 (CEST)","Fri Jun 13 17:59:57 2014 -0400","0"
"e8be7b3b31708ae1576a8c848c7ab782b5a655e9","Jon Buckley","jon@jbuckley.ca","Wed Jun 11 2014 18:07:14 GMT+0200 (CEST)","Wed Jun 11 12:07:14 2014 -0400","0"
"ce2b18835d96d3f5b72de6b68771dc175c75d13f","Jon Buckley","jon@jbuckley.ca","Wed Jun 11 2014 18:07:06 GMT+0200 (CEST)","Wed Jun 11 12:07:06 2014 -0400","0"
"a5c211ad167e11916ae1ec7ed208df79d3c571f7","Jon Buckley","jon@jbuckley.ca","Tue Jun 10 2014 22:52:40 GMT+0200 (CEST)","Tue Jun 10 16:52:40 2014 -0400","0"
"62c202020e308a5d1a6622623d30eae9bf62464f","Jon Buckley","jon@jbuckley.ca","Tue Jun 10 2014 21:17:29 GMT+0200 (CEST)","Tue Jun 10 15:17:29 2014 -0400","0"
"821ecbe9338d870ff24805d346a572a1ae7c7e53","Jon Buckley","jon@jbuckley.ca","Fri May 16 2014 22:49:01 GMT+0200 (CEST)","Fri May 16 16:49:01 2014 -0400","0"
"a40b46173b45f3e0677fe217f94239a1e3b18c35","Jon Buckley","jon@jbuckley.ca","Fri May 16 2014 22:48:12 GMT+0200 (CEST)","Fri May 16 16:48:12 2014 -0400","0"
"f0f3629c6a26ee8e827c5acea00e0344d5493b56","Christopher De Cairos","cade@mozillafoundation.org","Fri May 16 2014 21:20:54 GMT+0200 (CEST)","Fri May 16 15:20:54 2014 -0400","0"
"6cf5b9092f5ace7ddb4ac5b9dd52ff08f64b7467","Christopher De Cairos","cade@mozillafoundation.org","Fri May 16 2014 20:31:39 GMT+0200 (CEST)","Fri May 16 14:31:39 2014 -0400","0"
"73b6debdd743cb13c2df7dedb99435136521130c","Christopher De Cairos","cade@mozillafoundation.org","Tue Apr 22 2014 19:57:14 GMT+0200 (CEST)","Tue Apr 22 13:57:14 2014 -0400","0"
"89c93666481ce5531a1655e478df0ff4a85e6da7","Christopher De Cairos","cade@mozillafoundation.org","Tue Apr 22 2014 17:47:41 GMT+0200 (CEST)","Tue Apr 22 11:47:41 2014 -0400","0"
"723264c8494bb5f387e4dce496994c91ded15975","Ali Al Dallal","ali@alicoding.com","Tue Apr 15 2014 18:00:46 GMT+0200 (CEST)","Tue Apr 15 12:00:46 2014 -0400","0"
"a9fcb6179dc59ecd0cc25aa56fe8d33d9272813e","Ali Al Dallal","ali@alicoding.com","Mon Apr 14 2014 21:59:10 GMT+0200 (CEST)","Mon Apr 14 15:59:10 2014 -0400","0"
"b5a9349af970ff13805b8ec680783f2d25b882c3","Kate Hudson","k88hudson@gmail.com","Fri Apr 04 2014 16:20:54 GMT+0200 (CEST)","Fri Apr 4 10:20:54 2014 -0400","0"
"f94d8834fc09d27df3d0b5810ed7ba7df5572efe","Kate Hudson","k88hudson@gmail.com","Thu Apr 03 2014 16:59:27 GMT+0200 (CEST)","Thu Apr 3 10:59:27 2014 -0400","0"
"4f849f0646351e08a3fab1e39b6a6692637dc671","scottdowne","scott.downe@gmail.com","Fri Mar 21 2014 17:37:22 GMT+0100 (CET)","Fri Mar 21 12:37:22 2014 -0400","0"
"335ee96a9ee2f761d76088b0ae570607091234a9","scottdowne","scott.downe@gmail.com","Thu Mar 20 2014 13:06:54 GMT+0100 (CET)","Thu Mar 20 08:06:54 2014 -0400","0"
"5c81d30bc0ea79b06ba24e91e2387103b12400bb","Jon Buckley","jon@jbuckley.ca","Thu Mar 20 2014 17:15:28 GMT+0100 (CET)","Thu Mar 20 12:15:28 2014 -0400","0"
"bae01abdcfa2c6c1908744b05bf0c6d0968cbce8","Jon Buckley","jon@jbuckley.ca","Thu Mar 20 2014 17:07:37 GMT+0100 (CET)","Thu Mar 20 12:07:37 2014 -0400","0"
"759b4af2ce7ae40fcb44126b35016fcc6a23f9a3","Jon Buckley","jon@jbuckley.ca","Mon Mar 03 2014 18:22:06 GMT+0100 (CET)","Mon Mar 3 12:22:06 2014 -0500","0"
"750fb925a7bd10ee6df8d883a51e2fcbdddc3b66","Ali Al Dallal","ali@alicoding.com","Thu Feb 20 2014 23:33:42 GMT+0100 (CET)","Thu Feb 20 17:33:42 2014 -0500","0"
"2d20fbde66d7ac75124f8c2858eb98ed4b05bf88","scottdowne","scott.downe@gmail.com","Mon Feb 24 2014 20:29:45 GMT+0100 (CET)","Mon Feb 24 14:29:45 2014 -0500","0"
"67b52825c665573822a571ad3aea1873546d83cc","scottdowne","scott.downe@gmail.com","Fri Feb 21 2014 00:08:23 GMT+0100 (CET)","Thu Feb 20 18:08:23 2014 -0500","0"
"d8eb17004396037c2d59cd0f2f3bef6387afd975","Jon Buckley","jon@jbuckley.ca","Sat Feb 15 2014 00:09:50 GMT+0100 (CET)","Fri Feb 14 18:09:50 2014 -0500","0"
"88ac1f2423be6771dda736753dc0558dc77e4fa8","Jon Buckley","jon@jbuckley.ca","Mon Feb 10 2014 18:54:30 GMT+0100 (CET)","Mon Feb 10 12:54:30 2014 -0500","0"
"df6b387b1f15b68d8c418bee2ea25317af96da1a","Jon Buckley","jon@jbuckley.ca","Tue Jan 28 2014 21:51:00 GMT+0100 (CET)","Tue Jan 28 15:51:00 2014 -0500","0"
"7513c9d82930c56f00134c475e50968b2aac2463","scottdowne","scott.downe@gmail.com","Thu Feb 06 2014 20:04:24 GMT+0100 (CET)","Thu Feb 6 14:04:24 2014 -0500","0"
"716e6aa19b10b75738ca49f3dda4d4dd10662036","scottdowne","scott.downe@gmail.com","Wed Feb 05 2014 17:23:23 GMT+0100 (CET)","Wed Feb 5 11:23:23 2014 -0500","0"
"d95d8cf75b3364323a1a56a0a8f6b6c820c97d41","scottdowne","scott.downe@gmail.com","Thu Feb 06 2014 16:41:03 GMT+0100 (CET)","Thu Feb 6 10:41:03 2014 -0500","0"
"e5a7c9fdb8c83c8b74afab8bb0e23402d7687640","scottdowne","scott.downe@gmail.com","Thu Feb 06 2014 16:37:22 GMT+0100 (CET)","Thu Feb 6 10:37:22 2014 -0500","0"
"b69129ae2a776298f3d4a45b067d1cd04376e2cc","scottdowne","scott.downe@gmail.com","Wed Feb 05 2014 22:04:40 GMT+0100 (CET)","Wed Feb 5 16:04:40 2014 -0500","0"
"8907b6984888af4b29503cc96037319e7adfd88c","scottdowne","scott.downe@gmail.com","Wed Feb 05 2014 22:02:29 GMT+0100 (CET)","Wed Feb 5 16:02:29 2014 -0500","0"
"b9429e4b87b71ea40e32540f485193e2f954e4dc","scottdowne","scott.downe@gmail.com","Tue Feb 04 2014 16:39:52 GMT+0100 (CET)","Tue Feb 4 10:39:52 2014 -0500","0"
"38ab6cb87ddc875b5d4b4dd50daae4c20d828e13","scottdowne","scott.downe@gmail.com","Mon Feb 03 2014 22:29:17 GMT+0100 (CET)","Mon Feb 3 16:29:17 2014 -0500","0"
"f449b54e6416f57e570d416d87515bfd3f407281","Jon Buckley","jon@jbuckley.ca","Sat Feb 01 2014 01:23:56 GMT+0100 (CET)","Fri Jan 31 19:23:56 2014 -0500","0"
"0cdaf73b801cb6f1eedca6b3c96873e139f8bb9c","Jon Buckley","jon@jbuckley.ca","Sat Feb 01 2014 01:23:50 GMT+0100 (CET)","Fri Jan 31 19:23:50 2014 -0500","0"
"e8b3e65b96f4ec4da05082014c7180a340ede194","Jon Buckley","jon@jbuckley.ca","Sat Feb 01 2014 00:39:55 GMT+0100 (CET)","Fri Jan 31 18:39:55 2014 -0500","0"
"cd965d41f0c53b9531933bfdf28280db0b345af2","Jon Buckley","jon@jbuckley.ca","Fri Jan 31 2014 22:17:23 GMT+0100 (CET)","Fri Jan 31 16:17:23 2014 -0500","0"
"e2e7c2f533d1eaca25f29d11dbcbded35b3b9b28","Jon Buckley","jon@jbuckley.ca","Fri Jan 31 2014 20:58:59 GMT+0100 (CET)","Fri Jan 31 14:58:59 2014 -0500","0"
"723ab4c48c44b41a848dfae40ae8da2d421782e4","Christopher De Cairos","cade@mozillafoundation.org","Fri Jan 31 2014 20:31:21 GMT+0100 (CET)","Fri Jan 31 14:31:21 2014 -0500","0"
"d096e7e12bbfba80a355bc4fb7eb16deef2f1f32","Christopher De Cairos","cade@mozillafoundation.org","Fri Jan 31 2014 18:50:29 GMT+0100 (CET)","Fri Jan 31 12:50:29 2014 -0500","0"
"dacf80889b71df0faf89ccd061c50dd0334381db","Jon Buckley","jon@jbuckley.ca","Wed Jan 22 2014 17:29:37 GMT+0100 (CET)","Wed Jan 22 11:29:37 2014 -0500","0"
"db25dd43e1acd2ad9b2b13d2943055026ba9ed85","Jon Buckley","jon@jbuckley.ca","Fri Jan 17 2014 00:02:40 GMT+0100 (CET)","Thu Jan 16 18:02:40 2014 -0500","0"
"ba46304516ab86dd4bae7df331efa2992aca68dd","Christopher De Cairos","cade@mozillafoundation.org","Mon Jan 20 2014 18:51:35 GMT+0100 (CET)","Mon Jan 20 12:51:35 2014 -0500","0"
"545e73456649095a7ea4573c8943eeae8acb6bad","Christopher De Cairos","cade@mozillafoundation.org","Fri Jan 17 2014 20:22:48 GMT+0100 (CET)","Fri Jan 17 14:22:48 2014 -0500","0"
"a8599b04a59a74e0acb582e7462f0248a9f88fa7","Jon Buckley","jon@jbuckley.ca","Sat Dec 21 2013 01:24:57 GMT+0100 (CET)","Fri Dec 20 19:24:57 2013 -0500","0"
"cc4c7286548bdd825b03a57b3025ef6ab434b645","Jon Buckley","jon@jbuckley.ca","Sat Dec 21 2013 01:20:48 GMT+0100 (CET)","Fri Dec 20 19:20:48 2013 -0500","0"
"fac70566e82ee841a63e753cc99018a652da0663","Jon Buckley","jon@jbuckley.ca","Fri Dec 20 2013 23:24:58 GMT+0100 (CET)","Fri Dec 20 17:24:58 2013 -0500","0"
"aba9f9e6fb2f8734a9832253d96bd95a80f31283","Ali Al Dallal","ali@alicoding.com","Wed Dec 18 2013 03:21:14 GMT+0100 (CET)","Tue Dec 17 21:21:14 2013 -0500","0"
"198544cbdd2d8ae0526250109f3675c4e6c730fb","Jon Buckley","jon@jbuckley.ca","Mon Dec 16 2013 22:40:06 GMT+0100 (CET)","Mon Dec 16 16:40:06 2013 -0500","0"
"26e03a90ac9688e2bfaffdadee320ed8eb3da8c6","Jon Buckley","jon@jbuckley.ca","Mon Dec 16 2013 22:40:02 GMT+0100 (CET)","Mon Dec 16 16:40:02 2013 -0500","0"
"675ac383e227e4da4349be9f3282b42baccde862","Jon Buckley","jon@jbuckley.ca","Mon Dec 16 2013 22:16:34 GMT+0100 (CET)","Mon Dec 16 16:16:34 2013 -0500","0"
"a383215f897812568357c77dfa389b83b00243e4","Jon Buckley","jon@jbuckley.ca","Mon Dec 16 2013 22:16:19 GMT+0100 (CET)","Mon Dec 16 16:16:19 2013 -0500","0"
"23d0b8190b097f90ee42479a95d14c280c128ae8","Jon Buckley","jon@jbuckley.ca","Mon Dec 16 2013 22:05:27 GMT+0100 (CET)","Mon Dec 16 16:05:27 2013 -0500","0"
"3afa949101e8ca737ed9cafdd30ec52a32d52de2","Jon Buckley","jon@jbuckley.ca","Thu Dec 05 2013 00:56:35 GMT+0100 (CET)","Wed Dec 4 18:56:35 2013 -0500","0"
"c5f5e8db0149f9f01b2ee529002baa1441bd1a35","Jon Buckley","jon@jbuckley.ca","Fri Dec 13 2013 23:06:47 GMT+0100 (CET)","Fri Dec 13 17:06:47 2013 -0500","0"
"54a0c37ed372f9a3b962413efacdd26cda8d5a1a","Jon Buckley","jon@jbuckley.ca","Fri Dec 13 2013 23:06:35 GMT+0100 (CET)","Fri Dec 13 17:06:35 2013 -0500","0"
"1e373ded21960f5d0a7959838fb438b2298ca747","Ali Al Dallal","ali@alicoding.com","Fri Dec 13 2013 17:01:41 GMT+0100 (CET)","Fri Dec 13 11:01:41 2013 -0500","0"
"bddddc6b7716bc483cdd658f84749ca4cfde8e08","Ali Al Dallal","ali@alicoding.com","Tue Dec 10 2013 02:31:03 GMT+0100 (CET)","Mon Dec 9 20:31:03 2013 -0500","0"
"9bd1325dd403bcb2dcd3fae9ab551c068b503db1","Ali Al Dallal","ali@alicoding.com","Thu Dec 12 2013 23:10:23 GMT+0100 (CET)","Thu Dec 12 17:10:23 2013 -0500","0"
"bbc5222fffd55b9809b5a63ba427aaf88f414cab","Ali Al Dallal","ali@alicoding.com","Thu Dec 12 2013 19:36:07 GMT+0100 (CET)","Thu Dec 12 13:36:07 2013 -0500","0"
"1f5115c920a2c104c5a473d07bd222fd255fcee3","Jon Buckley","jon@jbuckley.ca","Tue Dec 03 2013 22:23:22 GMT+0100 (CET)","Tue Dec 3 16:23:22 2013 -0500","0"
"c404e0ad33a08769a527d1cab649e7bd118f8e59","Jon Buckley","jon@jbuckley.ca","Tue Dec 03 2013 22:23:15 GMT+0100 (CET)","Tue Dec 3 16:23:15 2013 -0500","0"
"a71d63e3b8494b1db2025d29f802db7f2d995a5d","Jon Buckley","jon@jbuckley.ca","Tue Dec 03 2013 22:07:54 GMT+0100 (CET)","Tue Dec 3 16:07:54 2013 -0500","0"
"53002d119cf86cce2c1ce390624787ffa35dbac1","Jon Buckley","jon@jbuckley.ca","Tue Dec 03 2013 18:37:14 GMT+0100 (CET)","Tue Dec 3 12:37:14 2013 -0500","0"
"41711a4a74a9ce245521a7a3142f3338e0ff4d0d","Jon Buckley","jon@jbuckley.ca","Mon Dec 02 2013 22:16:19 GMT+0100 (CET)","Mon Dec 2 16:16:19 2013 -0500","0"
"844cff6aefdd3fd862b32998699fca83aaa0ab54","Jon Buckley","jon@jbuckley.ca","Mon Dec 02 2013 22:16:12 GMT+0100 (CET)","Mon Dec 2 16:16:12 2013 -0500","0"
"97ab53d45d365a5acba1d48f8818c6d11d9e5aab","Jon Buckley","jon@jbuckley.ca","Mon Dec 02 2013 20:46:25 GMT+0100 (CET)","Mon Dec 2 14:46:25 2013 -0500","0"
"ff012d20206a7802b935a25ace94c2835827d6de","Jon Buckley","jon@jbuckley.ca","Mon Dec 02 2013 20:40:43 GMT+0100 (CET)","Mon Dec 2 14:40:43 2013 -0500","0"
"6589fd61b1dde4d54d91cfe70c54d279de35e59c","Ali Al Dallal","ali@alicoding.com","Fri Nov 29 2013 23:54:39 GMT+0100 (CET)","Fri Nov 29 17:54:39 2013 -0500","0"
"7e984bf15d6e4b1fc35680ed45b74b9180adfac6","Ali Al Dallal","ali@alicoding.com","Fri Nov 29 2013 23:42:42 GMT+0100 (CET)","Fri Nov 29 17:42:42 2013 -0500","0"
"7de93213411133b25cc03d61051ea224da1051d6","scottdowne","scott.downe@gmail.com","Tue Nov 19 2013 23:51:56 GMT+0100 (CET)","Tue Nov 19 17:51:56 2013 -0500","0"
"678a3ee6f4184c381cb3445803b30b854ec842ec","scottdowne","scott.downe@gmail.com","Wed Nov 13 2013 21:28:31 GMT+0100 (CET)","Wed Nov 13 15:28:31 2013 -0500","0"
"143ade948fa95f8e79c91418d01b4189d83a8dbc","Pomax","pomax@nihongoresources.com","Tue Nov 19 2013 00:10:06 GMT+0100 (CET)","Mon Nov 18 15:10:06 2013 -0800","0"
"79a6d08cabcb5069a28fefdf77cca37b067c16f4","Pomax","pomax@nihongoresources.com","Mon Nov 18 2013 23:41:47 GMT+0100 (CET)","Mon Nov 18 14:41:47 2013 -0800","0"
"692502f6329168207f1b7db77d2058698a8bc5a7","Mike Kamermans","pomax@nihongoresources.com","Sat Nov 16 2013 00:35:04 GMT+0100 (CET)","Fri Nov 15 15:35:04 2013 -0800","2"
"17cb8b05a01ef65393c9d11e84eb61801eaa0272","Mike Kamermans","pomax@nihongoresources.com","Sat Nov 16 2013 00:08:51 GMT+0100 (CET)","Fri Nov 15 15:08:51 2013 -0800","0"
"f06db4f55ad7c3162c5f9a88f45da6dbe17b3cd1","Christopher De Cairos","christopherd@mozillafoundation.org","Fri Nov 15 2013 19:39:58 GMT+0100 (CET)","Fri Nov 15 13:39:58 2013 -0500","0"
"8ae59f42431af1c35361b71f5ee3d2fcc7868a1d","Ali Al Dallal","ali@alicoding.com","Tue Nov 12 2013 21:11:39 GMT+0100 (CET)","Tue Nov 12 15:11:39 2013 -0500","0"
"8ad3efe14b653c34d31f433ea034a8d787e26d72","Ali Al Dallal","ali@alicoding.com","Tue Nov 12 2013 20:46:08 GMT+0100 (CET)","Tue Nov 12 14:46:08 2013 -0500","0"
"3b1ff00a46e1e434650e6644c70ee16ffc380853","Ali Al Dallal","ali@alicoding.com","Tue Nov 12 2013 20:39:58 GMT+0100 (CET)","Tue Nov 12 14:39:58 2013 -0500","0"
"1ac761af1647ab82a6a197760f435aafe80380a9","Jon Buckley","jon@jbuckley.ca","Tue Nov 12 2013 18:06:33 GMT+0100 (CET)","Tue Nov 12 12:06:33 2013 -0500","0"
"f086a84f1416f21a76322cb9797fd49ea4cc6cbf","Jon Buckley","jon@jbuckley.ca","Tue Nov 12 2013 18:06:28 GMT+0100 (CET)","Tue Nov 12 12:06:28 2013 -0500","0"
"7d38de3369f4ff4514b5593b87887220d4b8d399","Ali Al Dallal","ali@alicoding.com","Sun Nov 10 2013 19:29:31 GMT+0100 (CET)","Sun Nov 10 13:29:31 2013 -0500","0"
"a37bca917ecb239e2a4f9ba59f8e7b76c55da527","Ali Al Dallal","ali@alicoding.com","Tue Oct 22 2013 22:41:05 GMT+0200 (CEST)","Tue Oct 22 16:41:05 2013 -0400","0"
"185e7fdeb918b6a4eb45cb02b359b85d6101c77c","Ali Al Dallal","ali@alicoding.com","Tue Oct 22 2013 21:23:06 GMT+0200 (CEST)","Tue Oct 22 15:23:06 2013 -0400","0"
"eb9aff4f8fb17b258616e1e81c01a42f05a2dc21","Ali Al Dallal","ali@alicoding.com","Tue Oct 22 2013 18:04:30 GMT+0200 (CEST)","Tue Oct 22 12:04:30 2013 -0400","0"
"74075fb2081134f612b8b5bf2b9a162965947007","Ali Al Dallal","ali@alicoding.com","Tue Oct 22 2013 17:55:55 GMT+0200 (CEST)","Tue Oct 22 11:55:55 2013 -0400","0"
"aadfaeff33354efbc698de6fdeda7b29adfe1d47","Ali Al Dallal","ali@alicoding.com","Mon Oct 21 2013 22:47:19 GMT+0200 (CEST)","Mon Oct 21 16:47:19 2013 -0400","0"
"ef0f29519194c9cced108bad7ba5bc15e3a5c6a1","Ali Al Dallal","ali@alicoding.com","Mon Oct 21 2013 21:00:37 GMT+0200 (CEST)","Mon Oct 21 15:00:37 2013 -0400","0"
"e27f8fd2d139ea73a4a009c85fbd86290eba8f2c","Ali Al Dallal","ali@alicoding.com","Mon Oct 21 2013 19:50:48 GMT+0200 (CEST)","Mon Oct 21 13:50:48 2013 -0400","0"
"b68ebd665c2cb397828995e77d41f5c2b81f97f4","Ali Al Dallal","ali@alicoding.com","Mon Oct 21 2013 19:21:54 GMT+0200 (CEST)","Mon Oct 21 13:21:54 2013 -0400","0"
"43508737339ddd3466abd43c0442c1d6805801a7","Jon Buckley","jon@jbuckley.ca","Tue Oct 15 2013 22:16:10 GMT+0200 (CEST)","Tue Oct 15 16:16:10 2013 -0400","0"
"734cc21309884d6df77d5565eee3cfe10745d915","Jon Buckley","jon@jbuckley.ca","Tue Oct 15 2013 21:39:56 GMT+0200 (CEST)","Tue Oct 15 15:39:56 2013 -0400","0"
"fe38cc7cadb714b87b7c50d446cd9be6e3c6d7ff","Ali Al Dallal","ali@alicoding.com","Fri Oct 11 2013 19:24:18 GMT+0200 (CEST)","Fri Oct 11 13:24:18 2013 -0400","0"
"cbcf69e8296466ecc988b3e8cc723f0de23ef342","Jon Buckley","jon@jbuckley.ca","Wed Oct 09 2013 22:50:06 GMT+0200 (CEST)","Wed Oct 9 16:50:06 2013 -0400","0"
"a428f4bb4cec930eb11df69712073d3911a22e5e","Jon Buckley","jon@jbuckley.ca","Wed Oct 09 2013 22:16:38 GMT+0200 (CEST)","Wed Oct 9 16:16:38 2013 -0400","0"
"ed62ea9a38fc78d7d7df8601b61e402db5771278","Jon Buckley","jon@jbuckley.ca","Wed Oct 09 2013 19:12:15 GMT+0200 (CEST)","Wed Oct 9 13:12:15 2013 -0400","0"
"956170d253b972d0a60495f5b519ed9de7575422","Jon Buckley","jon@jbuckley.ca","Wed Oct 09 2013 19:11:19 GMT+0200 (CEST)","Wed Oct 9 13:11:19 2013 -0400","0"
"0d329e27e94fe6a0728bcfd966b7486dece7fa8d","Ali Al Dallal","ali@alicoding.com","Wed Oct 09 2013 17:19:06 GMT+0200 (CEST)","Wed Oct 9 11:19:06 2013 -0400","0"
"e8795e50270b07c2da5f588049e1a6172f2d7b94","Ali Al Dallal","ali@alicoding.com","Tue Oct 08 2013 21:27:46 GMT+0200 (CEST)","Tue Oct 8 15:27:46 2013 -0400","0"
"4dd5a2c1def11a7ea2caa7aa6c72d154bc237dc6","gvn lazar suntop","gavin@gsuntop.com","Tue Oct 08 2013 21:58:14 GMT+0200 (CEST)","Tue Oct 8 12:58:14 2013 -0700","2"
"add6444355a82914860d335811b6f791ddd4c36c","Gvn Suntop","gavin@gsuntop.com","Tue Oct 08 2013 21:36:23 GMT+0200 (CEST)","Tue Oct 8 12:36:23 2013 -0700","0"
"920960d8a3888a275b5806044baaa94f2673ee79","Jon Buckley","jon@jbuckley.ca","Sun Oct 06 2013 17:54:44 GMT+0200 (CEST)","Sun Oct 6 08:54:44 2013 -0700","0"
"e4578dc1f92ea9ed6411ca1e7a8c39c36b86bdbc","Jon Buckley","jon@jbuckley.ca","Sun Oct 06 2013 17:41:42 GMT+0200 (CEST)","Sun Oct 6 08:41:42 2013 -0700","0"
"95a2459e1d2ec6e3052985a271957f8df769ae18","Christopher De Cairos","christopherd@mozillafoundation.org","Wed Oct 02 2013 21:02:46 GMT+0200 (CEST)","Wed Oct 2 15:02:46 2013 -0400","0"
"0b4d3afc9b7d9c03d5e1af8f2131845f25cc4a6b","Christopher De Cairos","christopherd@mozillafoundation.org","Wed Oct 02 2013 20:50:44 GMT+0200 (CEST)","Wed Oct 2 14:50:44 2013 -0400","0"
"63d0b1540e029d5f0fc2e96688a848ff30e3affa","Ali Al Dallal","ali@alicoding.com","Mon Sep 30 2013 17:53:24 GMT+0200 (CEST)","Mon Sep 30 11:53:24 2013 -0400","0"
"f0c094d8ca833528f5e688235c41fce1e2a07473","Ali Al Dallal","ali@alicoding.com","Mon Sep 30 2013 17:01:34 GMT+0200 (CEST)","Mon Sep 30 11:01:34 2013 -0400","0"
"ad5bf23e003f786fb4c7f0417b497b474c3c3205","Jon Buckley","jon@jbuckley.ca","Fri Sep 27 2013 20:30:18 GMT+0200 (CEST)","Fri Sep 27 20:30:18 2013 +0200","0"
"d1d80368ea6da550752c126e750a3b92842361cf","Christopher De Cairos","christopherd@mozillafoundation.org","Fri Sep 27 2013 16:26:24 GMT+0200 (CEST)","Fri Sep 27 10:26:24 2013 -0400","0"
"4b97f55b98265105bd14b6e6d8c5c30314762c31","Matthew Schranz","schranz.m@gmail.com","Tue Sep 24 2013 18:42:18 GMT+0200 (CEST)","Tue Sep 24 12:42:18 2013 -0400","0"
"4b898662e87454b87ba2510a923c23814470083d","Matthew Schranz","schranz.m@gmail.com","Tue Sep 24 2013 18:31:19 GMT+0200 (CEST)","Tue Sep 24 12:31:19 2013 -0400","0"
"3540dc1f13143e677395c9702442f46bb872f0ca","Jon Buckley","jon@jbuckley.ca","Mon Sep 23 2013 18:28:26 GMT+0200 (CEST)","Mon Sep 23 18:28:26 2013 +0200","0"
"37de68bba353e97f4bd1d9b99160ca707af19db5","Jon Buckley","jon@jbuckley.ca","Mon Sep 23 2013 18:28:21 GMT+0200 (CEST)","Mon Sep 23 18:28:21 2013 +0200","0"
"d1cefdea0d425dce8b52248ef6280f19764c5bbf","Jon Buckley","jon@jbuckley.ca","Fri Sep 20 2013 11:48:17 GMT+0200 (CEST)","Fri Sep 20 11:48:17 2013 +0200","0"
"bb38bb12a9a8bb35c3a4cee7c1a234783ab55b07","Jon Buckley","jon@jbuckley.ca","Fri Sep 20 2013 11:46:30 GMT+0200 (CEST)","Fri Sep 20 11:46:30 2013 +0200","0"
"9509c4c135a14207367a5bd63e0c1097e1654efe","Jon Buckley","jon@jbuckley.ca","Wed Sep 18 2013 18:17:12 GMT+0200 (CEST)","Wed Sep 18 18:17:12 2013 +0200","0"
"808cdff8ad92a0abeade77ccbd25573ff94c8dab","Jon Buckley","jon@jbuckley.ca","Wed Sep 18 2013 12:45:08 GMT+0200 (CEST)","Wed Sep 18 12:45:08 2013 +0200","0"
"bac34517b4d20ae48dc933ffaf244b1affc9a9db","Jon Buckley","jon@jbuckley.ca","Tue Aug 27 2013 15:03:44 GMT+0200 (CEST)","Tue Aug 27 09:03:44 2013 -0400","0"
"26b049af2b2d439ba722c7590efb1a8bae4f314c","Jon Buckley","jon@jbuckley.ca","Fri Aug 23 2013 20:07:01 GMT+0200 (CEST)","Fri Aug 23 14:07:01 2013 -0400","0"
"65500842ef6b6ae14f67ad89b6fb2869e31ea7e2","Jon Buckley","jon@jbuckley.ca","Mon Aug 19 2013 18:06:00 GMT+0200 (CEST)","Mon Aug 19 12:06:00 2013 -0400","0"
"267ed2ca5374f09201bd41ae9c986cc2523346d9","Jon Buckley","jon@jbuckley.ca","Mon Aug 19 2013 16:38:51 GMT+0200 (CEST)","Mon Aug 19 10:38:51 2013 -0400","0"
"e3ba6b6f4af1a98fa433dc093a52390e49a35200","Jon Buckley","jon@jbuckley.ca","Mon Aug 19 2013 16:42:26 GMT+0200 (CEST)","Mon Aug 19 10:42:26 2013 -0400","0"
"487b0a341182702cbce5901499f771d76768fa9a","Jon Buckley","jon@jbuckley.ca","Thu Aug 15 2013 17:06:35 GMT+0200 (CEST)","Thu Aug 15 11:06:35 2013 -0400","0"
"5a9d6de4a6607ba91e665e735b8a7b63a2519401","Jon Buckley","jon@jbuckley.ca","Thu Aug 15 2013 16:54:11 GMT+0200 (CEST)","Thu Aug 15 10:54:11 2013 -0400","0"
"926b6b203e877e6b2f87558b15f3afe010865da0","Jon Buckley","jon@jbuckley.ca","Tue Aug 13 2013 16:58:11 GMT+0200 (CEST)","Tue Aug 13 10:58:11 2013 -0400","0"
"33af4f6791449b0e42eac17084762e3e2039d17a","Jon Buckley","jon@jbuckley.ca","Tue Aug 13 2013 16:57:47 GMT+0200 (CEST)","Tue Aug 13 10:57:47 2013 -0400","0"
"6487248ca7db375fea9a4ba05c59556b1b8fe11f","Jon Buckley","jon@jbuckley.ca","Mon Aug 12 2013 20:57:28 GMT+0200 (CEST)","Mon Aug 12 14:57:28 2013 -0400","0"
"882fee697794d4932a420134d3a28a71840fb44c","Jon Buckley","jon@jbuckley.ca","Mon Aug 12 2013 20:48:15 GMT+0200 (CEST)","Mon Aug 12 14:48:15 2013 -0400","0"
"9c5b61ae2d41b17e91736e81adfb223dbd766e7e","Jon Buckley","jon@jbuckley.ca","Mon Aug 12 2013 20:36:31 GMT+0200 (CEST)","Mon Aug 12 14:36:31 2013 -0400","0"
"55102d2795790606cc3b9b725565fd09821217ae","Jon Buckley","jon@jbuckley.ca","Sat Aug 10 2013 02:03:02 GMT+0200 (CEST)","Fri Aug 9 17:03:02 2013 -0700","0"
"61c7b3559ffe04d15fa94ca23a401a200f6926d4","Jon Buckley","jon@jbuckley.ca","Sat Aug 10 2013 01:28:02 GMT+0200 (CEST)","Fri Aug 9 16:28:02 2013 -0700","0"
"9b0c5d7277034ac9856b68f772083852dc5df1ae","Jon Buckley","jon@jbuckley.ca","Wed Aug 07 2013 00:54:49 GMT+0200 (CEST)","Tue Aug 6 15:54:49 2013 -0700","0"
"e7f21464e2c26cb029dd085d8284b588b76155fe","Jon Buckley","jon@jbuckley.ca","Wed Aug 07 2013 02:10:12 GMT+0200 (CEST)","Tue Aug 6 17:10:12 2013 -0700","0"
"5516d88d7163b564a483b8f9622803be872f30cc","Jon Buckley","jon@jbuckley.ca","Wed Aug 07 2013 01:15:33 GMT+0200 (CEST)","Tue Aug 6 16:15:33 2013 -0700","0"
"3b0ce001f9196fd9380426ff5cb2845515789240","Jon Buckley","jon@jbuckley.ca","Thu Jul 18 2013 22:02:42 GMT+0200 (CEST)","Thu Jul 18 16:02:42 2013 -0400","0"
"6a84a71611cb2bd0a2a7f85662eb4306b8571376","Jon Buckley","jon@jbuckley.ca","Mon Jul 15 2013 22:53:00 GMT+0200 (CEST)","Mon Jul 15 16:53:00 2013 -0400","0"
"863c4fea5cf466fedf95b0c9bf97ff8486b6db78","Jon Buckley","jon@jbuckley.ca","Fri Jul 12 2013 19:42:12 GMT+0200 (CEST)","Fri Jul 12 13:42:12 2013 -0400","0"
"084da3002381a8a5201906a7d8319042c97f7590","Jon Buckley","jon@jbuckley.ca","Fri Jul 12 2013 19:35:11 GMT+0200 (CEST)","Fri Jul 12 13:35:11 2013 -0400","0"
"2162f58253e588239bd6e742af12392bfb6a59ea","Jon Buckley","jon@jbuckley.ca","Wed Jul 10 2013 20:25:24 GMT+0200 (CEST)","Wed Jul 10 14:25:24 2013 -0400","0"
"27aa54d5aea3f57e72d8b5eb3f376351128a8ba6","Jon Buckley","jon@jbuckley.ca","Tue Jul 09 2013 19:00:44 GMT+0200 (CEST)","Tue Jul 9 13:00:44 2013 -0400","0"
"626a2619eb46cfb3747ffeee23a15dbd6a3515f0","Jon Buckley","jon@jbuckley.ca","Tue Jul 09 2013 19:00:15 GMT+0200 (CEST)","Tue Jul 9 13:00:15 2013 -0400","0"
"cfb609d30c7c81357914807c23f322b912714f15","Jon Buckley","jon@jbuckley.ca","Tue Jul 09 2013 18:15:14 GMT+0200 (CEST)","Tue Jul 9 12:15:14 2013 -0400","0"
"f3eed4b41648720b1b50cd0c39ce7e756b416822","Jon Buckley","jon@jbuckley.ca","Tue Jul 09 2013 17:54:25 GMT+0200 (CEST)","Tue Jul 9 11:54:25 2013 -0400","0"
"8c43339549ab1f0534314a9c8d09ec409f8885c1","Jon Buckley","jon@jbuckley.ca","Mon Jul 08 2013 23:00:00 GMT+0200 (CEST)","Mon Jul 8 17:00:00 2013 -0400","0"
"c27690c0d41641c7357e85773056b63e6388eb39","Jon Buckley","jon@jbuckley.ca","Mon Jul 08 2013 22:59:53 GMT+0200 (CEST)","Mon Jul 8 16:59:53 2013 -0400","0"
"9f1ced5041b5d6345f5f752f93c3fecb0d6e2a82","Jon Buckley","jon@jbuckley.ca","Mon Jul 08 2013 21:46:19 GMT+0200 (CEST)","Mon Jul 8 15:46:19 2013 -0400","0"
"66806d61e831c07d606c467a1ebc6f6d555fc82e","Jon Buckley","jon@jbuckley.ca","Mon Jul 08 2013 21:29:19 GMT+0200 (CEST)","Mon Jul 8 15:29:19 2013 -0400","0"
"46d71ea779e3267617e1cb4345e99f09f10039a1","Jon Buckley","jon@jbuckley.ca","Thu Jul 04 2013 23:50:01 GMT+0200 (CEST)","Thu Jul 4 17:50:01 2013 -0400","0"
"b76efc1bd6a43d76f7ccceed4b4ffd40996a4983","Kate Hudson","k88hudson@gmail.com","Tue Jul 02 2013 21:29:22 GMT+0200 (CEST)","Tue Jul 2 15:29:22 2013 -0400","0"
"fb5204aeeff7c7dcfeffb362f93444d875972192","Jon Buckley","jon@jbuckley.ca","Fri Jun 28 2013 23:38:52 GMT+0200 (CEST)","Fri Jun 28 17:38:52 2013 -0400","0"
"1711e8b3581d420572ca0f74977b11fbb33646da","Jon Buckley","jon@jbuckley.ca","Fri Jun 28 2013 23:38:30 GMT+0200 (CEST)","Fri Jun 28 17:38:30 2013 -0400","0"
"adbeca57028eee1f70fc4e45efcbd6e649fd96c7","Jon Buckley","jon@jbuckley.ca","Fri Jun 28 2013 23:14:57 GMT+0200 (CEST)","Fri Jun 28 17:14:57 2013 -0400","0"
"86ba9f30f9b561edc78057360ccaf722e0f00764","Jon Buckley","jon@jbuckley.ca","Fri Jun 28 2013 21:40:16 GMT+0200 (CEST)","Fri Jun 28 15:40:16 2013 -0400","0"
