"commit","author.name","author.email","date","date_string","merges_count"
"21b7124b92a51c857555b97b6939d7674253c4c0","Jacques Tardie","hi@jacquestardie.org","Tue Oct 06 2015 02:47:00 GMT+0200 (CEST)","Mon Oct 5 17:47:00 2015 -0700","2"
"55fab7de2d79443591c9106fdc6e1910d401258b","jqtrde","hi@jacquestardie.org","Tue Oct 06 2015 02:39:02 GMT+0200 (CEST)","Mon Oct 5 17:39:02 2015 -0700","2"
"4b11ee07cc2818ed0e39fcb0b541a6c2dd1bb775","Jacques Tardie","hi@jacquestardie.org","Tue Oct 06 2015 02:36:26 GMT+0200 (CEST)","Mon Oct 5 17:36:26 2015 -0700","0"
"a4805d005cfac380046aabec4989eb488aee6447","Jacques Tardie","hi@jacquestardie.org","Tue Oct 06 2015 02:34:39 GMT+0200 (CEST)","Mon Oct 5 17:34:39 2015 -0700","0"
"ddf52073e07ea2915d04038aa4b5fc457ab6b061","Damon Burgett","damon@mapbox.com","Mon Sep 14 2015 23:18:51 GMT+0200 (CEST)","Mon Sep 14 14:18:51 2015 -0700","2"
"ad66228f3daebf707a82ff73cb0a10b84c188973","dnomadb","damon@mapbox.com","Mon Sep 14 2015 23:16:43 GMT+0200 (CEST)","Mon Sep 14 14:16:43 2015 -0700","0"
"465fc394d10c71bfeea67b0fafa04143c7dcf180","dnomadb","damon@mapbox.com","Mon Sep 14 2015 22:35:02 GMT+0200 (CEST)","Mon Sep 14 13:35:02 2015 -0700","0"
"9cc89a45ac1eaf079491560ab9232ebd4d577977","dnomadb","damon@mapbox.com","Mon Sep 14 2015 22:33:09 GMT+0200 (CEST)","Mon Sep 14 13:33:09 2015 -0700","0"
"bb6df10441e316dba7d52d660bb02d78ccf20a8a","Damon Burgett","damon@mapbox.com","Fri Sep 04 2015 03:07:17 GMT+0200 (CEST)","Thu Sep 3 18:07:17 2015 -0700","0"
"581d5fa450fa8548f7bc644c5d1301f6c4d5b8b0","Damon Burgett","damon@mapbox.com","Fri Sep 04 2015 02:57:07 GMT+0200 (CEST)","Thu Sep 3 17:57:07 2015 -0700","2"
"48f94f7a6b150c1a3e5def564b516a0adcd1a6b7","dnomadb","damon@mapbox.com","Fri Sep 04 2015 02:43:19 GMT+0200 (CEST)","Thu Sep 3 17:43:19 2015 -0700","0"
"17dfa47958a08e212c73921beccf48471d2cb610","Damon Burgett","damon@mapbox.com","Fri Sep 04 2015 01:15:01 GMT+0200 (CEST)","Thu Sep 3 16:15:01 2015 -0700","0"
"790addf65b9e22153210f917e36ef080bd9a907e","Damon Burgett","damon@mapbox.com","Fri Sep 04 2015 01:14:37 GMT+0200 (CEST)","Thu Sep 3 16:14:37 2015 -0700","2"
"d1e49af533fb9a5807cbc3c5729ee8cc12ac74d3","dnomadb","damon@mapbox.com","Fri Sep 04 2015 00:26:54 GMT+0200 (CEST)","Thu Sep 3 15:26:54 2015 -0700","0"
"dddec8329233a23a7054da5f70812affe83bc504","dnomadb","damon@mapbox.com","Thu Sep 03 2015 22:25:17 GMT+0200 (CEST)","Thu Sep 3 13:25:17 2015 -0700","0"
"e4a22190eae54d15b689063e36c19573cb6a5fcb","dnomadb","damon@mapbox.com","Thu Sep 03 2015 21:11:14 GMT+0200 (CEST)","Thu Sep 3 12:11:14 2015 -0700","0"
"4190b075e0dfb7f2b6b3e7f4b38144760ec8797c","dnomadb","damon@mapbox.com","Thu Sep 03 2015 20:26:11 GMT+0200 (CEST)","Thu Sep 3 11:26:11 2015 -0700","0"
"3fb0d1e670ba0f5a63635ca5aa0cc1b8a9f1d5cb","dnomadb","damon@mapbox.com","Thu Sep 03 2015 20:14:45 GMT+0200 (CEST)","Thu Sep 3 11:14:45 2015 -0700","0"
"feb490336aac7869e70ce0cfd27b2363abda6b4f","dnomadb","damon@mapbox.com","Thu Sep 03 2015 20:12:26 GMT+0200 (CEST)","Thu Sep 3 11:12:26 2015 -0700","0"
"17d78fb9bb880f7609111b84fff46a4633170e6d","dnomadb","damon@mapbox.com","Thu Sep 03 2015 20:11:41 GMT+0200 (CEST)","Thu Sep 3 11:11:41 2015 -0700","0"
"fbf16d32c53960015d042dbcd7f90958f2cdea99","dnomadb","damon@mapbox.com","Thu Sep 03 2015 03:34:16 GMT+0200 (CEST)","Wed Sep 2 18:34:16 2015 -0700","0"
"ade2bc7a09b7c8781e0a9622187c11519300ddcf","Damon Burgett","damon@mapbox.com","Thu Sep 03 2015 03:33:14 GMT+0200 (CEST)","Wed Sep 2 18:33:14 2015 -0700","2"
"09e03f87ceff82faefab4e87c445f4fbda355639","dnomadb","damon@mapbox.com","Thu Sep 03 2015 03:27:25 GMT+0200 (CEST)","Wed Sep 2 18:27:25 2015 -0700","0"
"66e55634c5757c5c4c74b06f4732ec6d6df8dc12","Damon Burgett","damon@mapbox.com","Thu Sep 03 2015 02:17:07 GMT+0200 (CEST)","Wed Sep 2 17:17:07 2015 -0700","2"
"f75b49edfb72b62041a7895d9fa15990ee6b4aef","dnomadb","damon@mapbox.com","Thu Sep 03 2015 02:14:55 GMT+0200 (CEST)","Wed Sep 2 17:14:55 2015 -0700","0"
"4aee929271cd18db94ecfcd825e36eada04d1b59","Damon Burgett","damon@mapbox.com","Thu Sep 03 2015 02:11:52 GMT+0200 (CEST)","Wed Sep 2 17:11:52 2015 -0700","2"
"818306b4871fabcb202f36f9f0b3d6832d9afac4","dnomadb","damon@mapbox.com","Thu Sep 03 2015 01:59:53 GMT+0200 (CEST)","Wed Sep 2 16:59:53 2015 -0700","0"
"6826b176d472b6f131a43f3bebd882115c4beb69","dnomadb","damon@mapbox.com","Wed Sep 02 2015 23:41:34 GMT+0200 (CEST)","Wed Sep 2 14:41:34 2015 -0700","0"
"d522211e7325f5219dd8efe5944b0484c55b872e","Damon Burgett","damon@mapbox.com","Wed Sep 02 2015 23:10:11 GMT+0200 (CEST)","Wed Sep 2 14:10:11 2015 -0700","2"
"f2ff4bc8f84aad2fa5db6872670c9465bfb7bf95","dnomadb","damon@mapbox.com","Wed Sep 02 2015 23:05:00 GMT+0200 (CEST)","Wed Sep 2 14:05:00 2015 -0700","0"
"026a9b6916a4dfa4d0e32c06ae355744a12ce252","dnomadb","damon@mapbox.com","Wed Sep 02 2015 23:03:02 GMT+0200 (CEST)","Wed Sep 2 14:03:02 2015 -0700","0"
"2845607a3d74a9d1029db0361c11ce0e78974895","dnomadb","damon@mapbox.com","Wed Sep 02 2015 22:53:15 GMT+0200 (CEST)","Wed Sep 2 13:53:15 2015 -0700","0"
"f6709a3a12a748ca3381944a32062f798aee36a1","dnomadb","damon@mapbox.com","Wed Sep 02 2015 21:23:09 GMT+0200 (CEST)","Wed Sep 2 12:23:09 2015 -0700","0"
"222be1e3ffcbcc42c8341c80b4f08fa94f234550","Damon Burgett","damon@mapbox.com","Wed Sep 02 2015 03:47:35 GMT+0200 (CEST)","Tue Sep 1 18:47:35 2015 -0700","2"
"11978af2cdabfcefcbbcda52aed185baaf5b22fd","dnomadb","damon@mapbox.com","Wed Sep 02 2015 03:34:45 GMT+0200 (CEST)","Tue Sep 1 18:34:45 2015 -0700","0"
"83a7878fc28236933d1e2710a733ed20823db8c6","dnomadb","damon@mapbox.com","Wed Sep 02 2015 02:33:01 GMT+0200 (CEST)","Tue Sep 1 17:33:01 2015 -0700","0"
"0c528c3c875511a06badcd2e5ee03e398941eb0d","dnomadb","damon@mapbox.com","Wed Sep 02 2015 01:37:15 GMT+0200 (CEST)","Tue Sep 1 16:37:15 2015 -0700","0"
"52fc4a1a1a0a74cd6681054afe04a5ac025af543","Damon Burgett","damon@mapbox.com","Wed Sep 02 2015 01:34:32 GMT+0200 (CEST)","Tue Sep 1 16:34:32 2015 -0700","2"
"2f6965a3f255713a3d9e67f2ad09a9d1e3bbea6e","dnomadb","damon@mapbox.com","Wed Sep 02 2015 01:33:13 GMT+0200 (CEST)","Tue Sep 1 16:33:13 2015 -0700","0"
"599a6ab82bfd42e81be405694896a4b1e426b488","dnomadb","damon@mapbox.com","Wed Sep 02 2015 01:24:33 GMT+0200 (CEST)","Tue Sep 1 16:24:33 2015 -0700","0"
"a816ef240e4323279bc0edfe4f40e3d140ab26f0","dnomadb","damon@mapbox.com","Tue Sep 01 2015 23:55:10 GMT+0200 (CEST)","Tue Sep 1 14:55:10 2015 -0700","0"
"2049dccaac18ef5e57163f604c74fbedf34353f7","dnomadb","damon@mapbox.com","Tue Sep 01 2015 23:45:29 GMT+0200 (CEST)","Tue Sep 1 14:45:29 2015 -0700","2"
"b85a0eaf415f6c602f382bf5ae82ab13efb105e3","dnomadb","damon@mapbox.com","Tue Sep 01 2015 23:43:07 GMT+0200 (CEST)","Tue Sep 1 14:43:07 2015 -0700","0"
"43338ffa4d9703585c78f6613ed1bd047c076748","Sean Gillies","sean@mapbox.com","Tue Sep 01 2015 23:16:28 GMT+0200 (CEST)","Tue Sep 1 15:16:28 2015 -0600","0"
"4d24516f9903b2ee29682afc47066a98d8d2d353","Sean Gillies","sean@mapbox.com","Tue Sep 01 2015 23:00:42 GMT+0200 (CEST)","Tue Sep 1 15:00:42 2015 -0600","0"
"cd061c1d0c1d1988fb73cff7057b1a16b57f66c0","Sean Gillies","sean@mapbox.com","Tue Sep 01 2015 22:57:26 GMT+0200 (CEST)","Tue Sep 1 14:57:26 2015 -0600","0"
"537a12716831358ac39c9d2cd49f0356c905cf28","dnomadb","damon@mapbox.com","Tue Sep 01 2015 02:50:05 GMT+0200 (CEST)","Mon Aug 31 17:50:05 2015 -0700","0"
"a9df23fdfefc8e6c264fdfcaf913fec0015d2130","dnomadb","damon@mapbox.com","Tue Sep 01 2015 02:37:53 GMT+0200 (CEST)","Mon Aug 31 17:37:53 2015 -0700","0"
"e185892432a6b4fffe8ac6667c2d34eb05e29f3c","dnomadb","damon@mapbox.com","Mon Aug 31 2015 23:56:17 GMT+0200 (CEST)","Mon Aug 31 14:56:17 2015 -0700","0"
"b85fbc023c9e003da9251cd7123d15005ac1dc2e","dnomadb","damon@mapbox.com","Mon Aug 31 2015 23:10:37 GMT+0200 (CEST)","Mon Aug 31 14:10:37 2015 -0700","0"
