[
{
  "url": "https://api.github.com/repos/airbnb/aerosolve/issues/comments/103597514",
  "html_url": "https://github.com/airbnb/aerosolve/pull/6#issuecomment-103597514",
  "issue_url": "https://api.github.com/repos/airbnb/aerosolve/issues/6",
  "id": 103597514,
  "user": {
    "login": "deerzq",
    "id": 2186009,
    "avatar_url": "https://avatars.githubusercontent.com/u/2186009?v=3",
    "gravatar_id": "",
    "url": "https://api.github.com/users/deerzq",
    "html_url": "https://github.com/deerzq",
    "followers_url": "https://api.github.com/users/deerzq/followers",
    "following_url": "https://api.github.com/users/deerzq/following{/other_user}",
    "gists_url": "https://api.github.com/users/deerzq/gists{/gist_id}",
    "starred_url": "https://api.github.com/users/deerzq/starred{/owner}{/repo}",
    "subscriptions_url": "https://api.github.com/users/deerzq/subscriptions",
    "organizations_url": "https://api.github.com/users/deerzq/orgs",
    "repos_url": "https://api.github.com/users/deerzq/repos",
    "events_url": "https://api.github.com/users/deerzq/events{/privacy}",
    "received_events_url": "https://api.github.com/users/deerzq/received_events",
    "type": "User",
    "site_admin": false
  },
  "created_at": "2015-05-19T17:13:01Z",
  "updated_at": "2015-05-19T17:13:01Z",
  "body": "Updated"
}
, {
  "url": "https://api.github.com/repos/airbnb/aerosolve/issues/comments/103597743",
  "html_url": "https://github.com/airbnb/aerosolve/pull/6#issuecomment-103597743",
  "issue_url": "https://api.github.com/repos/airbnb/aerosolve/issues/6",
  "id": 103597743,
  "user": {
    "login": "hectorgon",
    "id": 790997,
    "avatar_url": "https://avatars.githubusercontent.com/u/790997?v=3",
    "gravatar_id": "",
    "url": "https://api.github.com/users/hectorgon",
    "html_url": "https://github.com/hectorgon",
    "followers_url": "https://api.github.com/users/hectorgon/followers",
    "following_url": "https://api.github.com/users/hectorgon/following{/other_user}",
    "gists_url": "https://api.github.com/users/hectorgon/gists{/gist_id}",
    "starred_url": "https://api.github.com/users/hectorgon/starred{/owner}{/repo}",
    "subscriptions_url": "https://api.github.com/users/hectorgon/subscriptions",
    "organizations_url": "https://api.github.com/users/hectorgon/orgs",
    "repos_url": "https://api.github.com/users/hectorgon/repos",
    "events_url": "https://api.github.com/users/hectorgon/events{/privacy}",
    "received_events_url": "https://api.github.com/users/hectorgon/received_events",
    "type": "User",
    "site_admin": false
  },
  "created_at": "2015-05-19T17:13:40Z",
  "updated_at": "2015-05-19T17:13:40Z",
  "body": "LGTM"
}
]
