[
{
  "url": "https://api.github.com/repos/facebook/flow/issues/comments/169723874",
  "html_url": "https://github.com/facebook/flow/issues/1251#issuecomment-169723874",
  "issue_url": "https://api.github.com/repos/facebook/flow/issues/1251",
  "id": 169723874,
  "user": {
    "login": "samwgoldman",
    "id": 254842,
    "avatar_url": "https://avatars.githubusercontent.com/u/254842?v=3",
    "gravatar_id": "",
    "url": "https://api.github.com/users/samwgoldman",
    "html_url": "https://github.com/samwgoldman",
    "followers_url": "https://api.github.com/users/samwgoldman/followers",
    "following_url": "https://api.github.com/users/samwgoldman/following{/other_user}",
    "gists_url": "https://api.github.com/users/samwgoldman/gists{/gist_id}",
    "starred_url": "https://api.github.com/users/samwgoldman/starred{/owner}{/repo}",
    "subscriptions_url": "https://api.github.com/users/samwgoldman/subscriptions",
    "organizations_url": "https://api.github.com/users/samwgoldman/orgs",
    "repos_url": "https://api.github.com/users/samwgoldman/repos",
    "events_url": "https://api.github.com/users/samwgoldman/events{/privacy}",
    "received_events_url": "https://api.github.com/users/samwgoldman/received_events",
    "type": "User",
    "site_admin": false
  },
  "created_at": "2016-01-07T16:48:17Z",
  "updated_at": "2016-01-07T16:48:17Z",
  "body": "How is the `{[_: string]: Cs...}` type used? I'm unclear about what you're asking for here."
}
, {
  "url": "https://api.github.com/repos/facebook/flow/issues/comments/169793390",
  "html_url": "https://github.com/facebook/flow/issues/1251#issuecomment-169793390",
  "issue_url": "https://api.github.com/repos/facebook/flow/issues/1251",
  "id": 169793390,
  "user": {
    "login": "ooflorent",
    "id": 168498,
    "avatar_url": "https://avatars.githubusercontent.com/u/168498?v=3",
    "gravatar_id": "",
    "url": "https://api.github.com/users/ooflorent",
    "html_url": "https://github.com/ooflorent",
    "followers_url": "https://api.github.com/users/ooflorent/followers",
    "following_url": "https://api.github.com/users/ooflorent/following{/other_user}",
    "gists_url": "https://api.github.com/users/ooflorent/gists{/gist_id}",
    "starred_url": "https://api.github.com/users/ooflorent/starred{/owner}{/repo}",
    "subscriptions_url": "https://api.github.com/users/ooflorent/subscriptions",
    "organizations_url": "https://api.github.com/users/ooflorent/orgs",
    "repos_url": "https://api.github.com/users/ooflorent/repos",
    "events_url": "https://api.github.com/users/ooflorent/events{/privacy}",
    "received_events_url": "https://api.github.com/users/ooflorent/received_events",
    "type": "User",
    "site_admin": false
  },
  "created_at": "2016-01-07T20:16:06Z",
  "updated_at": "2016-01-07T20:16:06Z",
  "body": "Well, the following is pseudo code to highlight the main idea:\r\n\r\n```js\r\nclass Foo {}\r\nclass Bar {}\r\nclass Baz {}\r\nclass Qux {}\r\n\r\nvar entity1 = createEntity({foo: Foo, bar: Bar, baz: Baz})\r\nvar entity2 = createEntity({foo: Foo, qux: Qux})\r\n```\r\n\r\nBasically `createEntity` accepts an object where each value is a `Class`. \r\nThe resulting entity types would be:\r\n\r\n```js\r\ntype Entity1 = {\r\n  foo: ?Foo;\r\n  bar: ?Bar;\r\n  baz: ?Baz;\r\n}\r\n\r\ntype Entity2 = {\r\n  foo: ?Foo;\r\n  qux: ?Qux;\r\n}\r\n```\r\n\r\nI think `createEntity` signature would be something like:\r\n\r\n```js\r\nfunction createEntity<...Cs>(cs: {[_: string]: Class<Cs...>}): {[_: string]: ?Cs...}\r\n```\r\n\r\nI want to avoid `any` to keep the code strictly typed but would like it to be generic.\r\nAny thoughts on how to achieve it?"
}
, {
  "url": "https://api.github.com/repos/facebook/flow/issues/comments/169803660",
  "html_url": "https://github.com/facebook/flow/issues/1251#issuecomment-169803660",
  "issue_url": "https://api.github.com/repos/facebook/flow/issues/1251",
  "id": 169803660,
  "user": {
    "login": "samwgoldman",
    "id": 254842,
    "avatar_url": "https://avatars.githubusercontent.com/u/254842?v=3",
    "gravatar_id": "",
    "url": "https://api.github.com/users/samwgoldman",
    "html_url": "https://github.com/samwgoldman",
    "followers_url": "https://api.github.com/users/samwgoldman/followers",
    "following_url": "https://api.github.com/users/samwgoldman/following{/other_user}",
    "gists_url": "https://api.github.com/users/samwgoldman/gists{/gist_id}",
    "starred_url": "https://api.github.com/users/samwgoldman/starred{/owner}{/repo}",
    "subscriptions_url": "https://api.github.com/users/samwgoldman/subscriptions",
    "organizations_url": "https://api.github.com/users/samwgoldman/orgs",
    "repos_url": "https://api.github.com/users/samwgoldman/repos",
    "events_url": "https://api.github.com/users/samwgoldman/events{/privacy}",
    "received_events_url": "https://api.github.com/users/samwgoldman/received_events",
    "type": "User",
    "site_admin": false
  },
  "created_at": "2016-01-07T21:00:56Z",
  "updated_at": "2016-01-07T21:00:56Z",
  "body": "What would the implementation of `createEntity` be?"
}
, {
  "url": "https://api.github.com/repos/facebook/flow/issues/comments/169807197",
  "html_url": "https://github.com/facebook/flow/issues/1251#issuecomment-169807197",
  "issue_url": "https://api.github.com/repos/facebook/flow/issues/1251",
  "id": 169807197,
  "user": {
    "login": "ooflorent",
    "id": 168498,
    "avatar_url": "https://avatars.githubusercontent.com/u/168498?v=3",
    "gravatar_id": "",
    "url": "https://api.github.com/users/ooflorent",
    "html_url": "https://github.com/ooflorent",
    "followers_url": "https://api.github.com/users/ooflorent/followers",
    "following_url": "https://api.github.com/users/ooflorent/following{/other_user}",
    "gists_url": "https://api.github.com/users/ooflorent/gists{/gist_id}",
    "starred_url": "https://api.github.com/users/ooflorent/starred{/owner}{/repo}",
    "subscriptions_url": "https://api.github.com/users/ooflorent/subscriptions",
    "organizations_url": "https://api.github.com/users/ooflorent/orgs",
    "repos_url": "https://api.github.com/users/ooflorent/repos",
    "events_url": "https://api.github.com/users/ooflorent/events{/privacy}",
    "received_events_url": "https://api.github.com/users/ooflorent/received_events",
    "type": "User",
    "site_admin": false
  },
  "created_at": "2016-01-07T21:15:28Z",
  "updated_at": "2016-01-07T21:15:28Z",
  "body": "I've created of what I'm trying to achieve.\r\nhttps://gist.github.com/ooflorent/84260ef9aa8498fb63b1\r\n\r\nExample usage:\r\n\r\n```js\r\nconst em = createManager({transform: Transform2D, body: Body, sprite: Sprite})\r\nconst entity = em.create()\r\n```\r\n\r\nIn the above example, entity type would be defined as:\r\n\r\n```js\r\ndeclare class Entity {\r\n  transform: Transform2D;\r\n  body: Body;\r\n  sprite: Sprite;\r\n}\r\n```\r\n\r\nCalling `createManager` with another object shape would recompile an `Entity` class and shape it according `createManager` argument."
}
, {
  "url": "https://api.github.com/repos/facebook/flow/issues/comments/169946527",
  "html_url": "https://github.com/facebook/flow/issues/1251#issuecomment-169946527",
  "issue_url": "https://api.github.com/repos/facebook/flow/issues/1251",
  "id": 169946527,
  "user": {
    "login": "rjbailey",
    "id": 2250242,
    "avatar_url": "https://avatars.githubusercontent.com/u/2250242?v=3",
    "gravatar_id": "",
    "url": "https://api.github.com/users/rjbailey",
    "html_url": "https://github.com/rjbailey",
    "followers_url": "https://api.github.com/users/rjbailey/followers",
    "following_url": "https://api.github.com/users/rjbailey/following{/other_user}",
    "gists_url": "https://api.github.com/users/rjbailey/gists{/gist_id}",
    "starred_url": "https://api.github.com/users/rjbailey/starred{/owner}{/repo}",
    "subscriptions_url": "https://api.github.com/users/rjbailey/subscriptions",
    "organizations_url": "https://api.github.com/users/rjbailey/orgs",
    "repos_url": "https://api.github.com/users/rjbailey/repos",
    "events_url": "https://api.github.com/users/rjbailey/events{/privacy}",
    "received_events_url": "https://api.github.com/users/rjbailey/received_events",
    "type": "User",
    "site_admin": false
  },
  "created_at": "2016-01-08T09:34:23Z",
  "updated_at": "2016-01-08T09:34:23Z",
  "body": "I have also wanted variadic generics, when writing a function that behaves similarly to `Promise.all`. I ended up writing non-variadic type-safe versions:\r\n\r\n```js\r\n  static all2<A, B, U>(\r\n    resultA: Result<A>,\r\n    resultB: Result<B>,\r\n    func: (a: A, b: B) => U\r\n  ): Result<U> {\r\n    return Result.all([resultA, resultB])\r\n      .map(a => func(a[0], a[1]));\r\n  }\r\n\r\n  static all3<A, B, C, U>(\r\n    resultA: Result<A>,\r\n    resultB: Result<B>,\r\n    resultC: Result<C>,\r\n    func: (a: A, b: B, c: C) => U\r\n  ): Result<U> {\r\n    return Result.all([resultA, resultB, resultC])\r\n      .map(a => func(a[0], a[1], a[2]));\r\n  }\r\n\r\n  // ...etc\r\n```"
}
, {
  "url": "https://api.github.com/repos/facebook/flow/issues/comments/170064861",
  "html_url": "https://github.com/facebook/flow/issues/1251#issuecomment-170064861",
  "issue_url": "https://api.github.com/repos/facebook/flow/issues/1251",
  "id": 170064861,
  "user": {
    "login": "samwgoldman",
    "id": 254842,
    "avatar_url": "https://avatars.githubusercontent.com/u/254842?v=3",
    "gravatar_id": "",
    "url": "https://api.github.com/users/samwgoldman",
    "html_url": "https://github.com/samwgoldman",
    "followers_url": "https://api.github.com/users/samwgoldman/followers",
    "following_url": "https://api.github.com/users/samwgoldman/following{/other_user}",
    "gists_url": "https://api.github.com/users/samwgoldman/gists{/gist_id}",
    "starred_url": "https://api.github.com/users/samwgoldman/starred{/owner}{/repo}",
    "subscriptions_url": "https://api.github.com/users/samwgoldman/subscriptions",
    "organizations_url": "https://api.github.com/users/samwgoldman/orgs",
    "repos_url": "https://api.github.com/users/samwgoldman/repos",
    "events_url": "https://api.github.com/users/samwgoldman/events{/privacy}",
    "received_events_url": "https://api.github.com/users/samwgoldman/received_events",
    "type": "User",
    "site_admin": false
  },
  "created_at": "2016-01-08T17:26:35Z",
  "updated_at": "2016-01-08T17:26:35Z",
  "body": "Thanks @rjbailey. The `Promise.all` example is a bit easier to wrap my head around. We are actually kicking around some ideas to make typing these kinds of APIs easier, but it's still very much in the primordial phase.\r\n\r\n@ooflorent, do you think `Promise.all` is similar to your issue? I haven't spent a lot of time trying to grok the gist you shared."
}
, {
  "url": "https://api.github.com/repos/facebook/flow/issues/comments/170091094",
  "html_url": "https://github.com/facebook/flow/issues/1251#issuecomment-170091094",
  "issue_url": "https://api.github.com/repos/facebook/flow/issues/1251",
  "id": 170091094,
  "user": {
    "login": "ooflorent",
    "id": 168498,
    "avatar_url": "https://avatars.githubusercontent.com/u/168498?v=3",
    "gravatar_id": "",
    "url": "https://api.github.com/users/ooflorent",
    "html_url": "https://github.com/ooflorent",
    "followers_url": "https://api.github.com/users/ooflorent/followers",
    "following_url": "https://api.github.com/users/ooflorent/following{/other_user}",
    "gists_url": "https://api.github.com/users/ooflorent/gists{/gist_id}",
    "starred_url": "https://api.github.com/users/ooflorent/starred{/owner}{/repo}",
    "subscriptions_url": "https://api.github.com/users/ooflorent/subscriptions",
    "organizations_url": "https://api.github.com/users/ooflorent/orgs",
    "repos_url": "https://api.github.com/users/ooflorent/repos",
    "events_url": "https://api.github.com/users/ooflorent/events{/privacy}",
    "received_events_url": "https://api.github.com/users/ooflorent/received_events",
    "type": "User",
    "site_admin": false
  },
  "created_at": "2016-01-08T18:55:52Z",
  "updated_at": "2016-01-08T18:55:52Z",
  "body": "@samwgoldman Yes it is similar."
}
, {
  "url": "https://api.github.com/repos/facebook/flow/issues/comments/171616018",
  "html_url": "https://github.com/facebook/flow/issues/1251#issuecomment-171616018",
  "issue_url": "https://api.github.com/repos/facebook/flow/issues/1251",
  "id": 171616018,
  "user": {
    "login": "ooflorent",
    "id": 168498,
    "avatar_url": "https://avatars.githubusercontent.com/u/168498?v=3",
    "gravatar_id": "",
    "url": "https://api.github.com/users/ooflorent",
    "html_url": "https://github.com/ooflorent",
    "followers_url": "https://api.github.com/users/ooflorent/followers",
    "following_url": "https://api.github.com/users/ooflorent/following{/other_user}",
    "gists_url": "https://api.github.com/users/ooflorent/gists{/gist_id}",
    "starred_url": "https://api.github.com/users/ooflorent/starred{/owner}{/repo}",
    "subscriptions_url": "https://api.github.com/users/ooflorent/subscriptions",
    "organizations_url": "https://api.github.com/users/ooflorent/orgs",
    "repos_url": "https://api.github.com/users/ooflorent/repos",
    "events_url": "https://api.github.com/users/ooflorent/events{/privacy}",
    "received_events_url": "https://api.github.com/users/ooflorent/received_events",
    "type": "User",
    "site_admin": false
  },
  "created_at": "2016-01-14T11:16:55Z",
  "updated_at": "2016-01-14T11:16:55Z",
  "body": "@samwgoldman I've found a way more descriptive use case.\r\n\r\nHow would you write ES7 typed objects type definitions?\r\nHere is an example using `StructType`:\r\n\r\n```js\r\nconst Point2D = new StructType({ x: uint32, y: uint32 })\r\nlet p2 = Point2D({x: 10, y: 20})\r\nlet x = p2.x // ok\r\nlet z = p2.z // TypeError\r\n\r\nconst Point3D = new StructType({ x: uint32, y: uint32, z: uint32 })\r\nlet p3 = Point3D({x: 10, y: 20}) // TypeError\r\n```"
}
]
