[
{
  "url": "https://api.github.com/repos/thoughtbot/laptop/issues/comments/16006277",
  "html_url": "https://github.com/thoughtbot/laptop/pull/82#issuecomment-16006277",
  "issue_url": "https://api.github.com/repos/thoughtbot/laptop/issues/82",
  "id": 16006277,
  "user": {
    "login": "croaky",
    "id": 198,
    "avatar_url": "https://avatars.githubusercontent.com/u/198?v=3",
    "gravatar_id": "",
    "url": "https://api.github.com/users/croaky",
    "html_url": "https://github.com/croaky",
    "followers_url": "https://api.github.com/users/croaky/followers",
    "following_url": "https://api.github.com/users/croaky/following{/other_user}",
    "gists_url": "https://api.github.com/users/croaky/gists{/gist_id}",
    "starred_url": "https://api.github.com/users/croaky/starred{/owner}{/repo}",
    "subscriptions_url": "https://api.github.com/users/croaky/subscriptions",
    "organizations_url": "https://api.github.com/users/croaky/orgs",
    "repos_url": "https://api.github.com/users/croaky/repos",
    "events_url": "https://api.github.com/users/croaky/events{/privacy}",
    "received_events_url": "https://api.github.com/users/croaky/received_events",
    "type": "User",
    "site_admin": false
  },
  "created_at": "2013-04-06T23:43:15Z",
  "updated_at": "2013-04-06T23:43:15Z",
  "body": "@adarshpandit Thanks for the PR. I really like the changes to make it idempotent. Also good call on the SSH check.\r\n\r\nI pushed a [follow-up commit](https://github.com/thoughtbot/laptop/commit/89272c99850b46c076f30eaee4766e5d82adcb88) to this branch that:\r\n\r\n* Removes the extra `echo`s.\r\n* Does not print anything to `stdout`.\r\n* Removes the captive user interface changes.\r\n* Adds a line about idempotence to the README.\r\n* Removes the printed instructions about Postgres and Redis.\r\n\r\nI provided links in the commit explaining why I don't want the script to be chatty or create a captive user interface.\r\n\r\nI'd rather see the Postgres and Redis commands just run, rather than printed as instructions. A goal of the script is to be a one-liner. If there are commands from those `brew info`s that we should bring in, those would be good separate PRs.\r\n\r\nTake a look at the current diff and let me know what you think."
}
, {
  "url": "https://api.github.com/repos/thoughtbot/laptop/issues/comments/16006599",
  "html_url": "https://github.com/thoughtbot/laptop/pull/82#issuecomment-16006599",
  "issue_url": "https://api.github.com/repos/thoughtbot/laptop/issues/82",
  "id": 16006599,
  "user": {
    "login": "Kerrick",
    "id": 552093,
    "avatar_url": "https://avatars.githubusercontent.com/u/552093?v=3",
    "gravatar_id": "",
    "url": "https://api.github.com/users/Kerrick",
    "html_url": "https://github.com/Kerrick",
    "followers_url": "https://api.github.com/users/Kerrick/followers",
    "following_url": "https://api.github.com/users/Kerrick/following{/other_user}",
    "gists_url": "https://api.github.com/users/Kerrick/gists{/gist_id}",
    "starred_url": "https://api.github.com/users/Kerrick/starred{/owner}{/repo}",
    "subscriptions_url": "https://api.github.com/users/Kerrick/subscriptions",
    "organizations_url": "https://api.github.com/users/Kerrick/orgs",
    "repos_url": "https://api.github.com/users/Kerrick/repos",
    "events_url": "https://api.github.com/users/Kerrick/events{/privacy}",
    "received_events_url": "https://api.github.com/users/Kerrick/received_events",
    "type": "User",
    "site_admin": false
  },
  "created_at": "2013-04-07T00:05:38Z",
  "updated_at": "2013-04-07T00:54:09Z",
  "body": "_Moved the logging/`stdout` part of this post to #83._\r\n\r\nI completely agree with avoiding a captive user interface in most situations. However, I totally get why @adarshpandit added them in the first place--if you're not actively watching the text stream by, you can totally miss the fact that your clipboard was modified and the reason the browser just opened. In fact, in your follow-up commit, those are _completely_ omitted.\r\n\r\nIn fact, an argument could be made that a captive UI is a _good_ thing in this situation, because the script (being run in the terminal) is **modifying your clipboard**, potentially overwriting something important. It's a good idea to warn the user before that happens so they can paste the information somewhere.\r\n\r\nPerhaps a good compromise could be to move the SSH key generation/copying and the GitHub opening to the end, mention them to the user, and halt the script only for the clipboard alteration?"
}
, {
  "url": "https://api.github.com/repos/thoughtbot/laptop/issues/comments/16006716",
  "html_url": "https://github.com/thoughtbot/laptop/pull/82#issuecomment-16006716",
  "issue_url": "https://api.github.com/repos/thoughtbot/laptop/issues/82",
  "id": 16006716,
  "user": {
    "login": "croaky",
    "id": 198,
    "avatar_url": "https://avatars.githubusercontent.com/u/198?v=3",
    "gravatar_id": "",
    "url": "https://api.github.com/users/croaky",
    "html_url": "https://github.com/croaky",
    "followers_url": "https://api.github.com/users/croaky/followers",
    "following_url": "https://api.github.com/users/croaky/following{/other_user}",
    "gists_url": "https://api.github.com/users/croaky/gists{/gist_id}",
    "starred_url": "https://api.github.com/users/croaky/starred{/owner}{/repo}",
    "subscriptions_url": "https://api.github.com/users/croaky/subscriptions",
    "organizations_url": "https://api.github.com/users/croaky/orgs",
    "repos_url": "https://api.github.com/users/croaky/repos",
    "events_url": "https://api.github.com/users/croaky/events{/privacy}",
    "received_events_url": "https://api.github.com/users/croaky/received_events",
    "type": "User",
    "site_admin": false
  },
  "created_at": "2013-04-07T00:14:27Z",
  "updated_at": "2013-04-07T00:14:27Z",
  "body": "> However, I totally get why @adarshpandit added them in the first place--if you're not actively watching the text stream by, you can totally miss the fact that your clipboard was modified and the reason the browser just opened.\r\n\r\nDefinitely. Taking another approach, I've removed the \"copy SSH key to clipboard\" bit in 3876ff5.\r\n\r\nI opened a separate issue for logging the information here:\r\n\r\nhttps://github.com/thoughtbot/laptop/issues/83\r\n\r\nDefinitely interested in more opinions about status indicators printing out vs. just logging."
}
, {
  "url": "https://api.github.com/repos/thoughtbot/laptop/issues/comments/16037842",
  "html_url": "https://github.com/thoughtbot/laptop/pull/82#issuecomment-16037842",
  "issue_url": "https://api.github.com/repos/thoughtbot/laptop/issues/82",
  "id": 16037842,
  "user": {
    "login": "adarsh",
    "id": 913757,
    "avatar_url": "https://avatars.githubusercontent.com/u/913757?v=3",
    "gravatar_id": "",
    "url": "https://api.github.com/users/adarsh",
    "html_url": "https://github.com/adarsh",
    "followers_url": "https://api.github.com/users/adarsh/followers",
    "following_url": "https://api.github.com/users/adarsh/following{/other_user}",
    "gists_url": "https://api.github.com/users/adarsh/gists{/gist_id}",
    "starred_url": "https://api.github.com/users/adarsh/starred{/owner}{/repo}",
    "subscriptions_url": "https://api.github.com/users/adarsh/subscriptions",
    "organizations_url": "https://api.github.com/users/adarsh/orgs",
    "repos_url": "https://api.github.com/users/adarsh/repos",
    "events_url": "https://api.github.com/users/adarsh/events{/privacy}",
    "received_events_url": "https://api.github.com/users/adarsh/received_events",
    "type": "User",
    "site_admin": false
  },
  "created_at": "2013-04-08T08:14:49Z",
  "updated_at": "2013-04-08T08:14:49Z",
  "body": "Very interesting approach and well worth the discussion. I prefer the version I submitted because I find it much easier to use and understand. Removing all standard output feels like a pretty big change, hence the lengthy discussion below.\r\n\r\nThe script installs and modifies many programs and libraries for you. I think it's important to know specifically what it does (and maybe why). For example, you might try to alter your path and wonder why it's been changed in the way it has (or even how it got changed, if you didn't know laptop did it for you). I'd bet more than a minority of users run the script without reading it - I know I've run scripts without reading them all the way through.\r\n\r\nThe references to UNIX philosophy are very interesting. One downside to Captive User Interfaces noted is parsing the prompted response. In this case, we're not parsing responses, only pausing for the user to read about the big changes we're making to their environment.\r\n\r\nTo me, this script doesn't feel as much like a \"UNIX program\", like `grep` or `ack` as much as it does a \"script\" or \"macro\". I might have the wrong idea completely about UNIX but it definitely feels like a different beast. Silver Searcher feels closer to the UNIX family than this does.\r\n\r\nNow that may mean it should be made to be more like a UNIX program (closer to your edits) or that scripts like this which replicate repetitive command-line statements fall under some different concept. I'm not sure I have the answer for that.\r\n\r\nPractically, I would think not seeing progress/output would make me wonder if the script was working at all. This script has stalled/failed on me a number of times and knowing where is important as I debug. I could see using this on a friend's computer and have them look at me and ask if it was running. \r\n\r\nThe underlying programs, the OS X environment, and user customization are all sources of instability and change. I can't say this script works 100% of the time given the uncontrollable shiftiness I mentioned. As such, I'd like a lot more detail on what fails and how far along we've gotten before it does. @croaky I'm curious to know if you've noticed this brittleness as well.\r\n\r\nAlso worth noting, the `successfully` method, which should give nice errors on failure, doesn't always exit the script upon failures. I'm guessing not all of those methods return the right success code, but that's just a guess.\r\n\r\nI kind of liked having the script copy my key and open the browser, but maybe I'm in the minority. If it's kept, I still think it's worth warning the user before opening a browser.\r\n\r\nAnyhow, I'm not big on the changes and agree with @Kerrick for the most part, although I'd prefer seeing std out progress over an output logfile, especially if it's run repeatedly. I think the output serves as a learning tool as well - I first learned about Redis from this script. That being said, I'm curious to hear other thoughts about these changes.\r\n\r\nAt the very least, I've already learned a ton through this discussion and now I'm ordering a copy of \"The UNIX Philosophy\"."
}
, {
  "url": "https://api.github.com/repos/thoughtbot/laptop/issues/comments/16062179",
  "html_url": "https://github.com/thoughtbot/laptop/pull/82#issuecomment-16062179",
  "issue_url": "https://api.github.com/repos/thoughtbot/laptop/issues/82",
  "id": 16062179,
  "user": {
    "login": "adarsh",
    "id": 913757,
    "avatar_url": "https://avatars.githubusercontent.com/u/913757?v=3",
    "gravatar_id": "",
    "url": "https://api.github.com/users/adarsh",
    "html_url": "https://github.com/adarsh",
    "followers_url": "https://api.github.com/users/adarsh/followers",
    "following_url": "https://api.github.com/users/adarsh/following{/other_user}",
    "gists_url": "https://api.github.com/users/adarsh/gists{/gist_id}",
    "starred_url": "https://api.github.com/users/adarsh/starred{/owner}{/repo}",
    "subscriptions_url": "https://api.github.com/users/adarsh/subscriptions",
    "organizations_url": "https://api.github.com/users/adarsh/orgs",
    "repos_url": "https://api.github.com/users/adarsh/repos",
    "events_url": "https://api.github.com/users/adarsh/events{/privacy}",
    "received_events_url": "https://api.github.com/users/adarsh/received_events",
    "type": "User",
    "site_admin": false
  },
  "created_at": "2013-04-08T16:42:54Z",
  "updated_at": "2013-04-08T16:42:54Z",
  "body": "Not sure if this is too late, but a change this big might be best in a separate PR, so this one would be \"Improve what we already have\" while the new one would be \"Remove all stdout\". Just a thought"
}
, {
  "url": "https://api.github.com/repos/thoughtbot/laptop/issues/comments/16093045",
  "html_url": "https://github.com/thoughtbot/laptop/pull/82#issuecomment-16093045",
  "issue_url": "https://api.github.com/repos/thoughtbot/laptop/issues/82",
  "id": 16093045,
  "user": {
    "login": "croaky",
    "id": 198,
    "avatar_url": "https://avatars.githubusercontent.com/u/198?v=3",
    "gravatar_id": "",
    "url": "https://api.github.com/users/croaky",
    "html_url": "https://github.com/croaky",
    "followers_url": "https://api.github.com/users/croaky/followers",
    "following_url": "https://api.github.com/users/croaky/following{/other_user}",
    "gists_url": "https://api.github.com/users/croaky/gists{/gist_id}",
    "starred_url": "https://api.github.com/users/croaky/starred{/owner}{/repo}",
    "subscriptions_url": "https://api.github.com/users/croaky/subscriptions",
    "organizations_url": "https://api.github.com/users/croaky/orgs",
    "repos_url": "https://api.github.com/users/croaky/repos",
    "events_url": "https://api.github.com/users/croaky/events{/privacy}",
    "received_events_url": "https://api.github.com/users/croaky/received_events",
    "type": "User",
    "site_admin": false
  },
  "created_at": "2013-04-09T04:04:44Z",
  "updated_at": "2013-04-09T04:04:44Z",
  "body": "> a change this big might be best in a separate PR\r\n\r\nAgree these should be broken out. Going to separate them and try one other approach to output."
}
, {
  "url": "https://api.github.com/repos/thoughtbot/laptop/issues/comments/16094844",
  "html_url": "https://github.com/thoughtbot/laptop/pull/82#issuecomment-16094844",
  "issue_url": "https://api.github.com/repos/thoughtbot/laptop/issues/82",
  "id": 16094844,
  "user": {
    "login": "croaky",
    "id": 198,
    "avatar_url": "https://avatars.githubusercontent.com/u/198?v=3",
    "gravatar_id": "",
    "url": "https://api.github.com/users/croaky",
    "html_url": "https://github.com/croaky",
    "followers_url": "https://api.github.com/users/croaky/followers",
    "following_url": "https://api.github.com/users/croaky/following{/other_user}",
    "gists_url": "https://api.github.com/users/croaky/gists{/gist_id}",
    "starred_url": "https://api.github.com/users/croaky/starred{/owner}{/repo}",
    "subscriptions_url": "https://api.github.com/users/croaky/subscriptions",
    "organizations_url": "https://api.github.com/users/croaky/orgs",
    "repos_url": "https://api.github.com/users/croaky/repos",
    "events_url": "https://api.github.com/users/croaky/events{/privacy}",
    "received_events_url": "https://api.github.com/users/croaky/received_events",
    "type": "User",
    "site_admin": false
  },
  "created_at": "2013-04-09T05:25:32Z",
  "updated_at": "2013-04-09T05:26:26Z",
  "body": "> Removing all standard output feels like a pretty big change\r\n\r\nMy earlier change didn't remove all standard output, although I see that's how I phrased it. So, my apologies. All I was doing was removing the custom output, not the output from the scripts themselves, which print quite a bit. I don't think that was serving much of a purpose and I think the arguments about users thinking the script is hanging are valid.\r\n\r\nSo, I extracted the pieces from our commits into smaller PRs:\r\n\r\n* [Restart shell as login after rbenv](https://github.com/thoughtbot/laptop/pull/87)\r\n* [Don't open browser](https://github.com/thoughtbot/laptop/pull/86)\r\n* [Improve idempotence of script](https://github.com/thoughtbot/laptop/pull/88)\r\n\r\nAnd added a new one, [Print commands as they execute](https://github.com/thoughtbot/laptop/pull/85), to add a bit more context to the output.\r\n\r\nI don't think I want to add the `read`s right now for fear of users thinking the script is done. As a compromise, I added a little bit of extra documentation encouraging the user to read the script before running it: 70bcd8f\r\n\r\nLet me know what you think and thanks for all the ideas, the pull request, and comments."
}
]
