[
{
  "url": "https://api.github.com/repos/thoughtbot/laptop/issues/comments/46716070",
  "html_url": "https://github.com/thoughtbot/laptop/pull/238#issuecomment-46716070",
  "issue_url": "https://api.github.com/repos/thoughtbot/laptop/issues/238",
  "id": 46716070,
  "user": {
    "login": "pbrisbin",
    "id": 50812,
    "avatar_url": "https://avatars.githubusercontent.com/u/50812?v=3",
    "gravatar_id": "",
    "url": "https://api.github.com/users/pbrisbin",
    "html_url": "https://github.com/pbrisbin",
    "followers_url": "https://api.github.com/users/pbrisbin/followers",
    "following_url": "https://api.github.com/users/pbrisbin/following{/other_user}",
    "gists_url": "https://api.github.com/users/pbrisbin/gists{/gist_id}",
    "starred_url": "https://api.github.com/users/pbrisbin/starred{/owner}{/repo}",
    "subscriptions_url": "https://api.github.com/users/pbrisbin/subscriptions",
    "organizations_url": "https://api.github.com/users/pbrisbin/orgs",
    "repos_url": "https://api.github.com/users/pbrisbin/repos",
    "events_url": "https://api.github.com/users/pbrisbin/events{/privacy}",
    "received_events_url": "https://api.github.com/users/pbrisbin/received_events",
    "type": "User",
    "site_admin": false
  },
  "created_at": "2014-06-20T19:14:38Z",
  "updated_at": "2014-06-20T19:14:38Z",
  "body": "Minor shell nits -- LGTM besides."
}
]
