[
{
  "url": "https://api.github.com/repos/spotify/puppetexplorer/issues/comments/51921821",
  "html_url": "https://github.com/spotify/puppetexplorer/issues/11#issuecomment-51921821",
  "issue_url": "https://api.github.com/repos/spotify/puppetexplorer/issues/11",
  "id": 51921821,
  "user": {
    "login": "dalen",
    "id": 7400,
    "avatar_url": "https://avatars.githubusercontent.com/u/7400?v=3",
    "gravatar_id": "",
    "url": "https://api.github.com/users/dalen",
    "html_url": "https://github.com/dalen",
    "followers_url": "https://api.github.com/users/dalen/followers",
    "following_url": "https://api.github.com/users/dalen/following{/other_user}",
    "gists_url": "https://api.github.com/users/dalen/gists{/gist_id}",
    "starred_url": "https://api.github.com/users/dalen/starred{/owner}{/repo}",
    "subscriptions_url": "https://api.github.com/users/dalen/subscriptions",
    "organizations_url": "https://api.github.com/users/dalen/orgs",
    "repos_url": "https://api.github.com/users/dalen/repos",
    "events_url": "https://api.github.com/users/dalen/events{/privacy}",
    "received_events_url": "https://api.github.com/users/dalen/received_events",
    "type": "User",
    "site_admin": true
  },
  "created_at": "2014-08-12T14:31:31Z",
  "updated_at": "2014-08-12T14:31:31Z",
  "body": "I added a warning sign beside the timestamp in the node list UI. Will release a new version with this and some other stuff soonish."
}
]
