[
{
  "url": "https://api.github.com/repos/hashicorp/consul-haproxy/issues/comments/54329809",
  "html_url": "https://github.com/hashicorp/consul-haproxy/pull/7#issuecomment-54329809",
  "issue_url": "https://api.github.com/repos/hashicorp/consul-haproxy/issues/7",
  "id": 54329809,
  "user": {
    "login": "armon",
    "id": 592032,
    "avatar_url": "https://avatars.githubusercontent.com/u/592032?v=3",
    "gravatar_id": "",
    "url": "https://api.github.com/users/armon",
    "html_url": "https://github.com/armon",
    "followers_url": "https://api.github.com/users/armon/followers",
    "following_url": "https://api.github.com/users/armon/following{/other_user}",
    "gists_url": "https://api.github.com/users/armon/gists{/gist_id}",
    "starred_url": "https://api.github.com/users/armon/starred{/owner}{/repo}",
    "subscriptions_url": "https://api.github.com/users/armon/subscriptions",
    "organizations_url": "https://api.github.com/users/armon/orgs",
    "repos_url": "https://api.github.com/users/armon/repos",
    "events_url": "https://api.github.com/users/armon/events{/privacy}",
    "received_events_url": "https://api.github.com/users/armon/received_events",
    "type": "User",
    "site_admin": false
  },
  "created_at": "2014-09-03T17:03:27Z",
  "updated_at": "2014-09-03T17:03:27Z",
  "body": "Thanks!"
}
]
