[
{
  "url": "https://api.github.com/repos/Microsoft/cordova-docs/issues/comments/164840196",
  "html_url": "https://github.com/Microsoft/cordova-docs/pull/295#issuecomment-164840196",
  "issue_url": "https://api.github.com/repos/Microsoft/cordova-docs/issues/295",
  "id": 164840196,
  "user": {
    "login": "kirupa",
    "id": 4214780,
    "avatar_url": "https://avatars.githubusercontent.com/u/4214780?v=3",
    "gravatar_id": "",
    "url": "https://api.github.com/users/kirupa",
    "html_url": "https://github.com/kirupa",
    "followers_url": "https://api.github.com/users/kirupa/followers",
    "following_url": "https://api.github.com/users/kirupa/following{/other_user}",
    "gists_url": "https://api.github.com/users/kirupa/gists{/gist_id}",
    "starred_url": "https://api.github.com/users/kirupa/starred{/owner}{/repo}",
    "subscriptions_url": "https://api.github.com/users/kirupa/subscriptions",
    "organizations_url": "https://api.github.com/users/kirupa/orgs",
    "repos_url": "https://api.github.com/users/kirupa/repos",
    "events_url": "https://api.github.com/users/kirupa/events{/privacy}",
    "received_events_url": "https://api.github.com/users/kirupa/received_events",
    "type": "User",
    "site_admin": false
  },
  "created_at": "2015-12-15T17:51:46Z",
  "updated_at": "2015-12-15T17:51:46Z",
  "body": "There was an error while validating job 02172cb2-ddca-40b5-9a62-858c611088e1 <br/><hr/><b>Message:</b><pre>\r\n\r\nResult status: Failed\r\n\r\nThere was a problem accessing Github repository 'https://github.com/Microsoft/cordova-docs.git'.\r\n\r\n</pre><b>Details:</b><pre>Microsoft.LightweightJobEngine.Core.Language.ContextCommandBase+ContextCommandException: \r\n\r\nResult status: Failed\r\n\r\nThere was a problem accessing Github repository 'https://github.com/Microsoft/cordova-docs.git'.\r\n\r\n ---> System.AggregateException: One or more errors occurred. ---> System.ArgumentException: Error clonning repository ---> LibGit2Sharp.NotFoundException: Branch 295 not found. Available branches: origin/master\r\n   at Microsoft.DPS.Services.LibGit2SharpSourceControlProvider.GetBranch(Repository repo, String name)\r\n   at Microsoft.DPS.Services.LibGit2SharpSourceControlProvider.<>c__DisplayClass30.<>c__DisplayClass34.<CloneRepository>b__29(KeyValuePair`2 branch)\r\n   at System.Collections.Generic.List`1.ForEach(Action`1 action)\r\n   at Microsoft.DPS.Services.LibGit2SharpSourceControlProvider.<>c__DisplayClass30.<CloneRepository>b__28()\r\n   at Microsoft.Practices.EnterpriseLibrary.TransientFaultHandling.RetryPolicy.<>c__DisplayClass1.<ExecuteAction>b__0()\r\n   at Microsoft.Practices.EnterpriseLibrary.TransientFaultHandling.RetryPolicy.ExecuteAction[TResult](Func`1 func)\r\n   at Microsoft.Practices.EnterpriseLibrary.TransientFaultHandling.RetryPolicy.ExecuteAction(Action action)\r\n   at Microsoft.DPS.Services.LibGit2SharpSourceControlProvider.CloneRepository(String url, IDictionary`2 branches)\r\n   --- End of inner exception stack trace ---\r\n   at Microsoft.DPS.Services.LibGit2SharpSourceControlProvider.CloneRepository(String url, IDictionary`2 branches)\r\n   at Microsoft.DPS.Services.LibGit2SharpSourceControlProvider.CloneRepository()\r\n   at Microsoft.DPS.Services.LibGit2SharpSourceControlProvider.GetVersionAsync(String path)\r\n   at Microsoft.DPS.Commands.IdentifyDocumentsToPublish.CheckExternalServicesCommand.Do(IDictionary`2 context)\r\n   --- End of inner exception stack trace ---\r\n   --- End of inner exception stack trace ---\r\n   at Microsoft.LightweightJobEngine.Core.Language.ContextCommandBase.ThrowIfErrorsLogged()\r\n   at Microsoft.DPS.Commands.IdentifyDocumentsToPublish.CheckExternalServicesCommand.Do(IDictionary`2 context)\r\n   at Microsoft.LightweightJobEngine.Core.Language.JobWorkflow`1.RunCommands(Guid jobId, IDictionary`2 context, CancellationTokenSource cancelSignal)</pre>"
}
]
