[
{
  "url": "https://api.github.com/repos/Microsoft/cordova-docs/issues/comments/140561867",
  "html_url": "https://github.com/Microsoft/cordova-docs/pull/73#issuecomment-140561867",
  "issue_url": "https://api.github.com/repos/Microsoft/cordova-docs/issues/73",
  "id": 140561867,
  "user": {
    "login": "normesta",
    "id": 11687123,
    "avatar_url": "https://avatars.githubusercontent.com/u/11687123?v=3",
    "gravatar_id": "",
    "url": "https://api.github.com/users/normesta",
    "html_url": "https://github.com/normesta",
    "followers_url": "https://api.github.com/users/normesta/followers",
    "following_url": "https://api.github.com/users/normesta/following{/other_user}",
    "gists_url": "https://api.github.com/users/normesta/gists{/gist_id}",
    "starred_url": "https://api.github.com/users/normesta/starred{/owner}{/repo}",
    "subscriptions_url": "https://api.github.com/users/normesta/subscriptions",
    "organizations_url": "https://api.github.com/users/normesta/orgs",
    "repos_url": "https://api.github.com/users/normesta/repos",
    "events_url": "https://api.github.com/users/normesta/events{/privacy}",
    "received_events_url": "https://api.github.com/users/normesta/received_events",
    "type": "User",
    "site_admin": false
  },
  "created_at": "2015-09-15T22:16:39Z",
  "updated_at": "2015-09-15T22:16:39Z",
  "body": "Mike is this a new topic that has to be added to the TOC?\r\n\r\nFrom: Mike Jones [mailto:notifications@github.com]\r\nSent: Tuesday, September 15, 2015 3:09 PM\r\nTo: Microsoft/cordova-docs <cordova-docs@noreply.github.com>\r\nSubject: Re: [cordova-docs] adding migration doc (#73)\r\n\r\n\r\nMerged #73<https://na01.safelinks.protection.outlook.com/?url=https%3a%2f%2fgithub.com%2fMicrosoft%2fcordova-docs%2fpull%2f73&data=01%7c01%7cnormesta%40exchange.microsoft.com%7c0413dbdc758e4259f2a908d2be1a54c6%7c72f988bf86f141af91ab2d7cd011db47%7c1&sdata=0igJQeHEDL5fyxqZQ6G7UCLoQhWzSPAzOHl0n6kA04E%3d>.\r\n\r\n—\r\nReply to this email directly or view it on GitHub<https://na01.safelinks.protection.outlook.com/?url=https%3a%2f%2fgithub.com%2fMicrosoft%2fcordova-docs%2fpull%2f73%23event-410346981&data=01%7c01%7cnormesta%40exchange.microsoft.com%7c0413dbdc758e4259f2a908d2be1a54c6%7c72f988bf86f141af91ab2d7cd011db47%7c1&sdata=ubNThXAw9BugMascUSkCH2iVmwptckbq5hL6Gws%2bawk%3d>.\r\n"
}
, {
  "url": "https://api.github.com/repos/Microsoft/cordova-docs/issues/comments/140562346",
  "html_url": "https://github.com/Microsoft/cordova-docs/pull/73#issuecomment-140562346",
  "issue_url": "https://api.github.com/repos/Microsoft/cordova-docs/issues/73",
  "id": 140562346,
  "user": {
    "login": "Mikejo5000",
    "id": 11948536,
    "avatar_url": "https://avatars.githubusercontent.com/u/11948536?v=3",
    "gravatar_id": "",
    "url": "https://api.github.com/users/Mikejo5000",
    "html_url": "https://github.com/Mikejo5000",
    "followers_url": "https://api.github.com/users/Mikejo5000/followers",
    "following_url": "https://api.github.com/users/Mikejo5000/following{/other_user}",
    "gists_url": "https://api.github.com/users/Mikejo5000/gists{/gist_id}",
    "starred_url": "https://api.github.com/users/Mikejo5000/starred{/owner}{/repo}",
    "subscriptions_url": "https://api.github.com/users/Mikejo5000/subscriptions",
    "organizations_url": "https://api.github.com/users/Mikejo5000/orgs",
    "repos_url": "https://api.github.com/users/Mikejo5000/repos",
    "events_url": "https://api.github.com/users/Mikejo5000/events{/privacy}",
    "received_events_url": "https://api.github.com/users/Mikejo5000/received_events",
    "type": "User",
    "site_admin": false
  },
  "created_at": "2015-09-15T22:19:50Z",
  "updated_at": "2015-09-15T22:19:50Z",
  "body": "Yes, it does. I was going to check whether you’re still working on the TOC. If you are, maybe you can add it?\r\n\r\nRyan wants people to find this info more easily, so I think it should go at the end of Getting Started section for a period of time.\r\n\r\nMike\r\n\r\nFrom: Norm Estabrook [mailto:notifications@github.com]\r\nSent: Tuesday, September 15, 2015 3:17 PM\r\nTo: Microsoft/cordova-docs <cordova-docs@noreply.github.com>\r\nCc: Mike Jones (DEVUE) <mikejo@microsoft.com>\r\nSubject: Re: [cordova-docs] adding migration doc (#73)\r\n\r\nMike is this a new topic that has to be added to the TOC?\r\n\r\nFrom: Mike Jones [mailto:notifications@github.com]\r\nSent: Tuesday, September 15, 2015 3:09 PM\r\nTo: Microsoft/cordova-docs <cordova-docs@noreply.github.com<mailto:cordova-docs@noreply.github.com>>\r\nSubject: Re: [cordova-docs] adding migration doc (#73)\r\n\r\n\r\nMerged #73<https://na01.safelinks.protection.outlook.com/?url=https%3a%2f%2fgithub.com%2fMicrosoft%2fcordova-docs%2fpull%2f73&data=01%7c01%7cnormesta%40exchange.microsoft.com%7c0413dbdc758e4259f2a908d2be1a54c6%7c72f988bf86f141af91ab2d7cd011db47%7c1&sdata=0igJQeHEDL5fyxqZQ6G7UCLoQhWzSPAzOHl0n6kA04E%3d>.\r\n\r\n—\r\nReply to this email directly or view it on GitHub<https://na01.safelinks.protection.outlook.com/?url=https%3a%2f%2fgithub.com%2fMicrosoft%2fcordova-docs%2fpull%2f73%23event-410346981&data=01%7c01%7cnormesta%40exchange.microsoft.com%7c0413dbdc758e4259f2a908d2be1a54c6%7c72f988bf86f141af91ab2d7cd011db47%7c1&sdata=ubNThXAw9BugMascUSkCH2iVmwptckbq5hL6Gws%2bawk%3d>.\r\n\r\n\r\n—\r\nReply to this email directly or view it on GitHub<https://na01.safelinks.protection.outlook.com/?url=https%3a%2f%2fgithub.com%2fMicrosoft%2fcordova-docs%2fpull%2f73%23issuecomment-140561867&data=01%7c01%7cmikejo%40microsoft.com%7ccd9b7c00ec8545924d5408d2be1b552a%7c72f988bf86f141af91ab2d7cd011db47%7c1&sdata=ZPYdezIafn0K41Eic5EbmMYDYNltSdvdXSQYSmRcYoQ%3d>.\r\n"
}
, {
  "url": "https://api.github.com/repos/Microsoft/cordova-docs/issues/comments/140562886",
  "html_url": "https://github.com/Microsoft/cordova-docs/pull/73#issuecomment-140562886",
  "issue_url": "https://api.github.com/repos/Microsoft/cordova-docs/issues/73",
  "id": 140562886,
  "user": {
    "login": "normesta",
    "id": 11687123,
    "avatar_url": "https://avatars.githubusercontent.com/u/11687123?v=3",
    "gravatar_id": "",
    "url": "https://api.github.com/users/normesta",
    "html_url": "https://github.com/normesta",
    "followers_url": "https://api.github.com/users/normesta/followers",
    "following_url": "https://api.github.com/users/normesta/following{/other_user}",
    "gists_url": "https://api.github.com/users/normesta/gists{/gist_id}",
    "starred_url": "https://api.github.com/users/normesta/starred{/owner}{/repo}",
    "subscriptions_url": "https://api.github.com/users/normesta/subscriptions",
    "organizations_url": "https://api.github.com/users/normesta/orgs",
    "repos_url": "https://api.github.com/users/normesta/repos",
    "events_url": "https://api.github.com/users/normesta/events{/privacy}",
    "received_events_url": "https://api.github.com/users/normesta/received_events",
    "type": "User",
    "site_admin": false
  },
  "created_at": "2015-09-15T22:23:04Z",
  "updated_at": "2015-09-15T22:23:04Z",
  "body": "No problem.  Where’s the path on github? I don’t see it in the “getting-started section.\r\n\r\nFrom: Mike Jones [mailto:notifications@github.com]\r\nSent: Tuesday, September 15, 2015 3:20 PM\r\nTo: Microsoft/cordova-docs <cordova-docs@noreply.github.com>\r\nCc: Norm Estabrook <normesta@microsoft.com>\r\nSubject: Re: [cordova-docs] adding migration doc (#73)\r\n\r\nYes, it does. I was going to check whether you’re still working on the TOC. If you are, maybe you can add it?\r\n\r\nRyan wants people to find this info more easily, so I think it should go at the end of Getting Started section for a period of time.\r\n\r\nMike\r\n\r\nFrom: Norm Estabrook [mailto:notifications@github.com]\r\nSent: Tuesday, September 15, 2015 3:17 PM\r\nTo: Microsoft/cordova-docs <cordova-docs@noreply.github.com<mailto:cordova-docs@noreply.github.com>>\r\nCc: Mike Jones (DEVUE) <mikejo@microsoft.com<mailto:mikejo@microsoft.com>>\r\nSubject: Re: [cordova-docs] adding migration doc (#73)\r\n\r\nMike is this a new topic that has to be added to the TOC?\r\n\r\nFrom: Mike Jones [mailto:notifications@github.com]\r\nSent: Tuesday, September 15, 2015 3:09 PM\r\nTo: Microsoft/cordova-docs <cordova-docs@noreply.github.com<mailto:cordova-docs@noreply.github.com<mailto:cordova-docs@noreply.github.com%3cmailto:cordova-docs@noreply.github.com>>>\r\nSubject: Re: [cordova-docs] adding migration doc (#73)\r\n\r\n\r\nMerged #73<https://na01.safelinks.protection.outlook.com/?url=https%3a%2f%2fgithub.com%2fMicrosoft%2fcordova-docs%2fpull%2f73&data=01%7c01%7cnormesta%40exchange.microsoft.com%7c0413dbdc758e4259f2a908d2be1a54c6%7c72f988bf86f141af91ab2d7cd011db47%7c1&sdata=0igJQeHEDL5fyxqZQ6G7UCLoQhWzSPAzOHl0n6kA04E%3d>.\r\n\r\n—\r\nReply to this email directly or view it on GitHub<https://na01.safelinks.protection.outlook.com/?url=https%3a%2f%2fgithub.com%2fMicrosoft%2fcordova-docs%2fpull%2f73%23event-410346981&data=01%7c01%7cnormesta%40exchange.microsoft.com%7c0413dbdc758e4259f2a908d2be1a54c6%7c72f988bf86f141af91ab2d7cd011db47%7c1&sdata=ubNThXAw9BugMascUSkCH2iVmwptckbq5hL6Gws%2bawk%3d>.\r\n\r\n\r\n—\r\nReply to this email directly or view it on GitHub<https://na01.safelinks.protection.outlook.com/?url=https%3a%2f%2fgithub.com%2fMicrosoft%2fcordova-docs%2fpull%2f73%23issuecomment-140561867&data=01%7c01%7cmikejo%40microsoft.com%7ccd9b7c00ec8545924d5408d2be1b552a%7c72f988bf86f141af91ab2d7cd011db47%7c1&sdata=ZPYdezIafn0K41Eic5EbmMYDYNltSdvdXSQYSmRcYoQ%3d>.\r\n\r\n\r\n—\r\nReply to this email directly or view it on GitHub<https://na01.safelinks.protection.outlook.com/?url=https%3a%2f%2fgithub.com%2fMicrosoft%2fcordova-docs%2fpull%2f73%23issuecomment-140562346&data=01%7c01%7cnormesta%40exchange.microsoft.com%7cd3c4980bd9a44ebfd68908d2be1bc78e%7c72f988bf86f141af91ab2d7cd011db47%7c1&sdata=C%2fYlWkx2bjZeJZi%2bUEfjcDW39TzMH1OpigI8hbJr24k%3d>.\r\n"
}
]
