[
{
  "url": "https://api.github.com/repos/google/google-gdata/issues/comments/138106935",
  "html_url": "https://github.com/google/google-gdata/issues/475#issuecomment-138106935",
  "issue_url": "https://api.github.com/repos/google/google-gdata/issues/475",
  "id": 138106935,
  "user": {
    "login": "GoogleCodeExporter",
    "id": 9614759,
    "avatar_url": "https://avatars.githubusercontent.com/u/9614759?v=3",
    "gravatar_id": "",
    "url": "https://api.github.com/users/GoogleCodeExporter",
    "html_url": "https://github.com/GoogleCodeExporter",
    "followers_url": "https://api.github.com/users/GoogleCodeExporter/followers",
    "following_url": "https://api.github.com/users/GoogleCodeExporter/following{/other_user}",
    "gists_url": "https://api.github.com/users/GoogleCodeExporter/gists{/gist_id}",
    "starred_url": "https://api.github.com/users/GoogleCodeExporter/starred{/owner}{/repo}",
    "subscriptions_url": "https://api.github.com/users/GoogleCodeExporter/subscriptions",
    "organizations_url": "https://api.github.com/users/GoogleCodeExporter/orgs",
    "repos_url": "https://api.github.com/users/GoogleCodeExporter/repos",
    "events_url": "https://api.github.com/users/GoogleCodeExporter/events{/privacy}",
    "received_events_url": "https://api.github.com/users/GoogleCodeExporter/received_events",
    "type": "User",
    "site_admin": false
  },
  "created_at": "2015-09-06T18:22:30Z",
  "updated_at": "2015-09-06T18:22:30Z",
  "body": "```\nI tried adding a Reminder with the posted code to both single and recurring \nevents and it worked without exception.\n\nMarking this issue as Invalid.\n```\n\nOriginal comment by `ccherub...@google.com` on 7 Feb 2011 at 1:26\n* Changed state: **Invalid**"
}
, {
  "url": "https://api.github.com/repos/google/google-gdata/issues/comments/138106936",
  "html_url": "https://github.com/google/google-gdata/issues/475#issuecomment-138106936",
  "issue_url": "https://api.github.com/repos/google/google-gdata/issues/475",
  "id": 138106936,
  "user": {
    "login": "GoogleCodeExporter",
    "id": 9614759,
    "avatar_url": "https://avatars.githubusercontent.com/u/9614759?v=3",
    "gravatar_id": "",
    "url": "https://api.github.com/users/GoogleCodeExporter",
    "html_url": "https://github.com/GoogleCodeExporter",
    "followers_url": "https://api.github.com/users/GoogleCodeExporter/followers",
    "following_url": "https://api.github.com/users/GoogleCodeExporter/following{/other_user}",
    "gists_url": "https://api.github.com/users/GoogleCodeExporter/gists{/gist_id}",
    "starred_url": "https://api.github.com/users/GoogleCodeExporter/starred{/owner}{/repo}",
    "subscriptions_url": "https://api.github.com/users/GoogleCodeExporter/subscriptions",
    "organizations_url": "https://api.github.com/users/GoogleCodeExporter/orgs",
    "repos_url": "https://api.github.com/users/GoogleCodeExporter/repos",
    "events_url": "https://api.github.com/users/GoogleCodeExporter/events{/privacy}",
    "received_events_url": "https://api.github.com/users/GoogleCodeExporter/received_events",
    "type": "User",
    "site_admin": false
  },
  "created_at": "2015-09-06T18:22:30Z",
  "updated_at": "2015-09-06T18:22:30Z",
  "body": "```\nI had same error with same code.\nIs not invalid.\n```\n\nOriginal comment by `RafaelEs...@gmail.com` on 19 May 2011 at 12:45"
}
, {
  "url": "https://api.github.com/repos/google/google-gdata/issues/comments/138106937",
  "html_url": "https://github.com/google/google-gdata/issues/475#issuecomment-138106937",
  "issue_url": "https://api.github.com/repos/google/google-gdata/issues/475",
  "id": 138106937,
  "user": {
    "login": "GoogleCodeExporter",
    "id": 9614759,
    "avatar_url": "https://avatars.githubusercontent.com/u/9614759?v=3",
    "gravatar_id": "",
    "url": "https://api.github.com/users/GoogleCodeExporter",
    "html_url": "https://github.com/GoogleCodeExporter",
    "followers_url": "https://api.github.com/users/GoogleCodeExporter/followers",
    "following_url": "https://api.github.com/users/GoogleCodeExporter/following{/other_user}",
    "gists_url": "https://api.github.com/users/GoogleCodeExporter/gists{/gist_id}",
    "starred_url": "https://api.github.com/users/GoogleCodeExporter/starred{/owner}{/repo}",
    "subscriptions_url": "https://api.github.com/users/GoogleCodeExporter/subscriptions",
    "organizations_url": "https://api.github.com/users/GoogleCodeExporter/orgs",
    "repos_url": "https://api.github.com/users/GoogleCodeExporter/repos",
    "events_url": "https://api.github.com/users/GoogleCodeExporter/events{/privacy}",
    "received_events_url": "https://api.github.com/users/GoogleCodeExporter/received_events",
    "type": "User",
    "site_admin": false
  },
  "created_at": "2015-09-06T18:22:30Z",
  "updated_at": "2015-09-06T18:22:30Z",
  "body": "```\nAre you using the latest version of the client library?\n```\n\nOriginal comment by `ccherub...@google.com` on 19 May 2011 at 12:51"
}
, {
  "url": "https://api.github.com/repos/google/google-gdata/issues/comments/138106938",
  "html_url": "https://github.com/google/google-gdata/issues/475#issuecomment-138106938",
  "issue_url": "https://api.github.com/repos/google/google-gdata/issues/475",
  "id": 138106938,
  "user": {
    "login": "GoogleCodeExporter",
    "id": 9614759,
    "avatar_url": "https://avatars.githubusercontent.com/u/9614759?v=3",
    "gravatar_id": "",
    "url": "https://api.github.com/users/GoogleCodeExporter",
    "html_url": "https://github.com/GoogleCodeExporter",
    "followers_url": "https://api.github.com/users/GoogleCodeExporter/followers",
    "following_url": "https://api.github.com/users/GoogleCodeExporter/following{/other_user}",
    "gists_url": "https://api.github.com/users/GoogleCodeExporter/gists{/gist_id}",
    "starred_url": "https://api.github.com/users/GoogleCodeExporter/starred{/owner}{/repo}",
    "subscriptions_url": "https://api.github.com/users/GoogleCodeExporter/subscriptions",
    "organizations_url": "https://api.github.com/users/GoogleCodeExporter/orgs",
    "repos_url": "https://api.github.com/users/GoogleCodeExporter/repos",
    "events_url": "https://api.github.com/users/GoogleCodeExporter/events{/privacy}",
    "received_events_url": "https://api.github.com/users/GoogleCodeExporter/received_events",
    "type": "User",
    "site_admin": false
  },
  "created_at": "2015-09-06T18:22:30Z",
  "updated_at": "2015-09-06T18:22:30Z",
  "body": "```\nI have the same error with same code too.\nI use the latest version (1.8) of the Google.GData.Calendar.dll.\n```\n\nOriginal comment by `aranyjan...@gmail.com` on 23 Jul 2011 at 2:48"
}
, {
  "url": "https://api.github.com/repos/google/google-gdata/issues/comments/138106939",
  "html_url": "https://github.com/google/google-gdata/issues/475#issuecomment-138106939",
  "issue_url": "https://api.github.com/repos/google/google-gdata/issues/475",
  "id": 138106939,
  "user": {
    "login": "GoogleCodeExporter",
    "id": 9614759,
    "avatar_url": "https://avatars.githubusercontent.com/u/9614759?v=3",
    "gravatar_id": "",
    "url": "https://api.github.com/users/GoogleCodeExporter",
    "html_url": "https://github.com/GoogleCodeExporter",
    "followers_url": "https://api.github.com/users/GoogleCodeExporter/followers",
    "following_url": "https://api.github.com/users/GoogleCodeExporter/following{/other_user}",
    "gists_url": "https://api.github.com/users/GoogleCodeExporter/gists{/gist_id}",
    "starred_url": "https://api.github.com/users/GoogleCodeExporter/starred{/owner}{/repo}",
    "subscriptions_url": "https://api.github.com/users/GoogleCodeExporter/subscriptions",
    "organizations_url": "https://api.github.com/users/GoogleCodeExporter/orgs",
    "repos_url": "https://api.github.com/users/GoogleCodeExporter/repos",
    "events_url": "https://api.github.com/users/GoogleCodeExporter/events{/privacy}",
    "received_events_url": "https://api.github.com/users/GoogleCodeExporter/received_events",
    "type": "User",
    "site_admin": false
  },
  "created_at": "2015-09-06T18:22:30Z",
  "updated_at": "2015-09-06T18:22:30Z",
  "body": "```\nMaybe the When must be before? If i change the order (it should be then first \nWhen, and after then Reminder), then it is all right. Or it can be the line \n\"entry.Notifications = true;\" too; Now is that line also before the adding the \nreminders to entry.\n\n```\n\nOriginal comment by `aranyjan...@gmail.com` on 23 Jul 2011 at 3:31"
}
, {
  "url": "https://api.github.com/repos/google/google-gdata/issues/comments/138106940",
  "html_url": "https://github.com/google/google-gdata/issues/475#issuecomment-138106940",
  "issue_url": "https://api.github.com/repos/google/google-gdata/issues/475",
  "id": 138106940,
  "user": {
    "login": "GoogleCodeExporter",
    "id": 9614759,
    "avatar_url": "https://avatars.githubusercontent.com/u/9614759?v=3",
    "gravatar_id": "",
    "url": "https://api.github.com/users/GoogleCodeExporter",
    "html_url": "https://github.com/GoogleCodeExporter",
    "followers_url": "https://api.github.com/users/GoogleCodeExporter/followers",
    "following_url": "https://api.github.com/users/GoogleCodeExporter/following{/other_user}",
    "gists_url": "https://api.github.com/users/GoogleCodeExporter/gists{/gist_id}",
    "starred_url": "https://api.github.com/users/GoogleCodeExporter/starred{/owner}{/repo}",
    "subscriptions_url": "https://api.github.com/users/GoogleCodeExporter/subscriptions",
    "organizations_url": "https://api.github.com/users/GoogleCodeExporter/orgs",
    "repos_url": "https://api.github.com/users/GoogleCodeExporter/repos",
    "events_url": "https://api.github.com/users/GoogleCodeExporter/events{/privacy}",
    "received_events_url": "https://api.github.com/users/GoogleCodeExporter/received_events",
    "type": "User",
    "site_admin": false
  },
  "created_at": "2015-09-06T18:22:30Z",
  "updated_at": "2015-09-06T18:22:30Z",
  "body": "```\nPlease capture the HTTP traffic with Fiddler and share it here (in plain text \nformat).\n\n```\n\nOriginal comment by `ccherub...@google.com` on 23 Jul 2011 at 3:59"
}
, {
  "url": "https://api.github.com/repos/google/google-gdata/issues/comments/138106941",
  "html_url": "https://github.com/google/google-gdata/issues/475#issuecomment-138106941",
  "issue_url": "https://api.github.com/repos/google/google-gdata/issues/475",
  "id": 138106941,
  "user": {
    "login": "GoogleCodeExporter",
    "id": 9614759,
    "avatar_url": "https://avatars.githubusercontent.com/u/9614759?v=3",
    "gravatar_id": "",
    "url": "https://api.github.com/users/GoogleCodeExporter",
    "html_url": "https://github.com/GoogleCodeExporter",
    "followers_url": "https://api.github.com/users/GoogleCodeExporter/followers",
    "following_url": "https://api.github.com/users/GoogleCodeExporter/following{/other_user}",
    "gists_url": "https://api.github.com/users/GoogleCodeExporter/gists{/gist_id}",
    "starred_url": "https://api.github.com/users/GoogleCodeExporter/starred{/owner}{/repo}",
    "subscriptions_url": "https://api.github.com/users/GoogleCodeExporter/subscriptions",
    "organizations_url": "https://api.github.com/users/GoogleCodeExporter/orgs",
    "repos_url": "https://api.github.com/users/GoogleCodeExporter/repos",
    "events_url": "https://api.github.com/users/GoogleCodeExporter/events{/privacy}",
    "received_events_url": "https://api.github.com/users/GoogleCodeExporter/received_events",
    "type": "User",
    "site_admin": false
  },
  "created_at": "2015-09-06T18:22:30Z",
  "updated_at": "2015-09-06T18:22:30Z",
  "body": "```\nSorry, i'm late actually, but as i wrote, it's all right by me now. I think, it \nwas the order, but i can't tell wich line was it exactly. Now my order:\n0. Setting the reminders.\n1. Setting up \"When\".\n2. Adding \"When\" to event.\n2. Switch notification on.\n3. Adding reminders to event.\nNow works like a charm.\n```\n\nOriginal comment by `aranyjan...@gmail.com` on 23 Jul 2011 at 4:30"
}
]
