[
{
  "url": "https://api.github.com/repos/etsy/hound/issues/comments/73248087",
  "html_url": "https://github.com/etsy/hound/pull/63#issuecomment-73248087",
  "issue_url": "https://api.github.com/repos/etsy/hound/issues/63",
  "id": 73248087,
  "user": {
    "login": "jklein",
    "id": 629982,
    "avatar_url": "https://avatars.githubusercontent.com/u/629982?v=3",
    "gravatar_id": "",
    "url": "https://api.github.com/users/jklein",
    "html_url": "https://github.com/jklein",
    "followers_url": "https://api.github.com/users/jklein/followers",
    "following_url": "https://api.github.com/users/jklein/following{/other_user}",
    "gists_url": "https://api.github.com/users/jklein/gists{/gist_id}",
    "starred_url": "https://api.github.com/users/jklein/starred{/owner}{/repo}",
    "subscriptions_url": "https://api.github.com/users/jklein/subscriptions",
    "organizations_url": "https://api.github.com/users/jklein/orgs",
    "repos_url": "https://api.github.com/users/jklein/repos",
    "events_url": "https://api.github.com/users/jklein/events{/privacy}",
    "received_events_url": "https://api.github.com/users/jklein/received_events",
    "type": "User",
    "site_admin": false
  },
  "created_at": "2015-02-06T14:54:56Z",
  "updated_at": "2015-02-06T14:54:56Z",
  "body": "I don't really like the name option, since that's kind of the purpose of the key in the config. I'd prefer if we just had the JS use that by default instead of the last portion of the URL. For example, you can have something like:\r\n\r\n```\r\n{\r\n    \"dbpath\" : \"data\",\r\n    \"repos\" : {\r\n        \"ThisIsjQuery\" : {\r\n            \"url\" : \"https://www.github.com/jQuery/jQuery.git\"\r\n        }\r\n    }\r\n}\r\n```\r\nRight now Hound will show \"jQuery\" in the UI next to search results, but it should probably show \"ThisIsjQuery\". This way you can customize the name of the repo there and we don't need another element in the config to do so. \r\n\r\nCan you make this change as part of this PR?"
}
, {
  "url": "https://api.github.com/repos/etsy/hound/issues/comments/73266218",
  "html_url": "https://github.com/etsy/hound/pull/63#issuecomment-73266218",
  "issue_url": "https://api.github.com/repos/etsy/hound/issues/63",
  "id": 73266218,
  "user": {
    "login": "massix",
    "id": 585424,
    "avatar_url": "https://avatars.githubusercontent.com/u/585424?v=3",
    "gravatar_id": "",
    "url": "https://api.github.com/users/massix",
    "html_url": "https://github.com/massix",
    "followers_url": "https://api.github.com/users/massix/followers",
    "following_url": "https://api.github.com/users/massix/following{/other_user}",
    "gists_url": "https://api.github.com/users/massix/gists{/gist_id}",
    "starred_url": "https://api.github.com/users/massix/starred{/owner}{/repo}",
    "subscriptions_url": "https://api.github.com/users/massix/subscriptions",
    "organizations_url": "https://api.github.com/users/massix/orgs",
    "repos_url": "https://api.github.com/users/massix/repos",
    "events_url": "https://api.github.com/users/massix/events{/privacy}",
    "received_events_url": "https://api.github.com/users/massix/received_events",
    "type": "User",
    "site_admin": false
  },
  "created_at": "2015-02-06T16:37:39Z",
  "updated_at": "2015-02-06T16:37:39Z",
  "body": "Of course, but I won't be able to do that until monday :smile: "
}
, {
  "url": "https://api.github.com/repos/etsy/hound/issues/comments/73667706",
  "html_url": "https://github.com/etsy/hound/pull/63#issuecomment-73667706",
  "issue_url": "https://api.github.com/repos/etsy/hound/issues/63",
  "id": 73667706,
  "user": {
    "login": "massix",
    "id": 585424,
    "avatar_url": "https://avatars.githubusercontent.com/u/585424?v=3",
    "gravatar_id": "",
    "url": "https://api.github.com/users/massix",
    "html_url": "https://github.com/massix",
    "followers_url": "https://api.github.com/users/massix/followers",
    "following_url": "https://api.github.com/users/massix/following{/other_user}",
    "gists_url": "https://api.github.com/users/massix/gists{/gist_id}",
    "starred_url": "https://api.github.com/users/massix/starred{/owner}{/repo}",
    "subscriptions_url": "https://api.github.com/users/massix/subscriptions",
    "organizations_url": "https://api.github.com/users/massix/orgs",
    "repos_url": "https://api.github.com/users/massix/repos",
    "events_url": "https://api.github.com/users/massix/events{/privacy}",
    "received_events_url": "https://api.github.com/users/massix/received_events",
    "type": "User",
    "site_admin": false
  },
  "created_at": "2015-02-10T09:19:41Z",
  "updated_at": "2015-02-10T09:19:41Z",
  "body": "Closing this PR in favor of a new one."
}
]
