[
{
  "url": "https://api.github.com/repos/twitter/twemproxy/issues/comments/69118479",
  "html_url": "https://github.com/twitter/twemproxy/issues/310#issuecomment-69118479",
  "issue_url": "https://api.github.com/repos/twitter/twemproxy/issues/310",
  "id": 69118479,
  "user": {
    "login": "charsyam",
    "id": 439301,
    "avatar_url": "https://avatars.githubusercontent.com/u/439301?v=3",
    "gravatar_id": "",
    "url": "https://api.github.com/users/charsyam",
    "html_url": "https://github.com/charsyam",
    "followers_url": "https://api.github.com/users/charsyam/followers",
    "following_url": "https://api.github.com/users/charsyam/following{/other_user}",
    "gists_url": "https://api.github.com/users/charsyam/gists{/gist_id}",
    "starred_url": "https://api.github.com/users/charsyam/starred{/owner}{/repo}",
    "subscriptions_url": "https://api.github.com/users/charsyam/subscriptions",
    "organizations_url": "https://api.github.com/users/charsyam/orgs",
    "repos_url": "https://api.github.com/users/charsyam/repos",
    "events_url": "https://api.github.com/users/charsyam/events{/privacy}",
    "received_events_url": "https://api.github.com/users/charsyam/received_events",
    "type": "User",
    "site_admin": false
  },
  "created_at": "2015-01-08T00:38:35Z",
  "updated_at": "2015-01-08T00:38:35Z",
  "body": "@sjang did you send auth command from your client?\r\nit needs"
}
, {
  "url": "https://api.github.com/repos/twitter/twemproxy/issues/comments/69119841",
  "html_url": "https://github.com/twitter/twemproxy/issues/310#issuecomment-69119841",
  "issue_url": "https://api.github.com/repos/twitter/twemproxy/issues/310",
  "id": 69119841,
  "user": {
    "login": "charsyam",
    "id": 439301,
    "avatar_url": "https://avatars.githubusercontent.com/u/439301?v=3",
    "gravatar_id": "",
    "url": "https://api.github.com/users/charsyam",
    "html_url": "https://github.com/charsyam",
    "followers_url": "https://api.github.com/users/charsyam/followers",
    "following_url": "https://api.github.com/users/charsyam/following{/other_user}",
    "gists_url": "https://api.github.com/users/charsyam/gists{/gist_id}",
    "starred_url": "https://api.github.com/users/charsyam/starred{/owner}{/repo}",
    "subscriptions_url": "https://api.github.com/users/charsyam/subscriptions",
    "organizations_url": "https://api.github.com/users/charsyam/orgs",
    "repos_url": "https://api.github.com/users/charsyam/repos",
    "events_url": "https://api.github.com/users/charsyam/events{/privacy}",
    "received_events_url": "https://api.github.com/users/charsyam/received_events",
    "type": "User",
    "site_admin": false
  },
  "created_at": "2015-01-08T00:55:05Z",
  "updated_at": "2015-01-08T00:55:05Z",
  "body": "@sjang could you retry it to remove quote in your yml\r\nex)\r\nredis_auth: abcd\r\n\r\nand also redis-cli -a abcd\r\nwithout quote and double quote"
}
, {
  "url": "https://api.github.com/repos/twitter/twemproxy/issues/comments/69120003",
  "html_url": "https://github.com/twitter/twemproxy/issues/310#issuecomment-69120003",
  "issue_url": "https://api.github.com/repos/twitter/twemproxy/issues/310",
  "id": 69120003,
  "user": {
    "login": "sjang",
    "id": 2674425,
    "avatar_url": "https://avatars.githubusercontent.com/u/2674425?v=3",
    "gravatar_id": "",
    "url": "https://api.github.com/users/sjang",
    "html_url": "https://github.com/sjang",
    "followers_url": "https://api.github.com/users/sjang/followers",
    "following_url": "https://api.github.com/users/sjang/following{/other_user}",
    "gists_url": "https://api.github.com/users/sjang/gists{/gist_id}",
    "starred_url": "https://api.github.com/users/sjang/starred{/owner}{/repo}",
    "subscriptions_url": "https://api.github.com/users/sjang/subscriptions",
    "organizations_url": "https://api.github.com/users/sjang/orgs",
    "repos_url": "https://api.github.com/users/sjang/repos",
    "events_url": "https://api.github.com/users/sjang/events{/privacy}",
    "received_events_url": "https://api.github.com/users/sjang/received_events",
    "type": "User",
    "site_admin": false
  },
  "created_at": "2015-01-08T00:56:49Z",
  "updated_at": "2015-01-08T00:56:49Z",
  "body": "@charsyam I tested twice with -a option and without -a option using redis-cli like below:\r\n\r\n```\r\n$ redis-cli -p 7373 SET key1 value1\r\n(error) NOAUTH Authentication required\r\n\r\nredis-cli -a 'tcd!@#1' -p 7373 SET key1 value1\r\n(error) NOAUTH Authentication required\r\n```\r\n\r\nThe result is same.\r\n\r\nI think that redis_auth is the authentication between twem and original redis.\r\nIs that wrong?\r\n\r\nFrom Readme.md:\r\n```\r\nredis_auth: Authenticate to the Redis server on connect.\r\n```\r\n\r\nand I understand that twemproxy is not supported for AUTH command from client.\r\n\r\nPlease, help~. It is not easy to say removing pass to clients.\r\n\r\nThanks a lot.\r\n"
}
, {
  "url": "https://api.github.com/repos/twitter/twemproxy/issues/comments/69134323",
  "html_url": "https://github.com/twitter/twemproxy/issues/310#issuecomment-69134323",
  "issue_url": "https://api.github.com/repos/twitter/twemproxy/issues/310",
  "id": 69134323,
  "user": {
    "login": "sjang",
    "id": 2674425,
    "avatar_url": "https://avatars.githubusercontent.com/u/2674425?v=3",
    "gravatar_id": "",
    "url": "https://api.github.com/users/sjang",
    "html_url": "https://github.com/sjang",
    "followers_url": "https://api.github.com/users/sjang/followers",
    "following_url": "https://api.github.com/users/sjang/following{/other_user}",
    "gists_url": "https://api.github.com/users/sjang/gists{/gist_id}",
    "starred_url": "https://api.github.com/users/sjang/starred{/owner}{/repo}",
    "subscriptions_url": "https://api.github.com/users/sjang/subscriptions",
    "organizations_url": "https://api.github.com/users/sjang/orgs",
    "repos_url": "https://api.github.com/users/sjang/repos",
    "events_url": "https://api.github.com/users/sjang/events{/privacy}",
    "received_events_url": "https://api.github.com/users/sjang/received_events",
    "type": "User",
    "site_admin": false
  },
  "created_at": "2015-01-08T04:24:23Z",
  "updated_at": "2015-01-08T04:24:23Z",
  "body": "I misunderstood about AUTH support on twem.\r\nI thought that twem is not supporting in terms of redis AUTH command. But, it is wrong. It is necessary to use AUTH command in redis client side, too. \r\n@charsyam's redis_auth is perfect. \r\nThank you very much.\r\n"
}
, {
  "url": "https://api.github.com/repos/twitter/twemproxy/issues/comments/69135398",
  "html_url": "https://github.com/twitter/twemproxy/issues/310#issuecomment-69135398",
  "issue_url": "https://api.github.com/repos/twitter/twemproxy/issues/310",
  "id": 69135398,
  "user": {
    "login": "idning",
    "id": 1301031,
    "avatar_url": "https://avatars.githubusercontent.com/u/1301031?v=3",
    "gravatar_id": "",
    "url": "https://api.github.com/users/idning",
    "html_url": "https://github.com/idning",
    "followers_url": "https://api.github.com/users/idning/followers",
    "following_url": "https://api.github.com/users/idning/following{/other_user}",
    "gists_url": "https://api.github.com/users/idning/gists{/gist_id}",
    "starred_url": "https://api.github.com/users/idning/starred{/owner}{/repo}",
    "subscriptions_url": "https://api.github.com/users/idning/subscriptions",
    "organizations_url": "https://api.github.com/users/idning/orgs",
    "repos_url": "https://api.github.com/users/idning/repos",
    "events_url": "https://api.github.com/users/idning/events{/privacy}",
    "received_events_url": "https://api.github.com/users/idning/received_events",
    "type": "User",
    "site_admin": false
  },
  "created_at": "2015-01-08T04:45:22Z",
  "updated_at": "2015-01-08T04:45:22Z",
  "body": "cool:)"
}
]
