[
{
  "url": "https://api.github.com/repos/twitter/twemproxy/issues/comments/29273561",
  "html_url": "https://github.com/twitter/twemproxy/issues/171#issuecomment-29273561",
  "issue_url": "https://api.github.com/repos/twitter/twemproxy/issues/171",
  "id": 29273561,
  "user": {
    "login": "charsyam",
    "id": 439301,
    "avatar_url": "https://avatars.githubusercontent.com/u/439301?v=3",
    "gravatar_id": "",
    "url": "https://api.github.com/users/charsyam",
    "html_url": "https://github.com/charsyam",
    "followers_url": "https://api.github.com/users/charsyam/followers",
    "following_url": "https://api.github.com/users/charsyam/following{/other_user}",
    "gists_url": "https://api.github.com/users/charsyam/gists{/gist_id}",
    "starred_url": "https://api.github.com/users/charsyam/starred{/owner}{/repo}",
    "subscriptions_url": "https://api.github.com/users/charsyam/subscriptions",
    "organizations_url": "https://api.github.com/users/charsyam/orgs",
    "repos_url": "https://api.github.com/users/charsyam/repos",
    "events_url": "https://api.github.com/users/charsyam/events{/privacy}",
    "received_events_url": "https://api.github.com/users/charsyam/received_events",
    "type": "User",
    "site_admin": false
  },
  "created_at": "2013-11-26T08:01:20Z",
  "updated_at": "2013-11-26T08:01:20Z",
  "body": "@hieuhcmus It's impossible.\r\nand. why do you want to use twemproxy in that case?\r\n"
}
, {
  "url": "https://api.github.com/repos/twitter/twemproxy/issues/comments/29274387",
  "html_url": "https://github.com/twitter/twemproxy/issues/171#issuecomment-29274387",
  "issue_url": "https://api.github.com/repos/twitter/twemproxy/issues/171",
  "id": 29274387,
  "user": {
    "login": "hieuhcmus",
    "id": 4597794,
    "avatar_url": "https://avatars.githubusercontent.com/u/4597794?v=3",
    "gravatar_id": "",
    "url": "https://api.github.com/users/hieuhcmus",
    "html_url": "https://github.com/hieuhcmus",
    "followers_url": "https://api.github.com/users/hieuhcmus/followers",
    "following_url": "https://api.github.com/users/hieuhcmus/following{/other_user}",
    "gists_url": "https://api.github.com/users/hieuhcmus/gists{/gist_id}",
    "starred_url": "https://api.github.com/users/hieuhcmus/starred{/owner}{/repo}",
    "subscriptions_url": "https://api.github.com/users/hieuhcmus/subscriptions",
    "organizations_url": "https://api.github.com/users/hieuhcmus/orgs",
    "repos_url": "https://api.github.com/users/hieuhcmus/repos",
    "events_url": "https://api.github.com/users/hieuhcmus/events{/privacy}",
    "received_events_url": "https://api.github.com/users/hieuhcmus/received_events",
    "type": "User",
    "site_admin": false
  },
  "created_at": "2013-11-26T08:21:42Z",
  "updated_at": "2013-11-26T08:21:42Z",
  "body": "I am writing the server that serves millions of photos.\r\n\r\nI want to cache photos by using Redis server. \r\n\r\nRedis Cluster is not production ready, so I am looking for the library support Sharding.\r\n\r\nI am new to Twemproxy and I don't know whether it is suitable in my case.\r\n\r\nThere are large number of client request so I don't want the Twemproxy do much.\r\n\r\nCan you give me some advice?"
}
, {
  "url": "https://api.github.com/repos/twitter/twemproxy/issues/comments/29276406",
  "html_url": "https://github.com/twitter/twemproxy/issues/171#issuecomment-29276406",
  "issue_url": "https://api.github.com/repos/twitter/twemproxy/issues/171",
  "id": 29276406,
  "user": {
    "login": "manjuraj",
    "id": 349696,
    "avatar_url": "https://avatars.githubusercontent.com/u/349696?v=3",
    "gravatar_id": "",
    "url": "https://api.github.com/users/manjuraj",
    "html_url": "https://github.com/manjuraj",
    "followers_url": "https://api.github.com/users/manjuraj/followers",
    "following_url": "https://api.github.com/users/manjuraj/following{/other_user}",
    "gists_url": "https://api.github.com/users/manjuraj/gists{/gist_id}",
    "starred_url": "https://api.github.com/users/manjuraj/starred{/owner}{/repo}",
    "subscriptions_url": "https://api.github.com/users/manjuraj/subscriptions",
    "organizations_url": "https://api.github.com/users/manjuraj/orgs",
    "repos_url": "https://api.github.com/users/manjuraj/repos",
    "events_url": "https://api.github.com/users/manjuraj/events{/privacy}",
    "received_events_url": "https://api.github.com/users/manjuraj/received_events",
    "type": "User",
    "site_admin": false
  },
  "created_at": "2013-11-26T09:01:45Z",
  "updated_at": "2013-11-26T09:01:45Z",
  "body": "@hieuhcmus read the readme.md"
}
]
