[
{
  "url": "https://api.github.com/repos/dropbox/dropbox-sdk-python/issues/42",
  "labels_url": "https://api.github.com/repos/dropbox/dropbox-sdk-python/issues/42/labels{/name}",
  "comments_url": "https://api.github.com/repos/dropbox/dropbox-sdk-python/issues/42/comments",
  "events_url": "https://api.github.com/repos/dropbox/dropbox-sdk-python/issues/42/events",
  "html_url": "https://github.com/dropbox/dropbox-sdk-python/issues/42",
  "id": 127069351,
  "number": 42,
  "title": "Make sure HTTP 400 error message body is shown by default.",
  "user": {
    "login": "cakoose",
    "id": 239989,
    "avatar_url": "https://avatars.githubusercontent.com/u/239989?v=3",
    "gravatar_id": "",
    "url": "https://api.github.com/users/cakoose",
    "html_url": "https://github.com/cakoose",
    "followers_url": "https://api.github.com/users/cakoose/followers",
    "following_url": "https://api.github.com/users/cakoose/following{/other_user}",
    "gists_url": "https://api.github.com/users/cakoose/gists{/gist_id}",
    "starred_url": "https://api.github.com/users/cakoose/starred{/owner}{/repo}",
    "subscriptions_url": "https://api.github.com/users/cakoose/subscriptions",
    "organizations_url": "https://api.github.com/users/cakoose/orgs",
    "repos_url": "https://api.github.com/users/cakoose/repos",
    "events_url": "https://api.github.com/users/cakoose/events{/privacy}",
    "received_events_url": "https://api.github.com/users/cakoose/received_events",
    "type": "User",
    "site_admin": false
  },
  "labels": [],
  "state": "open",
  "locked": false,
  "assignee": null,
  "milestone": null,
  "comments": 3,
  "created_at": "2016-01-17T02:13:47Z",
  "updated_at": "2016-01-22T02:35:08Z",
  "closed_at": null,
  "body": "In #33, someone got an HTTP 400 exception and didn't know what to do.\r\n\r\nThe Dropbox server usually puts useful information in HTTP 400 error responses.  If that error message were surfaced by default (i.e. visible in the stack trace) the issue might have been easier to resolve."
}
, {
  "url": "https://api.github.com/repos/dropbox/dropbox-sdk-python/issues/38",
  "labels_url": "https://api.github.com/repos/dropbox/dropbox-sdk-python/issues/38/labels{/name}",
  "comments_url": "https://api.github.com/repos/dropbox/dropbox-sdk-python/issues/38/comments",
  "events_url": "https://api.github.com/repos/dropbox/dropbox-sdk-python/issues/38/events",
  "html_url": "https://github.com/dropbox/dropbox-sdk-python/issues/38",
  "id": 123484901,
  "number": 38,
  "title": "Wrong content-type returned by files_list_folder_longpoll, \"text/plain\" instead of \"application/json\"",
  "user": {
    "login": "rrerolle",
    "id": 558186,
    "avatar_url": "https://avatars.githubusercontent.com/u/558186?v=3",
    "gravatar_id": "",
    "url": "https://api.github.com/users/rrerolle",
    "html_url": "https://github.com/rrerolle",
    "followers_url": "https://api.github.com/users/rrerolle/followers",
    "following_url": "https://api.github.com/users/rrerolle/following{/other_user}",
    "gists_url": "https://api.github.com/users/rrerolle/gists{/gist_id}",
    "starred_url": "https://api.github.com/users/rrerolle/starred{/owner}{/repo}",
    "subscriptions_url": "https://api.github.com/users/rrerolle/subscriptions",
    "organizations_url": "https://api.github.com/users/rrerolle/orgs",
    "repos_url": "https://api.github.com/users/rrerolle/repos",
    "events_url": "https://api.github.com/users/rrerolle/events{/privacy}",
    "received_events_url": "https://api.github.com/users/rrerolle/received_events",
    "type": "User",
    "site_admin": false
  },
  "labels": [],
  "state": "open",
  "locked": false,
  "assignee": null,
  "milestone": null,
  "comments": 2,
  "created_at": "2015-12-22T13:50:00Z",
  "updated_at": "2016-01-13T15:47:50Z",
  "closed_at": null,
  "body": "The following sample code:\r\n\r\n```python\r\n#!/usr/bin/python\r\nimport dropbox, os\r\ndbx = dropbox.Dropbox(os.environ['DROPBOX_TOKEN'])\r\nroot = dbx.files_list_folder('')\r\nprint dbx.files_list_folder_longpoll(root.cursor, timeout=30)\r\n```\r\nreturns:\r\n\r\n    Traceback (most recent call last):\r\n      File \"longpoll_test.py\", line 7, in <module>\r\n        print dbx.files_list_folder_longpoll(root.cursor, timeout=30)\r\n      File \"/home/rrerolle/Workspace/Code/rembox/venv/local/lib/python2.7/site-packages/dropbox/base.py\", line 89, in files_list_folder_longpoll\r\n        None)\r\n      File \"/home/rrerolle/Workspace/Code/rembox/venv/local/lib/python2.7/site-packages/dropbox/dropbox.py\", line 175, in request\r\n        request_binary)\r\n      File \"/home/rrerolle/Workspace/Code/rembox/venv/local/lib/python2.7/site-packages/dropbox/dropbox.py\", line 256, in request_json_string_with_retry\r\n        request_binary)\r\n      File \"/home/rrerolle/Workspace/Code/rembox/venv/local/lib/python2.7/site-packages/dropbox/dropbox.py\", line 337, in request_json_string\r\n        r.headers.get('content-type'))\r\n    AssertionError: Expected content-type to be application/json, got 'text/plain'\r\n\r\nIt appears the request succeeds, but returns a \"text/plain\" content-type, while the dropbox v2 client explicitly expects \"application/json\", as demonstrated in https://github.com/dropbox/dropbox-sdk-python/blob/002e6df32a6c9446554f6f53b2510d284adc9943/dropbox/dropbox.py#L335-L337\r\n\r\nThis is probably an overlook in the v2 API server itself so I'm not sure there is anything to do client wise. Still, for now, using it requires either catching the AssertionError, or running python with -O to disable the asserts."
}
, {
  "url": "https://api.github.com/repos/dropbox/dropbox-sdk-python/issues/37",
  "labels_url": "https://api.github.com/repos/dropbox/dropbox-sdk-python/issues/37/labels{/name}",
  "comments_url": "https://api.github.com/repos/dropbox/dropbox-sdk-python/issues/37/comments",
  "events_url": "https://api.github.com/repos/dropbox/dropbox-sdk-python/issues/37/events",
  "html_url": "https://github.com/dropbox/dropbox-sdk-python/issues/37",
  "id": 122428987,
  "number": 37,
  "title": "Expose way to keep track of a file's upload or download progress",
  "user": {
    "login": "skela",
    "id": 58268,
    "avatar_url": "https://avatars.githubusercontent.com/u/58268?v=3",
    "gravatar_id": "",
    "url": "https://api.github.com/users/skela",
    "html_url": "https://github.com/skela",
    "followers_url": "https://api.github.com/users/skela/followers",
    "following_url": "https://api.github.com/users/skela/following{/other_user}",
    "gists_url": "https://api.github.com/users/skela/gists{/gist_id}",
    "starred_url": "https://api.github.com/users/skela/starred{/owner}{/repo}",
    "subscriptions_url": "https://api.github.com/users/skela/subscriptions",
    "organizations_url": "https://api.github.com/users/skela/orgs",
    "repos_url": "https://api.github.com/users/skela/repos",
    "events_url": "https://api.github.com/users/skela/events{/privacy}",
    "received_events_url": "https://api.github.com/users/skela/received_events",
    "type": "User",
    "site_admin": false
  },
  "labels": [],
  "state": "open",
  "locked": false,
  "assignee": null,
  "milestone": null,
  "comments": 8,
  "created_at": "2015-12-16T04:53:49Z",
  "updated_at": "2015-12-23T07:41:31Z",
  "closed_at": null,
  "body": "Having an optional delegate method argument in the files_upload / files_download methods so that we can update progress UI and whatnot when uploading and downloading files would be really useful.\r\n"
}
, {
  "url": "https://api.github.com/repos/dropbox/dropbox-sdk-python/issues/36",
  "labels_url": "https://api.github.com/repos/dropbox/dropbox-sdk-python/issues/36/labels{/name}",
  "comments_url": "https://api.github.com/repos/dropbox/dropbox-sdk-python/issues/36/comments",
  "events_url": "https://api.github.com/repos/dropbox/dropbox-sdk-python/issues/36/events",
  "html_url": "https://github.com/dropbox/dropbox-sdk-python/issues/36",
  "id": 120825164,
  "number": 36,
  "title": "Feature Request: checksum attribute",
  "user": {
    "login": "kg-2",
    "id": 15877005,
    "avatar_url": "https://avatars.githubusercontent.com/u/15877005?v=3",
    "gravatar_id": "",
    "url": "https://api.github.com/users/kg-2",
    "html_url": "https://github.com/kg-2",
    "followers_url": "https://api.github.com/users/kg-2/followers",
    "following_url": "https://api.github.com/users/kg-2/following{/other_user}",
    "gists_url": "https://api.github.com/users/kg-2/gists{/gist_id}",
    "starred_url": "https://api.github.com/users/kg-2/starred{/owner}{/repo}",
    "subscriptions_url": "https://api.github.com/users/kg-2/subscriptions",
    "organizations_url": "https://api.github.com/users/kg-2/orgs",
    "repos_url": "https://api.github.com/users/kg-2/repos",
    "events_url": "https://api.github.com/users/kg-2/events{/privacy}",
    "received_events_url": "https://api.github.com/users/kg-2/received_events",
    "type": "User",
    "site_admin": false
  },
  "labels": [
    {
      "url": "https://api.github.com/repos/dropbox/dropbox-sdk-python/labels/enhancement",
      "name": "enhancement",
      "color": "84b6eb"
    }
  ],
  "state": "open",
  "locked": false,
  "assignee": null,
  "milestone": null,
  "comments": 2,
  "created_at": "2015-12-07T17:22:54Z",
  "updated_at": "2015-12-12T03:53:35Z",
  "closed_at": null,
  "body": "Maybe I missed it somewhere in the docs, but is it possible to access the checksum values of the stored files on the server? I've found the rev attribute but that is only useful after I've downloaded and hashed the file at least once. Is there a way to compare the values of remote files to local files without first downloading them? Thanks for the awesome product and your continued work."
}
, {
  "url": "https://api.github.com/repos/dropbox/dropbox-sdk-python/issues/35",
  "labels_url": "https://api.github.com/repos/dropbox/dropbox-sdk-python/issues/35/labels{/name}",
  "comments_url": "https://api.github.com/repos/dropbox/dropbox-sdk-python/issues/35/comments",
  "events_url": "https://api.github.com/repos/dropbox/dropbox-sdk-python/issues/35/events",
  "html_url": "https://github.com/dropbox/dropbox-sdk-python/issues/35",
  "id": 119903040,
  "number": 35,
  "title": "APIError Exceptions / Errors makes no sense",
  "user": {
    "login": "skela",
    "id": 58268,
    "avatar_url": "https://avatars.githubusercontent.com/u/58268?v=3",
    "gravatar_id": "",
    "url": "https://api.github.com/users/skela",
    "html_url": "https://github.com/skela",
    "followers_url": "https://api.github.com/users/skela/followers",
    "following_url": "https://api.github.com/users/skela/following{/other_user}",
    "gists_url": "https://api.github.com/users/skela/gists{/gist_id}",
    "starred_url": "https://api.github.com/users/skela/starred{/owner}{/repo}",
    "subscriptions_url": "https://api.github.com/users/skela/subscriptions",
    "organizations_url": "https://api.github.com/users/skela/orgs",
    "repos_url": "https://api.github.com/users/skela/repos",
    "events_url": "https://api.github.com/users/skela/events{/privacy}",
    "received_events_url": "https://api.github.com/users/skela/received_events",
    "type": "User",
    "site_admin": false
  },
  "labels": [],
  "state": "open",
  "locked": false,
  "assignee": null,
  "milestone": null,
  "comments": 9,
  "created_at": "2015-12-02T09:39:27Z",
  "updated_at": "2015-12-30T07:35:44Z",
  "closed_at": null,
  "body": "Sorry to raise this issue, but I've given them a good try, and still can't make sense of them.\r\nI've checked out your examples, and I've read your documentation:\r\nhttp://dropbox-sdk-python.readthedocs.org/en/master/moduledoc.html#dropbox.files.ListFolderError\r\n\r\nI think you need a lot more examples of usual errors that might crop up whilst using your API.\r\n\r\nSince I'm here anyway, can anyone point me in the right direction on how to handle the following scenario:\r\nI want to check if a folder exists, and if it is not found, I want to create that folder.\r\n\r\nOther than that, its pretty good stuff! "
}
, {
  "url": "https://api.github.com/repos/dropbox/dropbox-sdk-python/issues/15",
  "labels_url": "https://api.github.com/repos/dropbox/dropbox-sdk-python/issues/15/labels{/name}",
  "comments_url": "https://api.github.com/repos/dropbox/dropbox-sdk-python/issues/15/comments",
  "events_url": "https://api.github.com/repos/dropbox/dropbox-sdk-python/issues/15/events",
  "html_url": "https://github.com/dropbox/dropbox-sdk-python/issues/15",
  "id": 105599798,
  "number": 15,
  "title": "Make the API a little more pythonic, more friendly",
  "user": {
    "login": "ewjoachim",
    "id": 1457576,
    "avatar_url": "https://avatars.githubusercontent.com/u/1457576?v=3",
    "gravatar_id": "",
    "url": "https://api.github.com/users/ewjoachim",
    "html_url": "https://github.com/ewjoachim",
    "followers_url": "https://api.github.com/users/ewjoachim/followers",
    "following_url": "https://api.github.com/users/ewjoachim/following{/other_user}",
    "gists_url": "https://api.github.com/users/ewjoachim/gists{/gist_id}",
    "starred_url": "https://api.github.com/users/ewjoachim/starred{/owner}{/repo}",
    "subscriptions_url": "https://api.github.com/users/ewjoachim/subscriptions",
    "organizations_url": "https://api.github.com/users/ewjoachim/orgs",
    "repos_url": "https://api.github.com/users/ewjoachim/repos",
    "events_url": "https://api.github.com/users/ewjoachim/events{/privacy}",
    "received_events_url": "https://api.github.com/users/ewjoachim/received_events",
    "type": "User",
    "site_admin": false
  },
  "labels": [],
  "state": "open",
  "locked": false,
  "assignee": null,
  "milestone": null,
  "comments": 3,
  "created_at": "2015-09-09T13:46:26Z",
  "updated_at": "2015-11-11T08:47:05Z",
  "closed_at": null,
  "body": "Hello, \r\n\r\nI was invited by [Steeve Marx](https://twitter.com/smarx/status/641384219349024769) to create issues for my remarks on the API, so here it is.\r\n\r\nThis is not a \"bug\" per se, but a sum of different remarkes that make me not completely convinced by the SDK's API as of today.  It's nothing more than my own personnal 2 cents and I don't claim to represent anyone's opinion except my own.\r\n\r\nFor now, there are still things that are really unnatural when working with the dropbox API with python. The profusion of \"everything being made into a class inheriting object\" and in the same time, the fact it's not-using lots of classical python constructs really feels as if the whole API was ported from another language...\r\n\r\nAll the things I've seen so far:\r\n\r\n - The ``APIError`` that has a ``reason`` property which is an ``*Error`` class that inherits object : why wouldn't the error class BE the exception itself ? it forces the user to make a complicated construct of:\r\n```python\r\nif isinstance(exc.reason, SomethingError):\r\n    # blabla\r\nelif isinstance(exc.reason, SomethingElseError):\r\n   # blabla\r\n```\r\nWhere the simpler ``try/except`` would do it.\r\n\r\n - ``ListFolderResult`` inherits ``object`` and is not iterable. This feels strange. Plus, its entries are not easily sortable. if you want just the Files of just the Folders, you have, again, to filter everything using ``isinstance``. It's not encouraging readable code on our side. A suggestion : why not providing a \"walk\" method similar to os.walk (but with metadata elements instead of strings ?)\r\n\r\n - The fact that, in metadata, you only have the choice between \"path_lower\" and \"name\" makes it **really** a pain to get a properly cased path (e.g. to show the user. We don't want to show them a lowercase path). The fact that there's no easy way to get the \"parent\" MetaData or the ``children`` metadata for a folder makes it all the more complicated. What would be really useful is that when I do a ``files_list_folder(recursive=True)``, the SDK would organize the result so that if I find an interesting folder, I can get its (metadata) content. Another thing that would be great : if ``files_list_folder`` could provide a generator that would automatically call \"continue\" when everything has been yielded without having to do it by ourselves. \r\n\r\n - When looking at the code, it seems there are a lots of copy/pasted constructs (all the properties for instance, with the ``something_present`` attribute being set manually. Some are completely copy-pasted (id for FileMetaData and FolderMetaData). This makes reading the code not an easy task.\r\n\r\n - I didn't get into much details and I'm probably wrong but it feels like some constructs could be greatly simplified using ``**kwargs`` more often and inheritance/mixin between classes providing similar functionalities. Today, for example, ListSharedFolderResults and ListResults are not related.\r\n"
}
, {
  "url": "https://api.github.com/repos/dropbox/dropbox-sdk-python/issues/14",
  "labels_url": "https://api.github.com/repos/dropbox/dropbox-sdk-python/issues/14/labels{/name}",
  "comments_url": "https://api.github.com/repos/dropbox/dropbox-sdk-python/issues/14/comments",
  "events_url": "https://api.github.com/repos/dropbox/dropbox-sdk-python/issues/14/events",
  "html_url": "https://github.com/dropbox/dropbox-sdk-python/issues/14",
  "id": 105587734,
  "number": 14,
  "title": "Organize the documentation",
  "user": {
    "login": "ewjoachim",
    "id": 1457576,
    "avatar_url": "https://avatars.githubusercontent.com/u/1457576?v=3",
    "gravatar_id": "",
    "url": "https://api.github.com/users/ewjoachim",
    "html_url": "https://github.com/ewjoachim",
    "followers_url": "https://api.github.com/users/ewjoachim/followers",
    "following_url": "https://api.github.com/users/ewjoachim/following{/other_user}",
    "gists_url": "https://api.github.com/users/ewjoachim/gists{/gist_id}",
    "starred_url": "https://api.github.com/users/ewjoachim/starred{/owner}{/repo}",
    "subscriptions_url": "https://api.github.com/users/ewjoachim/subscriptions",
    "organizations_url": "https://api.github.com/users/ewjoachim/orgs",
    "repos_url": "https://api.github.com/users/ewjoachim/repos",
    "events_url": "https://api.github.com/users/ewjoachim/events{/privacy}",
    "received_events_url": "https://api.github.com/users/ewjoachim/received_events",
    "type": "User",
    "site_admin": false
  },
  "labels": [],
  "state": "open",
  "locked": false,
  "assignee": null,
  "milestone": null,
  "comments": 5,
  "created_at": "2015-09-09T12:39:00Z",
  "updated_at": "2015-11-12T02:23:31Z",
  "closed_at": null,
  "body": "Hello, \r\n\r\nI was invited by [Steeve Marx](https://twitter.com/smarx/status/641384219349024769) to create issues for my remarks on the API, so here it is.\r\n\r\nFor now, your documentation is really hard to grasp. I can really see that it's just the output of Sphinx' Autodoc, but it could help if there was an **introduction**, some **documented examples** on most of the methods on the Dropbox object etc. It took me some time to figure out that all I ever have to instantiate was a Dropbox object. Lots and lots of classes listed here are for \"internal\" use only (for example, the *Args)."
}
, {
  "url": "https://api.github.com/repos/dropbox/dropbox-sdk-python/issues/12",
  "labels_url": "https://api.github.com/repos/dropbox/dropbox-sdk-python/issues/12/labels{/name}",
  "comments_url": "https://api.github.com/repos/dropbox/dropbox-sdk-python/issues/12/comments",
  "events_url": "https://api.github.com/repos/dropbox/dropbox-sdk-python/issues/12/events",
  "html_url": "https://github.com/dropbox/dropbox-sdk-python/issues/12",
  "id": 105047650,
  "number": 12,
  "title": "Inconsistency between the docs and the example",
  "user": {
    "login": "ewjoachim",
    "id": 1457576,
    "avatar_url": "https://avatars.githubusercontent.com/u/1457576?v=3",
    "gravatar_id": "",
    "url": "https://api.github.com/users/ewjoachim",
    "html_url": "https://github.com/ewjoachim",
    "followers_url": "https://api.github.com/users/ewjoachim/followers",
    "following_url": "https://api.github.com/users/ewjoachim/following{/other_user}",
    "gists_url": "https://api.github.com/users/ewjoachim/gists{/gist_id}",
    "starred_url": "https://api.github.com/users/ewjoachim/starred{/owner}{/repo}",
    "subscriptions_url": "https://api.github.com/users/ewjoachim/subscriptions",
    "organizations_url": "https://api.github.com/users/ewjoachim/orgs",
    "repos_url": "https://api.github.com/users/ewjoachim/repos",
    "events_url": "https://api.github.com/users/ewjoachim/events{/privacy}",
    "received_events_url": "https://api.github.com/users/ewjoachim/received_events",
    "type": "User",
    "site_admin": false
  },
  "labels": [],
  "state": "open",
  "locked": false,
  "assignee": null,
  "milestone": null,
  "comments": 2,
  "created_at": "2015-09-05T20:33:31Z",
  "updated_at": "2015-09-09T02:39:42Z",
  "closed_at": null,
  "body": "The docs says for the class ``MetaData`` :\r\n\r\n```\r\nclient_modified – For files, this is the modification time set by the desktop\r\nclient when the file was added to Dropbox. Since this time is not verified\r\n(the Dropbox server stores whatever the desktop client sends up), this\r\nshould only be used for display purposes (such as sorting) and not, for\r\nexample, to determine if a file has changed or not.\r\n```\r\n\r\nAnd [updown.py](https://github.com/dropbox/dropbox-sdk-python/blob/master/example/updown.py#L93) does : \r\n```python\r\nif (isinstance(md, dropbox.files.FileMetadata) and\r\n    mtime_dt == md.client_modified and size == md.size):\r\n    print(name, 'is already synced [stats match]')\r\n```\r\n\r\nSo should we do like the example does or what the doc says ?"
}
, {
  "url": "https://api.github.com/repos/dropbox/dropbox-sdk-python/issues/5",
  "labels_url": "https://api.github.com/repos/dropbox/dropbox-sdk-python/issues/5/labels{/name}",
  "comments_url": "https://api.github.com/repos/dropbox/dropbox-sdk-python/issues/5/comments",
  "events_url": "https://api.github.com/repos/dropbox/dropbox-sdk-python/issues/5/events",
  "html_url": "https://github.com/dropbox/dropbox-sdk-python/issues/5",
  "id": 102508057,
  "number": 5,
  "title": "Feature request: batch upload/download files",
  "user": {
    "login": "anishathalye",
    "id": 3526486,
    "avatar_url": "https://avatars.githubusercontent.com/u/3526486?v=3",
    "gravatar_id": "",
    "url": "https://api.github.com/users/anishathalye",
    "html_url": "https://github.com/anishathalye",
    "followers_url": "https://api.github.com/users/anishathalye/followers",
    "following_url": "https://api.github.com/users/anishathalye/following{/other_user}",
    "gists_url": "https://api.github.com/users/anishathalye/gists{/gist_id}",
    "starred_url": "https://api.github.com/users/anishathalye/starred{/owner}{/repo}",
    "subscriptions_url": "https://api.github.com/users/anishathalye/subscriptions",
    "organizations_url": "https://api.github.com/users/anishathalye/orgs",
    "repos_url": "https://api.github.com/users/anishathalye/repos",
    "events_url": "https://api.github.com/users/anishathalye/events{/privacy}",
    "received_events_url": "https://api.github.com/users/anishathalye/received_events",
    "type": "User",
    "site_admin": false
  },
  "labels": [
    {
      "url": "https://api.github.com/repos/dropbox/dropbox-sdk-python/labels/enhancement",
      "name": "enhancement",
      "color": "84b6eb"
    }
  ],
  "state": "open",
  "locked": false,
  "assignee": null,
  "milestone": null,
  "comments": 0,
  "created_at": "2015-08-22T06:12:50Z",
  "updated_at": "2015-08-31T07:55:55Z",
  "closed_at": null,
  "body": "It would be awesome if there were a way to upload and download files in batches - having a method that wouldn't involve connection setup + teardown per file upload/download.\r\n\r\nThis would be super helpful for projects like [git-remote-dropbox](https://git.io/dropbox) that transfer lots of small objects. (currently, the bottleneck is with having lots of connections and round trips to the Dropbox servers)"
}
]
