[
{
  "login": "jimi-c",
  "id": 26403,
  "avatar_url": "https://avatars.githubusercontent.com/u/26403?v=3",
  "gravatar_id": "",
  "url": "https://api.github.com/users/jimi-c",
  "html_url": "https://github.com/jimi-c",
  "followers_url": "https://api.github.com/users/jimi-c/followers",
  "following_url": "https://api.github.com/users/jimi-c/following{/other_user}",
  "gists_url": "https://api.github.com/users/jimi-c/gists{/gist_id}",
  "starred_url": "https://api.github.com/users/jimi-c/starred{/owner}{/repo}",
  "subscriptions_url": "https://api.github.com/users/jimi-c/subscriptions",
  "organizations_url": "https://api.github.com/users/jimi-c/orgs",
  "repos_url": "https://api.github.com/users/jimi-c/repos",
  "events_url": "https://api.github.com/users/jimi-c/events{/privacy}",
  "received_events_url": "https://api.github.com/users/jimi-c/received_events",
  "type": "User",
  "site_admin": false,
  "contributions": 400
}
, {
  "login": "jlaska",
  "id": 1051173,
  "avatar_url": "https://avatars.githubusercontent.com/u/1051173?v=3",
  "gravatar_id": "",
  "url": "https://api.github.com/users/jlaska",
  "html_url": "https://github.com/jlaska",
  "followers_url": "https://api.github.com/users/jlaska/followers",
  "following_url": "https://api.github.com/users/jlaska/following{/other_user}",
  "gists_url": "https://api.github.com/users/jlaska/gists{/gist_id}",
  "starred_url": "https://api.github.com/users/jlaska/starred{/owner}{/repo}",
  "subscriptions_url": "https://api.github.com/users/jlaska/subscriptions",
  "organizations_url": "https://api.github.com/users/jlaska/orgs",
  "repos_url": "https://api.github.com/users/jlaska/repos",
  "events_url": "https://api.github.com/users/jlaska/events{/privacy}",
  "received_events_url": "https://api.github.com/users/jlaska/received_events",
  "type": "User",
  "site_admin": false,
  "contributions": 126
}
, {
  "login": "dgoodwin",
  "id": 51265,
  "avatar_url": "https://avatars.githubusercontent.com/u/51265?v=3",
  "gravatar_id": "",
  "url": "https://api.github.com/users/dgoodwin",
  "html_url": "https://github.com/dgoodwin",
  "followers_url": "https://api.github.com/users/dgoodwin/followers",
  "following_url": "https://api.github.com/users/dgoodwin/following{/other_user}",
  "gists_url": "https://api.github.com/users/dgoodwin/gists{/gist_id}",
  "starred_url": "https://api.github.com/users/dgoodwin/starred{/owner}{/repo}",
  "subscriptions_url": "https://api.github.com/users/dgoodwin/subscriptions",
  "organizations_url": "https://api.github.com/users/dgoodwin/orgs",
  "repos_url": "https://api.github.com/users/dgoodwin/repos",
  "events_url": "https://api.github.com/users/dgoodwin/events{/privacy}",
  "received_events_url": "https://api.github.com/users/dgoodwin/received_events",
  "type": "User",
  "site_admin": false,
  "contributions": 107
}
, {
  "login": "gregswift",
  "id": 372939,
  "avatar_url": "https://avatars.githubusercontent.com/u/372939?v=3",
  "gravatar_id": "",
  "url": "https://api.github.com/users/gregswift",
  "html_url": "https://github.com/gregswift",
  "followers_url": "https://api.github.com/users/gregswift/followers",
  "following_url": "https://api.github.com/users/gregswift/following{/other_user}",
  "gists_url": "https://api.github.com/users/gregswift/gists{/gist_id}",
  "starred_url": "https://api.github.com/users/gregswift/starred{/owner}{/repo}",
  "subscriptions_url": "https://api.github.com/users/gregswift/subscriptions",
  "organizations_url": "https://api.github.com/users/gregswift/orgs",
  "repos_url": "https://api.github.com/users/gregswift/repos",
  "events_url": "https://api.github.com/users/gregswift/events{/privacy}",
  "received_events_url": "https://api.github.com/users/gregswift/received_events",
  "type": "User",
  "site_admin": false,
  "contributions": 103
}
, {
  "login": "jmaas",
  "id": 790690,
  "avatar_url": "https://avatars.githubusercontent.com/u/790690?v=3",
  "gravatar_id": "",
  "url": "https://api.github.com/users/jmaas",
  "html_url": "https://github.com/jmaas",
  "followers_url": "https://api.github.com/users/jmaas/followers",
  "following_url": "https://api.github.com/users/jmaas/following{/other_user}",
  "gists_url": "https://api.github.com/users/jmaas/gists{/gist_id}",
  "starred_url": "https://api.github.com/users/jmaas/starred{/owner}{/repo}",
  "subscriptions_url": "https://api.github.com/users/jmaas/subscriptions",
  "organizations_url": "https://api.github.com/users/jmaas/orgs",
  "repos_url": "https://api.github.com/users/jmaas/repos",
  "events_url": "https://api.github.com/users/jmaas/events{/privacy}",
  "received_events_url": "https://api.github.com/users/jmaas/received_events",
  "type": "User",
  "site_admin": false,
  "contributions": 81
}
, {
  "login": "mpdehaan",
  "id": 17700,
  "avatar_url": "https://avatars.githubusercontent.com/u/17700?v=3",
  "gravatar_id": "",
  "url": "https://api.github.com/users/mpdehaan",
  "html_url": "https://github.com/mpdehaan",
  "followers_url": "https://api.github.com/users/mpdehaan/followers",
  "following_url": "https://api.github.com/users/mpdehaan/following{/other_user}",
  "gists_url": "https://api.github.com/users/mpdehaan/gists{/gist_id}",
  "starred_url": "https://api.github.com/users/mpdehaan/starred{/owner}{/repo}",
  "subscriptions_url": "https://api.github.com/users/mpdehaan/subscriptions",
  "organizations_url": "https://api.github.com/users/mpdehaan/orgs",
  "repos_url": "https://api.github.com/users/mpdehaan/repos",
  "events_url": "https://api.github.com/users/mpdehaan/events{/privacy}",
  "received_events_url": "https://api.github.com/users/mpdehaan/received_events",
  "type": "User",
  "site_admin": false,
  "contributions": 44
}
, {
  "login": "pvreman",
  "id": 119185,
  "avatar_url": "https://avatars.githubusercontent.com/u/119185?v=3",
  "gravatar_id": "",
  "url": "https://api.github.com/users/pvreman",
  "html_url": "https://github.com/pvreman",
  "followers_url": "https://api.github.com/users/pvreman/followers",
  "following_url": "https://api.github.com/users/pvreman/following{/other_user}",
  "gists_url": "https://api.github.com/users/pvreman/gists{/gist_id}",
  "starred_url": "https://api.github.com/users/pvreman/starred{/owner}{/repo}",
  "subscriptions_url": "https://api.github.com/users/pvreman/subscriptions",
  "organizations_url": "https://api.github.com/users/pvreman/orgs",
  "repos_url": "https://api.github.com/users/pvreman/repos",
  "events_url": "https://api.github.com/users/pvreman/events{/privacy}",
  "received_events_url": "https://api.github.com/users/pvreman/received_events",
  "type": "User",
  "site_admin": false,
  "contributions": 41
}
, {
  "login": "jeckersb",
  "id": 15802,
  "avatar_url": "https://avatars.githubusercontent.com/u/15802?v=3",
  "gravatar_id": "",
  "url": "https://api.github.com/users/jeckersb",
  "html_url": "https://github.com/jeckersb",
  "followers_url": "https://api.github.com/users/jeckersb/followers",
  "following_url": "https://api.github.com/users/jeckersb/following{/other_user}",
  "gists_url": "https://api.github.com/users/jeckersb/gists{/gist_id}",
  "starred_url": "https://api.github.com/users/jeckersb/starred{/owner}{/repo}",
  "subscriptions_url": "https://api.github.com/users/jeckersb/subscriptions",
  "organizations_url": "https://api.github.com/users/jeckersb/orgs",
  "repos_url": "https://api.github.com/users/jeckersb/repos",
  "events_url": "https://api.github.com/users/jeckersb/events{/privacy}",
  "received_events_url": "https://api.github.com/users/jeckersb/received_events",
  "type": "User",
  "site_admin": false,
  "contributions": 39
}
, {
  "login": "p3ck",
  "id": 2686136,
  "avatar_url": "https://avatars.githubusercontent.com/u/2686136?v=3",
  "gravatar_id": "",
  "url": "https://api.github.com/users/p3ck",
  "html_url": "https://github.com/p3ck",
  "followers_url": "https://api.github.com/users/p3ck/followers",
  "following_url": "https://api.github.com/users/p3ck/following{/other_user}",
  "gists_url": "https://api.github.com/users/p3ck/gists{/gist_id}",
  "starred_url": "https://api.github.com/users/p3ck/starred{/owner}{/repo}",
  "subscriptions_url": "https://api.github.com/users/p3ck/subscriptions",
  "organizations_url": "https://api.github.com/users/p3ck/orgs",
  "repos_url": "https://api.github.com/users/p3ck/repos",
  "events_url": "https://api.github.com/users/p3ck/events{/privacy}",
  "received_events_url": "https://api.github.com/users/p3ck/received_events",
  "type": "User",
  "site_admin": false,
  "contributions": 37
}
, {
  "login": "ciupicri",
  "id": 133797,
  "avatar_url": "https://avatars.githubusercontent.com/u/133797?v=3",
  "gravatar_id": "",
  "url": "https://api.github.com/users/ciupicri",
  "html_url": "https://github.com/ciupicri",
  "followers_url": "https://api.github.com/users/ciupicri/followers",
  "following_url": "https://api.github.com/users/ciupicri/following{/other_user}",
  "gists_url": "https://api.github.com/users/ciupicri/gists{/gist_id}",
  "starred_url": "https://api.github.com/users/ciupicri/starred{/owner}{/repo}",
  "subscriptions_url": "https://api.github.com/users/ciupicri/subscriptions",
  "organizations_url": "https://api.github.com/users/ciupicri/orgs",
  "repos_url": "https://api.github.com/users/ciupicri/repos",
  "events_url": "https://api.github.com/users/ciupicri/events{/privacy}",
  "received_events_url": "https://api.github.com/users/ciupicri/received_events",
  "type": "User",
  "site_admin": false,
  "contributions": 20
}
, {
  "login": "jbartus",
  "id": 561971,
  "avatar_url": "https://avatars.githubusercontent.com/u/561971?v=3",
  "gravatar_id": "",
  "url": "https://api.github.com/users/jbartus",
  "html_url": "https://github.com/jbartus",
  "followers_url": "https://api.github.com/users/jbartus/followers",
  "following_url": "https://api.github.com/users/jbartus/following{/other_user}",
  "gists_url": "https://api.github.com/users/jbartus/gists{/gist_id}",
  "starred_url": "https://api.github.com/users/jbartus/starred{/owner}{/repo}",
  "subscriptions_url": "https://api.github.com/users/jbartus/subscriptions",
  "organizations_url": "https://api.github.com/users/jbartus/orgs",
  "repos_url": "https://api.github.com/users/jbartus/repos",
  "events_url": "https://api.github.com/users/jbartus/events{/privacy}",
  "received_events_url": "https://api.github.com/users/jbartus/received_events",
  "type": "User",
  "site_admin": false,
  "contributions": 20
}
, {
  "login": "imeyer",
  "id": 78000,
  "avatar_url": "https://avatars.githubusercontent.com/u/78000?v=3",
  "gravatar_id": "",
  "url": "https://api.github.com/users/imeyer",
  "html_url": "https://github.com/imeyer",
  "followers_url": "https://api.github.com/users/imeyer/followers",
  "following_url": "https://api.github.com/users/imeyer/following{/other_user}",
  "gists_url": "https://api.github.com/users/imeyer/gists{/gist_id}",
  "starred_url": "https://api.github.com/users/imeyer/starred{/owner}{/repo}",
  "subscriptions_url": "https://api.github.com/users/imeyer/subscriptions",
  "organizations_url": "https://api.github.com/users/imeyer/orgs",
  "repos_url": "https://api.github.com/users/imeyer/repos",
  "events_url": "https://api.github.com/users/imeyer/events{/privacy}",
  "received_events_url": "https://api.github.com/users/imeyer/received_events",
  "type": "User",
  "site_admin": false,
  "contributions": 20
}
, {
  "login": "javiplx",
  "id": 32879,
  "avatar_url": "https://avatars.githubusercontent.com/u/32879?v=3",
  "gravatar_id": "",
  "url": "https://api.github.com/users/javiplx",
  "html_url": "https://github.com/javiplx",
  "followers_url": "https://api.github.com/users/javiplx/followers",
  "following_url": "https://api.github.com/users/javiplx/following{/other_user}",
  "gists_url": "https://api.github.com/users/javiplx/gists{/gist_id}",
  "starred_url": "https://api.github.com/users/javiplx/starred{/owner}{/repo}",
  "subscriptions_url": "https://api.github.com/users/javiplx/subscriptions",
  "organizations_url": "https://api.github.com/users/javiplx/orgs",
  "repos_url": "https://api.github.com/users/javiplx/repos",
  "events_url": "https://api.github.com/users/javiplx/events{/privacy}",
  "received_events_url": "https://api.github.com/users/javiplx/received_events",
  "type": "User",
  "site_admin": false,
  "contributions": 19
}
, {
  "login": "lflaks",
  "id": 106122,
  "avatar_url": "https://avatars.githubusercontent.com/u/106122?v=3",
  "gravatar_id": "",
  "url": "https://api.github.com/users/lflaks",
  "html_url": "https://github.com/lflaks",
  "followers_url": "https://api.github.com/users/lflaks/followers",
  "following_url": "https://api.github.com/users/lflaks/following{/other_user}",
  "gists_url": "https://api.github.com/users/lflaks/gists{/gist_id}",
  "starred_url": "https://api.github.com/users/lflaks/starred{/owner}{/repo}",
  "subscriptions_url": "https://api.github.com/users/lflaks/subscriptions",
  "organizations_url": "https://api.github.com/users/lflaks/orgs",
  "repos_url": "https://api.github.com/users/lflaks/repos",
  "events_url": "https://api.github.com/users/lflaks/events{/privacy}",
  "received_events_url": "https://api.github.com/users/lflaks/received_events",
  "type": "User",
  "site_admin": false,
  "contributions": 16
}
, {
  "login": "ugansert",
  "id": 657514,
  "avatar_url": "https://avatars.githubusercontent.com/u/657514?v=3",
  "gravatar_id": "",
  "url": "https://api.github.com/users/ugansert",
  "html_url": "https://github.com/ugansert",
  "followers_url": "https://api.github.com/users/ugansert/followers",
  "following_url": "https://api.github.com/users/ugansert/following{/other_user}",
  "gists_url": "https://api.github.com/users/ugansert/gists{/gist_id}",
  "starred_url": "https://api.github.com/users/ugansert/starred{/owner}{/repo}",
  "subscriptions_url": "https://api.github.com/users/ugansert/subscriptions",
  "organizations_url": "https://api.github.com/users/ugansert/orgs",
  "repos_url": "https://api.github.com/users/ugansert/repos",
  "events_url": "https://api.github.com/users/ugansert/events{/privacy}",
  "received_events_url": "https://api.github.com/users/ugansert/received_events",
  "type": "User",
  "site_admin": false,
  "contributions": 15
}
, {
  "login": "jonathanunderwood",
  "id": 992114,
  "avatar_url": "https://avatars.githubusercontent.com/u/992114?v=3",
  "gravatar_id": "",
  "url": "https://api.github.com/users/jonathanunderwood",
  "html_url": "https://github.com/jonathanunderwood",
  "followers_url": "https://api.github.com/users/jonathanunderwood/followers",
  "following_url": "https://api.github.com/users/jonathanunderwood/following{/other_user}",
  "gists_url": "https://api.github.com/users/jonathanunderwood/gists{/gist_id}",
  "starred_url": "https://api.github.com/users/jonathanunderwood/starred{/owner}{/repo}",
  "subscriptions_url": "https://api.github.com/users/jonathanunderwood/subscriptions",
  "organizations_url": "https://api.github.com/users/jonathanunderwood/orgs",
  "repos_url": "https://api.github.com/users/jonathanunderwood/repos",
  "events_url": "https://api.github.com/users/jonathanunderwood/events{/privacy}",
  "received_events_url": "https://api.github.com/users/jonathanunderwood/received_events",
  "type": "User",
  "site_admin": false,
  "contributions": 13
}
, {
  "login": "icomfort",
  "id": 202841,
  "avatar_url": "https://avatars.githubusercontent.com/u/202841?v=3",
  "gravatar_id": "",
  "url": "https://api.github.com/users/icomfort",
  "html_url": "https://github.com/icomfort",
  "followers_url": "https://api.github.com/users/icomfort/followers",
  "following_url": "https://api.github.com/users/icomfort/following{/other_user}",
  "gists_url": "https://api.github.com/users/icomfort/gists{/gist_id}",
  "starred_url": "https://api.github.com/users/icomfort/starred{/owner}{/repo}",
  "subscriptions_url": "https://api.github.com/users/icomfort/subscriptions",
  "organizations_url": "https://api.github.com/users/icomfort/orgs",
  "repos_url": "https://api.github.com/users/icomfort/repos",
  "events_url": "https://api.github.com/users/icomfort/events{/privacy}",
  "received_events_url": "https://api.github.com/users/icomfort/received_events",
  "type": "User",
  "site_admin": false,
  "contributions": 11
}
, {
  "login": "invalid-email-address",
  "id": 148100,
  "avatar_url": "https://avatars.githubusercontent.com/u/148100?v=3",
  "gravatar_id": "",
  "url": "https://api.github.com/users/invalid-email-address",
  "html_url": "https://github.com/invalid-email-address",
  "followers_url": "https://api.github.com/users/invalid-email-address/followers",
  "following_url": "https://api.github.com/users/invalid-email-address/following{/other_user}",
  "gists_url": "https://api.github.com/users/invalid-email-address/gists{/gist_id}",
  "starred_url": "https://api.github.com/users/invalid-email-address/starred{/owner}{/repo}",
  "subscriptions_url": "https://api.github.com/users/invalid-email-address/subscriptions",
  "organizations_url": "https://api.github.com/users/invalid-email-address/orgs",
  "repos_url": "https://api.github.com/users/invalid-email-address/repos",
  "events_url": "https://api.github.com/users/invalid-email-address/events{/privacy}",
  "received_events_url": "https://api.github.com/users/invalid-email-address/received_events",
  "type": "User",
  "site_admin": false,
  "contributions": 11
}
, {
  "login": "opoplawski",
  "id": 814662,
  "avatar_url": "https://avatars.githubusercontent.com/u/814662?v=3",
  "gravatar_id": "",
  "url": "https://api.github.com/users/opoplawski",
  "html_url": "https://github.com/opoplawski",
  "followers_url": "https://api.github.com/users/opoplawski/followers",
  "following_url": "https://api.github.com/users/opoplawski/following{/other_user}",
  "gists_url": "https://api.github.com/users/opoplawski/gists{/gist_id}",
  "starred_url": "https://api.github.com/users/opoplawski/starred{/owner}{/repo}",
  "subscriptions_url": "https://api.github.com/users/opoplawski/subscriptions",
  "organizations_url": "https://api.github.com/users/opoplawski/orgs",
  "repos_url": "https://api.github.com/users/opoplawski/repos",
  "events_url": "https://api.github.com/users/opoplawski/events{/privacy}",
  "received_events_url": "https://api.github.com/users/opoplawski/received_events",
  "type": "User",
  "site_admin": false,
  "contributions": 11
}
, {
  "login": "neverho0d",
  "id": 1785003,
  "avatar_url": "https://avatars.githubusercontent.com/u/1785003?v=3",
  "gravatar_id": "",
  "url": "https://api.github.com/users/neverho0d",
  "html_url": "https://github.com/neverho0d",
  "followers_url": "https://api.github.com/users/neverho0d/followers",
  "following_url": "https://api.github.com/users/neverho0d/following{/other_user}",
  "gists_url": "https://api.github.com/users/neverho0d/gists{/gist_id}",
  "starred_url": "https://api.github.com/users/neverho0d/starred{/owner}{/repo}",
  "subscriptions_url": "https://api.github.com/users/neverho0d/subscriptions",
  "organizations_url": "https://api.github.com/users/neverho0d/orgs",
  "repos_url": "https://api.github.com/users/neverho0d/repos",
  "events_url": "https://api.github.com/users/neverho0d/events{/privacy}",
  "received_events_url": "https://api.github.com/users/neverho0d/received_events",
  "type": "User",
  "site_admin": false,
  "contributions": 10
}
, {
  "login": "kelseyhightower",
  "id": 1123322,
  "avatar_url": "https://avatars.githubusercontent.com/u/1123322?v=3",
  "gravatar_id": "",
  "url": "https://api.github.com/users/kelseyhightower",
  "html_url": "https://github.com/kelseyhightower",
  "followers_url": "https://api.github.com/users/kelseyhightower/followers",
  "following_url": "https://api.github.com/users/kelseyhightower/following{/other_user}",
  "gists_url": "https://api.github.com/users/kelseyhightower/gists{/gist_id}",
  "starred_url": "https://api.github.com/users/kelseyhightower/starred{/owner}{/repo}",
  "subscriptions_url": "https://api.github.com/users/kelseyhightower/subscriptions",
  "organizations_url": "https://api.github.com/users/kelseyhightower/orgs",
  "repos_url": "https://api.github.com/users/kelseyhightower/repos",
  "events_url": "https://api.github.com/users/kelseyhightower/events{/privacy}",
  "received_events_url": "https://api.github.com/users/kelseyhightower/received_events",
  "type": "User",
  "site_admin": false,
  "contributions": 9
}
, {
  "login": "kscherer",
  "id": 347043,
  "avatar_url": "https://avatars.githubusercontent.com/u/347043?v=3",
  "gravatar_id": "",
  "url": "https://api.github.com/users/kscherer",
  "html_url": "https://github.com/kscherer",
  "followers_url": "https://api.github.com/users/kscherer/followers",
  "following_url": "https://api.github.com/users/kscherer/following{/other_user}",
  "gists_url": "https://api.github.com/users/kscherer/gists{/gist_id}",
  "starred_url": "https://api.github.com/users/kscherer/starred{/owner}{/repo}",
  "subscriptions_url": "https://api.github.com/users/kscherer/subscriptions",
  "organizations_url": "https://api.github.com/users/kscherer/orgs",
  "repos_url": "https://api.github.com/users/kscherer/repos",
  "events_url": "https://api.github.com/users/kscherer/events{/privacy}",
  "received_events_url": "https://api.github.com/users/kscherer/received_events",
  "type": "User",
  "site_admin": false,
  "contributions": 9
}
, {
  "login": "jlsherrill",
  "id": 395077,
  "avatar_url": "https://avatars.githubusercontent.com/u/395077?v=3",
  "gravatar_id": "",
  "url": "https://api.github.com/users/jlsherrill",
  "html_url": "https://github.com/jlsherrill",
  "followers_url": "https://api.github.com/users/jlsherrill/followers",
  "following_url": "https://api.github.com/users/jlsherrill/following{/other_user}",
  "gists_url": "https://api.github.com/users/jlsherrill/gists{/gist_id}",
  "starred_url": "https://api.github.com/users/jlsherrill/starred{/owner}{/repo}",
  "subscriptions_url": "https://api.github.com/users/jlsherrill/subscriptions",
  "organizations_url": "https://api.github.com/users/jlsherrill/orgs",
  "repos_url": "https://api.github.com/users/jlsherrill/repos",
  "events_url": "https://api.github.com/users/jlsherrill/events{/privacy}",
  "received_events_url": "https://api.github.com/users/jlsherrill/received_events",
  "type": "User",
  "site_admin": false,
  "contributions": 8
}
, {
  "login": "awood",
  "id": 17975,
  "avatar_url": "https://avatars.githubusercontent.com/u/17975?v=3",
  "gravatar_id": "",
  "url": "https://api.github.com/users/awood",
  "html_url": "https://github.com/awood",
  "followers_url": "https://api.github.com/users/awood/followers",
  "following_url": "https://api.github.com/users/awood/following{/other_user}",
  "gists_url": "https://api.github.com/users/awood/gists{/gist_id}",
  "starred_url": "https://api.github.com/users/awood/starred{/owner}{/repo}",
  "subscriptions_url": "https://api.github.com/users/awood/subscriptions",
  "organizations_url": "https://api.github.com/users/awood/orgs",
  "repos_url": "https://api.github.com/users/awood/repos",
  "events_url": "https://api.github.com/users/awood/events{/privacy}",
  "received_events_url": "https://api.github.com/users/awood/received_events",
  "type": "User",
  "site_admin": false,
  "contributions": 8
}
, {
  "login": "lutter",
  "id": 23697,
  "avatar_url": "https://avatars.githubusercontent.com/u/23697?v=3",
  "gravatar_id": "",
  "url": "https://api.github.com/users/lutter",
  "html_url": "https://github.com/lutter",
  "followers_url": "https://api.github.com/users/lutter/followers",
  "following_url": "https://api.github.com/users/lutter/following{/other_user}",
  "gists_url": "https://api.github.com/users/lutter/gists{/gist_id}",
  "starred_url": "https://api.github.com/users/lutter/starred{/owner}{/repo}",
  "subscriptions_url": "https://api.github.com/users/lutter/subscriptions",
  "organizations_url": "https://api.github.com/users/lutter/orgs",
  "repos_url": "https://api.github.com/users/lutter/repos",
  "events_url": "https://api.github.com/users/lutter/events{/privacy}",
  "received_events_url": "https://api.github.com/users/lutter/received_events",
  "type": "User",
  "site_admin": false,
  "contributions": 7
}
, {
  "login": "ollyg",
  "id": 29653,
  "avatar_url": "https://avatars.githubusercontent.com/u/29653?v=3",
  "gravatar_id": "",
  "url": "https://api.github.com/users/ollyg",
  "html_url": "https://github.com/ollyg",
  "followers_url": "https://api.github.com/users/ollyg/followers",
  "following_url": "https://api.github.com/users/ollyg/following{/other_user}",
  "gists_url": "https://api.github.com/users/ollyg/gists{/gist_id}",
  "starred_url": "https://api.github.com/users/ollyg/starred{/owner}{/repo}",
  "subscriptions_url": "https://api.github.com/users/ollyg/subscriptions",
  "organizations_url": "https://api.github.com/users/ollyg/orgs",
  "repos_url": "https://api.github.com/users/ollyg/repos",
  "events_url": "https://api.github.com/users/ollyg/events{/privacy}",
  "received_events_url": "https://api.github.com/users/ollyg/received_events",
  "type": "User",
  "site_admin": false,
  "contributions": 6
}
, {
  "login": "apeschel",
  "id": 567739,
  "avatar_url": "https://avatars.githubusercontent.com/u/567739?v=3",
  "gravatar_id": "",
  "url": "https://api.github.com/users/apeschel",
  "html_url": "https://github.com/apeschel",
  "followers_url": "https://api.github.com/users/apeschel/followers",
  "following_url": "https://api.github.com/users/apeschel/following{/other_user}",
  "gists_url": "https://api.github.com/users/apeschel/gists{/gist_id}",
  "starred_url": "https://api.github.com/users/apeschel/starred{/owner}{/repo}",
  "subscriptions_url": "https://api.github.com/users/apeschel/subscriptions",
  "organizations_url": "https://api.github.com/users/apeschel/orgs",
  "repos_url": "https://api.github.com/users/apeschel/repos",
  "events_url": "https://api.github.com/users/apeschel/events{/privacy}",
  "received_events_url": "https://api.github.com/users/apeschel/received_events",
  "type": "User",
  "site_admin": false,
  "contributions": 6
}
, {
  "login": "alikins",
  "id": 15162,
  "avatar_url": "https://avatars.githubusercontent.com/u/15162?v=3",
  "gravatar_id": "",
  "url": "https://api.github.com/users/alikins",
  "html_url": "https://github.com/alikins",
  "followers_url": "https://api.github.com/users/alikins/followers",
  "following_url": "https://api.github.com/users/alikins/following{/other_user}",
  "gists_url": "https://api.github.com/users/alikins/gists{/gist_id}",
  "starred_url": "https://api.github.com/users/alikins/starred{/owner}{/repo}",
  "subscriptions_url": "https://api.github.com/users/alikins/subscriptions",
  "organizations_url": "https://api.github.com/users/alikins/orgs",
  "repos_url": "https://api.github.com/users/alikins/repos",
  "events_url": "https://api.github.com/users/alikins/events{/privacy}",
  "received_events_url": "https://api.github.com/users/alikins/received_events",
  "type": "User",
  "site_admin": false,
  "contributions": 6
}
, {
  "login": "parthaa",
  "id": 1069779,
  "avatar_url": "https://avatars.githubusercontent.com/u/1069779?v=3",
  "gravatar_id": "",
  "url": "https://api.github.com/users/parthaa",
  "html_url": "https://github.com/parthaa",
  "followers_url": "https://api.github.com/users/parthaa/followers",
  "following_url": "https://api.github.com/users/parthaa/following{/other_user}",
  "gists_url": "https://api.github.com/users/parthaa/gists{/gist_id}",
  "starred_url": "https://api.github.com/users/parthaa/starred{/owner}{/repo}",
  "subscriptions_url": "https://api.github.com/users/parthaa/subscriptions",
  "organizations_url": "https://api.github.com/users/parthaa/orgs",
  "repos_url": "https://api.github.com/users/parthaa/repos",
  "events_url": "https://api.github.com/users/parthaa/events{/privacy}",
  "received_events_url": "https://api.github.com/users/parthaa/received_events",
  "type": "User",
  "site_admin": false,
  "contributions": 6
}
, {
  "login": "aronparsons",
  "id": 1187530,
  "avatar_url": "https://avatars.githubusercontent.com/u/1187530?v=3",
  "gravatar_id": "",
  "url": "https://api.github.com/users/aronparsons",
  "html_url": "https://github.com/aronparsons",
  "followers_url": "https://api.github.com/users/aronparsons/followers",
  "following_url": "https://api.github.com/users/aronparsons/following{/other_user}",
  "gists_url": "https://api.github.com/users/aronparsons/gists{/gist_id}",
  "starred_url": "https://api.github.com/users/aronparsons/starred{/owner}{/repo}",
  "subscriptions_url": "https://api.github.com/users/aronparsons/subscriptions",
  "organizations_url": "https://api.github.com/users/aronparsons/orgs",
  "repos_url": "https://api.github.com/users/aronparsons/repos",
  "events_url": "https://api.github.com/users/aronparsons/events{/privacy}",
  "received_events_url": "https://api.github.com/users/aronparsons/received_events",
  "type": "User",
  "site_admin": false,
  "contributions": 6
}
, {
  "login": "lazzurs",
  "id": 15793,
  "avatar_url": "https://avatars.githubusercontent.com/u/15793?v=3",
  "gravatar_id": "",
  "url": "https://api.github.com/users/lazzurs",
  "html_url": "https://github.com/lazzurs",
  "followers_url": "https://api.github.com/users/lazzurs/followers",
  "following_url": "https://api.github.com/users/lazzurs/following{/other_user}",
  "gists_url": "https://api.github.com/users/lazzurs/gists{/gist_id}",
  "starred_url": "https://api.github.com/users/lazzurs/starred{/owner}{/repo}",
  "subscriptions_url": "https://api.github.com/users/lazzurs/subscriptions",
  "organizations_url": "https://api.github.com/users/lazzurs/orgs",
  "repos_url": "https://api.github.com/users/lazzurs/repos",
  "events_url": "https://api.github.com/users/lazzurs/events{/privacy}",
  "received_events_url": "https://api.github.com/users/lazzurs/received_events",
  "type": "User",
  "site_admin": false,
  "contributions": 6
}
, {
  "login": "crobinso",
  "id": 1437464,
  "avatar_url": "https://avatars.githubusercontent.com/u/1437464?v=3",
  "gravatar_id": "",
  "url": "https://api.github.com/users/crobinso",
  "html_url": "https://github.com/crobinso",
  "followers_url": "https://api.github.com/users/crobinso/followers",
  "following_url": "https://api.github.com/users/crobinso/following{/other_user}",
  "gists_url": "https://api.github.com/users/crobinso/gists{/gist_id}",
  "starred_url": "https://api.github.com/users/crobinso/starred{/owner}{/repo}",
  "subscriptions_url": "https://api.github.com/users/crobinso/subscriptions",
  "organizations_url": "https://api.github.com/users/crobinso/orgs",
  "repos_url": "https://api.github.com/users/crobinso/repos",
  "events_url": "https://api.github.com/users/crobinso/events{/privacy}",
  "received_events_url": "https://api.github.com/users/crobinso/received_events",
  "type": "User",
  "site_admin": false,
  "contributions": 5
}
, {
  "login": "kilpatds",
  "id": 282037,
  "avatar_url": "https://avatars.githubusercontent.com/u/282037?v=3",
  "gravatar_id": "",
  "url": "https://api.github.com/users/kilpatds",
  "html_url": "https://github.com/kilpatds",
  "followers_url": "https://api.github.com/users/kilpatds/followers",
  "following_url": "https://api.github.com/users/kilpatds/following{/other_user}",
  "gists_url": "https://api.github.com/users/kilpatds/gists{/gist_id}",
  "starred_url": "https://api.github.com/users/kilpatds/starred{/owner}{/repo}",
  "subscriptions_url": "https://api.github.com/users/kilpatds/subscriptions",
  "organizations_url": "https://api.github.com/users/kilpatds/orgs",
  "repos_url": "https://api.github.com/users/kilpatds/repos",
  "events_url": "https://api.github.com/users/kilpatds/events{/privacy}",
  "received_events_url": "https://api.github.com/users/kilpatds/received_events",
  "type": "User",
  "site_admin": false,
  "contributions": 4
}
, {
  "login": "jlspies1",
  "id": 1528865,
  "avatar_url": "https://avatars.githubusercontent.com/u/1528865?v=3",
  "gravatar_id": "",
  "url": "https://api.github.com/users/jlspies1",
  "html_url": "https://github.com/jlspies1",
  "followers_url": "https://api.github.com/users/jlspies1/followers",
  "following_url": "https://api.github.com/users/jlspies1/following{/other_user}",
  "gists_url": "https://api.github.com/users/jlspies1/gists{/gist_id}",
  "starred_url": "https://api.github.com/users/jlspies1/starred{/owner}{/repo}",
  "subscriptions_url": "https://api.github.com/users/jlspies1/subscriptions",
  "organizations_url": "https://api.github.com/users/jlspies1/orgs",
  "repos_url": "https://api.github.com/users/jlspies1/repos",
  "events_url": "https://api.github.com/users/jlspies1/events{/privacy}",
  "received_events_url": "https://api.github.com/users/jlspies1/received_events",
  "type": "User",
  "site_admin": false,
  "contributions": 4
}
, {
  "login": "charlesrg",
  "id": 1641239,
  "avatar_url": "https://avatars.githubusercontent.com/u/1641239?v=3",
  "gravatar_id": "",
  "url": "https://api.github.com/users/charlesrg",
  "html_url": "https://github.com/charlesrg",
  "followers_url": "https://api.github.com/users/charlesrg/followers",
  "following_url": "https://api.github.com/users/charlesrg/following{/other_user}",
  "gists_url": "https://api.github.com/users/charlesrg/gists{/gist_id}",
  "starred_url": "https://api.github.com/users/charlesrg/starred{/owner}{/repo}",
  "subscriptions_url": "https://api.github.com/users/charlesrg/subscriptions",
  "organizations_url": "https://api.github.com/users/charlesrg/orgs",
  "repos_url": "https://api.github.com/users/charlesrg/repos",
  "events_url": "https://api.github.com/users/charlesrg/events{/privacy}",
  "received_events_url": "https://api.github.com/users/charlesrg/received_events",
  "type": "User",
  "site_admin": false,
  "contributions": 3
}
, {
  "login": "yudoufu",
  "id": 48963,
  "avatar_url": "https://avatars.githubusercontent.com/u/48963?v=3",
  "gravatar_id": "",
  "url": "https://api.github.com/users/yudoufu",
  "html_url": "https://github.com/yudoufu",
  "followers_url": "https://api.github.com/users/yudoufu/followers",
  "following_url": "https://api.github.com/users/yudoufu/following{/other_user}",
  "gists_url": "https://api.github.com/users/yudoufu/gists{/gist_id}",
  "starred_url": "https://api.github.com/users/yudoufu/starred{/owner}{/repo}",
  "subscriptions_url": "https://api.github.com/users/yudoufu/subscriptions",
  "organizations_url": "https://api.github.com/users/yudoufu/orgs",
  "repos_url": "https://api.github.com/users/yudoufu/repos",
  "events_url": "https://api.github.com/users/yudoufu/events{/privacy}",
  "received_events_url": "https://api.github.com/users/yudoufu/received_events",
  "type": "User",
  "site_admin": false,
  "contributions": 3
}
, {
  "login": "JohnnyricoMC",
  "id": 1798635,
  "avatar_url": "https://avatars.githubusercontent.com/u/1798635?v=3",
  "gravatar_id": "",
  "url": "https://api.github.com/users/JohnnyricoMC",
  "html_url": "https://github.com/JohnnyricoMC",
  "followers_url": "https://api.github.com/users/JohnnyricoMC/followers",
  "following_url": "https://api.github.com/users/JohnnyricoMC/following{/other_user}",
  "gists_url": "https://api.github.com/users/JohnnyricoMC/gists{/gist_id}",
  "starred_url": "https://api.github.com/users/JohnnyricoMC/starred{/owner}{/repo}",
  "subscriptions_url": "https://api.github.com/users/JohnnyricoMC/subscriptions",
  "organizations_url": "https://api.github.com/users/JohnnyricoMC/orgs",
  "repos_url": "https://api.github.com/users/JohnnyricoMC/repos",
  "events_url": "https://api.github.com/users/JohnnyricoMC/events{/privacy}",
  "received_events_url": "https://api.github.com/users/JohnnyricoMC/received_events",
  "type": "User",
  "site_admin": false,
  "contributions": 3
}
, {
  "login": "syskill",
  "id": 93612,
  "avatar_url": "https://avatars.githubusercontent.com/u/93612?v=3",
  "gravatar_id": "",
  "url": "https://api.github.com/users/syskill",
  "html_url": "https://github.com/syskill",
  "followers_url": "https://api.github.com/users/syskill/followers",
  "following_url": "https://api.github.com/users/syskill/following{/other_user}",
  "gists_url": "https://api.github.com/users/syskill/gists{/gist_id}",
  "starred_url": "https://api.github.com/users/syskill/starred{/owner}{/repo}",
  "subscriptions_url": "https://api.github.com/users/syskill/subscriptions",
  "organizations_url": "https://api.github.com/users/syskill/orgs",
  "repos_url": "https://api.github.com/users/syskill/repos",
  "events_url": "https://api.github.com/users/syskill/events{/privacy}",
  "received_events_url": "https://api.github.com/users/syskill/received_events",
  "type": "User",
  "site_admin": false,
  "contributions": 2
}
, {
  "login": "brandor5",
  "id": 1630882,
  "avatar_url": "https://avatars.githubusercontent.com/u/1630882?v=3",
  "gravatar_id": "",
  "url": "https://api.github.com/users/brandor5",
  "html_url": "https://github.com/brandor5",
  "followers_url": "https://api.github.com/users/brandor5/followers",
  "following_url": "https://api.github.com/users/brandor5/following{/other_user}",
  "gists_url": "https://api.github.com/users/brandor5/gists{/gist_id}",
  "starred_url": "https://api.github.com/users/brandor5/starred{/owner}{/repo}",
  "subscriptions_url": "https://api.github.com/users/brandor5/subscriptions",
  "organizations_url": "https://api.github.com/users/brandor5/orgs",
  "repos_url": "https://api.github.com/users/brandor5/repos",
  "events_url": "https://api.github.com/users/brandor5/events{/privacy}",
  "received_events_url": "https://api.github.com/users/brandor5/received_events",
  "type": "User",
  "site_admin": false,
  "contributions": 2
}
, {
  "login": "brenton",
  "id": 832,
  "avatar_url": "https://avatars.githubusercontent.com/u/832?v=3",
  "gravatar_id": "",
  "url": "https://api.github.com/users/brenton",
  "html_url": "https://github.com/brenton",
  "followers_url": "https://api.github.com/users/brenton/followers",
  "following_url": "https://api.github.com/users/brenton/following{/other_user}",
  "gists_url": "https://api.github.com/users/brenton/gists{/gist_id}",
  "starred_url": "https://api.github.com/users/brenton/starred{/owner}{/repo}",
  "subscriptions_url": "https://api.github.com/users/brenton/subscriptions",
  "organizations_url": "https://api.github.com/users/brenton/orgs",
  "repos_url": "https://api.github.com/users/brenton/repos",
  "events_url": "https://api.github.com/users/brenton/events{/privacy}",
  "received_events_url": "https://api.github.com/users/brenton/received_events",
  "type": "User",
  "site_admin": false,
  "contributions": 2
}
, {
  "login": "tmzullinger",
  "id": 806319,
  "avatar_url": "https://avatars.githubusercontent.com/u/806319?v=3",
  "gravatar_id": "",
  "url": "https://api.github.com/users/tmzullinger",
  "html_url": "https://github.com/tmzullinger",
  "followers_url": "https://api.github.com/users/tmzullinger/followers",
  "following_url": "https://api.github.com/users/tmzullinger/following{/other_user}",
  "gists_url": "https://api.github.com/users/tmzullinger/gists{/gist_id}",
  "starred_url": "https://api.github.com/users/tmzullinger/starred{/owner}{/repo}",
  "subscriptions_url": "https://api.github.com/users/tmzullinger/subscriptions",
  "organizations_url": "https://api.github.com/users/tmzullinger/orgs",
  "repos_url": "https://api.github.com/users/tmzullinger/repos",
  "events_url": "https://api.github.com/users/tmzullinger/events{/privacy}",
  "received_events_url": "https://api.github.com/users/tmzullinger/received_events",
  "type": "User",
  "site_admin": false,
  "contributions": 2
}
, {
  "login": "kaechele",
  "id": 454490,
  "avatar_url": "https://avatars.githubusercontent.com/u/454490?v=3",
  "gravatar_id": "",
  "url": "https://api.github.com/users/kaechele",
  "html_url": "https://github.com/kaechele",
  "followers_url": "https://api.github.com/users/kaechele/followers",
  "following_url": "https://api.github.com/users/kaechele/following{/other_user}",
  "gists_url": "https://api.github.com/users/kaechele/gists{/gist_id}",
  "starred_url": "https://api.github.com/users/kaechele/starred{/owner}{/repo}",
  "subscriptions_url": "https://api.github.com/users/kaechele/subscriptions",
  "organizations_url": "https://api.github.com/users/kaechele/orgs",
  "repos_url": "https://api.github.com/users/kaechele/repos",
  "events_url": "https://api.github.com/users/kaechele/events{/privacy}",
  "received_events_url": "https://api.github.com/users/kaechele/received_events",
  "type": "User",
  "site_admin": false,
  "contributions": 2
}
, {
  "login": "frido",
  "id": 1138654,
  "avatar_url": "https://avatars.githubusercontent.com/u/1138654?v=3",
  "gravatar_id": "",
  "url": "https://api.github.com/users/frido",
  "html_url": "https://github.com/frido",
  "followers_url": "https://api.github.com/users/frido/followers",
  "following_url": "https://api.github.com/users/frido/following{/other_user}",
  "gists_url": "https://api.github.com/users/frido/gists{/gist_id}",
  "starred_url": "https://api.github.com/users/frido/starred{/owner}{/repo}",
  "subscriptions_url": "https://api.github.com/users/frido/subscriptions",
  "organizations_url": "https://api.github.com/users/frido/orgs",
  "repos_url": "https://api.github.com/users/frido/repos",
  "events_url": "https://api.github.com/users/frido/events{/privacy}",
  "received_events_url": "https://api.github.com/users/frido/received_events",
  "type": "User",
  "site_admin": false,
  "contributions": 2
}
, {
  "login": "gordolio",
  "id": 143153,
  "avatar_url": "https://avatars.githubusercontent.com/u/143153?v=3",
  "gravatar_id": "",
  "url": "https://api.github.com/users/gordolio",
  "html_url": "https://github.com/gordolio",
  "followers_url": "https://api.github.com/users/gordolio/followers",
  "following_url": "https://api.github.com/users/gordolio/following{/other_user}",
  "gists_url": "https://api.github.com/users/gordolio/gists{/gist_id}",
  "starred_url": "https://api.github.com/users/gordolio/starred{/owner}{/repo}",
  "subscriptions_url": "https://api.github.com/users/gordolio/subscriptions",
  "organizations_url": "https://api.github.com/users/gordolio/orgs",
  "repos_url": "https://api.github.com/users/gordolio/repos",
  "events_url": "https://api.github.com/users/gordolio/events{/privacy}",
  "received_events_url": "https://api.github.com/users/gordolio/received_events",
  "type": "User",
  "site_admin": false,
  "contributions": 2
}
, {
  "login": "jjulien",
  "id": 1606961,
  "avatar_url": "https://avatars.githubusercontent.com/u/1606961?v=3",
  "gravatar_id": "",
  "url": "https://api.github.com/users/jjulien",
  "html_url": "https://github.com/jjulien",
  "followers_url": "https://api.github.com/users/jjulien/followers",
  "following_url": "https://api.github.com/users/jjulien/following{/other_user}",
  "gists_url": "https://api.github.com/users/jjulien/gists{/gist_id}",
  "starred_url": "https://api.github.com/users/jjulien/starred{/owner}{/repo}",
  "subscriptions_url": "https://api.github.com/users/jjulien/subscriptions",
  "organizations_url": "https://api.github.com/users/jjulien/orgs",
  "repos_url": "https://api.github.com/users/jjulien/repos",
  "events_url": "https://api.github.com/users/jjulien/events{/privacy}",
  "received_events_url": "https://api.github.com/users/jjulien/received_events",
  "type": "User",
  "site_admin": false,
  "contributions": 2
}
, {
  "login": "jthiltges",
  "id": 1951115,
  "avatar_url": "https://avatars.githubusercontent.com/u/1951115?v=3",
  "gravatar_id": "",
  "url": "https://api.github.com/users/jthiltges",
  "html_url": "https://github.com/jthiltges",
  "followers_url": "https://api.github.com/users/jthiltges/followers",
  "following_url": "https://api.github.com/users/jthiltges/following{/other_user}",
  "gists_url": "https://api.github.com/users/jthiltges/gists{/gist_id}",
  "starred_url": "https://api.github.com/users/jthiltges/starred{/owner}{/repo}",
  "subscriptions_url": "https://api.github.com/users/jthiltges/subscriptions",
  "organizations_url": "https://api.github.com/users/jthiltges/orgs",
  "repos_url": "https://api.github.com/users/jthiltges/repos",
  "events_url": "https://api.github.com/users/jthiltges/events{/privacy}",
  "received_events_url": "https://api.github.com/users/jthiltges/received_events",
  "type": "User",
  "site_admin": false,
  "contributions": 2
}
, {
  "login": "tchellomello",
  "id": 809840,
  "avatar_url": "https://avatars.githubusercontent.com/u/809840?v=3",
  "gravatar_id": "",
  "url": "https://api.github.com/users/tchellomello",
  "html_url": "https://github.com/tchellomello",
  "followers_url": "https://api.github.com/users/tchellomello/followers",
  "following_url": "https://api.github.com/users/tchellomello/following{/other_user}",
  "gists_url": "https://api.github.com/users/tchellomello/gists{/gist_id}",
  "starred_url": "https://api.github.com/users/tchellomello/starred{/owner}{/repo}",
  "subscriptions_url": "https://api.github.com/users/tchellomello/subscriptions",
  "organizations_url": "https://api.github.com/users/tchellomello/orgs",
  "repos_url": "https://api.github.com/users/tchellomello/repos",
  "events_url": "https://api.github.com/users/tchellomello/events{/privacy}",
  "received_events_url": "https://api.github.com/users/tchellomello/received_events",
  "type": "User",
  "site_admin": false,
  "contributions": 2
}
, {
  "login": "mark987",
  "id": 5302462,
  "avatar_url": "https://avatars.githubusercontent.com/u/5302462?v=3",
  "gravatar_id": "",
  "url": "https://api.github.com/users/mark987",
  "html_url": "https://github.com/mark987",
  "followers_url": "https://api.github.com/users/mark987/followers",
  "following_url": "https://api.github.com/users/mark987/following{/other_user}",
  "gists_url": "https://api.github.com/users/mark987/gists{/gist_id}",
  "starred_url": "https://api.github.com/users/mark987/starred{/owner}{/repo}",
  "subscriptions_url": "https://api.github.com/users/mark987/subscriptions",
  "organizations_url": "https://api.github.com/users/mark987/orgs",
  "repos_url": "https://api.github.com/users/mark987/repos",
  "events_url": "https://api.github.com/users/mark987/events{/privacy}",
  "received_events_url": "https://api.github.com/users/mark987/received_events",
  "type": "User",
  "site_admin": false,
  "contributions": 2
}
, {
  "login": "nielsbasjes",
  "id": 240096,
  "avatar_url": "https://avatars.githubusercontent.com/u/240096?v=3",
  "gravatar_id": "",
  "url": "https://api.github.com/users/nielsbasjes",
  "html_url": "https://github.com/nielsbasjes",
  "followers_url": "https://api.github.com/users/nielsbasjes/followers",
  "following_url": "https://api.github.com/users/nielsbasjes/following{/other_user}",
  "gists_url": "https://api.github.com/users/nielsbasjes/gists{/gist_id}",
  "starred_url": "https://api.github.com/users/nielsbasjes/starred{/owner}{/repo}",
  "subscriptions_url": "https://api.github.com/users/nielsbasjes/subscriptions",
  "organizations_url": "https://api.github.com/users/nielsbasjes/orgs",
  "repos_url": "https://api.github.com/users/nielsbasjes/repos",
  "events_url": "https://api.github.com/users/nielsbasjes/events{/privacy}",
  "received_events_url": "https://api.github.com/users/nielsbasjes/received_events",
  "type": "User",
  "site_admin": false,
  "contributions": 2
}
, {
  "login": "RAR",
  "id": 465746,
  "avatar_url": "https://avatars.githubusercontent.com/u/465746?v=3",
  "gravatar_id": "",
  "url": "https://api.github.com/users/RAR",
  "html_url": "https://github.com/RAR",
  "followers_url": "https://api.github.com/users/RAR/followers",
  "following_url": "https://api.github.com/users/RAR/following{/other_user}",
  "gists_url": "https://api.github.com/users/RAR/gists{/gist_id}",
  "starred_url": "https://api.github.com/users/RAR/starred{/owner}{/repo}",
  "subscriptions_url": "https://api.github.com/users/RAR/subscriptions",
  "organizations_url": "https://api.github.com/users/RAR/orgs",
  "repos_url": "https://api.github.com/users/RAR/repos",
  "events_url": "https://api.github.com/users/RAR/events{/privacy}",
  "received_events_url": "https://api.github.com/users/RAR/received_events",
  "type": "User",
  "site_admin": false,
  "contributions": 2
}
, {
  "login": "woolsgrs",
  "id": 112077,
  "avatar_url": "https://avatars.githubusercontent.com/u/112077?v=3",
  "gravatar_id": "",
  "url": "https://api.github.com/users/woolsgrs",
  "html_url": "https://github.com/woolsgrs",
  "followers_url": "https://api.github.com/users/woolsgrs/followers",
  "following_url": "https://api.github.com/users/woolsgrs/following{/other_user}",
  "gists_url": "https://api.github.com/users/woolsgrs/gists{/gist_id}",
  "starred_url": "https://api.github.com/users/woolsgrs/starred{/owner}{/repo}",
  "subscriptions_url": "https://api.github.com/users/woolsgrs/subscriptions",
  "organizations_url": "https://api.github.com/users/woolsgrs/orgs",
  "repos_url": "https://api.github.com/users/woolsgrs/repos",
  "events_url": "https://api.github.com/users/woolsgrs/events{/privacy}",
  "received_events_url": "https://api.github.com/users/woolsgrs/received_events",
  "type": "User",
  "site_admin": false,
  "contributions": 2
}
, {
  "login": "lanky",
  "id": 254377,
  "avatar_url": "https://avatars.githubusercontent.com/u/254377?v=3",
  "gravatar_id": "",
  "url": "https://api.github.com/users/lanky",
  "html_url": "https://github.com/lanky",
  "followers_url": "https://api.github.com/users/lanky/followers",
  "following_url": "https://api.github.com/users/lanky/following{/other_user}",
  "gists_url": "https://api.github.com/users/lanky/gists{/gist_id}",
  "starred_url": "https://api.github.com/users/lanky/starred{/owner}{/repo}",
  "subscriptions_url": "https://api.github.com/users/lanky/subscriptions",
  "organizations_url": "https://api.github.com/users/lanky/orgs",
  "repos_url": "https://api.github.com/users/lanky/repos",
  "events_url": "https://api.github.com/users/lanky/events{/privacy}",
  "received_events_url": "https://api.github.com/users/lanky/received_events",
  "type": "User",
  "site_admin": false,
  "contributions": 2
}
, {
  "login": "thardeck",
  "id": 2063848,
  "avatar_url": "https://avatars.githubusercontent.com/u/2063848?v=3",
  "gravatar_id": "",
  "url": "https://api.github.com/users/thardeck",
  "html_url": "https://github.com/thardeck",
  "followers_url": "https://api.github.com/users/thardeck/followers",
  "following_url": "https://api.github.com/users/thardeck/following{/other_user}",
  "gists_url": "https://api.github.com/users/thardeck/gists{/gist_id}",
  "starred_url": "https://api.github.com/users/thardeck/starred{/owner}{/repo}",
  "subscriptions_url": "https://api.github.com/users/thardeck/subscriptions",
  "organizations_url": "https://api.github.com/users/thardeck/orgs",
  "repos_url": "https://api.github.com/users/thardeck/repos",
  "events_url": "https://api.github.com/users/thardeck/events{/privacy}",
  "received_events_url": "https://api.github.com/users/thardeck/received_events",
  "type": "User",
  "site_admin": false,
  "contributions": 2
}
, {
  "login": "christianhorn",
  "id": 1409927,
  "avatar_url": "https://avatars.githubusercontent.com/u/1409927?v=3",
  "gravatar_id": "",
  "url": "https://api.github.com/users/christianhorn",
  "html_url": "https://github.com/christianhorn",
  "followers_url": "https://api.github.com/users/christianhorn/followers",
  "following_url": "https://api.github.com/users/christianhorn/following{/other_user}",
  "gists_url": "https://api.github.com/users/christianhorn/gists{/gist_id}",
  "starred_url": "https://api.github.com/users/christianhorn/starred{/owner}{/repo}",
  "subscriptions_url": "https://api.github.com/users/christianhorn/subscriptions",
  "organizations_url": "https://api.github.com/users/christianhorn/orgs",
  "repos_url": "https://api.github.com/users/christianhorn/repos",
  "events_url": "https://api.github.com/users/christianhorn/events{/privacy}",
  "received_events_url": "https://api.github.com/users/christianhorn/received_events",
  "type": "User",
  "site_admin": false,
  "contributions": 2
}
, {
  "login": "atodorov",
  "id": 1002300,
  "avatar_url": "https://avatars.githubusercontent.com/u/1002300?v=3",
  "gravatar_id": "",
  "url": "https://api.github.com/users/atodorov",
  "html_url": "https://github.com/atodorov",
  "followers_url": "https://api.github.com/users/atodorov/followers",
  "following_url": "https://api.github.com/users/atodorov/following{/other_user}",
  "gists_url": "https://api.github.com/users/atodorov/gists{/gist_id}",
  "starred_url": "https://api.github.com/users/atodorov/starred{/owner}{/repo}",
  "subscriptions_url": "https://api.github.com/users/atodorov/subscriptions",
  "organizations_url": "https://api.github.com/users/atodorov/orgs",
  "repos_url": "https://api.github.com/users/atodorov/repos",
  "events_url": "https://api.github.com/users/atodorov/events{/privacy}",
  "received_events_url": "https://api.github.com/users/atodorov/received_events",
  "type": "User",
  "site_admin": false,
  "contributions": 1
}
, {
  "login": "bkearney",
  "id": 16957,
  "avatar_url": "https://avatars.githubusercontent.com/u/16957?v=3",
  "gravatar_id": "",
  "url": "https://api.github.com/users/bkearney",
  "html_url": "https://github.com/bkearney",
  "followers_url": "https://api.github.com/users/bkearney/followers",
  "following_url": "https://api.github.com/users/bkearney/following{/other_user}",
  "gists_url": "https://api.github.com/users/bkearney/gists{/gist_id}",
  "starred_url": "https://api.github.com/users/bkearney/starred{/owner}{/repo}",
  "subscriptions_url": "https://api.github.com/users/bkearney/subscriptions",
  "organizations_url": "https://api.github.com/users/bkearney/orgs",
  "repos_url": "https://api.github.com/users/bkearney/repos",
  "events_url": "https://api.github.com/users/bkearney/events{/privacy}",
  "received_events_url": "https://api.github.com/users/bkearney/received_events",
  "type": "User",
  "site_admin": false,
  "contributions": 1
}
, {
  "login": "chjohnst",
  "id": 1225565,
  "avatar_url": "https://avatars.githubusercontent.com/u/1225565?v=3",
  "gravatar_id": "",
  "url": "https://api.github.com/users/chjohnst",
  "html_url": "https://github.com/chjohnst",
  "followers_url": "https://api.github.com/users/chjohnst/followers",
  "following_url": "https://api.github.com/users/chjohnst/following{/other_user}",
  "gists_url": "https://api.github.com/users/chjohnst/gists{/gist_id}",
  "starred_url": "https://api.github.com/users/chjohnst/starred{/owner}{/repo}",
  "subscriptions_url": "https://api.github.com/users/chjohnst/subscriptions",
  "organizations_url": "https://api.github.com/users/chjohnst/orgs",
  "repos_url": "https://api.github.com/users/chjohnst/repos",
  "events_url": "https://api.github.com/users/chjohnst/events{/privacy}",
  "received_events_url": "https://api.github.com/users/chjohnst/received_events",
  "type": "User",
  "site_admin": false,
  "contributions": 1
}
, {
  "login": "clebergnu",
  "id": 447178,
  "avatar_url": "https://avatars.githubusercontent.com/u/447178?v=3",
  "gravatar_id": "",
  "url": "https://api.github.com/users/clebergnu",
  "html_url": "https://github.com/clebergnu",
  "followers_url": "https://api.github.com/users/clebergnu/followers",
  "following_url": "https://api.github.com/users/clebergnu/following{/other_user}",
  "gists_url": "https://api.github.com/users/clebergnu/gists{/gist_id}",
  "starred_url": "https://api.github.com/users/clebergnu/starred{/owner}{/repo}",
  "subscriptions_url": "https://api.github.com/users/clebergnu/subscriptions",
  "organizations_url": "https://api.github.com/users/clebergnu/orgs",
  "repos_url": "https://api.github.com/users/clebergnu/repos",
  "events_url": "https://api.github.com/users/clebergnu/events{/privacy}",
  "received_events_url": "https://api.github.com/users/clebergnu/received_events",
  "type": "User",
  "site_admin": false,
  "contributions": 1
}
, {
  "login": "SpamapS",
  "id": 470880,
  "avatar_url": "https://avatars.githubusercontent.com/u/470880?v=3",
  "gravatar_id": "",
  "url": "https://api.github.com/users/SpamapS",
  "html_url": "https://github.com/SpamapS",
  "followers_url": "https://api.github.com/users/SpamapS/followers",
  "following_url": "https://api.github.com/users/SpamapS/following{/other_user}",
  "gists_url": "https://api.github.com/users/SpamapS/gists{/gist_id}",
  "starred_url": "https://api.github.com/users/SpamapS/starred{/owner}{/repo}",
  "subscriptions_url": "https://api.github.com/users/SpamapS/subscriptions",
  "organizations_url": "https://api.github.com/users/SpamapS/orgs",
  "repos_url": "https://api.github.com/users/SpamapS/repos",
  "events_url": "https://api.github.com/users/SpamapS/events{/privacy}",
  "received_events_url": "https://api.github.com/users/SpamapS/received_events",
  "type": "User",
  "site_admin": false,
  "contributions": 1
}
, {
  "login": "defreez",
  "id": 356509,
  "avatar_url": "https://avatars.githubusercontent.com/u/356509?v=3",
  "gravatar_id": "",
  "url": "https://api.github.com/users/defreez",
  "html_url": "https://github.com/defreez",
  "followers_url": "https://api.github.com/users/defreez/followers",
  "following_url": "https://api.github.com/users/defreez/following{/other_user}",
  "gists_url": "https://api.github.com/users/defreez/gists{/gist_id}",
  "starred_url": "https://api.github.com/users/defreez/starred{/owner}{/repo}",
  "subscriptions_url": "https://api.github.com/users/defreez/subscriptions",
  "organizations_url": "https://api.github.com/users/defreez/orgs",
  "repos_url": "https://api.github.com/users/defreez/repos",
  "events_url": "https://api.github.com/users/defreez/events{/privacy}",
  "received_events_url": "https://api.github.com/users/defreez/received_events",
  "type": "User",
  "site_admin": false,
  "contributions": 1
}
, {
  "login": "dustinkirkland",
  "id": 838790,
  "avatar_url": "https://avatars.githubusercontent.com/u/838790?v=3",
  "gravatar_id": "",
  "url": "https://api.github.com/users/dustinkirkland",
  "html_url": "https://github.com/dustinkirkland",
  "followers_url": "https://api.github.com/users/dustinkirkland/followers",
  "following_url": "https://api.github.com/users/dustinkirkland/following{/other_user}",
  "gists_url": "https://api.github.com/users/dustinkirkland/gists{/gist_id}",
  "starred_url": "https://api.github.com/users/dustinkirkland/starred{/owner}{/repo}",
  "subscriptions_url": "https://api.github.com/users/dustinkirkland/subscriptions",
  "organizations_url": "https://api.github.com/users/dustinkirkland/orgs",
  "repos_url": "https://api.github.com/users/dustinkirkland/repos",
  "events_url": "https://api.github.com/users/dustinkirkland/events{/privacy}",
  "received_events_url": "https://api.github.com/users/dustinkirkland/received_events",
  "type": "User",
  "site_admin": false,
  "contributions": 1
}
, {
  "login": "erinn",
  "id": 45891,
  "avatar_url": "https://avatars.githubusercontent.com/u/45891?v=3",
  "gravatar_id": "",
  "url": "https://api.github.com/users/erinn",
  "html_url": "https://github.com/erinn",
  "followers_url": "https://api.github.com/users/erinn/followers",
  "following_url": "https://api.github.com/users/erinn/following{/other_user}",
  "gists_url": "https://api.github.com/users/erinn/gists{/gist_id}",
  "starred_url": "https://api.github.com/users/erinn/starred{/owner}{/repo}",
  "subscriptions_url": "https://api.github.com/users/erinn/subscriptions",
  "organizations_url": "https://api.github.com/users/erinn/orgs",
  "repos_url": "https://api.github.com/users/erinn/repos",
  "events_url": "https://api.github.com/users/erinn/events{/privacy}",
  "received_events_url": "https://api.github.com/users/erinn/received_events",
  "type": "User",
  "site_admin": false,
  "contributions": 1
}
, {
  "login": "jkff",
  "id": 343722,
  "avatar_url": "https://avatars.githubusercontent.com/u/343722?v=3",
  "gravatar_id": "",
  "url": "https://api.github.com/users/jkff",
  "html_url": "https://github.com/jkff",
  "followers_url": "https://api.github.com/users/jkff/followers",
  "following_url": "https://api.github.com/users/jkff/following{/other_user}",
  "gists_url": "https://api.github.com/users/jkff/gists{/gist_id}",
  "starred_url": "https://api.github.com/users/jkff/starred{/owner}{/repo}",
  "subscriptions_url": "https://api.github.com/users/jkff/subscriptions",
  "organizations_url": "https://api.github.com/users/jkff/orgs",
  "repos_url": "https://api.github.com/users/jkff/repos",
  "events_url": "https://api.github.com/users/jkff/events{/privacy}",
  "received_events_url": "https://api.github.com/users/jkff/received_events",
  "type": "User",
  "site_admin": false,
  "contributions": 1
}
, {
  "login": "chutzimir",
  "id": 310867,
  "avatar_url": "https://avatars.githubusercontent.com/u/310867?v=3",
  "gravatar_id": "",
  "url": "https://api.github.com/users/chutzimir",
  "html_url": "https://github.com/chutzimir",
  "followers_url": "https://api.github.com/users/chutzimir/followers",
  "following_url": "https://api.github.com/users/chutzimir/following{/other_user}",
  "gists_url": "https://api.github.com/users/chutzimir/gists{/gist_id}",
  "starred_url": "https://api.github.com/users/chutzimir/starred{/owner}{/repo}",
  "subscriptions_url": "https://api.github.com/users/chutzimir/subscriptions",
  "organizations_url": "https://api.github.com/users/chutzimir/orgs",
  "repos_url": "https://api.github.com/users/chutzimir/repos",
  "events_url": "https://api.github.com/users/chutzimir/events{/privacy}",
  "received_events_url": "https://api.github.com/users/chutzimir/received_events",
  "type": "User",
  "site_admin": false,
  "contributions": 1
}
, {
  "login": "isaoshimizu",
  "id": 1400282,
  "avatar_url": "https://avatars.githubusercontent.com/u/1400282?v=3",
  "gravatar_id": "",
  "url": "https://api.github.com/users/isaoshimizu",
  "html_url": "https://github.com/isaoshimizu",
  "followers_url": "https://api.github.com/users/isaoshimizu/followers",
  "following_url": "https://api.github.com/users/isaoshimizu/following{/other_user}",
  "gists_url": "https://api.github.com/users/isaoshimizu/gists{/gist_id}",
  "starred_url": "https://api.github.com/users/isaoshimizu/starred{/owner}{/repo}",
  "subscriptions_url": "https://api.github.com/users/isaoshimizu/subscriptions",
  "organizations_url": "https://api.github.com/users/isaoshimizu/orgs",
  "repos_url": "https://api.github.com/users/isaoshimizu/repos",
  "events_url": "https://api.github.com/users/isaoshimizu/events{/privacy}",
  "received_events_url": "https://api.github.com/users/isaoshimizu/received_events",
  "type": "User",
  "site_admin": false,
  "contributions": 1
}
, {
  "login": "jbowes",
  "id": 12997,
  "avatar_url": "https://avatars.githubusercontent.com/u/12997?v=3",
  "gravatar_id": "",
  "url": "https://api.github.com/users/jbowes",
  "html_url": "https://github.com/jbowes",
  "followers_url": "https://api.github.com/users/jbowes/followers",
  "following_url": "https://api.github.com/users/jbowes/following{/other_user}",
  "gists_url": "https://api.github.com/users/jbowes/gists{/gist_id}",
  "starred_url": "https://api.github.com/users/jbowes/starred{/owner}{/repo}",
  "subscriptions_url": "https://api.github.com/users/jbowes/subscriptions",
  "organizations_url": "https://api.github.com/users/jbowes/orgs",
  "repos_url": "https://api.github.com/users/jbowes/repos",
  "events_url": "https://api.github.com/users/jbowes/events{/privacy}",
  "received_events_url": "https://api.github.com/users/jbowes/received_events",
  "type": "User",
  "site_admin": false,
  "contributions": 1
}
, {
  "login": "SEJeff",
  "id": 4603,
  "avatar_url": "https://avatars.githubusercontent.com/u/4603?v=3",
  "gravatar_id": "",
  "url": "https://api.github.com/users/SEJeff",
  "html_url": "https://github.com/SEJeff",
  "followers_url": "https://api.github.com/users/SEJeff/followers",
  "following_url": "https://api.github.com/users/SEJeff/following{/other_user}",
  "gists_url": "https://api.github.com/users/SEJeff/gists{/gist_id}",
  "starred_url": "https://api.github.com/users/SEJeff/starred{/owner}{/repo}",
  "subscriptions_url": "https://api.github.com/users/SEJeff/subscriptions",
  "organizations_url": "https://api.github.com/users/SEJeff/orgs",
  "repos_url": "https://api.github.com/users/SEJeff/repos",
  "events_url": "https://api.github.com/users/SEJeff/events{/privacy}",
  "received_events_url": "https://api.github.com/users/SEJeff/received_events",
  "type": "User",
  "site_admin": false,
  "contributions": 1
}
, {
  "login": "jbweber",
  "id": 210275,
  "avatar_url": "https://avatars.githubusercontent.com/u/210275?v=3",
  "gravatar_id": "",
  "url": "https://api.github.com/users/jbweber",
  "html_url": "https://github.com/jbweber",
  "followers_url": "https://api.github.com/users/jbweber/followers",
  "following_url": "https://api.github.com/users/jbweber/following{/other_user}",
  "gists_url": "https://api.github.com/users/jbweber/gists{/gist_id}",
  "starred_url": "https://api.github.com/users/jbweber/starred{/owner}{/repo}",
  "subscriptions_url": "https://api.github.com/users/jbweber/subscriptions",
  "organizations_url": "https://api.github.com/users/jbweber/orgs",
  "repos_url": "https://api.github.com/users/jbweber/repos",
  "events_url": "https://api.github.com/users/jbweber/events{/privacy}",
  "received_events_url": "https://api.github.com/users/jbweber/received_events",
  "type": "User",
  "site_admin": false,
  "contributions": 1
}
, {
  "login": "jcollie",
  "id": 740022,
  "avatar_url": "https://avatars.githubusercontent.com/u/740022?v=3",
  "gravatar_id": "",
  "url": "https://api.github.com/users/jcollie",
  "html_url": "https://github.com/jcollie",
  "followers_url": "https://api.github.com/users/jcollie/followers",
  "following_url": "https://api.github.com/users/jcollie/following{/other_user}",
  "gists_url": "https://api.github.com/users/jcollie/gists{/gist_id}",
  "starred_url": "https://api.github.com/users/jcollie/starred{/owner}{/repo}",
  "subscriptions_url": "https://api.github.com/users/jcollie/subscriptions",
  "organizations_url": "https://api.github.com/users/jcollie/orgs",
  "repos_url": "https://api.github.com/users/jcollie/repos",
  "events_url": "https://api.github.com/users/jcollie/events{/privacy}",
  "received_events_url": "https://api.github.com/users/jcollie/received_events",
  "type": "User",
  "site_admin": false,
  "contributions": 1
}
, {
  "login": "Yasumoto",
  "id": 48383,
  "avatar_url": "https://avatars.githubusercontent.com/u/48383?v=3",
  "gravatar_id": "",
  "url": "https://api.github.com/users/Yasumoto",
  "html_url": "https://github.com/Yasumoto",
  "followers_url": "https://api.github.com/users/Yasumoto/followers",
  "following_url": "https://api.github.com/users/Yasumoto/following{/other_user}",
  "gists_url": "https://api.github.com/users/Yasumoto/gists{/gist_id}",
  "starred_url": "https://api.github.com/users/Yasumoto/starred{/owner}{/repo}",
  "subscriptions_url": "https://api.github.com/users/Yasumoto/subscriptions",
  "organizations_url": "https://api.github.com/users/Yasumoto/orgs",
  "repos_url": "https://api.github.com/users/Yasumoto/repos",
  "events_url": "https://api.github.com/users/Yasumoto/events{/privacy}",
  "received_events_url": "https://api.github.com/users/Yasumoto/received_events",
  "type": "User",
  "site_admin": false,
  "contributions": 1
}
, {
  "login": "jkugler",
  "id": 78939,
  "avatar_url": "https://avatars.githubusercontent.com/u/78939?v=3",
  "gravatar_id": "",
  "url": "https://api.github.com/users/jkugler",
  "html_url": "https://github.com/jkugler",
  "followers_url": "https://api.github.com/users/jkugler/followers",
  "following_url": "https://api.github.com/users/jkugler/following{/other_user}",
  "gists_url": "https://api.github.com/users/jkugler/gists{/gist_id}",
  "starred_url": "https://api.github.com/users/jkugler/starred{/owner}{/repo}",
  "subscriptions_url": "https://api.github.com/users/jkugler/subscriptions",
  "organizations_url": "https://api.github.com/users/jkugler/orgs",
  "repos_url": "https://api.github.com/users/jkugler/repos",
  "events_url": "https://api.github.com/users/jkugler/events{/privacy}",
  "received_events_url": "https://api.github.com/users/jkugler/received_events",
  "type": "User",
  "site_admin": false,
  "contributions": 1
}
, {
  "login": "roysjosh",
  "id": 601535,
  "avatar_url": "https://avatars.githubusercontent.com/u/601535?v=3",
  "gravatar_id": "",
  "url": "https://api.github.com/users/roysjosh",
  "html_url": "https://github.com/roysjosh",
  "followers_url": "https://api.github.com/users/roysjosh/followers",
  "following_url": "https://api.github.com/users/roysjosh/following{/other_user}",
  "gists_url": "https://api.github.com/users/roysjosh/gists{/gist_id}",
  "starred_url": "https://api.github.com/users/roysjosh/starred{/owner}{/repo}",
  "subscriptions_url": "https://api.github.com/users/roysjosh/subscriptions",
  "organizations_url": "https://api.github.com/users/roysjosh/orgs",
  "repos_url": "https://api.github.com/users/roysjosh/repos",
  "events_url": "https://api.github.com/users/roysjosh/events{/privacy}",
  "received_events_url": "https://api.github.com/users/roysjosh/received_events",
  "type": "User",
  "site_admin": false,
  "contributions": 1
}
, {
  "login": "magnus919",
  "id": 942000,
  "avatar_url": "https://avatars.githubusercontent.com/u/942000?v=3",
  "gravatar_id": "",
  "url": "https://api.github.com/users/magnus919",
  "html_url": "https://github.com/magnus919",
  "followers_url": "https://api.github.com/users/magnus919/followers",
  "following_url": "https://api.github.com/users/magnus919/following{/other_user}",
  "gists_url": "https://api.github.com/users/magnus919/gists{/gist_id}",
  "starred_url": "https://api.github.com/users/magnus919/starred{/owner}{/repo}",
  "subscriptions_url": "https://api.github.com/users/magnus919/subscriptions",
  "organizations_url": "https://api.github.com/users/magnus919/orgs",
  "repos_url": "https://api.github.com/users/magnus919/repos",
  "events_url": "https://api.github.com/users/magnus919/events{/privacy}",
  "received_events_url": "https://api.github.com/users/magnus919/received_events",
  "type": "User",
  "site_admin": false,
  "contributions": 1
}
, {
  "login": "tremble",
  "id": 364860,
  "avatar_url": "https://avatars.githubusercontent.com/u/364860?v=3",
  "gravatar_id": "",
  "url": "https://api.github.com/users/tremble",
  "html_url": "https://github.com/tremble",
  "followers_url": "https://api.github.com/users/tremble/followers",
  "following_url": "https://api.github.com/users/tremble/following{/other_user}",
  "gists_url": "https://api.github.com/users/tremble/gists{/gist_id}",
  "starred_url": "https://api.github.com/users/tremble/starred{/owner}{/repo}",
  "subscriptions_url": "https://api.github.com/users/tremble/subscriptions",
  "organizations_url": "https://api.github.com/users/tremble/orgs",
  "repos_url": "https://api.github.com/users/tremble/repos",
  "events_url": "https://api.github.com/users/tremble/events{/privacy}",
  "received_events_url": "https://api.github.com/users/tremble/received_events",
  "type": "User",
  "site_admin": false,
  "contributions": 1
}
, {
  "login": "xsuchy",
  "id": 85769,
  "avatar_url": "https://avatars.githubusercontent.com/u/85769?v=3",
  "gravatar_id": "",
  "url": "https://api.github.com/users/xsuchy",
  "html_url": "https://github.com/xsuchy",
  "followers_url": "https://api.github.com/users/xsuchy/followers",
  "following_url": "https://api.github.com/users/xsuchy/following{/other_user}",
  "gists_url": "https://api.github.com/users/xsuchy/gists{/gist_id}",
  "starred_url": "https://api.github.com/users/xsuchy/starred{/owner}{/repo}",
  "subscriptions_url": "https://api.github.com/users/xsuchy/subscriptions",
  "organizations_url": "https://api.github.com/users/xsuchy/orgs",
  "repos_url": "https://api.github.com/users/xsuchy/repos",
  "events_url": "https://api.github.com/users/xsuchy/events{/privacy}",
  "received_events_url": "https://api.github.com/users/xsuchy/received_events",
  "type": "User",
  "site_admin": false,
  "contributions": 1
}
, {
  "login": "ramonvanalteren",
  "id": 27267,
  "avatar_url": "https://avatars.githubusercontent.com/u/27267?v=3",
  "gravatar_id": "",
  "url": "https://api.github.com/users/ramonvanalteren",
  "html_url": "https://github.com/ramonvanalteren",
  "followers_url": "https://api.github.com/users/ramonvanalteren/followers",
  "following_url": "https://api.github.com/users/ramonvanalteren/following{/other_user}",
  "gists_url": "https://api.github.com/users/ramonvanalteren/gists{/gist_id}",
  "starred_url": "https://api.github.com/users/ramonvanalteren/starred{/owner}{/repo}",
  "subscriptions_url": "https://api.github.com/users/ramonvanalteren/subscriptions",
  "organizations_url": "https://api.github.com/users/ramonvanalteren/orgs",
  "repos_url": "https://api.github.com/users/ramonvanalteren/repos",
  "events_url": "https://api.github.com/users/ramonvanalteren/events{/privacy}",
  "received_events_url": "https://api.github.com/users/ramonvanalteren/received_events",
  "type": "User",
  "site_admin": false,
  "contributions": 1
}
, {
  "login": "rharrison10",
  "id": 1234338,
  "avatar_url": "https://avatars.githubusercontent.com/u/1234338?v=3",
  "gravatar_id": "",
  "url": "https://api.github.com/users/rharrison10",
  "html_url": "https://github.com/rharrison10",
  "followers_url": "https://api.github.com/users/rharrison10/followers",
  "following_url": "https://api.github.com/users/rharrison10/following{/other_user}",
  "gists_url": "https://api.github.com/users/rharrison10/gists{/gist_id}",
  "starred_url": "https://api.github.com/users/rharrison10/starred{/owner}{/repo}",
  "subscriptions_url": "https://api.github.com/users/rharrison10/subscriptions",
  "organizations_url": "https://api.github.com/users/rharrison10/orgs",
  "repos_url": "https://api.github.com/users/rharrison10/repos",
  "events_url": "https://api.github.com/users/rharrison10/events{/privacy}",
  "received_events_url": "https://api.github.com/users/rharrison10/received_events",
  "type": "User",
  "site_admin": false,
  "contributions": 1
}
, {
  "login": "smoser",
  "id": 18865,
  "avatar_url": "https://avatars.githubusercontent.com/u/18865?v=3",
  "gravatar_id": "",
  "url": "https://api.github.com/users/smoser",
  "html_url": "https://github.com/smoser",
  "followers_url": "https://api.github.com/users/smoser/followers",
  "following_url": "https://api.github.com/users/smoser/following{/other_user}",
  "gists_url": "https://api.github.com/users/smoser/gists{/gist_id}",
  "starred_url": "https://api.github.com/users/smoser/starred{/owner}{/repo}",
  "subscriptions_url": "https://api.github.com/users/smoser/subscriptions",
  "organizations_url": "https://api.github.com/users/smoser/orgs",
  "repos_url": "https://api.github.com/users/smoser/repos",
  "events_url": "https://api.github.com/users/smoser/events{/privacy}",
  "received_events_url": "https://api.github.com/users/smoser/received_events",
  "type": "User",
  "site_admin": false,
  "contributions": 1
}
, {
  "login": "huiser",
  "id": 50897,
  "avatar_url": "https://avatars.githubusercontent.com/u/50897?v=3",
  "gravatar_id": "",
  "url": "https://api.github.com/users/huiser",
  "html_url": "https://github.com/huiser",
  "followers_url": "https://api.github.com/users/huiser/followers",
  "following_url": "https://api.github.com/users/huiser/following{/other_user}",
  "gists_url": "https://api.github.com/users/huiser/gists{/gist_id}",
  "starred_url": "https://api.github.com/users/huiser/starred{/owner}{/repo}",
  "subscriptions_url": "https://api.github.com/users/huiser/subscriptions",
  "organizations_url": "https://api.github.com/users/huiser/orgs",
  "repos_url": "https://api.github.com/users/huiser/repos",
  "events_url": "https://api.github.com/users/huiser/events{/privacy}",
  "received_events_url": "https://api.github.com/users/huiser/received_events",
  "type": "User",
  "site_admin": false,
  "contributions": 1
}
, {
  "login": "eQu1NoX",
  "id": 1166616,
  "avatar_url": "https://avatars.githubusercontent.com/u/1166616?v=3",
  "gravatar_id": "",
  "url": "https://api.github.com/users/eQu1NoX",
  "html_url": "https://github.com/eQu1NoX",
  "followers_url": "https://api.github.com/users/eQu1NoX/followers",
  "following_url": "https://api.github.com/users/eQu1NoX/following{/other_user}",
  "gists_url": "https://api.github.com/users/eQu1NoX/gists{/gist_id}",
  "starred_url": "https://api.github.com/users/eQu1NoX/starred{/owner}{/repo}",
  "subscriptions_url": "https://api.github.com/users/eQu1NoX/subscriptions",
  "organizations_url": "https://api.github.com/users/eQu1NoX/orgs",
  "repos_url": "https://api.github.com/users/eQu1NoX/repos",
  "events_url": "https://api.github.com/users/eQu1NoX/events{/privacy}",
  "received_events_url": "https://api.github.com/users/eQu1NoX/received_events",
  "type": "User",
  "site_admin": false,
  "contributions": 1
}
, {
  "login": "n0ts",
  "id": 19618,
  "avatar_url": "https://avatars.githubusercontent.com/u/19618?v=3",
  "gravatar_id": "",
  "url": "https://api.github.com/users/n0ts",
  "html_url": "https://github.com/n0ts",
  "followers_url": "https://api.github.com/users/n0ts/followers",
  "following_url": "https://api.github.com/users/n0ts/following{/other_user}",
  "gists_url": "https://api.github.com/users/n0ts/gists{/gist_id}",
  "starred_url": "https://api.github.com/users/n0ts/starred{/owner}{/repo}",
  "subscriptions_url": "https://api.github.com/users/n0ts/subscriptions",
  "organizations_url": "https://api.github.com/users/n0ts/orgs",
  "repos_url": "https://api.github.com/users/n0ts/repos",
  "events_url": "https://api.github.com/users/n0ts/events{/privacy}",
  "received_events_url": "https://api.github.com/users/n0ts/received_events",
  "type": "User",
  "site_admin": false,
  "contributions": 1
}
]
