[
{
  "url": "https://api.github.com/repos/thoughtbot/liftoff/issues/comments/44344868",
  "html_url": "https://github.com/thoughtbot/liftoff/issues/142#issuecomment-44344868",
  "issue_url": "https://api.github.com/repos/thoughtbot/liftoff/issues/142",
  "id": 44344868,
  "user": {
    "login": "keith",
    "id": 283886,
    "avatar_url": "https://avatars.githubusercontent.com/u/283886?v=3",
    "gravatar_id": "",
    "url": "https://api.github.com/users/keith",
    "html_url": "https://github.com/keith",
    "followers_url": "https://api.github.com/users/keith/followers",
    "following_url": "https://api.github.com/users/keith/following{/other_user}",
    "gists_url": "https://api.github.com/users/keith/gists{/gist_id}",
    "starred_url": "https://api.github.com/users/keith/starred{/owner}{/repo}",
    "subscriptions_url": "https://api.github.com/users/keith/subscriptions",
    "organizations_url": "https://api.github.com/users/keith/orgs",
    "repos_url": "https://api.github.com/users/keith/repos",
    "events_url": "https://api.github.com/users/keith/events{/privacy}",
    "received_events_url": "https://api.github.com/users/keith/received_events",
    "type": "User",
    "site_admin": false
  },
  "created_at": "2014-05-27T22:41:58Z",
  "updated_at": "2014-05-27T22:41:58Z",
  "body": "This brings up a thought about allowing arbitrary stuff like this in the configurations. I'm thinking something along the lines of this:\r\n\r\n```yaml\r\nother:\r\n  - debug:\r\n    - OTHER_LDFLAGS:\r\n      - foo\r\n  - release:\r\n    - bar\r\n  - both:\r\n    - baz\r\n```\r\n\r\nI'm not sure if this is the best idea but it could be pretty flexible and would remove the need for PRs like this: https://github.com/thoughtbot/liftoff/pull/160/files\r\n\r\n\r\nAnother possible configuration setting:\r\n\r\n```\r\nother_debug:\r\n   - foo\r\n\r\nother_release:\r\n  - bar\r\n\r\nother_all:\r\n  - baz\r\n```"
}
, {
  "url": "https://api.github.com/repos/thoughtbot/liftoff/issues/comments/44755661",
  "html_url": "https://github.com/thoughtbot/liftoff/issues/142#issuecomment-44755661",
  "issue_url": "https://api.github.com/repos/thoughtbot/liftoff/issues/142",
  "id": 44755661,
  "user": {
    "login": "gfontenot",
    "id": 124499,
    "avatar_url": "https://avatars.githubusercontent.com/u/124499?v=3",
    "gravatar_id": "",
    "url": "https://api.github.com/users/gfontenot",
    "html_url": "https://github.com/gfontenot",
    "followers_url": "https://api.github.com/users/gfontenot/followers",
    "following_url": "https://api.github.com/users/gfontenot/following{/other_user}",
    "gists_url": "https://api.github.com/users/gfontenot/gists{/gist_id}",
    "starred_url": "https://api.github.com/users/gfontenot/starred{/owner}{/repo}",
    "subscriptions_url": "https://api.github.com/users/gfontenot/subscriptions",
    "organizations_url": "https://api.github.com/users/gfontenot/orgs",
    "repos_url": "https://api.github.com/users/gfontenot/repos",
    "events_url": "https://api.github.com/users/gfontenot/events{/privacy}",
    "received_events_url": "https://api.github.com/users/gfontenot/received_events",
    "type": "User",
    "site_admin": false
  },
  "created_at": "2014-05-31T18:25:30Z",
  "updated_at": "2014-05-31T18:25:30Z",
  "body": "Yeah, I feel like this is a slippery slope, in terms of configuration keys. What we have now makes sense, but it could quickly get out of hand hitting all of the edge cases. @Keithbsmiley I think your first suggestion makes sense (and I would prefer it over #160), but instead of `both`, I think we should probably use `all`."
}
, {
  "url": "https://api.github.com/repos/thoughtbot/liftoff/issues/comments/44756286",
  "html_url": "https://github.com/thoughtbot/liftoff/issues/142#issuecomment-44756286",
  "issue_url": "https://api.github.com/repos/thoughtbot/liftoff/issues/142",
  "id": 44756286,
  "user": {
    "login": "keith",
    "id": 283886,
    "avatar_url": "https://avatars.githubusercontent.com/u/283886?v=3",
    "gravatar_id": "",
    "url": "https://api.github.com/users/keith",
    "html_url": "https://github.com/keith",
    "followers_url": "https://api.github.com/users/keith/followers",
    "following_url": "https://api.github.com/users/keith/following{/other_user}",
    "gists_url": "https://api.github.com/users/keith/gists{/gist_id}",
    "starred_url": "https://api.github.com/users/keith/starred{/owner}{/repo}",
    "subscriptions_url": "https://api.github.com/users/keith/subscriptions",
    "organizations_url": "https://api.github.com/users/keith/orgs",
    "repos_url": "https://api.github.com/users/keith/repos",
    "events_url": "https://api.github.com/users/keith/events{/privacy}",
    "received_events_url": "https://api.github.com/users/keith/received_events",
    "type": "User",
    "site_admin": false
  },
  "created_at": "2014-05-31T18:48:20Z",
  "updated_at": "2014-05-31T18:48:20Z",
  "body": "Yes when I wrote the second snippet I realized `all` made much more sense than `both`"
}
, {
  "url": "https://api.github.com/repos/thoughtbot/liftoff/issues/comments/44757236",
  "html_url": "https://github.com/thoughtbot/liftoff/issues/142#issuecomment-44757236",
  "issue_url": "https://api.github.com/repos/thoughtbot/liftoff/issues/142",
  "id": 44757236,
  "user": {
    "login": "keith",
    "id": 283886,
    "avatar_url": "https://avatars.githubusercontent.com/u/283886?v=3",
    "gravatar_id": "",
    "url": "https://api.github.com/users/keith",
    "html_url": "https://github.com/keith",
    "followers_url": "https://api.github.com/users/keith/followers",
    "following_url": "https://api.github.com/users/keith/following{/other_user}",
    "gists_url": "https://api.github.com/users/keith/gists{/gist_id}",
    "starred_url": "https://api.github.com/users/keith/starred{/owner}{/repo}",
    "subscriptions_url": "https://api.github.com/users/keith/subscriptions",
    "organizations_url": "https://api.github.com/users/keith/orgs",
    "repos_url": "https://api.github.com/users/keith/repos",
    "events_url": "https://api.github.com/users/keith/events{/privacy}",
    "received_events_url": "https://api.github.com/users/keith/received_events",
    "type": "User",
    "site_admin": false
  },
  "created_at": "2014-05-31T19:26:06Z",
  "updated_at": "2014-05-31T19:26:06Z",
  "body": "Also this could allow arbitrary names of schemes."
}
, {
  "url": "https://api.github.com/repos/thoughtbot/liftoff/issues/comments/57240038",
  "html_url": "https://github.com/thoughtbot/liftoff/issues/142#issuecomment-57240038",
  "issue_url": "https://api.github.com/repos/thoughtbot/liftoff/issues/142",
  "id": 57240038,
  "user": {
    "login": "gfontenot",
    "id": 124499,
    "avatar_url": "https://avatars.githubusercontent.com/u/124499?v=3",
    "gravatar_id": "",
    "url": "https://api.github.com/users/gfontenot",
    "html_url": "https://github.com/gfontenot",
    "followers_url": "https://api.github.com/users/gfontenot/followers",
    "following_url": "https://api.github.com/users/gfontenot/following{/other_user}",
    "gists_url": "https://api.github.com/users/gfontenot/gists{/gist_id}",
    "starred_url": "https://api.github.com/users/gfontenot/starred{/owner}{/repo}",
    "subscriptions_url": "https://api.github.com/users/gfontenot/subscriptions",
    "organizations_url": "https://api.github.com/users/gfontenot/orgs",
    "repos_url": "https://api.github.com/users/gfontenot/repos",
    "events_url": "https://api.github.com/users/gfontenot/events{/privacy}",
    "received_events_url": "https://api.github.com/users/gfontenot/received_events",
    "type": "User",
    "site_admin": false
  },
  "created_at": "2014-09-29T22:24:14Z",
  "updated_at": "2014-09-29T22:24:14Z",
  "body": "See #174 for the implementation of this."
}
, {
  "url": "https://api.github.com/repos/thoughtbot/liftoff/issues/comments/57361755",
  "html_url": "https://github.com/thoughtbot/liftoff/issues/142#issuecomment-57361755",
  "issue_url": "https://api.github.com/repos/thoughtbot/liftoff/issues/142",
  "id": 57361755,
  "user": {
    "login": "gfontenot",
    "id": 124499,
    "avatar_url": "https://avatars.githubusercontent.com/u/124499?v=3",
    "gravatar_id": "",
    "url": "https://api.github.com/users/gfontenot",
    "html_url": "https://github.com/gfontenot",
    "followers_url": "https://api.github.com/users/gfontenot/followers",
    "following_url": "https://api.github.com/users/gfontenot/following{/other_user}",
    "gists_url": "https://api.github.com/users/gfontenot/gists{/gist_id}",
    "starred_url": "https://api.github.com/users/gfontenot/starred{/owner}{/repo}",
    "subscriptions_url": "https://api.github.com/users/gfontenot/subscriptions",
    "organizations_url": "https://api.github.com/users/gfontenot/orgs",
    "repos_url": "https://api.github.com/users/gfontenot/repos",
    "events_url": "https://api.github.com/users/gfontenot/events{/privacy}",
    "received_events_url": "https://api.github.com/users/gfontenot/received_events",
    "type": "User",
    "site_admin": false
  },
  "created_at": "2014-09-30T18:41:26Z",
  "updated_at": "2014-09-30T18:41:26Z",
  "body": "This will be live in the next release."
}
]
