[
{
  "url": "https://api.github.com/repos/aws/aws-sdk-android/issues/comments/157639184",
  "html_url": "https://github.com/aws/aws-sdk-android/issues/76#issuecomment-157639184",
  "issue_url": "https://api.github.com/repos/aws/aws-sdk-android/issues/76",
  "id": 157639184,
  "user": {
    "login": "fosterzhang",
    "id": 4554934,
    "avatar_url": "https://avatars.githubusercontent.com/u/4554934?v=3",
    "gravatar_id": "",
    "url": "https://api.github.com/users/fosterzhang",
    "html_url": "https://github.com/fosterzhang",
    "followers_url": "https://api.github.com/users/fosterzhang/followers",
    "following_url": "https://api.github.com/users/fosterzhang/following{/other_user}",
    "gists_url": "https://api.github.com/users/fosterzhang/gists{/gist_id}",
    "starred_url": "https://api.github.com/users/fosterzhang/starred{/owner}{/repo}",
    "subscriptions_url": "https://api.github.com/users/fosterzhang/subscriptions",
    "organizations_url": "https://api.github.com/users/fosterzhang/orgs",
    "repos_url": "https://api.github.com/users/fosterzhang/repos",
    "events_url": "https://api.github.com/users/fosterzhang/events{/privacy}",
    "received_events_url": "https://api.github.com/users/fosterzhang/received_events",
    "type": "User",
    "site_admin": false
  },
  "created_at": "2015-11-18T08:05:02Z",
  "updated_at": "2015-11-18T08:05:02Z",
  "body": "@rimeissner Usually Android uses the best available SSL protocol to handshake with remote server. There is no need to force a particular protocol. The SDK prefers to rely on the platform behavior unless there is a compelling reason not to do so.\r\n\r\nIf you want to play with it, you probably need to manipulate [SSLSocket](http://developer.android.com/reference/javax/net/ssl/SSLSocket.html)."
}
, {
  "url": "https://api.github.com/repos/aws/aws-sdk-android/issues/comments/159373266",
  "html_url": "https://github.com/aws/aws-sdk-android/issues/76#issuecomment-159373266",
  "issue_url": "https://api.github.com/repos/aws/aws-sdk-android/issues/76",
  "id": 159373266,
  "user": {
    "login": "fosterzhang",
    "id": 4554934,
    "avatar_url": "https://avatars.githubusercontent.com/u/4554934?v=3",
    "gravatar_id": "",
    "url": "https://api.github.com/users/fosterzhang",
    "html_url": "https://github.com/fosterzhang",
    "followers_url": "https://api.github.com/users/fosterzhang/followers",
    "following_url": "https://api.github.com/users/fosterzhang/following{/other_user}",
    "gists_url": "https://api.github.com/users/fosterzhang/gists{/gist_id}",
    "starred_url": "https://api.github.com/users/fosterzhang/starred{/owner}{/repo}",
    "subscriptions_url": "https://api.github.com/users/fosterzhang/subscriptions",
    "organizations_url": "https://api.github.com/users/fosterzhang/orgs",
    "repos_url": "https://api.github.com/users/fosterzhang/repos",
    "events_url": "https://api.github.com/users/fosterzhang/events{/privacy}",
    "received_events_url": "https://api.github.com/users/fosterzhang/received_events",
    "type": "User",
    "site_admin": false
  },
  "created_at": "2015-11-24T19:00:34Z",
  "updated_at": "2015-11-24T19:00:34Z",
  "body": "Close this as it's not related to the SDK."
}
]
