[
{
  "login": "microbuilder",
  "id": 181073,
  "avatar_url": "https://avatars.githubusercontent.com/u/181073?v=3",
  "gravatar_id": "",
  "url": "https://api.github.com/users/microbuilder",
  "html_url": "https://github.com/microbuilder",
  "followers_url": "https://api.github.com/users/microbuilder/followers",
  "following_url": "https://api.github.com/users/microbuilder/following{/other_user}",
  "gists_url": "https://api.github.com/users/microbuilder/gists{/gist_id}",
  "starred_url": "https://api.github.com/users/microbuilder/starred{/owner}{/repo}",
  "subscriptions_url": "https://api.github.com/users/microbuilder/subscriptions",
  "organizations_url": "https://api.github.com/users/microbuilder/orgs",
  "repos_url": "https://api.github.com/users/microbuilder/repos",
  "events_url": "https://api.github.com/users/microbuilder/events{/privacy}",
  "received_events_url": "https://api.github.com/users/microbuilder/received_events",
  "type": "User",
  "site_admin": false
}
, {
  "login": "jwcooper",
  "id": 311256,
  "avatar_url": "https://avatars.githubusercontent.com/u/311256?v=3",
  "gravatar_id": "",
  "url": "https://api.github.com/users/jwcooper",
  "html_url": "https://github.com/jwcooper",
  "followers_url": "https://api.github.com/users/jwcooper/followers",
  "following_url": "https://api.github.com/users/jwcooper/following{/other_user}",
  "gists_url": "https://api.github.com/users/jwcooper/gists{/gist_id}",
  "starred_url": "https://api.github.com/users/jwcooper/starred{/owner}{/repo}",
  "subscriptions_url": "https://api.github.com/users/jwcooper/subscriptions",
  "organizations_url": "https://api.github.com/users/jwcooper/orgs",
  "repos_url": "https://api.github.com/users/jwcooper/repos",
  "events_url": "https://api.github.com/users/jwcooper/events{/privacy}",
  "received_events_url": "https://api.github.com/users/jwcooper/received_events",
  "type": "User",
  "site_admin": false
}
, {
  "login": "bekathwia",
  "id": 443264,
  "avatar_url": "https://avatars.githubusercontent.com/u/443264?v=3",
  "gravatar_id": "",
  "url": "https://api.github.com/users/bekathwia",
  "html_url": "https://github.com/bekathwia",
  "followers_url": "https://api.github.com/users/bekathwia/followers",
  "following_url": "https://api.github.com/users/bekathwia/following{/other_user}",
  "gists_url": "https://api.github.com/users/bekathwia/gists{/gist_id}",
  "starred_url": "https://api.github.com/users/bekathwia/starred{/owner}{/repo}",
  "subscriptions_url": "https://api.github.com/users/bekathwia/subscriptions",
  "organizations_url": "https://api.github.com/users/bekathwia/orgs",
  "repos_url": "https://api.github.com/users/bekathwia/repos",
  "events_url": "https://api.github.com/users/bekathwia/events{/privacy}",
  "received_events_url": "https://api.github.com/users/bekathwia/received_events",
  "type": "User",
  "site_admin": false
}
, {
  "login": "CupNoodles",
  "id": 865850,
  "avatar_url": "https://avatars.githubusercontent.com/u/865850?v=3",
  "gravatar_id": "",
  "url": "https://api.github.com/users/CupNoodles",
  "html_url": "https://github.com/CupNoodles",
  "followers_url": "https://api.github.com/users/CupNoodles/followers",
  "following_url": "https://api.github.com/users/CupNoodles/following{/other_user}",
  "gists_url": "https://api.github.com/users/CupNoodles/gists{/gist_id}",
  "starred_url": "https://api.github.com/users/CupNoodles/starred{/owner}{/repo}",
  "subscriptions_url": "https://api.github.com/users/CupNoodles/subscriptions",
  "organizations_url": "https://api.github.com/users/CupNoodles/orgs",
  "repos_url": "https://api.github.com/users/CupNoodles/repos",
  "events_url": "https://api.github.com/users/CupNoodles/events{/privacy}",
  "received_events_url": "https://api.github.com/users/CupNoodles/received_events",
  "type": "User",
  "site_admin": false
}
, {
  "login": "PaintYourDragon",
  "id": 887611,
  "avatar_url": "https://avatars.githubusercontent.com/u/887611?v=3",
  "gravatar_id": "",
  "url": "https://api.github.com/users/PaintYourDragon",
  "html_url": "https://github.com/PaintYourDragon",
  "followers_url": "https://api.github.com/users/PaintYourDragon/followers",
  "following_url": "https://api.github.com/users/PaintYourDragon/following{/other_user}",
  "gists_url": "https://api.github.com/users/PaintYourDragon/gists{/gist_id}",
  "starred_url": "https://api.github.com/users/PaintYourDragon/starred{/owner}{/repo}",
  "subscriptions_url": "https://api.github.com/users/PaintYourDragon/subscriptions",
  "organizations_url": "https://api.github.com/users/PaintYourDragon/orgs",
  "repos_url": "https://api.github.com/users/PaintYourDragon/repos",
  "events_url": "https://api.github.com/users/PaintYourDragon/events{/privacy}",
  "received_events_url": "https://api.github.com/users/PaintYourDragon/received_events",
  "type": "User",
  "site_admin": false
}
, {
  "login": "tylerdcooper",
  "id": 1672997,
  "avatar_url": "https://avatars.githubusercontent.com/u/1672997?v=3",
  "gravatar_id": "",
  "url": "https://api.github.com/users/tylerdcooper",
  "html_url": "https://github.com/tylerdcooper",
  "followers_url": "https://api.github.com/users/tylerdcooper/followers",
  "following_url": "https://api.github.com/users/tylerdcooper/following{/other_user}",
  "gists_url": "https://api.github.com/users/tylerdcooper/gists{/gist_id}",
  "starred_url": "https://api.github.com/users/tylerdcooper/starred{/owner}{/repo}",
  "subscriptions_url": "https://api.github.com/users/tylerdcooper/subscriptions",
  "organizations_url": "https://api.github.com/users/tylerdcooper/orgs",
  "repos_url": "https://api.github.com/users/tylerdcooper/repos",
  "events_url": "https://api.github.com/users/tylerdcooper/events{/privacy}",
  "received_events_url": "https://api.github.com/users/tylerdcooper/received_events",
  "type": "User",
  "site_admin": false
}
, {
  "login": "ptorrone",
  "id": 1685947,
  "avatar_url": "https://avatars.githubusercontent.com/u/1685947?v=3",
  "gravatar_id": "",
  "url": "https://api.github.com/users/ptorrone",
  "html_url": "https://github.com/ptorrone",
  "followers_url": "https://api.github.com/users/ptorrone/followers",
  "following_url": "https://api.github.com/users/ptorrone/following{/other_user}",
  "gists_url": "https://api.github.com/users/ptorrone/gists{/gist_id}",
  "starred_url": "https://api.github.com/users/ptorrone/starred{/owner}{/repo}",
  "subscriptions_url": "https://api.github.com/users/ptorrone/subscriptions",
  "organizations_url": "https://api.github.com/users/ptorrone/orgs",
  "repos_url": "https://api.github.com/users/ptorrone/repos",
  "events_url": "https://api.github.com/users/ptorrone/events{/privacy}",
  "received_events_url": "https://api.github.com/users/ptorrone/received_events",
  "type": "User",
  "site_admin": false
}
, {
  "login": "martymcguire",
  "id": 14772,
  "avatar_url": "https://avatars.githubusercontent.com/u/14772?v=3",
  "gravatar_id": "",
  "url": "https://api.github.com/users/martymcguire",
  "html_url": "https://github.com/martymcguire",
  "followers_url": "https://api.github.com/users/martymcguire/followers",
  "following_url": "https://api.github.com/users/martymcguire/following{/other_user}",
  "gists_url": "https://api.github.com/users/martymcguire/gists{/gist_id}",
  "starred_url": "https://api.github.com/users/martymcguire/starred{/owner}{/repo}",
  "subscriptions_url": "https://api.github.com/users/martymcguire/subscriptions",
  "organizations_url": "https://api.github.com/users/martymcguire/orgs",
  "repos_url": "https://api.github.com/users/martymcguire/repos",
  "events_url": "https://api.github.com/users/martymcguire/events{/privacy}",
  "received_events_url": "https://api.github.com/users/martymcguire/received_events",
  "type": "User",
  "site_admin": false
}
, {
  "login": "iworkinpixels",
  "id": 1134283,
  "avatar_url": "https://avatars.githubusercontent.com/u/1134283?v=3",
  "gravatar_id": "",
  "url": "https://api.github.com/users/iworkinpixels",
  "html_url": "https://github.com/iworkinpixels",
  "followers_url": "https://api.github.com/users/iworkinpixels/followers",
  "following_url": "https://api.github.com/users/iworkinpixels/following{/other_user}",
  "gists_url": "https://api.github.com/users/iworkinpixels/gists{/gist_id}",
  "starred_url": "https://api.github.com/users/iworkinpixels/starred{/owner}{/repo}",
  "subscriptions_url": "https://api.github.com/users/iworkinpixels/subscriptions",
  "organizations_url": "https://api.github.com/users/iworkinpixels/orgs",
  "repos_url": "https://api.github.com/users/iworkinpixels/repos",
  "events_url": "https://api.github.com/users/iworkinpixels/events{/privacy}",
  "received_events_url": "https://api.github.com/users/iworkinpixels/received_events",
  "type": "User",
  "site_admin": false
}
, {
  "login": "jgtech",
  "id": 6511101,
  "avatar_url": "https://avatars.githubusercontent.com/u/6511101?v=3",
  "gravatar_id": "",
  "url": "https://api.github.com/users/jgtech",
  "html_url": "https://github.com/jgtech",
  "followers_url": "https://api.github.com/users/jgtech/followers",
  "following_url": "https://api.github.com/users/jgtech/following{/other_user}",
  "gists_url": "https://api.github.com/users/jgtech/gists{/gist_id}",
  "starred_url": "https://api.github.com/users/jgtech/starred{/owner}{/repo}",
  "subscriptions_url": "https://api.github.com/users/jgtech/subscriptions",
  "organizations_url": "https://api.github.com/users/jgtech/orgs",
  "repos_url": "https://api.github.com/users/jgtech/repos",
  "events_url": "https://api.github.com/users/jgtech/events{/privacy}",
  "received_events_url": "https://api.github.com/users/jgtech/received_events",
  "type": "User",
  "site_admin": false
}
, {
  "login": "dkobozev",
  "id": 241236,
  "avatar_url": "https://avatars.githubusercontent.com/u/241236?v=3",
  "gravatar_id": "",
  "url": "https://api.github.com/users/dkobozev",
  "html_url": "https://github.com/dkobozev",
  "followers_url": "https://api.github.com/users/dkobozev/followers",
  "following_url": "https://api.github.com/users/dkobozev/following{/other_user}",
  "gists_url": "https://api.github.com/users/dkobozev/gists{/gist_id}",
  "starred_url": "https://api.github.com/users/dkobozev/starred{/owner}{/repo}",
  "subscriptions_url": "https://api.github.com/users/dkobozev/subscriptions",
  "organizations_url": "https://api.github.com/users/dkobozev/orgs",
  "repos_url": "https://api.github.com/users/dkobozev/repos",
  "events_url": "https://api.github.com/users/dkobozev/events{/privacy}",
  "received_events_url": "https://api.github.com/users/dkobozev/received_events",
  "type": "User",
  "site_admin": false
}
, {
  "login": "deanm1278",
  "id": 6306234,
  "avatar_url": "https://avatars.githubusercontent.com/u/6306234?v=3",
  "gravatar_id": "",
  "url": "https://api.github.com/users/deanm1278",
  "html_url": "https://github.com/deanm1278",
  "followers_url": "https://api.github.com/users/deanm1278/followers",
  "following_url": "https://api.github.com/users/deanm1278/following{/other_user}",
  "gists_url": "https://api.github.com/users/deanm1278/gists{/gist_id}",
  "starred_url": "https://api.github.com/users/deanm1278/starred{/owner}{/repo}",
  "subscriptions_url": "https://api.github.com/users/deanm1278/subscriptions",
  "organizations_url": "https://api.github.com/users/deanm1278/orgs",
  "repos_url": "https://api.github.com/users/deanm1278/repos",
  "events_url": "https://api.github.com/users/deanm1278/events{/privacy}",
  "received_events_url": "https://api.github.com/users/deanm1278/received_events",
  "type": "User",
  "site_admin": false
}
, {
  "login": "mike-rankin",
  "id": 4991664,
  "avatar_url": "https://avatars.githubusercontent.com/u/4991664?v=3",
  "gravatar_id": "",
  "url": "https://api.github.com/users/mike-rankin",
  "html_url": "https://github.com/mike-rankin",
  "followers_url": "https://api.github.com/users/mike-rankin/followers",
  "following_url": "https://api.github.com/users/mike-rankin/following{/other_user}",
  "gists_url": "https://api.github.com/users/mike-rankin/gists{/gist_id}",
  "starred_url": "https://api.github.com/users/mike-rankin/starred{/owner}{/repo}",
  "subscriptions_url": "https://api.github.com/users/mike-rankin/subscriptions",
  "organizations_url": "https://api.github.com/users/mike-rankin/orgs",
  "repos_url": "https://api.github.com/users/mike-rankin/repos",
  "events_url": "https://api.github.com/users/mike-rankin/events{/privacy}",
  "received_events_url": "https://api.github.com/users/mike-rankin/received_events",
  "type": "User",
  "site_admin": false
}
, {
  "login": "bluntmonkey",
  "id": 7694417,
  "avatar_url": "https://avatars.githubusercontent.com/u/7694417?v=3",
  "gravatar_id": "",
  "url": "https://api.github.com/users/bluntmonkey",
  "html_url": "https://github.com/bluntmonkey",
  "followers_url": "https://api.github.com/users/bluntmonkey/followers",
  "following_url": "https://api.github.com/users/bluntmonkey/following{/other_user}",
  "gists_url": "https://api.github.com/users/bluntmonkey/gists{/gist_id}",
  "starred_url": "https://api.github.com/users/bluntmonkey/starred{/owner}{/repo}",
  "subscriptions_url": "https://api.github.com/users/bluntmonkey/subscriptions",
  "organizations_url": "https://api.github.com/users/bluntmonkey/orgs",
  "repos_url": "https://api.github.com/users/bluntmonkey/repos",
  "events_url": "https://api.github.com/users/bluntmonkey/events{/privacy}",
  "received_events_url": "https://api.github.com/users/bluntmonkey/received_events",
  "type": "User",
  "site_admin": false
}
, {
  "login": "yum1636",
  "id": 9466358,
  "avatar_url": "https://avatars.githubusercontent.com/u/9466358?v=3",
  "gravatar_id": "",
  "url": "https://api.github.com/users/yum1636",
  "html_url": "https://github.com/yum1636",
  "followers_url": "https://api.github.com/users/yum1636/followers",
  "following_url": "https://api.github.com/users/yum1636/following{/other_user}",
  "gists_url": "https://api.github.com/users/yum1636/gists{/gist_id}",
  "starred_url": "https://api.github.com/users/yum1636/starred{/owner}{/repo}",
  "subscriptions_url": "https://api.github.com/users/yum1636/subscriptions",
  "organizations_url": "https://api.github.com/users/yum1636/orgs",
  "repos_url": "https://api.github.com/users/yum1636/repos",
  "events_url": "https://api.github.com/users/yum1636/events{/privacy}",
  "received_events_url": "https://api.github.com/users/yum1636/received_events",
  "type": "User",
  "site_admin": false
}
, {
  "login": "magneval",
  "id": 1663017,
  "avatar_url": "https://avatars.githubusercontent.com/u/1663017?v=3",
  "gravatar_id": "",
  "url": "https://api.github.com/users/magneval",
  "html_url": "https://github.com/magneval",
  "followers_url": "https://api.github.com/users/magneval/followers",
  "following_url": "https://api.github.com/users/magneval/following{/other_user}",
  "gists_url": "https://api.github.com/users/magneval/gists{/gist_id}",
  "starred_url": "https://api.github.com/users/magneval/starred{/owner}{/repo}",
  "subscriptions_url": "https://api.github.com/users/magneval/subscriptions",
  "organizations_url": "https://api.github.com/users/magneval/orgs",
  "repos_url": "https://api.github.com/users/magneval/repos",
  "events_url": "https://api.github.com/users/magneval/events{/privacy}",
  "received_events_url": "https://api.github.com/users/magneval/received_events",
  "type": "User",
  "site_admin": false
}
, {
  "login": "ClashC",
  "id": 6568913,
  "avatar_url": "https://avatars.githubusercontent.com/u/6568913?v=3",
  "gravatar_id": "",
  "url": "https://api.github.com/users/ClashC",
  "html_url": "https://github.com/ClashC",
  "followers_url": "https://api.github.com/users/ClashC/followers",
  "following_url": "https://api.github.com/users/ClashC/following{/other_user}",
  "gists_url": "https://api.github.com/users/ClashC/gists{/gist_id}",
  "starred_url": "https://api.github.com/users/ClashC/starred{/owner}{/repo}",
  "subscriptions_url": "https://api.github.com/users/ClashC/subscriptions",
  "organizations_url": "https://api.github.com/users/ClashC/orgs",
  "repos_url": "https://api.github.com/users/ClashC/repos",
  "events_url": "https://api.github.com/users/ClashC/events{/privacy}",
  "received_events_url": "https://api.github.com/users/ClashC/received_events",
  "type": "User",
  "site_admin": false
}
, {
  "login": "jmzjmzjmz",
  "id": 1585659,
  "avatar_url": "https://avatars.githubusercontent.com/u/1585659?v=3",
  "gravatar_id": "",
  "url": "https://api.github.com/users/jmzjmzjmz",
  "html_url": "https://github.com/jmzjmzjmz",
  "followers_url": "https://api.github.com/users/jmzjmzjmz/followers",
  "following_url": "https://api.github.com/users/jmzjmzjmz/following{/other_user}",
  "gists_url": "https://api.github.com/users/jmzjmzjmz/gists{/gist_id}",
  "starred_url": "https://api.github.com/users/jmzjmzjmz/starred{/owner}{/repo}",
  "subscriptions_url": "https://api.github.com/users/jmzjmzjmz/subscriptions",
  "organizations_url": "https://api.github.com/users/jmzjmzjmz/orgs",
  "repos_url": "https://api.github.com/users/jmzjmzjmz/repos",
  "events_url": "https://api.github.com/users/jmzjmzjmz/events{/privacy}",
  "received_events_url": "https://api.github.com/users/jmzjmzjmz/received_events",
  "type": "User",
  "site_admin": false
}
]
