[
{
  "url": "https://api.github.com/repos/JetBrains/tc-sbt-runner/issues/10",
  "labels_url": "https://api.github.com/repos/JetBrains/tc-sbt-runner/issues/10/labels{/name}",
  "comments_url": "https://api.github.com/repos/JetBrains/tc-sbt-runner/issues/10/comments",
  "events_url": "https://api.github.com/repos/JetBrains/tc-sbt-runner/issues/10/events",
  "html_url": "https://github.com/JetBrains/tc-sbt-runner/issues/10",
  "id": 121316567,
  "number": 10,
  "title": "~/",
  "user": {
    "login": "kvenkataraman",
    "id": 11823566,
    "avatar_url": "https://avatars.githubusercontent.com/u/11823566?v=3",
    "gravatar_id": "",
    "url": "https://api.github.com/users/kvenkataraman",
    "html_url": "https://github.com/kvenkataraman",
    "followers_url": "https://api.github.com/users/kvenkataraman/followers",
    "following_url": "https://api.github.com/users/kvenkataraman/following{/other_user}",
    "gists_url": "https://api.github.com/users/kvenkataraman/gists{/gist_id}",
    "starred_url": "https://api.github.com/users/kvenkataraman/starred{/owner}{/repo}",
    "subscriptions_url": "https://api.github.com/users/kvenkataraman/subscriptions",
    "organizations_url": "https://api.github.com/users/kvenkataraman/orgs",
    "repos_url": "https://api.github.com/users/kvenkataraman/repos",
    "events_url": "https://api.github.com/users/kvenkataraman/events{/privacy}",
    "received_events_url": "https://api.github.com/users/kvenkataraman/received_events",
    "type": "User",
    "site_admin": false
  },
  "labels": [],
  "state": "open",
  "locked": false,
  "assignee": null,
  "milestone": null,
  "comments": 0,
  "created_at": "2015-12-09T19:06:16Z",
  "updated_at": "2015-12-09T19:06:16Z",
  "closed_at": null,
  "body": ""
}
, {
  "url": "https://api.github.com/repos/JetBrains/tc-sbt-runner/issues/9",
  "labels_url": "https://api.github.com/repos/JetBrains/tc-sbt-runner/issues/9/labels{/name}",
  "comments_url": "https://api.github.com/repos/JetBrains/tc-sbt-runner/issues/9/comments",
  "events_url": "https://api.github.com/repos/JetBrains/tc-sbt-runner/issues/9/events",
  "html_url": "https://github.com/JetBrains/tc-sbt-runner/pull/9",
  "id": 96597674,
  "number": 9,
  "title": "Fixed JAVA_HOME value.",
  "user": {
    "login": "seanparsons",
    "id": 217400,
    "avatar_url": "https://avatars.githubusercontent.com/u/217400?v=3",
    "gravatar_id": "",
    "url": "https://api.github.com/users/seanparsons",
    "html_url": "https://github.com/seanparsons",
    "followers_url": "https://api.github.com/users/seanparsons/followers",
    "following_url": "https://api.github.com/users/seanparsons/following{/other_user}",
    "gists_url": "https://api.github.com/users/seanparsons/gists{/gist_id}",
    "starred_url": "https://api.github.com/users/seanparsons/starred{/owner}{/repo}",
    "subscriptions_url": "https://api.github.com/users/seanparsons/subscriptions",
    "organizations_url": "https://api.github.com/users/seanparsons/orgs",
    "repos_url": "https://api.github.com/users/seanparsons/repos",
    "events_url": "https://api.github.com/users/seanparsons/events{/privacy}",
    "received_events_url": "https://api.github.com/users/seanparsons/received_events",
    "type": "User",
    "site_admin": false
  },
  "labels": [],
  "state": "open",
  "locked": false,
  "assignee": null,
  "milestone": null,
  "comments": 0,
  "created_at": "2015-07-22T15:40:58Z",
  "updated_at": "2015-07-22T15:40:58Z",
  "closed_at": null,
  "pull_request": {
    "url": "https://api.github.com/repos/JetBrains/tc-sbt-runner/pulls/9",
    "html_url": "https://github.com/JetBrains/tc-sbt-runner/pull/9",
    "diff_url": "https://github.com/JetBrains/tc-sbt-runner/pull/9.diff",
    "patch_url": "https://github.com/JetBrains/tc-sbt-runner/pull/9.patch"
  },
  "body": "Corrected the setting of JAVA_HOME to javaHome and not sbtHome."
}
, {
  "url": "https://api.github.com/repos/JetBrains/tc-sbt-runner/issues/6",
  "labels_url": "https://api.github.com/repos/JetBrains/tc-sbt-runner/issues/6/labels{/name}",
  "comments_url": "https://api.github.com/repos/JetBrains/tc-sbt-runner/issues/6/comments",
  "events_url": "https://api.github.com/repos/JetBrains/tc-sbt-runner/issues/6/events",
  "html_url": "https://github.com/JetBrains/tc-sbt-runner/issues/6",
  "id": 55315798,
  "number": 6,
  "title": "Teamcity 9 Version",
  "user": {
    "login": "timt",
    "id": 506870,
    "avatar_url": "https://avatars.githubusercontent.com/u/506870?v=3",
    "gravatar_id": "",
    "url": "https://api.github.com/users/timt",
    "html_url": "https://github.com/timt",
    "followers_url": "https://api.github.com/users/timt/followers",
    "following_url": "https://api.github.com/users/timt/following{/other_user}",
    "gists_url": "https://api.github.com/users/timt/gists{/gist_id}",
    "starred_url": "https://api.github.com/users/timt/starred{/owner}{/repo}",
    "subscriptions_url": "https://api.github.com/users/timt/subscriptions",
    "organizations_url": "https://api.github.com/users/timt/orgs",
    "repos_url": "https://api.github.com/users/timt/repos",
    "events_url": "https://api.github.com/users/timt/events{/privacy}",
    "received_events_url": "https://api.github.com/users/timt/received_events",
    "type": "User",
    "site_admin": false
  },
  "labels": [],
  "state": "open",
  "locked": false,
  "assignee": null,
  "milestone": null,
  "comments": 1,
  "created_at": "2015-01-23T18:35:31Z",
  "updated_at": "2015-01-23T20:16:17Z",
  "closed_at": null,
  "body": "When will there be  version for TC 9?"
}
, {
  "url": "https://api.github.com/repos/JetBrains/tc-sbt-runner/issues/5",
  "labels_url": "https://api.github.com/repos/JetBrains/tc-sbt-runner/issues/5/labels{/name}",
  "comments_url": "https://api.github.com/repos/JetBrains/tc-sbt-runner/issues/5/comments",
  "events_url": "https://api.github.com/repos/JetBrains/tc-sbt-runner/issues/5/events",
  "html_url": "https://github.com/JetBrains/tc-sbt-runner/issues/5",
  "id": 52727789,
  "number": 5,
  "title": "unexplained \"Process exited with code 1\"",
  "user": {
    "login": "nafg",
    "id": 98384,
    "avatar_url": "https://avatars.githubusercontent.com/u/98384?v=3",
    "gravatar_id": "",
    "url": "https://api.github.com/users/nafg",
    "html_url": "https://github.com/nafg",
    "followers_url": "https://api.github.com/users/nafg/followers",
    "following_url": "https://api.github.com/users/nafg/following{/other_user}",
    "gists_url": "https://api.github.com/users/nafg/gists{/gist_id}",
    "starred_url": "https://api.github.com/users/nafg/starred{/owner}{/repo}",
    "subscriptions_url": "https://api.github.com/users/nafg/subscriptions",
    "organizations_url": "https://api.github.com/users/nafg/orgs",
    "repos_url": "https://api.github.com/users/nafg/repos",
    "events_url": "https://api.github.com/users/nafg/events{/privacy}",
    "received_events_url": "https://api.github.com/users/nafg/received_events",
    "type": "User",
    "site_admin": false
  },
  "labels": [],
  "state": "open",
  "locked": false,
  "assignee": null,
  "milestone": null,
  "comments": 2,
  "created_at": "2014-12-23T09:59:35Z",
  "updated_at": "2015-09-18T11:19:48Z",
  "closed_at": null,
  "body": "Please help! My sbt build step keeps failing in TeamCity 9. Here's the log:\r\n\r\n\r\n```\r\n[04:53:53]i: TeamCity server version is 9.0 (build 32060)\r\n[04:53:53]E: bt1 (31s)\r\n[04:53:53] : Checking for changes (running for 31s)\r\n[04:53:53] : Collecting changes in 1 VCS root\r\n[04:53:53] :\t [Collecting changes in 1 VCS root] VCS Root details\r\n[04:53:53] :\t\t [VCS Root details] \"JJ-ASM\" {instance id=5, parent internal id=1, parent id=JjAsm_JjAs, description: \"git@github.com:XXXXXXXX.git#refs/heads/master\"}\r\n[04:53:54]i:\t [Collecting changes in 1 VCS root] Waiting for completion of current operations for the VCS root 'JJ-ASM'\r\n[04:53:54]i:\t [Collecting changes in 1 VCS root] Detecting changes in VCS root 'JJ-ASM' (used in deploy)\r\n[04:53:54]i:\t [Collecting changes in 1 VCS root] Will collect changes for 'JJ-ASM' starting from revision 8045b3a260a3e867db504c1361d27bfa51cadb9b\r\n[04:53:54]i: Agent time zone: America/New_York\r\n[04:53:54]i: Agent is running under JRE: 1.8.0_25-b17\r\n[04:53:54] : Publishing internal artifacts\r\n[04:53:54] :\t [Publishing internal artifacts] Sending using WebPublisher\r\n[04:53:54] :\t [Publishing internal artifacts] Sending using ArtifactsCachePublisher\r\n[04:53:54] : Clearing temporary directory: /home/teamcity/TeamCity/buildAgent/temp/buildTmp\r\n[04:53:54] : Checkout directory: /home/teamcity/TeamCity/buildAgent/work/ba59548f3b1a8b03\r\n[04:53:54] : Updating sources: server side checkout\r\n[04:53:54] :\t [Updating sources] Using vcs information from agent file: ba59548f3b1a8b03.xml\r\n[04:53:54] :\t [Updating sources] Building incremental patch for VCS root: JJ-ASM; checkout rules: =>; revision: 8045b3a260a3e867db504c1361d27bfa51cadb9b --> 8045b3a260a3e867db504c1361d27bfa51cadb9b\r\n[04:53:54] :\t [Updating sources] Repository sources transferred\r\n[04:53:54]i: ##teamcity[buildStatisticValue key='buildStageDuration:sourcesUpdate' value='327.0']\r\n[04:53:54] : Build preparation done\r\n[04:53:54] : Step 1/2: sbt assembly (Command Line)\r\n[04:53:54] :\t [Step 1/2] Disabled build step sbt assembly (Command Line) is skipped\r\n[04:53:54]E: Step 2/2: Simple Build Tool (Scala) (29s)\r\n[04:53:54]i:\t [Step 2/2] ##teamcity[buildStatisticValue key='buildStageDuration:firstStepPreparation' value='79.0']\r\n[04:53:54]i:\t [Step 2/2] ##teamcity[buildStatisticValue key='buildStageDuration:buildStepRUNNER_2' value='0.0']\r\n[04:53:54] :\t [Step 2/2] SBT installation: 'Auto' mode was selected in SBT runner plugin settings\r\n[04:53:54] :\t\t [SBT installation] SBT will be install to: /home/teamcity/TeamCity/buildAgent/temp/agentTmp/agent-sbt\r\n[04:53:54] :\t\t [SBT installation] Resource was copied to: /home/teamcity/TeamCity/buildAgent/temp/agentTmp/agent-sbt/bin/sbt-launch.jar\r\n[04:53:54] :\t\t [SBT installation] Resource was copied to: /home/teamcity/TeamCity/buildAgent/temp/agentTmp/agent-sbt/plugins/lib/sbt-teamcity-logger.jar\r\n[04:53:54] :\t\t [SBT installation] SBT home set to: /home/teamcity/TeamCity/buildAgent/temp/agentTmp/agent-sbt\r\n[04:53:54] :\t\t [SBT installation] SBT main class name will be retrieved from: /home/teamcity/TeamCity/buildAgent/temp/agentTmp/agent-sbt/bin/sbt-launch.jar\r\n[04:53:54] :\t [Step 2/2] Java home set to: /usr/lib/jvm/java-8-oracle\r\n[04:53:54] :\t [Step 2/2] SBT home set to: /home/teamcity/TeamCity/buildAgent/temp/agentTmp/agent-sbt\r\n[04:53:54] :\t [Step 2/2] Starting: /usr/lib/jvm/java-8-oracle/bin/java -Dagent.home.dir=/home/teamcity/TeamCity/buildAgent -Dagent.name=Default Agent -Dagent.ownPort=9090 -Dagent.work.dir=/home/teamcity/TeamCity/buildAgent/work -Dbuild.number=256 -Dbuild.vcs.number=8045b3a260a3e867db504c1361d27bfa51cadb9b -Dbuild.vcs.number.1=8045b3a260a3e867db504c1361d27bfa51cadb9b -Dbuild.vcs.number.JjAsm_JjAs=8045b3a260a3e867db504c1361d27bfa51cadb9b -Djava.io.tmpdir=/home/teamcity/TeamCity/buildAgent/temp/buildTmp -Dsbt.ivy.home=/home/teamcity/TeamCity/buildAgent/system/sbt_ivy -Dteamcity.agent.cpuBenchmark=308 -Dteamcity.agent.dotnet.agent_url=http://localhost:9090/RPC2 -Dteamcity.agent.dotnet.build_id=280 -Dteamcity.auth.password=YuEh2MgNjr2ZnEeN3RaFuibv1mYgynXU -Dteamcity.auth.userId=TeamCityBuildId=280 -Dteamcity.build.changedFiles.file=/home/teamcity/TeamCity/buildAgent/temp/buildTmp/changedFiles4040548913247679421.txt -Dteamcity.build.checkoutDir=/home/teamcity/TeamCity/buildAgent/work/ba59548f3b1a8b03 -Dteamcity.build.id=280 -Dteamcity.build.properties.file=/home/teamcity/TeamCity/buildAgent/temp/buildTmp/teamcity.build8212603673920644950.properties -Dteamcity.build.tempDir=/home/teamcity/TeamCity/buildAgent/temp/buildTmp -Dteamcity.build.workingDir=/home/teamcity/TeamCity/buildAgent/work/ba59548f3b1a8b03 -Dteamcity.buildConfName=deploy -Dteamcity.buildType.id=JjAsm_Deploy -Dteamcity.configuration.properties.file=/home/teamcity/TeamCity/buildAgent/temp/buildTmp/teamcity.config4776572492304022610.properties -Dteamcity.projectName=JJ-ASM -Dteamcity.runner.properties.file=/home/teamcity/TeamCity/buildAgent/temp/buildTmp/teamcity.runner3590470628268905846.properties -Dteamcity.tests.recentlyFailedTests.file=/home/teamcity/TeamCity/buildAgent/temp/buildTmp/testsToRunFirst8083564845011417145.txt -Dteamcity.version=9.0 (build 32060) -Xmx300m -XX:ReservedCodeCacheSize=128m -Dsbt.log.noformat=true -Dsbt.log.format=false -classpath /home/teamcity/TeamCity/buildAgent/temp/agentTmp/agent-sbt/bin/sbt-launch.jar:/home/teamcity/TeamCity/buildAgent/temp/agentTmp/agent-sbt/bin/classes: xsbt.boot.Boot -Dsbt.global.base=/home/teamcity/TeamCity/buildAgent/temp/agentTmp/agent-sbt 'set logLevel := Level.Debug' test\r\n[04:53:54] :\t [Step 2/2] in directory: /home/teamcity/TeamCity/buildAgent/work/ba59548f3b1a8b03\r\n[04:53:55] :\t [Step 2/2] Getting org.scala-sbt sbt 0.13.7 ...\r\n[04:53:57] :\t [Step 2/2] :: retrieving :: org.scala-sbt#boot-app\r\n[04:53:57] :\t [Step 2/2] \tconfs: [default]\r\n[04:53:57] :\t [Step 2/2] \t51 artifacts copied, 0 already retrieved (15709kB/147ms)\r\n[04:53:57] :\t [Step 2/2] Getting Scala 2.10.4 (for sbt)...\r\n[04:53:57] :\t [Step 2/2] :: retrieving :: org.scala-sbt#boot-scala\r\n[04:53:57] :\t [Step 2/2] \tconfs: [default]\r\n[04:53:57] :\t [Step 2/2] \t5 artifacts copied, 0 already retrieved (24459kB/114ms)\r\n[04:54:12] :\t [Step 2/2] Scala compiler (6s)\r\n[04:54:12] :\t\t [Scala compiler] Updating {file:/home/teamcity/TeamCity/buildAgent/work/ba59548f3b1a8b03/project/}ba59548f3b1a8b03-build...\r\n[04:54:12] :\t\t [Scala compiler] Resolving org.scala-sbt#global-plugins;0.0 ...\r\n[04:54:12] :\t\t [Scala compiler] Resolving com.typesafe.play#sbt-plugin;2.3.6 ...\r\n[04:54:12] :\t\t [Scala compiler] Resolving com.typesafe.play#build-link;2.3.6 ...\r\n[04:54:12] :\t\t [Scala compiler] Resolving com.typesafe.play#play-exceptions;2.3.6 ...\r\n[04:54:12] :\t\t [Scala compiler] Resolving org.javassist#javassist;3.18.2-GA ...\r\n[04:54:12] :\t\t [Scala compiler] Resolving com.typesafe.play#routes-compiler_2.10;2.3.6 ...\r\n[04:54:12] :\t\t [Scala compiler] Resolving org.scala-lang#scala-library;2.10.4 ...\r\n[04:54:12] :\t\t [Scala compiler] Resolving commons-io#commons-io;2.0.1 ...\r\n[04:54:12] :\t\t [Scala compiler] Resolving com.typesafe.play#sbt-run-support-210_2.10;2.3.6 ...\r\n[04:54:12] :\t\t [Scala compiler] Resolving org.scala-sbt#io;0.13.5 ...\r\n[04:54:12] :\t\t [Scala compiler] Resolving org.scala-sbt#control;0.13.5 ...\r\n[04:54:12] :\t\t [Scala compiler] Resolving com.typesafe#config;1.2.1 ...\r\n[04:54:12] :\t\t [Scala compiler] Resolving org.mozilla#rhino;1.7R4 ...\r\n[04:54:12] :\t\t [Scala compiler] Resolving com.google.javascript#closure-compiler;v20130603 ...\r\n[04:54:12] :\t\t [Scala compiler] Resolving org.json#json;20090211 ...\r\n[04:54:12] :\t\t [Scala compiler] Resolving com.google.guava#guava;16.0.1 ...\r\n[04:54:12] :\t\t [Scala compiler] Resolving org.avaje.ebeanorm#avaje-ebeanorm-agent;3.2.2 ...\r\n[04:54:12] :\t\t [Scala compiler] Resolving com.h2database#h2;1.3.175 ...\r\n[04:54:12] :\t\t [Scala compiler] Resolving net.contentobjects.jnotify#jnotify;0.94 ...\r\n[04:54:12] :\t\t [Scala compiler] Resolving com.typesafe.sbt#sbt-twirl;1.0.2 ...\r\n[04:54:12] :\t\t [Scala compiler] Resolving com.typesafe.play#twirl-compiler_2.10;1.0.2 ...\r\n[04:54:12] :\t\t [Scala compiler] Resolving org.scala-lang#scala-compiler;2.10.4 ...\r\n[04:54:12] :\t\t [Scala compiler] Resolving org.scala-lang#scala-reflect;2.10.4 ...\r\n[04:54:12] :\t\t [Scala compiler] Resolving com.typesafe.play#twirl-api_2.10;1.0.2 ...\r\n[04:54:12] :\t\t [Scala compiler] Resolving org.apache.commons#commons-lang3;3.1 ...\r\n[04:54:12] :\t\t [Scala compiler] Resolving com.typesafe.play#twirl-parser_2.10;1.0.2 ...\r\n[04:54:12] :\t\t [Scala compiler] Resolving com.typesafe.sbteclipse#sbteclipse-plugin;2.4.0 ...\r\n[04:54:12] :\t\t [Scala compiler] Resolving com.typesafe.sbteclipse#sbteclipse-core;2.4.0 ...\r\n[04:54:12] :\t\t [Scala compiler] Resolving org.scalaz#scalaz-core_2.10;7.0.2 ...\r\n[04:54:12] :\t\t [Scala compiler] Resolving org.scalaz#scalaz-effect_2.10;7.0.2 ...\r\n[04:54:12] :\t\t [Scala compiler] Resolving com.github.mpeltonen#sbt-idea;1.5.1 ...\r\n[04:54:12] :\t\t [Scala compiler] Resolving com.typesafe.sbt#sbt-native-packager;0.7.4 ...\r\n[04:54:12] :\t\t [Scala compiler] Resolving org.apache.commons#commons-compress;1.4.1 ...\r\n[04:54:12] :\t\t [Scala compiler] Resolving org.tukaani#xz;1.0 ...\r\n[04:54:12] :\t\t [Scala compiler] Resolving org.vafer#jdeb;1.3 ...\r\n[04:54:12] :\t\t [Scala compiler] Resolving commons-io#commons-io;2.4 ...\r\n[04:54:12] :\t\t [Scala compiler] Resolving org.apache.commons#commons-compress;1.7 ...\r\n[04:54:12] :\t\t [Scala compiler] Resolving org.tukaani#xz;1.4 ...\r\n[04:54:12] :\t\t [Scala compiler] Resolving org.apache.maven#maven-core;3.2.2 ...\r\n[04:54:13] :\t\t [Scala compiler] Resolving org.apache.maven#maven-model;3.2.2 ...\r\n[04:54:13] :\t\t [Scala compiler] Resolving org.codehaus.plexus#plexus-utils;3.0.17 ...\r\n[04:54:13] :\t\t [Scala compiler] Resolving org.apache.maven#maven-settings;3.2.2 ...\r\n[04:54:13] :\t\t [Scala compiler] Resolving org.apache.maven#maven-settings-builder;3.2.2 ...\r\n[04:54:13] :\t\t [Scala compiler] Resolving org.codehaus.plexus#plexus-interpolation;1.19 ...\r\n[04:54:13] :\t\t [Scala compiler] Resolving org.codehaus.plexus#plexus-component-annotations;1.5.5 ...\r\n[04:54:13] :\t\t [Scala compiler] Resolving org.sonatype.plexus#plexus-sec-dispatcher;1.3 ...\r\n[04:54:13] :\t\t [Scala compiler] Resolving org.sonatype.plexus#plexus-cipher;1.7 ...\r\n[04:54:13] :\t\t [Scala compiler] Resolving org.apache.maven#maven-repository-metadata;3.2.2 ...\r\n[04:54:13] :\t\t [Scala compiler] Resolving org.apache.maven#maven-artifact;3.2.2 ...\r\n[04:54:13] :\t\t [Scala compiler] Resolving org.apache.maven#maven-plugin-api;3.2.2 ...\r\n[04:54:13] :\t\t [Scala compiler] Resolving org.eclipse.sisu#org.eclipse.sisu.plexus;0.0.0.M5 ...\r\n[04:54:13] :\t\t [Scala compiler] Resolving javax.enterprise#cdi-api;1.0 ...\r\n[04:54:13] :\t\t [Scala compiler] Resolving javax.annotation#jsr250-api;1.0 ...\r\n[04:54:13] :\t\t [Scala compiler] Resolving javax.inject#javax.inject;1 ...\r\n[04:54:13] :\t\t [Scala compiler] Resolving org.sonatype.sisu#sisu-guice;3.1.3 ...\r\n[04:54:13] :\t\t [Scala compiler] Resolving aopalliance#aopalliance;1.0 ...\r\n[04:54:13] :\t\t [Scala compiler] Resolving org.eclipse.sisu#org.eclipse.sisu.inject;0.0.0.M5 ...\r\n[04:54:13] :\t\t [Scala compiler] Resolving org.codehaus.plexus#plexus-classworlds;2.5.1 ...\r\n[04:54:13] :\t\t [Scala compiler] Resolving org.apache.maven#maven-model-builder;3.2.2 ...\r\n[04:54:13] :\t\t [Scala compiler] Resolving org.apache.maven#maven-aether-provider;3.2.2 ...\r\n[04:54:13] :\t\t [Scala compiler] Resolving org.eclipse.aether#aether-api;0.9.0.M2 ...\r\n[04:54:13] :\t\t [Scala compiler] Resolving org.eclipse.aether#aether-spi;0.9.0.M2 ...\r\n[04:54:13] :\t\t [Scala compiler] Resolving org.eclipse.aether#aether-util;0.9.0.M2 ...\r\n[04:54:13] :\t\t [Scala compiler] Resolving org.eclipse.aether#aether-impl;0.9.0.M2 ...\r\n[04:54:13] :\t\t [Scala compiler] Resolving org.apache.ant#ant;1.9.3 ...\r\n[04:54:13] :\t\t [Scala compiler] Resolving org.apache.ant#ant-launcher;1.9.3 ...\r\n[04:54:13] :\t\t [Scala compiler] Resolving org.bouncycastle#bcpg-jdk15on;1.51 ...\r\n[04:54:13] :\t\t [Scala compiler] Resolving org.bouncycastle#bcprov-jdk15on;1.51 ...\r\n[04:54:13] :\t\t [Scala compiler] Resolving com.typesafe.sbt#sbt-js-engine;1.0.1 ...\r\n[04:54:13] :\t\t [Scala compiler] Resolving com.typesafe#jse_2.10;1.0.0 ...\r\n[04:54:13] :\t\t [Scala compiler] Resolving com.typesafe.akka#akka-actor_2.10;2.3.2 ...\r\n[04:54:13] :\t\t [Scala compiler] Resolving com.typesafe.akka#akka-contrib_2.10;2.3.2 ...\r\n[04:54:13] :\t\t [Scala compiler] Resolving com.typesafe.akka#akka-remote_2.10;2.3.2 ...\r\n[04:54:13] :\t\t [Scala compiler] Resolving io.netty#netty;3.8.0.Final ...\r\n[04:54:13] :\t\t [Scala compiler] Resolving com.google.protobuf#protobuf-java;2.5.0 ...\r\n[04:54:13] :\t\t [Scala compiler] Resolving org.uncommons.maths#uncommons-maths;1.2.2a ...\r\n[04:54:13] :\t\t [Scala compiler] Resolving com.typesafe.akka#akka-cluster_2.10;2.3.2 ...\r\n[04:54:13] :\t\t [Scala compiler] Resolving com.typesafe.akka#akka-persistence-experimental_2.10;2.3.2 ...\r\n[04:54:13] :\t\t [Scala compiler] Resolving org.iq80.leveldb#leveldb;0.5 ...\r\n[04:54:13] :\t\t [Scala compiler] Resolving org.iq80.leveldb#leveldb-api;0.5 ...\r\n[04:54:13] :\t\t [Scala compiler] Resolving org.fusesource.leveldbjni#leveldbjni-all;1.7 ...\r\n[04:54:13] :\t\t [Scala compiler] Resolving org.fusesource.leveldbjni#leveldbjni;1.7 ...\r\n[04:54:13] :\t\t [Scala compiler] Resolving org.fusesource.hawtjni#hawtjni-runtime;1.8 ...\r\n[04:54:13] :\t\t [Scala compiler] Resolving org.fusesource.leveldbjni#leveldbjni-osx;1.5 ...\r\n[04:54:13] :\t\t [Scala compiler] Resolving org.fusesource.leveldbjni#leveldbjni-linux32;1.5 ...\r\n[04:54:13] :\t\t [Scala compiler] Resolving org.fusesource.leveldbjni#leveldbjni-linux64;1.5 ...\r\n[04:54:13] :\t\t [Scala compiler] Resolving org.fusesource.leveldbjni#leveldbjni-win32;1.5 ...\r\n[04:54:13] :\t\t [Scala compiler] Resolving org.fusesource.leveldbjni#leveldbjni-win64;1.5 ...\r\n[04:54:13] :\t\t [Scala compiler] Resolving io.apigee.trireme#trireme-core;0.7.5 ...\r\n[04:54:13] :\t\t [Scala compiler] Resolving org.slf4j#slf4j-api;1.7.2 ...\r\n[04:54:13] :\t\t [Scala compiler] Resolving io.apigee.trireme#trireme-node10src;0.7.5 ...\r\n[04:54:13] :\t\t [Scala compiler] Resolving io.spray#spray-json_2.10;1.2.6 ...\r\n[04:54:13] :\t\t [Scala compiler] Resolving org.parboiled#parboiled-scala_2.10;1.1.6 ...\r\n[04:54:13] :\t\t [Scala compiler] Resolving org.parboiled#parboiled-core;1.1.6 ...\r\n[04:54:13] :\t\t [Scala compiler] Resolving org.slf4j#slf4j-simple;1.7.7 ...\r\n[04:54:13] :\t\t [Scala compiler] Resolving org.slf4j#slf4j-api;1.7.7 ...\r\n[04:54:13] :\t\t [Scala compiler] Resolving com.typesafe#npm_2.10;1.0.0 ...\r\n[04:54:13] :\t\t [Scala compiler] Resolving org.webjars#npm;1.3.26 ...\r\n[04:54:13] :\t\t [Scala compiler] Resolving org.webjars#webjars-locator;0.14 ...\r\n[04:54:13] :\t\t [Scala compiler] Resolving com.fasterxml.jackson.core#jackson-databind;2.3.3 ...\r\n[04:54:13] :\t\t [Scala compiler] Resolving com.fasterxml.jackson.core#jackson-annotations;2.3.0 ...\r\n[04:54:13] :\t\t [Scala compiler] Resolving com.fasterxml.jackson.core#jackson-core;2.3.3 ...\r\n[04:54:13] :\t\t [Scala compiler] Resolving com.typesafe.sbt#sbt-web;1.0.2 ...\r\n[04:54:13] :\t\t [Scala compiler] Resolving com.typesafe.sbt#sbt-webdriver;1.0.0 ...\r\n[04:54:13] :\t\t [Scala compiler] Resolving com.typesafe#webdriver_2.10;1.0.0 ...\r\n[04:54:13] :\t\t [Scala compiler] Resolving io.spray#spray-client;1.3.1 ...\r\n[04:54:13] :\t\t [Scala compiler] Resolving io.spray#spray-can;1.3.1 ...\r\n[04:54:13] :\t\t [Scala compiler] Resolving io.spray#spray-io;1.3.1 ...\r\n[04:54:13] :\t\t [Scala compiler] Resolving io.spray#spray-util;1.3.1 ...\r\n[04:54:13] :\t\t [Scala compiler] Resolving io.spray#spray-http;1.3.1 ...\r\n[04:54:13] :\t\t [Scala compiler] Resolving io.spray#spray-httpx;1.3.1 ...\r\n[04:54:13] :\t\t [Scala compiler] Resolving org.jvnet.mimepull#mimepull;1.9.4 ...\r\n[04:54:13] :\t\t [Scala compiler] Resolving net.sourceforge.htmlunit#htmlunit;2.14 ...\r\n[04:54:13] :\t\t [Scala compiler] Resolving xalan#xalan;2.7.1 ...\r\n[04:54:13] :\t\t [Scala compiler] Resolving xalan#serializer;2.7.1 ...\r\n[04:54:13] :\t\t [Scala compiler] Resolving xml-apis#xml-apis;1.3.04 ...\r\n[04:54:14] :\t\t [Scala compiler] Resolving commons-collections#commons-collections;3.2.1 ...\r\n[04:54:14] :\t\t [Scala compiler] Resolving org.apache.commons#commons-lang3;3.2.1 ...\r\n[04:54:14] :\t\t [Scala compiler] Resolving org.apache.httpcomponents#httpclient;4.3.2 ...\r\n[04:54:14] :\t\t [Scala compiler] Resolving org.apache.httpcomponents#httpcore;4.3.1 ...\r\n[04:54:14] :\t\t [Scala compiler] Resolving commons-logging#commons-logging;1.1.3 ...\r\n[04:54:14] :\t\t [Scala compiler] Resolving commons-codec#commons-codec;1.6 ...\r\n[04:54:14] :\t\t [Scala compiler] Resolving org.apache.httpcomponents#httpmime;4.3.2 ...\r\n[04:54:14] :\t\t [Scala compiler] Resolving commons-codec#commons-codec;1.9 ...\r\n[04:54:14] :\t\t [Scala compiler] Resolving net.sourceforge.htmlunit#htmlunit-core-js;2.14 ...\r\n[04:54:14] :\t\t [Scala compiler] Resolving xerces#xercesImpl;2.11.0 ...\r\n[04:54:14] :\t\t [Scala compiler] Resolving xml-apis#xml-apis;1.4.01 ...\r\n[04:54:14] :\t\t [Scala compiler] Resolving net.sourceforge.nekohtml#nekohtml;1.9.20 ...\r\n[04:54:14] :\t\t [Scala compiler] Resolving net.sourceforge.cssparser#cssparser;0.9.13 ...\r\n[04:54:14] :\t\t [Scala compiler] Resolving org.w3c.css#sac;1.3 ...\r\n[04:54:14] :\t\t [Scala compiler] Resolving org.eclipse.jetty#jetty-websocket;8.1.14.v20131031 ...\r\n[04:54:14] :\t\t [Scala compiler] Resolving org.eclipse.jetty#jetty-util;8.1.14.v20131031 ...\r\n[04:54:14] :\t\t [Scala compiler] Resolving org.eclipse.jetty#jetty-io;8.1.14.v20131031 ...\r\n[04:54:14] :\t\t [Scala compiler] Resolving org.eclipse.jetty#jetty-http;8.1.14.v20131031 ...\r\n[04:54:14] :\t\t [Scala compiler] Resolving com.typesafe.sbt#sbt-coffeescript;1.0.0 ...\r\n[04:54:14] :\t\t [Scala compiler] Resolving org.webjars#coffee-script-node;1.7.1 ...\r\n[04:54:14] :\t\t [Scala compiler] Resolving org.webjars#mkdirp;0.3.5 ...\r\n[04:54:14] :\t\t [Scala compiler] Resolving com.typesafe.sbt#sbt-less;1.0.0 ...\r\n[04:54:14] :\t\t [Scala compiler] Resolving org.webjars#less-node;1.6.0-1 ...\r\n[04:54:14] :\t\t [Scala compiler] Resolving org.webjars#source-map;0.1.31-2 ...\r\n[04:54:14] :\t\t [Scala compiler] Resolving org.webjars#amdefine;0.1.0-1 ...\r\n[04:54:14] :\t\t [Scala compiler] Resolving com.typesafe.sbt#sbt-jshint;1.0.1 ...\r\n[04:54:14] :\t\t [Scala compiler] Resolving org.webjars#jshint-node;2.4.1-1 ...\r\n[04:54:14] :\t\t [Scala compiler] Resolving org.webjars#underscorejs;1.5.2-2 ...\r\n[04:54:14] :\t\t [Scala compiler] Resolving org.webjars#console-browserify;0.1.6-1 ...\r\n[04:54:14] :\t\t [Scala compiler] Resolving com.typesafe.sbt#sbt-rjs;1.0.1 ...\r\n[04:54:14] :\t\t [Scala compiler] Resolving org.webjars#rjs;2.1.11-1-trireme ...\r\n[04:54:14] :\t\t [Scala compiler] Resolving com.typesafe.sbt#sbt-digest;1.0.0 ...\r\n[04:54:14] :\t\t [Scala compiler] Resolving com.typesafe.sbt#sbt-mocha;1.0.0 ...\r\n[04:54:14] :\t\t [Scala compiler] Resolving org.webjars#mocha;1.17.1 ...\r\n[04:54:14] :\t\t [Scala compiler] Resolving org.webjars#debug;0.7.4 ...\r\n[04:54:14] :\t\t [Scala compiler] Resolving org.webjars#diff;1.0.7 ...\r\n[04:54:14] :\t\t [Scala compiler] Resolving com.lihaoyi#workbench;0.2.3 ...\r\n[04:54:14] :\t\t [Scala compiler] Resolving io.spray#spray-routing;1.3.1 ...\r\n[04:54:14] :\t\t [Scala compiler] Resolving com.chuusai#shapeless_2.10;1.2.4 ...\r\n[04:54:14] :\t\t [Scala compiler] Resolving com.lihaoyi#autowire_2.10;0.2.3 ...\r\n[04:54:14] :\t\t [Scala compiler] Resolving org.scalamacros#quasiquotes_2.10;2.0.0 ...\r\n[04:54:14] :\t\t [Scala compiler] Resolving com.lihaoyi#upickle_2.10;0.2.5 ...\r\n[04:54:14] :\t\t [Scala compiler] Resolving org.spire-math#jawn-parser_2.10;0.6.0 ...\r\n[04:54:14] :\t\t [Scala compiler] Resolving com.eed3si9n#sbt-assembly;0.12.0 ...\r\n[04:54:14] :\t\t [Scala compiler] Resolving com.typesafe.slick#slick-codegen_2.10;2.1.0 ...\r\n[04:54:14] :\t\t [Scala compiler] Resolving com.typesafe.slick#slick_2.10;2.1.0 ...\r\n[04:54:14] :\t\t [Scala compiler] Resolving mysql#mysql-connector-java;5.1.34 ...\r\n[04:54:15] :\t\t [Scala compiler] Resolving org.scala-sbt#sbt;0.13.7 ...\r\n[04:54:15] :\t\t [Scala compiler] Resolving org.scala-sbt#main;0.13.7 ...\r\n[04:54:15] :\t\t [Scala compiler] Resolving org.scala-sbt#actions;0.13.7 ...\r\n[04:54:15] :\t\t [Scala compiler] Resolving org.scala-sbt#classpath;0.13.7 ...\r\n[04:54:15] :\t\t [Scala compiler] Resolving org.scala-sbt#launcher-interface;0.13.7 ...\r\n[04:54:15] :\t\t [Scala compiler] Resolving org.scala-sbt#interface;0.13.7 ...\r\n[04:54:15] :\t\t [Scala compiler] Resolving org.scala-sbt#io;0.13.7 ...\r\n[04:54:15] :\t\t [Scala compiler] Resolving org.scala-sbt#control;0.13.7 ...\r\n[04:54:15] :\t\t [Scala compiler] Resolving org.scala-sbt#completion;0.13.7 ...\r\n[04:54:15] :\t\t [Scala compiler] Resolving org.scala-sbt#collections;0.13.7 ...\r\n[04:54:15] :\t\t [Scala compiler] Resolving jline#jline;2.11 ...\r\n[04:54:15] :\t\t [Scala compiler] Resolving org.scala-sbt#api;0.13.7 ...\r\n[04:54:15] :\t\t [Scala compiler] Resolving org.scala-sbt#compiler-integration;0.13.7 ...\r\n[04:54:15] :\t\t [Scala compiler] Resolving org.scala-sbt#incremental-compiler;0.13.7 ...\r\n[04:54:15] :\t\t [Scala compiler] Resolving org.scala-sbt#logging;0.13.7 ...\r\n[04:54:15] :\t\t [Scala compiler] Resolving org.scala-sbt#process;0.13.7 ...\r\n[04:54:15] :\t\t [Scala compiler] Resolving org.scala-sbt#relation;0.13.7 ...\r\n[04:54:15] :\t\t [Scala compiler] Resolving org.scala-sbt#compile;0.13.7 ...\r\n[04:54:15] :\t\t [Scala compiler] Resolving org.scala-sbt#persist;0.13.7 ...\r\n[04:54:15] :\t\t [Scala compiler] Resolving org.scala-tools.sbinary#sbinary_2.10;0.4.2 ...\r\n[04:54:15] :\t\t [Scala compiler] Resolving org.scala-sbt#classfile;0.13.7 ...\r\n[04:54:15] :\t\t [Scala compiler] Resolving org.scala-sbt#compiler-ivy-integration;0.13.7 ...\r\n[04:54:15] :\t\t [Scala compiler] Resolving org.scala-sbt#ivy;0.13.7 ...\r\n[04:54:15] :\t\t [Scala compiler] Resolving org.scala-sbt#cross;0.13.7 ...\r\n[04:54:15] :\t\t [Scala compiler] Resolving org.scala-sbt.ivy#ivy;2.3.0-sbt-fccfbd44c9f64523b61398a0155784dcbaeae28f ...\r\n[04:54:15] :\t\t [Scala compiler] Resolving com.jcraft#jsch;0.1.46 ...\r\n[04:54:15] :\t\t [Scala compiler] Resolving org.json4s#json4s-native_2.10;3.2.10 ...\r\n[04:54:15] :\t\t [Scala compiler] Resolving org.json4s#json4s-core_2.10;3.2.10 ...\r\n[04:54:15] :\t\t [Scala compiler] Resolving org.json4s#json4s-ast_2.10;3.2.10 ...\r\n[04:54:15] :\t\t [Scala compiler] Resolving com.thoughtworks.paranamer#paranamer;2.6 ...\r\n[04:54:15] :\t\t [Scala compiler] Resolving org.scala-lang#scalap;2.10.0 ...\r\n[04:54:15] :\t\t [Scala compiler] Resolving org.spire-math#json4s-support_2.10;0.6.0 ...\r\n[04:54:15] :\t\t [Scala compiler] Resolving org.scala-sbt#run;0.13.7 ...\r\n[04:54:15] :\t\t [Scala compiler] Resolving org.scala-sbt#task-system;0.13.7 ...\r\n[04:54:15] :\t\t [Scala compiler] Resolving org.scala-sbt#tasks;0.13.7 ...\r\n[04:54:15] :\t\t [Scala compiler] Resolving org.scala-sbt#tracking;0.13.7 ...\r\n[04:54:15] :\t\t [Scala compiler] Resolving org.scala-sbt#cache;0.13.7 ...\r\n[04:54:15] :\t\t [Scala compiler] Resolving org.scala-sbt#testing;0.13.7 ...\r\n[04:54:15] :\t\t [Scala compiler] Resolving org.scala-sbt#test-agent;0.13.7 ...\r\n[04:54:15] :\t\t [Scala compiler] Resolving org.scala-sbt#test-interface;1.0 ...\r\n[04:54:15] :\t\t [Scala compiler] Resolving org.scala-sbt#main-settings;0.13.7 ...\r\n[04:54:15] :\t\t [Scala compiler] Resolving org.scala-sbt#apply-macro;0.13.7 ...\r\n[04:54:15] :\t\t [Scala compiler] Resolving org.scala-sbt#command;0.13.7 ...\r\n[04:54:15] :\t\t [Scala compiler] Resolving org.scala-sbt#logic;0.13.7 ...\r\n[04:54:15] :\t\t [Scala compiler] Resolving org.scala-sbt#compiler-interface;0.13.7 ...\r\n[04:54:15] :\t\t [Scala compiler] Resolving org.scala-sbt#precompiled-2_8_2;0.13.7 ...\r\n[04:54:15] :\t\t [Scala compiler] Resolving org.scala-sbt#precompiled-2_9_2;0.13.7 ...\r\n[04:54:15] :\t\t [Scala compiler] Resolving org.scala-sbt#precompiled-2_9_3;0.13.7 ...\r\n[04:54:17] :\t\t [Scala compiler] Resolving org.scala-lang#jline;2.10.4 ...\r\n[04:54:17] :\t\t [Scala compiler] Resolving org.fusesource.jansi#jansi;1.4 ...\r\n[04:54:18] :\t\t [Scala compiler] Done updating.\r\n[04:54:24]W:\t [Step 2/2] Process exited with code 1\r\n[04:54:24]i:\t [Step 2/2] ##teamcity[buildStatisticValue key='buildStageDuration:buildStepRUNNER_2' value='29409.0']\r\n[04:54:24]E:\t [Step 2/2] Step Simple Build Tool (Scala) failed\r\n[04:54:25]i: ##teamcity[buildStatisticValue key='buildStageDuration:buildFinishing' value='1083.0']\r\n[04:54:25] : Publishing internal artifacts\r\n[04:54:25] :\t [Publishing internal artifacts] Sending using WebPublisher\r\n[04:54:25] :\t [Publishing internal artifacts] Sending using ArtifactsCachePublisher\r\n[04:54:25]i: ##teamcity[buildStatisticValue key='buildStageDuration:artifactsPublishing' value='356.0']\r\n[04:54:25] : Build finished\r\n```\r\n"
}
, {
  "url": "https://api.github.com/repos/JetBrains/tc-sbt-runner/issues/4",
  "labels_url": "https://api.github.com/repos/JetBrains/tc-sbt-runner/issues/4/labels{/name}",
  "comments_url": "https://api.github.com/repos/JetBrains/tc-sbt-runner/issues/4/comments",
  "events_url": "https://api.github.com/repos/JetBrains/tc-sbt-runner/issues/4/events",
  "html_url": "https://github.com/JetBrains/tc-sbt-runner/issues/4",
  "id": 50390982,
  "number": 4,
  "title": "Global sbt settings",
  "user": {
    "login": "timt",
    "id": 506870,
    "avatar_url": "https://avatars.githubusercontent.com/u/506870?v=3",
    "gravatar_id": "",
    "url": "https://api.github.com/users/timt",
    "html_url": "https://github.com/timt",
    "followers_url": "https://api.github.com/users/timt/followers",
    "following_url": "https://api.github.com/users/timt/following{/other_user}",
    "gists_url": "https://api.github.com/users/timt/gists{/gist_id}",
    "starred_url": "https://api.github.com/users/timt/starred{/owner}{/repo}",
    "subscriptions_url": "https://api.github.com/users/timt/subscriptions",
    "organizations_url": "https://api.github.com/users/timt/orgs",
    "repos_url": "https://api.github.com/users/timt/repos",
    "events_url": "https://api.github.com/users/timt/events{/privacy}",
    "received_events_url": "https://api.github.com/users/timt/received_events",
    "type": "User",
    "site_admin": false
  },
  "labels": [],
  "state": "open",
  "locked": false,
  "assignee": null,
  "milestone": null,
  "comments": 1,
  "created_at": "2014-11-28T16:58:20Z",
  "updated_at": "2014-12-23T09:36:21Z",
  "closed_at": null,
  "body": "Hi, I would like to be able to specify settings for sbt runner that will get applied to all build configurations that use it.\r\n\r\nSpecifically I want to be able to make sure it always uses our internal nexus, to resolve dependencies (as that is a proxy to the everything). \r\n\r\nI can do this at the individual build configuration level by specifying the the following switches:\r\n-Dsbt.override.build.repos=true -Dsbt.repository.config=<path-to-my-repo-file>\r\n\r\nAs described in http://www.scala-sbt.org/0.13/docs/Proxy-Repositories.html\r\n\r\nHowever I would like to specify this just once for the plugin and have all build configurations using sbt runner pick them up.\r\n\r\nTim"
}
, {
  "url": "https://api.github.com/repos/JetBrains/tc-sbt-runner/issues/3",
  "labels_url": "https://api.github.com/repos/JetBrains/tc-sbt-runner/issues/3/labels{/name}",
  "comments_url": "https://api.github.com/repos/JetBrains/tc-sbt-runner/issues/3/comments",
  "events_url": "https://api.github.com/repos/JetBrains/tc-sbt-runner/issues/3/events",
  "html_url": "https://github.com/JetBrains/tc-sbt-runner/issues/3",
  "id": 40461590,
  "number": 3,
  "title": "unsupported class version",
  "user": {
    "login": "yoeluk",
    "id": 2067872,
    "avatar_url": "https://avatars.githubusercontent.com/u/2067872?v=3",
    "gravatar_id": "",
    "url": "https://api.github.com/users/yoeluk",
    "html_url": "https://github.com/yoeluk",
    "followers_url": "https://api.github.com/users/yoeluk/followers",
    "following_url": "https://api.github.com/users/yoeluk/following{/other_user}",
    "gists_url": "https://api.github.com/users/yoeluk/gists{/gist_id}",
    "starred_url": "https://api.github.com/users/yoeluk/starred{/owner}{/repo}",
    "subscriptions_url": "https://api.github.com/users/yoeluk/subscriptions",
    "organizations_url": "https://api.github.com/users/yoeluk/orgs",
    "repos_url": "https://api.github.com/users/yoeluk/repos",
    "events_url": "https://api.github.com/users/yoeluk/events{/privacy}",
    "received_events_url": "https://api.github.com/users/yoeluk/received_events",
    "type": "User",
    "site_admin": false
  },
  "labels": [],
  "state": "open",
  "locked": false,
  "assignee": null,
  "milestone": null,
  "comments": 0,
  "created_at": "2014-08-18T07:19:17Z",
  "updated_at": "2014-08-18T07:19:17Z",
  "closed_at": null,
  "body": "sbt-runner set java home to java 6 on my OSX agent machine... this seems to cause a compilation problem. \r\nStep 1/1: Simple Build Tool (Scala) (1m:12s)\r\n[Step 1/1] (compile:compile) java.lang.UnsupportedClassVersionError: models/Offer : Unsupported major.minor version 51.0\r\n[Step 1/1] Step Simple Build Tool (Scala) failed\r\n"
}
, {
  "url": "https://api.github.com/repos/JetBrains/tc-sbt-runner/issues/1",
  "labels_url": "https://api.github.com/repos/JetBrains/tc-sbt-runner/issues/1/labels{/name}",
  "comments_url": "https://api.github.com/repos/JetBrains/tc-sbt-runner/issues/1/comments",
  "events_url": "https://api.github.com/repos/JetBrains/tc-sbt-runner/issues/1/events",
  "html_url": "https://github.com/JetBrains/tc-sbt-runner/issues/1",
  "id": 29773683,
  "number": 1,
  "title": "SBT Runner interprets warning messages during testing as compilation errors",
  "user": {
    "login": "dragisak",
    "id": 800802,
    "avatar_url": "https://avatars.githubusercontent.com/u/800802?v=3",
    "gravatar_id": "",
    "url": "https://api.github.com/users/dragisak",
    "html_url": "https://github.com/dragisak",
    "followers_url": "https://api.github.com/users/dragisak/followers",
    "following_url": "https://api.github.com/users/dragisak/following{/other_user}",
    "gists_url": "https://api.github.com/users/dragisak/gists{/gist_id}",
    "starred_url": "https://api.github.com/users/dragisak/starred{/owner}{/repo}",
    "subscriptions_url": "https://api.github.com/users/dragisak/subscriptions",
    "organizations_url": "https://api.github.com/users/dragisak/orgs",
    "repos_url": "https://api.github.com/users/dragisak/repos",
    "events_url": "https://api.github.com/users/dragisak/events{/privacy}",
    "received_events_url": "https://api.github.com/users/dragisak/received_events",
    "type": "User",
    "site_admin": false
  },
  "labels": [],
  "state": "open",
  "locked": false,
  "assignee": null,
  "milestone": null,
  "comments": 0,
  "created_at": "2014-03-19T21:24:09Z",
  "updated_at": "2014-03-19T21:25:14Z",
  "closed_at": null,
  "body": "Source compiles fine, without warnings but during execution of tests a lot of messages are printed out by various libraries.\r\n\r\nLooks like sbt-runner thinks some of them are compilation failures.\r\n\r\n![image](https://f.cloud.github.com/assets/800802/2466215/9d251f5a-afac-11e3-9283-3f79ef88955e.png)\r\n"
}
]
