[
{
  "url": "https://api.github.com/repos/github/janky/issues/comments/4752949",
  "html_url": "https://github.com/github/janky/pull/61#issuecomment-4752949",
  "issue_url": "https://api.github.com/repos/github/janky/issues/61",
  "id": 4752949,
  "user": {
    "login": "sr",
    "id": 90,
    "avatar_url": "https://avatars.githubusercontent.com/u/90?v=3",
    "gravatar_id": "",
    "url": "https://api.github.com/users/sr",
    "html_url": "https://github.com/sr",
    "followers_url": "https://api.github.com/users/sr/followers",
    "following_url": "https://api.github.com/users/sr/following{/other_user}",
    "gists_url": "https://api.github.com/users/sr/gists{/gist_id}",
    "starred_url": "https://api.github.com/users/sr/starred{/owner}{/repo}",
    "subscriptions_url": "https://api.github.com/users/sr/subscriptions",
    "organizations_url": "https://api.github.com/users/sr/orgs",
    "repos_url": "https://api.github.com/users/sr/repos",
    "events_url": "https://api.github.com/users/sr/events{/privacy}",
    "received_events_url": "https://api.github.com/users/sr/received_events",
    "type": "User",
    "site_admin": false
  },
  "created_at": "2012-03-28T10:44:09Z",
  "updated_at": "2012-03-28T10:44:09Z",
  "body": "Thanks"
}
]
