[
{
  "url": "https://api.github.com/repos/heroku/12factor/issues/comments/145462497",
  "html_url": "https://github.com/heroku/12factor/pull/47#issuecomment-145462497",
  "issue_url": "https://api.github.com/repos/heroku/12factor/issues/47",
  "id": 145462497,
  "user": {
    "login": "jonmountjoy",
    "id": 545244,
    "avatar_url": "https://avatars.githubusercontent.com/u/545244?v=3",
    "gravatar_id": "",
    "url": "https://api.github.com/users/jonmountjoy",
    "html_url": "https://github.com/jonmountjoy",
    "followers_url": "https://api.github.com/users/jonmountjoy/followers",
    "following_url": "https://api.github.com/users/jonmountjoy/following{/other_user}",
    "gists_url": "https://api.github.com/users/jonmountjoy/gists{/gist_id}",
    "starred_url": "https://api.github.com/users/jonmountjoy/starred{/owner}{/repo}",
    "subscriptions_url": "https://api.github.com/users/jonmountjoy/subscriptions",
    "organizations_url": "https://api.github.com/users/jonmountjoy/orgs",
    "repos_url": "https://api.github.com/users/jonmountjoy/repos",
    "events_url": "https://api.github.com/users/jonmountjoy/events{/privacy}",
    "received_events_url": "https://api.github.com/users/jonmountjoy/received_events",
    "type": "User",
    "site_admin": false
  },
  "created_at": "2015-10-05T08:30:21Z",
  "updated_at": "2015-10-05T08:30:21Z",
  "body": "Merci"
}
]
