[
{
  "url": "https://api.github.com/repos/docker/docker-registry/issues/comments/42950046",
  "html_url": "https://github.com/docker/docker-registry/issues/355#issuecomment-42950046",
  "issue_url": "https://api.github.com/repos/docker/docker-registry/issues/355",
  "id": 42950046,
  "user": {
    "login": "shin-",
    "id": 1086876,
    "avatar_url": "https://avatars.githubusercontent.com/u/1086876?v=3",
    "gravatar_id": "",
    "url": "https://api.github.com/users/shin-",
    "html_url": "https://github.com/shin-",
    "followers_url": "https://api.github.com/users/shin-/followers",
    "following_url": "https://api.github.com/users/shin-/following{/other_user}",
    "gists_url": "https://api.github.com/users/shin-/gists{/gist_id}",
    "starred_url": "https://api.github.com/users/shin-/starred{/owner}{/repo}",
    "subscriptions_url": "https://api.github.com/users/shin-/subscriptions",
    "organizations_url": "https://api.github.com/users/shin-/orgs",
    "repos_url": "https://api.github.com/users/shin-/repos",
    "events_url": "https://api.github.com/users/shin-/events{/privacy}",
    "received_events_url": "https://api.github.com/users/shin-/received_events",
    "type": "User",
    "site_admin": false
  },
  "created_at": "2014-05-13T12:48:52Z",
  "updated_at": "2014-05-13T12:48:52Z",
  "body": "I don't think we ever import it explicitly anyway"
}
, {
  "url": "https://api.github.com/repos/docker/docker-registry/issues/comments/42950116",
  "html_url": "https://github.com/docker/docker-registry/issues/355#issuecomment-42950116",
  "issue_url": "https://api.github.com/repos/docker/docker-registry/issues/355",
  "id": 42950116,
  "user": {
    "login": "dmp42",
    "id": 332946,
    "avatar_url": "https://avatars.githubusercontent.com/u/332946?v=3",
    "gravatar_id": "",
    "url": "https://api.github.com/users/dmp42",
    "html_url": "https://github.com/dmp42",
    "followers_url": "https://api.github.com/users/dmp42/followers",
    "following_url": "https://api.github.com/users/dmp42/following{/other_user}",
    "gists_url": "https://api.github.com/users/dmp42/gists{/gist_id}",
    "starred_url": "https://api.github.com/users/dmp42/starred{/owner}{/repo}",
    "subscriptions_url": "https://api.github.com/users/dmp42/subscriptions",
    "organizations_url": "https://api.github.com/users/dmp42/orgs",
    "repos_url": "https://api.github.com/users/dmp42/repos",
    "events_url": "https://api.github.com/users/dmp42/events{/privacy}",
    "received_events_url": "https://api.github.com/users/dmp42/received_events",
    "type": "User",
    "site_admin": false
  },
  "created_at": "2014-05-13T12:49:39Z",
  "updated_at": "2014-05-13T12:49:39Z",
  "body": "Ok, thanks!"
}
, {
  "url": "https://api.github.com/repos/docker/docker-registry/issues/comments/42973662",
  "html_url": "https://github.com/docker/docker-registry/issues/355#issuecomment-42973662",
  "issue_url": "https://api.github.com/repos/docker/docker-registry/issues/355",
  "id": 42973662,
  "user": {
    "login": "samalba",
    "id": 216487,
    "avatar_url": "https://avatars.githubusercontent.com/u/216487?v=3",
    "gravatar_id": "",
    "url": "https://api.github.com/users/samalba",
    "html_url": "https://github.com/samalba",
    "followers_url": "https://api.github.com/users/samalba/followers",
    "following_url": "https://api.github.com/users/samalba/following{/other_user}",
    "gists_url": "https://api.github.com/users/samalba/gists{/gist_id}",
    "starred_url": "https://api.github.com/users/samalba/starred{/owner}{/repo}",
    "subscriptions_url": "https://api.github.com/users/samalba/subscriptions",
    "organizations_url": "https://api.github.com/users/samalba/orgs",
    "repos_url": "https://api.github.com/users/samalba/repos",
    "events_url": "https://api.github.com/users/samalba/events{/privacy}",
    "received_events_url": "https://api.github.com/users/samalba/received_events",
    "type": "User",
    "site_admin": false
  },
  "created_at": "2014-05-13T15:51:36Z",
  "updated_at": "2014-05-13T15:51:36Z",
  "body": "simplejson is much faster than the native python implementation. It's not mandatory to keep it though.\r\n\r\nBe careful, we do import it explicitly https://github.com/dotcloud/docker-registry/blob/master/docker_registry/images.py#L8. A cleaner way to abstract is it to import it from flask.json which imports simplejson only if it's available: https://github.com/mitsuhiko/flask/blob/master/flask/json.py"
}
, {
  "url": "https://api.github.com/repos/docker/docker-registry/issues/comments/42974731",
  "html_url": "https://github.com/docker/docker-registry/issues/355#issuecomment-42974731",
  "issue_url": "https://api.github.com/repos/docker/docker-registry/issues/355",
  "id": 42974731,
  "user": {
    "login": "dmp42",
    "id": 332946,
    "avatar_url": "https://avatars.githubusercontent.com/u/332946?v=3",
    "gravatar_id": "",
    "url": "https://api.github.com/users/dmp42",
    "html_url": "https://github.com/dmp42",
    "followers_url": "https://api.github.com/users/dmp42/followers",
    "following_url": "https://api.github.com/users/dmp42/following{/other_user}",
    "gists_url": "https://api.github.com/users/dmp42/gists{/gist_id}",
    "starred_url": "https://api.github.com/users/dmp42/starred{/owner}{/repo}",
    "subscriptions_url": "https://api.github.com/users/dmp42/subscriptions",
    "organizations_url": "https://api.github.com/users/dmp42/orgs",
    "repos_url": "https://api.github.com/users/dmp42/repos",
    "events_url": "https://api.github.com/users/dmp42/events{/privacy}",
    "received_events_url": "https://api.github.com/users/dmp42/received_events",
    "type": "User",
    "site_admin": false
  },
  "created_at": "2014-05-13T15:59:09Z",
  "updated_at": "2014-05-13T15:59:09Z",
  "body": "I was under the impression that json in the standard library (>=py27) was *exactly* simplejson, with the same perf (https://pypi.python.org/pypi/simplejson/)\r\nAdmittedly, it's not the same with py26 (but we don't support 2.6).\r\n\r\nAnyhow - I'm replacing the calls by calls to our own compat.json layer - if we feel later on that we should reintroduce it, that will be a matter of changing one line around here https://github.com/dotcloud/docker-registry/blob/plugins/depends/docker-registry-core/docker_registry/core/compat.py#L58"
}
, {
  "url": "https://api.github.com/repos/docker/docker-registry/issues/comments/42975250",
  "html_url": "https://github.com/docker/docker-registry/issues/355#issuecomment-42975250",
  "issue_url": "https://api.github.com/repos/docker/docker-registry/issues/355",
  "id": 42975250,
  "user": {
    "login": "samalba",
    "id": 216487,
    "avatar_url": "https://avatars.githubusercontent.com/u/216487?v=3",
    "gravatar_id": "",
    "url": "https://api.github.com/users/samalba",
    "html_url": "https://github.com/samalba",
    "followers_url": "https://api.github.com/users/samalba/followers",
    "following_url": "https://api.github.com/users/samalba/following{/other_user}",
    "gists_url": "https://api.github.com/users/samalba/gists{/gist_id}",
    "starred_url": "https://api.github.com/users/samalba/starred{/owner}{/repo}",
    "subscriptions_url": "https://api.github.com/users/samalba/subscriptions",
    "organizations_url": "https://api.github.com/users/samalba/orgs",
    "repos_url": "https://api.github.com/users/samalba/repos",
    "events_url": "https://api.github.com/users/samalba/events{/privacy}",
    "received_events_url": "https://api.github.com/users/samalba/received_events",
    "type": "User",
    "site_admin": false
  },
  "created_at": "2014-05-13T16:02:55Z",
  "updated_at": "2014-05-13T16:02:55Z",
  "body": ":+1: "
}
, {
  "url": "https://api.github.com/repos/docker/docker-registry/issues/comments/43624795",
  "html_url": "https://github.com/docker/docker-registry/issues/355#issuecomment-43624795",
  "issue_url": "https://api.github.com/repos/docker/docker-registry/issues/355",
  "id": 43624795,
  "user": {
    "login": "dmp42",
    "id": 332946,
    "avatar_url": "https://avatars.githubusercontent.com/u/332946?v=3",
    "gravatar_id": "",
    "url": "https://api.github.com/users/dmp42",
    "html_url": "https://github.com/dmp42",
    "followers_url": "https://api.github.com/users/dmp42/followers",
    "following_url": "https://api.github.com/users/dmp42/following{/other_user}",
    "gists_url": "https://api.github.com/users/dmp42/gists{/gist_id}",
    "starred_url": "https://api.github.com/users/dmp42/starred{/owner}{/repo}",
    "subscriptions_url": "https://api.github.com/users/dmp42/subscriptions",
    "organizations_url": "https://api.github.com/users/dmp42/orgs",
    "repos_url": "https://api.github.com/users/dmp42/repos",
    "events_url": "https://api.github.com/users/dmp42/events{/privacy}",
    "received_events_url": "https://api.github.com/users/dmp42/received_events",
    "type": "User",
    "site_admin": false
  },
  "created_at": "2014-05-20T13:27:15Z",
  "updated_at": "2014-05-20T13:27:15Z",
  "body": "Fixed."
}
]
