[
{
  "url": "https://api.github.com/repos/docker/docker-registry/issues/comments/50675908",
  "html_url": "https://github.com/docker/docker-registry/issues/497#issuecomment-50675908",
  "issue_url": "https://api.github.com/repos/docker/docker-registry/issues/497",
  "id": 50675908,
  "user": {
    "login": "bacongobbler",
    "id": 1360539,
    "avatar_url": "https://avatars.githubusercontent.com/u/1360539?v=3",
    "gravatar_id": "",
    "url": "https://api.github.com/users/bacongobbler",
    "html_url": "https://github.com/bacongobbler",
    "followers_url": "https://api.github.com/users/bacongobbler/followers",
    "following_url": "https://api.github.com/users/bacongobbler/following{/other_user}",
    "gists_url": "https://api.github.com/users/bacongobbler/gists{/gist_id}",
    "starred_url": "https://api.github.com/users/bacongobbler/starred{/owner}{/repo}",
    "subscriptions_url": "https://api.github.com/users/bacongobbler/subscriptions",
    "organizations_url": "https://api.github.com/users/bacongobbler/orgs",
    "repos_url": "https://api.github.com/users/bacongobbler/repos",
    "events_url": "https://api.github.com/users/bacongobbler/events{/privacy}",
    "received_events_url": "https://api.github.com/users/bacongobbler/received_events",
    "type": "User",
    "site_admin": false
  },
  "created_at": "2014-07-30T20:36:45Z",
  "updated_at": "2014-07-30T20:36:45Z",
  "body": "Look in http://docs.docker.com/reference/api/registry_api/. You can only delete tags and repositories, but not individual images.\r\n\r\n    DELETE /v1/repositories/(namespace)/(repository)/tags/(tag)\r\n    DELETE /v1/repositories/(namespace)/(repository)/"
}
, {
  "url": "https://api.github.com/repos/docker/docker-registry/issues/comments/50677881",
  "html_url": "https://github.com/docker/docker-registry/issues/497#issuecomment-50677881",
  "issue_url": "https://api.github.com/repos/docker/docker-registry/issues/497",
  "id": 50677881,
  "user": {
    "login": "wking",
    "id": 209920,
    "avatar_url": "https://avatars.githubusercontent.com/u/209920?v=3",
    "gravatar_id": "",
    "url": "https://api.github.com/users/wking",
    "html_url": "https://github.com/wking",
    "followers_url": "https://api.github.com/users/wking/followers",
    "following_url": "https://api.github.com/users/wking/following{/other_user}",
    "gists_url": "https://api.github.com/users/wking/gists{/gist_id}",
    "starred_url": "https://api.github.com/users/wking/starred{/owner}{/repo}",
    "subscriptions_url": "https://api.github.com/users/wking/subscriptions",
    "organizations_url": "https://api.github.com/users/wking/orgs",
    "repos_url": "https://api.github.com/users/wking/repos",
    "events_url": "https://api.github.com/users/wking/events{/privacy}",
    "received_events_url": "https://api.github.com/users/wking/received_events",
    "type": "User",
    "site_admin": false
  },
  "created_at": "2014-07-30T20:50:49Z",
  "updated_at": "2014-07-30T20:50:49Z",
  "body": "On Wed, Jul 30, 2014 at 01:36:47PM -0700, Matthew Fisher wrote:\n> You can only delete tags and repositories, but not individual\n> images.\n\nTo remove unused images alongside the tags, see #409, which is\ncurrently blocked waiting for architectural feedback, but works for me\nlocally."
}
, {
  "url": "https://api.github.com/repos/docker/docker-registry/issues/comments/51145519",
  "html_url": "https://github.com/docker/docker-registry/issues/497#issuecomment-51145519",
  "issue_url": "https://api.github.com/repos/docker/docker-registry/issues/497",
  "id": 51145519,
  "user": {
    "login": "dsw88",
    "id": 3180496,
    "avatar_url": "https://avatars.githubusercontent.com/u/3180496?v=3",
    "gravatar_id": "",
    "url": "https://api.github.com/users/dsw88",
    "html_url": "https://github.com/dsw88",
    "followers_url": "https://api.github.com/users/dsw88/followers",
    "following_url": "https://api.github.com/users/dsw88/following{/other_user}",
    "gists_url": "https://api.github.com/users/dsw88/gists{/gist_id}",
    "starred_url": "https://api.github.com/users/dsw88/starred{/owner}{/repo}",
    "subscriptions_url": "https://api.github.com/users/dsw88/subscriptions",
    "organizations_url": "https://api.github.com/users/dsw88/orgs",
    "repos_url": "https://api.github.com/users/dsw88/repos",
    "events_url": "https://api.github.com/users/dsw88/events{/privacy}",
    "received_events_url": "https://api.github.com/users/dsw88/received_events",
    "type": "User",
    "site_admin": false
  },
  "created_at": "2014-08-05T03:20:51Z",
  "updated_at": "2014-08-05T03:21:53Z",
  "body": "Given that the pull request hasn't been merged yet, I have a possible temporary roll-your-own solution. It's a sort of a mark-and-sweep algorithm that can be run asynchronously periodically:\r\n\r\n* Begin by assuming all images will be deleted.\r\n* Walk through your \"repositories\" directory and look at _index_images for each of them to see what images are consumed by that repository. Mark all of those images to be kept.\r\n* Once you've scanned through all the repositories, the set of remaining images that were not marked to be kept are the ones that can be deleted.\r\n\r\nThat's based on my limited experience with the registry, just looking at the way the image and repository data is stored in my S3 bucket. Can someone with more experience with the registry than me confirm that this is a good algorithm for removing unused images?"
}
]
