[
{
  "url": "https://api.github.com/repos/docker/docker-registry/issues/comments/30755595",
  "html_url": "https://github.com/docker/docker-registry/pull/159#issuecomment-30755595",
  "issue_url": "https://api.github.com/repos/docker/docker-registry/issues/159",
  "id": 30755595,
  "user": {
    "login": "shin-",
    "id": 1086876,
    "avatar_url": "https://avatars.githubusercontent.com/u/1086876?v=3",
    "gravatar_id": "",
    "url": "https://api.github.com/users/shin-",
    "html_url": "https://github.com/shin-",
    "followers_url": "https://api.github.com/users/shin-/followers",
    "following_url": "https://api.github.com/users/shin-/following{/other_user}",
    "gists_url": "https://api.github.com/users/shin-/gists{/gist_id}",
    "starred_url": "https://api.github.com/users/shin-/starred{/owner}{/repo}",
    "subscriptions_url": "https://api.github.com/users/shin-/subscriptions",
    "organizations_url": "https://api.github.com/users/shin-/orgs",
    "repos_url": "https://api.github.com/users/shin-/repos",
    "events_url": "https://api.github.com/users/shin-/events{/privacy}",
    "received_events_url": "https://api.github.com/users/shin-/received_events",
    "type": "User",
    "site_admin": false
  },
  "created_at": "2013-12-17T14:39:40Z",
  "updated_at": "2013-12-17T14:39:40Z",
  "body": "LGTM. =)"
}
]
