[
{
  "url": "https://api.github.com/repos/Azure/node-sqlserver/issues/comments/38094087",
  "html_url": "https://github.com/Azure/node-sqlserver/issues/162#issuecomment-38094087",
  "issue_url": "https://api.github.com/repos/Azure/node-sqlserver/issues/162",
  "id": 38094087,
  "user": {
    "login": "jorgeazevedo",
    "id": 1672034,
    "avatar_url": "https://avatars.githubusercontent.com/u/1672034?v=3",
    "gravatar_id": "",
    "url": "https://api.github.com/users/jorgeazevedo",
    "html_url": "https://github.com/jorgeazevedo",
    "followers_url": "https://api.github.com/users/jorgeazevedo/followers",
    "following_url": "https://api.github.com/users/jorgeazevedo/following{/other_user}",
    "gists_url": "https://api.github.com/users/jorgeazevedo/gists{/gist_id}",
    "starred_url": "https://api.github.com/users/jorgeazevedo/starred{/owner}{/repo}",
    "subscriptions_url": "https://api.github.com/users/jorgeazevedo/subscriptions",
    "organizations_url": "https://api.github.com/users/jorgeazevedo/orgs",
    "repos_url": "https://api.github.com/users/jorgeazevedo/repos",
    "events_url": "https://api.github.com/users/jorgeazevedo/events{/privacy}",
    "received_events_url": "https://api.github.com/users/jorgeazevedo/received_events",
    "type": "User",
    "site_admin": false
  },
  "created_at": "2014-03-19T19:11:36Z",
  "updated_at": "2014-03-19T19:11:36Z",
  "body": "I can't help you with the compilation issue. However, if you need to get stuff done right away, I have a binary distribution of this driver [up on npm](https://github.com/jorgeazevedo/node-sqlserver-unofficial)."
}
, {
  "url": "https://api.github.com/repos/Azure/node-sqlserver/issues/comments/38095231",
  "html_url": "https://github.com/Azure/node-sqlserver/issues/162#issuecomment-38095231",
  "issue_url": "https://api.github.com/repos/Azure/node-sqlserver/issues/162",
  "id": 38095231,
  "user": {
    "login": "KevinBurton",
    "id": 2643566,
    "avatar_url": "https://avatars.githubusercontent.com/u/2643566?v=3",
    "gravatar_id": "",
    "url": "https://api.github.com/users/KevinBurton",
    "html_url": "https://github.com/KevinBurton",
    "followers_url": "https://api.github.com/users/KevinBurton/followers",
    "following_url": "https://api.github.com/users/KevinBurton/following{/other_user}",
    "gists_url": "https://api.github.com/users/KevinBurton/gists{/gist_id}",
    "starred_url": "https://api.github.com/users/KevinBurton/starred{/owner}{/repo}",
    "subscriptions_url": "https://api.github.com/users/KevinBurton/subscriptions",
    "organizations_url": "https://api.github.com/users/KevinBurton/orgs",
    "repos_url": "https://api.github.com/users/KevinBurton/repos",
    "events_url": "https://api.github.com/users/KevinBurton/events{/privacy}",
    "received_events_url": "https://api.github.com/users/KevinBurton/received_events",
    "type": "User",
    "site_admin": false
  },
  "created_at": "2014-03-19T19:21:11Z",
  "updated_at": "2014-03-19T19:21:11Z",
  "body": "\nThank you very much.\nOn the dependencies you indicated that the 2012 Feature Pack should be \ninstalled. It seems that there are many parts. Which one did you have in \nmind?\n\nOn Wed, Mar 19, 2014 at 2:11 PM, Jorge Azevedo wrote:\n\n  I can't help you with the compilation issue. However, if you need to \nget stuff done right away, I have a binary distribution of this driver \nup on npm <https://github.com/jorgeazevedo/node-sqlserver-unofficial> . \n<https://github.com/jorgeazevedo/node-sqlserver-unofficial>\n&mdash;\nReply to this email directly or view it on GitHub \n<https://github.com/WindowsAzure/node-sqlserver/issues/162#issuecomment-38094087> \n. \n<https://github.com/WindowsAzure/node-sqlserver/issues/162#issuecomment-38094087>"
}
, {
  "url": "https://api.github.com/repos/Azure/node-sqlserver/issues/comments/38103164",
  "html_url": "https://github.com/Azure/node-sqlserver/issues/162#issuecomment-38103164",
  "issue_url": "https://api.github.com/repos/Azure/node-sqlserver/issues/162",
  "id": 38103164,
  "user": {
    "login": "jorgeazevedo",
    "id": 1672034,
    "avatar_url": "https://avatars.githubusercontent.com/u/1672034?v=3",
    "gravatar_id": "",
    "url": "https://api.github.com/users/jorgeazevedo",
    "html_url": "https://github.com/jorgeazevedo",
    "followers_url": "https://api.github.com/users/jorgeazevedo/followers",
    "following_url": "https://api.github.com/users/jorgeazevedo/following{/other_user}",
    "gists_url": "https://api.github.com/users/jorgeazevedo/gists{/gist_id}",
    "starred_url": "https://api.github.com/users/jorgeazevedo/starred{/owner}{/repo}",
    "subscriptions_url": "https://api.github.com/users/jorgeazevedo/subscriptions",
    "organizations_url": "https://api.github.com/users/jorgeazevedo/orgs",
    "repos_url": "https://api.github.com/users/jorgeazevedo/repos",
    "events_url": "https://api.github.com/users/jorgeazevedo/events{/privacy}",
    "received_events_url": "https://api.github.com/users/jorgeazevedo/received_events",
    "type": "User",
    "site_admin": false
  },
  "created_at": "2014-03-19T20:33:50Z",
  "updated_at": "2014-03-19T20:33:50Z",
  "body": "Just the Microsoft SQL Server 2012 Native Client.\r\n\r\n"
}
]
