[
{
  "url": "https://api.github.com/repos/heroku/vegur/issues/comments/67547515",
  "html_url": "https://github.com/heroku/vegur/pull/119#issuecomment-67547515",
  "issue_url": "https://api.github.com/repos/heroku/vegur/issues/119",
  "id": 67547515,
  "user": {
    "login": "catamorphism",
    "id": 427212,
    "avatar_url": "https://avatars.githubusercontent.com/u/427212?v=3",
    "gravatar_id": "",
    "url": "https://api.github.com/users/catamorphism",
    "html_url": "https://github.com/catamorphism",
    "followers_url": "https://api.github.com/users/catamorphism/followers",
    "following_url": "https://api.github.com/users/catamorphism/following{/other_user}",
    "gists_url": "https://api.github.com/users/catamorphism/gists{/gist_id}",
    "starred_url": "https://api.github.com/users/catamorphism/starred{/owner}{/repo}",
    "subscriptions_url": "https://api.github.com/users/catamorphism/subscriptions",
    "organizations_url": "https://api.github.com/users/catamorphism/orgs",
    "repos_url": "https://api.github.com/users/catamorphism/repos",
    "events_url": "https://api.github.com/users/catamorphism/events{/privacy}",
    "received_events_url": "https://api.github.com/users/catamorphism/received_events",
    "type": "User",
    "site_admin": false
  },
  "created_at": "2014-12-18T20:01:37Z",
  "updated_at": "2014-12-18T20:01:37Z",
  "body": "+1"
}
]
