[
{
  "url": "https://api.github.com/repos/docker/machine/issues/comments/157645650",
  "html_url": "https://github.com/docker/machine/pull/2290#issuecomment-157645650",
  "issue_url": "https://api.github.com/repos/docker/machine/issues/2290",
  "id": 157645650,
  "user": {
    "login": "dmp42",
    "id": 332946,
    "avatar_url": "https://avatars.githubusercontent.com/u/332946?v=3",
    "gravatar_id": "",
    "url": "https://api.github.com/users/dmp42",
    "html_url": "https://github.com/dmp42",
    "followers_url": "https://api.github.com/users/dmp42/followers",
    "following_url": "https://api.github.com/users/dmp42/following{/other_user}",
    "gists_url": "https://api.github.com/users/dmp42/gists{/gist_id}",
    "starred_url": "https://api.github.com/users/dmp42/starred{/owner}{/repo}",
    "subscriptions_url": "https://api.github.com/users/dmp42/subscriptions",
    "organizations_url": "https://api.github.com/users/dmp42/orgs",
    "repos_url": "https://api.github.com/users/dmp42/repos",
    "events_url": "https://api.github.com/users/dmp42/events{/privacy}",
    "received_events_url": "https://api.github.com/users/dmp42/received_events",
    "type": "User",
    "site_admin": false
  },
  "created_at": "2015-11-18T08:42:14Z",
  "updated_at": "2015-11-18T08:42:14Z",
  "body": "@nathanleclaire no maintainer should merge its own code himself.\r\n*LGTM are mandatory*.\r\n It should not be necessary to point that out."
}
, {
  "url": "https://api.github.com/repos/docker/machine/issues/comments/157873669",
  "html_url": "https://github.com/docker/machine/pull/2290#issuecomment-157873669",
  "issue_url": "https://api.github.com/repos/docker/machine/issues/2290",
  "id": 157873669,
  "user": {
    "login": "nathanleclaire",
    "id": 1476820,
    "avatar_url": "https://avatars.githubusercontent.com/u/1476820?v=3",
    "gravatar_id": "",
    "url": "https://api.github.com/users/nathanleclaire",
    "html_url": "https://github.com/nathanleclaire",
    "followers_url": "https://api.github.com/users/nathanleclaire/followers",
    "following_url": "https://api.github.com/users/nathanleclaire/following{/other_user}",
    "gists_url": "https://api.github.com/users/nathanleclaire/gists{/gist_id}",
    "starred_url": "https://api.github.com/users/nathanleclaire/starred{/owner}{/repo}",
    "subscriptions_url": "https://api.github.com/users/nathanleclaire/subscriptions",
    "organizations_url": "https://api.github.com/users/nathanleclaire/orgs",
    "repos_url": "https://api.github.com/users/nathanleclaire/repos",
    "events_url": "https://api.github.com/users/nathanleclaire/events{/privacy}",
    "received_events_url": "https://api.github.com/users/nathanleclaire/received_events",
    "type": "User",
    "site_admin": false
  },
  "created_at": "2015-11-18T21:40:44Z",
  "updated_at": "2015-11-18T21:40:44Z",
  "body": "@dmp42 Naturally, but the LGTM on a single commit shows up on a PR with multiple commits.  I was being explicit.  It's why I asked @dgageot to put commits which are not dependent on each other into different PRs."
}
]
