[
{
  "url": "https://api.github.com/repos/docker/machine/issues/comments/74686423",
  "html_url": "https://github.com/docker/machine/issues/548#issuecomment-74686423",
  "issue_url": "https://api.github.com/repos/docker/machine/issues/548",
  "id": 74686423,
  "user": {
    "login": "ehazlett",
    "id": 260642,
    "avatar_url": "https://avatars.githubusercontent.com/u/260642?v=3",
    "gravatar_id": "",
    "url": "https://api.github.com/users/ehazlett",
    "html_url": "https://github.com/ehazlett",
    "followers_url": "https://api.github.com/users/ehazlett/followers",
    "following_url": "https://api.github.com/users/ehazlett/following{/other_user}",
    "gists_url": "https://api.github.com/users/ehazlett/gists{/gist_id}",
    "starred_url": "https://api.github.com/users/ehazlett/starred{/owner}{/repo}",
    "subscriptions_url": "https://api.github.com/users/ehazlett/subscriptions",
    "organizations_url": "https://api.github.com/users/ehazlett/orgs",
    "repos_url": "https://api.github.com/users/ehazlett/repos",
    "events_url": "https://api.github.com/users/ehazlett/events{/privacy}",
    "received_events_url": "https://api.github.com/users/ehazlett/received_events",
    "type": "User",
    "site_admin": false
  },
  "created_at": "2015-02-17T15:32:48Z",
  "updated_at": "2015-02-17T15:32:48Z",
  "body": "By default machines use TLS and listen on 2376.  You will need to use the certs and that port to connect via TCP."
}
]
