[
{
  "url": "https://api.github.com/repos/docker/machine/issues/comments/120535569",
  "html_url": "https://github.com/docker/machine/pull/1499#issuecomment-120535569",
  "issue_url": "https://api.github.com/repos/docker/machine/issues/1499",
  "id": 120535569,
  "user": {
    "login": "ehazlett",
    "id": 260642,
    "avatar_url": "https://avatars.githubusercontent.com/u/260642?v=3",
    "gravatar_id": "",
    "url": "https://api.github.com/users/ehazlett",
    "html_url": "https://github.com/ehazlett",
    "followers_url": "https://api.github.com/users/ehazlett/followers",
    "following_url": "https://api.github.com/users/ehazlett/following{/other_user}",
    "gists_url": "https://api.github.com/users/ehazlett/gists{/gist_id}",
    "starred_url": "https://api.github.com/users/ehazlett/starred{/owner}{/repo}",
    "subscriptions_url": "https://api.github.com/users/ehazlett/subscriptions",
    "organizations_url": "https://api.github.com/users/ehazlett/orgs",
    "repos_url": "https://api.github.com/users/ehazlett/repos",
    "events_url": "https://api.github.com/users/ehazlett/events{/privacy}",
    "received_events_url": "https://api.github.com/users/ehazlett/received_events",
    "type": "User",
    "site_admin": false
  },
  "created_at": "2015-07-10T21:38:31Z",
  "updated_at": "2015-07-10T21:38:31Z",
  "body": "LGTM\r\n\r\n/cc @nathanleclaire @tianon "
}
, {
  "url": "https://api.github.com/repos/docker/machine/issues/comments/120538198",
  "html_url": "https://github.com/docker/machine/pull/1499#issuecomment-120538198",
  "issue_url": "https://api.github.com/repos/docker/machine/issues/1499",
  "id": 120538198,
  "user": {
    "login": "chantra",
    "id": 24572,
    "avatar_url": "https://avatars.githubusercontent.com/u/24572?v=3",
    "gravatar_id": "",
    "url": "https://api.github.com/users/chantra",
    "html_url": "https://github.com/chantra",
    "followers_url": "https://api.github.com/users/chantra/followers",
    "following_url": "https://api.github.com/users/chantra/following{/other_user}",
    "gists_url": "https://api.github.com/users/chantra/gists{/gist_id}",
    "starred_url": "https://api.github.com/users/chantra/starred{/owner}{/repo}",
    "subscriptions_url": "https://api.github.com/users/chantra/subscriptions",
    "organizations_url": "https://api.github.com/users/chantra/orgs",
    "repos_url": "https://api.github.com/users/chantra/repos",
    "events_url": "https://api.github.com/users/chantra/events{/privacy}",
    "received_events_url": "https://api.github.com/users/chantra/received_events",
    "type": "User",
    "site_admin": false
  },
  "created_at": "2015-07-10T21:56:38Z",
  "updated_at": "2015-07-10T21:56:38Z",
  "body": "I reckon that should also be ported to other systemd based distro but did not get a chance to test it on those."
}
, {
  "url": "https://api.github.com/repos/docker/machine/issues/comments/120539555",
  "html_url": "https://github.com/docker/machine/pull/1499#issuecomment-120539555",
  "issue_url": "https://api.github.com/repos/docker/machine/issues/1499",
  "id": 120539555,
  "user": {
    "login": "nathanleclaire",
    "id": 1476820,
    "avatar_url": "https://avatars.githubusercontent.com/u/1476820?v=3",
    "gravatar_id": "",
    "url": "https://api.github.com/users/nathanleclaire",
    "html_url": "https://github.com/nathanleclaire",
    "followers_url": "https://api.github.com/users/nathanleclaire/followers",
    "following_url": "https://api.github.com/users/nathanleclaire/following{/other_user}",
    "gists_url": "https://api.github.com/users/nathanleclaire/gists{/gist_id}",
    "starred_url": "https://api.github.com/users/nathanleclaire/starred{/owner}{/repo}",
    "subscriptions_url": "https://api.github.com/users/nathanleclaire/subscriptions",
    "organizations_url": "https://api.github.com/users/nathanleclaire/orgs",
    "repos_url": "https://api.github.com/users/nathanleclaire/repos",
    "events_url": "https://api.github.com/users/nathanleclaire/events{/privacy}",
    "received_events_url": "https://api.github.com/users/nathanleclaire/received_events",
    "type": "User",
    "site_admin": false
  },
  "created_at": "2015-07-10T22:07:48Z",
  "updated_at": "2015-07-10T22:07:48Z",
  "body": "LGTM"
}
]
