[
{
  "url": "https://api.github.com/repos/docker/machine/issues/comments/111146285",
  "html_url": "https://github.com/docker/machine/issues/1346#issuecomment-111146285",
  "issue_url": "https://api.github.com/repos/docker/machine/issues/1346",
  "id": 111146285,
  "user": {
    "login": "ehazlett",
    "id": 260642,
    "avatar_url": "https://avatars.githubusercontent.com/u/260642?v=3",
    "gravatar_id": "",
    "url": "https://api.github.com/users/ehazlett",
    "html_url": "https://github.com/ehazlett",
    "followers_url": "https://api.github.com/users/ehazlett/followers",
    "following_url": "https://api.github.com/users/ehazlett/following{/other_user}",
    "gists_url": "https://api.github.com/users/ehazlett/gists{/gist_id}",
    "starred_url": "https://api.github.com/users/ehazlett/starred{/owner}{/repo}",
    "subscriptions_url": "https://api.github.com/users/ehazlett/subscriptions",
    "organizations_url": "https://api.github.com/users/ehazlett/orgs",
    "repos_url": "https://api.github.com/users/ehazlett/repos",
    "events_url": "https://api.github.com/users/ehazlett/events{/privacy}",
    "received_events_url": "https://api.github.com/users/ehazlett/received_events",
    "type": "User",
    "site_admin": false
  },
  "created_at": "2015-06-11T14:03:20Z",
  "updated_at": "2015-06-11T14:03:20Z",
  "body": "Perhaps it's a race in bringing up the second interface (hostonly).  We currently only wait for SSH which is on the NAT with a port forward (https://github.com/docker/machine/blob/master/drivers/virtualbox/virtualbox.go#L400).  I wonder if it's attempting to `GetIP` before the hostonly is ready?"
}
, {
  "url": "https://api.github.com/repos/docker/machine/issues/comments/111221986",
  "html_url": "https://github.com/docker/machine/issues/1346#issuecomment-111221986",
  "issue_url": "https://api.github.com/repos/docker/machine/issues/1346",
  "id": 111221986,
  "user": {
    "login": "ehazlett",
    "id": 260642,
    "avatar_url": "https://avatars.githubusercontent.com/u/260642?v=3",
    "gravatar_id": "",
    "url": "https://api.github.com/users/ehazlett",
    "html_url": "https://github.com/ehazlett",
    "followers_url": "https://api.github.com/users/ehazlett/followers",
    "following_url": "https://api.github.com/users/ehazlett/following{/other_user}",
    "gists_url": "https://api.github.com/users/ehazlett/gists{/gist_id}",
    "starred_url": "https://api.github.com/users/ehazlett/starred{/owner}{/repo}",
    "subscriptions_url": "https://api.github.com/users/ehazlett/subscriptions",
    "organizations_url": "https://api.github.com/users/ehazlett/orgs",
    "repos_url": "https://api.github.com/users/ehazlett/repos",
    "events_url": "https://api.github.com/users/ehazlett/events{/privacy}",
    "received_events_url": "https://api.github.com/users/ehazlett/received_events",
    "type": "User",
    "site_admin": false
  },
  "created_at": "2015-06-11T17:51:44Z",
  "updated_at": "2015-06-11T17:51:44Z",
  "body": "This appears to be from the legacy configs in VirtualBox and doesn't appear to be happening with new machines.  I think we need a config migration."
}
, {
  "url": "https://api.github.com/repos/docker/machine/issues/comments/112194042",
  "html_url": "https://github.com/docker/machine/issues/1346#issuecomment-112194042",
  "issue_url": "https://api.github.com/repos/docker/machine/issues/1346",
  "id": 112194042,
  "user": {
    "login": "ehazlett",
    "id": 260642,
    "avatar_url": "https://avatars.githubusercontent.com/u/260642?v=3",
    "gravatar_id": "",
    "url": "https://api.github.com/users/ehazlett",
    "html_url": "https://github.com/ehazlett",
    "followers_url": "https://api.github.com/users/ehazlett/followers",
    "following_url": "https://api.github.com/users/ehazlett/following{/other_user}",
    "gists_url": "https://api.github.com/users/ehazlett/gists{/gist_id}",
    "starred_url": "https://api.github.com/users/ehazlett/starred{/owner}{/repo}",
    "subscriptions_url": "https://api.github.com/users/ehazlett/subscriptions",
    "organizations_url": "https://api.github.com/users/ehazlett/orgs",
    "repos_url": "https://api.github.com/users/ehazlett/repos",
    "events_url": "https://api.github.com/users/ehazlett/events{/privacy}",
    "received_events_url": "https://api.github.com/users/ehazlett/received_events",
    "type": "User",
    "site_admin": false
  },
  "created_at": "2015-06-15T20:13:14Z",
  "updated_at": "2015-06-15T20:13:14Z",
  "body": "Closing as #1349 was merged"
}
]
