[
{
  "url": "https://api.github.com/repos/ParsePlatform/Docs/issues/comments/171089111",
  "html_url": "https://github.com/ParsePlatform/Docs/pull/305#issuecomment-171089111",
  "issue_url": "https://api.github.com/repos/ParsePlatform/Docs/issues/305",
  "id": 171089111,
  "user": {
    "login": "hramos",
    "id": 165856,
    "avatar_url": "https://avatars.githubusercontent.com/u/165856?v=3",
    "gravatar_id": "",
    "url": "https://api.github.com/users/hramos",
    "html_url": "https://github.com/hramos",
    "followers_url": "https://api.github.com/users/hramos/followers",
    "following_url": "https://api.github.com/users/hramos/following{/other_user}",
    "gists_url": "https://api.github.com/users/hramos/gists{/gist_id}",
    "starred_url": "https://api.github.com/users/hramos/starred{/owner}{/repo}",
    "subscriptions_url": "https://api.github.com/users/hramos/subscriptions",
    "organizations_url": "https://api.github.com/users/hramos/orgs",
    "repos_url": "https://api.github.com/users/hramos/repos",
    "events_url": "https://api.github.com/users/hramos/events{/privacy}",
    "received_events_url": "https://api.github.com/users/hramos/received_events",
    "type": "User",
    "site_admin": false
  },
  "created_at": "2016-01-12T22:56:56Z",
  "updated_at": "2016-01-12T22:56:56Z",
  "body": "PTAL"
}
, {
  "url": "https://api.github.com/repos/ParsePlatform/Docs/issues/comments/171093913",
  "html_url": "https://github.com/ParsePlatform/Docs/pull/305#issuecomment-171093913",
  "issue_url": "https://api.github.com/repos/ParsePlatform/Docs/issues/305",
  "id": 171093913,
  "user": {
    "login": "hallucinogen",
    "id": 681920,
    "avatar_url": "https://avatars.githubusercontent.com/u/681920?v=3",
    "gravatar_id": "",
    "url": "https://api.github.com/users/hallucinogen",
    "html_url": "https://github.com/hallucinogen",
    "followers_url": "https://api.github.com/users/hallucinogen/followers",
    "following_url": "https://api.github.com/users/hallucinogen/following{/other_user}",
    "gists_url": "https://api.github.com/users/hallucinogen/gists{/gist_id}",
    "starred_url": "https://api.github.com/users/hallucinogen/starred{/owner}{/repo}",
    "subscriptions_url": "https://api.github.com/users/hallucinogen/subscriptions",
    "organizations_url": "https://api.github.com/users/hallucinogen/orgs",
    "repos_url": "https://api.github.com/users/hallucinogen/repos",
    "events_url": "https://api.github.com/users/hallucinogen/events{/privacy}",
    "received_events_url": "https://api.github.com/users/hallucinogen/received_events",
    "type": "User",
    "site_admin": false
  },
  "created_at": "2016-01-12T23:13:37Z",
  "updated_at": "2016-01-12T23:13:37Z",
  "body": "THIS IS AMAZING! 6 comments left and this is good to go"
}
, {
  "url": "https://api.github.com/repos/ParsePlatform/Docs/issues/comments/171097468",
  "html_url": "https://github.com/ParsePlatform/Docs/pull/305#issuecomment-171097468",
  "issue_url": "https://api.github.com/repos/ParsePlatform/Docs/issues/305",
  "id": 171097468,
  "user": {
    "login": "hramos",
    "id": 165856,
    "avatar_url": "https://avatars.githubusercontent.com/u/165856?v=3",
    "gravatar_id": "",
    "url": "https://api.github.com/users/hramos",
    "html_url": "https://github.com/hramos",
    "followers_url": "https://api.github.com/users/hramos/followers",
    "following_url": "https://api.github.com/users/hramos/following{/other_user}",
    "gists_url": "https://api.github.com/users/hramos/gists{/gist_id}",
    "starred_url": "https://api.github.com/users/hramos/starred{/owner}{/repo}",
    "subscriptions_url": "https://api.github.com/users/hramos/subscriptions",
    "organizations_url": "https://api.github.com/users/hramos/orgs",
    "repos_url": "https://api.github.com/users/hramos/repos",
    "events_url": "https://api.github.com/users/hramos/events{/privacy}",
    "received_events_url": "https://api.github.com/users/hramos/received_events",
    "type": "User",
    "site_admin": false
  },
  "created_at": "2016-01-12T23:22:28Z",
  "updated_at": "2016-01-12T23:22:28Z",
  "body": "Alright! Fixed the last few comments that I missed."
}
, {
  "url": "https://api.github.com/repos/ParsePlatform/Docs/issues/comments/171097570",
  "html_url": "https://github.com/ParsePlatform/Docs/pull/305#issuecomment-171097570",
  "issue_url": "https://api.github.com/repos/ParsePlatform/Docs/issues/305",
  "id": 171097570,
  "user": {
    "login": "hramos",
    "id": 165856,
    "avatar_url": "https://avatars.githubusercontent.com/u/165856?v=3",
    "gravatar_id": "",
    "url": "https://api.github.com/users/hramos",
    "html_url": "https://github.com/hramos",
    "followers_url": "https://api.github.com/users/hramos/followers",
    "following_url": "https://api.github.com/users/hramos/following{/other_user}",
    "gists_url": "https://api.github.com/users/hramos/gists{/gist_id}",
    "starred_url": "https://api.github.com/users/hramos/starred{/owner}{/repo}",
    "subscriptions_url": "https://api.github.com/users/hramos/subscriptions",
    "organizations_url": "https://api.github.com/users/hramos/orgs",
    "repos_url": "https://api.github.com/users/hramos/repos",
    "events_url": "https://api.github.com/users/hramos/events{/privacy}",
    "received_events_url": "https://api.github.com/users/hramos/received_events",
    "type": "User",
    "site_admin": false
  },
  "created_at": "2016-01-12T23:22:47Z",
  "updated_at": "2016-01-12T23:22:47Z",
  "body": "Thanks for taking the time to review this massive diff, by the way."
}
, {
  "url": "https://api.github.com/repos/ParsePlatform/Docs/issues/comments/171103190",
  "html_url": "https://github.com/ParsePlatform/Docs/pull/305#issuecomment-171103190",
  "issue_url": "https://api.github.com/repos/ParsePlatform/Docs/issues/305",
  "id": 171103190,
  "user": {
    "login": "hallucinogen",
    "id": 681920,
    "avatar_url": "https://avatars.githubusercontent.com/u/681920?v=3",
    "gravatar_id": "",
    "url": "https://api.github.com/users/hallucinogen",
    "html_url": "https://github.com/hallucinogen",
    "followers_url": "https://api.github.com/users/hallucinogen/followers",
    "following_url": "https://api.github.com/users/hallucinogen/following{/other_user}",
    "gists_url": "https://api.github.com/users/hallucinogen/gists{/gist_id}",
    "starred_url": "https://api.github.com/users/hallucinogen/starred{/owner}{/repo}",
    "subscriptions_url": "https://api.github.com/users/hallucinogen/subscriptions",
    "organizations_url": "https://api.github.com/users/hallucinogen/orgs",
    "repos_url": "https://api.github.com/users/hallucinogen/repos",
    "events_url": "https://api.github.com/users/hallucinogen/events{/privacy}",
    "received_events_url": "https://api.github.com/users/hallucinogen/received_events",
    "type": "User",
    "site_admin": false
  },
  "created_at": "2016-01-12T23:52:41Z",
  "updated_at": "2016-01-12T23:52:41Z",
  "body": "Awesomesouce. Ship!"
}
]
