[
{
  "url": "https://api.github.com/repos/mapbox/vector-tile-js/issues/comments/40644781",
  "html_url": "https://github.com/mapbox/vector-tile-js/pull/2#issuecomment-40644781",
  "issue_url": "https://api.github.com/repos/mapbox/vector-tile-js/issues/2",
  "id": 40644781,
  "user": {
    "login": "springmeyer",
    "id": 20300,
    "avatar_url": "https://avatars.githubusercontent.com/u/20300?v=3",
    "gravatar_id": "",
    "url": "https://api.github.com/users/springmeyer",
    "html_url": "https://github.com/springmeyer",
    "followers_url": "https://api.github.com/users/springmeyer/followers",
    "following_url": "https://api.github.com/users/springmeyer/following{/other_user}",
    "gists_url": "https://api.github.com/users/springmeyer/gists{/gist_id}",
    "starred_url": "https://api.github.com/users/springmeyer/starred{/owner}{/repo}",
    "subscriptions_url": "https://api.github.com/users/springmeyer/subscriptions",
    "organizations_url": "https://api.github.com/users/springmeyer/orgs",
    "repos_url": "https://api.github.com/users/springmeyer/repos",
    "events_url": "https://api.github.com/users/springmeyer/events{/privacy}",
    "received_events_url": "https://api.github.com/users/springmeyer/received_events",
    "type": "User",
    "site_admin": false
  },
  "created_at": "2014-04-16T19:58:47Z",
  "updated_at": "2014-04-16T19:58:47Z",
  "body": "Looks great. I'm planning to revise the `toGeoJSON()` support in C++ as well soon, so I'll plan to test against this and merge when I get around to that. Thanks!"
}
, {
  "url": "https://api.github.com/repos/mapbox/vector-tile-js/issues/comments/70280868",
  "html_url": "https://github.com/mapbox/vector-tile-js/pull/2#issuecomment-70280868",
  "issue_url": "https://api.github.com/repos/mapbox/vector-tile-js/issues/2",
  "id": 70280868,
  "user": {
    "login": "bcamper",
    "id": 16733,
    "avatar_url": "https://avatars.githubusercontent.com/u/16733?v=3",
    "gravatar_id": "",
    "url": "https://api.github.com/users/bcamper",
    "html_url": "https://github.com/bcamper",
    "followers_url": "https://api.github.com/users/bcamper/followers",
    "following_url": "https://api.github.com/users/bcamper/following{/other_user}",
    "gists_url": "https://api.github.com/users/bcamper/gists{/gist_id}",
    "starred_url": "https://api.github.com/users/bcamper/starred{/owner}{/repo}",
    "subscriptions_url": "https://api.github.com/users/bcamper/subscriptions",
    "organizations_url": "https://api.github.com/users/bcamper/orgs",
    "repos_url": "https://api.github.com/users/bcamper/repos",
    "events_url": "https://api.github.com/users/bcamper/events{/privacy}",
    "received_events_url": "https://api.github.com/users/bcamper/received_events",
    "type": "User",
    "site_admin": false
  },
  "created_at": "2015-01-16T16:36:21Z",
  "updated_at": "2015-01-16T16:36:21Z",
  "body": "Hey guys, this is pretty out of date. I am happy to update it, but if you're not interested in merging (no worries), I would prefer to close and drop this fork."
}
, {
  "url": "https://api.github.com/repos/mapbox/vector-tile-js/issues/comments/75876740",
  "html_url": "https://github.com/mapbox/vector-tile-js/pull/2#issuecomment-75876740",
  "issue_url": "https://api.github.com/repos/mapbox/vector-tile-js/issues/2",
  "id": 75876740,
  "user": {
    "login": "jfirebaugh",
    "id": 98601,
    "avatar_url": "https://avatars.githubusercontent.com/u/98601?v=3",
    "gravatar_id": "",
    "url": "https://api.github.com/users/jfirebaugh",
    "html_url": "https://github.com/jfirebaugh",
    "followers_url": "https://api.github.com/users/jfirebaugh/followers",
    "following_url": "https://api.github.com/users/jfirebaugh/following{/other_user}",
    "gists_url": "https://api.github.com/users/jfirebaugh/gists{/gist_id}",
    "starred_url": "https://api.github.com/users/jfirebaugh/starred{/owner}{/repo}",
    "subscriptions_url": "https://api.github.com/users/jfirebaugh/subscriptions",
    "organizations_url": "https://api.github.com/users/jfirebaugh/orgs",
    "repos_url": "https://api.github.com/users/jfirebaugh/repos",
    "events_url": "https://api.github.com/users/jfirebaugh/events{/privacy}",
    "received_events_url": "https://api.github.com/users/jfirebaugh/received_events",
    "type": "User",
    "site_admin": false
  },
  "created_at": "2015-02-24T23:49:42Z",
  "updated_at": "2015-02-24T23:49:42Z",
  "body": "Sorry about leaving you hanging here Brett -- this PR slipped my mind when I was working on #20."
}
, {
  "url": "https://api.github.com/repos/mapbox/vector-tile-js/issues/comments/75978637",
  "html_url": "https://github.com/mapbox/vector-tile-js/pull/2#issuecomment-75978637",
  "issue_url": "https://api.github.com/repos/mapbox/vector-tile-js/issues/2",
  "id": 75978637,
  "user": {
    "login": "bcamper",
    "id": 16733,
    "avatar_url": "https://avatars.githubusercontent.com/u/16733?v=3",
    "gravatar_id": "",
    "url": "https://api.github.com/users/bcamper",
    "html_url": "https://github.com/bcamper",
    "followers_url": "https://api.github.com/users/bcamper/followers",
    "following_url": "https://api.github.com/users/bcamper/following{/other_user}",
    "gists_url": "https://api.github.com/users/bcamper/gists{/gist_id}",
    "starred_url": "https://api.github.com/users/bcamper/starred{/owner}{/repo}",
    "subscriptions_url": "https://api.github.com/users/bcamper/subscriptions",
    "organizations_url": "https://api.github.com/users/bcamper/orgs",
    "repos_url": "https://api.github.com/users/bcamper/repos",
    "events_url": "https://api.github.com/users/bcamper/events{/privacy}",
    "received_events_url": "https://api.github.com/users/bcamper/received_events",
    "type": "User",
    "site_admin": false
  },
  "created_at": "2015-02-25T15:21:38Z",
  "updated_at": "2015-02-25T15:21:38Z",
  "body": "No problem, it was out of date anyway and looked like it is no longer needed."
}
]
