[
{
  "url": "https://api.github.com/repos/stripe/timberlake/issues/comments/139425359",
  "html_url": "https://github.com/stripe/timberlake/pull/22#issuecomment-139425359",
  "issue_url": "https://api.github.com/repos/stripe/timberlake/issues/22",
  "id": 139425359,
  "user": {
    "login": "jbalogh",
    "id": 57258,
    "avatar_url": "https://avatars.githubusercontent.com/u/57258?v=3",
    "gravatar_id": "",
    "url": "https://api.github.com/users/jbalogh",
    "html_url": "https://github.com/jbalogh",
    "followers_url": "https://api.github.com/users/jbalogh/followers",
    "following_url": "https://api.github.com/users/jbalogh/following{/other_user}",
    "gists_url": "https://api.github.com/users/jbalogh/gists{/gist_id}",
    "starred_url": "https://api.github.com/users/jbalogh/starred{/owner}{/repo}",
    "subscriptions_url": "https://api.github.com/users/jbalogh/subscriptions",
    "organizations_url": "https://api.github.com/users/jbalogh/orgs",
    "repos_url": "https://api.github.com/users/jbalogh/repos",
    "events_url": "https://api.github.com/users/jbalogh/events{/privacy}",
    "received_events_url": "https://api.github.com/users/jbalogh/received_events",
    "type": "User",
    "site_admin": false
  },
  "created_at": "2015-09-11T01:24:40Z",
  "updated_at": "2015-09-11T01:24:40Z",
  "body": ":+1: on this. Just a few stylistic comments."
}
]
