[
{
  "url": "https://api.github.com/repos/elastic/logstash-contrib/issues/comments/103183195",
  "html_url": "https://github.com/elastic/logstash-contrib/pull/156#issuecomment-103183195",
  "issue_url": "https://api.github.com/repos/elastic/logstash-contrib/issues/156",
  "id": 103183195,
  "user": {
    "login": "wiibaa",
    "id": 659227,
    "avatar_url": "https://avatars.githubusercontent.com/u/659227?v=3",
    "gravatar_id": "",
    "url": "https://api.github.com/users/wiibaa",
    "html_url": "https://github.com/wiibaa",
    "followers_url": "https://api.github.com/users/wiibaa/followers",
    "following_url": "https://api.github.com/users/wiibaa/following{/other_user}",
    "gists_url": "https://api.github.com/users/wiibaa/gists{/gist_id}",
    "starred_url": "https://api.github.com/users/wiibaa/starred{/owner}{/repo}",
    "subscriptions_url": "https://api.github.com/users/wiibaa/subscriptions",
    "organizations_url": "https://api.github.com/users/wiibaa/orgs",
    "repos_url": "https://api.github.com/users/wiibaa/repos",
    "events_url": "https://api.github.com/users/wiibaa/events{/privacy}",
    "received_events_url": "https://api.github.com/users/wiibaa/received_events",
    "type": "User",
    "site_admin": false
  },
  "created_at": "2015-05-18T19:31:09Z",
  "updated_at": "2015-05-18T19:31:09Z",
  "body": "@suyograo this one is a dup of https://github.com/logstash-plugins/logstash-output-syslog/pull/2"
}
, {
  "url": "https://api.github.com/repos/elastic/logstash-contrib/issues/comments/103184050",
  "html_url": "https://github.com/elastic/logstash-contrib/pull/156#issuecomment-103184050",
  "issue_url": "https://api.github.com/repos/elastic/logstash-contrib/issues/156",
  "id": 103184050,
  "user": {
    "login": "suyograo",
    "id": 1595958,
    "avatar_url": "https://avatars.githubusercontent.com/u/1595958?v=3",
    "gravatar_id": "",
    "url": "https://api.github.com/users/suyograo",
    "html_url": "https://github.com/suyograo",
    "followers_url": "https://api.github.com/users/suyograo/followers",
    "following_url": "https://api.github.com/users/suyograo/following{/other_user}",
    "gists_url": "https://api.github.com/users/suyograo/gists{/gist_id}",
    "starred_url": "https://api.github.com/users/suyograo/starred{/owner}{/repo}",
    "subscriptions_url": "https://api.github.com/users/suyograo/subscriptions",
    "organizations_url": "https://api.github.com/users/suyograo/orgs",
    "repos_url": "https://api.github.com/users/suyograo/repos",
    "events_url": "https://api.github.com/users/suyograo/events{/privacy}",
    "received_events_url": "https://api.github.com/users/suyograo/received_events",
    "type": "User",
    "site_admin": false
  },
  "created_at": "2015-05-18T19:33:53Z",
  "updated_at": "2015-05-18T19:33:53Z",
  "body": "Dup of https://github.com/logstash-plugins/logstash-output-syslog/pull/2"
}
]
