[
{
  "url": "https://api.github.com/repos/google/web-starter-kit/issues/comments/102116792",
  "html_url": "https://github.com/google/web-starter-kit/issues/687#issuecomment-102116792",
  "issue_url": "https://api.github.com/repos/google/web-starter-kit/issues/687",
  "id": 102116792,
  "user": {
    "login": "hvsm",
    "id": 10994272,
    "avatar_url": "https://avatars.githubusercontent.com/u/10994272?v=3",
    "gravatar_id": "",
    "url": "https://api.github.com/users/hvsm",
    "html_url": "https://github.com/hvsm",
    "followers_url": "https://api.github.com/users/hvsm/followers",
    "following_url": "https://api.github.com/users/hvsm/following{/other_user}",
    "gists_url": "https://api.github.com/users/hvsm/gists{/gist_id}",
    "starred_url": "https://api.github.com/users/hvsm/starred{/owner}{/repo}",
    "subscriptions_url": "https://api.github.com/users/hvsm/subscriptions",
    "organizations_url": "https://api.github.com/users/hvsm/orgs",
    "repos_url": "https://api.github.com/users/hvsm/repos",
    "events_url": "https://api.github.com/users/hvsm/events{/privacy}",
    "received_events_url": "https://api.github.com/users/hvsm/received_events",
    "type": "User",
    "site_admin": false
  },
  "created_at": "2015-05-14T17:53:10Z",
  "updated_at": "2015-05-14T17:53:10Z",
  "body": "Well, detected the bug. After gulp script src changed. "
}
]
