[
{
  "url": "https://api.github.com/repos/google/web-starter-kit/issues/comments/77688277",
  "html_url": "https://github.com/google/web-starter-kit/issues/651#issuecomment-77688277",
  "issue_url": "https://api.github.com/repos/google/web-starter-kit/issues/651",
  "id": 77688277,
  "user": {
    "login": "addyosmani",
    "id": 110953,
    "avatar_url": "https://avatars.githubusercontent.com/u/110953?v=3",
    "gravatar_id": "",
    "url": "https://api.github.com/users/addyosmani",
    "html_url": "https://github.com/addyosmani",
    "followers_url": "https://api.github.com/users/addyosmani/followers",
    "following_url": "https://api.github.com/users/addyosmani/following{/other_user}",
    "gists_url": "https://api.github.com/users/addyosmani/gists{/gist_id}",
    "starred_url": "https://api.github.com/users/addyosmani/starred{/owner}{/repo}",
    "subscriptions_url": "https://api.github.com/users/addyosmani/subscriptions",
    "organizations_url": "https://api.github.com/users/addyosmani/orgs",
    "repos_url": "https://api.github.com/users/addyosmani/repos",
    "events_url": "https://api.github.com/users/addyosmani/events{/privacy}",
    "received_events_url": "https://api.github.com/users/addyosmani/received_events",
    "type": "User",
    "site_admin": false
  },
  "created_at": "2015-03-07T12:55:45Z",
  "updated_at": "2015-03-07T12:55:49Z",
  "body": "Thanks! @sgomes can you take a look?"
}
, {
  "url": "https://api.github.com/repos/google/web-starter-kit/issues/comments/78283027",
  "html_url": "https://github.com/google/web-starter-kit/issues/651#issuecomment-78283027",
  "issue_url": "https://api.github.com/repos/google/web-starter-kit/issues/651",
  "id": 78283027,
  "user": {
    "login": "sgomes",
    "id": 409615,
    "avatar_url": "https://avatars.githubusercontent.com/u/409615?v=3",
    "gravatar_id": "",
    "url": "https://api.github.com/users/sgomes",
    "html_url": "https://github.com/sgomes",
    "followers_url": "https://api.github.com/users/sgomes/followers",
    "following_url": "https://api.github.com/users/sgomes/following{/other_user}",
    "gists_url": "https://api.github.com/users/sgomes/gists{/gist_id}",
    "starred_url": "https://api.github.com/users/sgomes/starred{/owner}{/repo}",
    "subscriptions_url": "https://api.github.com/users/sgomes/subscriptions",
    "organizations_url": "https://api.github.com/users/sgomes/orgs",
    "repos_url": "https://api.github.com/users/sgomes/repos",
    "events_url": "https://api.github.com/users/sgomes/events{/privacy}",
    "received_events_url": "https://api.github.com/users/sgomes/received_events",
    "type": "User",
    "site_admin": false
  },
  "created_at": "2015-03-11T15:14:40Z",
  "updated_at": "2015-03-11T15:14:40Z",
  "body": "Yup, I'll see what I can do."
}
, {
  "url": "https://api.github.com/repos/google/web-starter-kit/issues/comments/78550222",
  "html_url": "https://github.com/google/web-starter-kit/issues/651#issuecomment-78550222",
  "issue_url": "https://api.github.com/repos/google/web-starter-kit/issues/651",
  "id": 78550222,
  "user": {
    "login": "MikeMitterer",
    "id": 116654,
    "avatar_url": "https://avatars.githubusercontent.com/u/116654?v=3",
    "gravatar_id": "",
    "url": "https://api.github.com/users/MikeMitterer",
    "html_url": "https://github.com/MikeMitterer",
    "followers_url": "https://api.github.com/users/MikeMitterer/followers",
    "following_url": "https://api.github.com/users/MikeMitterer/following{/other_user}",
    "gists_url": "https://api.github.com/users/MikeMitterer/gists{/gist_id}",
    "starred_url": "https://api.github.com/users/MikeMitterer/starred{/owner}{/repo}",
    "subscriptions_url": "https://api.github.com/users/MikeMitterer/subscriptions",
    "organizations_url": "https://api.github.com/users/MikeMitterer/orgs",
    "repos_url": "https://api.github.com/users/MikeMitterer/repos",
    "events_url": "https://api.github.com/users/MikeMitterer/events{/privacy}",
    "received_events_url": "https://api.github.com/users/MikeMitterer/received_events",
    "type": "User",
    "site_admin": false
  },
  "created_at": "2015-03-12T18:06:37Z",
  "updated_at": "2015-03-12T18:06:37Z",
  "body": "You already closed this issue but here: http://wsk.angular.mikemitterer.at/styleguide/index.html#/footer\r\nyou can see how the original mini-footer-reacts and the one with flexbox"
}
]
