[
{
  "url": "https://api.github.com/repos/google/web-starter-kit/issues/comments/56482109",
  "html_url": "https://github.com/google/web-starter-kit/issues/445#issuecomment-56482109",
  "issue_url": "https://api.github.com/repos/google/web-starter-kit/issues/445",
  "id": 56482109,
  "user": {
    "login": "addyosmani",
    "id": 110953,
    "avatar_url": "https://avatars.githubusercontent.com/u/110953?v=3",
    "gravatar_id": "",
    "url": "https://api.github.com/users/addyosmani",
    "html_url": "https://github.com/addyosmani",
    "followers_url": "https://api.github.com/users/addyosmani/followers",
    "following_url": "https://api.github.com/users/addyosmani/following{/other_user}",
    "gists_url": "https://api.github.com/users/addyosmani/gists{/gist_id}",
    "starred_url": "https://api.github.com/users/addyosmani/starred{/owner}{/repo}",
    "subscriptions_url": "https://api.github.com/users/addyosmani/subscriptions",
    "organizations_url": "https://api.github.com/users/addyosmani/orgs",
    "repos_url": "https://api.github.com/users/addyosmani/repos",
    "events_url": "https://api.github.com/users/addyosmani/events{/privacy}",
    "received_events_url": "https://api.github.com/users/addyosmani/received_events",
    "type": "User",
    "site_admin": false
  },
  "created_at": "2014-09-23T06:52:37Z",
  "updated_at": "2014-09-23T06:52:37Z",
  "body": "We can do that. Currently waiting to hear back from UX about Material Design footers but we can almost certainly ship with one."
}
, {
  "url": "https://api.github.com/repos/google/web-starter-kit/issues/comments/56508320",
  "html_url": "https://github.com/google/web-starter-kit/issues/445#issuecomment-56508320",
  "issue_url": "https://api.github.com/repos/google/web-starter-kit/issues/445",
  "id": 56508320,
  "user": {
    "login": "pchaganti",
    "id": 6500,
    "avatar_url": "https://avatars.githubusercontent.com/u/6500?v=3",
    "gravatar_id": "",
    "url": "https://api.github.com/users/pchaganti",
    "html_url": "https://github.com/pchaganti",
    "followers_url": "https://api.github.com/users/pchaganti/followers",
    "following_url": "https://api.github.com/users/pchaganti/following{/other_user}",
    "gists_url": "https://api.github.com/users/pchaganti/gists{/gist_id}",
    "starred_url": "https://api.github.com/users/pchaganti/starred{/owner}{/repo}",
    "subscriptions_url": "https://api.github.com/users/pchaganti/subscriptions",
    "organizations_url": "https://api.github.com/users/pchaganti/orgs",
    "repos_url": "https://api.github.com/users/pchaganti/repos",
    "events_url": "https://api.github.com/users/pchaganti/events{/privacy}",
    "received_events_url": "https://api.github.com/users/pchaganti/received_events",
    "type": "User",
    "site_admin": false
  },
  "created_at": "2014-09-23T11:51:33Z",
  "updated_at": "2014-09-23T11:51:33Z",
  "body": ":+1: "
}
, {
  "url": "https://api.github.com/repos/google/web-starter-kit/issues/comments/59225092",
  "html_url": "https://github.com/google/web-starter-kit/issues/445#issuecomment-59225092",
  "issue_url": "https://api.github.com/repos/google/web-starter-kit/issues/445",
  "id": 59225092,
  "user": {
    "login": "addyosmani",
    "id": 110953,
    "avatar_url": "https://avatars.githubusercontent.com/u/110953?v=3",
    "gravatar_id": "",
    "url": "https://api.github.com/users/addyosmani",
    "html_url": "https://github.com/addyosmani",
    "followers_url": "https://api.github.com/users/addyosmani/followers",
    "following_url": "https://api.github.com/users/addyosmani/following{/other_user}",
    "gists_url": "https://api.github.com/users/addyosmani/gists{/gist_id}",
    "starred_url": "https://api.github.com/users/addyosmani/starred{/owner}{/repo}",
    "subscriptions_url": "https://api.github.com/users/addyosmani/subscriptions",
    "organizations_url": "https://api.github.com/users/addyosmani/orgs",
    "repos_url": "https://api.github.com/users/addyosmani/repos",
    "events_url": "https://api.github.com/users/addyosmani/events{/privacy}",
    "received_events_url": "https://api.github.com/users/addyosmani/received_events",
    "type": "User",
    "site_admin": false
  },
  "created_at": "2014-10-15T15:33:16Z",
  "updated_at": "2014-10-15T15:33:16Z",
  "body": "@sethladd After evaluating the usefulness of a generic footer (a coloured block at the bottom of the page), we've decided that this is extremely specific to each site's own design and is best left to the end developer to define. \r\n\r\nThe Material spec will not be defining a footer component for the web outside of how this might appear for specific layouts (no layouts I have seen use them yet) and so it doesn't make sense to try prescribing what we interpret to be a good general footer just yet.\r\n\r\nI'll continue asking UX about updates to this next quarter, but for now a footer is out of scope for our next version."
}
]
