[
{
  "url": "https://api.github.com/repos/stripe/stripe-ruby/issues/comments/5284593",
  "html_url": "https://github.com/stripe/stripe-ruby/issues/15#issuecomment-5284593",
  "issue_url": "https://api.github.com/repos/stripe/stripe-ruby/issues/15",
  "id": 5284593,
  "user": {
    "login": "ebroder",
    "id": 28167,
    "avatar_url": "https://avatars.githubusercontent.com/u/28167?v=3",
    "gravatar_id": "",
    "url": "https://api.github.com/users/ebroder",
    "html_url": "https://github.com/ebroder",
    "followers_url": "https://api.github.com/users/ebroder/followers",
    "following_url": "https://api.github.com/users/ebroder/following{/other_user}",
    "gists_url": "https://api.github.com/users/ebroder/gists{/gist_id}",
    "starred_url": "https://api.github.com/users/ebroder/starred{/owner}{/repo}",
    "subscriptions_url": "https://api.github.com/users/ebroder/subscriptions",
    "organizations_url": "https://api.github.com/users/ebroder/orgs",
    "repos_url": "https://api.github.com/users/ebroder/repos",
    "events_url": "https://api.github.com/users/ebroder/events{/privacy}",
    "received_events_url": "https://api.github.com/users/ebroder/received_events",
    "type": "User",
    "site_admin": false
  },
  "created_at": "2012-04-23T16:01:55Z",
  "updated_at": "2012-04-23T16:01:55Z",
  "body": "Stephen - Sorry nobody's gotten back to you sooner on this. We're reworking things to make sure issues like this don't get dropped in the future.\r\n\r\nIt looks like there's a known problem with net/http in Ruby 1.9.2+ on OS X if you build Ruby using the version of OpenSSL shipped with OS X. There's a [blog post](http://www.christopherirish.com/2011/09/02/ruby-1-9-2-segmentation-fault-and-openssl/) and an [upstream Ruby bug](http://bugs.ruby-lang.org/issues/6238) about it.\r\n\r\nCould you try rebuilding Ruby using either a homebrew- or MacPorts-installed OpenSSL from the instructions on that blog post?"
}
, {
  "url": "https://api.github.com/repos/stripe/stripe-ruby/issues/comments/5285321",
  "html_url": "https://github.com/stripe/stripe-ruby/issues/15#issuecomment-5285321",
  "issue_url": "https://api.github.com/repos/stripe/stripe-ruby/issues/15",
  "id": 5285321,
  "user": {
    "login": "sbeckeriv",
    "id": 12170,
    "avatar_url": "https://avatars.githubusercontent.com/u/12170?v=3",
    "gravatar_id": "",
    "url": "https://api.github.com/users/sbeckeriv",
    "html_url": "https://github.com/sbeckeriv",
    "followers_url": "https://api.github.com/users/sbeckeriv/followers",
    "following_url": "https://api.github.com/users/sbeckeriv/following{/other_user}",
    "gists_url": "https://api.github.com/users/sbeckeriv/gists{/gist_id}",
    "starred_url": "https://api.github.com/users/sbeckeriv/starred{/owner}{/repo}",
    "subscriptions_url": "https://api.github.com/users/sbeckeriv/subscriptions",
    "organizations_url": "https://api.github.com/users/sbeckeriv/orgs",
    "repos_url": "https://api.github.com/users/sbeckeriv/repos",
    "events_url": "https://api.github.com/users/sbeckeriv/events{/privacy}",
    "received_events_url": "https://api.github.com/users/sbeckeriv/received_events",
    "type": "User",
    "site_admin": false
  },
  "created_at": "2012-04-23T16:33:43Z",
  "updated_at": "2012-04-23T16:33:43Z",
  "body": "Sorry I switched the code to use Amazon Payments so I can not test it. Most likely that is the issue. I will close this. "
}
]
