[
{
  "url": "https://api.github.com/repos/sourcegraph/sourcegraph.com/issues/comments/48127677",
  "html_url": "https://github.com/sourcegraph/sourcegraph.com/issues/139#issuecomment-48127677",
  "issue_url": "https://api.github.com/repos/sourcegraph/sourcegraph.com/issues/139",
  "id": 48127677,
  "user": {
    "login": "sqs",
    "id": 1976,
    "avatar_url": "https://avatars.githubusercontent.com/u/1976?v=3",
    "gravatar_id": "",
    "url": "https://api.github.com/users/sqs",
    "html_url": "https://github.com/sqs",
    "followers_url": "https://api.github.com/users/sqs/followers",
    "following_url": "https://api.github.com/users/sqs/following{/other_user}",
    "gists_url": "https://api.github.com/users/sqs/gists{/gist_id}",
    "starred_url": "https://api.github.com/users/sqs/starred{/owner}{/repo}",
    "subscriptions_url": "https://api.github.com/users/sqs/subscriptions",
    "organizations_url": "https://api.github.com/users/sqs/orgs",
    "repos_url": "https://api.github.com/users/sqs/repos",
    "events_url": "https://api.github.com/users/sqs/events{/privacy}",
    "received_events_url": "https://api.github.com/users/sqs/received_events",
    "type": "User",
    "site_admin": false
  },
  "created_at": "2014-07-06T21:30:48Z",
  "updated_at": "2014-07-06T21:30:48Z",
  "body": "We have set cache headers on some but not all pages. We do need to get the right caching logic for the rest of the pages. Is this in response to specific pages being slow to load?"
}
, {
  "url": "https://api.github.com/repos/sourcegraph/sourcegraph.com/issues/comments/48127803",
  "html_url": "https://github.com/sourcegraph/sourcegraph.com/issues/139#issuecomment-48127803",
  "issue_url": "https://api.github.com/repos/sourcegraph/sourcegraph.com/issues/139",
  "id": 48127803,
  "user": {
    "login": "diwu1989",
    "id": 380950,
    "avatar_url": "https://avatars.githubusercontent.com/u/380950?v=3",
    "gravatar_id": "",
    "url": "https://api.github.com/users/diwu1989",
    "html_url": "https://github.com/diwu1989",
    "followers_url": "https://api.github.com/users/diwu1989/followers",
    "following_url": "https://api.github.com/users/diwu1989/following{/other_user}",
    "gists_url": "https://api.github.com/users/diwu1989/gists{/gist_id}",
    "starred_url": "https://api.github.com/users/diwu1989/starred{/owner}{/repo}",
    "subscriptions_url": "https://api.github.com/users/diwu1989/subscriptions",
    "organizations_url": "https://api.github.com/users/diwu1989/orgs",
    "repos_url": "https://api.github.com/users/diwu1989/repos",
    "events_url": "https://api.github.com/users/diwu1989/events{/privacy}",
    "received_events_url": "https://api.github.com/users/diwu1989/received_events",
    "type": "User",
    "site_admin": false
  },
  "created_at": "2014-07-06T21:35:02Z",
  "updated_at": "2014-07-06T21:35:02Z",
  "body": "Not to any specific page.\r\n\r\nJust in general I think things could feel a lot snappier when you have a CDN fronting things. "
}
, {
  "url": "https://api.github.com/repos/sourcegraph/sourcegraph.com/issues/comments/48127858",
  "html_url": "https://github.com/sourcegraph/sourcegraph.com/issues/139#issuecomment-48127858",
  "issue_url": "https://api.github.com/repos/sourcegraph/sourcegraph.com/issues/139",
  "id": 48127858,
  "user": {
    "login": "sqs",
    "id": 1976,
    "avatar_url": "https://avatars.githubusercontent.com/u/1976?v=3",
    "gravatar_id": "",
    "url": "https://api.github.com/users/sqs",
    "html_url": "https://github.com/sqs",
    "followers_url": "https://api.github.com/users/sqs/followers",
    "following_url": "https://api.github.com/users/sqs/following{/other_user}",
    "gists_url": "https://api.github.com/users/sqs/gists{/gist_id}",
    "starred_url": "https://api.github.com/users/sqs/starred{/owner}{/repo}",
    "subscriptions_url": "https://api.github.com/users/sqs/subscriptions",
    "organizations_url": "https://api.github.com/users/sqs/orgs",
    "repos_url": "https://api.github.com/users/sqs/repos",
    "events_url": "https://api.github.com/users/sqs/events{/privacy}",
    "received_events_url": "https://api.github.com/users/sqs/received_events",
    "type": "User",
    "site_admin": false
  },
  "created_at": "2014-07-06T21:37:15Z",
  "updated_at": "2014-07-06T21:37:15Z",
  "body": "Got it. Agreed."
}
, {
  "url": "https://api.github.com/repos/sourcegraph/sourcegraph.com/issues/comments/48128743",
  "html_url": "https://github.com/sourcegraph/sourcegraph.com/issues/139#issuecomment-48128743",
  "issue_url": "https://api.github.com/repos/sourcegraph/sourcegraph.com/issues/139",
  "id": 48128743,
  "user": {
    "login": "diwu1989",
    "id": 380950,
    "avatar_url": "https://avatars.githubusercontent.com/u/380950?v=3",
    "gravatar_id": "",
    "url": "https://api.github.com/users/diwu1989",
    "html_url": "https://github.com/diwu1989",
    "followers_url": "https://api.github.com/users/diwu1989/followers",
    "following_url": "https://api.github.com/users/diwu1989/following{/other_user}",
    "gists_url": "https://api.github.com/users/diwu1989/gists{/gist_id}",
    "starred_url": "https://api.github.com/users/diwu1989/starred{/owner}{/repo}",
    "subscriptions_url": "https://api.github.com/users/diwu1989/subscriptions",
    "organizations_url": "https://api.github.com/users/diwu1989/orgs",
    "repos_url": "https://api.github.com/users/diwu1989/repos",
    "events_url": "https://api.github.com/users/diwu1989/events{/privacy}",
    "received_events_url": "https://api.github.com/users/diwu1989/received_events",
    "type": "User",
    "site_admin": false
  },
  "created_at": "2014-07-06T22:10:21Z",
  "updated_at": "2014-07-06T22:10:21Z",
  "body": "I just threw up a proxy for sourcegraph on our cloudflared domain, with special caching rule to CDN edge cache everything for 4 hours.\r\n\r\nYou can try it out at\r\nhttps://sourcegraph.betterworks.com/"
}
, {
  "url": "https://api.github.com/repos/sourcegraph/sourcegraph.com/issues/comments/48129468",
  "html_url": "https://github.com/sourcegraph/sourcegraph.com/issues/139#issuecomment-48129468",
  "issue_url": "https://api.github.com/repos/sourcegraph/sourcegraph.com/issues/139",
  "id": 48129468,
  "user": {
    "login": "sqs",
    "id": 1976,
    "avatar_url": "https://avatars.githubusercontent.com/u/1976?v=3",
    "gravatar_id": "",
    "url": "https://api.github.com/users/sqs",
    "html_url": "https://github.com/sqs",
    "followers_url": "https://api.github.com/users/sqs/followers",
    "following_url": "https://api.github.com/users/sqs/following{/other_user}",
    "gists_url": "https://api.github.com/users/sqs/gists{/gist_id}",
    "starred_url": "https://api.github.com/users/sqs/starred{/owner}{/repo}",
    "subscriptions_url": "https://api.github.com/users/sqs/subscriptions",
    "organizations_url": "https://api.github.com/users/sqs/orgs",
    "repos_url": "https://api.github.com/users/sqs/repos",
    "events_url": "https://api.github.com/users/sqs/events{/privacy}",
    "received_events_url": "https://api.github.com/users/sqs/received_events",
    "type": "User",
    "site_admin": false
  },
  "created_at": "2014-07-06T22:42:09Z",
  "updated_at": "2014-07-06T22:42:09Z",
  "body": "Thanks. We do plan to set up Cloudflare or another reverse caching proxy, but we wanted to experience the site uncached so it was easier for us to identify the slow parts. We have also gotten a number of bug reports from people who see stale info on the site (e.g., they just updated their GitHub repository, and it's not updated on Sourcegraph yet). So we do need some kind of intelligent caching logic. So far, we've implemented the correct caching headers on the repository pages (fully) and code view pages (partially)."
}
]
