[
{
  "url": "https://api.github.com/repos/yahoo/formatjs-site/issues/comments/49304090",
  "html_url": "https://github.com/yahoo/formatjs-site/pull/41#issuecomment-49304090",
  "issue_url": "https://api.github.com/repos/yahoo/formatjs-site/issues/41",
  "id": 49304090,
  "user": {
    "login": "yahoocla",
    "id": 6155154,
    "avatar_url": "https://avatars.githubusercontent.com/u/6155154?v=3",
    "gravatar_id": "",
    "url": "https://api.github.com/users/yahoocla",
    "html_url": "https://github.com/yahoocla",
    "followers_url": "https://api.github.com/users/yahoocla/followers",
    "following_url": "https://api.github.com/users/yahoocla/following{/other_user}",
    "gists_url": "https://api.github.com/users/yahoocla/gists{/gist_id}",
    "starred_url": "https://api.github.com/users/yahoocla/starred{/owner}{/repo}",
    "subscriptions_url": "https://api.github.com/users/yahoocla/subscriptions",
    "organizations_url": "https://api.github.com/users/yahoocla/orgs",
    "repos_url": "https://api.github.com/users/yahoocla/repos",
    "events_url": "https://api.github.com/users/yahoocla/events{/privacy}",
    "received_events_url": "https://api.github.com/users/yahoocla/received_events",
    "type": "User",
    "site_admin": false
  },
  "created_at": "2014-07-17T13:11:04Z",
  "updated_at": "2014-07-17T13:11:04Z",
  "body": "CLA is valid!"
}
, {
  "url": "https://api.github.com/repos/yahoo/formatjs-site/issues/comments/50501280",
  "html_url": "https://github.com/yahoo/formatjs-site/pull/41#issuecomment-50501280",
  "issue_url": "https://api.github.com/repos/yahoo/formatjs-site/issues/41",
  "id": 50501280,
  "user": {
    "login": "tilomitra",
    "id": 174783,
    "avatar_url": "https://avatars.githubusercontent.com/u/174783?v=3",
    "gravatar_id": "",
    "url": "https://api.github.com/users/tilomitra",
    "html_url": "https://github.com/tilomitra",
    "followers_url": "https://api.github.com/users/tilomitra/followers",
    "following_url": "https://api.github.com/users/tilomitra/following{/other_user}",
    "gists_url": "https://api.github.com/users/tilomitra/gists{/gist_id}",
    "starred_url": "https://api.github.com/users/tilomitra/starred{/owner}{/repo}",
    "subscriptions_url": "https://api.github.com/users/tilomitra/subscriptions",
    "organizations_url": "https://api.github.com/users/tilomitra/orgs",
    "repos_url": "https://api.github.com/users/tilomitra/repos",
    "events_url": "https://api.github.com/users/tilomitra/events{/privacy}",
    "received_events_url": "https://api.github.com/users/tilomitra/received_events",
    "type": "User",
    "site_admin": false
  },
  "created_at": "2014-07-29T16:29:12Z",
  "updated_at": "2014-07-29T16:29:12Z",
  "body": "Thanks! No one else on our team knows Japanese. :smile: "
}
]
