[
{
  "url": "https://api.github.com/repos/elastic/Painless/issues/comments/150102583",
  "html_url": "https://github.com/elastic/Painless/pull/10#issuecomment-150102583",
  "issue_url": "https://api.github.com/repos/elastic/Painless/issues/10",
  "id": 150102583,
  "user": {
    "login": "rmuir",
    "id": 504194,
    "avatar_url": "https://avatars.githubusercontent.com/u/504194?v=3",
    "gravatar_id": "",
    "url": "https://api.github.com/users/rmuir",
    "html_url": "https://github.com/rmuir",
    "followers_url": "https://api.github.com/users/rmuir/followers",
    "following_url": "https://api.github.com/users/rmuir/following{/other_user}",
    "gists_url": "https://api.github.com/users/rmuir/gists{/gist_id}",
    "starred_url": "https://api.github.com/users/rmuir/starred{/owner}{/repo}",
    "subscriptions_url": "https://api.github.com/users/rmuir/subscriptions",
    "organizations_url": "https://api.github.com/users/rmuir/orgs",
    "repos_url": "https://api.github.com/users/rmuir/repos",
    "events_url": "https://api.github.com/users/rmuir/events{/privacy}",
    "received_events_url": "https://api.github.com/users/rmuir/received_events",
    "type": "User",
    "site_admin": false
  },
  "created_at": "2015-10-22T04:15:10Z",
  "updated_at": "2015-10-22T04:15:10Z",
  "body": "looks good"
}
]
