[
{
  "url": "https://api.github.com/repos/mapbox/react-native-mapbox-gl/issues/comments/129657042",
  "html_url": "https://github.com/mapbox/react-native-mapbox-gl/issues/77#issuecomment-129657042",
  "issue_url": "https://api.github.com/repos/mapbox/react-native-mapbox-gl/issues/77",
  "id": 129657042,
  "user": {
    "login": "bsudekum",
    "id": 1058624,
    "avatar_url": "https://avatars.githubusercontent.com/u/1058624?v=3",
    "gravatar_id": "",
    "url": "https://api.github.com/users/bsudekum",
    "html_url": "https://github.com/bsudekum",
    "followers_url": "https://api.github.com/users/bsudekum/followers",
    "following_url": "https://api.github.com/users/bsudekum/following{/other_user}",
    "gists_url": "https://api.github.com/users/bsudekum/gists{/gist_id}",
    "starred_url": "https://api.github.com/users/bsudekum/starred{/owner}{/repo}",
    "subscriptions_url": "https://api.github.com/users/bsudekum/subscriptions",
    "organizations_url": "https://api.github.com/users/bsudekum/orgs",
    "repos_url": "https://api.github.com/users/bsudekum/repos",
    "events_url": "https://api.github.com/users/bsudekum/events{/privacy}",
    "received_events_url": "https://api.github.com/users/bsudekum/received_events",
    "type": "User",
    "site_admin": false
  },
  "created_at": "2015-08-11T00:33:10Z",
  "updated_at": "2015-08-11T00:33:10Z",
  "body": "I think this looks good. @christocracy want to make this into a PR?"
}
, {
  "url": "https://api.github.com/repos/mapbox/react-native-mapbox-gl/issues/comments/129659176",
  "html_url": "https://github.com/mapbox/react-native-mapbox-gl/issues/77#issuecomment-129659176",
  "issue_url": "https://api.github.com/repos/mapbox/react-native-mapbox-gl/issues/77",
  "id": 129659176,
  "user": {
    "login": "christocracy",
    "id": 14999,
    "avatar_url": "https://avatars.githubusercontent.com/u/14999?v=3",
    "gravatar_id": "",
    "url": "https://api.github.com/users/christocracy",
    "html_url": "https://github.com/christocracy",
    "followers_url": "https://api.github.com/users/christocracy/followers",
    "following_url": "https://api.github.com/users/christocracy/following{/other_user}",
    "gists_url": "https://api.github.com/users/christocracy/gists{/gist_id}",
    "starred_url": "https://api.github.com/users/christocracy/starred{/owner}{/repo}",
    "subscriptions_url": "https://api.github.com/users/christocracy/subscriptions",
    "organizations_url": "https://api.github.com/users/christocracy/orgs",
    "repos_url": "https://api.github.com/users/christocracy/repos",
    "events_url": "https://api.github.com/users/christocracy/events{/privacy}",
    "received_events_url": "https://api.github.com/users/christocracy/received_events",
    "type": "User",
    "site_admin": false
  },
  "created_at": "2015-08-11T00:47:25Z",
  "updated_at": "2015-08-11T00:47:25Z",
  "body": "I'll clean it up, add required logic and do a PR.\n\nOn Monday, August 10, 2015, Bobby Sudekum <notifications@github.com> wrote:\n\n> I think this looks good. @christocracy <https://github.com/christocracy>\n> want to make this into a PR?\n>\n> —\n> Reply to this email directly or view it on GitHub\n> <https://github.com/mapbox/react-native-mapbox-gl/issues/77#issuecomment-129657042>\n> .\n>\n\n\n-- \nSnet form Gmail Mobile\n"
}
, {
  "url": "https://api.github.com/repos/mapbox/react-native-mapbox-gl/issues/comments/131262527",
  "html_url": "https://github.com/mapbox/react-native-mapbox-gl/issues/77#issuecomment-131262527",
  "issue_url": "https://api.github.com/repos/mapbox/react-native-mapbox-gl/issues/77",
  "id": 131262527,
  "user": {
    "login": "friedbunny",
    "id": 1198851,
    "avatar_url": "https://avatars.githubusercontent.com/u/1198851?v=3",
    "gravatar_id": "",
    "url": "https://api.github.com/users/friedbunny",
    "html_url": "https://github.com/friedbunny",
    "followers_url": "https://api.github.com/users/friedbunny/followers",
    "following_url": "https://api.github.com/users/friedbunny/following{/other_user}",
    "gists_url": "https://api.github.com/users/friedbunny/gists{/gist_id}",
    "starred_url": "https://api.github.com/users/friedbunny/starred{/owner}{/repo}",
    "subscriptions_url": "https://api.github.com/users/friedbunny/subscriptions",
    "organizations_url": "https://api.github.com/users/friedbunny/orgs",
    "repos_url": "https://api.github.com/users/friedbunny/repos",
    "events_url": "https://api.github.com/users/friedbunny/events{/privacy}",
    "received_events_url": "https://api.github.com/users/friedbunny/received_events",
    "type": "User",
    "site_admin": false
  },
  "created_at": "2015-08-14T22:50:20Z",
  "updated_at": "2015-08-14T22:50:20Z",
  "body": "@christocracy The place to submit this fix would be upstream in [mapbox/mapbox-gl-native](https://github.com/mapbox/mapbox-gl-native), sticking it someplace in [platform/ios/MGLMapView.mm](https://github.com/mapbox/mapbox-gl-native/blob/master/platform/ios/MGLMapView.mm)."
}
, {
  "url": "https://api.github.com/repos/mapbox/react-native-mapbox-gl/issues/comments/131279416",
  "html_url": "https://github.com/mapbox/react-native-mapbox-gl/issues/77#issuecomment-131279416",
  "issue_url": "https://api.github.com/repos/mapbox/react-native-mapbox-gl/issues/77",
  "id": 131279416,
  "user": {
    "login": "christocracy",
    "id": 14999,
    "avatar_url": "https://avatars.githubusercontent.com/u/14999?v=3",
    "gravatar_id": "",
    "url": "https://api.github.com/users/christocracy",
    "html_url": "https://github.com/christocracy",
    "followers_url": "https://api.github.com/users/christocracy/followers",
    "following_url": "https://api.github.com/users/christocracy/following{/other_user}",
    "gists_url": "https://api.github.com/users/christocracy/gists{/gist_id}",
    "starred_url": "https://api.github.com/users/christocracy/starred{/owner}{/repo}",
    "subscriptions_url": "https://api.github.com/users/christocracy/subscriptions",
    "organizations_url": "https://api.github.com/users/christocracy/orgs",
    "repos_url": "https://api.github.com/users/christocracy/repos",
    "events_url": "https://api.github.com/users/christocracy/events{/privacy}",
    "received_events_url": "https://api.github.com/users/christocracy/received_events",
    "type": "User",
    "site_admin": false
  },
  "created_at": "2015-08-15T01:54:53Z",
  "updated_at": "2015-08-15T01:54:53Z",
  "body": "Ok, I'll swim upstream then."
}
, {
  "url": "https://api.github.com/repos/mapbox/react-native-mapbox-gl/issues/comments/156424298",
  "html_url": "https://github.com/mapbox/react-native-mapbox-gl/issues/77#issuecomment-156424298",
  "issue_url": "https://api.github.com/repos/mapbox/react-native-mapbox-gl/issues/77",
  "id": 156424298,
  "user": {
    "login": "byroncoetsee",
    "id": 4600132,
    "avatar_url": "https://avatars.githubusercontent.com/u/4600132?v=3",
    "gravatar_id": "",
    "url": "https://api.github.com/users/byroncoetsee",
    "html_url": "https://github.com/byroncoetsee",
    "followers_url": "https://api.github.com/users/byroncoetsee/followers",
    "following_url": "https://api.github.com/users/byroncoetsee/following{/other_user}",
    "gists_url": "https://api.github.com/users/byroncoetsee/gists{/gist_id}",
    "starred_url": "https://api.github.com/users/byroncoetsee/starred{/owner}{/repo}",
    "subscriptions_url": "https://api.github.com/users/byroncoetsee/subscriptions",
    "organizations_url": "https://api.github.com/users/byroncoetsee/orgs",
    "repos_url": "https://api.github.com/users/byroncoetsee/repos",
    "events_url": "https://api.github.com/users/byroncoetsee/events{/privacy}",
    "received_events_url": "https://api.github.com/users/byroncoetsee/received_events",
    "type": "User",
    "site_admin": false
  },
  "created_at": "2015-11-13T12:50:34Z",
  "updated_at": "2015-11-13T12:50:34Z",
  "body": "I realise this might be old but incase anyone might have missed this, I feel I should put it out there... This does work but only if the user agrees to Location Permission request before... When testing this method (Using Swift 1.2, iOS 8, XCode 6, iPhone 6), I get the Permission Request window opening up continuously every second. open close open close etc.\r\n\r\nAnyone else had this issue?"
}
, {
  "url": "https://api.github.com/repos/mapbox/react-native-mapbox-gl/issues/comments/156481996",
  "html_url": "https://github.com/mapbox/react-native-mapbox-gl/issues/77#issuecomment-156481996",
  "issue_url": "https://api.github.com/repos/mapbox/react-native-mapbox-gl/issues/77",
  "id": 156481996,
  "user": {
    "login": "bsudekum",
    "id": 1058624,
    "avatar_url": "https://avatars.githubusercontent.com/u/1058624?v=3",
    "gravatar_id": "",
    "url": "https://api.github.com/users/bsudekum",
    "html_url": "https://github.com/bsudekum",
    "followers_url": "https://api.github.com/users/bsudekum/followers",
    "following_url": "https://api.github.com/users/bsudekum/following{/other_user}",
    "gists_url": "https://api.github.com/users/bsudekum/gists{/gist_id}",
    "starred_url": "https://api.github.com/users/bsudekum/starred{/owner}{/repo}",
    "subscriptions_url": "https://api.github.com/users/bsudekum/subscriptions",
    "organizations_url": "https://api.github.com/users/bsudekum/orgs",
    "repos_url": "https://api.github.com/users/bsudekum/repos",
    "events_url": "https://api.github.com/users/bsudekum/events{/privacy}",
    "received_events_url": "https://api.github.com/users/bsudekum/received_events",
    "type": "User",
    "site_admin": false
  },
  "created_at": "2015-11-13T16:37:11Z",
  "updated_at": "2015-11-13T16:37:11Z",
  "body": "@byroncoetsee confirmed, I can take a look at this bug this weekend."
}
]
