[
{
  "url": "https://api.github.com/repos/github/linguist/issues/comments/7070708",
  "html_url": "https://github.com/github/linguist/pull/200#issuecomment-7070708",
  "issue_url": "https://api.github.com/repos/github/linguist/issues/200",
  "id": 7070708,
  "user": {
    "login": "travisbot",
    "id": 1516820,
    "avatar_url": "https://avatars.githubusercontent.com/u/1516820?v=3",
    "gravatar_id": "",
    "url": "https://api.github.com/users/travisbot",
    "html_url": "https://github.com/travisbot",
    "followers_url": "https://api.github.com/users/travisbot/followers",
    "following_url": "https://api.github.com/users/travisbot/following{/other_user}",
    "gists_url": "https://api.github.com/users/travisbot/gists{/gist_id}",
    "starred_url": "https://api.github.com/users/travisbot/starred{/owner}{/repo}",
    "subscriptions_url": "https://api.github.com/users/travisbot/subscriptions",
    "organizations_url": "https://api.github.com/users/travisbot/orgs",
    "repos_url": "https://api.github.com/users/travisbot/repos",
    "events_url": "https://api.github.com/users/travisbot/events{/privacy}",
    "received_events_url": "https://api.github.com/users/travisbot/received_events",
    "type": "User",
    "site_admin": false
  },
  "created_at": "2012-07-18T14:37:38Z",
  "updated_at": "2012-07-18T14:37:38Z",
  "body": "This pull request [passes](http://travis-ci.org/github/linguist/builds/1895511) (merged 6c1d0bf1 into 1ac6e87b)."
}
, {
  "url": "https://api.github.com/repos/github/linguist/issues/comments/7143177",
  "html_url": "https://github.com/github/linguist/pull/200#issuecomment-7143177",
  "issue_url": "https://api.github.com/repos/github/linguist/issues/200",
  "id": 7143177,
  "user": {
    "login": "josh",
    "id": 137,
    "avatar_url": "https://avatars.githubusercontent.com/u/137?v=3",
    "gravatar_id": "",
    "url": "https://api.github.com/users/josh",
    "html_url": "https://github.com/josh",
    "followers_url": "https://api.github.com/users/josh/followers",
    "following_url": "https://api.github.com/users/josh/following{/other_user}",
    "gists_url": "https://api.github.com/users/josh/gists{/gist_id}",
    "starred_url": "https://api.github.com/users/josh/starred{/owner}{/repo}",
    "subscriptions_url": "https://api.github.com/users/josh/subscriptions",
    "organizations_url": "https://api.github.com/users/josh/orgs",
    "repos_url": "https://api.github.com/users/josh/repos",
    "events_url": "https://api.github.com/users/josh/events{/privacy}",
    "received_events_url": "https://api.github.com/users/josh/received_events",
    "type": "User",
    "site_admin": true
  },
  "created_at": "2012-07-20T22:21:47Z",
  "updated_at": "2012-07-20T22:21:47Z",
  "body": "Just made some recent changes. Instead of adding an extension to that file, could you add a typical `.rabl` file to `samples/ruby`."
}
, {
  "url": "https://api.github.com/repos/github/linguist/issues/comments/7188691",
  "html_url": "https://github.com/github/linguist/pull/200#issuecomment-7188691",
  "issue_url": "https://api.github.com/repos/github/linguist/issues/200",
  "id": 7188691,
  "user": {
    "login": "travisbot",
    "id": 1516820,
    "avatar_url": "https://avatars.githubusercontent.com/u/1516820?v=3",
    "gravatar_id": "",
    "url": "https://api.github.com/users/travisbot",
    "html_url": "https://github.com/travisbot",
    "followers_url": "https://api.github.com/users/travisbot/followers",
    "following_url": "https://api.github.com/users/travisbot/following{/other_user}",
    "gists_url": "https://api.github.com/users/travisbot/gists{/gist_id}",
    "starred_url": "https://api.github.com/users/travisbot/starred{/owner}{/repo}",
    "subscriptions_url": "https://api.github.com/users/travisbot/subscriptions",
    "organizations_url": "https://api.github.com/users/travisbot/orgs",
    "repos_url": "https://api.github.com/users/travisbot/repos",
    "events_url": "https://api.github.com/users/travisbot/events{/privacy}",
    "received_events_url": "https://api.github.com/users/travisbot/received_events",
    "type": "User",
    "site_admin": false
  },
  "created_at": "2012-07-23T19:39:49Z",
  "updated_at": "2012-07-23T19:39:49Z",
  "body": "This pull request [fails](http://travis-ci.org/github/linguist/builds/1934806) (merged 5497bbbd into 13dbd76e)."
}
, {
  "url": "https://api.github.com/repos/github/linguist/issues/comments/7188720",
  "html_url": "https://github.com/github/linguist/pull/200#issuecomment-7188720",
  "issue_url": "https://api.github.com/repos/github/linguist/issues/200",
  "id": 7188720,
  "user": {
    "login": "remiprev",
    "id": 11348,
    "avatar_url": "https://avatars.githubusercontent.com/u/11348?v=3",
    "gravatar_id": "",
    "url": "https://api.github.com/users/remiprev",
    "html_url": "https://github.com/remiprev",
    "followers_url": "https://api.github.com/users/remiprev/followers",
    "following_url": "https://api.github.com/users/remiprev/following{/other_user}",
    "gists_url": "https://api.github.com/users/remiprev/gists{/gist_id}",
    "starred_url": "https://api.github.com/users/remiprev/starred{/owner}{/repo}",
    "subscriptions_url": "https://api.github.com/users/remiprev/subscriptions",
    "organizations_url": "https://api.github.com/users/remiprev/orgs",
    "repos_url": "https://api.github.com/users/remiprev/repos",
    "events_url": "https://api.github.com/users/remiprev/events{/privacy}",
    "received_events_url": "https://api.github.com/users/remiprev/received_events",
    "type": "User",
    "site_admin": false
  },
  "created_at": "2012-07-23T19:40:40Z",
  "updated_at": "2012-07-23T19:40:40Z",
  "body": "@josh Tests won’t pass if the `.rabl` line isn’t added to `languages.yml` though."
}
, {
  "url": "https://api.github.com/repos/github/linguist/issues/comments/7190008",
  "html_url": "https://github.com/github/linguist/pull/200#issuecomment-7190008",
  "issue_url": "https://api.github.com/repos/github/linguist/issues/200",
  "id": 7190008,
  "user": {
    "login": "josh",
    "id": 137,
    "avatar_url": "https://avatars.githubusercontent.com/u/137?v=3",
    "gravatar_id": "",
    "url": "https://api.github.com/users/josh",
    "html_url": "https://github.com/josh",
    "followers_url": "https://api.github.com/users/josh/followers",
    "following_url": "https://api.github.com/users/josh/following{/other_user}",
    "gists_url": "https://api.github.com/users/josh/gists{/gist_id}",
    "starred_url": "https://api.github.com/users/josh/starred{/owner}{/repo}",
    "subscriptions_url": "https://api.github.com/users/josh/subscriptions",
    "organizations_url": "https://api.github.com/users/josh/orgs",
    "repos_url": "https://api.github.com/users/josh/repos",
    "events_url": "https://api.github.com/users/josh/events{/privacy}",
    "received_events_url": "https://api.github.com/users/josh/received_events",
    "type": "User",
    "site_admin": true
  },
  "created_at": "2012-07-23T20:25:20Z",
  "updated_at": "2012-07-23T20:25:20Z",
  "body": "Its okay."
}
, {
  "url": "https://api.github.com/repos/github/linguist/issues/comments/7190036",
  "html_url": "https://github.com/github/linguist/pull/200#issuecomment-7190036",
  "issue_url": "https://api.github.com/repos/github/linguist/issues/200",
  "id": 7190036,
  "user": {
    "login": "remiprev",
    "id": 11348,
    "avatar_url": "https://avatars.githubusercontent.com/u/11348?v=3",
    "gravatar_id": "",
    "url": "https://api.github.com/users/remiprev",
    "html_url": "https://github.com/remiprev",
    "followers_url": "https://api.github.com/users/remiprev/followers",
    "following_url": "https://api.github.com/users/remiprev/following{/other_user}",
    "gists_url": "https://api.github.com/users/remiprev/gists{/gist_id}",
    "starred_url": "https://api.github.com/users/remiprev/starred{/owner}{/repo}",
    "subscriptions_url": "https://api.github.com/users/remiprev/subscriptions",
    "organizations_url": "https://api.github.com/users/remiprev/orgs",
    "repos_url": "https://api.github.com/users/remiprev/repos",
    "events_url": "https://api.github.com/users/remiprev/events{/privacy}",
    "received_events_url": "https://api.github.com/users/remiprev/received_events",
    "type": "User",
    "site_admin": false
  },
  "created_at": "2012-07-23T20:26:20Z",
  "updated_at": "2012-07-23T20:26:20Z",
  "body": "OK. I removed my initial commit and added the sample file in this branch."
}
]
