[
{
  "url": "https://api.github.com/repos/github/linguist/issues/comments/49000194",
  "html_url": "https://github.com/github/linguist/pull/1381#issuecomment-49000194",
  "issue_url": "https://api.github.com/repos/github/linguist/issues/1381",
  "id": 49000194,
  "user": {
    "login": "Z-Shang",
    "id": 859939,
    "avatar_url": "https://avatars.githubusercontent.com/u/859939?v=3",
    "gravatar_id": "",
    "url": "https://api.github.com/users/Z-Shang",
    "html_url": "https://github.com/Z-Shang",
    "followers_url": "https://api.github.com/users/Z-Shang/followers",
    "following_url": "https://api.github.com/users/Z-Shang/following{/other_user}",
    "gists_url": "https://api.github.com/users/Z-Shang/gists{/gist_id}",
    "starred_url": "https://api.github.com/users/Z-Shang/starred{/owner}{/repo}",
    "subscriptions_url": "https://api.github.com/users/Z-Shang/subscriptions",
    "organizations_url": "https://api.github.com/users/Z-Shang/orgs",
    "repos_url": "https://api.github.com/users/Z-Shang/repos",
    "events_url": "https://api.github.com/users/Z-Shang/events{/privacy}",
    "received_events_url": "https://api.github.com/users/Z-Shang/received_events",
    "type": "User",
    "site_admin": false
  },
  "created_at": "2014-07-15T07:43:32Z",
  "updated_at": "2014-07-15T07:43:32Z",
  "body": "...sorry for these commits...I'm new here..."
}
, {
  "url": "https://api.github.com/repos/github/linguist/issues/comments/49002904",
  "html_url": "https://github.com/github/linguist/pull/1381#issuecomment-49002904",
  "issue_url": "https://api.github.com/repos/github/linguist/issues/1381",
  "id": 49002904,
  "user": {
    "login": "pchaigno",
    "id": 1764210,
    "avatar_url": "https://avatars.githubusercontent.com/u/1764210?v=3",
    "gravatar_id": "",
    "url": "https://api.github.com/users/pchaigno",
    "html_url": "https://github.com/pchaigno",
    "followers_url": "https://api.github.com/users/pchaigno/followers",
    "following_url": "https://api.github.com/users/pchaigno/following{/other_user}",
    "gists_url": "https://api.github.com/users/pchaigno/gists{/gist_id}",
    "starred_url": "https://api.github.com/users/pchaigno/starred{/owner}{/repo}",
    "subscriptions_url": "https://api.github.com/users/pchaigno/subscriptions",
    "organizations_url": "https://api.github.com/users/pchaigno/orgs",
    "repos_url": "https://api.github.com/users/pchaigno/repos",
    "events_url": "https://api.github.com/users/pchaigno/events{/privacy}",
    "received_events_url": "https://api.github.com/users/pchaigno/received_events",
    "type": "User",
    "site_admin": false
  },
  "created_at": "2014-07-15T08:17:26Z",
  "updated_at": "2014-07-15T08:17:26Z",
  "body": "Thanks for the contribution. Could you link to some examples of LoLi programs on GitHub?"
}
, {
  "url": "https://api.github.com/repos/github/linguist/issues/comments/49003305",
  "html_url": "https://github.com/github/linguist/pull/1381#issuecomment-49003305",
  "issue_url": "https://api.github.com/repos/github/linguist/issues/1381",
  "id": 49003305,
  "user": {
    "login": "Z-Shang",
    "id": 859939,
    "avatar_url": "https://avatars.githubusercontent.com/u/859939?v=3",
    "gravatar_id": "",
    "url": "https://api.github.com/users/Z-Shang",
    "html_url": "https://github.com/Z-Shang",
    "followers_url": "https://api.github.com/users/Z-Shang/followers",
    "following_url": "https://api.github.com/users/Z-Shang/following{/other_user}",
    "gists_url": "https://api.github.com/users/Z-Shang/gists{/gist_id}",
    "starred_url": "https://api.github.com/users/Z-Shang/starred{/owner}{/repo}",
    "subscriptions_url": "https://api.github.com/users/Z-Shang/subscriptions",
    "organizations_url": "https://api.github.com/users/Z-Shang/orgs",
    "repos_url": "https://api.github.com/users/Z-Shang/repos",
    "events_url": "https://api.github.com/users/Z-Shang/events{/privacy}",
    "received_events_url": "https://api.github.com/users/Z-Shang/received_events",
    "type": "User",
    "site_admin": false
  },
  "created_at": "2014-07-15T08:21:57Z",
  "updated_at": "2014-07-15T08:21:57Z",
  "body": "Thanks for replying, it is a new project and I've just done the C++ base, the rest of LoLi interpreter will be written in LoLi itself. So the only examples are the function.loli in LoLi/src and the sample.loli in the linguist/samples/LoLi"
}
, {
  "url": "https://api.github.com/repos/github/linguist/issues/comments/49004520",
  "html_url": "https://github.com/github/linguist/pull/1381#issuecomment-49004520",
  "issue_url": "https://api.github.com/repos/github/linguist/issues/1381",
  "id": 49004520,
  "user": {
    "login": "pchaigno",
    "id": 1764210,
    "avatar_url": "https://avatars.githubusercontent.com/u/1764210?v=3",
    "gravatar_id": "",
    "url": "https://api.github.com/users/pchaigno",
    "html_url": "https://github.com/pchaigno",
    "followers_url": "https://api.github.com/users/pchaigno/followers",
    "following_url": "https://api.github.com/users/pchaigno/following{/other_user}",
    "gists_url": "https://api.github.com/users/pchaigno/gists{/gist_id}",
    "starred_url": "https://api.github.com/users/pchaigno/starred{/owner}{/repo}",
    "subscriptions_url": "https://api.github.com/users/pchaigno/subscriptions",
    "organizations_url": "https://api.github.com/users/pchaigno/orgs",
    "repos_url": "https://api.github.com/users/pchaigno/repos",
    "events_url": "https://api.github.com/users/pchaigno/events{/privacy}",
    "received_events_url": "https://api.github.com/users/pchaigno/received_events",
    "type": "User",
    "site_admin": false
  },
  "created_at": "2014-07-15T08:35:59Z",
  "updated_at": "2014-07-15T08:35:59Z",
  "body": "We try to only add languages once they have some usage on GitHub. You'll have to come back when LoLi has a more significant level of adoption ;)"
}
, {
  "url": "https://api.github.com/repos/github/linguist/issues/comments/49004664",
  "html_url": "https://github.com/github/linguist/pull/1381#issuecomment-49004664",
  "issue_url": "https://api.github.com/repos/github/linguist/issues/1381",
  "id": 49004664,
  "user": {
    "login": "Z-Shang",
    "id": 859939,
    "avatar_url": "https://avatars.githubusercontent.com/u/859939?v=3",
    "gravatar_id": "",
    "url": "https://api.github.com/users/Z-Shang",
    "html_url": "https://github.com/Z-Shang",
    "followers_url": "https://api.github.com/users/Z-Shang/followers",
    "following_url": "https://api.github.com/users/Z-Shang/following{/other_user}",
    "gists_url": "https://api.github.com/users/Z-Shang/gists{/gist_id}",
    "starred_url": "https://api.github.com/users/Z-Shang/starred{/owner}{/repo}",
    "subscriptions_url": "https://api.github.com/users/Z-Shang/subscriptions",
    "organizations_url": "https://api.github.com/users/Z-Shang/orgs",
    "repos_url": "https://api.github.com/users/Z-Shang/repos",
    "events_url": "https://api.github.com/users/Z-Shang/events{/privacy}",
    "received_events_url": "https://api.github.com/users/Z-Shang/received_events",
    "type": "User",
    "site_admin": false
  },
  "created_at": "2014-07-15T08:37:53Z",
  "updated_at": "2014-07-15T08:37:53Z",
  "body": "Ok, then I'll come back after I finished LoLi in LoLi itself"
}
, {
  "url": "https://api.github.com/repos/github/linguist/issues/comments/52119412",
  "html_url": "https://github.com/github/linguist/pull/1381#issuecomment-52119412",
  "issue_url": "https://api.github.com/repos/github/linguist/issues/1381",
  "id": 52119412,
  "user": {
    "login": "arfon",
    "id": 4483,
    "avatar_url": "https://avatars.githubusercontent.com/u/4483?v=3",
    "gravatar_id": "",
    "url": "https://api.github.com/users/arfon",
    "html_url": "https://github.com/arfon",
    "followers_url": "https://api.github.com/users/arfon/followers",
    "following_url": "https://api.github.com/users/arfon/following{/other_user}",
    "gists_url": "https://api.github.com/users/arfon/gists{/gist_id}",
    "starred_url": "https://api.github.com/users/arfon/starred{/owner}{/repo}",
    "subscriptions_url": "https://api.github.com/users/arfon/subscriptions",
    "organizations_url": "https://api.github.com/users/arfon/orgs",
    "repos_url": "https://api.github.com/users/arfon/repos",
    "events_url": "https://api.github.com/users/arfon/events{/privacy}",
    "received_events_url": "https://api.github.com/users/arfon/received_events",
    "type": "User",
    "site_admin": true
  },
  "created_at": "2014-08-13T22:16:04Z",
  "updated_at": "2014-08-13T22:16:04Z",
  "body": "> We try to only add languages once they have some usage on GitHub. You'll have to come back when LoLi has a more significant level of adoption ;)\r\n\r\n:+1: \r\n\r\n> Ok, then I'll come back after I finished LoLi in LoLi itself\r\n\r\nGood luck with your project @Z-Shang!\r\n"
}
, {
  "url": "https://api.github.com/repos/github/linguist/issues/comments/52123348",
  "html_url": "https://github.com/github/linguist/pull/1381#issuecomment-52123348",
  "issue_url": "https://api.github.com/repos/github/linguist/issues/1381",
  "id": 52123348,
  "user": {
    "login": "Z-Shang",
    "id": 859939,
    "avatar_url": "https://avatars.githubusercontent.com/u/859939?v=3",
    "gravatar_id": "",
    "url": "https://api.github.com/users/Z-Shang",
    "html_url": "https://github.com/Z-Shang",
    "followers_url": "https://api.github.com/users/Z-Shang/followers",
    "following_url": "https://api.github.com/users/Z-Shang/following{/other_user}",
    "gists_url": "https://api.github.com/users/Z-Shang/gists{/gist_id}",
    "starred_url": "https://api.github.com/users/Z-Shang/starred{/owner}{/repo}",
    "subscriptions_url": "https://api.github.com/users/Z-Shang/subscriptions",
    "organizations_url": "https://api.github.com/users/Z-Shang/orgs",
    "repos_url": "https://api.github.com/users/Z-Shang/repos",
    "events_url": "https://api.github.com/users/Z-Shang/events{/privacy}",
    "received_events_url": "https://api.github.com/users/Z-Shang/received_events",
    "type": "User",
    "site_admin": false
  },
  "created_at": "2014-08-13T22:59:08Z",
  "updated_at": "2014-08-13T22:59:08Z",
  "body": "Thanks!\r\nOn Aug 14, 2014 6:16 AM, \"Arfon Smith\" <notifications@github.com> wrote:\r\n\r\n> We try to only add languages once they have some usage on GitHub. You'll\r\n> have to come back when LoLi has a more significant level of adoption ;)\r\n>\r\n> [image: :+1:]\r\n>\r\n> Ok, then I'll come back after I finished LoLi in LoLi itself\r\n>\r\n> Good luck with your project @Z-Shang <https://github.com/Z-Shang>!\r\n>\r\n> —\r\n> Reply to this email directly or view it on GitHub\r\n> <https://github.com/github/linguist/pull/1381#issuecomment-52119412>.\r\n>"
}
]
