[
{
  "url": "https://api.github.com/repos/github/linguist/issues/comments/106396997",
  "html_url": "https://github.com/github/linguist/pull/2425#issuecomment-106396997",
  "issue_url": "https://api.github.com/repos/github/linguist/issues/2425",
  "id": 106396997,
  "user": {
    "login": "arfon",
    "id": 4483,
    "avatar_url": "https://avatars.githubusercontent.com/u/4483?v=3",
    "gravatar_id": "",
    "url": "https://api.github.com/users/arfon",
    "html_url": "https://github.com/arfon",
    "followers_url": "https://api.github.com/users/arfon/followers",
    "following_url": "https://api.github.com/users/arfon/following{/other_user}",
    "gists_url": "https://api.github.com/users/arfon/gists{/gist_id}",
    "starred_url": "https://api.github.com/users/arfon/starred{/owner}{/repo}",
    "subscriptions_url": "https://api.github.com/users/arfon/subscriptions",
    "organizations_url": "https://api.github.com/users/arfon/orgs",
    "repos_url": "https://api.github.com/users/arfon/repos",
    "events_url": "https://api.github.com/users/arfon/events{/privacy}",
    "received_events_url": "https://api.github.com/users/arfon/received_events",
    "type": "User",
    "site_admin": true
  },
  "created_at": "2015-05-28T15:16:23Z",
  "updated_at": "2015-05-28T15:16:23Z",
  "body": ":+1: thanks @larsbrinkhoff "
}
]
