[
{
  "url": "https://api.github.com/repos/github/linguist/issues/comments/68179107",
  "html_url": "https://github.com/github/linguist/issues/1919#issuecomment-68179107",
  "issue_url": "https://api.github.com/repos/github/linguist/issues/1919",
  "id": 68179107,
  "user": {
    "login": "arfon",
    "id": 4483,
    "avatar_url": "https://avatars.githubusercontent.com/u/4483?v=3",
    "gravatar_id": "",
    "url": "https://api.github.com/users/arfon",
    "html_url": "https://github.com/arfon",
    "followers_url": "https://api.github.com/users/arfon/followers",
    "following_url": "https://api.github.com/users/arfon/following{/other_user}",
    "gists_url": "https://api.github.com/users/arfon/gists{/gist_id}",
    "starred_url": "https://api.github.com/users/arfon/starred{/owner}{/repo}",
    "subscriptions_url": "https://api.github.com/users/arfon/subscriptions",
    "organizations_url": "https://api.github.com/users/arfon/orgs",
    "repos_url": "https://api.github.com/users/arfon/repos",
    "events_url": "https://api.github.com/users/arfon/events{/privacy}",
    "received_events_url": "https://api.github.com/users/arfon/received_events",
    "type": "User",
    "site_admin": true
  },
  "created_at": "2014-12-27T13:56:06Z",
  "updated_at": "2014-12-27T13:56:06Z",
  "body": "Thanks @vinz243 - we're tracking this issue here: https://github.com/github/linguist/pull/1866\r\n\r\nI'd be interested to hear if the changes in https://github.com/github/linguist/pull/1866 would fix things for you?"
}
, {
  "url": "https://api.github.com/repos/github/linguist/issues/comments/68183793",
  "html_url": "https://github.com/github/linguist/issues/1919#issuecomment-68183793",
  "issue_url": "https://api.github.com/repos/github/linguist/issues/1919",
  "id": 68183793,
  "user": {
    "login": "vinz243",
    "id": 4569266,
    "avatar_url": "https://avatars.githubusercontent.com/u/4569266?v=3",
    "gravatar_id": "",
    "url": "https://api.github.com/users/vinz243",
    "html_url": "https://github.com/vinz243",
    "followers_url": "https://api.github.com/users/vinz243/followers",
    "following_url": "https://api.github.com/users/vinz243/following{/other_user}",
    "gists_url": "https://api.github.com/users/vinz243/gists{/gist_id}",
    "starred_url": "https://api.github.com/users/vinz243/starred{/owner}{/repo}",
    "subscriptions_url": "https://api.github.com/users/vinz243/subscriptions",
    "organizations_url": "https://api.github.com/users/vinz243/orgs",
    "repos_url": "https://api.github.com/users/vinz243/repos",
    "events_url": "https://api.github.com/users/vinz243/events{/privacy}",
    "received_events_url": "https://api.github.com/users/vinz243/received_events",
    "type": "User",
    "site_admin": false
  },
  "created_at": "2014-12-27T17:00:59Z",
  "updated_at": "2014-12-27T17:00:59Z",
  "body": "Sorry, I don't understand, what should I do?\r\n\r\n\r\nLe Sat Dec 27 2014 at 14:56:10, Arfon Smith <notifications@github.com> a\r\nécrit :\r\n\r\n> Thanks @vinz243 <https://github.com/vinz243> - we're tracking this issue\r\n> here: #1866 <https://github.com/github/linguist/pull/1866>\r\n>\r\n> I'd be interested to hear if the changes in #1866\r\n> <https://github.com/github/linguist/pull/1866> would fix things for you?\r\n>\r\n> —\r\n> Reply to this email directly or view it on GitHub\r\n> <https://github.com/github/linguist/issues/1919#issuecomment-68179107>.\r\n>"
}
, {
  "url": "https://api.github.com/repos/github/linguist/issues/comments/68420649",
  "html_url": "https://github.com/github/linguist/issues/1919#issuecomment-68420649",
  "issue_url": "https://api.github.com/repos/github/linguist/issues/1919",
  "id": 68420649,
  "user": {
    "login": "arfon",
    "id": 4483,
    "avatar_url": "https://avatars.githubusercontent.com/u/4483?v=3",
    "gravatar_id": "",
    "url": "https://api.github.com/users/arfon",
    "html_url": "https://github.com/arfon",
    "followers_url": "https://api.github.com/users/arfon/followers",
    "following_url": "https://api.github.com/users/arfon/following{/other_user}",
    "gists_url": "https://api.github.com/users/arfon/gists{/gist_id}",
    "starred_url": "https://api.github.com/users/arfon/starred{/owner}{/repo}",
    "subscriptions_url": "https://api.github.com/users/arfon/subscriptions",
    "organizations_url": "https://api.github.com/users/arfon/orgs",
    "repos_url": "https://api.github.com/users/arfon/repos",
    "events_url": "https://api.github.com/users/arfon/events{/privacy}",
    "received_events_url": "https://api.github.com/users/arfon/received_events",
    "type": "User",
    "site_admin": true
  },
  "created_at": "2014-12-31T03:13:48Z",
  "updated_at": "2014-12-31T03:13:48Z",
  "body": "Sorry for not being clearer @vinz243 :-\\\r\n\r\nThere's a new regex defined over in [this pull request](https://github.com/github/linguist/pull/1866/files) that isn't yet live. I'm basically just curious if you think this change would address your issues?"
}
, {
  "url": "https://api.github.com/repos/github/linguist/issues/comments/68442488",
  "html_url": "https://github.com/github/linguist/issues/1919#issuecomment-68442488",
  "issue_url": "https://api.github.com/repos/github/linguist/issues/1919",
  "id": 68442488,
  "user": {
    "login": "vinz243",
    "id": 4569266,
    "avatar_url": "https://avatars.githubusercontent.com/u/4569266?v=3",
    "gravatar_id": "",
    "url": "https://api.github.com/users/vinz243",
    "html_url": "https://github.com/vinz243",
    "followers_url": "https://api.github.com/users/vinz243/followers",
    "following_url": "https://api.github.com/users/vinz243/following{/other_user}",
    "gists_url": "https://api.github.com/users/vinz243/gists{/gist_id}",
    "starred_url": "https://api.github.com/users/vinz243/starred{/owner}{/repo}",
    "subscriptions_url": "https://api.github.com/users/vinz243/subscriptions",
    "organizations_url": "https://api.github.com/users/vinz243/orgs",
    "repos_url": "https://api.github.com/users/vinz243/repos",
    "events_url": "https://api.github.com/users/vinz243/events{/privacy}",
    "received_events_url": "https://api.github.com/users/vinz243/received_events",
    "type": "User",
    "site_admin": false
  },
  "created_at": "2014-12-31T13:47:03Z",
  "updated_at": "2014-12-31T13:47:30Z",
  "body": "I don't think so. I tried your regex for Objective-C and this line matches\r\nthe Objective-C\r\nhttps://github.com/whitedrop/whitedrop/blob/cd0b625c69bea021703e24a11af0e9899f51a738/engine/include/Entity.h#L17\r\n\r\nJust because of the `class`. But it's only doxygen annotations.\r\n\r\nBTW the regex `std::\\w+/` matches the file so it should be correct\r\n\r\n"
}
, {
  "url": "https://api.github.com/repos/github/linguist/issues/comments/68602254",
  "html_url": "https://github.com/github/linguist/issues/1919#issuecomment-68602254",
  "issue_url": "https://api.github.com/repos/github/linguist/issues/1919",
  "id": 68602254,
  "user": {
    "login": "arfon",
    "id": 4483,
    "avatar_url": "https://avatars.githubusercontent.com/u/4483?v=3",
    "gravatar_id": "",
    "url": "https://api.github.com/users/arfon",
    "html_url": "https://github.com/arfon",
    "followers_url": "https://api.github.com/users/arfon/followers",
    "following_url": "https://api.github.com/users/arfon/following{/other_user}",
    "gists_url": "https://api.github.com/users/arfon/gists{/gist_id}",
    "starred_url": "https://api.github.com/users/arfon/starred{/owner}{/repo}",
    "subscriptions_url": "https://api.github.com/users/arfon/subscriptions",
    "organizations_url": "https://api.github.com/users/arfon/orgs",
    "repos_url": "https://api.github.com/users/arfon/repos",
    "events_url": "https://api.github.com/users/arfon/events{/privacy}",
    "received_events_url": "https://api.github.com/users/arfon/received_events",
    "type": "User",
    "site_admin": true
  },
  "created_at": "2015-01-03T17:24:49Z",
  "updated_at": "2015-01-03T17:29:45Z",
  "body": "@vinz243 this should be addressed in #1866 (thanks for your help)"
}
]
