[
{
  "url": "https://api.github.com/repos/github/linguist/issues/comments/20639245",
  "html_url": "https://github.com/github/linguist/issues/456#issuecomment-20639245",
  "issue_url": "https://api.github.com/repos/github/linguist/issues/456",
  "id": 20639245,
  "user": {
    "login": "igromanru",
    "id": 1902937,
    "avatar_url": "https://avatars.githubusercontent.com/u/1902937?v=3",
    "gravatar_id": "",
    "url": "https://api.github.com/users/igromanru",
    "html_url": "https://github.com/igromanru",
    "followers_url": "https://api.github.com/users/igromanru/followers",
    "following_url": "https://api.github.com/users/igromanru/following{/other_user}",
    "gists_url": "https://api.github.com/users/igromanru/gists{/gist_id}",
    "starred_url": "https://api.github.com/users/igromanru/starred{/owner}{/repo}",
    "subscriptions_url": "https://api.github.com/users/igromanru/subscriptions",
    "organizations_url": "https://api.github.com/users/igromanru/orgs",
    "repos_url": "https://api.github.com/users/igromanru/repos",
    "events_url": "https://api.github.com/users/igromanru/events{/privacy}",
    "received_events_url": "https://api.github.com/users/igromanru/received_events",
    "type": "User",
    "site_admin": false
  },
  "created_at": "2013-07-08T21:57:56Z",
  "updated_at": "2013-07-08T21:57:56Z",
  "body": "Please add this lexer, AutoIt got a very similar syntax like AutoHotKey."
}
, {
  "url": "https://api.github.com/repos/github/linguist/issues/comments/20658232",
  "html_url": "https://github.com/github/linguist/issues/456#issuecomment-20658232",
  "issue_url": "https://api.github.com/repos/github/linguist/issues/456",
  "id": 20658232,
  "user": {
    "login": "jbrooksuk",
    "id": 246103,
    "avatar_url": "https://avatars.githubusercontent.com/u/246103?v=3",
    "gravatar_id": "",
    "url": "https://api.github.com/users/jbrooksuk",
    "html_url": "https://github.com/jbrooksuk",
    "followers_url": "https://api.github.com/users/jbrooksuk/followers",
    "following_url": "https://api.github.com/users/jbrooksuk/following{/other_user}",
    "gists_url": "https://api.github.com/users/jbrooksuk/gists{/gist_id}",
    "starred_url": "https://api.github.com/users/jbrooksuk/starred{/owner}{/repo}",
    "subscriptions_url": "https://api.github.com/users/jbrooksuk/subscriptions",
    "organizations_url": "https://api.github.com/users/jbrooksuk/orgs",
    "repos_url": "https://api.github.com/users/jbrooksuk/repos",
    "events_url": "https://api.github.com/users/jbrooksuk/events{/privacy}",
    "received_events_url": "https://api.github.com/users/jbrooksuk/received_events",
    "type": "User",
    "site_admin": false
  },
  "created_at": "2013-07-09T07:42:37Z",
  "updated_at": "2013-07-09T07:42:37Z",
  "body": "@igromanru, no, AutoHotKey syntax is based off of AutoIt V2 which is now completely different to V3."
}
, {
  "url": "https://api.github.com/repos/github/linguist/issues/comments/20660815",
  "html_url": "https://github.com/github/linguist/issues/456#issuecomment-20660815",
  "issue_url": "https://api.github.com/repos/github/linguist/issues/456",
  "id": 20660815,
  "user": {
    "login": "igromanru",
    "id": 1902937,
    "avatar_url": "https://avatars.githubusercontent.com/u/1902937?v=3",
    "gravatar_id": "",
    "url": "https://api.github.com/users/igromanru",
    "html_url": "https://github.com/igromanru",
    "followers_url": "https://api.github.com/users/igromanru/followers",
    "following_url": "https://api.github.com/users/igromanru/following{/other_user}",
    "gists_url": "https://api.github.com/users/igromanru/gists{/gist_id}",
    "starred_url": "https://api.github.com/users/igromanru/starred{/owner}{/repo}",
    "subscriptions_url": "https://api.github.com/users/igromanru/subscriptions",
    "organizations_url": "https://api.github.com/users/igromanru/orgs",
    "repos_url": "https://api.github.com/users/igromanru/repos",
    "events_url": "https://api.github.com/users/igromanru/events{/privacy}",
    "received_events_url": "https://api.github.com/users/igromanru/received_events",
    "type": "User",
    "site_admin": false
  },
  "created_at": "2013-07-09T08:47:01Z",
  "updated_at": "2013-07-09T08:49:22Z",
  "body": "I have tested it and it´s better than none highlighting..."
}
, {
  "url": "https://api.github.com/repos/github/linguist/issues/comments/20661384",
  "html_url": "https://github.com/github/linguist/issues/456#issuecomment-20661384",
  "issue_url": "https://api.github.com/repos/github/linguist/issues/456",
  "id": 20661384,
  "user": {
    "login": "jbrooksuk",
    "id": 246103,
    "avatar_url": "https://avatars.githubusercontent.com/u/246103?v=3",
    "gravatar_id": "",
    "url": "https://api.github.com/users/jbrooksuk",
    "html_url": "https://github.com/jbrooksuk",
    "followers_url": "https://api.github.com/users/jbrooksuk/followers",
    "following_url": "https://api.github.com/users/jbrooksuk/following{/other_user}",
    "gists_url": "https://api.github.com/users/jbrooksuk/gists{/gist_id}",
    "starred_url": "https://api.github.com/users/jbrooksuk/starred{/owner}{/repo}",
    "subscriptions_url": "https://api.github.com/users/jbrooksuk/subscriptions",
    "organizations_url": "https://api.github.com/users/jbrooksuk/orgs",
    "repos_url": "https://api.github.com/users/jbrooksuk/repos",
    "events_url": "https://api.github.com/users/jbrooksuk/events{/privacy}",
    "received_events_url": "https://api.github.com/users/jbrooksuk/received_events",
    "type": "User",
    "site_admin": false
  },
  "created_at": "2013-07-09T08:59:54Z",
  "updated_at": "2013-07-09T08:59:54Z",
  "body": "Yeah, but it's not accurate. It won't include many of the features AutoIt has over AutoHotKey. If you're going to do something, do it right :smile: "
}
, {
  "url": "https://api.github.com/repos/github/linguist/issues/comments/22214804",
  "html_url": "https://github.com/github/linguist/issues/456#issuecomment-22214804",
  "issue_url": "https://api.github.com/repos/github/linguist/issues/456",
  "id": 22214804,
  "user": {
    "login": "jbrooksuk",
    "id": 246103,
    "avatar_url": "https://avatars.githubusercontent.com/u/246103?v=3",
    "gravatar_id": "",
    "url": "https://api.github.com/users/jbrooksuk",
    "html_url": "https://github.com/jbrooksuk",
    "followers_url": "https://api.github.com/users/jbrooksuk/followers",
    "following_url": "https://api.github.com/users/jbrooksuk/following{/other_user}",
    "gists_url": "https://api.github.com/users/jbrooksuk/gists{/gist_id}",
    "starred_url": "https://api.github.com/users/jbrooksuk/starred{/owner}{/repo}",
    "subscriptions_url": "https://api.github.com/users/jbrooksuk/subscriptions",
    "organizations_url": "https://api.github.com/users/jbrooksuk/orgs",
    "repos_url": "https://api.github.com/users/jbrooksuk/repos",
    "events_url": "https://api.github.com/users/jbrooksuk/events{/privacy}",
    "received_events_url": "https://api.github.com/users/jbrooksuk/received_events",
    "type": "User",
    "site_admin": false
  },
  "created_at": "2013-08-06T21:56:03Z",
  "updated_at": "2013-08-06T21:56:03Z",
  "body": "@Caged, @ChrisLundquist, @ElizabethN, @Foggybtmgirl can any of you point me in the right direction? pygments.rb apparently has support for AutoIt, so why is the lexer missing?"
}
, {
  "url": "https://api.github.com/repos/github/linguist/issues/comments/30797825",
  "html_url": "https://github.com/github/linguist/issues/456#issuecomment-30797825",
  "issue_url": "https://api.github.com/repos/github/linguist/issues/456",
  "id": 30797825,
  "user": {
    "login": "tnm",
    "id": 126905,
    "avatar_url": "https://avatars.githubusercontent.com/u/126905?v=3",
    "gravatar_id": "",
    "url": "https://api.github.com/users/tnm",
    "html_url": "https://github.com/tnm",
    "followers_url": "https://api.github.com/users/tnm/followers",
    "following_url": "https://api.github.com/users/tnm/following{/other_user}",
    "gists_url": "https://api.github.com/users/tnm/gists{/gist_id}",
    "starred_url": "https://api.github.com/users/tnm/starred{/owner}{/repo}",
    "subscriptions_url": "https://api.github.com/users/tnm/subscriptions",
    "organizations_url": "https://api.github.com/users/tnm/orgs",
    "repos_url": "https://api.github.com/users/tnm/repos",
    "events_url": "https://api.github.com/users/tnm/events{/privacy}",
    "received_events_url": "https://api.github.com/users/tnm/received_events",
    "type": "User",
    "site_admin": true
  },
  "created_at": "2013-12-17T22:24:35Z",
  "updated_at": "2013-12-17T22:24:43Z",
  "body": "Thanks — this was added: https://github.com/github/linguist/blob/master/lib/linguist/languages.yml#L137-L144"
}
]
