[
{
  "url": "https://api.github.com/repos/cucumber/aruba/issues/comments/114153999",
  "html_url": "https://github.com/cucumber/aruba/issues/264#issuecomment-114153999",
  "issue_url": "https://api.github.com/repos/cucumber/aruba/issues/264",
  "id": 114153999,
  "user": {
    "login": "mattwynne",
    "id": 19260,
    "avatar_url": "https://avatars.githubusercontent.com/u/19260?v=3",
    "gravatar_id": "",
    "url": "https://api.github.com/users/mattwynne",
    "html_url": "https://github.com/mattwynne",
    "followers_url": "https://api.github.com/users/mattwynne/followers",
    "following_url": "https://api.github.com/users/mattwynne/following{/other_user}",
    "gists_url": "https://api.github.com/users/mattwynne/gists{/gist_id}",
    "starred_url": "https://api.github.com/users/mattwynne/starred{/owner}{/repo}",
    "subscriptions_url": "https://api.github.com/users/mattwynne/subscriptions",
    "organizations_url": "https://api.github.com/users/mattwynne/orgs",
    "repos_url": "https://api.github.com/users/mattwynne/repos",
    "events_url": "https://api.github.com/users/mattwynne/events{/privacy}",
    "received_events_url": "https://api.github.com/users/mattwynne/received_events",
    "type": "User",
    "site_admin": false
  },
  "created_at": "2015-06-22T15:27:05Z",
  "updated_at": "2015-06-22T15:27:05Z",
  "body": "I think putting a warning at the top of the readme is sufficient:\n\nWARNING: Aruba is under active development. You’re reading the README for the master branch, which may be out of step with the current production version. Please view the docs on http://www.rubydoc.info/gems/aruba <http://www.rubydoc.info/gems/aruba> for the latest production documentation.\n\n> On 20 Jun 2015, at 23:00, Max Meyer <notifications@github.com> wrote:\n> \n> Maybe we should introduce a development branch, otherwise the README on master may contain invalid information.\n> \n> —\n> Reply to this email directly or view it on GitHub <https://github.com/cucumber/aruba/issues/264>.\n> \n\n\ncheers,\nMatt\n\n—\n+44 20 8720 6842\nCo-founder, Cucumber Limited\nmatt@cucumber.io\n\n\n\n\n\n"
}
]
