[
{
  "url": "https://api.github.com/repos/facebook/immutable-js/issues/comments/169176910",
  "html_url": "https://github.com/facebook/immutable-js/pull/727#issuecomment-169176910",
  "issue_url": "https://api.github.com/repos/facebook/immutable-js/issues/727",
  "id": 169176910,
  "user": {
    "login": "leebyron",
    "id": 50130,
    "avatar_url": "https://avatars.githubusercontent.com/u/50130?v=3",
    "gravatar_id": "",
    "url": "https://api.github.com/users/leebyron",
    "html_url": "https://github.com/leebyron",
    "followers_url": "https://api.github.com/users/leebyron/followers",
    "following_url": "https://api.github.com/users/leebyron/following{/other_user}",
    "gists_url": "https://api.github.com/users/leebyron/gists{/gist_id}",
    "starred_url": "https://api.github.com/users/leebyron/starred{/owner}{/repo}",
    "subscriptions_url": "https://api.github.com/users/leebyron/subscriptions",
    "organizations_url": "https://api.github.com/users/leebyron/orgs",
    "repos_url": "https://api.github.com/users/leebyron/repos",
    "events_url": "https://api.github.com/users/leebyron/events{/privacy}",
    "received_events_url": "https://api.github.com/users/leebyron/received_events",
    "type": "User",
    "site_admin": false
  },
  "created_at": "2016-01-06T00:22:26Z",
  "updated_at": "2016-01-06T00:22:26Z",
  "body": "This is pretty cool, but I'm concerned about the type signature. Unfortunately this would only allow making Maps where the keys and values are of the same type.\r\n\r\nMaybe it would be better to just explicitly type this as `Map<any, any>`?"
}
, {
  "url": "https://api.github.com/repos/facebook/immutable-js/issues/comments/169178049",
  "html_url": "https://github.com/facebook/immutable-js/pull/727#issuecomment-169178049",
  "issue_url": "https://api.github.com/repos/facebook/immutable-js/issues/727",
  "id": 169178049,
  "user": {
    "login": "glenjamin",
    "id": 151272,
    "avatar_url": "https://avatars.githubusercontent.com/u/151272?v=3",
    "gravatar_id": "",
    "url": "https://api.github.com/users/glenjamin",
    "html_url": "https://github.com/glenjamin",
    "followers_url": "https://api.github.com/users/glenjamin/followers",
    "following_url": "https://api.github.com/users/glenjamin/following{/other_user}",
    "gists_url": "https://api.github.com/users/glenjamin/gists{/gist_id}",
    "starred_url": "https://api.github.com/users/glenjamin/starred{/owner}{/repo}",
    "subscriptions_url": "https://api.github.com/users/glenjamin/subscriptions",
    "organizations_url": "https://api.github.com/users/glenjamin/orgs",
    "repos_url": "https://api.github.com/users/glenjamin/repos",
    "events_url": "https://api.github.com/users/glenjamin/events{/privacy}",
    "received_events_url": "https://api.github.com/users/glenjamin/received_events",
    "type": "User",
    "site_admin": false
  },
  "created_at": "2016-01-06T00:30:27Z",
  "updated_at": "2016-01-06T00:30:27Z",
  "body": "That could be simpler, I'll make that change now."
}
, {
  "url": "https://api.github.com/repos/facebook/immutable-js/issues/comments/169187195",
  "html_url": "https://github.com/facebook/immutable-js/pull/727#issuecomment-169187195",
  "issue_url": "https://api.github.com/repos/facebook/immutable-js/issues/727",
  "id": 169187195,
  "user": {
    "login": "glenjamin",
    "id": 151272,
    "avatar_url": "https://avatars.githubusercontent.com/u/151272?v=3",
    "gravatar_id": "",
    "url": "https://api.github.com/users/glenjamin",
    "html_url": "https://github.com/glenjamin",
    "followers_url": "https://api.github.com/users/glenjamin/followers",
    "following_url": "https://api.github.com/users/glenjamin/following{/other_user}",
    "gists_url": "https://api.github.com/users/glenjamin/gists{/gist_id}",
    "starred_url": "https://api.github.com/users/glenjamin/starred{/owner}{/repo}",
    "subscriptions_url": "https://api.github.com/users/glenjamin/subscriptions",
    "organizations_url": "https://api.github.com/users/glenjamin/orgs",
    "repos_url": "https://api.github.com/users/glenjamin/repos",
    "events_url": "https://api.github.com/users/glenjamin/events{/privacy}",
    "received_events_url": "https://api.github.com/users/glenjamin/received_events",
    "type": "User",
    "site_admin": false
  },
  "created_at": "2016-01-06T01:16:39Z",
  "updated_at": "2016-01-06T01:16:39Z",
  "body": "Type signature changed, had a test failing locally - but twas also failing on master so I think it's unrelated to these changes."
}
, {
  "url": "https://api.github.com/repos/facebook/immutable-js/issues/comments/169210969",
  "html_url": "https://github.com/facebook/immutable-js/pull/727#issuecomment-169210969",
  "issue_url": "https://api.github.com/repos/facebook/immutable-js/issues/727",
  "id": 169210969,
  "user": {
    "login": "leebyron",
    "id": 50130,
    "avatar_url": "https://avatars.githubusercontent.com/u/50130?v=3",
    "gravatar_id": "",
    "url": "https://api.github.com/users/leebyron",
    "html_url": "https://github.com/leebyron",
    "followers_url": "https://api.github.com/users/leebyron/followers",
    "following_url": "https://api.github.com/users/leebyron/following{/other_user}",
    "gists_url": "https://api.github.com/users/leebyron/gists{/gist_id}",
    "starred_url": "https://api.github.com/users/leebyron/starred{/owner}{/repo}",
    "subscriptions_url": "https://api.github.com/users/leebyron/subscriptions",
    "organizations_url": "https://api.github.com/users/leebyron/orgs",
    "repos_url": "https://api.github.com/users/leebyron/repos",
    "events_url": "https://api.github.com/users/leebyron/events{/privacy}",
    "received_events_url": "https://api.github.com/users/leebyron/received_events",
    "type": "User",
    "site_admin": false
  },
  "created_at": "2016-01-06T03:32:15Z",
  "updated_at": "2016-01-06T03:32:15Z",
  "body": "I'll look into the test. It seems to pass in newer versions of node which is suspect"
}
]
