[
{
  "url": "https://api.github.com/repos/elastic/elasticsearch-dsl-py/issues/comments/151445831",
  "html_url": "https://github.com/elastic/elasticsearch-dsl-py/issues/279#issuecomment-151445831",
  "issue_url": "https://api.github.com/repos/elastic/elasticsearch-dsl-py/issues/279",
  "id": 151445831,
  "user": {
    "login": "HonzaKral",
    "id": 32132,
    "avatar_url": "https://avatars.githubusercontent.com/u/32132?v=3",
    "gravatar_id": "",
    "url": "https://api.github.com/users/HonzaKral",
    "html_url": "https://github.com/HonzaKral",
    "followers_url": "https://api.github.com/users/HonzaKral/followers",
    "following_url": "https://api.github.com/users/HonzaKral/following{/other_user}",
    "gists_url": "https://api.github.com/users/HonzaKral/gists{/gist_id}",
    "starred_url": "https://api.github.com/users/HonzaKral/starred{/owner}{/repo}",
    "subscriptions_url": "https://api.github.com/users/HonzaKral/subscriptions",
    "organizations_url": "https://api.github.com/users/HonzaKral/orgs",
    "repos_url": "https://api.github.com/users/HonzaKral/repos",
    "events_url": "https://api.github.com/users/HonzaKral/events{/privacy}",
    "received_events_url": "https://api.github.com/users/HonzaKral/received_events",
    "type": "User",
    "site_admin": false
  },
  "created_at": "2015-10-27T10:26:17Z",
  "updated_at": "2015-10-27T10:26:17Z",
  "body": "Sorry about your fridge.\r\n\r\nThe problem is with `__getitem__` which we use to implement pagination. Iterating over an object with it implementing will try passing in indices. In this case it will result in Search endlessly cloning itself.\r\n\r\nPossible solution is to use different method for pagination, implementing `__iter__` which would silently execute or which would raise an exception.\r\n\r\nUnless there are compelling reasons fornother behavior I lean towards the last solution..."
}
, {
  "url": "https://api.github.com/repos/elastic/elasticsearch-dsl-py/issues/comments/151449116",
  "html_url": "https://github.com/elastic/elasticsearch-dsl-py/issues/279#issuecomment-151449116",
  "issue_url": "https://api.github.com/repos/elastic/elasticsearch-dsl-py/issues/279",
  "id": 151449116,
  "user": {
    "login": "starenka",
    "id": 228248,
    "avatar_url": "https://avatars.githubusercontent.com/u/228248?v=3",
    "gravatar_id": "",
    "url": "https://api.github.com/users/starenka",
    "html_url": "https://github.com/starenka",
    "followers_url": "https://api.github.com/users/starenka/followers",
    "following_url": "https://api.github.com/users/starenka/following{/other_user}",
    "gists_url": "https://api.github.com/users/starenka/gists{/gist_id}",
    "starred_url": "https://api.github.com/users/starenka/starred{/owner}{/repo}",
    "subscriptions_url": "https://api.github.com/users/starenka/subscriptions",
    "organizations_url": "https://api.github.com/users/starenka/orgs",
    "repos_url": "https://api.github.com/users/starenka/repos",
    "events_url": "https://api.github.com/users/starenka/events{/privacy}",
    "received_events_url": "https://api.github.com/users/starenka/received_events",
    "type": "User",
    "site_admin": false
  },
  "created_at": "2015-10-27T10:35:02Z",
  "updated_at": "2015-10-27T10:35:02Z",
  "body": "That is what I was thinking . I was looking into `__getitem__`, but couldn't come up with a good enough solution which would detect the query wasn't executed yet (and raise). Also it seemed to me a bad place to check it. Honestly I was looking for `__iter__` at the `Search` object at first and then forgot about it after diving into `__getattr__`. \r\n\r\nI understand this is my fault, but one is so used to such behavior using other APIs (Django f.e.)... "
}
, {
  "url": "https://api.github.com/repos/elastic/elasticsearch-dsl-py/issues/comments/153360244",
  "html_url": "https://github.com/elastic/elasticsearch-dsl-py/issues/279#issuecomment-153360244",
  "issue_url": "https://api.github.com/repos/elastic/elasticsearch-dsl-py/issues/279",
  "id": 153360244,
  "user": {
    "login": "marcinn",
    "id": 139032,
    "avatar_url": "https://avatars.githubusercontent.com/u/139032?v=3",
    "gravatar_id": "",
    "url": "https://api.github.com/users/marcinn",
    "html_url": "https://github.com/marcinn",
    "followers_url": "https://api.github.com/users/marcinn/followers",
    "following_url": "https://api.github.com/users/marcinn/following{/other_user}",
    "gists_url": "https://api.github.com/users/marcinn/gists{/gist_id}",
    "starred_url": "https://api.github.com/users/marcinn/starred{/owner}{/repo}",
    "subscriptions_url": "https://api.github.com/users/marcinn/subscriptions",
    "organizations_url": "https://api.github.com/users/marcinn/orgs",
    "repos_url": "https://api.github.com/users/marcinn/repos",
    "events_url": "https://api.github.com/users/marcinn/events{/privacy}",
    "received_events_url": "https://api.github.com/users/marcinn/received_events",
    "type": "User",
    "site_admin": false
  },
  "created_at": "2015-11-03T13:52:13Z",
  "updated_at": "2015-11-03T13:52:13Z",
  "body": "My proposal is to execute search when trying to iterate over Search object, same as Django`s QuerySet is reading database: https://github.com/django/django/blob/master/django/db/models/query.py#L243 \r\n\r\nOnly when Search is empty the result should be also empty or should raise an exception.\r\n\r\nIterating over Search same as on QuerySet would be very handy."
}
, {
  "url": "https://api.github.com/repos/elastic/elasticsearch-dsl-py/issues/comments/153366041",
  "html_url": "https://github.com/elastic/elasticsearch-dsl-py/issues/279#issuecomment-153366041",
  "issue_url": "https://api.github.com/repos/elastic/elasticsearch-dsl-py/issues/279",
  "id": 153366041,
  "user": {
    "login": "HonzaKral",
    "id": 32132,
    "avatar_url": "https://avatars.githubusercontent.com/u/32132?v=3",
    "gravatar_id": "",
    "url": "https://api.github.com/users/HonzaKral",
    "html_url": "https://github.com/HonzaKral",
    "followers_url": "https://api.github.com/users/HonzaKral/followers",
    "following_url": "https://api.github.com/users/HonzaKral/following{/other_user}",
    "gists_url": "https://api.github.com/users/HonzaKral/gists{/gist_id}",
    "starred_url": "https://api.github.com/users/HonzaKral/starred{/owner}{/repo}",
    "subscriptions_url": "https://api.github.com/users/HonzaKral/subscriptions",
    "organizations_url": "https://api.github.com/users/HonzaKral/orgs",
    "repos_url": "https://api.github.com/users/HonzaKral/repos",
    "events_url": "https://api.github.com/users/HonzaKral/events{/privacy}",
    "received_events_url": "https://api.github.com/users/HonzaKral/received_events",
    "type": "User",
    "site_admin": false
  },
  "created_at": "2015-11-03T14:07:32Z",
  "updated_at": "2015-11-03T14:07:32Z",
  "body": "Djngo queryset is very different in that it doesn't have any other result but the individual records to iterate over. A Search request can return many other things (total count, aggregations, suggestions, ...). If `__iter__` were to execute search, would we strip these out (same way we do when doing count), ignore or have the response then be cached? If cached (seems most sensible) then how do we then manage the cache? When is it invalidated?"
}
, {
  "url": "https://api.github.com/repos/elastic/elasticsearch-dsl-py/issues/comments/153368033",
  "html_url": "https://github.com/elastic/elasticsearch-dsl-py/issues/279#issuecomment-153368033",
  "issue_url": "https://api.github.com/repos/elastic/elasticsearch-dsl-py/issues/279",
  "id": 153368033,
  "user": {
    "login": "marcinn",
    "id": 139032,
    "avatar_url": "https://avatars.githubusercontent.com/u/139032?v=3",
    "gravatar_id": "",
    "url": "https://api.github.com/users/marcinn",
    "html_url": "https://github.com/marcinn",
    "followers_url": "https://api.github.com/users/marcinn/followers",
    "following_url": "https://api.github.com/users/marcinn/following{/other_user}",
    "gists_url": "https://api.github.com/users/marcinn/gists{/gist_id}",
    "starred_url": "https://api.github.com/users/marcinn/starred{/owner}{/repo}",
    "subscriptions_url": "https://api.github.com/users/marcinn/subscriptions",
    "organizations_url": "https://api.github.com/users/marcinn/orgs",
    "repos_url": "https://api.github.com/users/marcinn/repos",
    "events_url": "https://api.github.com/users/marcinn/events{/privacy}",
    "received_events_url": "https://api.github.com/users/marcinn/received_events",
    "type": "User",
    "site_admin": false
  },
  "created_at": "2015-11-03T14:15:51Z",
  "updated_at": "2015-11-03T14:16:47Z",
  "body": "Maybe `__iter__` should be a shortcut for `iter(self.execute())` (Response is iterable, AFAIK).\r\nResult from `execute()` can be cached in Search (`self`) instance. This should work until every query change will instantiate new Search object (clone). [edit: of course cloned object must not have copy of cached result :)]\r\n"
}
, {
  "url": "https://api.github.com/repos/elastic/elasticsearch-dsl-py/issues/comments/153371333",
  "html_url": "https://github.com/elastic/elasticsearch-dsl-py/issues/279#issuecomment-153371333",
  "issue_url": "https://api.github.com/repos/elastic/elasticsearch-dsl-py/issues/279",
  "id": 153371333,
  "user": {
    "login": "marcinn",
    "id": 139032,
    "avatar_url": "https://avatars.githubusercontent.com/u/139032?v=3",
    "gravatar_id": "",
    "url": "https://api.github.com/users/marcinn",
    "html_url": "https://github.com/marcinn",
    "followers_url": "https://api.github.com/users/marcinn/followers",
    "following_url": "https://api.github.com/users/marcinn/following{/other_user}",
    "gists_url": "https://api.github.com/users/marcinn/gists{/gist_id}",
    "starred_url": "https://api.github.com/users/marcinn/starred{/owner}{/repo}",
    "subscriptions_url": "https://api.github.com/users/marcinn/subscriptions",
    "organizations_url": "https://api.github.com/users/marcinn/orgs",
    "repos_url": "https://api.github.com/users/marcinn/repos",
    "events_url": "https://api.github.com/users/marcinn/events{/privacy}",
    "received_events_url": "https://api.github.com/users/marcinn/received_events",
    "type": "User",
    "site_admin": false
  },
  "created_at": "2015-11-03T14:29:35Z",
  "updated_at": "2015-11-03T14:31:14Z",
  "body": "As a continuation I've tried simple workaround by using my IterableSearch class inherited from Search:\r\n\r\n```\r\nclass IterableSearch(Search):\r\n    def __iter__(self):\r\n        try:\r\n            return iter(self._cached_result)\r\n        except AttributeError:\r\n            self._cached_result = self.execute()\r\n            return iter(self._cached_result)\r\n```\r\n\r\nIt seems to be working, but it requires good testing. The caching, for example, is used only when calling `__iter__`. Maybe should be implemented in `execute()`?\r\n\r\n```\r\nclass IterableSearch(Search):\r\n    def __iter__(self):\r\n        return iter(self.execute())\r\n\r\n    def execute(self):\r\n        try:\r\n            return self._cached_result\r\n        except AttributeError:\r\n            self._cached_result = super(IterableSearch, self).execute()\r\n            return self._cached_result\r\n```\r\n\r\nCurrently I don't know about any side effects of caching, but as I said above - it requires some testing.\r\n"
}
, {
  "url": "https://api.github.com/repos/elastic/elasticsearch-dsl-py/issues/comments/153465807",
  "html_url": "https://github.com/elastic/elasticsearch-dsl-py/issues/279#issuecomment-153465807",
  "issue_url": "https://api.github.com/repos/elastic/elasticsearch-dsl-py/issues/279",
  "id": 153465807,
  "user": {
    "login": "HonzaKral",
    "id": 32132,
    "avatar_url": "https://avatars.githubusercontent.com/u/32132?v=3",
    "gravatar_id": "",
    "url": "https://api.github.com/users/HonzaKral",
    "html_url": "https://github.com/HonzaKral",
    "followers_url": "https://api.github.com/users/HonzaKral/followers",
    "following_url": "https://api.github.com/users/HonzaKral/following{/other_user}",
    "gists_url": "https://api.github.com/users/HonzaKral/gists{/gist_id}",
    "starred_url": "https://api.github.com/users/HonzaKral/starred{/owner}{/repo}",
    "subscriptions_url": "https://api.github.com/users/HonzaKral/subscriptions",
    "organizations_url": "https://api.github.com/users/HonzaKral/orgs",
    "repos_url": "https://api.github.com/users/HonzaKral/repos",
    "events_url": "https://api.github.com/users/HonzaKral/events{/privacy}",
    "received_events_url": "https://api.github.com/users/HonzaKral/received_events",
    "type": "User",
    "site_admin": false
  },
  "created_at": "2015-11-03T19:41:59Z",
  "updated_at": "2015-11-03T19:41:59Z",
  "body": "My only concern here is that right now it is possible to have a search object, keep it around and call `.execute` on it repeatedly to get updated results. Naturally that's not a huge problem and can probably be solved by documentation, possibly also an option to skip the cache when calling `execute`.."
}
, {
  "url": "https://api.github.com/repos/elastic/elasticsearch-dsl-py/issues/comments/153468503",
  "html_url": "https://github.com/elastic/elasticsearch-dsl-py/issues/279#issuecomment-153468503",
  "issue_url": "https://api.github.com/repos/elastic/elasticsearch-dsl-py/issues/279",
  "id": 153468503,
  "user": {
    "login": "willkg",
    "id": 820826,
    "avatar_url": "https://avatars.githubusercontent.com/u/820826?v=3",
    "gravatar_id": "",
    "url": "https://api.github.com/users/willkg",
    "html_url": "https://github.com/willkg",
    "followers_url": "https://api.github.com/users/willkg/followers",
    "following_url": "https://api.github.com/users/willkg/following{/other_user}",
    "gists_url": "https://api.github.com/users/willkg/gists{/gist_id}",
    "starred_url": "https://api.github.com/users/willkg/starred{/owner}{/repo}",
    "subscriptions_url": "https://api.github.com/users/willkg/subscriptions",
    "organizations_url": "https://api.github.com/users/willkg/orgs",
    "repos_url": "https://api.github.com/users/willkg/repos",
    "events_url": "https://api.github.com/users/willkg/events{/privacy}",
    "received_events_url": "https://api.github.com/users/willkg/received_events",
    "type": "User",
    "site_admin": false
  },
  "created_at": "2015-11-03T19:51:27Z",
  "updated_at": "2015-11-03T19:51:27Z",
  "body": "Maybe put the iterable functionality into a mixin that someone could use to create an iterable search easily? Has there been other behaviors that we didn't want to put in `Search` that might be good for mixins, too?"
}
, {
  "url": "https://api.github.com/repos/elastic/elasticsearch-dsl-py/issues/comments/153472574",
  "html_url": "https://github.com/elastic/elasticsearch-dsl-py/issues/279#issuecomment-153472574",
  "issue_url": "https://api.github.com/repos/elastic/elasticsearch-dsl-py/issues/279",
  "id": 153472574,
  "user": {
    "login": "marcinn",
    "id": 139032,
    "avatar_url": "https://avatars.githubusercontent.com/u/139032?v=3",
    "gravatar_id": "",
    "url": "https://api.github.com/users/marcinn",
    "html_url": "https://github.com/marcinn",
    "followers_url": "https://api.github.com/users/marcinn/followers",
    "following_url": "https://api.github.com/users/marcinn/following{/other_user}",
    "gists_url": "https://api.github.com/users/marcinn/gists{/gist_id}",
    "starred_url": "https://api.github.com/users/marcinn/starred{/owner}{/repo}",
    "subscriptions_url": "https://api.github.com/users/marcinn/subscriptions",
    "organizations_url": "https://api.github.com/users/marcinn/orgs",
    "repos_url": "https://api.github.com/users/marcinn/repos",
    "events_url": "https://api.github.com/users/marcinn/events{/privacy}",
    "received_events_url": "https://api.github.com/users/marcinn/received_events",
    "type": "User",
    "site_admin": false
  },
  "created_at": "2015-11-03T20:08:00Z",
  "updated_at": "2015-11-03T20:08:00Z",
  "body": "There will be another problem in places where `Search` is instantiated, i.e. in `Index.search`. Maybe these factories should be configureable with some `search_class` property, which defaults to `Search`. In the other side this can generate a property overriding horror-story ;) It depends how many factories are. \r\n "
}
, {
  "url": "https://api.github.com/repos/elastic/elasticsearch-dsl-py/issues/comments/153797661",
  "html_url": "https://github.com/elastic/elasticsearch-dsl-py/issues/279#issuecomment-153797661",
  "issue_url": "https://api.github.com/repos/elastic/elasticsearch-dsl-py/issues/279",
  "id": 153797661,
  "user": {
    "login": "HonzaKral",
    "id": 32132,
    "avatar_url": "https://avatars.githubusercontent.com/u/32132?v=3",
    "gravatar_id": "",
    "url": "https://api.github.com/users/HonzaKral",
    "html_url": "https://github.com/HonzaKral",
    "followers_url": "https://api.github.com/users/HonzaKral/followers",
    "following_url": "https://api.github.com/users/HonzaKral/following{/other_user}",
    "gists_url": "https://api.github.com/users/HonzaKral/gists{/gist_id}",
    "starred_url": "https://api.github.com/users/HonzaKral/starred{/owner}{/repo}",
    "subscriptions_url": "https://api.github.com/users/HonzaKral/subscriptions",
    "organizations_url": "https://api.github.com/users/HonzaKral/orgs",
    "repos_url": "https://api.github.com/users/HonzaKral/repos",
    "events_url": "https://api.github.com/users/HonzaKral/events{/privacy}",
    "received_events_url": "https://api.github.com/users/HonzaKral/received_events",
    "type": "User",
    "site_admin": false
  },
  "created_at": "2015-11-04T17:20:45Z",
  "updated_at": "2015-11-04T17:20:45Z",
  "body": "I don't think a mixin is a way to go here - it wouldn't solve the original problem. I think we can just implement this on the default `Search` class, essentially what @marcinn posted here.\r\n\r\nThanks for the discussion and patience, this has been a long time in the todo list - since #10"
}
, {
  "url": "https://api.github.com/repos/elastic/elasticsearch-dsl-py/issues/comments/159689043",
  "html_url": "https://github.com/elastic/elasticsearch-dsl-py/issues/279#issuecomment-159689043",
  "issue_url": "https://api.github.com/repos/elastic/elasticsearch-dsl-py/issues/279",
  "id": 159689043,
  "user": {
    "login": "starenka",
    "id": 228248,
    "avatar_url": "https://avatars.githubusercontent.com/u/228248?v=3",
    "gravatar_id": "",
    "url": "https://api.github.com/users/starenka",
    "html_url": "https://github.com/starenka",
    "followers_url": "https://api.github.com/users/starenka/followers",
    "following_url": "https://api.github.com/users/starenka/following{/other_user}",
    "gists_url": "https://api.github.com/users/starenka/gists{/gist_id}",
    "starred_url": "https://api.github.com/users/starenka/starred{/owner}{/repo}",
    "subscriptions_url": "https://api.github.com/users/starenka/subscriptions",
    "organizations_url": "https://api.github.com/users/starenka/orgs",
    "repos_url": "https://api.github.com/users/starenka/repos",
    "events_url": "https://api.github.com/users/starenka/events{/privacy}",
    "received_events_url": "https://api.github.com/users/starenka/received_events",
    "type": "User",
    "site_admin": false
  },
  "created_at": "2015-11-25T18:02:59Z",
  "updated_at": "2015-11-25T18:03:53Z",
  "body": "Cheers!\n"
}
]
