[
{
  "url": "https://api.github.com/repos/chef/inspec/issues/comments/154667681",
  "html_url": "https://github.com/chef/inspec/pull/223#issuecomment-154667681",
  "issue_url": "https://api.github.com/repos/chef/inspec/issues/223",
  "id": 154667681,
  "user": {
    "login": "chris-rock",
    "id": 1178413,
    "avatar_url": "https://avatars.githubusercontent.com/u/1178413?v=3",
    "gravatar_id": "",
    "url": "https://api.github.com/users/chris-rock",
    "html_url": "https://github.com/chris-rock",
    "followers_url": "https://api.github.com/users/chris-rock/followers",
    "following_url": "https://api.github.com/users/chris-rock/following{/other_user}",
    "gists_url": "https://api.github.com/users/chris-rock/gists{/gist_id}",
    "starred_url": "https://api.github.com/users/chris-rock/starred{/owner}{/repo}",
    "subscriptions_url": "https://api.github.com/users/chris-rock/subscriptions",
    "organizations_url": "https://api.github.com/users/chris-rock/orgs",
    "repos_url": "https://api.github.com/users/chris-rock/repos",
    "events_url": "https://api.github.com/users/chris-rock/events{/privacy}",
    "received_events_url": "https://api.github.com/users/chris-rock/received_events",
    "type": "User",
    "site_admin": false
  },
  "created_at": "2015-11-07T09:18:48Z",
  "updated_at": "2015-11-07T09:18:48Z",
  "body": "Thanks @jjasghar for adding this information!"
}
]
