[
{
  "url": "https://api.github.com/repos/mongodb/mongo-php-driver-legacy/issues/comments/69601816",
  "html_url": "https://github.com/mongodb/mongo-php-driver-legacy/pull/813#issuecomment-69601816",
  "issue_url": "https://api.github.com/repos/mongodb/mongo-php-driver-legacy/issues/813",
  "id": 69601816,
  "user": {
    "login": "derickr",
    "id": 208074,
    "avatar_url": "https://avatars.githubusercontent.com/u/208074?v=3",
    "gravatar_id": "",
    "url": "https://api.github.com/users/derickr",
    "html_url": "https://github.com/derickr",
    "followers_url": "https://api.github.com/users/derickr/followers",
    "following_url": "https://api.github.com/users/derickr/following{/other_user}",
    "gists_url": "https://api.github.com/users/derickr/gists{/gist_id}",
    "starred_url": "https://api.github.com/users/derickr/starred{/owner}{/repo}",
    "subscriptions_url": "https://api.github.com/users/derickr/subscriptions",
    "organizations_url": "https://api.github.com/users/derickr/orgs",
    "repos_url": "https://api.github.com/users/derickr/repos",
    "events_url": "https://api.github.com/users/derickr/events{/privacy}",
    "received_events_url": "https://api.github.com/users/derickr/received_events",
    "type": "User",
    "site_admin": false
  },
  "created_at": "2015-01-12T16:50:33Z",
  "updated_at": "2015-01-12T16:50:33Z",
  "body": "LGTM after fixing the protos."
}
]
