[
{
  "url": "https://api.github.com/repos/ServiceStack/ServiceStack/issues/comments/15569604",
  "html_url": "https://github.com/ServiceStack/ServiceStack/pull/553#issuecomment-15569604",
  "issue_url": "https://api.github.com/repos/ServiceStack/ServiceStack/issues/553",
  "id": 15569604,
  "user": {
    "login": "mythz",
    "id": 89361,
    "avatar_url": "https://avatars.githubusercontent.com/u/89361?v=3",
    "gravatar_id": "",
    "url": "https://api.github.com/users/mythz",
    "html_url": "https://github.com/mythz",
    "followers_url": "https://api.github.com/users/mythz/followers",
    "following_url": "https://api.github.com/users/mythz/following{/other_user}",
    "gists_url": "https://api.github.com/users/mythz/gists{/gist_id}",
    "starred_url": "https://api.github.com/users/mythz/starred{/owner}{/repo}",
    "subscriptions_url": "https://api.github.com/users/mythz/subscriptions",
    "organizations_url": "https://api.github.com/users/mythz/orgs",
    "repos_url": "https://api.github.com/users/mythz/repos",
    "events_url": "https://api.github.com/users/mythz/events{/privacy}",
    "received_events_url": "https://api.github.com/users/mythz/received_events",
    "type": "User",
    "site_admin": false
  },
  "created_at": "2013-03-28T05:37:19Z",
  "updated_at": "2013-03-28T05:37:19Z",
  "body": "Great, thx!"
}
]
