[
{
  "url": "https://api.github.com/repos/google/closure-compiler/issues/comments/75857520",
  "html_url": "https://github.com/google/closure-compiler/issues/847#issuecomment-75857520",
  "issue_url": "https://api.github.com/repos/google/closure-compiler/issues/847",
  "id": 75857520,
  "user": {
    "login": "concavelenz",
    "id": 1245994,
    "avatar_url": "https://avatars.githubusercontent.com/u/1245994?v=3",
    "gravatar_id": "",
    "url": "https://api.github.com/users/concavelenz",
    "html_url": "https://github.com/concavelenz",
    "followers_url": "https://api.github.com/users/concavelenz/followers",
    "following_url": "https://api.github.com/users/concavelenz/following{/other_user}",
    "gists_url": "https://api.github.com/users/concavelenz/gists{/gist_id}",
    "starred_url": "https://api.github.com/users/concavelenz/starred{/owner}{/repo}",
    "subscriptions_url": "https://api.github.com/users/concavelenz/subscriptions",
    "organizations_url": "https://api.github.com/users/concavelenz/orgs",
    "repos_url": "https://api.github.com/users/concavelenz/repos",
    "events_url": "https://api.github.com/users/concavelenz/events{/privacy}",
    "received_events_url": "https://api.github.com/users/concavelenz/received_events",
    "type": "User",
    "site_admin": false
  },
  "created_at": "2015-02-24T22:09:22Z",
  "updated_at": "2015-02-24T22:09:22Z",
  "body": "Can you provide an example here?"
}
, {
  "url": "https://api.github.com/repos/google/closure-compiler/issues/comments/75858569",
  "html_url": "https://github.com/google/closure-compiler/issues/847#issuecomment-75858569",
  "issue_url": "https://api.github.com/repos/google/closure-compiler/issues/847",
  "id": 75858569,
  "user": {
    "login": "nanaze",
    "id": 1475312,
    "avatar_url": "https://avatars.githubusercontent.com/u/1475312?v=3",
    "gravatar_id": "",
    "url": "https://api.github.com/users/nanaze",
    "html_url": "https://github.com/nanaze",
    "followers_url": "https://api.github.com/users/nanaze/followers",
    "following_url": "https://api.github.com/users/nanaze/following{/other_user}",
    "gists_url": "https://api.github.com/users/nanaze/gists{/gist_id}",
    "starred_url": "https://api.github.com/users/nanaze/starred{/owner}{/repo}",
    "subscriptions_url": "https://api.github.com/users/nanaze/subscriptions",
    "organizations_url": "https://api.github.com/users/nanaze/orgs",
    "repos_url": "https://api.github.com/users/nanaze/repos",
    "events_url": "https://api.github.com/users/nanaze/events{/privacy}",
    "received_events_url": "https://api.github.com/users/nanaze/received_events",
    "type": "User",
    "site_admin": false
  },
  "created_at": "2015-02-24T22:15:22Z",
  "updated_at": "2015-02-24T22:15:22Z",
  "body": "I think this used to work:\r\n\r\n```\r\n/**\r\n * @param string name\r\n */\r\nfunction hello(name) {\r\n  alert('Hello, ' + name);\r\n}\r\nhello('New user');\r\n```\r\n\r\nThis may be obsolete, however.\r\n"
}
, {
  "url": "https://api.github.com/repos/google/closure-compiler/issues/comments/75858998",
  "html_url": "https://github.com/google/closure-compiler/issues/847#issuecomment-75858998",
  "issue_url": "https://api.github.com/repos/google/closure-compiler/issues/847",
  "id": 75858998,
  "user": {
    "login": "MatrixFrog",
    "id": 244381,
    "avatar_url": "https://avatars.githubusercontent.com/u/244381?v=3",
    "gravatar_id": "",
    "url": "https://api.github.com/users/MatrixFrog",
    "html_url": "https://github.com/MatrixFrog",
    "followers_url": "https://api.github.com/users/MatrixFrog/followers",
    "following_url": "https://api.github.com/users/MatrixFrog/following{/other_user}",
    "gists_url": "https://api.github.com/users/MatrixFrog/gists{/gist_id}",
    "starred_url": "https://api.github.com/users/MatrixFrog/starred{/owner}{/repo}",
    "subscriptions_url": "https://api.github.com/users/MatrixFrog/subscriptions",
    "organizations_url": "https://api.github.com/users/MatrixFrog/orgs",
    "repos_url": "https://api.github.com/users/MatrixFrog/repos",
    "events_url": "https://api.github.com/users/MatrixFrog/events{/privacy}",
    "received_events_url": "https://api.github.com/users/MatrixFrog/received_events",
    "type": "User",
    "site_admin": false
  },
  "created_at": "2015-02-24T22:17:37Z",
  "updated_at": "2015-02-24T22:17:37Z",
  "body": "That may not work anymore but I know that `@extends Foo` (instead of `@extends {Foo}`) still does work because I see it fairly often."
}
, {
  "url": "https://api.github.com/repos/google/closure-compiler/issues/comments/76046638",
  "html_url": "https://github.com/google/closure-compiler/issues/847#issuecomment-76046638",
  "issue_url": "https://api.github.com/repos/google/closure-compiler/issues/847",
  "id": 76046638,
  "user": {
    "login": "concavelenz",
    "id": 1245994,
    "avatar_url": "https://avatars.githubusercontent.com/u/1245994?v=3",
    "gravatar_id": "",
    "url": "https://api.github.com/users/concavelenz",
    "html_url": "https://github.com/concavelenz",
    "followers_url": "https://api.github.com/users/concavelenz/followers",
    "following_url": "https://api.github.com/users/concavelenz/following{/other_user}",
    "gists_url": "https://api.github.com/users/concavelenz/gists{/gist_id}",
    "starred_url": "https://api.github.com/users/concavelenz/starred{/owner}{/repo}",
    "subscriptions_url": "https://api.github.com/users/concavelenz/subscriptions",
    "organizations_url": "https://api.github.com/users/concavelenz/orgs",
    "repos_url": "https://api.github.com/users/concavelenz/repos",
    "events_url": "https://api.github.com/users/concavelenz/events{/privacy}",
    "received_events_url": "https://api.github.com/users/concavelenz/received_events",
    "type": "User",
    "site_admin": false
  },
  "created_at": "2015-02-25T20:16:27Z",
  "updated_at": "2015-02-25T20:16:27Z",
  "body": "Generally, if we don't allow general type expressions and they aren't optional, I don't know that \"{\" are necessary:\r\n\r\n\"@template T\" should not be \"@template {T}\""
}
, {
  "url": "https://api.github.com/repos/google/closure-compiler/issues/comments/76047335",
  "html_url": "https://github.com/google/closure-compiler/issues/847#issuecomment-76047335",
  "issue_url": "https://api.github.com/repos/google/closure-compiler/issues/847",
  "id": 76047335,
  "user": {
    "login": "nanaze",
    "id": 1475312,
    "avatar_url": "https://avatars.githubusercontent.com/u/1475312?v=3",
    "gravatar_id": "",
    "url": "https://api.github.com/users/nanaze",
    "html_url": "https://github.com/nanaze",
    "followers_url": "https://api.github.com/users/nanaze/followers",
    "following_url": "https://api.github.com/users/nanaze/following{/other_user}",
    "gists_url": "https://api.github.com/users/nanaze/gists{/gist_id}",
    "starred_url": "https://api.github.com/users/nanaze/starred{/owner}{/repo}",
    "subscriptions_url": "https://api.github.com/users/nanaze/subscriptions",
    "organizations_url": "https://api.github.com/users/nanaze/orgs",
    "repos_url": "https://api.github.com/users/nanaze/repos",
    "events_url": "https://api.github.com/users/nanaze/events{/privacy}",
    "received_events_url": "https://api.github.com/users/nanaze/received_events",
    "type": "User",
    "site_admin": false
  },
  "created_at": "2015-02-25T20:19:37Z",
  "updated_at": "2015-02-25T20:19:37Z",
  "body": "The style guide mentions that some of these are optional. I think this really matters for @param and @return sine they both have text after the type."
}
]
