[
{
  "url": "https://api.github.com/repos/google/closure-compiler/issues/comments/76040680",
  "html_url": "https://github.com/google/closure-compiler/pull/853#issuecomment-76040680",
  "issue_url": "https://api.github.com/repos/google/closure-compiler/issues/853",
  "id": 76040680,
  "user": {
    "login": "MatrixFrog",
    "id": 244381,
    "avatar_url": "https://avatars.githubusercontent.com/u/244381?v=3",
    "gravatar_id": "",
    "url": "https://api.github.com/users/MatrixFrog",
    "html_url": "https://github.com/MatrixFrog",
    "followers_url": "https://api.github.com/users/MatrixFrog/followers",
    "following_url": "https://api.github.com/users/MatrixFrog/following{/other_user}",
    "gists_url": "https://api.github.com/users/MatrixFrog/gists{/gist_id}",
    "starred_url": "https://api.github.com/users/MatrixFrog/starred{/owner}{/repo}",
    "subscriptions_url": "https://api.github.com/users/MatrixFrog/subscriptions",
    "organizations_url": "https://api.github.com/users/MatrixFrog/orgs",
    "repos_url": "https://api.github.com/users/MatrixFrog/repos",
    "events_url": "https://api.github.com/users/MatrixFrog/events{/privacy}",
    "received_events_url": "https://api.github.com/users/MatrixFrog/received_events",
    "type": "User",
    "site_admin": false
  },
  "created_at": "2015-02-25T19:47:01Z",
  "updated_at": "2015-02-25T19:47:01Z",
  "body": "lgtm. I think we can merge this once Travis is done."
}
]
