[
{
  "url": "https://api.github.com/repos/Netflix/dynomite/issues/comments/163713365",
  "html_url": "https://github.com/Netflix/dynomite/pull/208#issuecomment-163713365",
  "issue_url": "https://api.github.com/repos/Netflix/dynomite/issues/208",
  "id": 163713365,
  "user": {
    "login": "ipapapa",
    "id": 4562887,
    "avatar_url": "https://avatars.githubusercontent.com/u/4562887?v=3",
    "gravatar_id": "",
    "url": "https://api.github.com/users/ipapapa",
    "html_url": "https://github.com/ipapapa",
    "followers_url": "https://api.github.com/users/ipapapa/followers",
    "following_url": "https://api.github.com/users/ipapapa/following{/other_user}",
    "gists_url": "https://api.github.com/users/ipapapa/gists{/gist_id}",
    "starred_url": "https://api.github.com/users/ipapapa/starred{/owner}{/repo}",
    "subscriptions_url": "https://api.github.com/users/ipapapa/subscriptions",
    "organizations_url": "https://api.github.com/users/ipapapa/orgs",
    "repos_url": "https://api.github.com/users/ipapapa/repos",
    "events_url": "https://api.github.com/users/ipapapa/events{/privacy}",
    "received_events_url": "https://api.github.com/users/ipapapa/received_events",
    "type": "User",
    "site_admin": false
  },
  "created_at": "2015-12-10T18:42:18Z",
  "updated_at": "2015-12-10T18:42:18Z",
  "body": "Good catch, INFO should not be propagated to other nodes."
}
]
