[
{
  "url": "https://api.github.com/repos/twitter/scalding/issues/comments/24868738",
  "html_url": "https://github.com/twitter/scalding/issues/609#issuecomment-24868738",
  "issue_url": "https://api.github.com/repos/twitter/scalding/issues/609",
  "id": 24868738,
  "user": {
    "login": "johnynek",
    "id": 67958,
    "avatar_url": "https://avatars.githubusercontent.com/u/67958?v=3",
    "gravatar_id": "",
    "url": "https://api.github.com/users/johnynek",
    "html_url": "https://github.com/johnynek",
    "followers_url": "https://api.github.com/users/johnynek/followers",
    "following_url": "https://api.github.com/users/johnynek/following{/other_user}",
    "gists_url": "https://api.github.com/users/johnynek/gists{/gist_id}",
    "starred_url": "https://api.github.com/users/johnynek/starred{/owner}{/repo}",
    "subscriptions_url": "https://api.github.com/users/johnynek/subscriptions",
    "organizations_url": "https://api.github.com/users/johnynek/orgs",
    "repos_url": "https://api.github.com/users/johnynek/repos",
    "events_url": "https://api.github.com/users/johnynek/events{/privacy}",
    "received_events_url": "https://api.github.com/users/johnynek/received_events",
    "type": "User",
    "site_admin": false
  },
  "created_at": "2013-09-21T19:11:33Z",
  "updated_at": "2013-09-21T19:11:33Z",
  "body": "Isn't the problem just with the implementation of TypedDelimited?\r\n\r\nI think there is a lot of deeper problem: in general how do go to and from strings without a separator?\r\n\r\nWe could require an Injection[T, String] to all the types inside?"
}
, {
  "url": "https://api.github.com/repos/twitter/scalding/issues/comments/24875007",
  "html_url": "https://github.com/twitter/scalding/issues/609#issuecomment-24875007",
  "issue_url": "https://api.github.com/repos/twitter/scalding/issues/609",
  "id": 24875007,
  "user": {
    "login": "laurencer",
    "id": 696926,
    "avatar_url": "https://avatars.githubusercontent.com/u/696926?v=3",
    "gravatar_id": "",
    "url": "https://api.github.com/users/laurencer",
    "html_url": "https://github.com/laurencer",
    "followers_url": "https://api.github.com/users/laurencer/followers",
    "following_url": "https://api.github.com/users/laurencer/following{/other_user}",
    "gists_url": "https://api.github.com/users/laurencer/gists{/gist_id}",
    "starred_url": "https://api.github.com/users/laurencer/starred{/owner}{/repo}",
    "subscriptions_url": "https://api.github.com/users/laurencer/subscriptions",
    "organizations_url": "https://api.github.com/users/laurencer/orgs",
    "repos_url": "https://api.github.com/users/laurencer/repos",
    "events_url": "https://api.github.com/users/laurencer/events{/privacy}",
    "received_events_url": "https://api.github.com/users/laurencer/received_events",
    "type": "User",
    "site_admin": false
  },
  "created_at": "2013-09-22T02:54:53Z",
  "updated_at": "2013-09-22T02:54:53Z",
  "body": "I guess there's a few different problems - I'm not fully across the code yet so not all of this may be correct:\r\n\r\n1. We need a way to generate a String (with delimiters) from some input and vice versa.\r\n2. We need a way to split that string (provided by `TypedDelimited`).\r\n3. We need to be able to serialise/deserialise the types from each sub-string.\r\n4. We need to have an `Injection[T, (....)]` where `(...)` is a tuple of some description.\r\n5. And we need to offer error handling throughout this process (i.e. catch rows that don't serialise correctly, or which have the columns in the wrong order).\r\n\r\nIn my mind, `TypedDelimited` should handle 2. A `TupleConverter` should handle 3 and 4.\r\n\r\nThe `TupleConverter` then is composed of:\r\n\r\n- An `Injection[T, String]` for each column in the source input (where `T` varies according to the specific data).\r\n- An `Injection[(...), U]` where `U` is the final type of the tuple converter and `(...)` is the typed tuple of all the fields (obviously this doesn't actually have to be an `Injection` but could conceptually thats what needs to be included).\r\n\r\nThoughts?"
}
]
