[
{
  "url": "https://api.github.com/repos/google/guava/issues/comments/146625136",
  "html_url": "https://github.com/google/guava/pull/2180#issuecomment-146625136",
  "issue_url": "https://api.github.com/repos/google/guava/issues/2180",
  "id": 146625136,
  "user": {
    "login": "leeyikjiun",
    "id": 14358657,
    "avatar_url": "https://avatars.githubusercontent.com/u/14358657?v=3",
    "gravatar_id": "",
    "url": "https://api.github.com/users/leeyikjiun",
    "html_url": "https://github.com/leeyikjiun",
    "followers_url": "https://api.github.com/users/leeyikjiun/followers",
    "following_url": "https://api.github.com/users/leeyikjiun/following{/other_user}",
    "gists_url": "https://api.github.com/users/leeyikjiun/gists{/gist_id}",
    "starred_url": "https://api.github.com/users/leeyikjiun/starred{/owner}{/repo}",
    "subscriptions_url": "https://api.github.com/users/leeyikjiun/subscriptions",
    "organizations_url": "https://api.github.com/users/leeyikjiun/orgs",
    "repos_url": "https://api.github.com/users/leeyikjiun/repos",
    "events_url": "https://api.github.com/users/leeyikjiun/events{/privacy}",
    "received_events_url": "https://api.github.com/users/leeyikjiun/received_events",
    "type": "User",
    "site_admin": false
  },
  "created_at": "2015-10-08T17:04:17Z",
  "updated_at": "2015-10-08T17:04:17Z",
  "body": "Okay, I will make the changes. Do I have to close this pull request and create a new one?"
}
, {
  "url": "https://api.github.com/repos/google/guava/issues/comments/146625409",
  "html_url": "https://github.com/google/guava/pull/2180#issuecomment-146625409",
  "issue_url": "https://api.github.com/repos/google/guava/issues/2180",
  "id": 146625409,
  "user": {
    "login": "lowasser",
    "id": 544569,
    "avatar_url": "https://avatars.githubusercontent.com/u/544569?v=3",
    "gravatar_id": "",
    "url": "https://api.github.com/users/lowasser",
    "html_url": "https://github.com/lowasser",
    "followers_url": "https://api.github.com/users/lowasser/followers",
    "following_url": "https://api.github.com/users/lowasser/following{/other_user}",
    "gists_url": "https://api.github.com/users/lowasser/gists{/gist_id}",
    "starred_url": "https://api.github.com/users/lowasser/starred{/owner}{/repo}",
    "subscriptions_url": "https://api.github.com/users/lowasser/subscriptions",
    "organizations_url": "https://api.github.com/users/lowasser/orgs",
    "repos_url": "https://api.github.com/users/lowasser/repos",
    "events_url": "https://api.github.com/users/lowasser/events{/privacy}",
    "received_events_url": "https://api.github.com/users/lowasser/received_events",
    "type": "User",
    "site_admin": false
  },
  "created_at": "2015-10-08T17:05:36Z",
  "updated_at": "2015-10-08T17:05:36Z",
  "body": "I don't think so?  I think you can just add more changes to this pull request?"
}
, {
  "url": "https://api.github.com/repos/google/guava/issues/comments/146631347",
  "html_url": "https://github.com/google/guava/pull/2180#issuecomment-146631347",
  "issue_url": "https://api.github.com/repos/google/guava/issues/2180",
  "id": 146631347,
  "user": {
    "login": "leeyikjiun",
    "id": 14358657,
    "avatar_url": "https://avatars.githubusercontent.com/u/14358657?v=3",
    "gravatar_id": "",
    "url": "https://api.github.com/users/leeyikjiun",
    "html_url": "https://github.com/leeyikjiun",
    "followers_url": "https://api.github.com/users/leeyikjiun/followers",
    "following_url": "https://api.github.com/users/leeyikjiun/following{/other_user}",
    "gists_url": "https://api.github.com/users/leeyikjiun/gists{/gist_id}",
    "starred_url": "https://api.github.com/users/leeyikjiun/starred{/owner}{/repo}",
    "subscriptions_url": "https://api.github.com/users/leeyikjiun/subscriptions",
    "organizations_url": "https://api.github.com/users/leeyikjiun/orgs",
    "repos_url": "https://api.github.com/users/leeyikjiun/repos",
    "events_url": "https://api.github.com/users/leeyikjiun/events{/privacy}",
    "received_events_url": "https://api.github.com/users/leeyikjiun/received_events",
    "type": "User",
    "site_admin": false
  },
  "created_at": "2015-10-08T17:29:53Z",
  "updated_at": "2015-10-08T17:29:53Z",
  "body": "I can't add the tryParse method for UnsignedBytes as there is no UnsignedByte class to return as a null object."
}
, {
  "url": "https://api.github.com/repos/google/guava/issues/comments/146631584",
  "html_url": "https://github.com/google/guava/pull/2180#issuecomment-146631584",
  "issue_url": "https://api.github.com/repos/google/guava/issues/2180",
  "id": 146631584,
  "user": {
    "login": "lowasser",
    "id": 544569,
    "avatar_url": "https://avatars.githubusercontent.com/u/544569?v=3",
    "gravatar_id": "",
    "url": "https://api.github.com/users/lowasser",
    "html_url": "https://github.com/lowasser",
    "followers_url": "https://api.github.com/users/lowasser/followers",
    "following_url": "https://api.github.com/users/lowasser/following{/other_user}",
    "gists_url": "https://api.github.com/users/lowasser/gists{/gist_id}",
    "starred_url": "https://api.github.com/users/lowasser/starred{/owner}{/repo}",
    "subscriptions_url": "https://api.github.com/users/lowasser/subscriptions",
    "organizations_url": "https://api.github.com/users/lowasser/orgs",
    "repos_url": "https://api.github.com/users/lowasser/repos",
    "events_url": "https://api.github.com/users/lowasser/events{/privacy}",
    "received_events_url": "https://api.github.com/users/lowasser/received_events",
    "type": "User",
    "site_admin": false
  },
  "created_at": "2015-10-08T17:31:01Z",
  "updated_at": "2015-10-08T17:31:01Z",
  "body": "Then probably leave it out -- it's not clear what we should do there."
}
, {
  "url": "https://api.github.com/repos/google/guava/issues/comments/147111734",
  "html_url": "https://github.com/google/guava/pull/2180#issuecomment-147111734",
  "issue_url": "https://api.github.com/repos/google/guava/issues/2180",
  "id": 147111734,
  "user": {
    "login": "leeyikjiun",
    "id": 14358657,
    "avatar_url": "https://avatars.githubusercontent.com/u/14358657?v=3",
    "gravatar_id": "",
    "url": "https://api.github.com/users/leeyikjiun",
    "html_url": "https://github.com/leeyikjiun",
    "followers_url": "https://api.github.com/users/leeyikjiun/followers",
    "following_url": "https://api.github.com/users/leeyikjiun/following{/other_user}",
    "gists_url": "https://api.github.com/users/leeyikjiun/gists{/gist_id}",
    "starred_url": "https://api.github.com/users/leeyikjiun/starred{/owner}{/repo}",
    "subscriptions_url": "https://api.github.com/users/leeyikjiun/subscriptions",
    "organizations_url": "https://api.github.com/users/leeyikjiun/orgs",
    "repos_url": "https://api.github.com/users/leeyikjiun/repos",
    "events_url": "https://api.github.com/users/leeyikjiun/events{/privacy}",
    "received_events_url": "https://api.github.com/users/leeyikjiun/received_events",
    "type": "User",
    "site_admin": false
  },
  "created_at": "2015-10-10T17:35:16Z",
  "updated_at": "2015-10-10T17:35:16Z",
  "body": "I've found some further inconsistencies. In UnsignedLongs.parseUnsignedLong, a NumberFormatException is thrown if the radix is not within the min or max radix which is consistent with Java's Long.parseLong. However, in Longs.tryParse, an IllegalArgumentException is thrown instead.\r\n\r\nI think the new tryParse methods should throw NumberFormatException as well. But what should we do with the old methods?\r\n\r\n"
}
]
