[
{
  "url": "https://api.github.com/repos/google/guava/issues/comments/61343072",
  "html_url": "https://github.com/google/guava/issues/955#issuecomment-61343072",
  "issue_url": "https://api.github.com/repos/google/guava/issues/955",
  "id": 61343072,
  "user": {
    "login": "gissuebot",
    "id": 8091570,
    "avatar_url": "https://avatars.githubusercontent.com/u/8091570?v=3",
    "gravatar_id": "",
    "url": "https://api.github.com/users/gissuebot",
    "html_url": "https://github.com/gissuebot",
    "followers_url": "https://api.github.com/users/gissuebot/followers",
    "following_url": "https://api.github.com/users/gissuebot/following{/other_user}",
    "gists_url": "https://api.github.com/users/gissuebot/gists{/gist_id}",
    "starred_url": "https://api.github.com/users/gissuebot/starred{/owner}{/repo}",
    "subscriptions_url": "https://api.github.com/users/gissuebot/subscriptions",
    "organizations_url": "https://api.github.com/users/gissuebot/orgs",
    "repos_url": "https://api.github.com/users/gissuebot/repos",
    "events_url": "https://api.github.com/users/gissuebot/events{/privacy}",
    "received_events_url": "https://api.github.com/users/gissuebot/received_events",
    "type": "User",
    "site_admin": false
  },
  "created_at": "2014-10-31T23:13:59Z",
  "updated_at": "2014-10-31T23:13:59Z",
  "body": "_[Original comment](https://code.google.com/p/guava-libraries/issues/detail?id=955#c1) posted by **kevinb@google.com** on 2012-04-01 at 11:53 PM_\n\n---\n\nOuch. It probably should never have done that.\n\n---\n\n**Status:** `Accepted`\n"
}
, {
  "url": "https://api.github.com/repos/google/guava/issues/comments/61343096",
  "html_url": "https://github.com/google/guava/issues/955#issuecomment-61343096",
  "issue_url": "https://api.github.com/repos/google/guava/issues/955",
  "id": 61343096,
  "user": {
    "login": "gissuebot",
    "id": 8091570,
    "avatar_url": "https://avatars.githubusercontent.com/u/8091570?v=3",
    "gravatar_id": "",
    "url": "https://api.github.com/users/gissuebot",
    "html_url": "https://github.com/gissuebot",
    "followers_url": "https://api.github.com/users/gissuebot/followers",
    "following_url": "https://api.github.com/users/gissuebot/following{/other_user}",
    "gists_url": "https://api.github.com/users/gissuebot/gists{/gist_id}",
    "starred_url": "https://api.github.com/users/gissuebot/starred{/owner}{/repo}",
    "subscriptions_url": "https://api.github.com/users/gissuebot/subscriptions",
    "organizations_url": "https://api.github.com/users/gissuebot/orgs",
    "repos_url": "https://api.github.com/users/gissuebot/repos",
    "events_url": "https://api.github.com/users/gissuebot/events{/privacy}",
    "received_events_url": "https://api.github.com/users/gissuebot/received_events",
    "type": "User",
    "site_admin": false
  },
  "created_at": "2014-10-31T23:14:17Z",
  "updated_at": "2014-10-31T23:14:17Z",
  "body": "_[Original comment](https://code.google.com/p/guava-libraries/issues/detail?id=955#c2) posted by **wasserman.louis** on 2012-04-03 at 03:09 PM_\n\n---\n\nChris has LGTM'd my CL at http://codereview.appspot.com/5969066/; it's just waiting for checking in and mirroring out.\n\n---\n\n**Status:** `Started`\n**Owner:** cpovirk@google.com\n"
}
, {
  "url": "https://api.github.com/repos/google/guava/issues/comments/61343171",
  "html_url": "https://github.com/google/guava/issues/955#issuecomment-61343171",
  "issue_url": "https://api.github.com/repos/google/guava/issues/955",
  "id": 61343171,
  "user": {
    "login": "gissuebot",
    "id": 8091570,
    "avatar_url": "https://avatars.githubusercontent.com/u/8091570?v=3",
    "gravatar_id": "",
    "url": "https://api.github.com/users/gissuebot",
    "html_url": "https://github.com/gissuebot",
    "followers_url": "https://api.github.com/users/gissuebot/followers",
    "following_url": "https://api.github.com/users/gissuebot/following{/other_user}",
    "gists_url": "https://api.github.com/users/gissuebot/gists{/gist_id}",
    "starred_url": "https://api.github.com/users/gissuebot/starred{/owner}{/repo}",
    "subscriptions_url": "https://api.github.com/users/gissuebot/subscriptions",
    "organizations_url": "https://api.github.com/users/gissuebot/orgs",
    "repos_url": "https://api.github.com/users/gissuebot/repos",
    "events_url": "https://api.github.com/users/gissuebot/events{/privacy}",
    "received_events_url": "https://api.github.com/users/gissuebot/received_events",
    "type": "User",
    "site_admin": false
  },
  "created_at": "2014-10-31T23:15:05Z",
  "updated_at": "2014-10-31T23:15:05Z",
  "body": "_[Original comment](https://code.google.com/p/guava-libraries/issues/detail?id=955#c3) posted by **neveue** on 2012-04-03 at 06:14 PM_\n\n---\n\nShould we put some kind of warning in the release notes in case someone's code depends on the current behavior (even though the current behavior is \"wrong\")?"
}
, {
  "url": "https://api.github.com/repos/google/guava/issues/comments/61343187",
  "html_url": "https://github.com/google/guava/issues/955#issuecomment-61343187",
  "issue_url": "https://api.github.com/repos/google/guava/issues/955",
  "id": 61343187,
  "user": {
    "login": "gissuebot",
    "id": 8091570,
    "avatar_url": "https://avatars.githubusercontent.com/u/8091570?v=3",
    "gravatar_id": "",
    "url": "https://api.github.com/users/gissuebot",
    "html_url": "https://github.com/gissuebot",
    "followers_url": "https://api.github.com/users/gissuebot/followers",
    "following_url": "https://api.github.com/users/gissuebot/following{/other_user}",
    "gists_url": "https://api.github.com/users/gissuebot/gists{/gist_id}",
    "starred_url": "https://api.github.com/users/gissuebot/starred{/owner}{/repo}",
    "subscriptions_url": "https://api.github.com/users/gissuebot/subscriptions",
    "organizations_url": "https://api.github.com/users/gissuebot/orgs",
    "repos_url": "https://api.github.com/users/gissuebot/repos",
    "events_url": "https://api.github.com/users/gissuebot/events{/privacy}",
    "received_events_url": "https://api.github.com/users/gissuebot/received_events",
    "type": "User",
    "site_admin": false
  },
  "created_at": "2014-10-31T23:15:13Z",
  "updated_at": "2014-10-31T23:15:13Z",
  "body": "_[Original comment](https://code.google.com/p/guava-libraries/issues/detail?id=955#c4) posted by **wasserman.louis** on 2012-04-03 at 07:12 PM_\n\n---\n\nOh, of course.  That said, it'll probably be fixed in 13.0, so there's no rush."
}
, {
  "url": "https://api.github.com/repos/google/guava/issues/comments/61343208",
  "html_url": "https://github.com/google/guava/issues/955#issuecomment-61343208",
  "issue_url": "https://api.github.com/repos/google/guava/issues/955",
  "id": 61343208,
  "user": {
    "login": "gissuebot",
    "id": 8091570,
    "avatar_url": "https://avatars.githubusercontent.com/u/8091570?v=3",
    "gravatar_id": "",
    "url": "https://api.github.com/users/gissuebot",
    "html_url": "https://github.com/gissuebot",
    "followers_url": "https://api.github.com/users/gissuebot/followers",
    "following_url": "https://api.github.com/users/gissuebot/following{/other_user}",
    "gists_url": "https://api.github.com/users/gissuebot/gists{/gist_id}",
    "starred_url": "https://api.github.com/users/gissuebot/starred{/owner}{/repo}",
    "subscriptions_url": "https://api.github.com/users/gissuebot/subscriptions",
    "organizations_url": "https://api.github.com/users/gissuebot/orgs",
    "repos_url": "https://api.github.com/users/gissuebot/repos",
    "events_url": "https://api.github.com/users/gissuebot/events{/privacy}",
    "received_events_url": "https://api.github.com/users/gissuebot/received_events",
    "type": "User",
    "site_admin": false
  },
  "created_at": "2014-10-31T23:15:26Z",
  "updated_at": "2014-10-31T23:15:26Z",
  "body": "_[Original comment](https://code.google.com/p/guava-libraries/issues/detail?id=955#c5) posted by **cpovirk@google.com** on 2012-04-03 at 11:07 PM_\n\n---\n\nI tentatively plan to cherry pick this into r12.\n\n---\n\n**Status:** `Fixed`\n**Labels:** `Milestone-Release12`\n"
}
]
