[
{
  "url": "https://api.github.com/repos/google/guava/issues/comments/162566574",
  "html_url": "https://github.com/google/guava/issues/2246#issuecomment-162566574",
  "issue_url": "https://api.github.com/repos/google/guava/issues/2246",
  "id": 162566574,
  "user": {
    "login": "cpovirk",
    "id": 1703908,
    "avatar_url": "https://avatars.githubusercontent.com/u/1703908?v=3",
    "gravatar_id": "",
    "url": "https://api.github.com/users/cpovirk",
    "html_url": "https://github.com/cpovirk",
    "followers_url": "https://api.github.com/users/cpovirk/followers",
    "following_url": "https://api.github.com/users/cpovirk/following{/other_user}",
    "gists_url": "https://api.github.com/users/cpovirk/gists{/gist_id}",
    "starred_url": "https://api.github.com/users/cpovirk/starred{/owner}{/repo}",
    "subscriptions_url": "https://api.github.com/users/cpovirk/subscriptions",
    "organizations_url": "https://api.github.com/users/cpovirk/orgs",
    "repos_url": "https://api.github.com/users/cpovirk/repos",
    "events_url": "https://api.github.com/users/cpovirk/events{/privacy}",
    "received_events_url": "https://api.github.com/users/cpovirk/received_events",
    "type": "User",
    "site_admin": false
  },
  "created_at": "2015-12-07T15:58:54Z",
  "updated_at": "2015-12-07T15:58:54Z",
  "body": "Were performance not a concern, I would probably suggest that you use `Equivalence.Wrapper`. It's a little ugly, but code that uses collections with custom equality is likely going to need to use `Equivalence.Wrapper`, anyway.\r\n\r\nFor your case, that sounds like defeating the purpose :)\r\n\r\nAnother way to come at the problem is to make sure that your `equals` implementation is as fast as it can be, with a `==` special case at the top (and probably some `hashCode` caching, too -- I'm guessing that you may already do that, since it doesn't sound like you're seeing `hashCode` in your profiling?). But I guess that doesn't necessarily help with the `!=` case (though hopefully that's the much less common case if hashing is doing its job... though I suppose it could add up even then). One way to address that is to use `==` exclusively, but maybe that's not an option for the type in other uses.\r\n\r\nI am nervous about something like `Ordering.explicit(Collection, Equivalence)` (or `Ordering.explicitUsingIdentity(Collection)`) because users who query the `Map` (or `Set`) are *also* going to have to use the same instances. You can probably arrange for that to work in your case -- and it's really no worse than any other `IdentityHashMap` or other collection that's inconsistent with equals (frowned upon as those may be).\r\n\r\nMy guess is that we probably won't add this. But the `Ordering.explicit()` code is pretty self-contained IIRC, so you can probably clone and modify."
}
]
