[
{
  "url": "https://api.github.com/repos/elastic/elasticsearch/issues/comments/48365924",
  "html_url": "https://github.com/elastic/elasticsearch/issues/2267#issuecomment-48365924",
  "issue_url": "https://api.github.com/repos/elastic/elasticsearch/issues/2267",
  "id": 48365924,
  "user": {
    "login": "clintongormley",
    "id": 56599,
    "avatar_url": "https://avatars.githubusercontent.com/u/56599?v=3",
    "gravatar_id": "",
    "url": "https://api.github.com/users/clintongormley",
    "html_url": "https://github.com/clintongormley",
    "followers_url": "https://api.github.com/users/clintongormley/followers",
    "following_url": "https://api.github.com/users/clintongormley/following{/other_user}",
    "gists_url": "https://api.github.com/users/clintongormley/gists{/gist_id}",
    "starred_url": "https://api.github.com/users/clintongormley/starred{/owner}{/repo}",
    "subscriptions_url": "https://api.github.com/users/clintongormley/subscriptions",
    "organizations_url": "https://api.github.com/users/clintongormley/orgs",
    "repos_url": "https://api.github.com/users/clintongormley/repos",
    "events_url": "https://api.github.com/users/clintongormley/events{/privacy}",
    "received_events_url": "https://api.github.com/users/clintongormley/received_events",
    "type": "User",
    "site_admin": false
  },
  "created_at": "2014-07-08T16:43:38Z",
  "updated_at": "2014-07-08T16:43:38Z",
  "body": "Testing this out in master all seems to work OK.  Please reopen if you're still seeng issues."
}
]
