[
{
  "url": "https://api.github.com/repos/elastic/elasticsearch/issues/comments/25203045",
  "html_url": "https://github.com/elastic/elasticsearch/pull/3751#issuecomment-25203045",
  "issue_url": "https://api.github.com/repos/elastic/elasticsearch/issues/3751",
  "id": 25203045,
  "user": {
    "login": "spinscale",
    "id": 667544,
    "avatar_url": "https://avatars.githubusercontent.com/u/667544?v=3",
    "gravatar_id": "",
    "url": "https://api.github.com/users/spinscale",
    "html_url": "https://github.com/spinscale",
    "followers_url": "https://api.github.com/users/spinscale/followers",
    "following_url": "https://api.github.com/users/spinscale/following{/other_user}",
    "gists_url": "https://api.github.com/users/spinscale/gists{/gist_id}",
    "starred_url": "https://api.github.com/users/spinscale/starred{/owner}{/repo}",
    "subscriptions_url": "https://api.github.com/users/spinscale/subscriptions",
    "organizations_url": "https://api.github.com/users/spinscale/orgs",
    "repos_url": "https://api.github.com/users/spinscale/repos",
    "events_url": "https://api.github.com/users/spinscale/events{/privacy}",
    "received_events_url": "https://api.github.com/users/spinscale/received_events",
    "type": "User",
    "site_admin": false
  },
  "created_at": "2013-09-26T20:55:37Z",
  "updated_at": "2013-09-26T20:55:37Z",
  "body": "@s1monw switched this PR to create `FieldMapper.isSortable()`,  which is true by default and only disabled for the `CompletionFieldMapper`... "
}
]
