[
{
  "url": "https://api.github.com/repos/elastic/elasticsearch/issues/comments/21538092",
  "html_url": "https://github.com/elastic/elasticsearch/issues/3387#issuecomment-21538092",
  "issue_url": "https://api.github.com/repos/elastic/elasticsearch/issues/3387",
  "id": 21538092,
  "user": {
    "login": "javanna",
    "id": 832460,
    "avatar_url": "https://avatars.githubusercontent.com/u/832460?v=3",
    "gravatar_id": "",
    "url": "https://api.github.com/users/javanna",
    "html_url": "https://github.com/javanna",
    "followers_url": "https://api.github.com/users/javanna/followers",
    "following_url": "https://api.github.com/users/javanna/following{/other_user}",
    "gists_url": "https://api.github.com/users/javanna/gists{/gist_id}",
    "starred_url": "https://api.github.com/users/javanna/starred{/owner}{/repo}",
    "subscriptions_url": "https://api.github.com/users/javanna/subscriptions",
    "organizations_url": "https://api.github.com/users/javanna/orgs",
    "repos_url": "https://api.github.com/users/javanna/repos",
    "events_url": "https://api.github.com/users/javanna/events{/privacy}",
    "received_events_url": "https://api.github.com/users/javanna/received_events",
    "type": "User",
    "site_admin": false
  },
  "created_at": "2013-07-25T07:42:49Z",
  "updated_at": "2013-07-25T08:09:43Z",
  "body": "Thanks for pointing that out. We have a [separate repository](https://github.com/elasticsearch/elasticsearch.github.com) for the documentation, which everyone can contribute to. Would you like to send a pull request there with your changes? Have a look at http://www.elasticsearch.org/contributing-to-elasticsearch/.\r\n\r\nClosing this issue since not related to the elasticsearch core."
}
, {
  "url": "https://api.github.com/repos/elastic/elasticsearch/issues/comments/21866006",
  "html_url": "https://github.com/elastic/elasticsearch/issues/3387#issuecomment-21866006",
  "issue_url": "https://api.github.com/repos/elastic/elasticsearch/issues/3387",
  "id": 21866006,
  "user": {
    "login": "dadoonet",
    "id": 274222,
    "avatar_url": "https://avatars.githubusercontent.com/u/274222?v=3",
    "gravatar_id": "",
    "url": "https://api.github.com/users/dadoonet",
    "html_url": "https://github.com/dadoonet",
    "followers_url": "https://api.github.com/users/dadoonet/followers",
    "following_url": "https://api.github.com/users/dadoonet/following{/other_user}",
    "gists_url": "https://api.github.com/users/dadoonet/gists{/gist_id}",
    "starred_url": "https://api.github.com/users/dadoonet/starred{/owner}{/repo}",
    "subscriptions_url": "https://api.github.com/users/dadoonet/subscriptions",
    "organizations_url": "https://api.github.com/users/dadoonet/orgs",
    "repos_url": "https://api.github.com/users/dadoonet/repos",
    "events_url": "https://api.github.com/users/dadoonet/events{/privacy}",
    "received_events_url": "https://api.github.com/users/dadoonet/received_events",
    "type": "User",
    "site_admin": false
  },
  "created_at": "2013-07-31T14:20:50Z",
  "updated_at": "2013-07-31T14:20:50Z",
  "body": "Heya,\r\n\r\nI submitted a PR here about that: https://github.com/elasticsearch/elasticsearch.github.com/pull/484"
}
]
