[
{
  "url": "https://api.github.com/repos/elastic/elasticsearch/issues/comments/99386353",
  "html_url": "https://github.com/elastic/elasticsearch/issues/10995#issuecomment-99386353",
  "issue_url": "https://api.github.com/repos/elastic/elasticsearch/issues/10995",
  "id": 99386353,
  "user": {
    "login": "jpountz",
    "id": 299848,
    "avatar_url": "https://avatars.githubusercontent.com/u/299848?v=3",
    "gravatar_id": "",
    "url": "https://api.github.com/users/jpountz",
    "html_url": "https://github.com/jpountz",
    "followers_url": "https://api.github.com/users/jpountz/followers",
    "following_url": "https://api.github.com/users/jpountz/following{/other_user}",
    "gists_url": "https://api.github.com/users/jpountz/gists{/gist_id}",
    "starred_url": "https://api.github.com/users/jpountz/starred{/owner}{/repo}",
    "subscriptions_url": "https://api.github.com/users/jpountz/subscriptions",
    "organizations_url": "https://api.github.com/users/jpountz/orgs",
    "repos_url": "https://api.github.com/users/jpountz/repos",
    "events_url": "https://api.github.com/users/jpountz/events{/privacy}",
    "received_events_url": "https://api.github.com/users/jpountz/received_events",
    "type": "User",
    "site_admin": false
  },
  "created_at": "2015-05-06T08:53:22Z",
  "updated_at": "2015-05-06T08:53:22Z",
  "body": "Oh, this is a bad bug indeed. Numeric resolution should only be applied to dates provided as numbers, not as formatted dates."
}
]
