[
{
  "url": "https://api.github.com/repos/elastic/elasticsearch/issues/comments/158971177",
  "html_url": "https://github.com/elastic/elasticsearch/issues/14372#issuecomment-158971177",
  "issue_url": "https://api.github.com/repos/elastic/elasticsearch/issues/14372",
  "id": 158971177,
  "user": {
    "login": "nik9000",
    "id": 215970,
    "avatar_url": "https://avatars.githubusercontent.com/u/215970?v=3",
    "gravatar_id": "",
    "url": "https://api.github.com/users/nik9000",
    "html_url": "https://github.com/nik9000",
    "followers_url": "https://api.github.com/users/nik9000/followers",
    "following_url": "https://api.github.com/users/nik9000/following{/other_user}",
    "gists_url": "https://api.github.com/users/nik9000/gists{/gist_id}",
    "starred_url": "https://api.github.com/users/nik9000/starred{/owner}{/repo}",
    "subscriptions_url": "https://api.github.com/users/nik9000/subscriptions",
    "organizations_url": "https://api.github.com/users/nik9000/orgs",
    "repos_url": "https://api.github.com/users/nik9000/repos",
    "events_url": "https://api.github.com/users/nik9000/events{/privacy}",
    "received_events_url": "https://api.github.com/users/nik9000/received_events",
    "type": "User",
    "site_admin": false
  },
  "created_at": "2015-11-23T15:36:29Z",
  "updated_at": "2015-11-23T15:36:29Z",
  "body": "> Instead we should just set our own: scripts should also create it, if it does not exist. It should not and cannot be configurable: it needs to be passed to the jvm initially and not set after-the-fact. Otherwise we end out with a mess (e.g. 2 temp directories to contend with).\r\n\r\nI suspect there are plenty of distros that'd be upset if we didn't let them override that to dump it where they want it. If its just something that defaults to $ESHOME/tmp but can be changed with a shell variable that'd be fine."
}
, {
  "url": "https://api.github.com/repos/elastic/elasticsearch/issues/comments/158972019",
  "html_url": "https://github.com/elastic/elasticsearch/issues/14372#issuecomment-158972019",
  "issue_url": "https://api.github.com/repos/elastic/elasticsearch/issues/14372",
  "id": 158972019,
  "user": {
    "login": "rmuir",
    "id": 504194,
    "avatar_url": "https://avatars.githubusercontent.com/u/504194?v=3",
    "gravatar_id": "",
    "url": "https://api.github.com/users/rmuir",
    "html_url": "https://github.com/rmuir",
    "followers_url": "https://api.github.com/users/rmuir/followers",
    "following_url": "https://api.github.com/users/rmuir/following{/other_user}",
    "gists_url": "https://api.github.com/users/rmuir/gists{/gist_id}",
    "starred_url": "https://api.github.com/users/rmuir/starred{/owner}{/repo}",
    "subscriptions_url": "https://api.github.com/users/rmuir/subscriptions",
    "organizations_url": "https://api.github.com/users/rmuir/orgs",
    "repos_url": "https://api.github.com/users/rmuir/repos",
    "events_url": "https://api.github.com/users/rmuir/events{/privacy}",
    "received_events_url": "https://api.github.com/users/rmuir/received_events",
    "type": "User",
    "site_admin": false
  },
  "created_at": "2015-11-23T15:39:38Z",
  "updated_at": "2015-11-23T15:39:38Z",
  "body": "Yeah: shell variable is fine. Its more that it wont really work as a e.g. typical elasticsearch.yml configuration option. \r\n\r\nWe need to pass java.io.tmpdir into the JVM up front, in JAVA_OPTS, otherwise it only works \"partially\" and we will be stuck with two temporary directories, which is bad."
}
]
