[
{
  "url": "https://api.github.com/repos/elastic/elasticsearch/issues/comments/182483",
  "html_url": "https://github.com/elastic/elasticsearch/issues/127#issuecomment-182483",
  "issue_url": "https://api.github.com/repos/elastic/elasticsearch/issues/127",
  "id": 182483,
  "user": {
    "login": "kimchy",
    "id": 41300,
    "avatar_url": "https://avatars.githubusercontent.com/u/41300?v=3",
    "gravatar_id": "",
    "url": "https://api.github.com/users/kimchy",
    "html_url": "https://github.com/kimchy",
    "followers_url": "https://api.github.com/users/kimchy/followers",
    "following_url": "https://api.github.com/users/kimchy/following{/other_user}",
    "gists_url": "https://api.github.com/users/kimchy/gists{/gist_id}",
    "starred_url": "https://api.github.com/users/kimchy/starred{/owner}{/repo}",
    "subscriptions_url": "https://api.github.com/users/kimchy/subscriptions",
    "organizations_url": "https://api.github.com/users/kimchy/orgs",
    "repos_url": "https://api.github.com/users/kimchy/repos",
    "events_url": "https://api.github.com/users/kimchy/events{/privacy}",
    "received_events_url": "https://api.github.com/users/kimchy/received_events",
    "type": "User",
    "site_admin": false
  },
  "created_at": "2010-04-09T11:24:38Z",
  "updated_at": "2010-04-09T11:24:38Z",
  "body": "Sounds like a plan!, which other nosql were you thinking about?"
}
, {
  "url": "https://api.github.com/repos/elastic/elasticsearch/issues/comments/182494",
  "html_url": "https://github.com/elastic/elasticsearch/issues/127#issuecomment-182494",
  "issue_url": "https://api.github.com/repos/elastic/elasticsearch/issues/127",
  "id": 182494,
  "user": {
    "login": "hz",
    "id": 63441,
    "avatar_url": "https://avatars.githubusercontent.com/u/63441?v=3",
    "gravatar_id": "",
    "url": "https://api.github.com/users/hz",
    "html_url": "https://github.com/hz",
    "followers_url": "https://api.github.com/users/hz/followers",
    "following_url": "https://api.github.com/users/hz/following{/other_user}",
    "gists_url": "https://api.github.com/users/hz/gists{/gist_id}",
    "starred_url": "https://api.github.com/users/hz/starred{/owner}{/repo}",
    "subscriptions_url": "https://api.github.com/users/hz/subscriptions",
    "organizations_url": "https://api.github.com/users/hz/orgs",
    "repos_url": "https://api.github.com/users/hz/repos",
    "events_url": "https://api.github.com/users/hz/events{/privacy}",
    "received_events_url": "https://api.github.com/users/hz/received_events",
    "type": "User",
    "site_admin": false
  },
  "created_at": "2010-04-09T11:44:54Z",
  "updated_at": "2010-04-09T11:44:54Z",
  "body": "Because I see there is no issue about the nosql gateway plan. So create this one.\r\nCassandra I most prefer."
}
, {
  "url": "https://api.github.com/repos/elastic/elasticsearch/issues/comments/304994",
  "html_url": "https://github.com/elastic/elasticsearch/issues/127#issuecomment-304994",
  "issue_url": "https://api.github.com/repos/elastic/elasticsearch/issues/127",
  "id": 304994,
  "user": {
    "login": "rb2k",
    "id": 9519,
    "avatar_url": "https://avatars.githubusercontent.com/u/9519?v=3",
    "gravatar_id": "",
    "url": "https://api.github.com/users/rb2k",
    "html_url": "https://github.com/rb2k",
    "followers_url": "https://api.github.com/users/rb2k/followers",
    "following_url": "https://api.github.com/users/rb2k/following{/other_user}",
    "gists_url": "https://api.github.com/users/rb2k/gists{/gist_id}",
    "starred_url": "https://api.github.com/users/rb2k/starred{/owner}{/repo}",
    "subscriptions_url": "https://api.github.com/users/rb2k/subscriptions",
    "organizations_url": "https://api.github.com/users/rb2k/orgs",
    "repos_url": "https://api.github.com/users/rb2k/repos",
    "events_url": "https://api.github.com/users/rb2k/events{/privacy}",
    "received_events_url": "https://api.github.com/users/rb2k/received_events",
    "type": "User",
    "site_admin": false
  },
  "created_at": "2010-07-08T23:23:15Z",
  "updated_at": "2010-07-08T23:23:15Z",
  "body": "riak might be worth looking into too... although they're supposedly rolling out their own lucene based search solution"
}
, {
  "url": "https://api.github.com/repos/elastic/elasticsearch/issues/comments/305030",
  "html_url": "https://github.com/elastic/elasticsearch/issues/127#issuecomment-305030",
  "issue_url": "https://api.github.com/repos/elastic/elasticsearch/issues/127",
  "id": 305030,
  "user": {
    "login": "kimchy",
    "id": 41300,
    "avatar_url": "https://avatars.githubusercontent.com/u/41300?v=3",
    "gravatar_id": "",
    "url": "https://api.github.com/users/kimchy",
    "html_url": "https://github.com/kimchy",
    "followers_url": "https://api.github.com/users/kimchy/followers",
    "following_url": "https://api.github.com/users/kimchy/following{/other_user}",
    "gists_url": "https://api.github.com/users/kimchy/gists{/gist_id}",
    "starred_url": "https://api.github.com/users/kimchy/starred{/owner}{/repo}",
    "subscriptions_url": "https://api.github.com/users/kimchy/subscriptions",
    "organizations_url": "https://api.github.com/users/kimchy/orgs",
    "repos_url": "https://api.github.com/users/kimchy/repos",
    "events_url": "https://api.github.com/users/kimchy/events{/privacy}",
    "received_events_url": "https://api.github.com/users/kimchy/received_events",
    "type": "User",
    "site_admin": false
  },
  "created_at": "2010-07-09T00:11:45Z",
  "updated_at": "2010-07-09T00:11:45Z",
  "body": "I am not sure that riak fits well to store blobs of data, which is what the gateway stores."
}
, {
  "url": "https://api.github.com/repos/elastic/elasticsearch/issues/comments/424404",
  "html_url": "https://github.com/elastic/elasticsearch/issues/127#issuecomment-424404",
  "issue_url": "https://api.github.com/repos/elastic/elasticsearch/issues/127",
  "id": 424404,
  "user": {
    "login": "benoitc",
    "id": 14498,
    "avatar_url": "https://avatars.githubusercontent.com/u/14498?v=3",
    "gravatar_id": "",
    "url": "https://api.github.com/users/benoitc",
    "html_url": "https://github.com/benoitc",
    "followers_url": "https://api.github.com/users/benoitc/followers",
    "following_url": "https://api.github.com/users/benoitc/following{/other_user}",
    "gists_url": "https://api.github.com/users/benoitc/gists{/gist_id}",
    "starred_url": "https://api.github.com/users/benoitc/starred{/owner}{/repo}",
    "subscriptions_url": "https://api.github.com/users/benoitc/subscriptions",
    "organizations_url": "https://api.github.com/users/benoitc/orgs",
    "repos_url": "https://api.github.com/users/benoitc/repos",
    "events_url": "https://api.github.com/users/benoitc/events{/privacy}",
    "received_events_url": "https://api.github.com/users/benoitc/received_events",
    "type": "User",
    "site_admin": false
  },
  "created_at": "2010-09-23T03:20:10Z",
  "updated_at": "2010-09-23T03:20:10Z",
  "body": "hfs/hadoop ?"
}
, {
  "url": "https://api.github.com/repos/elastic/elasticsearch/issues/comments/425792",
  "html_url": "https://github.com/elastic/elasticsearch/issues/127#issuecomment-425792",
  "issue_url": "https://api.github.com/repos/elastic/elasticsearch/issues/127",
  "id": 425792,
  "user": {
    "login": "kimchy",
    "id": 41300,
    "avatar_url": "https://avatars.githubusercontent.com/u/41300?v=3",
    "gravatar_id": "",
    "url": "https://api.github.com/users/kimchy",
    "html_url": "https://github.com/kimchy",
    "followers_url": "https://api.github.com/users/kimchy/followers",
    "following_url": "https://api.github.com/users/kimchy/following{/other_user}",
    "gists_url": "https://api.github.com/users/kimchy/gists{/gist_id}",
    "starred_url": "https://api.github.com/users/kimchy/starred{/owner}{/repo}",
    "subscriptions_url": "https://api.github.com/users/kimchy/subscriptions",
    "organizations_url": "https://api.github.com/users/kimchy/orgs",
    "repos_url": "https://api.github.com/users/kimchy/repos",
    "events_url": "https://api.github.com/users/kimchy/events{/privacy}",
    "received_events_url": "https://api.github.com/users/kimchy/received_events",
    "type": "User",
    "site_admin": false
  },
  "created_at": "2010-09-23T17:44:58Z",
  "updated_at": "2010-09-23T17:44:58Z",
  "body": "There is already a gateway that stores the index in HDFS. The usage of \"shared storage\" gateways will need to be revisited once 0.11 is out which supports local gateway (no need for a shared one)."
}
, {
  "url": "https://api.github.com/repos/elastic/elasticsearch/issues/comments/455920",
  "html_url": "https://github.com/elastic/elasticsearch/issues/127#issuecomment-455920",
  "issue_url": "https://api.github.com/repos/elastic/elasticsearch/issues/127",
  "id": 455920,
  "user": {
    "login": "xeraa",
    "id": 432211,
    "avatar_url": "https://avatars.githubusercontent.com/u/432211?v=3",
    "gravatar_id": "",
    "url": "https://api.github.com/users/xeraa",
    "html_url": "https://github.com/xeraa",
    "followers_url": "https://api.github.com/users/xeraa/followers",
    "following_url": "https://api.github.com/users/xeraa/following{/other_user}",
    "gists_url": "https://api.github.com/users/xeraa/gists{/gist_id}",
    "starred_url": "https://api.github.com/users/xeraa/starred{/owner}{/repo}",
    "subscriptions_url": "https://api.github.com/users/xeraa/subscriptions",
    "organizations_url": "https://api.github.com/users/xeraa/orgs",
    "repos_url": "https://api.github.com/users/xeraa/repos",
    "events_url": "https://api.github.com/users/xeraa/events{/privacy}",
    "received_events_url": "https://api.github.com/users/xeraa/received_events",
    "type": "User",
    "site_admin": false
  },
  "created_at": "2010-10-08T10:20:02Z",
  "updated_at": "2010-10-08T10:20:02Z",
  "body": "Any news on a possible Cassandra integration?\r\nThere's Lucandra but ES looks sexier :)"
}
, {
  "url": "https://api.github.com/repos/elastic/elasticsearch/issues/comments/455954",
  "html_url": "https://github.com/elastic/elasticsearch/issues/127#issuecomment-455954",
  "issue_url": "https://api.github.com/repos/elastic/elasticsearch/issues/127",
  "id": 455954,
  "user": {
    "login": "kimchy",
    "id": 41300,
    "avatar_url": "https://avatars.githubusercontent.com/u/41300?v=3",
    "gravatar_id": "",
    "url": "https://api.github.com/users/kimchy",
    "html_url": "https://github.com/kimchy",
    "followers_url": "https://api.github.com/users/kimchy/followers",
    "following_url": "https://api.github.com/users/kimchy/following{/other_user}",
    "gists_url": "https://api.github.com/users/kimchy/gists{/gist_id}",
    "starred_url": "https://api.github.com/users/kimchy/starred{/owner}{/repo}",
    "subscriptions_url": "https://api.github.com/users/kimchy/subscriptions",
    "organizations_url": "https://api.github.com/users/kimchy/orgs",
    "repos_url": "https://api.github.com/users/kimchy/repos",
    "events_url": "https://api.github.com/users/kimchy/events{/privacy}",
    "received_events_url": "https://api.github.com/users/kimchy/received_events",
    "type": "User",
    "site_admin": false
  },
  "created_at": "2010-10-08T10:48:06Z",
  "updated_at": "2010-10-08T10:48:06Z",
  "body": "What type of integration are you after? The gateway aspect with cassandra is just an option, which you won't need when using local gateway (for example). Its a different feature than storing the terms in cassandra as Lucandara does."
}
, {
  "url": "https://api.github.com/repos/elastic/elasticsearch/issues/comments/456109",
  "html_url": "https://github.com/elastic/elasticsearch/issues/127#issuecomment-456109",
  "issue_url": "https://api.github.com/repos/elastic/elasticsearch/issues/127",
  "id": 456109,
  "user": {
    "login": "xeraa",
    "id": 432211,
    "avatar_url": "https://avatars.githubusercontent.com/u/432211?v=3",
    "gravatar_id": "",
    "url": "https://api.github.com/users/xeraa",
    "html_url": "https://github.com/xeraa",
    "followers_url": "https://api.github.com/users/xeraa/followers",
    "following_url": "https://api.github.com/users/xeraa/following{/other_user}",
    "gists_url": "https://api.github.com/users/xeraa/gists{/gist_id}",
    "starred_url": "https://api.github.com/users/xeraa/starred{/owner}{/repo}",
    "subscriptions_url": "https://api.github.com/users/xeraa/subscriptions",
    "organizations_url": "https://api.github.com/users/xeraa/orgs",
    "repos_url": "https://api.github.com/users/xeraa/repos",
    "events_url": "https://api.github.com/users/xeraa/events{/privacy}",
    "received_events_url": "https://api.github.com/users/xeraa/received_events",
    "type": "User",
    "site_admin": false
  },
  "created_at": "2010-10-08T12:54:28Z",
  "updated_at": "2010-10-08T12:54:28Z",
  "body": "Thanks for the quick reply.\r\nAfter taking another look at how ES uses gateways, I realized that I don't need them for my scenario. Sorry for the confusion."
}
, {
  "url": "https://api.github.com/repos/elastic/elasticsearch/issues/comments/604721",
  "html_url": "https://github.com/elastic/elasticsearch/issues/127#issuecomment-604721",
  "issue_url": "https://api.github.com/repos/elastic/elasticsearch/issues/127",
  "id": 604721,
  "user": {
    "login": "hz",
    "id": 63441,
    "avatar_url": "https://avatars.githubusercontent.com/u/63441?v=3",
    "gravatar_id": "",
    "url": "https://api.github.com/users/hz",
    "html_url": "https://github.com/hz",
    "followers_url": "https://api.github.com/users/hz/followers",
    "following_url": "https://api.github.com/users/hz/following{/other_user}",
    "gists_url": "https://api.github.com/users/hz/gists{/gist_id}",
    "starred_url": "https://api.github.com/users/hz/starred{/owner}{/repo}",
    "subscriptions_url": "https://api.github.com/users/hz/subscriptions",
    "organizations_url": "https://api.github.com/users/hz/orgs",
    "repos_url": "https://api.github.com/users/hz/repos",
    "events_url": "https://api.github.com/users/hz/events{/privacy}",
    "received_events_url": "https://api.github.com/users/hz/received_events",
    "type": "User",
    "site_admin": false
  },
  "created_at": "2010-12-11T13:23:47Z",
  "updated_at": "2010-12-11T13:23:47Z",
  "body": "Yeah. No need to implement Cassandra gateway. Close it."
}
]
