[
{
  "url": "https://api.github.com/repos/elastic/elasticsearch/issues/comments/165706386",
  "html_url": "https://github.com/elastic/elasticsearch/pull/15462#issuecomment-165706386",
  "issue_url": "https://api.github.com/repos/elastic/elasticsearch/issues/15462",
  "id": 165706386,
  "user": {
    "login": "rjernst",
    "id": 289412,
    "avatar_url": "https://avatars.githubusercontent.com/u/289412?v=3",
    "gravatar_id": "",
    "url": "https://api.github.com/users/rjernst",
    "html_url": "https://github.com/rjernst",
    "followers_url": "https://api.github.com/users/rjernst/followers",
    "following_url": "https://api.github.com/users/rjernst/following{/other_user}",
    "gists_url": "https://api.github.com/users/rjernst/gists{/gist_id}",
    "starred_url": "https://api.github.com/users/rjernst/starred{/owner}{/repo}",
    "subscriptions_url": "https://api.github.com/users/rjernst/subscriptions",
    "organizations_url": "https://api.github.com/users/rjernst/orgs",
    "repos_url": "https://api.github.com/users/rjernst/repos",
    "events_url": "https://api.github.com/users/rjernst/events{/privacy}",
    "received_events_url": "https://api.github.com/users/rjernst/received_events",
    "type": "User",
    "site_admin": false
  },
  "created_at": "2015-12-18T07:54:10Z",
  "updated_at": "2015-12-18T07:54:10Z",
  "body": "@martinstuga Thanks for the PR! I like the idea here, but I have a couple concerns:\r\n* I don't like that this is only set to work for GET requests. What is the problem with making it work for all request methods?\r\n* I'm not happy with it being inside netty code...\r\n* There are other methods that this does not address: `hasParam(String key)` and `params()`. The first is questionable as to whether it should be considered \"consuming\" a param by checking if it exists, but searching the codebase shows we do use it like this, for example with `pretty`. The latter method looks like it would not be possible to use, but I also question whether we need that method altogether...some of the usages are odd (we are *setting* params?)"
}
, {
  "url": "https://api.github.com/repos/elastic/elasticsearch/issues/comments/165731242",
  "html_url": "https://github.com/elastic/elasticsearch/pull/15462#issuecomment-165731242",
  "issue_url": "https://api.github.com/repos/elastic/elasticsearch/issues/15462",
  "id": 165731242,
  "user": {
    "login": "martinstuga",
    "id": 7649707,
    "avatar_url": "https://avatars.githubusercontent.com/u/7649707?v=3",
    "gravatar_id": "",
    "url": "https://api.github.com/users/martinstuga",
    "html_url": "https://github.com/martinstuga",
    "followers_url": "https://api.github.com/users/martinstuga/followers",
    "following_url": "https://api.github.com/users/martinstuga/following{/other_user}",
    "gists_url": "https://api.github.com/users/martinstuga/gists{/gist_id}",
    "starred_url": "https://api.github.com/users/martinstuga/starred{/owner}{/repo}",
    "subscriptions_url": "https://api.github.com/users/martinstuga/subscriptions",
    "organizations_url": "https://api.github.com/users/martinstuga/orgs",
    "repos_url": "https://api.github.com/users/martinstuga/repos",
    "events_url": "https://api.github.com/users/martinstuga/events{/privacy}",
    "received_events_url": "https://api.github.com/users/martinstuga/received_events",
    "type": "User",
    "site_admin": false
  },
  "created_at": "2015-12-18T09:43:56Z",
  "updated_at": "2015-12-19T02:16:50Z",
  "body": "@rjernst Thanks for your feedback.\r\n\r\n* This approach only works with GET requests because it only throws the Exception after the method is invoked on the node. So, for write operations we would need to rollback the write, so for the write operations I'm going to implement it in all single methods (before invoke the node).\r\n* We can move the `consumedParams` field and some methods to the `HttpRequest` class, but I'll still need some code inside `NettyHttpRequest`.\r\n* We can add `hasParams(String key)` as consumer method. About `params()`, I've searched the code, and it's used to set params, but not the get params (that's what we want), so in that case, we could do some easy factoring to hide this method.\r\n\r\nMy ideia was to go ahead with write operations (doing this check in every single method), but if you don't feel comfortable with this approach, I can implement that check also in the GET requests.\r\n\r\n"
}
, {
  "url": "https://api.github.com/repos/elastic/elasticsearch/issues/comments/176224721",
  "html_url": "https://github.com/elastic/elasticsearch/pull/15462#issuecomment-176224721",
  "issue_url": "https://api.github.com/repos/elastic/elasticsearch/issues/15462",
  "id": 176224721,
  "user": {
    "login": "martinstuga",
    "id": 7649707,
    "avatar_url": "https://avatars.githubusercontent.com/u/7649707?v=3",
    "gravatar_id": "",
    "url": "https://api.github.com/users/martinstuga",
    "html_url": "https://github.com/martinstuga",
    "followers_url": "https://api.github.com/users/martinstuga/followers",
    "following_url": "https://api.github.com/users/martinstuga/following{/other_user}",
    "gists_url": "https://api.github.com/users/martinstuga/gists{/gist_id}",
    "starred_url": "https://api.github.com/users/martinstuga/starred{/owner}{/repo}",
    "subscriptions_url": "https://api.github.com/users/martinstuga/subscriptions",
    "organizations_url": "https://api.github.com/users/martinstuga/orgs",
    "repos_url": "https://api.github.com/users/martinstuga/repos",
    "events_url": "https://api.github.com/users/martinstuga/events{/privacy}",
    "received_events_url": "https://api.github.com/users/martinstuga/received_events",
    "type": "User",
    "site_admin": false
  },
  "created_at": "2016-01-28T14:57:23Z",
  "updated_at": "2016-01-28T14:57:23Z",
  "body": "#14719 url params parsing should not be lenient\r\n\r\nI've added the parameter check to some methods in the commit a04d3d9. Please, validate if it's OK.\r\n\r\nThanks."
}
]
