[
{
  "url": "https://api.github.com/repos/elastic/elasticsearch/issues/comments/305078",
  "html_url": "https://github.com/elastic/elasticsearch/issues/248#issuecomment-305078",
  "issue_url": "https://api.github.com/repos/elastic/elasticsearch/issues/248",
  "id": 305078,
  "user": {
    "login": "kimchy",
    "id": 41300,
    "avatar_url": "https://avatars.githubusercontent.com/u/41300?v=3",
    "gravatar_id": "",
    "url": "https://api.github.com/users/kimchy",
    "html_url": "https://github.com/kimchy",
    "followers_url": "https://api.github.com/users/kimchy/followers",
    "following_url": "https://api.github.com/users/kimchy/following{/other_user}",
    "gists_url": "https://api.github.com/users/kimchy/gists{/gist_id}",
    "starred_url": "https://api.github.com/users/kimchy/starred{/owner}{/repo}",
    "subscriptions_url": "https://api.github.com/users/kimchy/subscriptions",
    "organizations_url": "https://api.github.com/users/kimchy/orgs",
    "repos_url": "https://api.github.com/users/kimchy/repos",
    "events_url": "https://api.github.com/users/kimchy/events{/privacy}",
    "received_events_url": "https://api.github.com/users/kimchy/received_events",
    "type": "User",
    "site_admin": false
  },
  "created_at": "2010-07-09T01:22:09Z",
  "updated_at": "2010-07-09T01:22:09Z",
  "body": "Zen Discovery: Control which nodes are allowed to become masters, closed by b657ffc5e77b416139396cc02d1b0c11656b451f."
}
]
