[
{
  "url": "https://api.github.com/repos/elastic/elasticsearch/issues/comments/37455204",
  "html_url": "https://github.com/elastic/elasticsearch/pull/5372#issuecomment-37455204",
  "issue_url": "https://api.github.com/repos/elastic/elasticsearch/issues/5372",
  "id": 37455204,
  "user": {
    "login": "s1monw",
    "id": 973334,
    "avatar_url": "https://avatars.githubusercontent.com/u/973334?v=3",
    "gravatar_id": "",
    "url": "https://api.github.com/users/s1monw",
    "html_url": "https://github.com/s1monw",
    "followers_url": "https://api.github.com/users/s1monw/followers",
    "following_url": "https://api.github.com/users/s1monw/following{/other_user}",
    "gists_url": "https://api.github.com/users/s1monw/gists{/gist_id}",
    "starred_url": "https://api.github.com/users/s1monw/starred{/owner}{/repo}",
    "subscriptions_url": "https://api.github.com/users/s1monw/subscriptions",
    "organizations_url": "https://api.github.com/users/s1monw/orgs",
    "repos_url": "https://api.github.com/users/s1monw/repos",
    "events_url": "https://api.github.com/users/s1monw/events{/privacy}",
    "received_events_url": "https://api.github.com/users/s1monw/received_events",
    "type": "User",
    "site_admin": false
  },
  "created_at": "2014-03-12T19:47:39Z",
  "updated_at": "2014-03-12T19:47:39Z",
  "body": "this one LGTM - sad that it's so CPU intensive"
}
]
