[
{
  "url": "https://api.github.com/repos/elastic/elasticsearch/issues/comments/51629247",
  "html_url": "https://github.com/elastic/elasticsearch/issues/7208#issuecomment-51629247",
  "issue_url": "https://api.github.com/repos/elastic/elasticsearch/issues/7208",
  "id": 51629247,
  "user": {
    "login": "clintongormley",
    "id": 56599,
    "avatar_url": "https://avatars.githubusercontent.com/u/56599?v=3",
    "gravatar_id": "",
    "url": "https://api.github.com/users/clintongormley",
    "html_url": "https://github.com/clintongormley",
    "followers_url": "https://api.github.com/users/clintongormley/followers",
    "following_url": "https://api.github.com/users/clintongormley/following{/other_user}",
    "gists_url": "https://api.github.com/users/clintongormley/gists{/gist_id}",
    "starred_url": "https://api.github.com/users/clintongormley/starred{/owner}{/repo}",
    "subscriptions_url": "https://api.github.com/users/clintongormley/subscriptions",
    "organizations_url": "https://api.github.com/users/clintongormley/orgs",
    "repos_url": "https://api.github.com/users/clintongormley/repos",
    "events_url": "https://api.github.com/users/clintongormley/events{/privacy}",
    "received_events_url": "https://api.github.com/users/clintongormley/received_events",
    "type": "User",
    "site_admin": false
  },
  "created_at": "2014-08-08T16:59:18Z",
  "updated_at": "2014-08-08T16:59:18Z",
  "body": "Hi @rjagirdar \r\n\r\nThis issues list is for bug reports and feature requests. Please use the forum for questions like this.  Also, as curl, your query works fine for me.  You say you're having a problem with the Java API, but you don't show us what you're doing in Java.  I suggest you include the Java code and the curl example when you email the forum"
}
, {
  "url": "https://api.github.com/repos/elastic/elasticsearch/issues/comments/51630139",
  "html_url": "https://github.com/elastic/elasticsearch/issues/7208#issuecomment-51630139",
  "issue_url": "https://api.github.com/repos/elastic/elasticsearch/issues/7208",
  "id": 51630139,
  "user": {
    "login": "rjagirdar",
    "id": 3288108,
    "avatar_url": "https://avatars.githubusercontent.com/u/3288108?v=3",
    "gravatar_id": "",
    "url": "https://api.github.com/users/rjagirdar",
    "html_url": "https://github.com/rjagirdar",
    "followers_url": "https://api.github.com/users/rjagirdar/followers",
    "following_url": "https://api.github.com/users/rjagirdar/following{/other_user}",
    "gists_url": "https://api.github.com/users/rjagirdar/gists{/gist_id}",
    "starred_url": "https://api.github.com/users/rjagirdar/starred{/owner}{/repo}",
    "subscriptions_url": "https://api.github.com/users/rjagirdar/subscriptions",
    "organizations_url": "https://api.github.com/users/rjagirdar/orgs",
    "repos_url": "https://api.github.com/users/rjagirdar/repos",
    "events_url": "https://api.github.com/users/rjagirdar/events{/privacy}",
    "received_events_url": "https://api.github.com/users/rjagirdar/received_events",
    "type": "User",
    "site_admin": false
  },
  "created_at": "2014-08-08T17:07:12Z",
  "updated_at": "2014-08-08T17:07:12Z",
  "body": "Sorry for posting this here. Here is my java code, which is throwing up the issue. Please help me out.\r\n\r\npublic static ArrayList<String> getShowIds(){\r\n\t\tArrayList<String> showIds = new ArrayList<String>();\r\n\t\tshowIds.add(\"85ef1da5-db78-3fd2-86a4-8c9ff3f053d0\");\r\n\t\tshowIds.add(\"e275549d-143e-37e8-8689-44a805b957da\");\r\n\t\treturn showIds;\r\n\t}\r\n\t\r\n\tpublic static void functionScoreQueryAudio(InstanceType type){\r\n\t\tTransportClient client = null;\r\n\t\tint show_base=40; int show_step=5;\r\n\t\ttry{\r\n\t\t\tif(type==InstanceType.EC2)\r\n\t\t\t\t client = getClient(InstanceType.EC2);\r\n\t\t\t else\r\n\t\t\t\t client = getClient(InstanceType.LOCAL);\r\n\t\t\tSystem.out.println(\"Client Created\");\r\n\t\t\t\r\n\t\t\tBoolFilterBuilder boolFilterBuilder = FilterBuilders.boolFilter();\r\n\t\t\tFunctionScoreQueryBuilder queryBuilder = QueryBuilders.functionScoreQuery(boolFilterBuilder);\r\n\t\t\tint i=0;\r\n\t\t\tfor(String str : getShowIds()){\r\n\t\t\t\tboolFilterBuilder.should(FilterBuilders.termFilter(\"showId\", str));\r\n\t\t\t\tqueryBuilder.add(FilterBuilders.termFilter(\"showId\", str),ScoreFunctionBuilders.factorFunction(show_base-(i*show_step)));\r\n\t\t\t\ti++;\r\n\t\t\t}\r\n\t\t\t\r\n\t\t\tSearchResponse response = client.prepareSearch(\"audio\").\r\n\t\t\t\t\tsetQuery(queryBuilder).setFrom(0).setSize(200).execute().actionGet(TimeValue.timeValueSeconds(50));\r\n\t\t\t\r\n\t\t\tif(response.getHits().totalHits()>0){\r\n\t\t\t\t\r\n\t\t\t\tfor(SearchHit hit : response.getHits()){\r\n\t\t\t\t\tSystem.out.println(hit.getScore());\r\n\t\t\t\t\tSystem.out.println(hit.getSourceAsString());\r\n\t\t\t\t\tSystem.out.println(\"===========================================================================================================================\");\r\n\t\t\t\t}\r\n\t\t\t\tSystem.out.println(response.getHits().totalHits()+\" \"+response.getTookInMillis());\r\n\t\t\t}\r\n\t\t\telse\r\n\t\t\t\tSystem.out.println(\"No Records Found\");\r\n\t\t\t\r\n\t\t\t\r\n\t\t\t\r\n\t\t}\r\n\t\tcatch(Exception ex){\r\n\t\t\tSystem.out.println(ex.getMessage());\r\n\t\t}\r\n\t}"
}
, {
  "url": "https://api.github.com/repos/elastic/elasticsearch/issues/comments/51632056",
  "html_url": "https://github.com/elastic/elasticsearch/issues/7208#issuecomment-51632056",
  "issue_url": "https://api.github.com/repos/elastic/elasticsearch/issues/7208",
  "id": 51632056,
  "user": {
    "login": "clintongormley",
    "id": 56599,
    "avatar_url": "https://avatars.githubusercontent.com/u/56599?v=3",
    "gravatar_id": "",
    "url": "https://api.github.com/users/clintongormley",
    "html_url": "https://github.com/clintongormley",
    "followers_url": "https://api.github.com/users/clintongormley/followers",
    "following_url": "https://api.github.com/users/clintongormley/following{/other_user}",
    "gists_url": "https://api.github.com/users/clintongormley/gists{/gist_id}",
    "starred_url": "https://api.github.com/users/clintongormley/starred{/owner}{/repo}",
    "subscriptions_url": "https://api.github.com/users/clintongormley/subscriptions",
    "organizations_url": "https://api.github.com/users/clintongormley/orgs",
    "repos_url": "https://api.github.com/users/clintongormley/repos",
    "events_url": "https://api.github.com/users/clintongormley/events{/privacy}",
    "received_events_url": "https://api.github.com/users/clintongormley/received_events",
    "type": "User",
    "site_admin": false
  },
  "created_at": "2014-08-08T17:23:18Z",
  "updated_at": "2014-08-08T17:23:18Z",
  "body": "Like I said, please use the forums for this."
}
]
