[
{
  "url": "https://api.github.com/repos/elastic/elasticsearch/issues/comments/120886414",
  "html_url": "https://github.com/elastic/elasticsearch/pull/12203#issuecomment-120886414",
  "issue_url": "https://api.github.com/repos/elastic/elasticsearch/issues/12203",
  "id": 120886414,
  "user": {
    "login": "s1monw",
    "id": 973334,
    "avatar_url": "https://avatars.githubusercontent.com/u/973334?v=3",
    "gravatar_id": "",
    "url": "https://api.github.com/users/s1monw",
    "html_url": "https://github.com/s1monw",
    "followers_url": "https://api.github.com/users/s1monw/followers",
    "following_url": "https://api.github.com/users/s1monw/following{/other_user}",
    "gists_url": "https://api.github.com/users/s1monw/gists{/gist_id}",
    "starred_url": "https://api.github.com/users/s1monw/starred{/owner}{/repo}",
    "subscriptions_url": "https://api.github.com/users/s1monw/subscriptions",
    "organizations_url": "https://api.github.com/users/s1monw/orgs",
    "repos_url": "https://api.github.com/users/s1monw/repos",
    "events_url": "https://api.github.com/users/s1monw/events{/privacy}",
    "received_events_url": "https://api.github.com/users/s1monw/received_events",
    "type": "User",
    "site_admin": false
  },
  "created_at": "2015-07-13T10:29:01Z",
  "updated_at": "2015-07-13T10:29:01Z",
  "body": "@dakrone can you take a look at this?"
}
, {
  "url": "https://api.github.com/repos/elastic/elasticsearch/issues/comments/120970228",
  "html_url": "https://github.com/elastic/elasticsearch/pull/12203#issuecomment-120970228",
  "issue_url": "https://api.github.com/repos/elastic/elasticsearch/issues/12203",
  "id": 120970228,
  "user": {
    "login": "dakrone",
    "id": 19060,
    "avatar_url": "https://avatars.githubusercontent.com/u/19060?v=3",
    "gravatar_id": "",
    "url": "https://api.github.com/users/dakrone",
    "html_url": "https://github.com/dakrone",
    "followers_url": "https://api.github.com/users/dakrone/followers",
    "following_url": "https://api.github.com/users/dakrone/following{/other_user}",
    "gists_url": "https://api.github.com/users/dakrone/gists{/gist_id}",
    "starred_url": "https://api.github.com/users/dakrone/starred{/owner}{/repo}",
    "subscriptions_url": "https://api.github.com/users/dakrone/subscriptions",
    "organizations_url": "https://api.github.com/users/dakrone/orgs",
    "repos_url": "https://api.github.com/users/dakrone/repos",
    "events_url": "https://api.github.com/users/dakrone/events{/privacy}",
    "received_events_url": "https://api.github.com/users/dakrone/received_events",
    "type": "User",
    "site_admin": false
  },
  "created_at": "2015-07-13T15:34:08Z",
  "updated_at": "2015-07-13T15:34:08Z",
  "body": "LGTM"
}
]
