[
{
  "url": "https://api.github.com/repos/elastic/elasticsearch/issues/comments/54590490",
  "html_url": "https://github.com/elastic/elasticsearch/pull/7583#issuecomment-54590490",
  "issue_url": "https://api.github.com/repos/elastic/elasticsearch/issues/7583",
  "id": 54590490,
  "user": {
    "login": "rjernst",
    "id": 289412,
    "avatar_url": "https://avatars.githubusercontent.com/u/289412?v=3",
    "gravatar_id": "",
    "url": "https://api.github.com/users/rjernst",
    "html_url": "https://github.com/rjernst",
    "followers_url": "https://api.github.com/users/rjernst/followers",
    "following_url": "https://api.github.com/users/rjernst/following{/other_user}",
    "gists_url": "https://api.github.com/users/rjernst/gists{/gist_id}",
    "starred_url": "https://api.github.com/users/rjernst/starred{/owner}{/repo}",
    "subscriptions_url": "https://api.github.com/users/rjernst/subscriptions",
    "organizations_url": "https://api.github.com/users/rjernst/orgs",
    "repos_url": "https://api.github.com/users/rjernst/repos",
    "events_url": "https://api.github.com/users/rjernst/events{/privacy}",
    "received_events_url": "https://api.github.com/users/rjernst/received_events",
    "type": "User",
    "site_admin": false
  },
  "created_at": "2014-09-05T06:42:29Z",
  "updated_at": "2014-09-05T06:42:29Z",
  "body": "LGTM."
}
, {
  "url": "https://api.github.com/repos/elastic/elasticsearch/issues/comments/54676372",
  "html_url": "https://github.com/elastic/elasticsearch/pull/7583#issuecomment-54676372",
  "issue_url": "https://api.github.com/repos/elastic/elasticsearch/issues/7583",
  "id": 54676372,
  "user": {
    "login": "s1monw",
    "id": 973334,
    "avatar_url": "https://avatars.githubusercontent.com/u/973334?v=3",
    "gravatar_id": "",
    "url": "https://api.github.com/users/s1monw",
    "html_url": "https://github.com/s1monw",
    "followers_url": "https://api.github.com/users/s1monw/followers",
    "following_url": "https://api.github.com/users/s1monw/following{/other_user}",
    "gists_url": "https://api.github.com/users/s1monw/gists{/gist_id}",
    "starred_url": "https://api.github.com/users/s1monw/starred{/owner}{/repo}",
    "subscriptions_url": "https://api.github.com/users/s1monw/subscriptions",
    "organizations_url": "https://api.github.com/users/s1monw/orgs",
    "repos_url": "https://api.github.com/users/s1monw/repos",
    "events_url": "https://api.github.com/users/s1monw/events{/privacy}",
    "received_events_url": "https://api.github.com/users/s1monw/received_events",
    "type": "User",
    "site_admin": false
  },
  "created_at": "2014-09-05T20:21:26Z",
  "updated_at": "2014-09-05T20:21:26Z",
  "body": "LGTM too :) good one"
}
, {
  "url": "https://api.github.com/repos/elastic/elasticsearch/issues/comments/54739916",
  "html_url": "https://github.com/elastic/elasticsearch/pull/7583#issuecomment-54739916",
  "issue_url": "https://api.github.com/repos/elastic/elasticsearch/issues/7583",
  "id": 54739916,
  "user": {
    "login": "clintongormley",
    "id": 56599,
    "avatar_url": "https://avatars.githubusercontent.com/u/56599?v=3",
    "gravatar_id": "",
    "url": "https://api.github.com/users/clintongormley",
    "html_url": "https://github.com/clintongormley",
    "followers_url": "https://api.github.com/users/clintongormley/followers",
    "following_url": "https://api.github.com/users/clintongormley/following{/other_user}",
    "gists_url": "https://api.github.com/users/clintongormley/gists{/gist_id}",
    "starred_url": "https://api.github.com/users/clintongormley/starred{/owner}{/repo}",
    "subscriptions_url": "https://api.github.com/users/clintongormley/subscriptions",
    "organizations_url": "https://api.github.com/users/clintongormley/orgs",
    "repos_url": "https://api.github.com/users/clintongormley/repos",
    "events_url": "https://api.github.com/users/clintongormley/events{/privacy}",
    "received_events_url": "https://api.github.com/users/clintongormley/received_events",
    "type": "User",
    "site_admin": false
  },
  "created_at": "2014-09-07T07:42:24Z",
  "updated_at": "2014-09-07T07:42:24Z",
  "body": "This change concerns me a bit, based on the numbers in https://github.com/elasticsearch/elasticsearch/pull/7577#issuecomment-54551472\r\n\r\nA lot of the time, we use term filters on dense values like:\r\n\r\n*  `_type: \"event\"`\r\n*  `status: \"active\"`\r\n*  `gender: \"male\"`\r\n*  `user: \"customer_1\"` (think filtered aliases)\r\n\r\nThese common use cases are all dense and often combined in the same filter. According to the benchmarks, each of them would be 50% slower than they are today.\r\n\r\nThe other concern I have is that caching term filters allows us to completely skip segments that don't contain that term.  Without that caching, we're going to have to do a term lookup on potentially thousands of segments which we would previously have skipped. What impact does that have on performance?\r\n\r\nThe numbers shown in https://github.com/elasticsearch/elasticsearch/pull/7577#issuecomment-54551472 for Leapfrog look promising, but the bool filter won't do that today so users will experience a drop in performance out of the box.\r\n\r\nThis change (and #7577) seem like they could be very useful in the longer term, but they require more (as yet unwritten) supporting changes to provide a net out-of-the-box benefit.  I'd vote for not putting them into 1.4 but delaying them until we can implement a more complete solution.\r\n\r\n(Apologies if I have misunderstood the impact of these changes)\r\n\r\n\r\n"
}
, {
  "url": "https://api.github.com/repos/elastic/elasticsearch/issues/comments/57609185",
  "html_url": "https://github.com/elastic/elasticsearch/pull/7583#issuecomment-57609185",
  "issue_url": "https://api.github.com/repos/elastic/elasticsearch/issues/7583",
  "id": 57609185,
  "user": {
    "login": "jpountz",
    "id": 299848,
    "avatar_url": "https://avatars.githubusercontent.com/u/299848?v=3",
    "gravatar_id": "",
    "url": "https://api.github.com/users/jpountz",
    "html_url": "https://github.com/jpountz",
    "followers_url": "https://api.github.com/users/jpountz/followers",
    "following_url": "https://api.github.com/users/jpountz/following{/other_user}",
    "gists_url": "https://api.github.com/users/jpountz/gists{/gist_id}",
    "starred_url": "https://api.github.com/users/jpountz/starred{/owner}{/repo}",
    "subscriptions_url": "https://api.github.com/users/jpountz/subscriptions",
    "organizations_url": "https://api.github.com/users/jpountz/orgs",
    "repos_url": "https://api.github.com/users/jpountz/repos",
    "events_url": "https://api.github.com/users/jpountz/events{/privacy}",
    "received_events_url": "https://api.github.com/users/jpountz/received_events",
    "type": "User",
    "site_admin": false
  },
  "created_at": "2014-10-02T10:18:29Z",
  "updated_at": "2014-10-02T10:18:29Z",
  "body": "@clintongormley Your analysis is correct but I think it underestimates the cost of caching:\r\n 1. unnecessary garbage\r\n 2. the iterator needs to be fully consumed\r\n\r\n1. is due to the fact that we need to load things into memory and put it in a cache. The fact that it goes to a cache makes it very likely to end up in the old generation. For that reason, I think we should generally not cache filters maybe unless we already have something that is cacheable (eg. terms filter) or we know the filter is going to be reused.\r\n\r\n2. is bound to the fact that our postings lists have good skip lists. Imagine a user who would use term filters that are never reused. If they are cached, elasticsearch would need to iterate over all documents that match the filter and put them into a bit set, and then use that bit set to intersect the query. On the contrary if the filter is not cached, the postings list would be directly intersected with the query and thanks to the leap-frog approach, very few documents could be consumed from the postings list (it would just jump efficiently over non-matching docs using the skip list). This makes non-cached filters potentially much faster when there is not enough reuse.\r\n\r\nI agree that #7577 needs more work in order to be better in all cases and not only the sparse case, but I think this change is good? Maybe something that needs to be improved is the default value of the `cache` parameter. For example, I believe it would not be too hard to have caching disabled by default in general unless it applies to the `_type` field or if we are in the context of an alias filter (the latter would probably also apply to other filters that we don't cache today by default?)."
}
, {
  "url": "https://api.github.com/repos/elastic/elasticsearch/issues/comments/57612316",
  "html_url": "https://github.com/elastic/elasticsearch/pull/7583#issuecomment-57612316",
  "issue_url": "https://api.github.com/repos/elastic/elasticsearch/issues/7583",
  "id": 57612316,
  "user": {
    "login": "dakrone",
    "id": 19060,
    "avatar_url": "https://avatars.githubusercontent.com/u/19060?v=3",
    "gravatar_id": "",
    "url": "https://api.github.com/users/dakrone",
    "html_url": "https://github.com/dakrone",
    "followers_url": "https://api.github.com/users/dakrone/followers",
    "following_url": "https://api.github.com/users/dakrone/following{/other_user}",
    "gists_url": "https://api.github.com/users/dakrone/gists{/gist_id}",
    "starred_url": "https://api.github.com/users/dakrone/starred{/owner}{/repo}",
    "subscriptions_url": "https://api.github.com/users/dakrone/subscriptions",
    "organizations_url": "https://api.github.com/users/dakrone/orgs",
    "repos_url": "https://api.github.com/users/dakrone/repos",
    "events_url": "https://api.github.com/users/dakrone/events{/privacy}",
    "received_events_url": "https://api.github.com/users/dakrone/received_events",
    "type": "User",
    "site_admin": false
  },
  "created_at": "2014-10-02T10:58:41Z",
  "updated_at": "2014-10-02T10:58:41Z",
  "body": "I think it might also be useful to cache term filters used in aliases, since creating an alias with a term filter has a high chance of being re-used (for future work, just an idea)."
}
, {
  "url": "https://api.github.com/repos/elastic/elasticsearch/issues/comments/62703617",
  "html_url": "https://github.com/elastic/elasticsearch/pull/7583#issuecomment-62703617",
  "issue_url": "https://api.github.com/repos/elastic/elasticsearch/issues/7583",
  "id": 62703617,
  "user": {
    "login": "jpountz",
    "id": 299848,
    "avatar_url": "https://avatars.githubusercontent.com/u/299848?v=3",
    "gravatar_id": "",
    "url": "https://api.github.com/users/jpountz",
    "html_url": "https://github.com/jpountz",
    "followers_url": "https://api.github.com/users/jpountz/followers",
    "following_url": "https://api.github.com/users/jpountz/following{/other_user}",
    "gists_url": "https://api.github.com/users/jpountz/gists{/gist_id}",
    "starred_url": "https://api.github.com/users/jpountz/starred{/owner}{/repo}",
    "subscriptions_url": "https://api.github.com/users/jpountz/subscriptions",
    "organizations_url": "https://api.github.com/users/jpountz/orgs",
    "repos_url": "https://api.github.com/users/jpountz/repos",
    "events_url": "https://api.github.com/users/jpountz/events{/privacy}",
    "received_events_url": "https://api.github.com/users/jpountz/received_events",
    "type": "User",
    "site_admin": false
  },
  "created_at": "2014-11-12T11:15:44Z",
  "updated_at": "2014-11-12T11:15:44Z",
  "body": "We just had a discussion about this issue and could not reach to an agreement about what the best default `_cache` value is for `term` filters.\r\n\r\nA better solution could be to make the decision based on usage as outlined in #8449."
}
, {
  "url": "https://api.github.com/repos/elastic/elasticsearch/issues/comments/69149760",
  "html_url": "https://github.com/elastic/elasticsearch/pull/7583#issuecomment-69149760",
  "issue_url": "https://api.github.com/repos/elastic/elasticsearch/issues/7583",
  "id": 69149760,
  "user": {
    "login": "bobrik",
    "id": 89186,
    "avatar_url": "https://avatars.githubusercontent.com/u/89186?v=3",
    "gravatar_id": "",
    "url": "https://api.github.com/users/bobrik",
    "html_url": "https://github.com/bobrik",
    "followers_url": "https://api.github.com/users/bobrik/followers",
    "following_url": "https://api.github.com/users/bobrik/following{/other_user}",
    "gists_url": "https://api.github.com/users/bobrik/gists{/gist_id}",
    "starred_url": "https://api.github.com/users/bobrik/starred{/owner}{/repo}",
    "subscriptions_url": "https://api.github.com/users/bobrik/subscriptions",
    "organizations_url": "https://api.github.com/users/bobrik/orgs",
    "repos_url": "https://api.github.com/users/bobrik/repos",
    "events_url": "https://api.github.com/users/bobrik/events{/privacy}",
    "received_events_url": "https://api.github.com/users/bobrik/received_events",
    "type": "User",
    "site_admin": false
  },
  "created_at": "2015-01-08T08:31:53Z",
  "updated_at": "2015-01-08T08:31:53Z",
  "body": "http://www.elasticsearch.org/blog/2015-01-07-this-week-in-elasticsearch/ I thought that this is merged."
}
, {
  "url": "https://api.github.com/repos/elastic/elasticsearch/issues/comments/69152743",
  "html_url": "https://github.com/elastic/elasticsearch/pull/7583#issuecomment-69152743",
  "issue_url": "https://api.github.com/repos/elastic/elasticsearch/issues/7583",
  "id": 69152743,
  "user": {
    "login": "jpountz",
    "id": 299848,
    "avatar_url": "https://avatars.githubusercontent.com/u/299848?v=3",
    "gravatar_id": "",
    "url": "https://api.github.com/users/jpountz",
    "html_url": "https://github.com/jpountz",
    "followers_url": "https://api.github.com/users/jpountz/followers",
    "following_url": "https://api.github.com/users/jpountz/following{/other_user}",
    "gists_url": "https://api.github.com/users/jpountz/gists{/gist_id}",
    "starred_url": "https://api.github.com/users/jpountz/starred{/owner}{/repo}",
    "subscriptions_url": "https://api.github.com/users/jpountz/subscriptions",
    "organizations_url": "https://api.github.com/users/jpountz/orgs",
    "repos_url": "https://api.github.com/users/jpountz/repos",
    "events_url": "https://api.github.com/users/jpountz/events{/privacy}",
    "received_events_url": "https://api.github.com/users/jpountz/received_events",
    "type": "User",
    "site_admin": false
  },
  "created_at": "2015-01-08T09:04:47Z",
  "updated_at": "2015-01-08T09:04:47Z",
  "body": "Oops, that's probably because I forgot to remove the labels when closing. Thanks for the report, I'll try to get it removed from the blog post as well."
}
, {
  "url": "https://api.github.com/repos/elastic/elasticsearch/issues/comments/69153215",
  "html_url": "https://github.com/elastic/elasticsearch/pull/7583#issuecomment-69153215",
  "issue_url": "https://api.github.com/repos/elastic/elasticsearch/issues/7583",
  "id": 69153215,
  "user": {
    "login": "jpountz",
    "id": 299848,
    "avatar_url": "https://avatars.githubusercontent.com/u/299848?v=3",
    "gravatar_id": "",
    "url": "https://api.github.com/users/jpountz",
    "html_url": "https://github.com/jpountz",
    "followers_url": "https://api.github.com/users/jpountz/followers",
    "following_url": "https://api.github.com/users/jpountz/following{/other_user}",
    "gists_url": "https://api.github.com/users/jpountz/gists{/gist_id}",
    "starred_url": "https://api.github.com/users/jpountz/starred{/owner}{/repo}",
    "subscriptions_url": "https://api.github.com/users/jpountz/subscriptions",
    "organizations_url": "https://api.github.com/users/jpountz/orgs",
    "repos_url": "https://api.github.com/users/jpountz/repos",
    "events_url": "https://api.github.com/users/jpountz/events{/privacy}",
    "received_events_url": "https://api.github.com/users/jpountz/received_events",
    "type": "User",
    "site_admin": false
  },
  "created_at": "2015-01-08T09:09:24Z",
  "updated_at": "2015-01-08T09:09:24Z",
  "body": "OK I just removed it."
}
]
