[
{
  "url": "https://api.github.com/repos/elastic/elasticsearch/issues/comments/68069786",
  "html_url": "https://github.com/elastic/elasticsearch/issues/4959#issuecomment-68069786",
  "issue_url": "https://api.github.com/repos/elastic/elasticsearch/issues/4959",
  "id": 68069786,
  "user": {
    "login": "clintongormley",
    "id": 56599,
    "avatar_url": "https://avatars.githubusercontent.com/u/56599?v=3",
    "gravatar_id": "",
    "url": "https://api.github.com/users/clintongormley",
    "html_url": "https://github.com/clintongormley",
    "followers_url": "https://api.github.com/users/clintongormley/followers",
    "following_url": "https://api.github.com/users/clintongormley/following{/other_user}",
    "gists_url": "https://api.github.com/users/clintongormley/gists{/gist_id}",
    "starred_url": "https://api.github.com/users/clintongormley/starred{/owner}{/repo}",
    "subscriptions_url": "https://api.github.com/users/clintongormley/subscriptions",
    "organizations_url": "https://api.github.com/users/clintongormley/orgs",
    "repos_url": "https://api.github.com/users/clintongormley/repos",
    "events_url": "https://api.github.com/users/clintongormley/events{/privacy}",
    "received_events_url": "https://api.github.com/users/clintongormley/received_events",
    "type": "User",
    "site_admin": false
  },
  "created_at": "2014-12-24T19:02:06Z",
  "updated_at": "2014-12-24T19:02:06Z",
  "body": "Hi @dsmiley \r\n\r\nSorry it has taken a while to look at this ticket. In the meantime, it has already been resolved.  \r\n\r\nthanks"
}
]
