[
{
  "url": "https://api.github.com/repos/elastic/elasticsearch/issues/comments/31751707",
  "html_url": "https://github.com/elastic/elasticsearch/pull/4552#issuecomment-31751707",
  "issue_url": "https://api.github.com/repos/elastic/elasticsearch/issues/4552",
  "id": 31751707,
  "user": {
    "login": "s1monw",
    "id": 973334,
    "avatar_url": "https://avatars.githubusercontent.com/u/973334?v=3",
    "gravatar_id": "",
    "url": "https://api.github.com/users/s1monw",
    "html_url": "https://github.com/s1monw",
    "followers_url": "https://api.github.com/users/s1monw/followers",
    "following_url": "https://api.github.com/users/s1monw/following{/other_user}",
    "gists_url": "https://api.github.com/users/s1monw/gists{/gist_id}",
    "starred_url": "https://api.github.com/users/s1monw/starred{/owner}{/repo}",
    "subscriptions_url": "https://api.github.com/users/s1monw/subscriptions",
    "organizations_url": "https://api.github.com/users/s1monw/orgs",
    "repos_url": "https://api.github.com/users/s1monw/repos",
    "events_url": "https://api.github.com/users/s1monw/events{/privacy}",
    "received_events_url": "https://api.github.com/users/s1monw/received_events",
    "type": "User",
    "site_admin": false
  },
  "created_at": "2014-01-07T16:19:23Z",
  "updated_at": "2014-01-07T16:19:23Z",
  "body": "in general this LGTM but I wonder how we tell people they are doing the wrong thing if they move from 0.90 to 1.0?"
}
, {
  "url": "https://api.github.com/repos/elastic/elasticsearch/issues/comments/31754835",
  "html_url": "https://github.com/elastic/elasticsearch/pull/4552#issuecomment-31754835",
  "issue_url": "https://api.github.com/repos/elastic/elasticsearch/issues/4552",
  "id": 31754835,
  "user": {
    "login": "dakrone",
    "id": 19060,
    "avatar_url": "https://avatars.githubusercontent.com/u/19060?v=3",
    "gravatar_id": "",
    "url": "https://api.github.com/users/dakrone",
    "html_url": "https://github.com/dakrone",
    "followers_url": "https://api.github.com/users/dakrone/followers",
    "following_url": "https://api.github.com/users/dakrone/following{/other_user}",
    "gists_url": "https://api.github.com/users/dakrone/gists{/gist_id}",
    "starred_url": "https://api.github.com/users/dakrone/starred{/owner}{/repo}",
    "subscriptions_url": "https://api.github.com/users/dakrone/subscriptions",
    "organizations_url": "https://api.github.com/users/dakrone/orgs",
    "repos_url": "https://api.github.com/users/dakrone/repos",
    "events_url": "https://api.github.com/users/dakrone/events{/privacy}",
    "received_events_url": "https://api.github.com/users/dakrone/received_events",
    "type": "User",
    "site_admin": false
  },
  "created_at": "2014-01-07T16:49:01Z",
  "updated_at": "2014-01-07T16:49:01Z",
  "body": "@s1monw unfortunately, I couldn't think of a way to tell people they're doing the wrong thing, since an object could be an actual object type instead of wrapping the document in a type (which is why this change is needed, since that is confusing)."
}
, {
  "url": "https://api.github.com/repos/elastic/elasticsearch/issues/comments/31769289",
  "html_url": "https://github.com/elastic/elasticsearch/pull/4552#issuecomment-31769289",
  "issue_url": "https://api.github.com/repos/elastic/elasticsearch/issues/4552",
  "id": 31769289,
  "user": {
    "login": "s1monw",
    "id": 973334,
    "avatar_url": "https://avatars.githubusercontent.com/u/973334?v=3",
    "gravatar_id": "",
    "url": "https://api.github.com/users/s1monw",
    "html_url": "https://github.com/s1monw",
    "followers_url": "https://api.github.com/users/s1monw/followers",
    "following_url": "https://api.github.com/users/s1monw/following{/other_user}",
    "gists_url": "https://api.github.com/users/s1monw/gists{/gist_id}",
    "starred_url": "https://api.github.com/users/s1monw/starred{/owner}{/repo}",
    "subscriptions_url": "https://api.github.com/users/s1monw/subscriptions",
    "organizations_url": "https://api.github.com/users/s1monw/orgs",
    "repos_url": "https://api.github.com/users/s1monw/repos",
    "events_url": "https://api.github.com/users/s1monw/events{/privacy}",
    "received_events_url": "https://api.github.com/users/s1monw/received_events",
    "type": "User",
    "site_admin": false
  },
  "created_at": "2014-01-07T19:19:01Z",
  "updated_at": "2014-01-07T19:19:01Z",
  "body": "yeah I agree!! @kimchy any idea - I don't have any!"
}
, {
  "url": "https://api.github.com/repos/elastic/elasticsearch/issues/comments/31771162",
  "html_url": "https://github.com/elastic/elasticsearch/pull/4552#issuecomment-31771162",
  "issue_url": "https://api.github.com/repos/elastic/elasticsearch/issues/4552",
  "id": 31771162,
  "user": {
    "login": "kimchy",
    "id": 41300,
    "avatar_url": "https://avatars.githubusercontent.com/u/41300?v=3",
    "gravatar_id": "",
    "url": "https://api.github.com/users/kimchy",
    "html_url": "https://github.com/kimchy",
    "followers_url": "https://api.github.com/users/kimchy/followers",
    "following_url": "https://api.github.com/users/kimchy/following{/other_user}",
    "gists_url": "https://api.github.com/users/kimchy/gists{/gist_id}",
    "starred_url": "https://api.github.com/users/kimchy/starred{/owner}{/repo}",
    "subscriptions_url": "https://api.github.com/users/kimchy/subscriptions",
    "organizations_url": "https://api.github.com/users/kimchy/orgs",
    "repos_url": "https://api.github.com/users/kimchy/repos",
    "events_url": "https://api.github.com/users/kimchy/events{/privacy}",
    "received_events_url": "https://api.github.com/users/kimchy/received_events",
    "type": "User",
    "site_admin": false
  },
  "created_at": "2014-01-07T19:37:45Z",
  "updated_at": "2014-01-07T19:37:45Z",
  "body": "I don't think its possible.., let me comment on the issue though, I have concerns about this change..."
}
, {
  "url": "https://api.github.com/repos/elastic/elasticsearch/issues/comments/32194098",
  "html_url": "https://github.com/elastic/elasticsearch/pull/4552#issuecomment-32194098",
  "issue_url": "https://api.github.com/repos/elastic/elasticsearch/issues/4552",
  "id": 32194098,
  "user": {
    "login": "dakrone",
    "id": 19060,
    "avatar_url": "https://avatars.githubusercontent.com/u/19060?v=3",
    "gravatar_id": "",
    "url": "https://api.github.com/users/dakrone",
    "html_url": "https://github.com/dakrone",
    "followers_url": "https://api.github.com/users/dakrone/followers",
    "following_url": "https://api.github.com/users/dakrone/following{/other_user}",
    "gists_url": "https://api.github.com/users/dakrone/gists{/gist_id}",
    "starred_url": "https://api.github.com/users/dakrone/starred{/owner}{/repo}",
    "subscriptions_url": "https://api.github.com/users/dakrone/subscriptions",
    "organizations_url": "https://api.github.com/users/dakrone/orgs",
    "repos_url": "https://api.github.com/users/dakrone/repos",
    "events_url": "https://api.github.com/users/dakrone/events{/privacy}",
    "received_events_url": "https://api.github.com/users/dakrone/received_events",
    "type": "User",
    "site_admin": false
  },
  "created_at": "2014-01-13T18:03:33Z",
  "updated_at": "2014-01-13T18:03:33Z",
  "body": "@kimchy I've updated this PR with the setting we discussed in #4484 as well as docs and an additional test."
}
, {
  "url": "https://api.github.com/repos/elastic/elasticsearch/issues/comments/32210686",
  "html_url": "https://github.com/elastic/elasticsearch/pull/4552#issuecomment-32210686",
  "issue_url": "https://api.github.com/repos/elastic/elasticsearch/issues/4552",
  "id": 32210686,
  "user": {
    "login": "imotov",
    "id": 655851,
    "avatar_url": "https://avatars.githubusercontent.com/u/655851?v=3",
    "gravatar_id": "",
    "url": "https://api.github.com/users/imotov",
    "html_url": "https://github.com/imotov",
    "followers_url": "https://api.github.com/users/imotov/followers",
    "following_url": "https://api.github.com/users/imotov/following{/other_user}",
    "gists_url": "https://api.github.com/users/imotov/gists{/gist_id}",
    "starred_url": "https://api.github.com/users/imotov/starred{/owner}{/repo}",
    "subscriptions_url": "https://api.github.com/users/imotov/subscriptions",
    "organizations_url": "https://api.github.com/users/imotov/orgs",
    "repos_url": "https://api.github.com/users/imotov/repos",
    "events_url": "https://api.github.com/users/imotov/events{/privacy}",
    "received_events_url": "https://api.github.com/users/imotov/received_events",
    "type": "User",
    "site_admin": false
  },
  "created_at": "2014-01-13T20:58:40Z",
  "updated_at": "2014-01-13T20:58:40Z",
  "body": "LGTM"
}
, {
  "url": "https://api.github.com/repos/elastic/elasticsearch/issues/comments/32213573",
  "html_url": "https://github.com/elastic/elasticsearch/pull/4552#issuecomment-32213573",
  "issue_url": "https://api.github.com/repos/elastic/elasticsearch/issues/4552",
  "id": 32213573,
  "user": {
    "login": "s1monw",
    "id": 973334,
    "avatar_url": "https://avatars.githubusercontent.com/u/973334?v=3",
    "gravatar_id": "",
    "url": "https://api.github.com/users/s1monw",
    "html_url": "https://github.com/s1monw",
    "followers_url": "https://api.github.com/users/s1monw/followers",
    "following_url": "https://api.github.com/users/s1monw/following{/other_user}",
    "gists_url": "https://api.github.com/users/s1monw/gists{/gist_id}",
    "starred_url": "https://api.github.com/users/s1monw/starred{/owner}{/repo}",
    "subscriptions_url": "https://api.github.com/users/s1monw/subscriptions",
    "organizations_url": "https://api.github.com/users/s1monw/orgs",
    "repos_url": "https://api.github.com/users/s1monw/repos",
    "events_url": "https://api.github.com/users/s1monw/events{/privacy}",
    "received_events_url": "https://api.github.com/users/s1monw/received_events",
    "type": "User",
    "site_admin": false
  },
  "created_at": "2014-01-13T21:31:00Z",
  "updated_at": "2014-01-13T21:31:00Z",
  "body": "LGTM as well. one thing I would want to have for changes like this in the future and I think we should add a new issue is some kind of interceptor that randomized the wrapping type for instance in `AssertingLocalTransport` we can   check if it is an indexing request and just wrap it with the type etc. Not sure how feasible it is but we might be able to do something that helps to test stuff like this in the future!"
}
, {
  "url": "https://api.github.com/repos/elastic/elasticsearch/issues/comments/32215117",
  "html_url": "https://github.com/elastic/elasticsearch/pull/4552#issuecomment-32215117",
  "issue_url": "https://api.github.com/repos/elastic/elasticsearch/issues/4552",
  "id": 32215117,
  "user": {
    "login": "dakrone",
    "id": 19060,
    "avatar_url": "https://avatars.githubusercontent.com/u/19060?v=3",
    "gravatar_id": "",
    "url": "https://api.github.com/users/dakrone",
    "html_url": "https://github.com/dakrone",
    "followers_url": "https://api.github.com/users/dakrone/followers",
    "following_url": "https://api.github.com/users/dakrone/following{/other_user}",
    "gists_url": "https://api.github.com/users/dakrone/gists{/gist_id}",
    "starred_url": "https://api.github.com/users/dakrone/starred{/owner}{/repo}",
    "subscriptions_url": "https://api.github.com/users/dakrone/subscriptions",
    "organizations_url": "https://api.github.com/users/dakrone/orgs",
    "repos_url": "https://api.github.com/users/dakrone/repos",
    "events_url": "https://api.github.com/users/dakrone/events{/privacy}",
    "received_events_url": "https://api.github.com/users/dakrone/received_events",
    "type": "User",
    "site_admin": false
  },
  "created_at": "2014-01-13T21:46:37Z",
  "updated_at": "2014-01-13T21:46:37Z",
  "body": "Merged in 329f27c"
}
]
