[
{
  "url": "https://api.github.com/repos/elastic/elasticsearch/issues/comments/81862667",
  "html_url": "https://github.com/elastic/elasticsearch/pull/9994#issuecomment-81862667",
  "issue_url": "https://api.github.com/repos/elastic/elasticsearch/issues/9994",
  "id": 81862667,
  "user": {
    "login": "bleskes",
    "id": 1006375,
    "avatar_url": "https://avatars.githubusercontent.com/u/1006375?v=3",
    "gravatar_id": "",
    "url": "https://api.github.com/users/bleskes",
    "html_url": "https://github.com/bleskes",
    "followers_url": "https://api.github.com/users/bleskes/followers",
    "following_url": "https://api.github.com/users/bleskes/following{/other_user}",
    "gists_url": "https://api.github.com/users/bleskes/gists{/gist_id}",
    "starred_url": "https://api.github.com/users/bleskes/starred{/owner}{/repo}",
    "subscriptions_url": "https://api.github.com/users/bleskes/subscriptions",
    "organizations_url": "https://api.github.com/users/bleskes/orgs",
    "repos_url": "https://api.github.com/users/bleskes/repos",
    "events_url": "https://api.github.com/users/bleskes/events{/privacy}",
    "received_events_url": "https://api.github.com/users/bleskes/received_events",
    "type": "User",
    "site_admin": false
  },
  "created_at": "2015-03-16T18:46:24Z",
  "updated_at": "2015-03-16T18:46:24Z",
  "body": "@spinscale can you perhaps give this a look?"
}
, {
  "url": "https://api.github.com/repos/elastic/elasticsearch/issues/comments/83058509",
  "html_url": "https://github.com/elastic/elasticsearch/pull/9994#issuecomment-83058509",
  "issue_url": "https://api.github.com/repos/elastic/elasticsearch/issues/9994",
  "id": 83058509,
  "user": {
    "login": "s1monw",
    "id": 973334,
    "avatar_url": "https://avatars.githubusercontent.com/u/973334?v=3",
    "gravatar_id": "",
    "url": "https://api.github.com/users/s1monw",
    "html_url": "https://github.com/s1monw",
    "followers_url": "https://api.github.com/users/s1monw/followers",
    "following_url": "https://api.github.com/users/s1monw/following{/other_user}",
    "gists_url": "https://api.github.com/users/s1monw/gists{/gist_id}",
    "starred_url": "https://api.github.com/users/s1monw/starred{/owner}{/repo}",
    "subscriptions_url": "https://api.github.com/users/s1monw/subscriptions",
    "organizations_url": "https://api.github.com/users/s1monw/orgs",
    "repos_url": "https://api.github.com/users/s1monw/repos",
    "events_url": "https://api.github.com/users/s1monw/events{/privacy}",
    "received_events_url": "https://api.github.com/users/s1monw/received_events",
    "type": "User",
    "site_admin": false
  },
  "created_at": "2015-03-18T17:04:27Z",
  "updated_at": "2015-03-18T17:04:27Z",
  "body": "LGTM"
}
]
