[
{
  "url": "https://api.github.com/repos/elastic/elasticsearch/issues/comments/98964303",
  "html_url": "https://github.com/elastic/elasticsearch/pull/10912#issuecomment-98964303",
  "issue_url": "https://api.github.com/repos/elastic/elasticsearch/issues/10912",
  "id": 98964303,
  "user": {
    "login": "clintongormley",
    "id": 56599,
    "avatar_url": "https://avatars.githubusercontent.com/u/56599?v=3",
    "gravatar_id": "",
    "url": "https://api.github.com/users/clintongormley",
    "html_url": "https://github.com/clintongormley",
    "followers_url": "https://api.github.com/users/clintongormley/followers",
    "following_url": "https://api.github.com/users/clintongormley/following{/other_user}",
    "gists_url": "https://api.github.com/users/clintongormley/gists{/gist_id}",
    "starred_url": "https://api.github.com/users/clintongormley/starred{/owner}{/repo}",
    "subscriptions_url": "https://api.github.com/users/clintongormley/subscriptions",
    "organizations_url": "https://api.github.com/users/clintongormley/orgs",
    "repos_url": "https://api.github.com/users/clintongormley/repos",
    "events_url": "https://api.github.com/users/clintongormley/events{/privacy}",
    "received_events_url": "https://api.github.com/users/clintongormley/received_events",
    "type": "User",
    "site_admin": false
  },
  "created_at": "2015-05-05T06:00:11Z",
  "updated_at": "2015-05-05T06:00:11Z",
  "body": "As a side note, shouldn't we remove the ability to configure store/index on timestamp? http://www.elastic.co/guide/en/elasticsearch/reference/master/mapping-timestamp-field.html#_store_index_2"
}
, {
  "url": "https://api.github.com/repos/elastic/elasticsearch/issues/comments/99277366",
  "html_url": "https://github.com/elastic/elasticsearch/pull/10912#issuecomment-99277366",
  "issue_url": "https://api.github.com/repos/elastic/elasticsearch/issues/10912",
  "id": 99277366,
  "user": {
    "login": "rjernst",
    "id": 289412,
    "avatar_url": "https://avatars.githubusercontent.com/u/289412?v=3",
    "gravatar_id": "",
    "url": "https://api.github.com/users/rjernst",
    "html_url": "https://github.com/rjernst",
    "followers_url": "https://api.github.com/users/rjernst/followers",
    "following_url": "https://api.github.com/users/rjernst/following{/other_user}",
    "gists_url": "https://api.github.com/users/rjernst/gists{/gist_id}",
    "starred_url": "https://api.github.com/users/rjernst/starred{/owner}{/repo}",
    "subscriptions_url": "https://api.github.com/users/rjernst/subscriptions",
    "organizations_url": "https://api.github.com/users/rjernst/orgs",
    "repos_url": "https://api.github.com/users/rjernst/repos",
    "events_url": "https://api.github.com/users/rjernst/events{/privacy}",
    "received_events_url": "https://api.github.com/users/rjernst/received_events",
    "type": "User",
    "site_admin": false
  },
  "created_at": "2015-05-06T00:50:56Z",
  "updated_at": "2015-05-06T00:50:56Z",
  "body": "@clintongormley I pushed a new commit addressing your comments. For `_timestamp` we never locked it down because it is essentially a user field (the only way to add a NOW to a date field). I think we should continue looking at changing that separately."
}
]
