[
{
  "url": "https://api.github.com/repos/elastic/elasticsearch/issues/comments/31873027",
  "html_url": "https://github.com/elastic/elasticsearch/pull/4659#issuecomment-31873027",
  "issue_url": "https://api.github.com/repos/elastic/elasticsearch/issues/4659",
  "id": 31873027,
  "user": {
    "login": "s1monw",
    "id": 973334,
    "avatar_url": "https://avatars.githubusercontent.com/u/973334?v=3",
    "gravatar_id": "",
    "url": "https://api.github.com/users/s1monw",
    "html_url": "https://github.com/s1monw",
    "followers_url": "https://api.github.com/users/s1monw/followers",
    "following_url": "https://api.github.com/users/s1monw/following{/other_user}",
    "gists_url": "https://api.github.com/users/s1monw/gists{/gist_id}",
    "starred_url": "https://api.github.com/users/s1monw/starred{/owner}{/repo}",
    "subscriptions_url": "https://api.github.com/users/s1monw/subscriptions",
    "organizations_url": "https://api.github.com/users/s1monw/orgs",
    "repos_url": "https://api.github.com/users/s1monw/repos",
    "events_url": "https://api.github.com/users/s1monw/events{/privacy}",
    "received_events_url": "https://api.github.com/users/s1monw/received_events",
    "type": "User",
    "site_admin": false
  },
  "created_at": "2014-01-08T20:11:09Z",
  "updated_at": "2014-01-08T20:11:09Z",
  "body": "+1 thanks"
}
, {
  "url": "https://api.github.com/repos/elastic/elasticsearch/issues/comments/31881950",
  "html_url": "https://github.com/elastic/elasticsearch/pull/4659#issuecomment-31881950",
  "issue_url": "https://api.github.com/repos/elastic/elasticsearch/issues/4659",
  "id": 31881950,
  "user": {
    "login": "s1monw",
    "id": 973334,
    "avatar_url": "https://avatars.githubusercontent.com/u/973334?v=3",
    "gravatar_id": "",
    "url": "https://api.github.com/users/s1monw",
    "html_url": "https://github.com/s1monw",
    "followers_url": "https://api.github.com/users/s1monw/followers",
    "following_url": "https://api.github.com/users/s1monw/following{/other_user}",
    "gists_url": "https://api.github.com/users/s1monw/gists{/gist_id}",
    "starred_url": "https://api.github.com/users/s1monw/starred{/owner}{/repo}",
    "subscriptions_url": "https://api.github.com/users/s1monw/subscriptions",
    "organizations_url": "https://api.github.com/users/s1monw/orgs",
    "repos_url": "https://api.github.com/users/s1monw/repos",
    "events_url": "https://api.github.com/users/s1monw/events{/privacy}",
    "received_events_url": "https://api.github.com/users/s1monw/received_events",
    "type": "User",
    "site_admin": false
  },
  "created_at": "2014-01-08T22:10:43Z",
  "updated_at": "2014-01-08T22:10:43Z",
  "body": "pushed"
}
]
