[
{
  "url": "https://api.github.com/repos/elastic/elasticsearch/issues/comments/119428806",
  "html_url": "https://github.com/elastic/elasticsearch/issues/12103#issuecomment-119428806",
  "issue_url": "https://api.github.com/repos/elastic/elasticsearch/issues/12103",
  "id": 119428806,
  "user": {
    "login": "rjernst",
    "id": 289412,
    "avatar_url": "https://avatars.githubusercontent.com/u/289412?v=3",
    "gravatar_id": "",
    "url": "https://api.github.com/users/rjernst",
    "html_url": "https://github.com/rjernst",
    "followers_url": "https://api.github.com/users/rjernst/followers",
    "following_url": "https://api.github.com/users/rjernst/following{/other_user}",
    "gists_url": "https://api.github.com/users/rjernst/gists{/gist_id}",
    "starred_url": "https://api.github.com/users/rjernst/starred{/owner}{/repo}",
    "subscriptions_url": "https://api.github.com/users/rjernst/subscriptions",
    "organizations_url": "https://api.github.com/users/rjernst/orgs",
    "repos_url": "https://api.github.com/users/rjernst/repos",
    "events_url": "https://api.github.com/users/rjernst/events{/privacy}",
    "received_events_url": "https://api.github.com/users/rjernst/received_events",
    "type": "User",
    "site_admin": false
  },
  "created_at": "2015-07-08T04:39:25Z",
  "updated_at": "2015-07-08T04:39:25Z",
  "body": "Thanks for reporting @jprante! This seems like a bug. I'm investigating."
}
, {
  "url": "https://api.github.com/repos/elastic/elasticsearch/issues/comments/119460562",
  "html_url": "https://github.com/elastic/elasticsearch/issues/12103#issuecomment-119460562",
  "issue_url": "https://api.github.com/repos/elastic/elasticsearch/issues/12103",
  "id": 119460562,
  "user": {
    "login": "jprante",
    "id": 635745,
    "avatar_url": "https://avatars.githubusercontent.com/u/635745?v=3",
    "gravatar_id": "",
    "url": "https://api.github.com/users/jprante",
    "html_url": "https://github.com/jprante",
    "followers_url": "https://api.github.com/users/jprante/followers",
    "following_url": "https://api.github.com/users/jprante/following{/other_user}",
    "gists_url": "https://api.github.com/users/jprante/gists{/gist_id}",
    "starred_url": "https://api.github.com/users/jprante/starred{/owner}{/repo}",
    "subscriptions_url": "https://api.github.com/users/jprante/subscriptions",
    "organizations_url": "https://api.github.com/users/jprante/orgs",
    "repos_url": "https://api.github.com/users/jprante/repos",
    "events_url": "https://api.github.com/users/jprante/events{/privacy}",
    "received_events_url": "https://api.github.com/users/jprante/received_events",
    "type": "User",
    "site_admin": false
  },
  "created_at": "2015-07-08T06:57:18Z",
  "updated_at": "2015-07-08T06:57:18Z",
  "body": "I found a solution, in the custom mapper implementation, this change makes the error disappear:\r\n\r\nFrom\r\n\r\n```\r\n    @Override\r\n    public XContentBuilder toXContent(XContentBuilder builder, Params params) throws IOException {\r\n        builder.startObject(name());\r\n        builder.field(\"type\", CONTENT_TYPE);\r\n```\r\nto \r\n\r\n```\r\n    @Override\r\n    public XContentBuilder toXContent(XContentBuilder builder, Params params) throws IOException {\r\n        builder.startObject(simpleName());\r\n        builder.field(\"type\", CONTENT_TYPE);\r\n        ...\r\n```\r\n\r\nMaybe other (custom) mapper implementations need to serialize to `simpleName()`, too?"
}
, {
  "url": "https://api.github.com/repos/elastic/elasticsearch/issues/comments/119465424",
  "html_url": "https://github.com/elastic/elasticsearch/issues/12103#issuecomment-119465424",
  "issue_url": "https://api.github.com/repos/elastic/elasticsearch/issues/12103",
  "id": 119465424,
  "user": {
    "login": "rjernst",
    "id": 289412,
    "avatar_url": "https://avatars.githubusercontent.com/u/289412?v=3",
    "gravatar_id": "",
    "url": "https://api.github.com/users/rjernst",
    "html_url": "https://github.com/rjernst",
    "followers_url": "https://api.github.com/users/rjernst/followers",
    "following_url": "https://api.github.com/users/rjernst/following{/other_user}",
    "gists_url": "https://api.github.com/users/rjernst/gists{/gist_id}",
    "starred_url": "https://api.github.com/users/rjernst/starred{/owner}{/repo}",
    "subscriptions_url": "https://api.github.com/users/rjernst/subscriptions",
    "organizations_url": "https://api.github.com/users/rjernst/orgs",
    "repos_url": "https://api.github.com/users/rjernst/repos",
    "events_url": "https://api.github.com/users/rjernst/events{/privacy}",
    "received_events_url": "https://api.github.com/users/rjernst/received_events",
    "type": "User",
    "site_admin": false
  },
  "created_at": "2015-07-08T07:11:36Z",
  "updated_at": "2015-07-08T07:11:36Z",
  "body": "Ah yes, that would cause the problem! name() now returns the full path, while simpleName() is the immediate field name and intended for serialization as you are now using it. "
}
, {
  "url": "https://api.github.com/repos/elastic/elasticsearch/issues/comments/119628322",
  "html_url": "https://github.com/elastic/elasticsearch/issues/12103#issuecomment-119628322",
  "issue_url": "https://api.github.com/repos/elastic/elasticsearch/issues/12103",
  "id": 119628322,
  "user": {
    "login": "jpountz",
    "id": 299848,
    "avatar_url": "https://avatars.githubusercontent.com/u/299848?v=3",
    "gravatar_id": "",
    "url": "https://api.github.com/users/jpountz",
    "html_url": "https://github.com/jpountz",
    "followers_url": "https://api.github.com/users/jpountz/followers",
    "following_url": "https://api.github.com/users/jpountz/following{/other_user}",
    "gists_url": "https://api.github.com/users/jpountz/gists{/gist_id}",
    "starred_url": "https://api.github.com/users/jpountz/starred{/owner}{/repo}",
    "subscriptions_url": "https://api.github.com/users/jpountz/subscriptions",
    "organizations_url": "https://api.github.com/users/jpountz/orgs",
    "repos_url": "https://api.github.com/users/jpountz/repos",
    "events_url": "https://api.github.com/users/jpountz/events{/privacy}",
    "received_events_url": "https://api.github.com/users/jpountz/received_events",
    "type": "User",
    "site_admin": false
  },
  "created_at": "2015-07-08T15:35:56Z",
  "updated_at": "2015-07-08T15:35:56Z",
  "body": "Closing as the problem looks solved to me."
}
]
