[
{
  "url": "https://api.github.com/repos/elastic/elasticsearch/issues/comments/119997075",
  "html_url": "https://github.com/elastic/elasticsearch/pull/12156#issuecomment-119997075",
  "issue_url": "https://api.github.com/repos/elastic/elasticsearch/issues/12156",
  "id": 119997075,
  "user": {
    "login": "javanna",
    "id": 832460,
    "avatar_url": "https://avatars.githubusercontent.com/u/832460?v=3",
    "gravatar_id": "",
    "url": "https://api.github.com/users/javanna",
    "html_url": "https://github.com/javanna",
    "followers_url": "https://api.github.com/users/javanna/followers",
    "following_url": "https://api.github.com/users/javanna/following{/other_user}",
    "gists_url": "https://api.github.com/users/javanna/gists{/gist_id}",
    "starred_url": "https://api.github.com/users/javanna/starred{/owner}{/repo}",
    "subscriptions_url": "https://api.github.com/users/javanna/subscriptions",
    "organizations_url": "https://api.github.com/users/javanna/orgs",
    "repos_url": "https://api.github.com/users/javanna/repos",
    "events_url": "https://api.github.com/users/javanna/events{/privacy}",
    "received_events_url": "https://api.github.com/users/javanna/received_events",
    "type": "User",
    "site_admin": false
  },
  "created_at": "2015-07-09T14:15:24Z",
  "updated_at": "2015-07-09T14:15:24Z",
  "body": "looks good left a few minor comments"
}
, {
  "url": "https://api.github.com/repos/elastic/elasticsearch/issues/comments/120000443",
  "html_url": "https://github.com/elastic/elasticsearch/pull/12156#issuecomment-120000443",
  "issue_url": "https://api.github.com/repos/elastic/elasticsearch/issues/12156",
  "id": 120000443,
  "user": {
    "login": "cbuescher",
    "id": 10398885,
    "avatar_url": "https://avatars.githubusercontent.com/u/10398885?v=3",
    "gravatar_id": "",
    "url": "https://api.github.com/users/cbuescher",
    "html_url": "https://github.com/cbuescher",
    "followers_url": "https://api.github.com/users/cbuescher/followers",
    "following_url": "https://api.github.com/users/cbuescher/following{/other_user}",
    "gists_url": "https://api.github.com/users/cbuescher/gists{/gist_id}",
    "starred_url": "https://api.github.com/users/cbuescher/starred{/owner}{/repo}",
    "subscriptions_url": "https://api.github.com/users/cbuescher/subscriptions",
    "organizations_url": "https://api.github.com/users/cbuescher/orgs",
    "repos_url": "https://api.github.com/users/cbuescher/repos",
    "events_url": "https://api.github.com/users/cbuescher/events{/privacy}",
    "received_events_url": "https://api.github.com/users/cbuescher/received_events",
    "type": "User",
    "site_admin": false
  },
  "created_at": "2015-07-09T14:25:29Z",
  "updated_at": "2015-07-09T14:25:29Z",
  "body": "@javanna left a few comments regarding your questions."
}
, {
  "url": "https://api.github.com/repos/elastic/elasticsearch/issues/comments/120017452",
  "html_url": "https://github.com/elastic/elasticsearch/pull/12156#issuecomment-120017452",
  "issue_url": "https://api.github.com/repos/elastic/elasticsearch/issues/12156",
  "id": 120017452,
  "user": {
    "login": "cbuescher",
    "id": 10398885,
    "avatar_url": "https://avatars.githubusercontent.com/u/10398885?v=3",
    "gravatar_id": "",
    "url": "https://api.github.com/users/cbuescher",
    "html_url": "https://github.com/cbuescher",
    "followers_url": "https://api.github.com/users/cbuescher/followers",
    "following_url": "https://api.github.com/users/cbuescher/following{/other_user}",
    "gists_url": "https://api.github.com/users/cbuescher/gists{/gist_id}",
    "starred_url": "https://api.github.com/users/cbuescher/starred{/owner}{/repo}",
    "subscriptions_url": "https://api.github.com/users/cbuescher/subscriptions",
    "organizations_url": "https://api.github.com/users/cbuescher/orgs",
    "repos_url": "https://api.github.com/users/cbuescher/repos",
    "events_url": "https://api.github.com/users/cbuescher/events{/privacy}",
    "received_events_url": "https://api.github.com/users/cbuescher/received_events",
    "type": "User",
    "site_admin": false
  },
  "created_at": "2015-07-09T15:01:24Z",
  "updated_at": "2015-07-09T15:01:24Z",
  "body": "@javanna Added the comments and made default settings for flags public. "
}
, {
  "url": "https://api.github.com/repos/elastic/elasticsearch/issues/comments/120017843",
  "html_url": "https://github.com/elastic/elasticsearch/pull/12156#issuecomment-120017843",
  "issue_url": "https://api.github.com/repos/elastic/elasticsearch/issues/12156",
  "id": 120017843,
  "user": {
    "login": "javanna",
    "id": 832460,
    "avatar_url": "https://avatars.githubusercontent.com/u/832460?v=3",
    "gravatar_id": "",
    "url": "https://api.github.com/users/javanna",
    "html_url": "https://github.com/javanna",
    "followers_url": "https://api.github.com/users/javanna/followers",
    "following_url": "https://api.github.com/users/javanna/following{/other_user}",
    "gists_url": "https://api.github.com/users/javanna/gists{/gist_id}",
    "starred_url": "https://api.github.com/users/javanna/starred{/owner}{/repo}",
    "subscriptions_url": "https://api.github.com/users/javanna/subscriptions",
    "organizations_url": "https://api.github.com/users/javanna/orgs",
    "repos_url": "https://api.github.com/users/javanna/repos",
    "events_url": "https://api.github.com/users/javanna/events{/privacy}",
    "received_events_url": "https://api.github.com/users/javanna/received_events",
    "type": "User",
    "site_admin": false
  },
  "created_at": "2015-07-09T15:02:45Z",
  "updated_at": "2015-07-09T15:02:45Z",
  "body": "LGTM besides the minor comment I left"
}
, {
  "url": "https://api.github.com/repos/elastic/elasticsearch/issues/comments/135727308",
  "html_url": "https://github.com/elastic/elasticsearch/pull/12156#issuecomment-135727308",
  "issue_url": "https://api.github.com/repos/elastic/elasticsearch/issues/12156",
  "id": 135727308,
  "user": {
    "login": "javanna",
    "id": 832460,
    "avatar_url": "https://avatars.githubusercontent.com/u/832460?v=3",
    "gravatar_id": "",
    "url": "https://api.github.com/users/javanna",
    "html_url": "https://github.com/javanna",
    "followers_url": "https://api.github.com/users/javanna/followers",
    "following_url": "https://api.github.com/users/javanna/following{/other_user}",
    "gists_url": "https://api.github.com/users/javanna/gists{/gist_id}",
    "starred_url": "https://api.github.com/users/javanna/starred{/owner}{/repo}",
    "subscriptions_url": "https://api.github.com/users/javanna/subscriptions",
    "organizations_url": "https://api.github.com/users/javanna/orgs",
    "repos_url": "https://api.github.com/users/javanna/repos",
    "events_url": "https://api.github.com/users/javanna/events{/privacy}",
    "received_events_url": "https://api.github.com/users/javanna/received_events",
    "type": "User",
    "site_admin": false
  },
  "created_at": "2015-08-28T10:13:57Z",
  "updated_at": "2015-08-28T10:13:57Z",
  "body": "This change is breaking for the java api as it removes setter for mandatory slop parameter which needs to be set in the constructor instead."
}
]
