[
{
  "url": "https://api.github.com/repos/dropbox/dropbox-sdk-ruby/issues/comments/126089693",
  "html_url": "https://github.com/dropbox/dropbox-sdk-ruby/issues/25#issuecomment-126089693",
  "issue_url": "https://api.github.com/repos/dropbox/dropbox-sdk-ruby/issues/25",
  "id": 126089693,
  "user": {
    "login": "varenc",
    "id": 167585,
    "avatar_url": "https://avatars.githubusercontent.com/u/167585?v=3",
    "gravatar_id": "",
    "url": "https://api.github.com/users/varenc",
    "html_url": "https://github.com/varenc",
    "followers_url": "https://api.github.com/users/varenc/followers",
    "following_url": "https://api.github.com/users/varenc/following{/other_user}",
    "gists_url": "https://api.github.com/users/varenc/gists{/gist_id}",
    "starred_url": "https://api.github.com/users/varenc/starred{/owner}{/repo}",
    "subscriptions_url": "https://api.github.com/users/varenc/subscriptions",
    "organizations_url": "https://api.github.com/users/varenc/orgs",
    "repos_url": "https://api.github.com/users/varenc/repos",
    "events_url": "https://api.github.com/users/varenc/events{/privacy}",
    "received_events_url": "https://api.github.com/users/varenc/received_events",
    "type": "User",
    "site_admin": false
  },
  "created_at": "2015-07-29T20:42:04Z",
  "updated_at": "2015-07-29T20:42:04Z",
  "body": "this is a bit outside of the scope of the ruby SDK since you're asking about the general OAuth page.  There's no officially documented way to force a logout right now.  It should be straightforward for you users to click the logout button on that screen though... I suppose you could try redirect them to http://www.dropbox.com/logout but I can't condone that as the official way to do this."
}
]
