[
{
  "url": "https://api.github.com/repos/adafruit/Adafruit-PiTFT-Helper/issues/comments/168011263",
  "html_url": "https://github.com/adafruit/Adafruit-PiTFT-Helper/issues/10#issuecomment-168011263",
  "issue_url": "https://api.github.com/repos/adafruit/Adafruit-PiTFT-Helper/issues/10",
  "id": 168011263,
  "user": {
    "login": "toddtreece",
    "id": 360020,
    "avatar_url": "https://avatars.githubusercontent.com/u/360020?v=3",
    "gravatar_id": "",
    "url": "https://api.github.com/users/toddtreece",
    "html_url": "https://github.com/toddtreece",
    "followers_url": "https://api.github.com/users/toddtreece/followers",
    "following_url": "https://api.github.com/users/toddtreece/following{/other_user}",
    "gists_url": "https://api.github.com/users/toddtreece/gists{/gist_id}",
    "starred_url": "https://api.github.com/users/toddtreece/starred{/owner}{/repo}",
    "subscriptions_url": "https://api.github.com/users/toddtreece/subscriptions",
    "organizations_url": "https://api.github.com/users/toddtreece/orgs",
    "repos_url": "https://api.github.com/users/toddtreece/repos",
    "events_url": "https://api.github.com/users/toddtreece/events{/privacy}",
    "received_events_url": "https://api.github.com/users/toddtreece/received_events",
    "type": "User",
    "site_admin": false
  },
  "created_at": "2015-12-30T14:29:39Z",
  "updated_at": "2015-12-30T14:29:39Z",
  "body": "Raspbian currently is on Debian 8 \"Jessie\", and it looks like the version of Kali you are using might be a fork of Debian 7 \"Wheezy\". I think Kali 2.x is based on Jessie, so you might want to give that a shot.\r\n\r\nI am not currently in a place where I can test this, but if you do and it's successful, please let us know and we'll update the tutorial to use Kali 2.x. Thanks!"
}
, {
  "url": "https://api.github.com/repos/adafruit/Adafruit-PiTFT-Helper/issues/comments/168025659",
  "html_url": "https://github.com/adafruit/Adafruit-PiTFT-Helper/issues/10#issuecomment-168025659",
  "issue_url": "https://api.github.com/repos/adafruit/Adafruit-PiTFT-Helper/issues/10",
  "id": 168025659,
  "user": {
    "login": "mvaneijgen",
    "id": 3217544,
    "avatar_url": "https://avatars.githubusercontent.com/u/3217544?v=3",
    "gravatar_id": "",
    "url": "https://api.github.com/users/mvaneijgen",
    "html_url": "https://github.com/mvaneijgen",
    "followers_url": "https://api.github.com/users/mvaneijgen/followers",
    "following_url": "https://api.github.com/users/mvaneijgen/following{/other_user}",
    "gists_url": "https://api.github.com/users/mvaneijgen/gists{/gist_id}",
    "starred_url": "https://api.github.com/users/mvaneijgen/starred{/owner}{/repo}",
    "subscriptions_url": "https://api.github.com/users/mvaneijgen/subscriptions",
    "organizations_url": "https://api.github.com/users/mvaneijgen/orgs",
    "repos_url": "https://api.github.com/users/mvaneijgen/repos",
    "events_url": "https://api.github.com/users/mvaneijgen/events{/privacy}",
    "received_events_url": "https://api.github.com/users/mvaneijgen/received_events",
    "type": "User",
    "site_admin": false
  },
  "created_at": "2015-12-30T16:12:06Z",
  "updated_at": "2015-12-30T16:12:06Z",
  "body": "I am using Kali `2.0.1` and tried both images with and without the TFT build in. Downloaded from https://www.offensive-security.com/kali-linux-vmware-arm-image-download/\r\n"
}
, {
  "url": "https://api.github.com/repos/adafruit/Adafruit-PiTFT-Helper/issues/comments/168032195",
  "html_url": "https://github.com/adafruit/Adafruit-PiTFT-Helper/issues/10#issuecomment-168032195",
  "issue_url": "https://api.github.com/repos/adafruit/Adafruit-PiTFT-Helper/issues/10",
  "id": 168032195,
  "user": {
    "login": "toddtreece",
    "id": 360020,
    "avatar_url": "https://avatars.githubusercontent.com/u/360020?v=3",
    "gravatar_id": "",
    "url": "https://api.github.com/users/toddtreece",
    "html_url": "https://github.com/toddtreece",
    "followers_url": "https://api.github.com/users/toddtreece/followers",
    "following_url": "https://api.github.com/users/toddtreece/following{/other_user}",
    "gists_url": "https://api.github.com/users/toddtreece/gists{/gist_id}",
    "starred_url": "https://api.github.com/users/toddtreece/starred{/owner}{/repo}",
    "subscriptions_url": "https://api.github.com/users/toddtreece/subscriptions",
    "organizations_url": "https://api.github.com/users/toddtreece/orgs",
    "repos_url": "https://api.github.com/users/toddtreece/repos",
    "events_url": "https://api.github.com/users/toddtreece/events{/privacy}",
    "received_events_url": "https://api.github.com/users/toddtreece/received_events",
    "type": "User",
    "site_admin": false
  },
  "created_at": "2015-12-30T16:46:20Z",
  "updated_at": "2015-12-30T16:46:20Z",
  "body": "can you paste in the output of this for me:\r\n```sh\r\n$ cat /etc/debian_version\r\n```\r\n\r\nmy guess is that you need to edit `/etc/apt/sources.list` with your favorite text editor and replace this line:\r\n```\r\ndeb http://apt.adafruit.com/raspbian/ wheezy main\r\n```\r\n\r\nwith this one:\r\n```\r\ndeb http://apt.adafruit.com/raspbian/ jessie main\r\n```\r\n\r\nand then try:\r\n```sh\r\n$ sudo apt-get update\r\n```"
}
, {
  "url": "https://api.github.com/repos/adafruit/Adafruit-PiTFT-Helper/issues/comments/176478933",
  "html_url": "https://github.com/adafruit/Adafruit-PiTFT-Helper/issues/10#issuecomment-176478933",
  "issue_url": "https://api.github.com/repos/adafruit/Adafruit-PiTFT-Helper/issues/10",
  "id": 176478933,
  "user": {
    "login": "arormoser",
    "id": 8503100,
    "avatar_url": "https://avatars.githubusercontent.com/u/8503100?v=3",
    "gravatar_id": "",
    "url": "https://api.github.com/users/arormoser",
    "html_url": "https://github.com/arormoser",
    "followers_url": "https://api.github.com/users/arormoser/followers",
    "following_url": "https://api.github.com/users/arormoser/following{/other_user}",
    "gists_url": "https://api.github.com/users/arormoser/gists{/gist_id}",
    "starred_url": "https://api.github.com/users/arormoser/starred{/owner}{/repo}",
    "subscriptions_url": "https://api.github.com/users/arormoser/subscriptions",
    "organizations_url": "https://api.github.com/users/arormoser/orgs",
    "repos_url": "https://api.github.com/users/arormoser/repos",
    "events_url": "https://api.github.com/users/arormoser/events{/privacy}",
    "received_events_url": "https://api.github.com/users/arormoser/received_events",
    "type": "User",
    "site_admin": false
  },
  "created_at": "2016-01-28T23:27:16Z",
  "updated_at": "2016-01-28T23:27:16Z",
  "body": "Same error here. Raspberry B+ with latest version of Kali. Not working. I tried changing sources for deb http://apt.adafruit.com/raspbian/ jessie main and got the same error:\r\n\r\nW: Failed to fetch http://apt.adafruit.com/raspbian/dists/jessie/InRelease  Unable to find expected entry 'main/binary-armel/Packages' in Release file (Wrong sources.list entry or malformed file)\r\n\r\nE: Some index files failed to download. They have been ignored, or old ones used instead.\r\n"
}
]
