[
{
  "url": "https://api.github.com/repos/github/government.github.com/issues/comments/26395277",
  "html_url": "https://github.com/github/government.github.com/pull/40#issuecomment-26395277",
  "issue_url": "https://api.github.com/repos/github/government.github.com/issues/40",
  "id": 26395277,
  "user": {
    "login": "afeld",
    "id": 86842,
    "avatar_url": "https://avatars.githubusercontent.com/u/86842?v=3",
    "gravatar_id": "",
    "url": "https://api.github.com/users/afeld",
    "html_url": "https://github.com/afeld",
    "followers_url": "https://api.github.com/users/afeld/followers",
    "following_url": "https://api.github.com/users/afeld/following{/other_user}",
    "gists_url": "https://api.github.com/users/afeld/gists{/gist_id}",
    "starred_url": "https://api.github.com/users/afeld/starred{/owner}{/repo}",
    "subscriptions_url": "https://api.github.com/users/afeld/subscriptions",
    "organizations_url": "https://api.github.com/users/afeld/orgs",
    "repos_url": "https://api.github.com/users/afeld/repos",
    "events_url": "https://api.github.com/users/afeld/events{/privacy}",
    "received_events_url": "https://api.github.com/users/afeld/received_events",
    "type": "User",
    "site_admin": false
  },
  "created_at": "2013-10-16T06:20:21Z",
  "updated_at": "2013-10-16T06:20:21Z",
  "body": "Interesting... from a quick glance, it seems that http://ogpl.gov.in/ and http://opengovplatform.org/ are the same site under different domains?"
}
, {
  "url": "https://api.github.com/repos/github/government.github.com/issues/comments/26395481",
  "html_url": "https://github.com/github/government.github.com/pull/40#issuecomment-26395481",
  "issue_url": "https://api.github.com/repos/github/government.github.com/issues/40",
  "id": 26395481,
  "user": {
    "login": "afeld",
    "id": 86842,
    "avatar_url": "https://avatars.githubusercontent.com/u/86842?v=3",
    "gravatar_id": "",
    "url": "https://api.github.com/users/afeld",
    "html_url": "https://github.com/afeld",
    "followers_url": "https://api.github.com/users/afeld/followers",
    "following_url": "https://api.github.com/users/afeld/following{/other_user}",
    "gists_url": "https://api.github.com/users/afeld/gists{/gist_id}",
    "starred_url": "https://api.github.com/users/afeld/starred{/owner}{/repo}",
    "subscriptions_url": "https://api.github.com/users/afeld/subscriptions",
    "organizations_url": "https://api.github.com/users/afeld/orgs",
    "repos_url": "https://api.github.com/users/afeld/repos",
    "events_url": "https://api.github.com/users/afeld/events{/privacy}",
    "received_events_url": "https://api.github.com/users/afeld/received_events",
    "type": "User",
    "site_admin": false
  },
  "created_at": "2013-10-16T06:26:58Z",
  "updated_at": "2013-10-16T06:26:58Z",
  "body": "/cc a couple random people from their contributor pages who might be able to give more insight on the distinction: @pjackson28 @subhransusekhar\r\n\r\nI don't think having duplicates in the list is helpful, though it seems like the repositories are separate.  Probably good feedback that the relationship between the two organizations is confusing, though :wink: "
}
, {
  "url": "https://api.github.com/repos/github/government.github.com/issues/comments/26396938",
  "html_url": "https://github.com/github/government.github.com/pull/40#issuecomment-26396938",
  "issue_url": "https://api.github.com/repos/github/government.github.com/issues/40",
  "id": 26396938,
  "user": {
    "login": "pjackson28",
    "id": 1326498,
    "avatar_url": "https://avatars.githubusercontent.com/u/1326498?v=3",
    "gravatar_id": "",
    "url": "https://api.github.com/users/pjackson28",
    "html_url": "https://github.com/pjackson28",
    "followers_url": "https://api.github.com/users/pjackson28/followers",
    "following_url": "https://api.github.com/users/pjackson28/following{/other_user}",
    "gists_url": "https://api.github.com/users/pjackson28/gists{/gist_id}",
    "starred_url": "https://api.github.com/users/pjackson28/starred{/owner}{/repo}",
    "subscriptions_url": "https://api.github.com/users/pjackson28/subscriptions",
    "organizations_url": "https://api.github.com/users/pjackson28/orgs",
    "repos_url": "https://api.github.com/users/pjackson28/repos",
    "events_url": "https://api.github.com/users/pjackson28/events{/privacy}",
    "received_events_url": "https://api.github.com/users/pjackson28/received_events",
    "type": "User",
    "site_admin": false
  },
  "created_at": "2013-10-16T07:05:44Z",
  "updated_at": "2013-10-16T07:05:44Z",
  "body": "https://github.com/opengovplatform and https://github.com/ogpl are associated but different. Essentially https://github.com/ogpl is seeking to bridge the various projects associated to OGPL (Open Government Platform) whereas https://github.com/opengovplatform is one of the associated projects.\r\n\r\nAs for http://ogpl.gov.in and http://opengovplatform.org, I believe they are the same site with different domains. Much like with https://github.com/opengovplatform, http://opengovplatform.org/ and http://ogpl.gov.in are associated to https://github.com/ogpl but are different as well (they predate https://github.com/ogpl which will have http://ogpl.github.io for its site)."
}
, {
  "url": "https://api.github.com/repos/github/government.github.com/issues/comments/26398848",
  "html_url": "https://github.com/github/government.github.com/pull/40#issuecomment-26398848",
  "issue_url": "https://api.github.com/repos/github/government.github.com/issues/40",
  "id": 26398848,
  "user": {
    "login": "afeld",
    "id": 86842,
    "avatar_url": "https://avatars.githubusercontent.com/u/86842?v=3",
    "gravatar_id": "",
    "url": "https://api.github.com/users/afeld",
    "html_url": "https://github.com/afeld",
    "followers_url": "https://api.github.com/users/afeld/followers",
    "following_url": "https://api.github.com/users/afeld/following{/other_user}",
    "gists_url": "https://api.github.com/users/afeld/gists{/gist_id}",
    "starred_url": "https://api.github.com/users/afeld/starred{/owner}{/repo}",
    "subscriptions_url": "https://api.github.com/users/afeld/subscriptions",
    "organizations_url": "https://api.github.com/users/afeld/orgs",
    "repos_url": "https://api.github.com/users/afeld/repos",
    "events_url": "https://api.github.com/users/afeld/events{/privacy}",
    "received_events_url": "https://api.github.com/users/afeld/received_events",
    "type": "User",
    "site_admin": false
  },
  "created_at": "2013-10-16T07:51:55Z",
  "updated_at": "2013-10-16T07:51:55Z",
  "body": "@pjackson28 Thanks for the explanation! I'm still a bit confused about the relationships of the various sites/orgs, but that's beside the point :wink: "
}
]
