[
{
  "url": "https://api.github.com/repos/github/government.github.com/issues/comments/26458974",
  "html_url": "https://github.com/github/government.github.com/pull/77#issuecomment-26458974",
  "issue_url": "https://api.github.com/repos/github/government.github.com/issues/77",
  "id": 26458974,
  "user": {
    "login": "jlord",
    "id": 1305617,
    "avatar_url": "https://avatars.githubusercontent.com/u/1305617?v=3",
    "gravatar_id": "",
    "url": "https://api.github.com/users/jlord",
    "html_url": "https://github.com/jlord",
    "followers_url": "https://api.github.com/users/jlord/followers",
    "following_url": "https://api.github.com/users/jlord/following{/other_user}",
    "gists_url": "https://api.github.com/users/jlord/gists{/gist_id}",
    "starred_url": "https://api.github.com/users/jlord/starred{/owner}{/repo}",
    "subscriptions_url": "https://api.github.com/users/jlord/subscriptions",
    "organizations_url": "https://api.github.com/users/jlord/orgs",
    "repos_url": "https://api.github.com/users/jlord/repos",
    "events_url": "https://api.github.com/users/jlord/events{/privacy}",
    "received_events_url": "https://api.github.com/users/jlord/received_events",
    "type": "User",
    "site_admin": true
  },
  "created_at": "2013-10-16T21:12:21Z",
  "updated_at": "2013-10-16T21:12:21Z",
  "body": "Whhooops! Thanks @bleikamp!"
}
]
