[
{
  "url": "https://api.github.com/repos/alibaba/RocketMQ/issues/comments/101117324",
  "html_url": "https://github.com/alibaba/RocketMQ/issues/100#issuecomment-101117324",
  "issue_url": "https://api.github.com/repos/alibaba/RocketMQ/issues/100",
  "id": 101117324,
  "user": {
    "login": "vongosling",
    "id": 635581,
    "avatar_url": "https://avatars.githubusercontent.com/u/635581?v=3",
    "gravatar_id": "",
    "url": "https://api.github.com/users/vongosling",
    "html_url": "https://github.com/vongosling",
    "followers_url": "https://api.github.com/users/vongosling/followers",
    "following_url": "https://api.github.com/users/vongosling/following{/other_user}",
    "gists_url": "https://api.github.com/users/vongosling/gists{/gist_id}",
    "starred_url": "https://api.github.com/users/vongosling/starred{/owner}{/repo}",
    "subscriptions_url": "https://api.github.com/users/vongosling/subscriptions",
    "organizations_url": "https://api.github.com/users/vongosling/orgs",
    "repos_url": "https://api.github.com/users/vongosling/repos",
    "events_url": "https://api.github.com/users/vongosling/events{/privacy}",
    "received_events_url": "https://api.github.com/users/vongosling/received_events",
    "type": "User",
    "site_admin": false
  },
  "created_at": "2015-05-12T03:40:20Z",
  "updated_at": "2015-05-12T03:40:20Z",
  "body": "Netty4 and Netty5 didn’t seem to be co-exist.so, in case of some unknown errors,you‘d better return to netty4"
}
, {
  "url": "https://api.github.com/repos/alibaba/RocketMQ/issues/comments/101117445",
  "html_url": "https://github.com/alibaba/RocketMQ/issues/100#issuecomment-101117445",
  "issue_url": "https://api.github.com/repos/alibaba/RocketMQ/issues/100",
  "id": 101117445,
  "user": {
    "login": "xiaolongyuan",
    "id": 3142363,
    "avatar_url": "https://avatars.githubusercontent.com/u/3142363?v=3",
    "gravatar_id": "",
    "url": "https://api.github.com/users/xiaolongyuan",
    "html_url": "https://github.com/xiaolongyuan",
    "followers_url": "https://api.github.com/users/xiaolongyuan/followers",
    "following_url": "https://api.github.com/users/xiaolongyuan/following{/other_user}",
    "gists_url": "https://api.github.com/users/xiaolongyuan/gists{/gist_id}",
    "starred_url": "https://api.github.com/users/xiaolongyuan/starred{/owner}{/repo}",
    "subscriptions_url": "https://api.github.com/users/xiaolongyuan/subscriptions",
    "organizations_url": "https://api.github.com/users/xiaolongyuan/orgs",
    "repos_url": "https://api.github.com/users/xiaolongyuan/repos",
    "events_url": "https://api.github.com/users/xiaolongyuan/events{/privacy}",
    "received_events_url": "https://api.github.com/users/xiaolongyuan/received_events",
    "type": "User",
    "site_admin": false
  },
  "created_at": "2015-05-12T03:42:05Z",
  "updated_at": "2015-05-12T03:42:05Z",
  "body": "是的 切回 netty4 就可以运行了，谢谢"
}
, {
  "url": "https://api.github.com/repos/alibaba/RocketMQ/issues/comments/101139787",
  "html_url": "https://github.com/alibaba/RocketMQ/issues/100#issuecomment-101139787",
  "issue_url": "https://api.github.com/repos/alibaba/RocketMQ/issues/100",
  "id": 101139787,
  "user": {
    "login": "vintagewang",
    "id": 1527648,
    "avatar_url": "https://avatars.githubusercontent.com/u/1527648?v=3",
    "gravatar_id": "",
    "url": "https://api.github.com/users/vintagewang",
    "html_url": "https://github.com/vintagewang",
    "followers_url": "https://api.github.com/users/vintagewang/followers",
    "following_url": "https://api.github.com/users/vintagewang/following{/other_user}",
    "gists_url": "https://api.github.com/users/vintagewang/gists{/gist_id}",
    "starred_url": "https://api.github.com/users/vintagewang/starred{/owner}{/repo}",
    "subscriptions_url": "https://api.github.com/users/vintagewang/subscriptions",
    "organizations_url": "https://api.github.com/users/vintagewang/orgs",
    "repos_url": "https://api.github.com/users/vintagewang/repos",
    "events_url": "https://api.github.com/users/vintagewang/events{/privacy}",
    "received_events_url": "https://api.github.com/users/vintagewang/received_events",
    "type": "User",
    "site_admin": false
  },
  "created_at": "2015-05-12T05:43:07Z",
  "updated_at": "2015-05-12T05:43:07Z",
  "body": "@xiaolongyuan   恩   现在netty 4和5  兼容性不够好， 目前还没有更好的方式能解决， netty5还处于beta阶段， 不建议使用。 "
}
, {
  "url": "https://api.github.com/repos/alibaba/RocketMQ/issues/comments/101150491",
  "html_url": "https://github.com/alibaba/RocketMQ/issues/100#issuecomment-101150491",
  "issue_url": "https://api.github.com/repos/alibaba/RocketMQ/issues/100",
  "id": 101150491,
  "user": {
    "login": "xiaolongyuan",
    "id": 3142363,
    "avatar_url": "https://avatars.githubusercontent.com/u/3142363?v=3",
    "gravatar_id": "",
    "url": "https://api.github.com/users/xiaolongyuan",
    "html_url": "https://github.com/xiaolongyuan",
    "followers_url": "https://api.github.com/users/xiaolongyuan/followers",
    "following_url": "https://api.github.com/users/xiaolongyuan/following{/other_user}",
    "gists_url": "https://api.github.com/users/xiaolongyuan/gists{/gist_id}",
    "starred_url": "https://api.github.com/users/xiaolongyuan/starred{/owner}{/repo}",
    "subscriptions_url": "https://api.github.com/users/xiaolongyuan/subscriptions",
    "organizations_url": "https://api.github.com/users/xiaolongyuan/orgs",
    "repos_url": "https://api.github.com/users/xiaolongyuan/repos",
    "events_url": "https://api.github.com/users/xiaolongyuan/events{/privacy}",
    "received_events_url": "https://api.github.com/users/xiaolongyuan/received_events",
    "type": "User",
    "site_admin": false
  },
  "created_at": "2015-05-12T06:29:31Z",
  "updated_at": "2015-05-12T06:29:31Z",
  "body": "阿里 ons 使用 例如 java的sdk ons-example 有文档么"
}
, {
  "url": "https://api.github.com/repos/alibaba/RocketMQ/issues/comments/101166776",
  "html_url": "https://github.com/alibaba/RocketMQ/issues/100#issuecomment-101166776",
  "issue_url": "https://api.github.com/repos/alibaba/RocketMQ/issues/100",
  "id": 101166776,
  "user": {
    "login": "vintagewang",
    "id": 1527648,
    "avatar_url": "https://avatars.githubusercontent.com/u/1527648?v=3",
    "gravatar_id": "",
    "url": "https://api.github.com/users/vintagewang",
    "html_url": "https://github.com/vintagewang",
    "followers_url": "https://api.github.com/users/vintagewang/followers",
    "following_url": "https://api.github.com/users/vintagewang/following{/other_user}",
    "gists_url": "https://api.github.com/users/vintagewang/gists{/gist_id}",
    "starred_url": "https://api.github.com/users/vintagewang/starred{/owner}{/repo}",
    "subscriptions_url": "https://api.github.com/users/vintagewang/subscriptions",
    "organizations_url": "https://api.github.com/users/vintagewang/orgs",
    "repos_url": "https://api.github.com/users/vintagewang/repos",
    "events_url": "https://api.github.com/users/vintagewang/events{/privacy}",
    "received_events_url": "https://api.github.com/users/vintagewang/received_events",
    "type": "User",
    "site_admin": false
  },
  "created_at": "2015-05-12T07:32:42Z",
  "updated_at": "2015-05-12T07:33:01Z",
  "body": "http://docs.aliyun.com/?spm=5176.7400025.9.6.W5F6Ap#/ons/quick-start/send\r\n\r\n参考以上文档。"
}
]
