[
{
  "url": "https://api.github.com/repos/yahoo/pure-site/issues/comments/21262822",
  "html_url": "https://github.com/yahoo/pure-site/issues/139#issuecomment-21262822",
  "issue_url": "https://api.github.com/repos/yahoo/pure-site/issues/139",
  "id": 21262822,
  "user": {
    "login": "ericf",
    "id": 29096,
    "avatar_url": "https://avatars.githubusercontent.com/u/29096?v=3",
    "gravatar_id": "",
    "url": "https://api.github.com/users/ericf",
    "html_url": "https://github.com/ericf",
    "followers_url": "https://api.github.com/users/ericf/followers",
    "following_url": "https://api.github.com/users/ericf/following{/other_user}",
    "gists_url": "https://api.github.com/users/ericf/gists{/gist_id}",
    "starred_url": "https://api.github.com/users/ericf/starred{/owner}{/repo}",
    "subscriptions_url": "https://api.github.com/users/ericf/subscriptions",
    "organizations_url": "https://api.github.com/users/ericf/orgs",
    "repos_url": "https://api.github.com/users/ericf/repos",
    "events_url": "https://api.github.com/users/ericf/events{/privacy}",
    "received_events_url": "https://api.github.com/users/ericf/received_events",
    "type": "User",
    "site_admin": false
  },
  "created_at": "2013-07-19T17:04:51Z",
  "updated_at": "2013-07-19T17:04:51Z",
  "body": "I think we'd want to do something like this, but I don't know of any larger websites which are using Pure that have launched."
}
, {
  "url": "https://api.github.com/repos/yahoo/pure-site/issues/comments/21288392",
  "html_url": "https://github.com/yahoo/pure-site/issues/139#issuecomment-21288392",
  "issue_url": "https://api.github.com/repos/yahoo/pure-site/issues/139",
  "id": 21288392,
  "user": {
    "login": "kureikain",
    "id": 49754,
    "avatar_url": "https://avatars.githubusercontent.com/u/49754?v=3",
    "gravatar_id": "",
    "url": "https://api.github.com/users/kureikain",
    "html_url": "https://github.com/kureikain",
    "followers_url": "https://api.github.com/users/kureikain/followers",
    "following_url": "https://api.github.com/users/kureikain/following{/other_user}",
    "gists_url": "https://api.github.com/users/kureikain/gists{/gist_id}",
    "starred_url": "https://api.github.com/users/kureikain/starred{/owner}{/repo}",
    "subscriptions_url": "https://api.github.com/users/kureikain/subscriptions",
    "organizations_url": "https://api.github.com/users/kureikain/orgs",
    "repos_url": "https://api.github.com/users/kureikain/repos",
    "events_url": "https://api.github.com/users/kureikain/events{/privacy}",
    "received_events_url": "https://api.github.com/users/kureikain/received_events",
    "type": "User",
    "site_admin": false
  },
  "created_at": "2013-07-20T05:08:47Z",
  "updated_at": "2013-07-20T05:08:47Z",
  "body": "While we may have nothing to display there. How about making a simple nodejs stuff, so anyone can just send a PR that include a JSON file to define their site and automatically get display on purewebsite? the JSON file can include site name, small thumbnail, big thumbnail, short description.\r\n\r\n"
}
, {
  "url": "https://api.github.com/repos/yahoo/pure-site/issues/comments/21302215",
  "html_url": "https://github.com/yahoo/pure-site/issues/139#issuecomment-21302215",
  "issue_url": "https://api.github.com/repos/yahoo/pure-site/issues/139",
  "id": 21302215,
  "user": {
    "login": "ericf",
    "id": 29096,
    "avatar_url": "https://avatars.githubusercontent.com/u/29096?v=3",
    "gravatar_id": "",
    "url": "https://api.github.com/users/ericf",
    "html_url": "https://github.com/ericf",
    "followers_url": "https://api.github.com/users/ericf/followers",
    "following_url": "https://api.github.com/users/ericf/following{/other_user}",
    "gists_url": "https://api.github.com/users/ericf/gists{/gist_id}",
    "starred_url": "https://api.github.com/users/ericf/starred{/owner}{/repo}",
    "subscriptions_url": "https://api.github.com/users/ericf/subscriptions",
    "organizations_url": "https://api.github.com/users/ericf/orgs",
    "repos_url": "https://api.github.com/users/ericf/repos",
    "events_url": "https://api.github.com/users/ericf/events{/privacy}",
    "received_events_url": "https://api.github.com/users/ericf/received_events",
    "type": "User",
    "site_admin": false
  },
  "created_at": "2013-07-20T23:20:03Z",
  "updated_at": "2013-07-20T23:20:03Z",
  "body": "@kureikain yeah that sounds like a good idea. Probably YAML though so it's easier to read."
}
, {
  "url": "https://api.github.com/repos/yahoo/pure-site/issues/comments/21303346",
  "html_url": "https://github.com/yahoo/pure-site/issues/139#issuecomment-21303346",
  "issue_url": "https://api.github.com/repos/yahoo/pure-site/issues/139",
  "id": 21303346,
  "user": {
    "login": "tilomitra",
    "id": 174783,
    "avatar_url": "https://avatars.githubusercontent.com/u/174783?v=3",
    "gravatar_id": "",
    "url": "https://api.github.com/users/tilomitra",
    "html_url": "https://github.com/tilomitra",
    "followers_url": "https://api.github.com/users/tilomitra/followers",
    "following_url": "https://api.github.com/users/tilomitra/following{/other_user}",
    "gists_url": "https://api.github.com/users/tilomitra/gists{/gist_id}",
    "starred_url": "https://api.github.com/users/tilomitra/starred{/owner}{/repo}",
    "subscriptions_url": "https://api.github.com/users/tilomitra/subscriptions",
    "organizations_url": "https://api.github.com/users/tilomitra/orgs",
    "repos_url": "https://api.github.com/users/tilomitra/repos",
    "events_url": "https://api.github.com/users/tilomitra/events{/privacy}",
    "received_events_url": "https://api.github.com/users/tilomitra/received_events",
    "type": "User",
    "site_admin": false
  },
  "created_at": "2013-07-21T01:19:17Z",
  "updated_at": "2013-07-21T01:19:17Z",
  "body": "@kureikain @ericf I'm not sure. I think the goal of having a website showcase page is to highlight specific implementations which we think have done an outstanding job of writing their application CSS on top of Pure. There's a certain amount of \"beauty\" that a website needs to be featured there. I don't really think it's worth it to open it up to just anyone building on top of Pure."
}
, {
  "url": "https://api.github.com/repos/yahoo/pure-site/issues/comments/21305015",
  "html_url": "https://github.com/yahoo/pure-site/issues/139#issuecomment-21305015",
  "issue_url": "https://api.github.com/repos/yahoo/pure-site/issues/139",
  "id": 21305015,
  "user": {
    "login": "kureikain",
    "id": 49754,
    "avatar_url": "https://avatars.githubusercontent.com/u/49754?v=3",
    "gravatar_id": "",
    "url": "https://api.github.com/users/kureikain",
    "html_url": "https://github.com/kureikain",
    "followers_url": "https://api.github.com/users/kureikain/followers",
    "following_url": "https://api.github.com/users/kureikain/following{/other_user}",
    "gists_url": "https://api.github.com/users/kureikain/gists{/gist_id}",
    "starred_url": "https://api.github.com/users/kureikain/starred{/owner}{/repo}",
    "subscriptions_url": "https://api.github.com/users/kureikain/subscriptions",
    "organizations_url": "https://api.github.com/users/kureikain/orgs",
    "repos_url": "https://api.github.com/users/kureikain/repos",
    "events_url": "https://api.github.com/users/kureikain/events{/privacy}",
    "received_events_url": "https://api.github.com/users/kureikain/received_events",
    "type": "User",
    "site_admin": false
  },
  "created_at": "2013-07-21T04:31:06Z",
  "updated_at": "2013-07-21T04:31:06Z",
  "body": "@tilomitra @ericf I understand tilomitra concern. However, IMO, knowing somebody else in the world is using it in production surely make people willing to use Purecss. If calling \"show case\" sounds sensitive, we may change it to \"Who are using Pure\"?"
}
, {
  "url": "https://api.github.com/repos/yahoo/pure-site/issues/comments/21307723",
  "html_url": "https://github.com/yahoo/pure-site/issues/139#issuecomment-21307723",
  "issue_url": "https://api.github.com/repos/yahoo/pure-site/issues/139",
  "id": 21307723,
  "user": {
    "login": "AurelioDeRosa",
    "id": 1430979,
    "avatar_url": "https://avatars.githubusercontent.com/u/1430979?v=3",
    "gravatar_id": "",
    "url": "https://api.github.com/users/AurelioDeRosa",
    "html_url": "https://github.com/AurelioDeRosa",
    "followers_url": "https://api.github.com/users/AurelioDeRosa/followers",
    "following_url": "https://api.github.com/users/AurelioDeRosa/following{/other_user}",
    "gists_url": "https://api.github.com/users/AurelioDeRosa/gists{/gist_id}",
    "starred_url": "https://api.github.com/users/AurelioDeRosa/starred{/owner}{/repo}",
    "subscriptions_url": "https://api.github.com/users/AurelioDeRosa/subscriptions",
    "organizations_url": "https://api.github.com/users/AurelioDeRosa/orgs",
    "repos_url": "https://api.github.com/users/AurelioDeRosa/repos",
    "events_url": "https://api.github.com/users/AurelioDeRosa/events{/privacy}",
    "received_events_url": "https://api.github.com/users/AurelioDeRosa/received_events",
    "type": "User",
    "site_admin": false
  },
  "created_at": "2013-07-21T09:56:43Z",
  "updated_at": "2013-07-21T09:56:43Z",
  "body": "My original idea was according to @tilomitra. The idea of @kureikain isn't bad at all, but I'd like to separate the showcase from the websites' using Pure directory."
}
, {
  "url": "https://api.github.com/repos/yahoo/pure-site/issues/comments/21388189",
  "html_url": "https://github.com/yahoo/pure-site/issues/139#issuecomment-21388189",
  "issue_url": "https://api.github.com/repos/yahoo/pure-site/issues/139",
  "id": 21388189,
  "user": {
    "login": "ericf",
    "id": 29096,
    "avatar_url": "https://avatars.githubusercontent.com/u/29096?v=3",
    "gravatar_id": "",
    "url": "https://api.github.com/users/ericf",
    "html_url": "https://github.com/ericf",
    "followers_url": "https://api.github.com/users/ericf/followers",
    "following_url": "https://api.github.com/users/ericf/following{/other_user}",
    "gists_url": "https://api.github.com/users/ericf/gists{/gist_id}",
    "starred_url": "https://api.github.com/users/ericf/starred{/owner}{/repo}",
    "subscriptions_url": "https://api.github.com/users/ericf/subscriptions",
    "organizations_url": "https://api.github.com/users/ericf/orgs",
    "repos_url": "https://api.github.com/users/ericf/repos",
    "events_url": "https://api.github.com/users/ericf/events{/privacy}",
    "received_events_url": "https://api.github.com/users/ericf/received_events",
    "type": "User",
    "site_admin": false
  },
  "created_at": "2013-07-23T01:41:53Z",
  "updated_at": "2013-07-23T01:41:53Z",
  "body": "We should probably test the waters on this by putting some call to action on the home page, something to the effect of:\r\n\r\n\"Using Pure on your web site or app? Let us know: info@purecss.io\""
}
, {
  "url": "https://api.github.com/repos/yahoo/pure-site/issues/comments/21418661",
  "html_url": "https://github.com/yahoo/pure-site/issues/139#issuecomment-21418661",
  "issue_url": "https://api.github.com/repos/yahoo/pure-site/issues/139",
  "id": 21418661,
  "user": {
    "login": "AurelioDeRosa",
    "id": 1430979,
    "avatar_url": "https://avatars.githubusercontent.com/u/1430979?v=3",
    "gravatar_id": "",
    "url": "https://api.github.com/users/AurelioDeRosa",
    "html_url": "https://github.com/AurelioDeRosa",
    "followers_url": "https://api.github.com/users/AurelioDeRosa/followers",
    "following_url": "https://api.github.com/users/AurelioDeRosa/following{/other_user}",
    "gists_url": "https://api.github.com/users/AurelioDeRosa/gists{/gist_id}",
    "starred_url": "https://api.github.com/users/AurelioDeRosa/starred{/owner}{/repo}",
    "subscriptions_url": "https://api.github.com/users/AurelioDeRosa/subscriptions",
    "organizations_url": "https://api.github.com/users/AurelioDeRosa/orgs",
    "repos_url": "https://api.github.com/users/AurelioDeRosa/repos",
    "events_url": "https://api.github.com/users/AurelioDeRosa/events{/privacy}",
    "received_events_url": "https://api.github.com/users/AurelioDeRosa/received_events",
    "type": "User",
    "site_admin": false
  },
  "created_at": "2013-07-23T14:41:04Z",
  "updated_at": "2013-07-23T14:41:04Z",
  "body": "I agree with @ericf "
}
, {
  "url": "https://api.github.com/repos/yahoo/pure-site/issues/comments/21643674",
  "html_url": "https://github.com/yahoo/pure-site/issues/139#issuecomment-21643674",
  "issue_url": "https://api.github.com/repos/yahoo/pure-site/issues/139",
  "id": 21643674,
  "user": {
    "login": "tilomitra",
    "id": 174783,
    "avatar_url": "https://avatars.githubusercontent.com/u/174783?v=3",
    "gravatar_id": "",
    "url": "https://api.github.com/users/tilomitra",
    "html_url": "https://github.com/tilomitra",
    "followers_url": "https://api.github.com/users/tilomitra/followers",
    "following_url": "https://api.github.com/users/tilomitra/following{/other_user}",
    "gists_url": "https://api.github.com/users/tilomitra/gists{/gist_id}",
    "starred_url": "https://api.github.com/users/tilomitra/starred{/owner}{/repo}",
    "subscriptions_url": "https://api.github.com/users/tilomitra/subscriptions",
    "organizations_url": "https://api.github.com/users/tilomitra/orgs",
    "repos_url": "https://api.github.com/users/tilomitra/repos",
    "events_url": "https://api.github.com/users/tilomitra/events{/privacy}",
    "received_events_url": "https://api.github.com/users/tilomitra/received_events",
    "type": "User",
    "site_admin": false
  },
  "created_at": "2013-07-26T19:42:36Z",
  "updated_at": "2013-07-26T19:42:36Z",
  "body": "Me too! "
}
, {
  "url": "https://api.github.com/repos/yahoo/pure-site/issues/comments/21643787",
  "html_url": "https://github.com/yahoo/pure-site/issues/139#issuecomment-21643787",
  "issue_url": "https://api.github.com/repos/yahoo/pure-site/issues/139",
  "id": 21643787,
  "user": {
    "login": "rictorres",
    "id": 351568,
    "avatar_url": "https://avatars.githubusercontent.com/u/351568?v=3",
    "gravatar_id": "",
    "url": "https://api.github.com/users/rictorres",
    "html_url": "https://github.com/rictorres",
    "followers_url": "https://api.github.com/users/rictorres/followers",
    "following_url": "https://api.github.com/users/rictorres/following{/other_user}",
    "gists_url": "https://api.github.com/users/rictorres/gists{/gist_id}",
    "starred_url": "https://api.github.com/users/rictorres/starred{/owner}{/repo}",
    "subscriptions_url": "https://api.github.com/users/rictorres/subscriptions",
    "organizations_url": "https://api.github.com/users/rictorres/orgs",
    "repos_url": "https://api.github.com/users/rictorres/repos",
    "events_url": "https://api.github.com/users/rictorres/events{/privacy}",
    "received_events_url": "https://api.github.com/users/rictorres/received_events",
    "type": "User",
    "site_admin": false
  },
  "created_at": "2013-07-26T19:44:39Z",
  "updated_at": "2013-07-26T19:50:00Z",
  "body": "So do I ;)\r\n\r\nActually, I've finished a project's prototype last Tuesday. It's based on Pure's website: http://agenciagira.com.br/expose/\r\nIt's really simple, though. Not sure if it gives any credibility to Pure...\r\n\r\nPS: Please don't check the source code, it looks awful at the moment."
}
, {
  "url": "https://api.github.com/repos/yahoo/pure-site/issues/comments/24413163",
  "html_url": "https://github.com/yahoo/pure-site/issues/139#issuecomment-24413163",
  "issue_url": "https://api.github.com/repos/yahoo/pure-site/issues/139",
  "id": 24413163,
  "user": {
    "login": "AurelioDeRosa",
    "id": 1430979,
    "avatar_url": "https://avatars.githubusercontent.com/u/1430979?v=3",
    "gravatar_id": "",
    "url": "https://api.github.com/users/AurelioDeRosa",
    "html_url": "https://github.com/AurelioDeRosa",
    "followers_url": "https://api.github.com/users/AurelioDeRosa/followers",
    "following_url": "https://api.github.com/users/AurelioDeRosa/following{/other_user}",
    "gists_url": "https://api.github.com/users/AurelioDeRosa/gists{/gist_id}",
    "starred_url": "https://api.github.com/users/AurelioDeRosa/starred{/owner}{/repo}",
    "subscriptions_url": "https://api.github.com/users/AurelioDeRosa/subscriptions",
    "organizations_url": "https://api.github.com/users/AurelioDeRosa/orgs",
    "repos_url": "https://api.github.com/users/AurelioDeRosa/repos",
    "events_url": "https://api.github.com/users/AurelioDeRosa/events{/privacy}",
    "received_events_url": "https://api.github.com/users/AurelioDeRosa/received_events",
    "type": "User",
    "site_admin": false
  },
  "created_at": "2013-09-13T18:04:05Z",
  "updated_at": "2013-09-13T18:04:05Z",
  "body": "What's the decision about the showcase?"
}
, {
  "url": "https://api.github.com/repos/yahoo/pure-site/issues/comments/24459015",
  "html_url": "https://github.com/yahoo/pure-site/issues/139#issuecomment-24459015",
  "issue_url": "https://api.github.com/repos/yahoo/pure-site/issues/139",
  "id": 24459015,
  "user": {
    "login": "ericf",
    "id": 29096,
    "avatar_url": "https://avatars.githubusercontent.com/u/29096?v=3",
    "gravatar_id": "",
    "url": "https://api.github.com/users/ericf",
    "html_url": "https://github.com/ericf",
    "followers_url": "https://api.github.com/users/ericf/followers",
    "following_url": "https://api.github.com/users/ericf/following{/other_user}",
    "gists_url": "https://api.github.com/users/ericf/gists{/gist_id}",
    "starred_url": "https://api.github.com/users/ericf/starred{/owner}{/repo}",
    "subscriptions_url": "https://api.github.com/users/ericf/subscriptions",
    "organizations_url": "https://api.github.com/users/ericf/orgs",
    "repos_url": "https://api.github.com/users/ericf/repos",
    "events_url": "https://api.github.com/users/ericf/events{/privacy}",
    "received_events_url": "https://api.github.com/users/ericf/received_events",
    "type": "User",
    "site_admin": false
  },
  "created_at": "2013-09-14T20:57:54Z",
  "updated_at": "2013-09-14T20:57:54Z",
  "body": "@AurelioDeRosa I'll have to look into how we want to setup email for Pure's domain. But I think the best thing to do for now is to ask people to submit posts to the blog: http://blog.purecss.io/submit"
}
, {
  "url": "https://api.github.com/repos/yahoo/pure-site/issues/comments/24517807",
  "html_url": "https://github.com/yahoo/pure-site/issues/139#issuecomment-24517807",
  "issue_url": "https://api.github.com/repos/yahoo/pure-site/issues/139",
  "id": 24517807,
  "user": {
    "login": "tilomitra",
    "id": 174783,
    "avatar_url": "https://avatars.githubusercontent.com/u/174783?v=3",
    "gravatar_id": "",
    "url": "https://api.github.com/users/tilomitra",
    "html_url": "https://github.com/tilomitra",
    "followers_url": "https://api.github.com/users/tilomitra/followers",
    "following_url": "https://api.github.com/users/tilomitra/following{/other_user}",
    "gists_url": "https://api.github.com/users/tilomitra/gists{/gist_id}",
    "starred_url": "https://api.github.com/users/tilomitra/starred{/owner}{/repo}",
    "subscriptions_url": "https://api.github.com/users/tilomitra/subscriptions",
    "organizations_url": "https://api.github.com/users/tilomitra/orgs",
    "repos_url": "https://api.github.com/users/tilomitra/repos",
    "events_url": "https://api.github.com/users/tilomitra/events{/privacy}",
    "received_events_url": "https://api.github.com/users/tilomitra/received_events",
    "type": "User",
    "site_admin": false
  },
  "created_at": "2013-09-16T15:18:17Z",
  "updated_at": "2013-09-16T15:18:17Z",
  "body": "> But I think the best thing to do for now is to ask people to submit posts to the blog: http://blog.purecss.io/submit\r\n\r\n:+1: For now, folks who have built anything on Pure are encouraged to get in touch with us on the blog, so that we can feature them. They can even write a guest post detailing what they did. Let us know what you're making and we can work together to showcase it. "
}
, {
  "url": "https://api.github.com/repos/yahoo/pure-site/issues/comments/24517836",
  "html_url": "https://github.com/yahoo/pure-site/issues/139#issuecomment-24517836",
  "issue_url": "https://api.github.com/repos/yahoo/pure-site/issues/139",
  "id": 24517836,
  "user": {
    "login": "tilomitra",
    "id": 174783,
    "avatar_url": "https://avatars.githubusercontent.com/u/174783?v=3",
    "gravatar_id": "",
    "url": "https://api.github.com/users/tilomitra",
    "html_url": "https://github.com/tilomitra",
    "followers_url": "https://api.github.com/users/tilomitra/followers",
    "following_url": "https://api.github.com/users/tilomitra/following{/other_user}",
    "gists_url": "https://api.github.com/users/tilomitra/gists{/gist_id}",
    "starred_url": "https://api.github.com/users/tilomitra/starred{/owner}{/repo}",
    "subscriptions_url": "https://api.github.com/users/tilomitra/subscriptions",
    "organizations_url": "https://api.github.com/users/tilomitra/orgs",
    "repos_url": "https://api.github.com/users/tilomitra/repos",
    "events_url": "https://api.github.com/users/tilomitra/events{/privacy}",
    "received_events_url": "https://api.github.com/users/tilomitra/received_events",
    "type": "User",
    "site_admin": false
  },
  "created_at": "2013-09-16T15:18:37Z",
  "updated_at": "2013-09-16T15:18:37Z",
  "body": "Closing this out. Feel free to reopen if you have questions. "
}
]
