[
{
  "url": "https://api.github.com/repos/Shopify/dashing/issues/comments/11291239",
  "html_url": "https://github.com/Shopify/dashing/issues/45#issuecomment-11291239",
  "issue_url": "https://api.github.com/repos/Shopify/dashing/issues/45",
  "id": 11291239,
  "user": {
    "login": "davefp",
    "id": 298309,
    "avatar_url": "https://avatars.githubusercontent.com/u/298309?v=3",
    "gravatar_id": "",
    "url": "https://api.github.com/users/davefp",
    "html_url": "https://github.com/davefp",
    "followers_url": "https://api.github.com/users/davefp/followers",
    "following_url": "https://api.github.com/users/davefp/following{/other_user}",
    "gists_url": "https://api.github.com/users/davefp/gists{/gist_id}",
    "starred_url": "https://api.github.com/users/davefp/starred{/owner}{/repo}",
    "subscriptions_url": "https://api.github.com/users/davefp/subscriptions",
    "organizations_url": "https://api.github.com/users/davefp/orgs",
    "repos_url": "https://api.github.com/users/davefp/repos",
    "events_url": "https://api.github.com/users/davefp/events{/privacy}",
    "received_events_url": "https://api.github.com/users/davefp/received_events",
    "type": "User",
    "site_admin": false
  },
  "created_at": "2012-12-12T14:44:28Z",
  "updated_at": "2012-12-12T14:44:28Z",
  "body": "There are a couple off issues here:\r\n\r\n1. There isn't a class for the 'normal' state\r\n2. When the status is updated, the associated CSS class is appended to the node, which doesn't override the existing class if one exists"
}
, {
  "url": "https://api.github.com/repos/Shopify/dashing/issues/comments/11299125",
  "html_url": "https://github.com/Shopify/dashing/issues/45#issuecomment-11299125",
  "issue_url": "https://api.github.com/repos/Shopify/dashing/issues/45",
  "id": 11299125,
  "user": {
    "login": "dieterdemeyer",
    "id": 523286,
    "avatar_url": "https://avatars.githubusercontent.com/u/523286?v=3",
    "gravatar_id": "",
    "url": "https://api.github.com/users/dieterdemeyer",
    "html_url": "https://github.com/dieterdemeyer",
    "followers_url": "https://api.github.com/users/dieterdemeyer/followers",
    "following_url": "https://api.github.com/users/dieterdemeyer/following{/other_user}",
    "gists_url": "https://api.github.com/users/dieterdemeyer/gists{/gist_id}",
    "starred_url": "https://api.github.com/users/dieterdemeyer/starred{/owner}{/repo}",
    "subscriptions_url": "https://api.github.com/users/dieterdemeyer/subscriptions",
    "organizations_url": "https://api.github.com/users/dieterdemeyer/orgs",
    "repos_url": "https://api.github.com/users/dieterdemeyer/repos",
    "events_url": "https://api.github.com/users/dieterdemeyer/events{/privacy}",
    "received_events_url": "https://api.github.com/users/dieterdemeyer/received_events",
    "type": "User",
    "site_admin": false
  },
  "created_at": "2012-12-12T17:31:44Z",
  "updated_at": "2012-12-12T17:31:44Z",
  "body": "@davefp Yes, I forgot to mention I added my own status class 'normal'.  I figured out that the current status wasn't being removed...  Thanks for your reply..."
}
, {
  "url": "https://api.github.com/repos/Shopify/dashing/issues/comments/11430214",
  "html_url": "https://github.com/Shopify/dashing/issues/45#issuecomment-11430214",
  "issue_url": "https://api.github.com/repos/Shopify/dashing/issues/45",
  "id": 11430214,
  "user": {
    "login": "pushmatrix",
    "id": 190692,
    "avatar_url": "https://avatars.githubusercontent.com/u/190692?v=3",
    "gravatar_id": "",
    "url": "https://api.github.com/users/pushmatrix",
    "html_url": "https://github.com/pushmatrix",
    "followers_url": "https://api.github.com/users/pushmatrix/followers",
    "following_url": "https://api.github.com/users/pushmatrix/following{/other_user}",
    "gists_url": "https://api.github.com/users/pushmatrix/gists{/gist_id}",
    "starred_url": "https://api.github.com/users/pushmatrix/starred{/owner}{/repo}",
    "subscriptions_url": "https://api.github.com/users/pushmatrix/subscriptions",
    "organizations_url": "https://api.github.com/users/pushmatrix/orgs",
    "repos_url": "https://api.github.com/users/pushmatrix/repos",
    "events_url": "https://api.github.com/users/pushmatrix/events{/privacy}",
    "received_events_url": "https://api.github.com/users/pushmatrix/received_events",
    "type": "User",
    "site_admin": false
  },
  "created_at": "2012-12-17T04:26:04Z",
  "updated_at": "2012-12-17T04:26:04Z",
  "body": "This will be solved when #48 is pulled in."
}
]
