[
{
  "url": "https://api.github.com/repos/xamarin/monodroid-samples/issues/comments/98590264",
  "html_url": "https://github.com/xamarin/monodroid-samples/issues/75#issuecomment-98590264",
  "issue_url": "https://api.github.com/repos/xamarin/monodroid-samples/issues/75",
  "id": 98590264,
  "user": {
    "login": "jamesmontemagno",
    "id": 1676321,
    "avatar_url": "https://avatars.githubusercontent.com/u/1676321?v=3",
    "gravatar_id": "",
    "url": "https://api.github.com/users/jamesmontemagno",
    "html_url": "https://github.com/jamesmontemagno",
    "followers_url": "https://api.github.com/users/jamesmontemagno/followers",
    "following_url": "https://api.github.com/users/jamesmontemagno/following{/other_user}",
    "gists_url": "https://api.github.com/users/jamesmontemagno/gists{/gist_id}",
    "starred_url": "https://api.github.com/users/jamesmontemagno/starred{/owner}{/repo}",
    "subscriptions_url": "https://api.github.com/users/jamesmontemagno/subscriptions",
    "organizations_url": "https://api.github.com/users/jamesmontemagno/orgs",
    "repos_url": "https://api.github.com/users/jamesmontemagno/repos",
    "events_url": "https://api.github.com/users/jamesmontemagno/events{/privacy}",
    "received_events_url": "https://api.github.com/users/jamesmontemagno/received_events",
    "type": "User",
    "site_admin": false
  },
  "created_at": "2015-05-04T05:21:57Z",
  "updated_at": "2015-05-04T05:21:57Z",
  "body": "All fixed up"
}
]
