[
{
  "url": "https://api.github.com/repos/linkedin/norbert/issues/comments/39061823",
  "html_url": "https://github.com/linkedin/norbert/pull/29#issuecomment-39061823",
  "issue_url": "https://api.github.com/repos/linkedin/norbert/issues/29",
  "id": 39061823,
  "user": {
    "login": "mavlee",
    "id": 192700,
    "avatar_url": "https://avatars.githubusercontent.com/u/192700?v=3",
    "gravatar_id": "",
    "url": "https://api.github.com/users/mavlee",
    "html_url": "https://github.com/mavlee",
    "followers_url": "https://api.github.com/users/mavlee/followers",
    "following_url": "https://api.github.com/users/mavlee/following{/other_user}",
    "gists_url": "https://api.github.com/users/mavlee/gists{/gist_id}",
    "starred_url": "https://api.github.com/users/mavlee/starred{/owner}{/repo}",
    "subscriptions_url": "https://api.github.com/users/mavlee/subscriptions",
    "organizations_url": "https://api.github.com/users/mavlee/orgs",
    "repos_url": "https://api.github.com/users/mavlee/repos",
    "events_url": "https://api.github.com/users/mavlee/events{/privacy}",
    "received_events_url": "https://api.github.com/users/mavlee/received_events",
    "type": "User",
    "site_admin": false
  },
  "created_at": "2014-03-31T07:55:54Z",
  "updated_at": "2014-03-31T07:55:54Z",
  "body": "Sorry about the broken comments, in general they refer to the bottom line of the highlighted section.\r\nI'll take another look tomorrow"
}
]
