[
{
  "url": "https://api.github.com/repos/spotify/docker-gc/issues/comments/126736070",
  "html_url": "https://github.com/spotify/docker-gc/pull/31#issuecomment-126736070",
  "issue_url": "https://api.github.com/repos/spotify/docker-gc/issues/31",
  "id": 126736070,
  "user": {
    "login": "wixyvir",
    "id": 2150524,
    "avatar_url": "https://avatars.githubusercontent.com/u/2150524?v=3",
    "gravatar_id": "",
    "url": "https://api.github.com/users/wixyvir",
    "html_url": "https://github.com/wixyvir",
    "followers_url": "https://api.github.com/users/wixyvir/followers",
    "following_url": "https://api.github.com/users/wixyvir/following{/other_user}",
    "gists_url": "https://api.github.com/users/wixyvir/gists{/gist_id}",
    "starred_url": "https://api.github.com/users/wixyvir/starred{/owner}{/repo}",
    "subscriptions_url": "https://api.github.com/users/wixyvir/subscriptions",
    "organizations_url": "https://api.github.com/users/wixyvir/orgs",
    "repos_url": "https://api.github.com/users/wixyvir/repos",
    "events_url": "https://api.github.com/users/wixyvir/events{/privacy}",
    "received_events_url": "https://api.github.com/users/wixyvir/received_events",
    "type": "User",
    "site_admin": false
  },
  "created_at": "2015-07-31T16:07:16Z",
  "updated_at": "2015-07-31T16:07:16Z",
  "body": "+1"
}
, {
  "url": "https://api.github.com/repos/spotify/docker-gc/issues/comments/127147751",
  "html_url": "https://github.com/spotify/docker-gc/pull/31#issuecomment-127147751",
  "issue_url": "https://api.github.com/repos/spotify/docker-gc/issues/31",
  "id": 127147751,
  "user": {
    "login": "mbruggmann",
    "id": 24575,
    "avatar_url": "https://avatars.githubusercontent.com/u/24575?v=3",
    "gravatar_id": "",
    "url": "https://api.github.com/users/mbruggmann",
    "html_url": "https://github.com/mbruggmann",
    "followers_url": "https://api.github.com/users/mbruggmann/followers",
    "following_url": "https://api.github.com/users/mbruggmann/following{/other_user}",
    "gists_url": "https://api.github.com/users/mbruggmann/gists{/gist_id}",
    "starred_url": "https://api.github.com/users/mbruggmann/starred{/owner}{/repo}",
    "subscriptions_url": "https://api.github.com/users/mbruggmann/subscriptions",
    "organizations_url": "https://api.github.com/users/mbruggmann/orgs",
    "repos_url": "https://api.github.com/users/mbruggmann/repos",
    "events_url": "https://api.github.com/users/mbruggmann/events{/privacy}",
    "received_events_url": "https://api.github.com/users/mbruggmann/received_events",
    "type": "User",
    "site_admin": false
  },
  "created_at": "2015-08-03T07:30:22Z",
  "updated_at": "2015-08-03T07:32:47Z",
  "body": "Hey @xealot. This looks good to me :+1: Could you please squash your commits?"
}
, {
  "url": "https://api.github.com/repos/spotify/docker-gc/issues/comments/127648899",
  "html_url": "https://github.com/spotify/docker-gc/pull/31#issuecomment-127648899",
  "issue_url": "https://api.github.com/repos/spotify/docker-gc/issues/31",
  "id": 127648899,
  "user": {
    "login": "daenney",
    "id": 569574,
    "avatar_url": "https://avatars.githubusercontent.com/u/569574?v=3",
    "gravatar_id": "",
    "url": "https://api.github.com/users/daenney",
    "html_url": "https://github.com/daenney",
    "followers_url": "https://api.github.com/users/daenney/followers",
    "following_url": "https://api.github.com/users/daenney/following{/other_user}",
    "gists_url": "https://api.github.com/users/daenney/gists{/gist_id}",
    "starred_url": "https://api.github.com/users/daenney/starred{/owner}{/repo}",
    "subscriptions_url": "https://api.github.com/users/daenney/subscriptions",
    "organizations_url": "https://api.github.com/users/daenney/orgs",
    "repos_url": "https://api.github.com/users/daenney/repos",
    "events_url": "https://api.github.com/users/daenney/events{/privacy}",
    "received_events_url": "https://api.github.com/users/daenney/received_events",
    "type": "User",
    "site_admin": false
  },
  "created_at": "2015-08-04T15:27:27Z",
  "updated_at": "2015-08-04T15:27:39Z",
  "body": "Closed in favour of #36 which is just a squash of this."
}
]
