[
{
  "url": "https://api.github.com/repos/spotify/docker-gc/issues/comments/145948151",
  "html_url": "https://github.com/spotify/docker-gc/issues/55#issuecomment-145948151",
  "issue_url": "https://api.github.com/repos/spotify/docker-gc/issues/55",
  "id": 145948151,
  "user": {
    "login": "pacuna",
    "id": 1724136,
    "avatar_url": "https://avatars.githubusercontent.com/u/1724136?v=3",
    "gravatar_id": "",
    "url": "https://api.github.com/users/pacuna",
    "html_url": "https://github.com/pacuna",
    "followers_url": "https://api.github.com/users/pacuna/followers",
    "following_url": "https://api.github.com/users/pacuna/following{/other_user}",
    "gists_url": "https://api.github.com/users/pacuna/gists{/gist_id}",
    "starred_url": "https://api.github.com/users/pacuna/starred{/owner}{/repo}",
    "subscriptions_url": "https://api.github.com/users/pacuna/subscriptions",
    "organizations_url": "https://api.github.com/users/pacuna/orgs",
    "repos_url": "https://api.github.com/users/pacuna/repos",
    "events_url": "https://api.github.com/users/pacuna/events{/privacy}",
    "received_events_url": "https://api.github.com/users/pacuna/received_events",
    "type": "User",
    "site_admin": false
  },
  "created_at": "2015-10-06T18:04:06Z",
  "updated_at": "2015-10-06T18:04:06Z",
  "body": "+1"
}
, {
  "url": "https://api.github.com/repos/spotify/docker-gc/issues/comments/145958810",
  "html_url": "https://github.com/spotify/docker-gc/issues/55#issuecomment-145958810",
  "issue_url": "https://api.github.com/repos/spotify/docker-gc/issues/55",
  "id": 145958810,
  "user": {
    "login": "ryneo",
    "id": 2661968,
    "avatar_url": "https://avatars.githubusercontent.com/u/2661968?v=3",
    "gravatar_id": "",
    "url": "https://api.github.com/users/ryneo",
    "html_url": "https://github.com/ryneo",
    "followers_url": "https://api.github.com/users/ryneo/followers",
    "following_url": "https://api.github.com/users/ryneo/following{/other_user}",
    "gists_url": "https://api.github.com/users/ryneo/gists{/gist_id}",
    "starred_url": "https://api.github.com/users/ryneo/starred{/owner}{/repo}",
    "subscriptions_url": "https://api.github.com/users/ryneo/subscriptions",
    "organizations_url": "https://api.github.com/users/ryneo/orgs",
    "repos_url": "https://api.github.com/users/ryneo/repos",
    "events_url": "https://api.github.com/users/ryneo/events{/privacy}",
    "received_events_url": "https://api.github.com/users/ryneo/received_events",
    "type": "User",
    "site_admin": false
  },
  "created_at": "2015-10-06T18:37:57Z",
  "updated_at": "2015-10-06T18:37:57Z",
  "body": "+1"
}
, {
  "url": "https://api.github.com/repos/spotify/docker-gc/issues/comments/146678872",
  "html_url": "https://github.com/spotify/docker-gc/issues/55#issuecomment-146678872",
  "issue_url": "https://api.github.com/repos/spotify/docker-gc/issues/55",
  "id": 146678872,
  "user": {
    "login": "konstruktoid",
    "id": 7956715,
    "avatar_url": "https://avatars.githubusercontent.com/u/7956715?v=3",
    "gravatar_id": "",
    "url": "https://api.github.com/users/konstruktoid",
    "html_url": "https://github.com/konstruktoid",
    "followers_url": "https://api.github.com/users/konstruktoid/followers",
    "following_url": "https://api.github.com/users/konstruktoid/following{/other_user}",
    "gists_url": "https://api.github.com/users/konstruktoid/gists{/gist_id}",
    "starred_url": "https://api.github.com/users/konstruktoid/starred{/owner}{/repo}",
    "subscriptions_url": "https://api.github.com/users/konstruktoid/subscriptions",
    "organizations_url": "https://api.github.com/users/konstruktoid/orgs",
    "repos_url": "https://api.github.com/users/konstruktoid/repos",
    "events_url": "https://api.github.com/users/konstruktoid/events{/privacy}",
    "received_events_url": "https://api.github.com/users/konstruktoid/received_events",
    "type": "User",
    "site_admin": false
  },
  "created_at": "2015-10-08T20:38:43Z",
  "updated_at": "2015-10-08T20:38:43Z",
  "body": "Would a simple  `${STATE_DIR}/docker-gc.log` log file suffice or are you in need of script output?"
}
]
