[
{
  "url": "https://api.github.com/repos/dropbox/libpypa/issues/1",
  "labels_url": "https://api.github.com/repos/dropbox/libpypa/issues/1/labels{/name}",
  "comments_url": "https://api.github.com/repos/dropbox/libpypa/issues/1/comments",
  "events_url": "https://api.github.com/repos/dropbox/libpypa/issues/1/events",
  "html_url": "https://github.com/dropbox/libpypa/pull/1",
  "id": 74817433,
  "number": 1,
  "title": "One element tuple params",
  "user": {
    "login": "tjhance",
    "id": 592054,
    "avatar_url": "https://avatars.githubusercontent.com/u/592054?v=3",
    "gravatar_id": "",
    "url": "https://api.github.com/users/tjhance",
    "html_url": "https://github.com/tjhance",
    "followers_url": "https://api.github.com/users/tjhance/followers",
    "following_url": "https://api.github.com/users/tjhance/following{/other_user}",
    "gists_url": "https://api.github.com/users/tjhance/gists{/gist_id}",
    "starred_url": "https://api.github.com/users/tjhance/starred{/owner}{/repo}",
    "subscriptions_url": "https://api.github.com/users/tjhance/subscriptions",
    "organizations_url": "https://api.github.com/users/tjhance/orgs",
    "repos_url": "https://api.github.com/users/tjhance/repos",
    "events_url": "https://api.github.com/users/tjhance/events{/privacy}",
    "received_events_url": "https://api.github.com/users/tjhance/received_events",
    "type": "User",
    "site_admin": false
  },
  "labels": [],
  "state": "closed",
  "locked": false,
  "assignee": null,
  "milestone": null,
  "comments": 2,
  "created_at": "2015-05-10T03:13:08Z",
  "updated_at": "2015-05-13T05:29:08Z",
  "closed_at": "2015-05-13T05:29:08Z",
  "pull_request": {
    "url": "https://api.github.com/repos/dropbox/libpypa/pulls/1",
    "html_url": "https://github.com/dropbox/libpypa/pull/1",
    "diff_url": "https://github.com/dropbox/libpypa/pull/1.diff",
    "patch_url": "https://github.com/dropbox/libpypa/pull/1.patch"
  },
  "body": "Previously we would parse\r\n\r\n```\r\ndef f((a,)):\r\n```\r\n\r\nas\r\n\r\n```\r\ndef f(a):\r\n```"
}
]
