[
{
  "url": "https://api.github.com/repos/Automattic/vip-quickstart/issues/comments/96895935",
  "html_url": "https://github.com/Automattic/vip-quickstart/issues/425#issuecomment-96895935",
  "issue_url": "https://api.github.com/repos/Automattic/vip-quickstart/issues/425",
  "id": 96895935,
  "user": {
    "login": "danielbachhuber",
    "id": 36432,
    "avatar_url": "https://avatars.githubusercontent.com/u/36432?v=3",
    "gravatar_id": "",
    "url": "https://api.github.com/users/danielbachhuber",
    "html_url": "https://github.com/danielbachhuber",
    "followers_url": "https://api.github.com/users/danielbachhuber/followers",
    "following_url": "https://api.github.com/users/danielbachhuber/following{/other_user}",
    "gists_url": "https://api.github.com/users/danielbachhuber/gists{/gist_id}",
    "starred_url": "https://api.github.com/users/danielbachhuber/starred{/owner}{/repo}",
    "subscriptions_url": "https://api.github.com/users/danielbachhuber/subscriptions",
    "organizations_url": "https://api.github.com/users/danielbachhuber/orgs",
    "repos_url": "https://api.github.com/users/danielbachhuber/repos",
    "events_url": "https://api.github.com/users/danielbachhuber/events{/privacy}",
    "received_events_url": "https://api.github.com/users/danielbachhuber/received_events",
    "type": "User",
    "site_admin": false
  },
  "created_at": "2015-04-28T03:28:24Z",
  "updated_at": "2015-04-28T03:28:24Z",
  "body": "You can use `plugin_url( 'relative/path/inside/theme.js', __file__ )` inside your theme."
}
, {
  "url": "https://api.github.com/repos/Automattic/vip-quickstart/issues/comments/96896432",
  "html_url": "https://github.com/Automattic/vip-quickstart/issues/425#issuecomment-96896432",
  "issue_url": "https://api.github.com/repos/Automattic/vip-quickstart/issues/425",
  "id": 96896432,
  "user": {
    "login": "paulschreiber",
    "id": 86784,
    "avatar_url": "https://avatars.githubusercontent.com/u/86784?v=3",
    "gravatar_id": "",
    "url": "https://api.github.com/users/paulschreiber",
    "html_url": "https://github.com/paulschreiber",
    "followers_url": "https://api.github.com/users/paulschreiber/followers",
    "following_url": "https://api.github.com/users/paulschreiber/following{/other_user}",
    "gists_url": "https://api.github.com/users/paulschreiber/gists{/gist_id}",
    "starred_url": "https://api.github.com/users/paulschreiber/starred{/owner}{/repo}",
    "subscriptions_url": "https://api.github.com/users/paulschreiber/subscriptions",
    "organizations_url": "https://api.github.com/users/paulschreiber/orgs",
    "repos_url": "https://api.github.com/users/paulschreiber/repos",
    "events_url": "https://api.github.com/users/paulschreiber/events{/privacy}",
    "received_events_url": "https://api.github.com/users/paulschreiber/received_events",
    "type": "User",
    "site_admin": false
  },
  "created_at": "2015-04-28T03:31:21Z",
  "updated_at": "2015-04-28T03:31:33Z",
  "body": "In my case, I needed the path inside a JS file, not a PHP one. Regardless, it still seems like a bug."
}
, {
  "url": "https://api.github.com/repos/Automattic/vip-quickstart/issues/comments/96898238",
  "html_url": "https://github.com/Automattic/vip-quickstart/issues/425#issuecomment-96898238",
  "issue_url": "https://api.github.com/repos/Automattic/vip-quickstart/issues/425",
  "id": 96898238,
  "user": {
    "login": "danielbachhuber",
    "id": 36432,
    "avatar_url": "https://avatars.githubusercontent.com/u/36432?v=3",
    "gravatar_id": "",
    "url": "https://api.github.com/users/danielbachhuber",
    "html_url": "https://github.com/danielbachhuber",
    "followers_url": "https://api.github.com/users/danielbachhuber/followers",
    "following_url": "https://api.github.com/users/danielbachhuber/following{/other_user}",
    "gists_url": "https://api.github.com/users/danielbachhuber/gists{/gist_id}",
    "starred_url": "https://api.github.com/users/danielbachhuber/starred{/owner}{/repo}",
    "subscriptions_url": "https://api.github.com/users/danielbachhuber/subscriptions",
    "organizations_url": "https://api.github.com/users/danielbachhuber/orgs",
    "repos_url": "https://api.github.com/users/danielbachhuber/repos",
    "events_url": "https://api.github.com/users/danielbachhuber/events{/privacy}",
    "received_events_url": "https://api.github.com/users/danielbachhuber/received_events",
    "type": "User",
    "site_admin": false
  },
  "created_at": "2015-04-28T03:35:35Z",
  "updated_at": "2015-04-28T03:35:35Z",
  "body": "> In my case, I needed the path inside a JS file, not a PHP one.\r\n\r\nYou can register the path to a variable using `wp_localize_script()`\r\n\r\n>  Regardless, it still seems like a bug.\r\n\r\nIf your theme is located in `/wp-content/themes/pub/fivethirtyeight`, then 10up misconfigured your Quickstart server."
}
, {
  "url": "https://api.github.com/repos/Automattic/vip-quickstart/issues/comments/96899313",
  "html_url": "https://github.com/Automattic/vip-quickstart/issues/425#issuecomment-96899313",
  "issue_url": "https://api.github.com/repos/Automattic/vip-quickstart/issues/425",
  "id": 96899313,
  "user": {
    "login": "paulschreiber",
    "id": 86784,
    "avatar_url": "https://avatars.githubusercontent.com/u/86784?v=3",
    "gravatar_id": "",
    "url": "https://api.github.com/users/paulschreiber",
    "html_url": "https://github.com/paulschreiber",
    "followers_url": "https://api.github.com/users/paulschreiber/followers",
    "following_url": "https://api.github.com/users/paulschreiber/following{/other_user}",
    "gists_url": "https://api.github.com/users/paulschreiber/gists{/gist_id}",
    "starred_url": "https://api.github.com/users/paulschreiber/starred{/owner}{/repo}",
    "subscriptions_url": "https://api.github.com/users/paulschreiber/subscriptions",
    "organizations_url": "https://api.github.com/users/paulschreiber/orgs",
    "repos_url": "https://api.github.com/users/paulschreiber/repos",
    "events_url": "https://api.github.com/users/paulschreiber/events{/privacy}",
    "received_events_url": "https://api.github.com/users/paulschreiber/received_events",
    "type": "User",
    "site_admin": false
  },
  "created_at": "2015-04-28T03:38:56Z",
  "updated_at": "2015-04-28T03:38:56Z",
  "body": "Yes, I could set a path with `wp_localize_script()` or devise other workarounds.\r\n\r\nAre you saying */vip/* should be in the path for 10up's server as well? If so, I'll check with 10up about their config."
}
, {
  "url": "https://api.github.com/repos/Automattic/vip-quickstart/issues/comments/96918191",
  "html_url": "https://github.com/Automattic/vip-quickstart/issues/425#issuecomment-96918191",
  "issue_url": "https://api.github.com/repos/Automattic/vip-quickstart/issues/425",
  "id": 96918191,
  "user": {
    "login": "mdrovdahl",
    "id": 474467,
    "avatar_url": "https://avatars.githubusercontent.com/u/474467?v=3",
    "gravatar_id": "",
    "url": "https://api.github.com/users/mdrovdahl",
    "html_url": "https://github.com/mdrovdahl",
    "followers_url": "https://api.github.com/users/mdrovdahl/followers",
    "following_url": "https://api.github.com/users/mdrovdahl/following{/other_user}",
    "gists_url": "https://api.github.com/users/mdrovdahl/gists{/gist_id}",
    "starred_url": "https://api.github.com/users/mdrovdahl/starred{/owner}{/repo}",
    "subscriptions_url": "https://api.github.com/users/mdrovdahl/subscriptions",
    "organizations_url": "https://api.github.com/users/mdrovdahl/orgs",
    "repos_url": "https://api.github.com/users/mdrovdahl/repos",
    "events_url": "https://api.github.com/users/mdrovdahl/events{/privacy}",
    "received_events_url": "https://api.github.com/users/mdrovdahl/received_events",
    "type": "User",
    "site_admin": false
  },
  "created_at": "2015-04-28T05:34:20Z",
  "updated_at": "2015-04-28T05:34:20Z",
  "body": "Indeed. To be consistent with wp.com (prod), your path to (VIP) theme needs to be:\r\n`/wp-content/themes/vip/fivethirtyeight/`"
}
]
