[
{
  "url": "https://api.github.com/repos/Automattic/vip-quickstart/issues/comments/137557944",
  "html_url": "https://github.com/Automattic/vip-quickstart/issues/455#issuecomment-137557944",
  "issue_url": "https://api.github.com/repos/Automattic/vip-quickstart/issues/455",
  "id": 137557944,
  "user": {
    "login": "westonruter",
    "id": 134745,
    "avatar_url": "https://avatars.githubusercontent.com/u/134745?v=3",
    "gravatar_id": "",
    "url": "https://api.github.com/users/westonruter",
    "html_url": "https://github.com/westonruter",
    "followers_url": "https://api.github.com/users/westonruter/followers",
    "following_url": "https://api.github.com/users/westonruter/following{/other_user}",
    "gists_url": "https://api.github.com/users/westonruter/gists{/gist_id}",
    "starred_url": "https://api.github.com/users/westonruter/starred{/owner}{/repo}",
    "subscriptions_url": "https://api.github.com/users/westonruter/subscriptions",
    "organizations_url": "https://api.github.com/users/westonruter/orgs",
    "repos_url": "https://api.github.com/users/westonruter/repos",
    "events_url": "https://api.github.com/users/westonruter/events{/privacy}",
    "received_events_url": "https://api.github.com/users/westonruter/received_events",
    "type": "User",
    "site_admin": false
  },
  "created_at": "2015-09-03T19:59:16Z",
  "updated_at": "2015-09-03T19:59:16Z",
  "body": "I noticed the same. It seems specific to the `3.7.0-beta3` tag, with the issue being fixed in `3.7.0-beta4`. _However_, on `3.7.0-beta4` I then had a separate error where all admin access was blocked in a multisite network. So I had to revert to Jetpack 3.6.1 as well."
}
, {
  "url": "https://api.github.com/repos/Automattic/vip-quickstart/issues/comments/137558388",
  "html_url": "https://github.com/Automattic/vip-quickstart/issues/455#issuecomment-137558388",
  "issue_url": "https://api.github.com/repos/Automattic/vip-quickstart/issues/455",
  "id": 137558388,
  "user": {
    "login": "westonruter",
    "id": 134745,
    "avatar_url": "https://avatars.githubusercontent.com/u/134745?v=3",
    "gravatar_id": "",
    "url": "https://api.github.com/users/westonruter",
    "html_url": "https://github.com/westonruter",
    "followers_url": "https://api.github.com/users/westonruter/followers",
    "following_url": "https://api.github.com/users/westonruter/following{/other_user}",
    "gists_url": "https://api.github.com/users/westonruter/gists{/gist_id}",
    "starred_url": "https://api.github.com/users/westonruter/starred{/owner}{/repo}",
    "subscriptions_url": "https://api.github.com/users/westonruter/subscriptions",
    "organizations_url": "https://api.github.com/users/westonruter/orgs",
    "repos_url": "https://api.github.com/users/westonruter/repos",
    "events_url": "https://api.github.com/users/westonruter/events{/privacy}",
    "received_events_url": "https://api.github.com/users/westonruter/received_events",
    "type": "User",
    "site_admin": false
  },
  "created_at": "2015-09-03T20:00:52Z",
  "updated_at": "2015-09-03T20:00:52Z",
  "body": "For the undefined constant issue, see https://github.com/Automattic/jetpack/issues/2640"
}
]
