[
{
  "url": "https://api.github.com/repos/google/dagger/issues/comments/167460134",
  "html_url": "https://github.com/google/dagger/issues/283#issuecomment-167460134",
  "issue_url": "https://api.github.com/repos/google/dagger/issues/283",
  "id": 167460134,
  "user": {
    "login": "artem-zinnatullin",
    "id": 967132,
    "avatar_url": "https://avatars.githubusercontent.com/u/967132?v=3",
    "gravatar_id": "",
    "url": "https://api.github.com/users/artem-zinnatullin",
    "html_url": "https://github.com/artem-zinnatullin",
    "followers_url": "https://api.github.com/users/artem-zinnatullin/followers",
    "following_url": "https://api.github.com/users/artem-zinnatullin/following{/other_user}",
    "gists_url": "https://api.github.com/users/artem-zinnatullin/gists{/gist_id}",
    "starred_url": "https://api.github.com/users/artem-zinnatullin/starred{/owner}{/repo}",
    "subscriptions_url": "https://api.github.com/users/artem-zinnatullin/subscriptions",
    "organizations_url": "https://api.github.com/users/artem-zinnatullin/orgs",
    "repos_url": "https://api.github.com/users/artem-zinnatullin/repos",
    "events_url": "https://api.github.com/users/artem-zinnatullin/events{/privacy}",
    "received_events_url": "https://api.github.com/users/artem-zinnatullin/received_events",
    "type": "User",
    "site_admin": false
  },
  "created_at": "2015-12-28T02:12:38Z",
  "updated_at": "2015-12-28T02:12:38Z",
  "body": "Does `aar` of your library contain classes generated by Dagger? Looks like a problem of library packaging."
}
, {
  "url": "https://api.github.com/repos/google/dagger/issues/comments/167461312",
  "html_url": "https://github.com/google/dagger/issues/283#issuecomment-167461312",
  "issue_url": "https://api.github.com/repos/google/dagger/issues/283",
  "id": 167461312,
  "user": {
    "login": "ChrisZou",
    "id": 3190416,
    "avatar_url": "https://avatars.githubusercontent.com/u/3190416?v=3",
    "gravatar_id": "",
    "url": "https://api.github.com/users/ChrisZou",
    "html_url": "https://github.com/ChrisZou",
    "followers_url": "https://api.github.com/users/ChrisZou/followers",
    "following_url": "https://api.github.com/users/ChrisZou/following{/other_user}",
    "gists_url": "https://api.github.com/users/ChrisZou/gists{/gist_id}",
    "starred_url": "https://api.github.com/users/ChrisZou/starred{/owner}{/repo}",
    "subscriptions_url": "https://api.github.com/users/ChrisZou/subscriptions",
    "organizations_url": "https://api.github.com/users/ChrisZou/orgs",
    "repos_url": "https://api.github.com/users/ChrisZou/repos",
    "events_url": "https://api.github.com/users/ChrisZou/events{/privacy}",
    "received_events_url": "https://api.github.com/users/ChrisZou/received_events",
    "type": "User",
    "site_admin": false
  },
  "created_at": "2015-12-28T02:25:01Z",
  "updated_at": "2015-12-28T02:25:36Z",
  "body": "@artem-zinnatullin yes, the classes are generated properly, i can see them under `app/build/intermediates/exploded-aar/mygroup/myartifect/myversion/jars/classes.jar/mypackage/MyModule_ProvideAppFactory.class` in the project view of my consumer app module. Yet the code somehow failed to resolve it at runtime."
}
, {
  "url": "https://api.github.com/repos/google/dagger/issues/comments/167461474",
  "html_url": "https://github.com/google/dagger/issues/283#issuecomment-167461474",
  "issue_url": "https://api.github.com/repos/google/dagger/issues/283",
  "id": 167461474,
  "user": {
    "login": "artem-zinnatullin",
    "id": 967132,
    "avatar_url": "https://avatars.githubusercontent.com/u/967132?v=3",
    "gravatar_id": "",
    "url": "https://api.github.com/users/artem-zinnatullin",
    "html_url": "https://github.com/artem-zinnatullin",
    "followers_url": "https://api.github.com/users/artem-zinnatullin/followers",
    "following_url": "https://api.github.com/users/artem-zinnatullin/following{/other_user}",
    "gists_url": "https://api.github.com/users/artem-zinnatullin/gists{/gist_id}",
    "starred_url": "https://api.github.com/users/artem-zinnatullin/starred{/owner}{/repo}",
    "subscriptions_url": "https://api.github.com/users/artem-zinnatullin/subscriptions",
    "organizations_url": "https://api.github.com/users/artem-zinnatullin/orgs",
    "repos_url": "https://api.github.com/users/artem-zinnatullin/repos",
    "events_url": "https://api.github.com/users/artem-zinnatullin/events{/privacy}",
    "received_events_url": "https://api.github.com/users/artem-zinnatullin/received_events",
    "type": "User",
    "site_admin": false
  },
  "created_at": "2015-12-28T02:28:08Z",
  "updated_at": "2015-12-28T02:28:08Z",
  "body": "I see that classes are *generated* :) Otherwise you won't be able to compile your library, but I'm not sure that generated classes included into the `aar` of the library.\r\n\r\nCan you please unarchive the `aar` and use some `dex` to `jar` tool and then check if `jar` contains classes generated by Dagger?"
}
, {
  "url": "https://api.github.com/repos/google/dagger/issues/comments/167461533",
  "html_url": "https://github.com/google/dagger/issues/283#issuecomment-167461533",
  "issue_url": "https://api.github.com/repos/google/dagger/issues/283",
  "id": 167461533,
  "user": {
    "login": "JakeWharton",
    "id": 66577,
    "avatar_url": "https://avatars.githubusercontent.com/u/66577?v=3",
    "gravatar_id": "",
    "url": "https://api.github.com/users/JakeWharton",
    "html_url": "https://github.com/JakeWharton",
    "followers_url": "https://api.github.com/users/JakeWharton/followers",
    "following_url": "https://api.github.com/users/JakeWharton/following{/other_user}",
    "gists_url": "https://api.github.com/users/JakeWharton/gists{/gist_id}",
    "starred_url": "https://api.github.com/users/JakeWharton/starred{/owner}{/repo}",
    "subscriptions_url": "https://api.github.com/users/JakeWharton/subscriptions",
    "organizations_url": "https://api.github.com/users/JakeWharton/orgs",
    "repos_url": "https://api.github.com/users/JakeWharton/repos",
    "events_url": "https://api.github.com/users/JakeWharton/events{/privacy}",
    "received_events_url": "https://api.github.com/users/JakeWharton/received_events",
    "type": "User",
    "site_admin": false
  },
  "created_at": "2015-12-28T02:29:12Z",
  "updated_at": "2015-12-28T02:29:12Z",
  "body": "There is no dex in an aar. Just a classes.jar.\n\nOn Sun, Dec 27, 2015 at 9:28 PM Artem Zinnatullin <notifications@github.com>\nwrote:\n\n> I see that classes are *generated* :) Otherwise you won't be able to\n> compile your library, but I'm not sure that generated classes included into\n> the aar of the library.\n>\n> Can you please unarchive the aar and use some dex to jar tool and then\n> check if jar contains classes generated by Dagger?\n>\n> —\n> Reply to this email directly or view it on GitHub\n> <https://github.com/google/dagger/issues/283#issuecomment-167461474>.\n>\n"
}
, {
  "url": "https://api.github.com/repos/google/dagger/issues/comments/167461606",
  "html_url": "https://github.com/google/dagger/issues/283#issuecomment-167461606",
  "issue_url": "https://api.github.com/repos/google/dagger/issues/283",
  "id": 167461606,
  "user": {
    "login": "artem-zinnatullin",
    "id": 967132,
    "avatar_url": "https://avatars.githubusercontent.com/u/967132?v=3",
    "gravatar_id": "",
    "url": "https://api.github.com/users/artem-zinnatullin",
    "html_url": "https://github.com/artem-zinnatullin",
    "followers_url": "https://api.github.com/users/artem-zinnatullin/followers",
    "following_url": "https://api.github.com/users/artem-zinnatullin/following{/other_user}",
    "gists_url": "https://api.github.com/users/artem-zinnatullin/gists{/gist_id}",
    "starred_url": "https://api.github.com/users/artem-zinnatullin/starred{/owner}{/repo}",
    "subscriptions_url": "https://api.github.com/users/artem-zinnatullin/subscriptions",
    "organizations_url": "https://api.github.com/users/artem-zinnatullin/orgs",
    "repos_url": "https://api.github.com/users/artem-zinnatullin/repos",
    "events_url": "https://api.github.com/users/artem-zinnatullin/events{/privacy}",
    "received_events_url": "https://api.github.com/users/artem-zinnatullin/received_events",
    "type": "User",
    "site_admin": false
  },
  "created_at": "2015-12-28T02:31:06Z",
  "updated_at": "2015-12-28T02:37:19Z",
  "body": "Ah, true, just a jar with resources (and other Android stuff). So, it makes task easier for @ChrisZou!"
}
, {
  "url": "https://api.github.com/repos/google/dagger/issues/comments/167461988",
  "html_url": "https://github.com/google/dagger/issues/283#issuecomment-167461988",
  "issue_url": "https://api.github.com/repos/google/dagger/issues/283",
  "id": 167461988,
  "user": {
    "login": "JakeWharton",
    "id": 66577,
    "avatar_url": "https://avatars.githubusercontent.com/u/66577?v=3",
    "gravatar_id": "",
    "url": "https://api.github.com/users/JakeWharton",
    "html_url": "https://github.com/JakeWharton",
    "followers_url": "https://api.github.com/users/JakeWharton/followers",
    "following_url": "https://api.github.com/users/JakeWharton/following{/other_user}",
    "gists_url": "https://api.github.com/users/JakeWharton/gists{/gist_id}",
    "starred_url": "https://api.github.com/users/JakeWharton/starred{/owner}{/repo}",
    "subscriptions_url": "https://api.github.com/users/JakeWharton/subscriptions",
    "organizations_url": "https://api.github.com/users/JakeWharton/orgs",
    "repos_url": "https://api.github.com/users/JakeWharton/repos",
    "events_url": "https://api.github.com/users/JakeWharton/events{/privacy}",
    "received_events_url": "https://api.github.com/users/JakeWharton/received_events",
    "type": "User",
    "site_admin": false
  },
  "created_at": "2015-12-28T02:38:38Z",
  "updated_at": "2015-12-28T02:38:38Z",
  "body": "His comment shows they are present in the aar, since they are in the exploded-aar of the consuming app."
}
, {
  "url": "https://api.github.com/repos/google/dagger/issues/comments/167462256",
  "html_url": "https://github.com/google/dagger/issues/283#issuecomment-167462256",
  "issue_url": "https://api.github.com/repos/google/dagger/issues/283",
  "id": 167462256,
  "user": {
    "login": "digitalbuddha",
    "id": 4528092,
    "avatar_url": "https://avatars.githubusercontent.com/u/4528092?v=3",
    "gravatar_id": "",
    "url": "https://api.github.com/users/digitalbuddha",
    "html_url": "https://github.com/digitalbuddha",
    "followers_url": "https://api.github.com/users/digitalbuddha/followers",
    "following_url": "https://api.github.com/users/digitalbuddha/following{/other_user}",
    "gists_url": "https://api.github.com/users/digitalbuddha/gists{/gist_id}",
    "starred_url": "https://api.github.com/users/digitalbuddha/starred{/owner}{/repo}",
    "subscriptions_url": "https://api.github.com/users/digitalbuddha/subscriptions",
    "organizations_url": "https://api.github.com/users/digitalbuddha/orgs",
    "repos_url": "https://api.github.com/users/digitalbuddha/repos",
    "events_url": "https://api.github.com/users/digitalbuddha/events{/privacy}",
    "received_events_url": "https://api.github.com/users/digitalbuddha/received_events",
    "type": "User",
    "site_admin": false
  },
  "created_at": "2015-12-28T02:43:37Z",
  "updated_at": "2015-12-28T02:43:37Z",
  "body": "Can you make a small sample app? "
}
, {
  "url": "https://api.github.com/repos/google/dagger/issues/comments/167462266",
  "html_url": "https://github.com/google/dagger/issues/283#issuecomment-167462266",
  "issue_url": "https://api.github.com/repos/google/dagger/issues/283",
  "id": 167462266,
  "user": {
    "login": "artem-zinnatullin",
    "id": 967132,
    "avatar_url": "https://avatars.githubusercontent.com/u/967132?v=3",
    "gravatar_id": "",
    "url": "https://api.github.com/users/artem-zinnatullin",
    "html_url": "https://github.com/artem-zinnatullin",
    "followers_url": "https://api.github.com/users/artem-zinnatullin/followers",
    "following_url": "https://api.github.com/users/artem-zinnatullin/following{/other_user}",
    "gists_url": "https://api.github.com/users/artem-zinnatullin/gists{/gist_id}",
    "starred_url": "https://api.github.com/users/artem-zinnatullin/starred{/owner}{/repo}",
    "subscriptions_url": "https://api.github.com/users/artem-zinnatullin/subscriptions",
    "organizations_url": "https://api.github.com/users/artem-zinnatullin/orgs",
    "repos_url": "https://api.github.com/users/artem-zinnatullin/repos",
    "events_url": "https://api.github.com/users/artem-zinnatullin/events{/privacy}",
    "received_events_url": "https://api.github.com/users/artem-zinnatullin/received_events",
    "type": "User",
    "site_admin": false
  },
  "created_at": "2015-12-28T02:43:48Z",
  "updated_at": "2015-12-28T02:43:48Z",
  "body": "Yup. You're right (damn).\r\n\r\n@ChrisZou what about ProGuard/etc?"
}
, {
  "url": "https://api.github.com/repos/google/dagger/issues/comments/167469163",
  "html_url": "https://github.com/google/dagger/issues/283#issuecomment-167469163",
  "issue_url": "https://api.github.com/repos/google/dagger/issues/283",
  "id": 167469163,
  "user": {
    "login": "ChrisZou",
    "id": 3190416,
    "avatar_url": "https://avatars.githubusercontent.com/u/3190416?v=3",
    "gravatar_id": "",
    "url": "https://api.github.com/users/ChrisZou",
    "html_url": "https://github.com/ChrisZou",
    "followers_url": "https://api.github.com/users/ChrisZou/followers",
    "following_url": "https://api.github.com/users/ChrisZou/following{/other_user}",
    "gists_url": "https://api.github.com/users/ChrisZou/gists{/gist_id}",
    "starred_url": "https://api.github.com/users/ChrisZou/starred{/owner}{/repo}",
    "subscriptions_url": "https://api.github.com/users/ChrisZou/subscriptions",
    "organizations_url": "https://api.github.com/users/ChrisZou/orgs",
    "repos_url": "https://api.github.com/users/ChrisZou/repos",
    "events_url": "https://api.github.com/users/ChrisZou/events{/privacy}",
    "received_events_url": "https://api.github.com/users/ChrisZou/received_events",
    "type": "User",
    "site_admin": false
  },
  "created_at": "2015-12-28T03:33:16Z",
  "updated_at": "2015-12-28T03:33:16Z",
  "body": "@artem-zinnatullin I disabled proguard and the problem still existed."
}
, {
  "url": "https://api.github.com/repos/google/dagger/issues/comments/167469519",
  "html_url": "https://github.com/google/dagger/issues/283#issuecomment-167469519",
  "issue_url": "https://api.github.com/repos/google/dagger/issues/283",
  "id": 167469519,
  "user": {
    "login": "ChrisZou",
    "id": 3190416,
    "avatar_url": "https://avatars.githubusercontent.com/u/3190416?v=3",
    "gravatar_id": "",
    "url": "https://api.github.com/users/ChrisZou",
    "html_url": "https://github.com/ChrisZou",
    "followers_url": "https://api.github.com/users/ChrisZou/followers",
    "following_url": "https://api.github.com/users/ChrisZou/following{/other_user}",
    "gists_url": "https://api.github.com/users/ChrisZou/gists{/gist_id}",
    "starred_url": "https://api.github.com/users/ChrisZou/starred{/owner}{/repo}",
    "subscriptions_url": "https://api.github.com/users/ChrisZou/subscriptions",
    "organizations_url": "https://api.github.com/users/ChrisZou/orgs",
    "repos_url": "https://api.github.com/users/ChrisZou/repos",
    "events_url": "https://api.github.com/users/ChrisZou/events{/privacy}",
    "received_events_url": "https://api.github.com/users/ChrisZou/received_events",
    "type": "User",
    "site_admin": false
  },
  "created_at": "2015-12-28T03:38:17Z",
  "updated_at": "2015-12-28T03:38:17Z",
  "body": "@digitalbuddha Sure, I'll make one and update this issue later."
}
, {
  "url": "https://api.github.com/repos/google/dagger/issues/comments/167480069",
  "html_url": "https://github.com/google/dagger/issues/283#issuecomment-167480069",
  "issue_url": "https://api.github.com/repos/google/dagger/issues/283",
  "id": 167480069,
  "user": {
    "login": "artem-zinnatullin",
    "id": 967132,
    "avatar_url": "https://avatars.githubusercontent.com/u/967132?v=3",
    "gravatar_id": "",
    "url": "https://api.github.com/users/artem-zinnatullin",
    "html_url": "https://github.com/artem-zinnatullin",
    "followers_url": "https://api.github.com/users/artem-zinnatullin/followers",
    "following_url": "https://api.github.com/users/artem-zinnatullin/following{/other_user}",
    "gists_url": "https://api.github.com/users/artem-zinnatullin/gists{/gist_id}",
    "starred_url": "https://api.github.com/users/artem-zinnatullin/starred{/owner}{/repo}",
    "subscriptions_url": "https://api.github.com/users/artem-zinnatullin/subscriptions",
    "organizations_url": "https://api.github.com/users/artem-zinnatullin/orgs",
    "repos_url": "https://api.github.com/users/artem-zinnatullin/repos",
    "events_url": "https://api.github.com/users/artem-zinnatullin/events{/privacy}",
    "received_events_url": "https://api.github.com/users/artem-zinnatullin/received_events",
    "type": "User",
    "site_admin": false
  },
  "created_at": "2015-12-28T04:15:05Z",
  "updated_at": "2015-12-28T04:15:05Z",
  "body": "@ChrisZou maybe you're trying to access library code before `MultiDex.install()`? \r\n\r\nBecause if code is in aar, aar compiled into the app, `DaggerMyComponent` exists at runtime and ProGuard is turned off it looks like MultiDex can be possible cause of the problem. "
}
, {
  "url": "https://api.github.com/repos/google/dagger/issues/comments/167485618",
  "html_url": "https://github.com/google/dagger/issues/283#issuecomment-167485618",
  "issue_url": "https://api.github.com/repos/google/dagger/issues/283",
  "id": 167485618,
  "user": {
    "login": "ChrisZou",
    "id": 3190416,
    "avatar_url": "https://avatars.githubusercontent.com/u/3190416?v=3",
    "gravatar_id": "",
    "url": "https://api.github.com/users/ChrisZou",
    "html_url": "https://github.com/ChrisZou",
    "followers_url": "https://api.github.com/users/ChrisZou/followers",
    "following_url": "https://api.github.com/users/ChrisZou/following{/other_user}",
    "gists_url": "https://api.github.com/users/ChrisZou/gists{/gist_id}",
    "starred_url": "https://api.github.com/users/ChrisZou/starred{/owner}{/repo}",
    "subscriptions_url": "https://api.github.com/users/ChrisZou/subscriptions",
    "organizations_url": "https://api.github.com/users/ChrisZou/orgs",
    "repos_url": "https://api.github.com/users/ChrisZou/repos",
    "events_url": "https://api.github.com/users/ChrisZou/events{/privacy}",
    "received_events_url": "https://api.github.com/users/ChrisZou/received_events",
    "type": "User",
    "site_admin": false
  },
  "created_at": "2015-12-28T05:06:50Z",
  "updated_at": "2015-12-28T05:06:50Z",
  "body": "@artem-zinnatullin No, the app class I use extends `MultiDexApplication` and `super.onCreate()` is called before `DaggerMyComponent...build()`."
}
, {
  "url": "https://api.github.com/repos/google/dagger/issues/comments/167692522",
  "html_url": "https://github.com/google/dagger/issues/283#issuecomment-167692522",
  "issue_url": "https://api.github.com/repos/google/dagger/issues/283",
  "id": 167692522,
  "user": {
    "login": "ChrisZou",
    "id": 3190416,
    "avatar_url": "https://avatars.githubusercontent.com/u/3190416?v=3",
    "gravatar_id": "",
    "url": "https://api.github.com/users/ChrisZou",
    "html_url": "https://github.com/ChrisZou",
    "followers_url": "https://api.github.com/users/ChrisZou/followers",
    "following_url": "https://api.github.com/users/ChrisZou/following{/other_user}",
    "gists_url": "https://api.github.com/users/ChrisZou/gists{/gist_id}",
    "starred_url": "https://api.github.com/users/ChrisZou/starred{/owner}{/repo}",
    "subscriptions_url": "https://api.github.com/users/ChrisZou/subscriptions",
    "organizations_url": "https://api.github.com/users/ChrisZou/orgs",
    "repos_url": "https://api.github.com/users/ChrisZou/repos",
    "events_url": "https://api.github.com/users/ChrisZou/events{/privacy}",
    "received_events_url": "https://api.github.com/users/ChrisZou/received_events",
    "type": "User",
    "site_admin": false
  },
  "created_at": "2015-12-29T01:44:10Z",
  "updated_at": "2015-12-29T01:46:09Z",
  "body": "Hi all, I've made a demo of this issue, see [ChrisZou/dagger2inaardemo](https://github.com/ChrisZou/dagger2inaardemo). I think it has something to do with the way gradle works with `aar`. If you remove the `@aar`, it works all fine.\r\n@artem-zinnatullin @JakeWharton @digitalbuddha"
}
, {
  "url": "https://api.github.com/repos/google/dagger/issues/comments/167700930",
  "html_url": "https://github.com/google/dagger/issues/283#issuecomment-167700930",
  "issue_url": "https://api.github.com/repos/google/dagger/issues/283",
  "id": 167700930,
  "user": {
    "login": "digitalbuddha",
    "id": 4528092,
    "avatar_url": "https://avatars.githubusercontent.com/u/4528092?v=3",
    "gravatar_id": "",
    "url": "https://api.github.com/users/digitalbuddha",
    "html_url": "https://github.com/digitalbuddha",
    "followers_url": "https://api.github.com/users/digitalbuddha/followers",
    "following_url": "https://api.github.com/users/digitalbuddha/following{/other_user}",
    "gists_url": "https://api.github.com/users/digitalbuddha/gists{/gist_id}",
    "starred_url": "https://api.github.com/users/digitalbuddha/starred{/owner}{/repo}",
    "subscriptions_url": "https://api.github.com/users/digitalbuddha/subscriptions",
    "organizations_url": "https://api.github.com/users/digitalbuddha/orgs",
    "repos_url": "https://api.github.com/users/digitalbuddha/repos",
    "events_url": "https://api.github.com/users/digitalbuddha/events{/privacy}",
    "received_events_url": "https://api.github.com/users/digitalbuddha/received_events",
    "type": "User",
    "site_admin": false
  },
  "created_at": "2015-12-29T02:21:02Z",
  "updated_at": "2015-12-29T02:28:23Z",
  "body": "It wasn't apt problems.  adding ```compile 'com.google.dagger:dagger:2.0'``` to app ```build.gradle``` ran without error\r\n"
}
, {
  "url": "https://api.github.com/repos/google/dagger/issues/comments/167701208",
  "html_url": "https://github.com/google/dagger/issues/283#issuecomment-167701208",
  "issue_url": "https://api.github.com/repos/google/dagger/issues/283",
  "id": 167701208,
  "user": {
    "login": "JakeWharton",
    "id": 66577,
    "avatar_url": "https://avatars.githubusercontent.com/u/66577?v=3",
    "gravatar_id": "",
    "url": "https://api.github.com/users/JakeWharton",
    "html_url": "https://github.com/JakeWharton",
    "followers_url": "https://api.github.com/users/JakeWharton/followers",
    "following_url": "https://api.github.com/users/JakeWharton/following{/other_user}",
    "gists_url": "https://api.github.com/users/JakeWharton/gists{/gist_id}",
    "starred_url": "https://api.github.com/users/JakeWharton/starred{/owner}{/repo}",
    "subscriptions_url": "https://api.github.com/users/JakeWharton/subscriptions",
    "organizations_url": "https://api.github.com/users/JakeWharton/orgs",
    "repos_url": "https://api.github.com/users/JakeWharton/repos",
    "events_url": "https://api.github.com/users/JakeWharton/events{/privacy}",
    "received_events_url": "https://api.github.com/users/JakeWharton/received_events",
    "type": "User",
    "site_admin": false
  },
  "created_at": "2015-12-29T02:24:45Z",
  "updated_at": "2015-12-29T02:24:45Z",
  "body": "Do not append @aar to dependencies. That resolves directly to an artifact\nwithout going through transitive dependency resolution.\n\nOn Mon, Dec 28, 2015, 9:21 PM Mike Nakhimovich <notifications@github.com>\nwrote:\n\n> It wasn't apt problems. adding compile 'com.google.dagger:dagger:2.0' to\n> app build.gradlefixed the problem.\n>\n> —\n> Reply to this email directly or view it on GitHub\n> <https://github.com/google/dagger/issues/283#issuecomment-167700930>.\n>\n"
}
, {
  "url": "https://api.github.com/repos/google/dagger/issues/comments/167727639",
  "html_url": "https://github.com/google/dagger/issues/283#issuecomment-167727639",
  "issue_url": "https://api.github.com/repos/google/dagger/issues/283",
  "id": 167727639,
  "user": {
    "login": "artem-zinnatullin",
    "id": 967132,
    "avatar_url": "https://avatars.githubusercontent.com/u/967132?v=3",
    "gravatar_id": "",
    "url": "https://api.github.com/users/artem-zinnatullin",
    "html_url": "https://github.com/artem-zinnatullin",
    "followers_url": "https://api.github.com/users/artem-zinnatullin/followers",
    "following_url": "https://api.github.com/users/artem-zinnatullin/following{/other_user}",
    "gists_url": "https://api.github.com/users/artem-zinnatullin/gists{/gist_id}",
    "starred_url": "https://api.github.com/users/artem-zinnatullin/starred{/owner}{/repo}",
    "subscriptions_url": "https://api.github.com/users/artem-zinnatullin/subscriptions",
    "organizations_url": "https://api.github.com/users/artem-zinnatullin/orgs",
    "repos_url": "https://api.github.com/users/artem-zinnatullin/repos",
    "events_url": "https://api.github.com/users/artem-zinnatullin/events{/privacy}",
    "received_events_url": "https://api.github.com/users/artem-zinnatullin/received_events",
    "type": "User",
    "site_admin": false
  },
  "created_at": "2015-12-29T06:15:45Z",
  "updated_at": "2015-12-29T06:15:45Z",
  "body": "Or if you have to specify `@aar` you can explicitly force dependencies resolution:\r\n\r\n`compile ('groupId:artifactId:version@aar') { transitive = true }`\r\n\r\nAlternative solution: if you need to share your library only as `aar` you can stop publishing `jar` and set `<packaging>aar</packaging>` in `pom.xml` so Gradle will automatically download `aar` without need in explicit `@aar` and will do dependencies resolution.\r\n\r\n// @ChrisZou sorry for my comments about generated code and ProGuard, I've reread your issue after sleep next day and noticed that all these details were mentioned in the initial description. My bad :( "
}
, {
  "url": "https://api.github.com/repos/google/dagger/issues/comments/167739491",
  "html_url": "https://github.com/google/dagger/issues/283#issuecomment-167739491",
  "issue_url": "https://api.github.com/repos/google/dagger/issues/283",
  "id": 167739491,
  "user": {
    "login": "ChrisZou",
    "id": 3190416,
    "avatar_url": "https://avatars.githubusercontent.com/u/3190416?v=3",
    "gravatar_id": "",
    "url": "https://api.github.com/users/ChrisZou",
    "html_url": "https://github.com/ChrisZou",
    "followers_url": "https://api.github.com/users/ChrisZou/followers",
    "following_url": "https://api.github.com/users/ChrisZou/following{/other_user}",
    "gists_url": "https://api.github.com/users/ChrisZou/gists{/gist_id}",
    "starred_url": "https://api.github.com/users/ChrisZou/starred{/owner}{/repo}",
    "subscriptions_url": "https://api.github.com/users/ChrisZou/subscriptions",
    "organizations_url": "https://api.github.com/users/ChrisZou/orgs",
    "repos_url": "https://api.github.com/users/ChrisZou/repos",
    "events_url": "https://api.github.com/users/ChrisZou/events{/privacy}",
    "received_events_url": "https://api.github.com/users/ChrisZou/received_events",
    "type": "User",
    "site_admin": false
  },
  "created_at": "2015-12-29T07:33:50Z",
  "updated_at": "2015-12-29T07:33:50Z",
  "body": "@artem-zinnatullin Don't be sorry, I updated the question after you comment so that people come later would know this. :)"
}
, {
  "url": "https://api.github.com/repos/google/dagger/issues/comments/167742200",
  "html_url": "https://github.com/google/dagger/issues/283#issuecomment-167742200",
  "issue_url": "https://api.github.com/repos/google/dagger/issues/283",
  "id": 167742200,
  "user": {
    "login": "ChrisZou",
    "id": 3190416,
    "avatar_url": "https://avatars.githubusercontent.com/u/3190416?v=3",
    "gravatar_id": "",
    "url": "https://api.github.com/users/ChrisZou",
    "html_url": "https://github.com/ChrisZou",
    "followers_url": "https://api.github.com/users/ChrisZou/followers",
    "following_url": "https://api.github.com/users/ChrisZou/following{/other_user}",
    "gists_url": "https://api.github.com/users/ChrisZou/gists{/gist_id}",
    "starred_url": "https://api.github.com/users/ChrisZou/starred{/owner}{/repo}",
    "subscriptions_url": "https://api.github.com/users/ChrisZou/subscriptions",
    "organizations_url": "https://api.github.com/users/ChrisZou/orgs",
    "repos_url": "https://api.github.com/users/ChrisZou/repos",
    "events_url": "https://api.github.com/users/ChrisZou/events{/privacy}",
    "received_events_url": "https://api.github.com/users/ChrisZou/received_events",
    "type": "User",
    "site_admin": false
  },
  "created_at": "2015-12-29T08:03:21Z",
  "updated_at": "2015-12-29T08:03:21Z",
  "body": "Hi all, I've found a solution, since out project has rules that we must use `@aar` and false transitivity, what I did was that I found out dagger2 depends on another dependency `javax.inject:javax.inject:1`. Thank @digitalbuddha for the hint. So I added both  \r\n\r\n```\r\ncompile 'com.google.dagger:dagger:2.0'\r\ncompile 'javax.inject:javax.inject:1'\r\n```\r\n\r\nand now it works all right.\r\nI think the `NoClassDefFoundError` error message was a little misleading, since the generated classes were actually there!\r\nAnyway, thank you all for your help!"
}
, {
  "url": "https://api.github.com/repos/google/dagger/issues/comments/167743593",
  "html_url": "https://github.com/google/dagger/issues/283#issuecomment-167743593",
  "issue_url": "https://api.github.com/repos/google/dagger/issues/283",
  "id": 167743593,
  "user": {
    "login": "JakeWharton",
    "id": 66577,
    "avatar_url": "https://avatars.githubusercontent.com/u/66577?v=3",
    "gravatar_id": "",
    "url": "https://api.github.com/users/JakeWharton",
    "html_url": "https://github.com/JakeWharton",
    "followers_url": "https://api.github.com/users/JakeWharton/followers",
    "following_url": "https://api.github.com/users/JakeWharton/following{/other_user}",
    "gists_url": "https://api.github.com/users/JakeWharton/gists{/gist_id}",
    "starred_url": "https://api.github.com/users/JakeWharton/starred{/owner}{/repo}",
    "subscriptions_url": "https://api.github.com/users/JakeWharton/subscriptions",
    "organizations_url": "https://api.github.com/users/JakeWharton/orgs",
    "repos_url": "https://api.github.com/users/JakeWharton/repos",
    "events_url": "https://api.github.com/users/JakeWharton/events{/privacy}",
    "received_events_url": "https://api.github.com/users/JakeWharton/received_events",
    "type": "User",
    "site_admin": false
  },
  "created_at": "2015-12-29T08:21:48Z",
  "updated_at": "2015-12-29T08:21:48Z",
  "body": "You should not need to explicitly specify transitive dependencies, and doing so indicates a larger problem with your build that you should resolve."
}
]
