[
{
  "login": "simonwex",
  "id": 25260,
  "avatar_url": "https://avatars.githubusercontent.com/u/25260?v=3",
  "gravatar_id": "",
  "url": "https://api.github.com/users/simonwex",
  "html_url": "https://github.com/simonwex",
  "followers_url": "https://api.github.com/users/simonwex/followers",
  "following_url": "https://api.github.com/users/simonwex/following{/other_user}",
  "gists_url": "https://api.github.com/users/simonwex/gists{/gist_id}",
  "starred_url": "https://api.github.com/users/simonwex/starred{/owner}{/repo}",
  "subscriptions_url": "https://api.github.com/users/simonwex/subscriptions",
  "organizations_url": "https://api.github.com/users/simonwex/orgs",
  "repos_url": "https://api.github.com/users/simonwex/repos",
  "events_url": "https://api.github.com/users/simonwex/events{/privacy}",
  "received_events_url": "https://api.github.com/users/simonwex/received_events",
  "type": "User",
  "site_admin": false
}
, {
  "login": "mixedpuppy",
  "id": 135926,
  "avatar_url": "https://avatars.githubusercontent.com/u/135926?v=3",
  "gravatar_id": "",
  "url": "https://api.github.com/users/mixedpuppy",
  "html_url": "https://github.com/mixedpuppy",
  "followers_url": "https://api.github.com/users/mixedpuppy/followers",
  "following_url": "https://api.github.com/users/mixedpuppy/following{/other_user}",
  "gists_url": "https://api.github.com/users/mixedpuppy/gists{/gist_id}",
  "starred_url": "https://api.github.com/users/mixedpuppy/starred{/owner}{/repo}",
  "subscriptions_url": "https://api.github.com/users/mixedpuppy/subscriptions",
  "organizations_url": "https://api.github.com/users/mixedpuppy/orgs",
  "repos_url": "https://api.github.com/users/mixedpuppy/repos",
  "events_url": "https://api.github.com/users/mixedpuppy/events{/privacy}",
  "received_events_url": "https://api.github.com/users/mixedpuppy/received_events",
  "type": "User",
  "site_admin": false
}
, {
  "login": "michaelrhanson",
  "id": 382306,
  "avatar_url": "https://avatars.githubusercontent.com/u/382306?v=3",
  "gravatar_id": "",
  "url": "https://api.github.com/users/michaelrhanson",
  "html_url": "https://github.com/michaelrhanson",
  "followers_url": "https://api.github.com/users/michaelrhanson/followers",
  "following_url": "https://api.github.com/users/michaelrhanson/following{/other_user}",
  "gists_url": "https://api.github.com/users/michaelrhanson/gists{/gist_id}",
  "starred_url": "https://api.github.com/users/michaelrhanson/starred{/owner}{/repo}",
  "subscriptions_url": "https://api.github.com/users/michaelrhanson/subscriptions",
  "organizations_url": "https://api.github.com/users/michaelrhanson/orgs",
  "repos_url": "https://api.github.com/users/michaelrhanson/repos",
  "events_url": "https://api.github.com/users/michaelrhanson/events{/privacy}",
  "received_events_url": "https://api.github.com/users/michaelrhanson/received_events",
  "type": "User",
  "site_admin": false
}
, {
  "login": "gavinsharp",
  "id": 327839,
  "avatar_url": "https://avatars.githubusercontent.com/u/327839?v=3",
  "gravatar_id": "",
  "url": "https://api.github.com/users/gavinsharp",
  "html_url": "https://github.com/gavinsharp",
  "followers_url": "https://api.github.com/users/gavinsharp/followers",
  "following_url": "https://api.github.com/users/gavinsharp/following{/other_user}",
  "gists_url": "https://api.github.com/users/gavinsharp/gists{/gist_id}",
  "starred_url": "https://api.github.com/users/gavinsharp/starred{/owner}{/repo}",
  "subscriptions_url": "https://api.github.com/users/gavinsharp/subscriptions",
  "organizations_url": "https://api.github.com/users/gavinsharp/orgs",
  "repos_url": "https://api.github.com/users/gavinsharp/repos",
  "events_url": "https://api.github.com/users/gavinsharp/events{/privacy}",
  "received_events_url": "https://api.github.com/users/gavinsharp/received_events",
  "type": "User",
  "site_admin": false
}
, {
  "login": "mrrrgn",
  "id": 2722349,
  "avatar_url": "https://avatars.githubusercontent.com/u/2722349?v=3",
  "gravatar_id": "",
  "url": "https://api.github.com/users/mrrrgn",
  "html_url": "https://github.com/mrrrgn",
  "followers_url": "https://api.github.com/users/mrrrgn/followers",
  "following_url": "https://api.github.com/users/mrrrgn/following{/other_user}",
  "gists_url": "https://api.github.com/users/mrrrgn/gists{/gist_id}",
  "starred_url": "https://api.github.com/users/mrrrgn/starred{/owner}{/repo}",
  "subscriptions_url": "https://api.github.com/users/mrrrgn/subscriptions",
  "organizations_url": "https://api.github.com/users/mrrrgn/orgs",
  "repos_url": "https://api.github.com/users/mrrrgn/repos",
  "events_url": "https://api.github.com/users/mrrrgn/events{/privacy}",
  "received_events_url": "https://api.github.com/users/mrrrgn/received_events",
  "type": "User",
  "site_admin": false
}
]
