[
{
  "url": "https://api.github.com/repos/alibaba/druid/issues/comments/59176200",
  "html_url": "https://github.com/alibaba/druid/issues/674#issuecomment-59176200",
  "issue_url": "https://api.github.com/repos/alibaba/druid/issues/674",
  "id": 59176200,
  "user": {
    "login": "zhump",
    "id": 7962067,
    "avatar_url": "https://avatars.githubusercontent.com/u/7962067?v=3",
    "gravatar_id": "",
    "url": "https://api.github.com/users/zhump",
    "html_url": "https://github.com/zhump",
    "followers_url": "https://api.github.com/users/zhump/followers",
    "following_url": "https://api.github.com/users/zhump/following{/other_user}",
    "gists_url": "https://api.github.com/users/zhump/gists{/gist_id}",
    "starred_url": "https://api.github.com/users/zhump/starred{/owner}{/repo}",
    "subscriptions_url": "https://api.github.com/users/zhump/subscriptions",
    "organizations_url": "https://api.github.com/users/zhump/orgs",
    "repos_url": "https://api.github.com/users/zhump/repos",
    "events_url": "https://api.github.com/users/zhump/events{/privacy}",
    "received_events_url": "https://api.github.com/users/zhump/received_events",
    "type": "User",
    "site_admin": false
  },
  "created_at": "2014-10-15T08:55:21Z",
  "updated_at": "2014-10-15T08:55:21Z",
  "body": "折腾半天 知道了。。\r\n\r\n\r\n\t@Resource\r\n\tprivate DruidDataSource source;\r\n\r\n\r\n         System.out.println(source.getNotEmptyWaitMillis());\r\n\r\n"
}
]
