[
{
  "url": "https://api.github.com/repos/Automattic/wp-calypso/issues/comments/168097718",
  "html_url": "https://github.com/Automattic/wp-calypso/issues/2048#issuecomment-168097718",
  "issue_url": "https://api.github.com/repos/Automattic/wp-calypso/issues/2048",
  "id": 168097718,
  "user": {
    "login": "BandonRandon",
    "id": 150348,
    "avatar_url": "https://avatars.githubusercontent.com/u/150348?v=3",
    "gravatar_id": "",
    "url": "https://api.github.com/users/BandonRandon",
    "html_url": "https://github.com/BandonRandon",
    "followers_url": "https://api.github.com/users/BandonRandon/followers",
    "following_url": "https://api.github.com/users/BandonRandon/following{/other_user}",
    "gists_url": "https://api.github.com/users/BandonRandon/gists{/gist_id}",
    "starred_url": "https://api.github.com/users/BandonRandon/starred{/owner}{/repo}",
    "subscriptions_url": "https://api.github.com/users/BandonRandon/subscriptions",
    "organizations_url": "https://api.github.com/users/BandonRandon/orgs",
    "repos_url": "https://api.github.com/users/BandonRandon/repos",
    "events_url": "https://api.github.com/users/BandonRandon/events{/privacy}",
    "received_events_url": "https://api.github.com/users/BandonRandon/received_events",
    "type": "User",
    "site_admin": false
  },
  "created_at": "2015-12-31T00:02:00Z",
  "updated_at": "2015-12-31T00:02:00Z",
  "body": "cc @melanieharari "
}
, {
  "url": "https://api.github.com/repos/Automattic/wp-calypso/issues/comments/169773487",
  "html_url": "https://github.com/Automattic/wp-calypso/issues/2048#issuecomment-169773487",
  "issue_url": "https://api.github.com/repos/Automattic/wp-calypso/issues/2048",
  "id": 169773487,
  "user": {
    "login": "supernovia",
    "id": 3476361,
    "avatar_url": "https://avatars.githubusercontent.com/u/3476361?v=3",
    "gravatar_id": "",
    "url": "https://api.github.com/users/supernovia",
    "html_url": "https://github.com/supernovia",
    "followers_url": "https://api.github.com/users/supernovia/followers",
    "following_url": "https://api.github.com/users/supernovia/following{/other_user}",
    "gists_url": "https://api.github.com/users/supernovia/gists{/gist_id}",
    "starred_url": "https://api.github.com/users/supernovia/starred{/owner}{/repo}",
    "subscriptions_url": "https://api.github.com/users/supernovia/subscriptions",
    "organizations_url": "https://api.github.com/users/supernovia/orgs",
    "repos_url": "https://api.github.com/users/supernovia/repos",
    "events_url": "https://api.github.com/users/supernovia/events{/privacy}",
    "received_events_url": "https://api.github.com/users/supernovia/received_events",
    "type": "User",
    "site_admin": false
  },
  "created_at": "2016-01-07T18:57:10Z",
  "updated_at": "2016-01-07T18:57:24Z",
  "body": "As far as I can tell, there's no way for users to cancel anything but Private Registration.\r\n\r\nhttps://cloudup.com/cQpCI9A4cps"
}
]
