[
{
  "url": "https://api.github.com/repos/google/protobuf/issues/comments/158442140",
  "html_url": "https://github.com/google/protobuf/pull/997#issuecomment-158442140",
  "issue_url": "https://api.github.com/repos/google/protobuf/issues/997",
  "id": 158442140,
  "user": {
    "login": "googlebot",
    "id": 5384588,
    "avatar_url": "https://avatars.githubusercontent.com/u/5384588?v=3",
    "gravatar_id": "",
    "url": "https://api.github.com/users/googlebot",
    "html_url": "https://github.com/googlebot",
    "followers_url": "https://api.github.com/users/googlebot/followers",
    "following_url": "https://api.github.com/users/googlebot/following{/other_user}",
    "gists_url": "https://api.github.com/users/googlebot/gists{/gist_id}",
    "starred_url": "https://api.github.com/users/googlebot/starred{/owner}{/repo}",
    "subscriptions_url": "https://api.github.com/users/googlebot/subscriptions",
    "organizations_url": "https://api.github.com/users/googlebot/orgs",
    "repos_url": "https://api.github.com/users/googlebot/repos",
    "events_url": "https://api.github.com/users/googlebot/events{/privacy}",
    "received_events_url": "https://api.github.com/users/googlebot/received_events",
    "type": "User",
    "site_admin": false
  },
  "created_at": "2015-11-20T16:01:32Z",
  "updated_at": "2015-11-20T16:01:32Z",
  "body": "Thanks for your pull request.  It looks like this may be your first contribution to a Google open source project. Before we can look at your pull request, you'll need to sign a Contributor License Agreement (CLA).\n\n:memo: **Please visit <https://cla.developers.google.com/> to sign.**\n\nOnce you've signed, please reply here (e.g. `I signed it!`) and we'll verify.  Thanks.\n\n---\n\n- If you've already signed a CLA, it's possible we don't have your GitHub username or you're using a different email address.  Check [your existing CLA data](https://cla.developers.google.com/clas) and verify that your [email is set on your git commits](https://help.github.com/articles/setting-your-email-in-git/).\n- If you signed the CLA as a corporation, please let us know the company's name.\n\n<!-- need_sender_cla -->"
}
, {
  "url": "https://api.github.com/repos/google/protobuf/issues/comments/158445042",
  "html_url": "https://github.com/google/protobuf/pull/997#issuecomment-158445042",
  "issue_url": "https://api.github.com/repos/google/protobuf/issues/997",
  "id": 158445042,
  "user": {
    "login": "anderscarling",
    "id": 49722,
    "avatar_url": "https://avatars.githubusercontent.com/u/49722?v=3",
    "gravatar_id": "",
    "url": "https://api.github.com/users/anderscarling",
    "html_url": "https://github.com/anderscarling",
    "followers_url": "https://api.github.com/users/anderscarling/followers",
    "following_url": "https://api.github.com/users/anderscarling/following{/other_user}",
    "gists_url": "https://api.github.com/users/anderscarling/gists{/gist_id}",
    "starred_url": "https://api.github.com/users/anderscarling/starred{/owner}{/repo}",
    "subscriptions_url": "https://api.github.com/users/anderscarling/subscriptions",
    "organizations_url": "https://api.github.com/users/anderscarling/orgs",
    "repos_url": "https://api.github.com/users/anderscarling/repos",
    "events_url": "https://api.github.com/users/anderscarling/events{/privacy}",
    "received_events_url": "https://api.github.com/users/anderscarling/received_events",
    "type": "User",
    "site_admin": false
  },
  "created_at": "2015-11-20T16:07:55Z",
  "updated_at": "2015-11-20T16:07:55Z",
  "body": "I signed it!"
}
, {
  "url": "https://api.github.com/repos/google/protobuf/issues/comments/158445050",
  "html_url": "https://github.com/google/protobuf/pull/997#issuecomment-158445050",
  "issue_url": "https://api.github.com/repos/google/protobuf/issues/997",
  "id": 158445050,
  "user": {
    "login": "googlebot",
    "id": 5384588,
    "avatar_url": "https://avatars.githubusercontent.com/u/5384588?v=3",
    "gravatar_id": "",
    "url": "https://api.github.com/users/googlebot",
    "html_url": "https://github.com/googlebot",
    "followers_url": "https://api.github.com/users/googlebot/followers",
    "following_url": "https://api.github.com/users/googlebot/following{/other_user}",
    "gists_url": "https://api.github.com/users/googlebot/gists{/gist_id}",
    "starred_url": "https://api.github.com/users/googlebot/starred{/owner}{/repo}",
    "subscriptions_url": "https://api.github.com/users/googlebot/subscriptions",
    "organizations_url": "https://api.github.com/users/googlebot/orgs",
    "repos_url": "https://api.github.com/users/googlebot/repos",
    "events_url": "https://api.github.com/users/googlebot/events{/privacy}",
    "received_events_url": "https://api.github.com/users/googlebot/received_events",
    "type": "User",
    "site_admin": false
  },
  "created_at": "2015-11-20T16:07:56Z",
  "updated_at": "2015-11-20T16:07:56Z",
  "body": "CLAs look good, thanks!\n\n<!-- ok -->"
}
, {
  "url": "https://api.github.com/repos/google/protobuf/issues/comments/158460192",
  "html_url": "https://github.com/google/protobuf/pull/997#issuecomment-158460192",
  "issue_url": "https://api.github.com/repos/google/protobuf/issues/997",
  "id": 158460192,
  "user": {
    "login": "anderscarling",
    "id": 49722,
    "avatar_url": "https://avatars.githubusercontent.com/u/49722?v=3",
    "gravatar_id": "",
    "url": "https://api.github.com/users/anderscarling",
    "html_url": "https://github.com/anderscarling",
    "followers_url": "https://api.github.com/users/anderscarling/followers",
    "following_url": "https://api.github.com/users/anderscarling/following{/other_user}",
    "gists_url": "https://api.github.com/users/anderscarling/gists{/gist_id}",
    "starred_url": "https://api.github.com/users/anderscarling/starred{/owner}{/repo}",
    "subscriptions_url": "https://api.github.com/users/anderscarling/subscriptions",
    "organizations_url": "https://api.github.com/users/anderscarling/orgs",
    "repos_url": "https://api.github.com/users/anderscarling/repos",
    "events_url": "https://api.github.com/users/anderscarling/events{/privacy}",
    "received_events_url": "https://api.github.com/users/anderscarling/received_events",
    "type": "User",
    "site_admin": false
  },
  "created_at": "2015-11-20T17:00:44Z",
  "updated_at": "2015-11-20T17:00:44Z",
  "body": "So, I realized I should probably support jruby as well, so I'm looking into fixing that (and a harmonizing exceptions raised between the two platforms as it seems to differ some).."
}
, {
  "url": "https://api.github.com/repos/google/protobuf/issues/comments/158659534",
  "html_url": "https://github.com/google/protobuf/pull/997#issuecomment-158659534",
  "issue_url": "https://api.github.com/repos/google/protobuf/issues/997",
  "id": 158659534,
  "user": {
    "login": "anderscarling",
    "id": 49722,
    "avatar_url": "https://avatars.githubusercontent.com/u/49722?v=3",
    "gravatar_id": "",
    "url": "https://api.github.com/users/anderscarling",
    "html_url": "https://github.com/anderscarling",
    "followers_url": "https://api.github.com/users/anderscarling/followers",
    "following_url": "https://api.github.com/users/anderscarling/following{/other_user}",
    "gists_url": "https://api.github.com/users/anderscarling/gists{/gist_id}",
    "starred_url": "https://api.github.com/users/anderscarling/starred{/owner}{/repo}",
    "subscriptions_url": "https://api.github.com/users/anderscarling/subscriptions",
    "organizations_url": "https://api.github.com/users/anderscarling/orgs",
    "repos_url": "https://api.github.com/users/anderscarling/repos",
    "events_url": "https://api.github.com/users/anderscarling/events{/privacy}",
    "received_events_url": "https://api.github.com/users/anderscarling/received_events",
    "type": "User",
    "site_admin": false
  },
  "created_at": "2015-11-21T16:17:16Z",
  "updated_at": "2015-11-22T23:51:26Z",
  "body": "The build failure is in jruby and due to a \"SignalException: 1\", I don't think that's related to my patch\r\n\r\nIs it a known error?\r\n\r\nUpdate: closed/opened to trigger a new travis build."
}
, {
  "url": "https://api.github.com/repos/google/protobuf/issues/comments/183053015",
  "html_url": "https://github.com/google/protobuf/pull/997#issuecomment-183053015",
  "issue_url": "https://api.github.com/repos/google/protobuf/issues/997",
  "id": 183053015,
  "user": {
    "login": "haberman",
    "id": 1270,
    "avatar_url": "https://avatars.githubusercontent.com/u/1270?v=3",
    "gravatar_id": "",
    "url": "https://api.github.com/users/haberman",
    "html_url": "https://github.com/haberman",
    "followers_url": "https://api.github.com/users/haberman/followers",
    "following_url": "https://api.github.com/users/haberman/following{/other_user}",
    "gists_url": "https://api.github.com/users/haberman/gists{/gist_id}",
    "starred_url": "https://api.github.com/users/haberman/starred{/owner}{/repo}",
    "subscriptions_url": "https://api.github.com/users/haberman/subscriptions",
    "organizations_url": "https://api.github.com/users/haberman/orgs",
    "repos_url": "https://api.github.com/users/haberman/repos",
    "events_url": "https://api.github.com/users/haberman/events{/privacy}",
    "received_events_url": "https://api.github.com/users/haberman/received_events",
    "type": "User",
    "site_admin": false
  },
  "created_at": "2016-02-11T20:41:37Z",
  "updated_at": "2016-02-11T20:41:37Z",
  "body": "This looks great, thanks and sorry for the long delay!"
}
, {
  "url": "https://api.github.com/repos/google/protobuf/issues/comments/183368479",
  "html_url": "https://github.com/google/protobuf/pull/997#issuecomment-183368479",
  "issue_url": "https://api.github.com/repos/google/protobuf/issues/997",
  "id": 183368479,
  "user": {
    "login": "anderscarling",
    "id": 49722,
    "avatar_url": "https://avatars.githubusercontent.com/u/49722?v=3",
    "gravatar_id": "",
    "url": "https://api.github.com/users/anderscarling",
    "html_url": "https://github.com/anderscarling",
    "followers_url": "https://api.github.com/users/anderscarling/followers",
    "following_url": "https://api.github.com/users/anderscarling/following{/other_user}",
    "gists_url": "https://api.github.com/users/anderscarling/gists{/gist_id}",
    "starred_url": "https://api.github.com/users/anderscarling/starred{/owner}{/repo}",
    "subscriptions_url": "https://api.github.com/users/anderscarling/subscriptions",
    "organizations_url": "https://api.github.com/users/anderscarling/orgs",
    "repos_url": "https://api.github.com/users/anderscarling/repos",
    "events_url": "https://api.github.com/users/anderscarling/events{/privacy}",
    "received_events_url": "https://api.github.com/users/anderscarling/received_events",
    "type": "User",
    "site_admin": false
  },
  "created_at": "2016-02-12T15:12:42Z",
  "updated_at": "2016-02-12T15:12:42Z",
  "body": "Cool, thanks for merging. Will make debugging much easier. :)"
}
]
