[
{
  "url": "https://api.github.com/repos/google/protobuf/issues/comments/123878926",
  "html_url": "https://github.com/google/protobuf/pull/635#issuecomment-123878926",
  "issue_url": "https://api.github.com/repos/google/protobuf/issues/635",
  "id": 123878926,
  "user": {
    "login": "TeBoring",
    "id": 5195749,
    "avatar_url": "https://avatars.githubusercontent.com/u/5195749?v=3",
    "gravatar_id": "",
    "url": "https://api.github.com/users/TeBoring",
    "html_url": "https://github.com/TeBoring",
    "followers_url": "https://api.github.com/users/TeBoring/followers",
    "following_url": "https://api.github.com/users/TeBoring/following{/other_user}",
    "gists_url": "https://api.github.com/users/TeBoring/gists{/gist_id}",
    "starred_url": "https://api.github.com/users/TeBoring/starred{/owner}{/repo}",
    "subscriptions_url": "https://api.github.com/users/TeBoring/subscriptions",
    "organizations_url": "https://api.github.com/users/TeBoring/orgs",
    "repos_url": "https://api.github.com/users/TeBoring/repos",
    "events_url": "https://api.github.com/users/TeBoring/events{/privacy}",
    "received_events_url": "https://api.github.com/users/TeBoring/received_events",
    "type": "User",
    "site_admin": false
  },
  "created_at": "2015-07-22T21:57:47Z",
  "updated_at": "2015-07-22T21:57:47Z",
  "body": "@jcanizales to review"
}
, {
  "url": "https://api.github.com/repos/google/protobuf/issues/comments/123930964",
  "html_url": "https://github.com/google/protobuf/pull/635#issuecomment-123930964",
  "issue_url": "https://api.github.com/repos/google/protobuf/issues/635",
  "id": 123930964,
  "user": {
    "login": "jcanizales",
    "id": 5120183,
    "avatar_url": "https://avatars.githubusercontent.com/u/5120183?v=3",
    "gravatar_id": "",
    "url": "https://api.github.com/users/jcanizales",
    "html_url": "https://github.com/jcanizales",
    "followers_url": "https://api.github.com/users/jcanizales/followers",
    "following_url": "https://api.github.com/users/jcanizales/following{/other_user}",
    "gists_url": "https://api.github.com/users/jcanizales/gists{/gist_id}",
    "starred_url": "https://api.github.com/users/jcanizales/starred{/owner}{/repo}",
    "subscriptions_url": "https://api.github.com/users/jcanizales/subscriptions",
    "organizations_url": "https://api.github.com/users/jcanizales/orgs",
    "repos_url": "https://api.github.com/users/jcanizales/repos",
    "events_url": "https://api.github.com/users/jcanizales/events{/privacy}",
    "received_events_url": "https://api.github.com/users/jcanizales/received_events",
    "type": "User",
    "site_admin": false
  },
  "created_at": "2015-07-23T02:09:35Z",
  "updated_at": "2015-07-23T02:09:35Z",
  "body": "LGTM, but I'd have @thomasvl and @dmaclach review, because \"deployment target\" and \"base SDK\" still confuse me. For example, I see on Apple's documentation that `nullable`, `nonnull` etc. are supported starting with XCode 6.3, but I can't make the link between that and iOS version. It sounds more like a feature of clang, and they do say the ABI of the files doesn't change by using them."
}
, {
  "url": "https://api.github.com/repos/google/protobuf/issues/comments/124076211",
  "html_url": "https://github.com/google/protobuf/pull/635#issuecomment-124076211",
  "issue_url": "https://api.github.com/repos/google/protobuf/issues/635",
  "id": 124076211,
  "user": {
    "login": "TeBoring",
    "id": 5195749,
    "avatar_url": "https://avatars.githubusercontent.com/u/5195749?v=3",
    "gravatar_id": "",
    "url": "https://api.github.com/users/TeBoring",
    "html_url": "https://github.com/TeBoring",
    "followers_url": "https://api.github.com/users/TeBoring/followers",
    "following_url": "https://api.github.com/users/TeBoring/following{/other_user}",
    "gists_url": "https://api.github.com/users/TeBoring/gists{/gist_id}",
    "starred_url": "https://api.github.com/users/TeBoring/starred{/owner}{/repo}",
    "subscriptions_url": "https://api.github.com/users/TeBoring/subscriptions",
    "organizations_url": "https://api.github.com/users/TeBoring/orgs",
    "repos_url": "https://api.github.com/users/TeBoring/repos",
    "events_url": "https://api.github.com/users/TeBoring/events{/privacy}",
    "received_events_url": "https://api.github.com/users/TeBoring/received_events",
    "type": "User",
    "site_admin": false
  },
  "created_at": "2015-07-23T12:01:26Z",
  "updated_at": "2015-07-23T12:01:26Z",
  "body": "In the test, I see the deployment target for ios and osx is 7.1 and 10.9 respectively.\r\nhttps://github.com/google/protobuf/blob/master/objectivec/ProtocolBuffers_iOS.xcodeproj/project.pbxproj#L863\r\nhttps://github.com/google/protobuf/blob/master/objectivec/ProtocolBuffers_OSX.xcodeproj/project.pbxproj#L814"
}
, {
  "url": "https://api.github.com/repos/google/protobuf/issues/comments/125269024",
  "html_url": "https://github.com/google/protobuf/pull/635#issuecomment-125269024",
  "issue_url": "https://api.github.com/repos/google/protobuf/issues/635",
  "id": 125269024,
  "user": {
    "login": "thomasvl",
    "id": 5279928,
    "avatar_url": "https://avatars.githubusercontent.com/u/5279928?v=3",
    "gravatar_id": "",
    "url": "https://api.github.com/users/thomasvl",
    "html_url": "https://github.com/thomasvl",
    "followers_url": "https://api.github.com/users/thomasvl/followers",
    "following_url": "https://api.github.com/users/thomasvl/following{/other_user}",
    "gists_url": "https://api.github.com/users/thomasvl/gists{/gist_id}",
    "starred_url": "https://api.github.com/users/thomasvl/starred{/owner}{/repo}",
    "subscriptions_url": "https://api.github.com/users/thomasvl/subscriptions",
    "organizations_url": "https://api.github.com/users/thomasvl/orgs",
    "repos_url": "https://api.github.com/users/thomasvl/repos",
    "events_url": "https://api.github.com/users/thomasvl/events{/privacy}",
    "received_events_url": "https://api.github.com/users/thomasvl/received_events",
    "type": "User",
    "site_admin": false
  },
  "created_at": "2015-07-27T16:46:40Z",
  "updated_at": "2015-07-27T16:46:40Z",
  "body": "Bo - As you point out, the project is set to iOS 7.1, but you made the podspec 8.0, why the difference?"
}
, {
  "url": "https://api.github.com/repos/google/protobuf/issues/comments/125275866",
  "html_url": "https://github.com/google/protobuf/pull/635#issuecomment-125275866",
  "issue_url": "https://api.github.com/repos/google/protobuf/issues/635",
  "id": 125275866,
  "user": {
    "login": "TeBoring",
    "id": 5195749,
    "avatar_url": "https://avatars.githubusercontent.com/u/5195749?v=3",
    "gravatar_id": "",
    "url": "https://api.github.com/users/TeBoring",
    "html_url": "https://github.com/TeBoring",
    "followers_url": "https://api.github.com/users/TeBoring/followers",
    "following_url": "https://api.github.com/users/TeBoring/following{/other_user}",
    "gists_url": "https://api.github.com/users/TeBoring/gists{/gist_id}",
    "starred_url": "https://api.github.com/users/TeBoring/starred{/owner}{/repo}",
    "subscriptions_url": "https://api.github.com/users/TeBoring/subscriptions",
    "organizations_url": "https://api.github.com/users/TeBoring/orgs",
    "repos_url": "https://api.github.com/users/TeBoring/repos",
    "events_url": "https://api.github.com/users/TeBoring/events{/privacy}",
    "received_events_url": "https://api.github.com/users/TeBoring/received_events",
    "type": "User",
    "site_admin": false
  },
  "created_at": "2015-07-27T17:13:08Z",
  "updated_at": "2015-07-27T17:13:08Z",
  "body": "I was going to change it to 7.1. Just waited for confirmation."
}
]
