[
{
  "url": "https://api.github.com/repos/google/protobuf/issues/comments/126951939",
  "html_url": "https://github.com/google/protobuf/pull/669#issuecomment-126951939",
  "issue_url": "https://api.github.com/repos/google/protobuf/issues/669",
  "id": 126951939,
  "user": {
    "login": "jtattermusch",
    "id": 9939684,
    "avatar_url": "https://avatars.githubusercontent.com/u/9939684?v=3",
    "gravatar_id": "",
    "url": "https://api.github.com/users/jtattermusch",
    "html_url": "https://github.com/jtattermusch",
    "followers_url": "https://api.github.com/users/jtattermusch/followers",
    "following_url": "https://api.github.com/users/jtattermusch/following{/other_user}",
    "gists_url": "https://api.github.com/users/jtattermusch/gists{/gist_id}",
    "starred_url": "https://api.github.com/users/jtattermusch/starred{/owner}{/repo}",
    "subscriptions_url": "https://api.github.com/users/jtattermusch/subscriptions",
    "organizations_url": "https://api.github.com/users/jtattermusch/orgs",
    "repos_url": "https://api.github.com/users/jtattermusch/repos",
    "events_url": "https://api.github.com/users/jtattermusch/events{/privacy}",
    "received_events_url": "https://api.github.com/users/jtattermusch/received_events",
    "type": "User",
    "site_admin": false
  },
  "created_at": "2015-08-01T20:34:10Z",
  "updated_at": "2015-08-01T20:34:10Z",
  "body": "Yeah, improves readability quite a bit. LGTM. "
}
]
