[
{
  "url": "https://api.github.com/repos/google/protobuf/issues/comments/66580825",
  "html_url": "https://github.com/google/protobuf/pull/130#issuecomment-66580825",
  "issue_url": "https://api.github.com/repos/google/protobuf/issues/130",
  "id": 66580825,
  "user": {
    "login": "googlebot",
    "id": 5384588,
    "avatar_url": "https://avatars.githubusercontent.com/u/5384588?v=3",
    "gravatar_id": "",
    "url": "https://api.github.com/users/googlebot",
    "html_url": "https://github.com/googlebot",
    "followers_url": "https://api.github.com/users/googlebot/followers",
    "following_url": "https://api.github.com/users/googlebot/following{/other_user}",
    "gists_url": "https://api.github.com/users/googlebot/gists{/gist_id}",
    "starred_url": "https://api.github.com/users/googlebot/starred{/owner}{/repo}",
    "subscriptions_url": "https://api.github.com/users/googlebot/subscriptions",
    "organizations_url": "https://api.github.com/users/googlebot/orgs",
    "repos_url": "https://api.github.com/users/googlebot/repos",
    "events_url": "https://api.github.com/users/googlebot/events{/privacy}",
    "received_events_url": "https://api.github.com/users/googlebot/received_events",
    "type": "User",
    "site_admin": false
  },
  "created_at": "2014-12-11T07:07:00Z",
  "updated_at": "2014-12-11T07:07:00Z",
  "body": "Thanks for your pull request.\n\nIt looks like this may be your first contribution to a Google open source project, in which case you'll need to sign a Contributor License Agreement (CLA) at <https://cla.developers.google.com/>.\n\nIf you've already signed a CLA, it's possible we don't have your GitHub username or you're using a different email address.  Check the [information on your CLA](https://cla.developers.google.com/clas) or see this help article on [setting the email on your git commits](https://help.github.com/articles/setting-your-email-in-git/).\n\nOnce you've done that, please reply here to let us know.  If you signed the CLA as a corporation, please let us know the company's name.\n\n<!-- need_sender_cla -->"
}
, {
  "url": "https://api.github.com/repos/google/protobuf/issues/comments/66584222",
  "html_url": "https://github.com/google/protobuf/pull/130#issuecomment-66584222",
  "issue_url": "https://api.github.com/repos/google/protobuf/issues/130",
  "id": 66584222,
  "user": {
    "login": "Ivoz",
    "id": 199266,
    "avatar_url": "https://avatars.githubusercontent.com/u/199266?v=3",
    "gravatar_id": "",
    "url": "https://api.github.com/users/Ivoz",
    "html_url": "https://github.com/Ivoz",
    "followers_url": "https://api.github.com/users/Ivoz/followers",
    "following_url": "https://api.github.com/users/Ivoz/following{/other_user}",
    "gists_url": "https://api.github.com/users/Ivoz/gists{/gist_id}",
    "starred_url": "https://api.github.com/users/Ivoz/starred{/owner}{/repo}",
    "subscriptions_url": "https://api.github.com/users/Ivoz/subscriptions",
    "organizations_url": "https://api.github.com/users/Ivoz/orgs",
    "repos_url": "https://api.github.com/users/Ivoz/repos",
    "events_url": "https://api.github.com/users/Ivoz/events{/privacy}",
    "received_events_url": "https://api.github.com/users/Ivoz/received_events",
    "type": "User",
    "site_admin": false
  },
  "created_at": "2014-12-11T07:56:46Z",
  "updated_at": "2014-12-11T07:56:46Z",
  "body": "Signed CLA."
}
, {
  "url": "https://api.github.com/repos/google/protobuf/issues/comments/66584224",
  "html_url": "https://github.com/google/protobuf/pull/130#issuecomment-66584224",
  "issue_url": "https://api.github.com/repos/google/protobuf/issues/130",
  "id": 66584224,
  "user": {
    "login": "googlebot",
    "id": 5384588,
    "avatar_url": "https://avatars.githubusercontent.com/u/5384588?v=3",
    "gravatar_id": "",
    "url": "https://api.github.com/users/googlebot",
    "html_url": "https://github.com/googlebot",
    "followers_url": "https://api.github.com/users/googlebot/followers",
    "following_url": "https://api.github.com/users/googlebot/following{/other_user}",
    "gists_url": "https://api.github.com/users/googlebot/gists{/gist_id}",
    "starred_url": "https://api.github.com/users/googlebot/starred{/owner}{/repo}",
    "subscriptions_url": "https://api.github.com/users/googlebot/subscriptions",
    "organizations_url": "https://api.github.com/users/googlebot/orgs",
    "repos_url": "https://api.github.com/users/googlebot/repos",
    "events_url": "https://api.github.com/users/googlebot/events{/privacy}",
    "received_events_url": "https://api.github.com/users/googlebot/received_events",
    "type": "User",
    "site_admin": false
  },
  "created_at": "2014-12-11T07:56:47Z",
  "updated_at": "2014-12-11T07:56:47Z",
  "body": "CLAs look good, thanks!\n\n<!-- ok -->"
}
, {
  "url": "https://api.github.com/repos/google/protobuf/issues/comments/71364522",
  "html_url": "https://github.com/google/protobuf/pull/130#issuecomment-71364522",
  "issue_url": "https://api.github.com/repos/google/protobuf/issues/130",
  "id": 71364522,
  "user": {
    "login": "Ivoz",
    "id": 199266,
    "avatar_url": "https://avatars.githubusercontent.com/u/199266?v=3",
    "gravatar_id": "",
    "url": "https://api.github.com/users/Ivoz",
    "html_url": "https://github.com/Ivoz",
    "followers_url": "https://api.github.com/users/Ivoz/followers",
    "following_url": "https://api.github.com/users/Ivoz/following{/other_user}",
    "gists_url": "https://api.github.com/users/Ivoz/gists{/gist_id}",
    "starred_url": "https://api.github.com/users/Ivoz/starred{/owner}{/repo}",
    "subscriptions_url": "https://api.github.com/users/Ivoz/subscriptions",
    "organizations_url": "https://api.github.com/users/Ivoz/orgs",
    "repos_url": "https://api.github.com/users/Ivoz/repos",
    "events_url": "https://api.github.com/users/Ivoz/events{/privacy}",
    "received_events_url": "https://api.github.com/users/Ivoz/received_events",
    "type": "User",
    "site_admin": false
  },
  "created_at": "2015-01-25T10:15:01Z",
  "updated_at": "2015-01-25T10:15:01Z",
  "body": "@haberman closing in favour of #162 for freshness"
}
]
