[
{
  "url": "https://api.github.com/repos/google/google-api-python-client/issues/comments/161594903",
  "html_url": "https://github.com/google/google-api-python-client/issues/50#issuecomment-161594903",
  "issue_url": "https://api.github.com/repos/google/google-api-python-client/issues/50",
  "id": 161594903,
  "user": {
    "login": "xliiv",
    "id": 298994,
    "avatar_url": "https://avatars.githubusercontent.com/u/298994?v=3",
    "gravatar_id": "",
    "url": "https://api.github.com/users/xliiv",
    "html_url": "https://github.com/xliiv",
    "followers_url": "https://api.github.com/users/xliiv/followers",
    "following_url": "https://api.github.com/users/xliiv/following{/other_user}",
    "gists_url": "https://api.github.com/users/xliiv/gists{/gist_id}",
    "starred_url": "https://api.github.com/users/xliiv/starred{/owner}{/repo}",
    "subscriptions_url": "https://api.github.com/users/xliiv/subscriptions",
    "organizations_url": "https://api.github.com/users/xliiv/orgs",
    "repos_url": "https://api.github.com/users/xliiv/repos",
    "events_url": "https://api.github.com/users/xliiv/events{/privacy}",
    "received_events_url": "https://api.github.com/users/xliiv/received_events",
    "type": "User",
    "site_admin": false
  },
  "created_at": "2015-12-03T10:48:12Z",
  "updated_at": "2015-12-03T10:48:12Z",
  "body": "+1"
}
]
