[
{
  "url": "https://api.github.com/repos/google/google-api-python-client/issues/comments/138596666",
  "html_url": "https://github.com/google/google-api-python-client/pull/132#issuecomment-138596666",
  "issue_url": "https://api.github.com/repos/google/google-api-python-client/issues/132",
  "id": 138596666,
  "user": {
    "login": "googlebot",
    "id": 5384588,
    "avatar_url": "https://avatars.githubusercontent.com/u/5384588?v=3",
    "gravatar_id": "",
    "url": "https://api.github.com/users/googlebot",
    "html_url": "https://github.com/googlebot",
    "followers_url": "https://api.github.com/users/googlebot/followers",
    "following_url": "https://api.github.com/users/googlebot/following{/other_user}",
    "gists_url": "https://api.github.com/users/googlebot/gists{/gist_id}",
    "starred_url": "https://api.github.com/users/googlebot/starred{/owner}{/repo}",
    "subscriptions_url": "https://api.github.com/users/googlebot/subscriptions",
    "organizations_url": "https://api.github.com/users/googlebot/orgs",
    "repos_url": "https://api.github.com/users/googlebot/repos",
    "events_url": "https://api.github.com/users/googlebot/events{/privacy}",
    "received_events_url": "https://api.github.com/users/googlebot/received_events",
    "type": "User",
    "site_admin": false
  },
  "created_at": "2015-09-08T15:14:04Z",
  "updated_at": "2015-09-08T15:14:04Z",
  "body": "Thanks for your pull request.  It looks like this may be your first contribution to a Google open source project, in which case you'll need to sign a Contributor License Agreement (CLA).\n\n:memo: **Please visit <https://cla.developers.google.com/> to sign.**\n\nOnce you've signed, please reply here (e.g. `I signed it!`) and we'll verify.  Thanks.\n\n---\n\n- If you've already signed a CLA, it's possible we don't have your GitHub username or you're using a different email address.  Check [your existing CLA data](https://cla.developers.google.com/clas) and verify that your [email is set on your git commits](https://help.github.com/articles/setting-your-email-in-git/).\n- If you signed the CLA as a corporation, please let us know the company's name.\n\n<!-- need_sender_cla -->"
}
, {
  "url": "https://api.github.com/repos/google/google-api-python-client/issues/comments/138597825",
  "html_url": "https://github.com/google/google-api-python-client/pull/132#issuecomment-138597825",
  "issue_url": "https://api.github.com/repos/google/google-api-python-client/issues/132",
  "id": 138597825,
  "user": {
    "login": "volnt",
    "id": 2411932,
    "avatar_url": "https://avatars.githubusercontent.com/u/2411932?v=3",
    "gravatar_id": "",
    "url": "https://api.github.com/users/volnt",
    "html_url": "https://github.com/volnt",
    "followers_url": "https://api.github.com/users/volnt/followers",
    "following_url": "https://api.github.com/users/volnt/following{/other_user}",
    "gists_url": "https://api.github.com/users/volnt/gists{/gist_id}",
    "starred_url": "https://api.github.com/users/volnt/starred{/owner}{/repo}",
    "subscriptions_url": "https://api.github.com/users/volnt/subscriptions",
    "organizations_url": "https://api.github.com/users/volnt/orgs",
    "repos_url": "https://api.github.com/users/volnt/repos",
    "events_url": "https://api.github.com/users/volnt/events{/privacy}",
    "received_events_url": "https://api.github.com/users/volnt/received_events",
    "type": "User",
    "site_admin": false
  },
  "created_at": "2015-09-08T15:18:26Z",
  "updated_at": "2015-09-08T15:18:26Z",
  "body": "I signed it!"
}
, {
  "url": "https://api.github.com/repos/google/google-api-python-client/issues/comments/138597833",
  "html_url": "https://github.com/google/google-api-python-client/pull/132#issuecomment-138597833",
  "issue_url": "https://api.github.com/repos/google/google-api-python-client/issues/132",
  "id": 138597833,
  "user": {
    "login": "googlebot",
    "id": 5384588,
    "avatar_url": "https://avatars.githubusercontent.com/u/5384588?v=3",
    "gravatar_id": "",
    "url": "https://api.github.com/users/googlebot",
    "html_url": "https://github.com/googlebot",
    "followers_url": "https://api.github.com/users/googlebot/followers",
    "following_url": "https://api.github.com/users/googlebot/following{/other_user}",
    "gists_url": "https://api.github.com/users/googlebot/gists{/gist_id}",
    "starred_url": "https://api.github.com/users/googlebot/starred{/owner}{/repo}",
    "subscriptions_url": "https://api.github.com/users/googlebot/subscriptions",
    "organizations_url": "https://api.github.com/users/googlebot/orgs",
    "repos_url": "https://api.github.com/users/googlebot/repos",
    "events_url": "https://api.github.com/users/googlebot/events{/privacy}",
    "received_events_url": "https://api.github.com/users/googlebot/received_events",
    "type": "User",
    "site_admin": false
  },
  "created_at": "2015-09-08T15:18:27Z",
  "updated_at": "2015-09-08T15:18:27Z",
  "body": "CLAs look good, thanks!\n\n<!-- ok -->"
}
, {
  "url": "https://api.github.com/repos/google/google-api-python-client/issues/comments/138601861",
  "html_url": "https://github.com/google/google-api-python-client/pull/132#issuecomment-138601861",
  "issue_url": "https://api.github.com/repos/google/google-api-python-client/issues/132",
  "id": 138601861,
  "user": {
    "login": "nathanielmanistaatgoogle",
    "id": 10131044,
    "avatar_url": "https://avatars.githubusercontent.com/u/10131044?v=3",
    "gravatar_id": "",
    "url": "https://api.github.com/users/nathanielmanistaatgoogle",
    "html_url": "https://github.com/nathanielmanistaatgoogle",
    "followers_url": "https://api.github.com/users/nathanielmanistaatgoogle/followers",
    "following_url": "https://api.github.com/users/nathanielmanistaatgoogle/following{/other_user}",
    "gists_url": "https://api.github.com/users/nathanielmanistaatgoogle/gists{/gist_id}",
    "starred_url": "https://api.github.com/users/nathanielmanistaatgoogle/starred{/owner}{/repo}",
    "subscriptions_url": "https://api.github.com/users/nathanielmanistaatgoogle/subscriptions",
    "organizations_url": "https://api.github.com/users/nathanielmanistaatgoogle/orgs",
    "repos_url": "https://api.github.com/users/nathanielmanistaatgoogle/repos",
    "events_url": "https://api.github.com/users/nathanielmanistaatgoogle/events{/privacy}",
    "received_events_url": "https://api.github.com/users/nathanielmanistaatgoogle/received_events",
    "type": "User",
    "site_admin": false
  },
  "created_at": "2015-09-08T15:33:46Z",
  "updated_at": "2015-09-08T15:33:46Z",
  "body": "@volnt: I'm not sure I understand this change - is \"path parameters not in message\" an illegal thing for applications to do, and this change simply improves the quality of the exception that is raised, or is it a legal thing to do, and the use of a custom error class is warranted because KeyError indicates a programming defect but `InvalidMessageError` indicates... something else? How about test coverage for this change - I think that that would help me see legitimate use cases in which the exception is raised.\r\n\r\n@tmatsuo, do you want to look at this since it is discovery-related?"
}
, {
  "url": "https://api.github.com/repos/google/google-api-python-client/issues/comments/138615428",
  "html_url": "https://github.com/google/google-api-python-client/pull/132#issuecomment-138615428",
  "issue_url": "https://api.github.com/repos/google/google-api-python-client/issues/132",
  "id": 138615428,
  "user": {
    "login": "volnt",
    "id": 2411932,
    "avatar_url": "https://avatars.githubusercontent.com/u/2411932?v=3",
    "gravatar_id": "",
    "url": "https://api.github.com/users/volnt",
    "html_url": "https://github.com/volnt",
    "followers_url": "https://api.github.com/users/volnt/followers",
    "following_url": "https://api.github.com/users/volnt/following{/other_user}",
    "gists_url": "https://api.github.com/users/volnt/gists{/gist_id}",
    "starred_url": "https://api.github.com/users/volnt/starred{/owner}{/repo}",
    "subscriptions_url": "https://api.github.com/users/volnt/subscriptions",
    "organizations_url": "https://api.github.com/users/volnt/orgs",
    "repos_url": "https://api.github.com/users/volnt/repos",
    "events_url": "https://api.github.com/users/volnt/events{/privacy}",
    "received_events_url": "https://api.github.com/users/volnt/received_events",
    "type": "User",
    "site_admin": false
  },
  "created_at": "2015-09-08T16:10:30Z",
  "updated_at": "2015-09-08T16:10:30Z",
  "body": "@nathanielmanistaatgoogle This change improves the quality of the exception that is raised. \r\n\r\nWhen you use the endpoint example I wrote above, the discovery module just throws \"KeyError: u'parameter'\". This exception doesn't indicate anything about why the exception is raised.\r\n\r\n"
}
, {
  "url": "https://api.github.com/repos/google/google-api-python-client/issues/comments/138616555",
  "html_url": "https://github.com/google/google-api-python-client/pull/132#issuecomment-138616555",
  "issue_url": "https://api.github.com/repos/google/google-api-python-client/issues/132",
  "id": 138616555,
  "user": {
    "login": "volnt",
    "id": 2411932,
    "avatar_url": "https://avatars.githubusercontent.com/u/2411932?v=3",
    "gravatar_id": "",
    "url": "https://api.github.com/users/volnt",
    "html_url": "https://github.com/volnt",
    "followers_url": "https://api.github.com/users/volnt/followers",
    "following_url": "https://api.github.com/users/volnt/following{/other_user}",
    "gists_url": "https://api.github.com/users/volnt/gists{/gist_id}",
    "starred_url": "https://api.github.com/users/volnt/starred{/owner}{/repo}",
    "subscriptions_url": "https://api.github.com/users/volnt/subscriptions",
    "organizations_url": "https://api.github.com/users/volnt/orgs",
    "repos_url": "https://api.github.com/users/volnt/repos",
    "events_url": "https://api.github.com/users/volnt/events{/privacy}",
    "received_events_url": "https://api.github.com/users/volnt/received_events",
    "type": "User",
    "site_admin": false
  },
  "created_at": "2015-09-08T16:13:42Z",
  "updated_at": "2015-09-08T16:13:42Z",
  "body": "I will look into making a test to cover this change."
}
, {
  "url": "https://api.github.com/repos/google/google-api-python-client/issues/comments/138633917",
  "html_url": "https://github.com/google/google-api-python-client/pull/132#issuecomment-138633917",
  "issue_url": "https://api.github.com/repos/google/google-api-python-client/issues/132",
  "id": 138633917,
  "user": {
    "login": "tmatsuo",
    "id": 41815,
    "avatar_url": "https://avatars.githubusercontent.com/u/41815?v=3",
    "gravatar_id": "",
    "url": "https://api.github.com/users/tmatsuo",
    "html_url": "https://github.com/tmatsuo",
    "followers_url": "https://api.github.com/users/tmatsuo/followers",
    "following_url": "https://api.github.com/users/tmatsuo/following{/other_user}",
    "gists_url": "https://api.github.com/users/tmatsuo/gists{/gist_id}",
    "starred_url": "https://api.github.com/users/tmatsuo/starred{/owner}{/repo}",
    "subscriptions_url": "https://api.github.com/users/tmatsuo/subscriptions",
    "organizations_url": "https://api.github.com/users/tmatsuo/orgs",
    "repos_url": "https://api.github.com/users/tmatsuo/repos",
    "events_url": "https://api.github.com/users/tmatsuo/events{/privacy}",
    "received_events_url": "https://api.github.com/users/tmatsuo/received_events",
    "type": "User",
    "site_admin": false
  },
  "created_at": "2015-09-08T17:00:09Z",
  "updated_at": "2015-09-08T17:00:09Z",
  "body": "@nathanielmanistaatgoogle It is in the discovery.py, but the change is actually in the generated method. I'll take a look anyways.\r\n\r\n@volnt I think it's when you try to use your endpoint API from the client side. Maybe you can add a samplle code for such wrong usage?"
}
, {
  "url": "https://api.github.com/repos/google/google-api-python-client/issues/comments/138822521",
  "html_url": "https://github.com/google/google-api-python-client/pull/132#issuecomment-138822521",
  "issue_url": "https://api.github.com/repos/google/google-api-python-client/issues/132",
  "id": 138822521,
  "user": {
    "login": "volnt",
    "id": 2411932,
    "avatar_url": "https://avatars.githubusercontent.com/u/2411932?v=3",
    "gravatar_id": "",
    "url": "https://api.github.com/users/volnt",
    "html_url": "https://github.com/volnt",
    "followers_url": "https://api.github.com/users/volnt/followers",
    "following_url": "https://api.github.com/users/volnt/following{/other_user}",
    "gists_url": "https://api.github.com/users/volnt/gists{/gist_id}",
    "starred_url": "https://api.github.com/users/volnt/starred{/owner}{/repo}",
    "subscriptions_url": "https://api.github.com/users/volnt/subscriptions",
    "organizations_url": "https://api.github.com/users/volnt/orgs",
    "repos_url": "https://api.github.com/users/volnt/repos",
    "events_url": "https://api.github.com/users/volnt/events{/privacy}",
    "received_events_url": "https://api.github.com/users/volnt/received_events",
    "type": "User",
    "site_admin": false
  },
  "created_at": "2015-09-09T08:24:31Z",
  "updated_at": "2015-09-09T08:24:31Z",
  "body": "A sample code would be : \r\n\r\n```\r\n@endpoints.method(message_types.VoidMessage, message_types.VoidMessage, path='/{parameter}', name='sample_endpoint')\r\ndef sample_endpoint(self, request):\r\n    return VoidMessage()\r\n```\r\n```\r\n>>> service = apiclient.discovery.build(sample_api, sample_version, discoveryServiceUrl=sample_discovery_url)\r\n>>> service.sample().sample_endpoint(parameter=\"sample_parameter\").execute()\r\nTraceback (most recent call last):\r\n ...\r\n ...\r\nKeyError: u'parameter'\r\n```\r\n\r\nWith my change it outputs : \r\n```\r\nTraceback (most recent call last):\r\n ...\r\n ...\r\nTypeError: Missing path parameter \"parameter\" in input message\r\n```\r\n\r\n"
}
, {
  "url": "https://api.github.com/repos/google/google-api-python-client/issues/comments/138939163",
  "html_url": "https://github.com/google/google-api-python-client/pull/132#issuecomment-138939163",
  "issue_url": "https://api.github.com/repos/google/google-api-python-client/issues/132",
  "id": 138939163,
  "user": {
    "login": "nathanielmanistaatgoogle",
    "id": 10131044,
    "avatar_url": "https://avatars.githubusercontent.com/u/10131044?v=3",
    "gravatar_id": "",
    "url": "https://api.github.com/users/nathanielmanistaatgoogle",
    "html_url": "https://github.com/nathanielmanistaatgoogle",
    "followers_url": "https://api.github.com/users/nathanielmanistaatgoogle/followers",
    "following_url": "https://api.github.com/users/nathanielmanistaatgoogle/following{/other_user}",
    "gists_url": "https://api.github.com/users/nathanielmanistaatgoogle/gists{/gist_id}",
    "starred_url": "https://api.github.com/users/nathanielmanistaatgoogle/starred{/owner}{/repo}",
    "subscriptions_url": "https://api.github.com/users/nathanielmanistaatgoogle/subscriptions",
    "organizations_url": "https://api.github.com/users/nathanielmanistaatgoogle/orgs",
    "repos_url": "https://api.github.com/users/nathanielmanistaatgoogle/repos",
    "events_url": "https://api.github.com/users/nathanielmanistaatgoogle/events{/privacy}",
    "received_events_url": "https://api.github.com/users/nathanielmanistaatgoogle/received_events",
    "type": "User",
    "site_admin": false
  },
  "created_at": "2015-09-09T15:02:27Z",
  "updated_at": "2015-09-09T15:02:27Z",
  "body": "Now that this has settled a bit: why isn't `ValueError` the appropriate exception to use? According to [its spec](https://docs.python.org/2/library/exceptions.html#exceptions.ValueError), `ValueError` indicates that a programming mistake has been made by passing particular values of arguments to a function. Isn't that the case here? If what we want is a more helpful message communicated to the user, can't we do that without having to define a new exception type?"
}
, {
  "url": "https://api.github.com/repos/google/google-api-python-client/issues/comments/139001714",
  "html_url": "https://github.com/google/google-api-python-client/pull/132#issuecomment-139001714",
  "issue_url": "https://api.github.com/repos/google/google-api-python-client/issues/132",
  "id": 139001714,
  "user": {
    "login": "tmatsuo",
    "id": 41815,
    "avatar_url": "https://avatars.githubusercontent.com/u/41815?v=3",
    "gravatar_id": "",
    "url": "https://api.github.com/users/tmatsuo",
    "html_url": "https://github.com/tmatsuo",
    "followers_url": "https://api.github.com/users/tmatsuo/followers",
    "following_url": "https://api.github.com/users/tmatsuo/following{/other_user}",
    "gists_url": "https://api.github.com/users/tmatsuo/gists{/gist_id}",
    "starred_url": "https://api.github.com/users/tmatsuo/starred{/owner}{/repo}",
    "subscriptions_url": "https://api.github.com/users/tmatsuo/subscriptions",
    "organizations_url": "https://api.github.com/users/tmatsuo/orgs",
    "repos_url": "https://api.github.com/users/tmatsuo/repos",
    "events_url": "https://api.github.com/users/tmatsuo/events{/privacy}",
    "received_events_url": "https://api.github.com/users/tmatsuo/received_events",
    "type": "User",
    "site_admin": false
  },
  "created_at": "2015-09-09T18:39:56Z",
  "updated_at": "2015-09-09T18:39:56Z",
  "body": "@nathanielmanistaatgoogle Good catch. I agree.\r\n\r\n@volnt I think your sample has `parameter` argument, which is not intended maybe?\r\n\r\nJFYI this is a good talk: http://pyvideo.org/video/880/stop-writing-classes"
}
, {
  "url": "https://api.github.com/repos/google/google-api-python-client/issues/comments/148972999",
  "html_url": "https://github.com/google/google-api-python-client/pull/132#issuecomment-148972999",
  "issue_url": "https://api.github.com/repos/google/google-api-python-client/issues/132",
  "id": 148972999,
  "user": {
    "login": "pferate",
    "id": 468011,
    "avatar_url": "https://avatars.githubusercontent.com/u/468011?v=3",
    "gravatar_id": "",
    "url": "https://api.github.com/users/pferate",
    "html_url": "https://github.com/pferate",
    "followers_url": "https://api.github.com/users/pferate/followers",
    "following_url": "https://api.github.com/users/pferate/following{/other_user}",
    "gists_url": "https://api.github.com/users/pferate/gists{/gist_id}",
    "starred_url": "https://api.github.com/users/pferate/starred{/owner}{/repo}",
    "subscriptions_url": "https://api.github.com/users/pferate/subscriptions",
    "organizations_url": "https://api.github.com/users/pferate/orgs",
    "repos_url": "https://api.github.com/users/pferate/repos",
    "events_url": "https://api.github.com/users/pferate/events{/privacy}",
    "received_events_url": "https://api.github.com/users/pferate/received_events",
    "type": "User",
    "site_admin": false
  },
  "created_at": "2015-10-18T03:03:09Z",
  "updated_at": "2015-10-18T03:03:09Z",
  "body": "@tmatsuo Thanks for the video!  Jack did a similar talk at our Seattle Python meetup this summer, but it was more geared at names and namespaces, which he touched on here."
}
]
