[
{
  "url": "https://api.github.com/repos/paypal/PayPal-Ruby-SDK/issues/comments/76962538",
  "html_url": "https://github.com/paypal/PayPal-Ruby-SDK/issues/99#issuecomment-76962538",
  "issue_url": "https://api.github.com/repos/paypal/PayPal-Ruby-SDK/issues/99",
  "id": 76962538,
  "user": {
    "login": "lws68825",
    "id": 916968,
    "avatar_url": "https://avatars.githubusercontent.com/u/916968?v=3",
    "gravatar_id": "",
    "url": "https://api.github.com/users/lws68825",
    "html_url": "https://github.com/lws68825",
    "followers_url": "https://api.github.com/users/lws68825/followers",
    "following_url": "https://api.github.com/users/lws68825/following{/other_user}",
    "gists_url": "https://api.github.com/users/lws68825/gists{/gist_id}",
    "starred_url": "https://api.github.com/users/lws68825/starred{/owner}{/repo}",
    "subscriptions_url": "https://api.github.com/users/lws68825/subscriptions",
    "organizations_url": "https://api.github.com/users/lws68825/orgs",
    "repos_url": "https://api.github.com/users/lws68825/repos",
    "events_url": "https://api.github.com/users/lws68825/events{/privacy}",
    "received_events_url": "https://api.github.com/users/lws68825/received_events",
    "type": "User",
    "site_admin": false
  },
  "created_at": "2015-03-03T15:08:30Z",
  "updated_at": "2015-03-03T15:08:30Z",
  "body": "Hi, @yoonwaiyan . Maybe you should read this documentation, https://developer.paypal.com/webapps/developer/docs/integration/direct/rest_api_payment_country_currency_support/#direct-credit-card-payments"
}
, {
  "url": "https://api.github.com/repos/paypal/PayPal-Ruby-SDK/issues/comments/76970671",
  "html_url": "https://github.com/paypal/PayPal-Ruby-SDK/issues/99#issuecomment-76970671",
  "issue_url": "https://api.github.com/repos/paypal/PayPal-Ruby-SDK/issues/99",
  "id": 76970671,
  "user": {
    "login": "jziaja",
    "id": 8227966,
    "avatar_url": "https://avatars.githubusercontent.com/u/8227966?v=3",
    "gravatar_id": "",
    "url": "https://api.github.com/users/jziaja",
    "html_url": "https://github.com/jziaja",
    "followers_url": "https://api.github.com/users/jziaja/followers",
    "following_url": "https://api.github.com/users/jziaja/following{/other_user}",
    "gists_url": "https://api.github.com/users/jziaja/gists{/gist_id}",
    "starred_url": "https://api.github.com/users/jziaja/starred{/owner}{/repo}",
    "subscriptions_url": "https://api.github.com/users/jziaja/subscriptions",
    "organizations_url": "https://api.github.com/users/jziaja/orgs",
    "repos_url": "https://api.github.com/users/jziaja/repos",
    "events_url": "https://api.github.com/users/jziaja/events{/privacy}",
    "received_events_url": "https://api.github.com/users/jziaja/received_events",
    "type": "User",
    "site_admin": false
  },
  "created_at": "2015-03-03T15:47:24Z",
  "updated_at": "2015-03-03T16:58:52Z",
  "body": "Hi @yoonwaiyan , thanks for reporting this issue!  I was able to reproduce this error using a vaulted credit card along with an unsupported currency (as @lws68825 pointed out - thanks!):\r\n\r\n![image](https://cloud.githubusercontent.com/assets/8227966/6465941/e45ddc5a-c189-11e4-9633-adb98615240c.png)\r\n\r\nI'm guessing what should be returned in this case is the error you get when you provide new credit card details (using MYR currency):\r\n\r\n![image](https://cloud.githubusercontent.com/assets/8227966/6465966/0d10a4b6-c18a-11e4-9716-20939eccad28.png)\r\n\r\nI've reported this issue internally (ticket# **PPTIPS-2908**), and will followup with you here once I have a response from the payments team."
}
, {
  "url": "https://api.github.com/repos/paypal/PayPal-Ruby-SDK/issues/comments/76989290",
  "html_url": "https://github.com/paypal/PayPal-Ruby-SDK/issues/99#issuecomment-76989290",
  "issue_url": "https://api.github.com/repos/paypal/PayPal-Ruby-SDK/issues/99",
  "id": 76989290,
  "user": {
    "login": "jziaja",
    "id": 8227966,
    "avatar_url": "https://avatars.githubusercontent.com/u/8227966?v=3",
    "gravatar_id": "",
    "url": "https://api.github.com/users/jziaja",
    "html_url": "https://github.com/jziaja",
    "followers_url": "https://api.github.com/users/jziaja/followers",
    "following_url": "https://api.github.com/users/jziaja/following{/other_user}",
    "gists_url": "https://api.github.com/users/jziaja/gists{/gist_id}",
    "starred_url": "https://api.github.com/users/jziaja/starred{/owner}{/repo}",
    "subscriptions_url": "https://api.github.com/users/jziaja/subscriptions",
    "organizations_url": "https://api.github.com/users/jziaja/orgs",
    "repos_url": "https://api.github.com/users/jziaja/repos",
    "events_url": "https://api.github.com/users/jziaja/events{/privacy}",
    "received_events_url": "https://api.github.com/users/jziaja/received_events",
    "type": "User",
    "site_admin": false
  },
  "created_at": "2015-03-03T17:14:48Z",
  "updated_at": "2015-03-03T17:16:21Z",
  "body": "Quick update regarding credit card payments using unsupported currencies.  I'm seeing the following errors being returned:\r\n\r\n| Currency | Funding Source | API Error |\r\n| ----------- | --------------------- | ------------ |\r\n| `SGD` | `credit_card` | `UNKNOWN_ERROR` |\r\n| `SGD` | `credit_card_token` | `UNKNOWN_ERROR` |\r\n| `MYR` | `credit_card` | `VALIDATION_ERROR` |\r\n| `MYR` | `credit_card_token` | `UNKNOWN_ERROR` |\r\n\r\nI've been informed that a possible reason the `MYR` currency is returning a slightly different result for the ~~`credit_card_token`~~ `credit_card` case is that since it is considered an 'in-country' currency, it's likely hitting a payment filter earlier on in the validation process.  I've updated the internal ticket with this information so the payments team knows different currency types are resulting in slightly different API error behavior."
}
, {
  "url": "https://api.github.com/repos/paypal/PayPal-Ruby-SDK/issues/comments/143854776",
  "html_url": "https://github.com/paypal/PayPal-Ruby-SDK/issues/99#issuecomment-143854776",
  "issue_url": "https://api.github.com/repos/paypal/PayPal-Ruby-SDK/issues/99",
  "id": 143854776,
  "user": {
    "login": "ppmtscory",
    "id": 6306449,
    "avatar_url": "https://avatars.githubusercontent.com/u/6306449?v=3",
    "gravatar_id": "",
    "url": "https://api.github.com/users/ppmtscory",
    "html_url": "https://github.com/ppmtscory",
    "followers_url": "https://api.github.com/users/ppmtscory/followers",
    "following_url": "https://api.github.com/users/ppmtscory/following{/other_user}",
    "gists_url": "https://api.github.com/users/ppmtscory/gists{/gist_id}",
    "starred_url": "https://api.github.com/users/ppmtscory/starred{/owner}{/repo}",
    "subscriptions_url": "https://api.github.com/users/ppmtscory/subscriptions",
    "organizations_url": "https://api.github.com/users/ppmtscory/orgs",
    "repos_url": "https://api.github.com/users/ppmtscory/repos",
    "events_url": "https://api.github.com/users/ppmtscory/events{/privacy}",
    "received_events_url": "https://api.github.com/users/ppmtscory/received_events",
    "type": "User",
    "site_admin": false
  },
  "created_at": "2015-09-28T19:44:36Z",
  "updated_at": "2015-09-28T19:44:36Z",
  "body": "Closing as internal ticket has been fixed.  Unsupported currencies should now return a CURRENCY_NOT_SUPPORTED error message appropriately."
}
]
