[
{
  "url": "https://api.github.com/repos/elastic/curator/issues/comments/53038959",
  "html_url": "https://github.com/elastic/curator/issues/151#issuecomment-53038959",
  "issue_url": "https://api.github.com/repos/elastic/curator/issues/151",
  "id": 53038959,
  "user": {
    "login": "exklamationmark",
    "id": 1295869,
    "avatar_url": "https://avatars.githubusercontent.com/u/1295869?v=3",
    "gravatar_id": "",
    "url": "https://api.github.com/users/exklamationmark",
    "html_url": "https://github.com/exklamationmark",
    "followers_url": "https://api.github.com/users/exklamationmark/followers",
    "following_url": "https://api.github.com/users/exklamationmark/following{/other_user}",
    "gists_url": "https://api.github.com/users/exklamationmark/gists{/gist_id}",
    "starred_url": "https://api.github.com/users/exklamationmark/starred{/owner}{/repo}",
    "subscriptions_url": "https://api.github.com/users/exklamationmark/subscriptions",
    "organizations_url": "https://api.github.com/users/exklamationmark/orgs",
    "repos_url": "https://api.github.com/users/exklamationmark/repos",
    "events_url": "https://api.github.com/users/exklamationmark/events{/privacy}",
    "received_events_url": "https://api.github.com/users/exklamationmark/received_events",
    "type": "User",
    "site_admin": false
  },
  "created_at": "2014-08-22T09:05:42Z",
  "updated_at": "2014-08-22T09:05:42Z",
  "body": "seems to be a mistake on io redirection on my end. Changed them to be\r\n`/usr/local/bin/curator bloom --older-than 2 >> /var/log/opt/curator.log 2>&1` and it works\r\n"
}
, {
  "url": "https://api.github.com/repos/elastic/curator/issues/comments/88252653",
  "html_url": "https://github.com/elastic/curator/issues/151#issuecomment-88252653",
  "issue_url": "https://api.github.com/repos/elastic/curator/issues/151",
  "id": 88252653,
  "user": {
    "login": "sjdirect",
    "id": 3812834,
    "avatar_url": "https://avatars.githubusercontent.com/u/3812834?v=3",
    "gravatar_id": "",
    "url": "https://api.github.com/users/sjdirect",
    "html_url": "https://github.com/sjdirect",
    "followers_url": "https://api.github.com/users/sjdirect/followers",
    "following_url": "https://api.github.com/users/sjdirect/following{/other_user}",
    "gists_url": "https://api.github.com/users/sjdirect/gists{/gist_id}",
    "starred_url": "https://api.github.com/users/sjdirect/starred{/owner}{/repo}",
    "subscriptions_url": "https://api.github.com/users/sjdirect/subscriptions",
    "organizations_url": "https://api.github.com/users/sjdirect/orgs",
    "repos_url": "https://api.github.com/users/sjdirect/repos",
    "events_url": "https://api.github.com/users/sjdirect/events{/privacy}",
    "received_events_url": "https://api.github.com/users/sjdirect/received_events",
    "type": "User",
    "site_admin": false
  },
  "created_at": "2015-03-31T21:15:35Z",
  "updated_at": "2015-03-31T21:15:35Z",
  "body": "I had the same issue with crontab. Turns out crontab only allows so many characters in the command. Otherwise it truncates the command and tries to run it anyway. My solution was to have the crontab call a bash file that runs the curator command. Then everything starting working."
}
, {
  "url": "https://api.github.com/repos/elastic/curator/issues/comments/130949428",
  "html_url": "https://github.com/elastic/curator/issues/151#issuecomment-130949428",
  "issue_url": "https://api.github.com/repos/elastic/curator/issues/151",
  "id": 130949428,
  "user": {
    "login": "geerlingguy",
    "id": 481677,
    "avatar_url": "https://avatars.githubusercontent.com/u/481677?v=3",
    "gravatar_id": "",
    "url": "https://api.github.com/users/geerlingguy",
    "html_url": "https://github.com/geerlingguy",
    "followers_url": "https://api.github.com/users/geerlingguy/followers",
    "following_url": "https://api.github.com/users/geerlingguy/following{/other_user}",
    "gists_url": "https://api.github.com/users/geerlingguy/gists{/gist_id}",
    "starred_url": "https://api.github.com/users/geerlingguy/starred{/owner}{/repo}",
    "subscriptions_url": "https://api.github.com/users/geerlingguy/subscriptions",
    "organizations_url": "https://api.github.com/users/geerlingguy/orgs",
    "repos_url": "https://api.github.com/users/geerlingguy/repos",
    "events_url": "https://api.github.com/users/geerlingguy/events{/privacy}",
    "received_events_url": "https://api.github.com/users/geerlingguy/received_events",
    "type": "User",
    "site_admin": false
  },
  "created_at": "2015-08-14T03:36:20Z",
  "updated_at": "2015-08-14T03:36:20Z",
  "body": "Another thing I ran into was unescaped percent signs. I was using the command:\r\n\r\n```\r\n/usr/local/bin/curator delete indices --older-than 10 --time-unit days --timestring '%Y.%m.%d'\r\n```\r\n\r\nBut I had to escape the percent signs, like so:\r\n\r\n```\r\n/usr/local/bin/curator delete indices --older-than 10 --time-unit days --timestring '\\%Y.\\%m.\\%d'\r\n```\r\n\r\nNow my curator cron jobs run swimmingly!"
}
, {
  "url": "https://api.github.com/repos/elastic/curator/issues/comments/145070238",
  "html_url": "https://github.com/elastic/curator/issues/151#issuecomment-145070238",
  "issue_url": "https://api.github.com/repos/elastic/curator/issues/151",
  "id": 145070238,
  "user": {
    "login": "davmrtl",
    "id": 233767,
    "avatar_url": "https://avatars.githubusercontent.com/u/233767?v=3",
    "gravatar_id": "",
    "url": "https://api.github.com/users/davmrtl",
    "html_url": "https://github.com/davmrtl",
    "followers_url": "https://api.github.com/users/davmrtl/followers",
    "following_url": "https://api.github.com/users/davmrtl/following{/other_user}",
    "gists_url": "https://api.github.com/users/davmrtl/gists{/gist_id}",
    "starred_url": "https://api.github.com/users/davmrtl/starred{/owner}{/repo}",
    "subscriptions_url": "https://api.github.com/users/davmrtl/subscriptions",
    "organizations_url": "https://api.github.com/users/davmrtl/orgs",
    "repos_url": "https://api.github.com/users/davmrtl/repos",
    "events_url": "https://api.github.com/users/davmrtl/events{/privacy}",
    "received_events_url": "https://api.github.com/users/davmrtl/received_events",
    "type": "User",
    "site_admin": false
  },
  "created_at": "2015-10-02T15:56:36Z",
  "updated_at": "2015-10-02T15:56:36Z",
  "body": "@geerlingguy Thank you, it solved my problem too!"
}
]
