[
{
  "url": "https://api.github.com/repos/elastic/curator/issues/comments/66507533",
  "html_url": "https://github.com/elastic/curator/issues/235#issuecomment-66507533",
  "issue_url": "https://api.github.com/repos/elastic/curator/issues/235",
  "id": 66507533,
  "user": {
    "login": "untergeek",
    "id": 1020383,
    "avatar_url": "https://avatars.githubusercontent.com/u/1020383?v=3",
    "gravatar_id": "",
    "url": "https://api.github.com/users/untergeek",
    "html_url": "https://github.com/untergeek",
    "followers_url": "https://api.github.com/users/untergeek/followers",
    "following_url": "https://api.github.com/users/untergeek/following{/other_user}",
    "gists_url": "https://api.github.com/users/untergeek/gists{/gist_id}",
    "starred_url": "https://api.github.com/users/untergeek/starred{/owner}{/repo}",
    "subscriptions_url": "https://api.github.com/users/untergeek/subscriptions",
    "organizations_url": "https://api.github.com/users/untergeek/orgs",
    "repos_url": "https://api.github.com/users/untergeek/repos",
    "events_url": "https://api.github.com/users/untergeek/events{/privacy}",
    "received_events_url": "https://api.github.com/users/untergeek/received_events",
    "type": "User",
    "site_admin": false
  },
  "created_at": "2014-12-10T19:22:28Z",
  "updated_at": "2014-12-10T19:22:28Z",
  "body": "I contemplated adding a yearly option to Curator, but that initially seemed highly unlikely to be used.  If you really have indices that are rotated that infrequently (every 2 years), I advise using the Curator API and writing a custom script.  Something that infrequently performed is more easily handled by a bare curl command, e.g. `curl -XDELETE localhost:9200/my-index-2012?pretty`.  It's not as handy as the curator command, perhaps, but you are only having to run that every year or two."
}
, {
  "url": "https://api.github.com/repos/elastic/curator/issues/comments/66629119",
  "html_url": "https://github.com/elastic/curator/issues/235#issuecomment-66629119",
  "issue_url": "https://api.github.com/repos/elastic/curator/issues/235",
  "id": 66629119,
  "user": {
    "login": "samiadvize",
    "id": 6397465,
    "avatar_url": "https://avatars.githubusercontent.com/u/6397465?v=3",
    "gravatar_id": "",
    "url": "https://api.github.com/users/samiadvize",
    "html_url": "https://github.com/samiadvize",
    "followers_url": "https://api.github.com/users/samiadvize/followers",
    "following_url": "https://api.github.com/users/samiadvize/following{/other_user}",
    "gists_url": "https://api.github.com/users/samiadvize/gists{/gist_id}",
    "starred_url": "https://api.github.com/users/samiadvize/starred{/owner}{/repo}",
    "subscriptions_url": "https://api.github.com/users/samiadvize/subscriptions",
    "organizations_url": "https://api.github.com/users/samiadvize/orgs",
    "repos_url": "https://api.github.com/users/samiadvize/repos",
    "events_url": "https://api.github.com/users/samiadvize/events{/privacy}",
    "received_events_url": "https://api.github.com/users/samiadvize/received_events",
    "type": "User",
    "site_admin": false
  },
  "created_at": "2014-12-11T14:51:34Z",
  "updated_at": "2014-12-11T14:51:34Z",
  "body": "Thanks\r\n\r\nI tried a workaround by creating an alias like my-index-2013.01 for my-index-2013 and then a command \r\n\r\n```\r\ncurator close --timestring %Y.%m --prefix my-index- --time-unit months --older-than 24\r\n```\r\n\r\nbut it doesn't works , we can't use aliases to perform operation ?"
}
, {
  "url": "https://api.github.com/repos/elastic/curator/issues/comments/66661837",
  "html_url": "https://github.com/elastic/curator/issues/235#issuecomment-66661837",
  "issue_url": "https://api.github.com/repos/elastic/curator/issues/235",
  "id": 66661837,
  "user": {
    "login": "untergeek",
    "id": 1020383,
    "avatar_url": "https://avatars.githubusercontent.com/u/1020383?v=3",
    "gravatar_id": "",
    "url": "https://api.github.com/users/untergeek",
    "html_url": "https://github.com/untergeek",
    "followers_url": "https://api.github.com/users/untergeek/followers",
    "following_url": "https://api.github.com/users/untergeek/following{/other_user}",
    "gists_url": "https://api.github.com/users/untergeek/gists{/gist_id}",
    "starred_url": "https://api.github.com/users/untergeek/starred{/owner}{/repo}",
    "subscriptions_url": "https://api.github.com/users/untergeek/subscriptions",
    "organizations_url": "https://api.github.com/users/untergeek/orgs",
    "repos_url": "https://api.github.com/users/untergeek/repos",
    "events_url": "https://api.github.com/users/untergeek/events{/privacy}",
    "received_events_url": "https://api.github.com/users/untergeek/received_events",
    "type": "User",
    "site_admin": false
  },
  "created_at": "2014-12-11T18:09:13Z",
  "updated_at": "2014-12-11T18:09:13Z",
  "body": "Some operations are supported with aliases.  Operations like delete and close need to be performed on the actual index and not the alias."
}
, {
  "url": "https://api.github.com/repos/elastic/curator/issues/comments/66741430",
  "html_url": "https://github.com/elastic/curator/issues/235#issuecomment-66741430",
  "issue_url": "https://api.github.com/repos/elastic/curator/issues/235",
  "id": 66741430,
  "user": {
    "login": "samiadvize",
    "id": 6397465,
    "avatar_url": "https://avatars.githubusercontent.com/u/6397465?v=3",
    "gravatar_id": "",
    "url": "https://api.github.com/users/samiadvize",
    "html_url": "https://github.com/samiadvize",
    "followers_url": "https://api.github.com/users/samiadvize/followers",
    "following_url": "https://api.github.com/users/samiadvize/following{/other_user}",
    "gists_url": "https://api.github.com/users/samiadvize/gists{/gist_id}",
    "starred_url": "https://api.github.com/users/samiadvize/starred{/owner}{/repo}",
    "subscriptions_url": "https://api.github.com/users/samiadvize/subscriptions",
    "organizations_url": "https://api.github.com/users/samiadvize/orgs",
    "repos_url": "https://api.github.com/users/samiadvize/repos",
    "events_url": "https://api.github.com/users/samiadvize/events{/privacy}",
    "received_events_url": "https://api.github.com/users/samiadvize/received_events",
    "type": "User",
    "site_admin": false
  },
  "created_at": "2014-12-12T07:45:44Z",
  "updated_at": "2014-12-12T07:45:44Z",
  "body": "OK thanks for the quick answers"
}
]
