[
{
  "url": "https://api.github.com/repos/hashicorp/otto/issues/comments/147567966",
  "html_url": "https://github.com/hashicorp/otto/issues/234#issuecomment-147567966",
  "issue_url": "https://api.github.com/repos/hashicorp/otto/issues/234",
  "id": 147567966,
  "user": {
    "login": "chad-thompson",
    "id": 316872,
    "avatar_url": "https://avatars.githubusercontent.com/u/316872?v=3",
    "gravatar_id": "",
    "url": "https://api.github.com/users/chad-thompson",
    "html_url": "https://github.com/chad-thompson",
    "followers_url": "https://api.github.com/users/chad-thompson/followers",
    "following_url": "https://api.github.com/users/chad-thompson/following{/other_user}",
    "gists_url": "https://api.github.com/users/chad-thompson/gists{/gist_id}",
    "starred_url": "https://api.github.com/users/chad-thompson/starred{/owner}{/repo}",
    "subscriptions_url": "https://api.github.com/users/chad-thompson/subscriptions",
    "organizations_url": "https://api.github.com/users/chad-thompson/orgs",
    "repos_url": "https://api.github.com/users/chad-thompson/repos",
    "events_url": "https://api.github.com/users/chad-thompson/events{/privacy}",
    "received_events_url": "https://api.github.com/users/chad-thompson/received_events",
    "type": "User",
    "site_admin": false
  },
  "created_at": "2015-10-13T01:26:17Z",
  "updated_at": "2015-10-13T01:26:17Z",
  "body": "This seems to be an issue with your Virtual Box installation:\r\n\r\n1)  Do you have the latest (at least 4.x) version of VirtualBox installed?\r\n2)  Can you create a simple Vagrant project directly?\r\n\r\nThe error here is correct - if there is an issue with the VirtualBox install, `VBoxManage` won't work."
}
, {
  "url": "https://api.github.com/repos/hashicorp/otto/issues/comments/147871119",
  "html_url": "https://github.com/hashicorp/otto/issues/234#issuecomment-147871119",
  "issue_url": "https://api.github.com/repos/hashicorp/otto/issues/234",
  "id": 147871119,
  "user": {
    "login": "evansvince",
    "id": 10272935,
    "avatar_url": "https://avatars.githubusercontent.com/u/10272935?v=3",
    "gravatar_id": "",
    "url": "https://api.github.com/users/evansvince",
    "html_url": "https://github.com/evansvince",
    "followers_url": "https://api.github.com/users/evansvince/followers",
    "following_url": "https://api.github.com/users/evansvince/following{/other_user}",
    "gists_url": "https://api.github.com/users/evansvince/gists{/gist_id}",
    "starred_url": "https://api.github.com/users/evansvince/starred{/owner}{/repo}",
    "subscriptions_url": "https://api.github.com/users/evansvince/subscriptions",
    "organizations_url": "https://api.github.com/users/evansvince/orgs",
    "repos_url": "https://api.github.com/users/evansvince/repos",
    "events_url": "https://api.github.com/users/evansvince/events{/privacy}",
    "received_events_url": "https://api.github.com/users/evansvince/received_events",
    "type": "User",
    "site_admin": false
  },
  "created_at": "2015-10-13T22:23:23Z",
  "updated_at": "2015-10-13T22:23:23Z",
  "body": "You are correct. VirtualBox needs to be updated first."
}
, {
  "url": "https://api.github.com/repos/hashicorp/otto/issues/comments/174101684",
  "html_url": "https://github.com/hashicorp/otto/issues/234#issuecomment-174101684",
  "issue_url": "https://api.github.com/repos/hashicorp/otto/issues/234",
  "id": 174101684,
  "user": {
    "login": "shoneslab",
    "id": 1015637,
    "avatar_url": "https://avatars.githubusercontent.com/u/1015637?v=3",
    "gravatar_id": "",
    "url": "https://api.github.com/users/shoneslab",
    "html_url": "https://github.com/shoneslab",
    "followers_url": "https://api.github.com/users/shoneslab/followers",
    "following_url": "https://api.github.com/users/shoneslab/following{/other_user}",
    "gists_url": "https://api.github.com/users/shoneslab/gists{/gist_id}",
    "starred_url": "https://api.github.com/users/shoneslab/starred{/owner}{/repo}",
    "subscriptions_url": "https://api.github.com/users/shoneslab/subscriptions",
    "organizations_url": "https://api.github.com/users/shoneslab/orgs",
    "repos_url": "https://api.github.com/users/shoneslab/repos",
    "events_url": "https://api.github.com/users/shoneslab/events{/privacy}",
    "received_events_url": "https://api.github.com/users/shoneslab/received_events",
    "type": "User",
    "site_admin": false
  },
  "created_at": "2016-01-23T01:05:39Z",
  "updated_at": "2016-01-23T01:07:59Z",
  "body": "I am having the same issue. My machine is installed with vmware fusion(8.1.0), vagrant-fusion license, and virtual box (5.0.12) 'otto dev' commands exits with error. Any idea Why I am getting this error.\r\n\r\nBringing machine 'default' up with 'vmware_fusion' provider...\r\n==> default: Cloning VMware VM: '/Users/jacobs2/.otto.d/global-data/vagrant-layered/layers/consul/Vagrantfile'. This can take some time...\r\n==> default: Skipping vmnet device verification, verify_vmnet is set to false.\r\n==> default: Preparing network adapters...\r\n==> default: Starting the VMware VM...\r\n==> default: Waiting for machine to boot. This may take a few minutes...\r\n    default: SSH address: 192.168.173.235:22\r\n    default: SSH username: vagrant\r\n    default: SSH auth method: private key\r\n==> default: Machine booted and ready!\r\n==> default: Forwarding ports...\r\n    default: -- 22 => 2222\r\n==> default: Configuring network adapters within the VM...\r\n==> default: Running provisioner: shell...\r\n    default: Running: inline script\r\n==> default: stdin: is not a tty\r\n==> default: Running provisioner: file...\r\n==> default: Running provisioner: shell...\r\n    default: Running: inline script\r\n==> default: stdin: is not a tty\r\n==> default: Running provisioner: file...\r\n==> default: Running provisioner: shell...\r\n    default: Running: inline script\r\n==> default: stdin: is not a tty\r\n==> default: Running provisioner: shell...\r\n    default: Running: inline script\r\n==> default: stdin: is not a tty\r\n==> default: [otto] Setting locale to en_US.UTF-8...\r\n==> default: Running provisioner: shell...\r\n    default: Running: inline script\r\n==> default: [otto] Updating apt...\r\n==> default: [otto] Installing supporting packages...\r\n==> default: [otto] Installing Ruby 2.2. This can take a few minutes...\r\n==> default: [otto] Installing Bundler...\r\n==> default: [otto] Configuring Git to use SSH instead of HTTP so we can agent-forward private repo auth...\r\n==> default: Attempting graceful shutdown of VM...\r\n==> Creating local development environment with Vagrant if it doesn't exist...\r\nBringing machine 'default' up with 'virtualbox' provider...\r\nThe clone environment hasn't been created yet. To clone from\r\nanother Vagrantfile, it must already be created with `vagrant up`.\r\nIt doesn't need to be running.\r\n\r\nAdditionally, the created environment must be started with a provider\r\nmatching this provider. For example, if you're using VirtualBox,\r\nthe clone environment must also be using VirtualBox.\r\nError building dev environment: Error executing Vagrant: exit status 1\r\n\r\nThe error messages from Vagrant are usually very informative.\r\nPlease read it carefully and fix any issues it mentions. If\r\nthe message isn't clear, please report this to the Otto project."
}
]
