[
{
  "url": "https://api.github.com/repos/hashicorp/otto/issues/comments/168425391",
  "html_url": "https://github.com/hashicorp/otto/pull/373#issuecomment-168425391",
  "issue_url": "https://api.github.com/repos/hashicorp/otto/issues/373",
  "id": 168425391,
  "user": {
    "login": "mitchellh",
    "id": 1299,
    "avatar_url": "https://avatars.githubusercontent.com/u/1299?v=3",
    "gravatar_id": "",
    "url": "https://api.github.com/users/mitchellh",
    "html_url": "https://github.com/mitchellh",
    "followers_url": "https://api.github.com/users/mitchellh/followers",
    "following_url": "https://api.github.com/users/mitchellh/following{/other_user}",
    "gists_url": "https://api.github.com/users/mitchellh/gists{/gist_id}",
    "starred_url": "https://api.github.com/users/mitchellh/starred{/owner}{/repo}",
    "subscriptions_url": "https://api.github.com/users/mitchellh/subscriptions",
    "organizations_url": "https://api.github.com/users/mitchellh/orgs",
    "repos_url": "https://api.github.com/users/mitchellh/repos",
    "events_url": "https://api.github.com/users/mitchellh/events{/privacy}",
    "received_events_url": "https://api.github.com/users/mitchellh/received_events",
    "type": "User",
    "site_admin": false
  },
  "created_at": "2016-01-02T20:08:50Z",
  "updated_at": "2016-01-02T20:08:50Z",
  "body": "YUS"
}
]
