[
{
  "url": "https://api.github.com/repos/hashicorp/otto/issues/comments/170055311",
  "html_url": "https://github.com/hashicorp/otto/issues/400#issuecomment-170055311",
  "issue_url": "https://api.github.com/repos/hashicorp/otto/issues/400",
  "id": 170055311,
  "user": {
    "login": "jmetzmeier",
    "id": 3281448,
    "avatar_url": "https://avatars.githubusercontent.com/u/3281448?v=3",
    "gravatar_id": "",
    "url": "https://api.github.com/users/jmetzmeier",
    "html_url": "https://github.com/jmetzmeier",
    "followers_url": "https://api.github.com/users/jmetzmeier/followers",
    "following_url": "https://api.github.com/users/jmetzmeier/following{/other_user}",
    "gists_url": "https://api.github.com/users/jmetzmeier/gists{/gist_id}",
    "starred_url": "https://api.github.com/users/jmetzmeier/starred{/owner}{/repo}",
    "subscriptions_url": "https://api.github.com/users/jmetzmeier/subscriptions",
    "organizations_url": "https://api.github.com/users/jmetzmeier/orgs",
    "repos_url": "https://api.github.com/users/jmetzmeier/repos",
    "events_url": "https://api.github.com/users/jmetzmeier/events{/privacy}",
    "received_events_url": "https://api.github.com/users/jmetzmeier/received_events",
    "type": "User",
    "site_admin": false
  },
  "created_at": "2016-01-08T16:59:33Z",
  "updated_at": "2016-01-08T16:59:33Z",
  "body": "There was work done to solve this type of problem for Ruby gems. We should look at trying to replicate that for Python. "
}
, {
  "url": "https://api.github.com/repos/hashicorp/otto/issues/comments/170706900",
  "html_url": "https://github.com/hashicorp/otto/issues/400#issuecomment-170706900",
  "issue_url": "https://api.github.com/repos/hashicorp/otto/issues/400",
  "id": 170706900,
  "user": {
    "login": "xarg",
    "id": 94721,
    "avatar_url": "https://avatars.githubusercontent.com/u/94721?v=3",
    "gravatar_id": "",
    "url": "https://api.github.com/users/xarg",
    "html_url": "https://github.com/xarg",
    "followers_url": "https://api.github.com/users/xarg/followers",
    "following_url": "https://api.github.com/users/xarg/following{/other_user}",
    "gists_url": "https://api.github.com/users/xarg/gists{/gist_id}",
    "starred_url": "https://api.github.com/users/xarg/starred{/owner}{/repo}",
    "subscriptions_url": "https://api.github.com/users/xarg/subscriptions",
    "organizations_url": "https://api.github.com/users/xarg/orgs",
    "repos_url": "https://api.github.com/users/xarg/repos",
    "events_url": "https://api.github.com/users/xarg/events{/privacy}",
    "received_events_url": "https://api.github.com/users/xarg/received_events",
    "type": "User",
    "site_admin": false
  },
  "created_at": "2016-01-11T22:08:18Z",
  "updated_at": "2016-01-11T22:08:18Z",
  "body": "I'm using postgres and never expect having `libpq-dev` by default. I'm sure people who use mongo have some deps as well. If this were open to vote I would vote against adding this dep."
}
, {
  "url": "https://api.github.com/repos/hashicorp/otto/issues/comments/170712725",
  "html_url": "https://github.com/hashicorp/otto/issues/400#issuecomment-170712725",
  "issue_url": "https://api.github.com/repos/hashicorp/otto/issues/400",
  "id": 170712725,
  "user": {
    "login": "apeace",
    "id": 78548,
    "avatar_url": "https://avatars.githubusercontent.com/u/78548?v=3",
    "gravatar_id": "",
    "url": "https://api.github.com/users/apeace",
    "html_url": "https://github.com/apeace",
    "followers_url": "https://api.github.com/users/apeace/followers",
    "following_url": "https://api.github.com/users/apeace/following{/other_user}",
    "gists_url": "https://api.github.com/users/apeace/gists{/gist_id}",
    "starred_url": "https://api.github.com/users/apeace/starred{/owner}{/repo}",
    "subscriptions_url": "https://api.github.com/users/apeace/subscriptions",
    "organizations_url": "https://api.github.com/users/apeace/orgs",
    "repos_url": "https://api.github.com/users/apeace/repos",
    "events_url": "https://api.github.com/users/apeace/events{/privacy}",
    "received_events_url": "https://api.github.com/users/apeace/received_events",
    "type": "User",
    "site_admin": false
  },
  "created_at": "2016-01-11T22:33:09Z",
  "updated_at": "2016-01-11T22:33:09Z",
  "body": "@xarg that's understandable. Maybe the solution @jmetzmeier alluded to is what's really needed, I'm just not sure what that is."
}
, {
  "url": "https://api.github.com/repos/hashicorp/otto/issues/comments/173547438",
  "html_url": "https://github.com/hashicorp/otto/issues/400#issuecomment-173547438",
  "issue_url": "https://api.github.com/repos/hashicorp/otto/issues/400",
  "id": 173547438,
  "user": {
    "login": "maxnordlund",
    "id": 664779,
    "avatar_url": "https://avatars.githubusercontent.com/u/664779?v=3",
    "gravatar_id": "",
    "url": "https://api.github.com/users/maxnordlund",
    "html_url": "https://github.com/maxnordlund",
    "followers_url": "https://api.github.com/users/maxnordlund/followers",
    "following_url": "https://api.github.com/users/maxnordlund/following{/other_user}",
    "gists_url": "https://api.github.com/users/maxnordlund/gists{/gist_id}",
    "starred_url": "https://api.github.com/users/maxnordlund/starred{/owner}{/repo}",
    "subscriptions_url": "https://api.github.com/users/maxnordlund/subscriptions",
    "organizations_url": "https://api.github.com/users/maxnordlund/orgs",
    "repos_url": "https://api.github.com/users/maxnordlund/repos",
    "events_url": "https://api.github.com/users/maxnordlund/events{/privacy}",
    "received_events_url": "https://api.github.com/users/maxnordlund/received_events",
    "type": "User",
    "site_admin": false
  },
  "created_at": "2016-01-21T11:49:55Z",
  "updated_at": "2016-01-21T11:49:55Z",
  "body": "I also think treating a certain database specially would be odd, to say the least. I think something like [gem.sh][1] would be a better solution. This also helps keep the size down for those that don't need/use mysql/postgres/mongo etc.\r\n\r\n[1]: https://github.com/hashicorp/otto/blob/877e943d5c2f0e73db7073cdc02a2809d388785d/builtin/scriptpack/ruby/data/gem.sh"
}
]
