[
{
  "url": "https://api.github.com/repos/Automattic/kue/issues/comments/161725189",
  "html_url": "https://github.com/Automattic/kue/issues/770#issuecomment-161725189",
  "issue_url": "https://api.github.com/repos/Automattic/kue/issues/770",
  "id": 161725189,
  "user": {
    "login": "behrad",
    "id": 2151889,
    "avatar_url": "https://avatars.githubusercontent.com/u/2151889?v=3",
    "gravatar_id": "",
    "url": "https://api.github.com/users/behrad",
    "html_url": "https://github.com/behrad",
    "followers_url": "https://api.github.com/users/behrad/followers",
    "following_url": "https://api.github.com/users/behrad/following{/other_user}",
    "gists_url": "https://api.github.com/users/behrad/gists{/gist_id}",
    "starred_url": "https://api.github.com/users/behrad/starred{/owner}{/repo}",
    "subscriptions_url": "https://api.github.com/users/behrad/subscriptions",
    "organizations_url": "https://api.github.com/users/behrad/orgs",
    "repos_url": "https://api.github.com/users/behrad/repos",
    "events_url": "https://api.github.com/users/behrad/events{/privacy}",
    "received_events_url": "https://api.github.com/users/behrad/received_events",
    "type": "User",
    "site_admin": false
  },
  "created_at": "2015-12-03T17:33:29Z",
  "updated_at": "2015-12-03T17:33:29Z",
  "body": "No @didil"
}
, {
  "url": "https://api.github.com/repos/Automattic/kue/issues/comments/161734860",
  "html_url": "https://github.com/Automattic/kue/issues/770#issuecomment-161734860",
  "issue_url": "https://api.github.com/repos/Automattic/kue/issues/770",
  "id": 161734860,
  "user": {
    "login": "didil",
    "id": 1284255,
    "avatar_url": "https://avatars.githubusercontent.com/u/1284255?v=3",
    "gravatar_id": "",
    "url": "https://api.github.com/users/didil",
    "html_url": "https://github.com/didil",
    "followers_url": "https://api.github.com/users/didil/followers",
    "following_url": "https://api.github.com/users/didil/following{/other_user}",
    "gists_url": "https://api.github.com/users/didil/gists{/gist_id}",
    "starred_url": "https://api.github.com/users/didil/starred{/owner}{/repo}",
    "subscriptions_url": "https://api.github.com/users/didil/subscriptions",
    "organizations_url": "https://api.github.com/users/didil/orgs",
    "repos_url": "https://api.github.com/users/didil/repos",
    "events_url": "https://api.github.com/users/didil/events{/privacy}",
    "received_events_url": "https://api.github.com/users/didil/received_events",
    "type": "User",
    "site_admin": false
  },
  "created_at": "2015-12-03T18:08:23Z",
  "updated_at": "2015-12-03T18:08:23Z",
  "body": "Wouldn't it make sense to add at least say a 1 hour global TTL, right now if any job is created without a TTL and has a bug causing to not call done for example, it stays active forever ..."
}
, {
  "url": "https://api.github.com/repos/Automattic/kue/issues/comments/161737054",
  "html_url": "https://github.com/Automattic/kue/issues/770#issuecomment-161737054",
  "issue_url": "https://api.github.com/repos/Automattic/kue/issues/770",
  "id": 161737054,
  "user": {
    "login": "behrad",
    "id": 2151889,
    "avatar_url": "https://avatars.githubusercontent.com/u/2151889?v=3",
    "gravatar_id": "",
    "url": "https://api.github.com/users/behrad",
    "html_url": "https://github.com/behrad",
    "followers_url": "https://api.github.com/users/behrad/followers",
    "following_url": "https://api.github.com/users/behrad/following{/other_user}",
    "gists_url": "https://api.github.com/users/behrad/gists{/gist_id}",
    "starred_url": "https://api.github.com/users/behrad/starred{/owner}{/repo}",
    "subscriptions_url": "https://api.github.com/users/behrad/subscriptions",
    "organizations_url": "https://api.github.com/users/behrad/orgs",
    "repos_url": "https://api.github.com/users/behrad/repos",
    "events_url": "https://api.github.com/users/behrad/events{/privacy}",
    "received_events_url": "https://api.github.com/users/behrad/received_events",
    "type": "User",
    "site_admin": false
  },
  "created_at": "2015-12-03T18:18:00Z",
  "updated_at": "2015-12-03T18:18:00Z",
  "body": "Why not? this can be introduces as an Queue level property which is base value for job ttl (if not set explicitly). \r\nSomething like `createQueue(...).setTTL( long )`\r\nA PR is welcome :)"
}
]
