[
{
  "url": "https://api.github.com/repos/twilio/OpenVBX/issues/comments/33928621",
  "html_url": "https://github.com/twilio/OpenVBX/issues/247#issuecomment-33928621",
  "issue_url": "https://api.github.com/repos/twilio/OpenVBX/issues/247",
  "id": 33928621,
  "user": {
    "login": "Gipetto",
    "id": 71515,
    "avatar_url": "https://avatars.githubusercontent.com/u/71515?v=3",
    "gravatar_id": "",
    "url": "https://api.github.com/users/Gipetto",
    "html_url": "https://github.com/Gipetto",
    "followers_url": "https://api.github.com/users/Gipetto/followers",
    "following_url": "https://api.github.com/users/Gipetto/following{/other_user}",
    "gists_url": "https://api.github.com/users/Gipetto/gists{/gist_id}",
    "starred_url": "https://api.github.com/users/Gipetto/starred{/owner}{/repo}",
    "subscriptions_url": "https://api.github.com/users/Gipetto/subscriptions",
    "organizations_url": "https://api.github.com/users/Gipetto/orgs",
    "repos_url": "https://api.github.com/users/Gipetto/repos",
    "events_url": "https://api.github.com/users/Gipetto/events{/privacy}",
    "received_events_url": "https://api.github.com/users/Gipetto/received_events",
    "type": "User",
    "site_admin": false
  },
  "created_at": "2014-02-03T07:06:25Z",
  "updated_at": "2014-02-03T07:06:25Z",
  "body": "Closing. This is fixed, but not yet released."
}
]
