[
{
  "url": "https://api.github.com/repos/thoughtbot/griddler/issues/comments/39597131",
  "html_url": "https://github.com/thoughtbot/griddler/issues/130#issuecomment-39597131",
  "issue_url": "https://api.github.com/repos/thoughtbot/griddler/issues/130",
  "id": 39597131,
  "user": {
    "login": "motdotla",
    "id": 3848,
    "avatar_url": "https://avatars.githubusercontent.com/u/3848?v=3",
    "gravatar_id": "",
    "url": "https://api.github.com/users/motdotla",
    "html_url": "https://github.com/motdotla",
    "followers_url": "https://api.github.com/users/motdotla/followers",
    "following_url": "https://api.github.com/users/motdotla/following{/other_user}",
    "gists_url": "https://api.github.com/users/motdotla/gists{/gist_id}",
    "starred_url": "https://api.github.com/users/motdotla/starred{/owner}{/repo}",
    "subscriptions_url": "https://api.github.com/users/motdotla/subscriptions",
    "organizations_url": "https://api.github.com/users/motdotla/orgs",
    "repos_url": "https://api.github.com/users/motdotla/repos",
    "events_url": "https://api.github.com/users/motdotla/events{/privacy}",
    "received_events_url": "https://api.github.com/users/motdotla/received_events",
    "type": "User",
    "site_admin": false
  },
  "created_at": "2014-04-04T18:38:45Z",
  "updated_at": "2014-04-04T18:38:45Z",
  "body": "Hi @calebthompson (thanks @theycallmeswift for the CC), yes, I'd like to take this over. We'll bring it into our open source team. What timeline our you thinking?"
}
, {
  "url": "https://api.github.com/repos/thoughtbot/griddler/issues/comments/39597388",
  "html_url": "https://github.com/thoughtbot/griddler/issues/130#issuecomment-39597388",
  "issue_url": "https://api.github.com/repos/thoughtbot/griddler/issues/130",
  "id": 39597388,
  "user": {
    "login": "calebthompson",
    "id": 711717,
    "avatar_url": "https://avatars.githubusercontent.com/u/711717?v=3",
    "gravatar_id": "",
    "url": "https://api.github.com/users/calebthompson",
    "html_url": "https://github.com/calebthompson",
    "followers_url": "https://api.github.com/users/calebthompson/followers",
    "following_url": "https://api.github.com/users/calebthompson/following{/other_user}",
    "gists_url": "https://api.github.com/users/calebthompson/gists{/gist_id}",
    "starred_url": "https://api.github.com/users/calebthompson/starred{/owner}{/repo}",
    "subscriptions_url": "https://api.github.com/users/calebthompson/subscriptions",
    "organizations_url": "https://api.github.com/users/calebthompson/orgs",
    "repos_url": "https://api.github.com/users/calebthompson/repos",
    "events_url": "https://api.github.com/users/calebthompson/events{/privacy}",
    "received_events_url": "https://api.github.com/users/calebthompson/received_events",
    "type": "User",
    "site_admin": false
  },
  "created_at": "2014-04-04T18:41:19Z",
  "updated_at": "2014-04-04T18:41:19Z",
  "body": "I'd like to get this done reasonable soon, as it will be a part of releasing 1.0.\r\n\r\nI actually started on this over at https://github.com/thoughtbot/griddler-sendgrid because we'll need a reference implementation. For the time being, I'd like to keep it in the thoughtbot org so we can get a working implementation ASAP."
}
, {
  "url": "https://api.github.com/repos/thoughtbot/griddler/issues/comments/39599263",
  "html_url": "https://github.com/thoughtbot/griddler/issues/130#issuecomment-39599263",
  "issue_url": "https://api.github.com/repos/thoughtbot/griddler/issues/130",
  "id": 39599263,
  "user": {
    "login": "motdotla",
    "id": 3848,
    "avatar_url": "https://avatars.githubusercontent.com/u/3848?v=3",
    "gravatar_id": "",
    "url": "https://api.github.com/users/motdotla",
    "html_url": "https://github.com/motdotla",
    "followers_url": "https://api.github.com/users/motdotla/followers",
    "following_url": "https://api.github.com/users/motdotla/following{/other_user}",
    "gists_url": "https://api.github.com/users/motdotla/gists{/gist_id}",
    "starred_url": "https://api.github.com/users/motdotla/starred{/owner}{/repo}",
    "subscriptions_url": "https://api.github.com/users/motdotla/subscriptions",
    "organizations_url": "https://api.github.com/users/motdotla/orgs",
    "repos_url": "https://api.github.com/users/motdotla/repos",
    "events_url": "https://api.github.com/users/motdotla/events{/privacy}",
    "received_events_url": "https://api.github.com/users/motdotla/received_events",
    "type": "User",
    "site_admin": false
  },
  "created_at": "2014-04-04T18:58:58Z",
  "updated_at": "2014-04-04T18:58:58Z",
  "body": "Ok, sounds good. Go for that, and in the future we will try and take adoption of it over. "
}
, {
  "url": "https://api.github.com/repos/thoughtbot/griddler/issues/comments/44713617",
  "html_url": "https://github.com/thoughtbot/griddler/issues/130#issuecomment-44713617",
  "issue_url": "https://api.github.com/repos/thoughtbot/griddler/issues/130",
  "id": 44713617,
  "user": {
    "login": "gabebw",
    "id": 257678,
    "avatar_url": "https://avatars.githubusercontent.com/u/257678?v=3",
    "gravatar_id": "",
    "url": "https://api.github.com/users/gabebw",
    "html_url": "https://github.com/gabebw",
    "followers_url": "https://api.github.com/users/gabebw/followers",
    "following_url": "https://api.github.com/users/gabebw/following{/other_user}",
    "gists_url": "https://api.github.com/users/gabebw/gists{/gist_id}",
    "starred_url": "https://api.github.com/users/gabebw/starred{/owner}{/repo}",
    "subscriptions_url": "https://api.github.com/users/gabebw/subscriptions",
    "organizations_url": "https://api.github.com/users/gabebw/orgs",
    "repos_url": "https://api.github.com/users/gabebw/repos",
    "events_url": "https://api.github.com/users/gabebw/events{/privacy}",
    "received_events_url": "https://api.github.com/users/gabebw/received_events",
    "type": "User",
    "site_admin": false
  },
  "created_at": "2014-05-31T00:51:31Z",
  "updated_at": "2014-05-31T00:51:31Z",
  "body": "@calebthompson What exactly do you want to test on [griddler-demo](https://github.com/thoughtbot/griddler-demo)? How do you want to test it?"
}
, {
  "url": "https://api.github.com/repos/thoughtbot/griddler/issues/comments/44713900",
  "html_url": "https://github.com/thoughtbot/griddler/issues/130#issuecomment-44713900",
  "issue_url": "https://api.github.com/repos/thoughtbot/griddler/issues/130",
  "id": 44713900,
  "user": {
    "login": "calebthompson",
    "id": 711717,
    "avatar_url": "https://avatars.githubusercontent.com/u/711717?v=3",
    "gravatar_id": "",
    "url": "https://api.github.com/users/calebthompson",
    "html_url": "https://github.com/calebthompson",
    "followers_url": "https://api.github.com/users/calebthompson/followers",
    "following_url": "https://api.github.com/users/calebthompson/following{/other_user}",
    "gists_url": "https://api.github.com/users/calebthompson/gists{/gist_id}",
    "starred_url": "https://api.github.com/users/calebthompson/starred{/owner}{/repo}",
    "subscriptions_url": "https://api.github.com/users/calebthompson/subscriptions",
    "organizations_url": "https://api.github.com/users/calebthompson/orgs",
    "repos_url": "https://api.github.com/users/calebthompson/repos",
    "events_url": "https://api.github.com/users/calebthompson/events{/privacy}",
    "received_events_url": "https://api.github.com/users/calebthompson/received_events",
    "type": "User",
    "site_admin": false
  },
  "created_at": "2014-05-31T01:01:35Z",
  "updated_at": "2014-05-31T01:01:35Z",
  "body": "It worked before, meaning that you could send it an email and it would post a comment. Just want to make sure that after plugging in the current version that still works.\r\n\r\nOn Fri, May 30, 2014 at 7:51 PM, Gabe Berke-Williams\r\n<notifications@github.com> wrote:\r\n\r\n> @calebthompson What exactly do you want to test on [griddler-demo](https://github.com/thoughtbot/griddler-demo)? How do you want to test it?\r\n> ---\r\n> Reply to this email directly or view it on GitHub:\r\n> https://github.com/thoughtbot/griddler/issues/130#issuecomment-44713617"
}
, {
  "url": "https://api.github.com/repos/thoughtbot/griddler/issues/comments/44851811",
  "html_url": "https://github.com/thoughtbot/griddler/issues/130#issuecomment-44851811",
  "issue_url": "https://api.github.com/repos/thoughtbot/griddler/issues/130",
  "id": 44851811,
  "user": {
    "login": "gabebw",
    "id": 257678,
    "avatar_url": "https://avatars.githubusercontent.com/u/257678?v=3",
    "gravatar_id": "",
    "url": "https://api.github.com/users/gabebw",
    "html_url": "https://github.com/gabebw",
    "followers_url": "https://api.github.com/users/gabebw/followers",
    "following_url": "https://api.github.com/users/gabebw/following{/other_user}",
    "gists_url": "https://api.github.com/users/gabebw/gists{/gist_id}",
    "starred_url": "https://api.github.com/users/gabebw/starred{/owner}{/repo}",
    "subscriptions_url": "https://api.github.com/users/gabebw/subscriptions",
    "organizations_url": "https://api.github.com/users/gabebw/orgs",
    "repos_url": "https://api.github.com/users/gabebw/repos",
    "events_url": "https://api.github.com/users/gabebw/events{/privacy}",
    "received_events_url": "https://api.github.com/users/gabebw/received_events",
    "type": "User",
    "site_admin": false
  },
  "created_at": "2014-06-02T15:29:40Z",
  "updated_at": "2014-06-02T15:29:40Z",
  "body": "So if I just add griddler and griddler-sendgrid to the Gemfile and run Rake, and it passes, we're good?"
}
, {
  "url": "https://api.github.com/repos/thoughtbot/griddler/issues/comments/44852343",
  "html_url": "https://github.com/thoughtbot/griddler/issues/130#issuecomment-44852343",
  "issue_url": "https://api.github.com/repos/thoughtbot/griddler/issues/130",
  "id": 44852343,
  "user": {
    "login": "gabebw",
    "id": 257678,
    "avatar_url": "https://avatars.githubusercontent.com/u/257678?v=3",
    "gravatar_id": "",
    "url": "https://api.github.com/users/gabebw",
    "html_url": "https://github.com/gabebw",
    "followers_url": "https://api.github.com/users/gabebw/followers",
    "following_url": "https://api.github.com/users/gabebw/following{/other_user}",
    "gists_url": "https://api.github.com/users/gabebw/gists{/gist_id}",
    "starred_url": "https://api.github.com/users/gabebw/starred{/owner}{/repo}",
    "subscriptions_url": "https://api.github.com/users/gabebw/subscriptions",
    "organizations_url": "https://api.github.com/users/gabebw/orgs",
    "repos_url": "https://api.github.com/users/gabebw/repos",
    "events_url": "https://api.github.com/users/gabebw/events{/privacy}",
    "received_events_url": "https://api.github.com/users/gabebw/received_events",
    "type": "User",
    "site_admin": false
  },
  "created_at": "2014-06-02T15:33:36Z",
  "updated_at": "2014-06-02T15:33:36Z",
  "body": "Actually, here's a PR: https://github.com/thoughtbot/griddler-demo/pull/1"
}
, {
  "url": "https://api.github.com/repos/thoughtbot/griddler/issues/comments/44876588",
  "html_url": "https://github.com/thoughtbot/griddler/issues/130#issuecomment-44876588",
  "issue_url": "https://api.github.com/repos/thoughtbot/griddler/issues/130",
  "id": 44876588,
  "user": {
    "login": "calebthompson",
    "id": 711717,
    "avatar_url": "https://avatars.githubusercontent.com/u/711717?v=3",
    "gravatar_id": "",
    "url": "https://api.github.com/users/calebthompson",
    "html_url": "https://github.com/calebthompson",
    "followers_url": "https://api.github.com/users/calebthompson/followers",
    "following_url": "https://api.github.com/users/calebthompson/following{/other_user}",
    "gists_url": "https://api.github.com/users/calebthompson/gists{/gist_id}",
    "starred_url": "https://api.github.com/users/calebthompson/starred{/owner}{/repo}",
    "subscriptions_url": "https://api.github.com/users/calebthompson/subscriptions",
    "organizations_url": "https://api.github.com/users/calebthompson/orgs",
    "repos_url": "https://api.github.com/users/calebthompson/repos",
    "events_url": "https://api.github.com/users/calebthompson/events{/privacy}",
    "received_events_url": "https://api.github.com/users/calebthompson/received_events",
    "type": "User",
    "site_admin": false
  },
  "created_at": "2014-06-02T18:54:34Z",
  "updated_at": "2014-06-02T18:54:34Z",
  "body": "^ appears to be working."
}
, {
  "url": "https://api.github.com/repos/thoughtbot/griddler/issues/comments/44876732",
  "html_url": "https://github.com/thoughtbot/griddler/issues/130#issuecomment-44876732",
  "issue_url": "https://api.github.com/repos/thoughtbot/griddler/issues/130",
  "id": 44876732,
  "user": {
    "login": "gabebw",
    "id": 257678,
    "avatar_url": "https://avatars.githubusercontent.com/u/257678?v=3",
    "gravatar_id": "",
    "url": "https://api.github.com/users/gabebw",
    "html_url": "https://github.com/gabebw",
    "followers_url": "https://api.github.com/users/gabebw/followers",
    "following_url": "https://api.github.com/users/gabebw/following{/other_user}",
    "gists_url": "https://api.github.com/users/gabebw/gists{/gist_id}",
    "starred_url": "https://api.github.com/users/gabebw/starred{/owner}{/repo}",
    "subscriptions_url": "https://api.github.com/users/gabebw/subscriptions",
    "organizations_url": "https://api.github.com/users/gabebw/orgs",
    "repos_url": "https://api.github.com/users/gabebw/repos",
    "events_url": "https://api.github.com/users/gabebw/events{/privacy}",
    "received_events_url": "https://api.github.com/users/gabebw/received_events",
    "type": "User",
    "site_admin": false
  },
  "created_at": "2014-06-02T18:55:54Z",
  "updated_at": "2014-06-02T18:55:54Z",
  "body": "I'm closing this."
}
]
