[
{
  "url": "https://api.github.com/repos/mapbox/mapbox-gl-js/issues/comments/116947435",
  "html_url": "https://github.com/mapbox/mapbox-gl-js/pull/1351#issuecomment-116947435",
  "issue_url": "https://api.github.com/repos/mapbox/mapbox-gl-js/issues/1351",
  "id": 116947435,
  "user": {
    "login": "scothis",
    "id": 302992,
    "avatar_url": "https://avatars.githubusercontent.com/u/302992?v=3",
    "gravatar_id": "",
    "url": "https://api.github.com/users/scothis",
    "html_url": "https://github.com/scothis",
    "followers_url": "https://api.github.com/users/scothis/followers",
    "following_url": "https://api.github.com/users/scothis/following{/other_user}",
    "gists_url": "https://api.github.com/users/scothis/gists{/gist_id}",
    "starred_url": "https://api.github.com/users/scothis/starred{/owner}{/repo}",
    "subscriptions_url": "https://api.github.com/users/scothis/subscriptions",
    "organizations_url": "https://api.github.com/users/scothis/orgs",
    "repos_url": "https://api.github.com/users/scothis/repos",
    "events_url": "https://api.github.com/users/scothis/events{/privacy}",
    "received_events_url": "https://api.github.com/users/scothis/received_events",
    "type": "User",
    "site_admin": false
  },
  "created_at": "2015-06-30T04:13:47Z",
  "updated_at": "2015-06-30T04:13:47Z",
  "body": "merging per https://github.com/mapbox/mapbox-gl-js/pull/1348#issuecomment-116895944"
}
]
