[
{
  "url": "https://api.github.com/repos/mapbox/mapbox-gl-js/issues/comments/44877026",
  "html_url": "https://github.com/mapbox/mapbox-gl-js/pull/405#issuecomment-44877026",
  "issue_url": "https://api.github.com/repos/mapbox/mapbox-gl-js/issues/405",
  "id": 44877026,
  "user": {
    "login": "yhahn",
    "id": 83384,
    "avatar_url": "https://avatars.githubusercontent.com/u/83384?v=3",
    "gravatar_id": "",
    "url": "https://api.github.com/users/yhahn",
    "html_url": "https://github.com/yhahn",
    "followers_url": "https://api.github.com/users/yhahn/followers",
    "following_url": "https://api.github.com/users/yhahn/following{/other_user}",
    "gists_url": "https://api.github.com/users/yhahn/gists{/gist_id}",
    "starred_url": "https://api.github.com/users/yhahn/starred{/owner}{/repo}",
    "subscriptions_url": "https://api.github.com/users/yhahn/subscriptions",
    "organizations_url": "https://api.github.com/users/yhahn/orgs",
    "repos_url": "https://api.github.com/users/yhahn/repos",
    "events_url": "https://api.github.com/users/yhahn/events{/privacy}",
    "received_events_url": "https://api.github.com/users/yhahn/received_events",
    "type": "User",
    "site_admin": false
  },
  "created_at": "2014-06-02T18:58:39Z",
  "updated_at": "2014-06-02T18:58:39Z",
  "body": "@ansis quick review?"
}
]
