[
{
  "url": "https://api.github.com/repos/mapbox/mapbox-gl-js/issues/comments/147128523",
  "html_url": "https://github.com/mapbox/mapbox-gl-js/issues/1613#issuecomment-147128523",
  "issue_url": "https://api.github.com/repos/mapbox/mapbox-gl-js/issues/1613",
  "id": 147128523,
  "user": {
    "login": "mourner",
    "id": 25395,
    "avatar_url": "https://avatars.githubusercontent.com/u/25395?v=3",
    "gravatar_id": "",
    "url": "https://api.github.com/users/mourner",
    "html_url": "https://github.com/mourner",
    "followers_url": "https://api.github.com/users/mourner/followers",
    "following_url": "https://api.github.com/users/mourner/following{/other_user}",
    "gists_url": "https://api.github.com/users/mourner/gists{/gist_id}",
    "starred_url": "https://api.github.com/users/mourner/starred{/owner}{/repo}",
    "subscriptions_url": "https://api.github.com/users/mourner/subscriptions",
    "organizations_url": "https://api.github.com/users/mourner/orgs",
    "repos_url": "https://api.github.com/users/mourner/repos",
    "events_url": "https://api.github.com/users/mourner/events{/privacy}",
    "received_events_url": "https://api.github.com/users/mourner/received_events",
    "type": "User",
    "site_admin": false
  },
  "created_at": "2015-10-10T21:49:15Z",
  "updated_at": "2015-10-10T21:49:28Z",
  "body": "Hmm caniuse says it's everywhere: http://caniuse.com/#search=Blob, do you know specific cases where it's not?"
}
, {
  "url": "https://api.github.com/repos/mapbox/mapbox-gl-js/issues/comments/147202700",
  "html_url": "https://github.com/mapbox/mapbox-gl-js/issues/1613#issuecomment-147202700",
  "issue_url": "https://api.github.com/repos/mapbox/mapbox-gl-js/issues/1613",
  "id": 147202700,
  "user": {
    "login": "tmcw",
    "id": 32314,
    "avatar_url": "https://avatars.githubusercontent.com/u/32314?v=3",
    "gravatar_id": "",
    "url": "https://api.github.com/users/tmcw",
    "html_url": "https://github.com/tmcw",
    "followers_url": "https://api.github.com/users/tmcw/followers",
    "following_url": "https://api.github.com/users/tmcw/following{/other_user}",
    "gists_url": "https://api.github.com/users/tmcw/gists{/gist_id}",
    "starred_url": "https://api.github.com/users/tmcw/starred{/owner}{/repo}",
    "subscriptions_url": "https://api.github.com/users/tmcw/subscriptions",
    "organizations_url": "https://api.github.com/users/tmcw/orgs",
    "repos_url": "https://api.github.com/users/tmcw/repos",
    "events_url": "https://api.github.com/users/tmcw/events{/privacy}",
    "received_events_url": "https://api.github.com/users/tmcw/received_events",
    "type": "User",
    "site_admin": false
  },
  "created_at": "2015-10-11T14:27:15Z",
  "updated_at": "2015-10-11T14:27:15Z",
  "body": "Yes, we've run into a case of Firefox 11 lacking Blob support but having WebGL support."
}
, {
  "url": "https://api.github.com/repos/mapbox/mapbox-gl-js/issues/comments/147238592",
  "html_url": "https://github.com/mapbox/mapbox-gl-js/issues/1613#issuecomment-147238592",
  "issue_url": "https://api.github.com/repos/mapbox/mapbox-gl-js/issues/1613",
  "id": 147238592,
  "user": {
    "login": "kristfal",
    "id": 5638107,
    "avatar_url": "https://avatars.githubusercontent.com/u/5638107?v=3",
    "gravatar_id": "",
    "url": "https://api.github.com/users/kristfal",
    "html_url": "https://github.com/kristfal",
    "followers_url": "https://api.github.com/users/kristfal/followers",
    "following_url": "https://api.github.com/users/kristfal/following{/other_user}",
    "gists_url": "https://api.github.com/users/kristfal/gists{/gist_id}",
    "starred_url": "https://api.github.com/users/kristfal/starred{/owner}{/repo}",
    "subscriptions_url": "https://api.github.com/users/kristfal/subscriptions",
    "organizations_url": "https://api.github.com/users/kristfal/orgs",
    "repos_url": "https://api.github.com/users/kristfal/repos",
    "events_url": "https://api.github.com/users/kristfal/events{/privacy}",
    "received_events_url": "https://api.github.com/users/kristfal/received_events",
    "type": "User",
    "site_admin": false
  },
  "created_at": "2015-10-11T19:38:07Z",
  "updated_at": "2015-10-11T19:38:07Z",
  "body": "Would also be great to do a check for spawning web workers from blob URLs. Older versions of IE10 and IE11 doesn`t support this. See:\r\n\r\nhttps://connect.microsoft.com/IE/feedback/details/801810/web-workers-from-blob-urls-in-ie-10-and-11\r\n\r\nIIRC this affects the latest IE11 for W8 on surface tablets."
}
]
