[
{
  "url": "https://api.github.com/repos/chef/fixie/issues/comments/130901840",
  "html_url": "https://github.com/chef/fixie/pull/18#issuecomment-130901840",
  "issue_url": "https://api.github.com/repos/chef/fixie/issues/18",
  "id": 130901840,
  "user": {
    "login": "manderson26",
    "id": 253389,
    "avatar_url": "https://avatars.githubusercontent.com/u/253389?v=3",
    "gravatar_id": "",
    "url": "https://api.github.com/users/manderson26",
    "html_url": "https://github.com/manderson26",
    "followers_url": "https://api.github.com/users/manderson26/followers",
    "following_url": "https://api.github.com/users/manderson26/following{/other_user}",
    "gists_url": "https://api.github.com/users/manderson26/gists{/gist_id}",
    "starred_url": "https://api.github.com/users/manderson26/starred{/owner}{/repo}",
    "subscriptions_url": "https://api.github.com/users/manderson26/subscriptions",
    "organizations_url": "https://api.github.com/users/manderson26/orgs",
    "repos_url": "https://api.github.com/users/manderson26/repos",
    "events_url": "https://api.github.com/users/manderson26/events{/privacy}",
    "received_events_url": "https://api.github.com/users/manderson26/received_events",
    "type": "User",
    "site_admin": false
  },
  "created_at": "2015-08-14T00:31:30Z",
  "updated_at": "2015-08-14T00:31:30Z",
  "body": "I think this will be superseded by #26, which goes further and removes the Gemfile.lock"
}
]
