[
{
  "url": "https://api.github.com/repos/cloudera/hue/issues/comments/146431519",
  "html_url": "https://github.com/cloudera/hue/issues/243#issuecomment-146431519",
  "issue_url": "https://api.github.com/repos/cloudera/hue/issues/243",
  "id": 146431519,
  "user": {
    "login": "romainr",
    "id": 17945,
    "avatar_url": "https://avatars.githubusercontent.com/u/17945?v=3",
    "gravatar_id": "",
    "url": "https://api.github.com/users/romainr",
    "html_url": "https://github.com/romainr",
    "followers_url": "https://api.github.com/users/romainr/followers",
    "following_url": "https://api.github.com/users/romainr/following{/other_user}",
    "gists_url": "https://api.github.com/users/romainr/gists{/gist_id}",
    "starred_url": "https://api.github.com/users/romainr/starred{/owner}{/repo}",
    "subscriptions_url": "https://api.github.com/users/romainr/subscriptions",
    "organizations_url": "https://api.github.com/users/romainr/orgs",
    "repos_url": "https://api.github.com/users/romainr/repos",
    "events_url": "https://api.github.com/users/romainr/events{/privacy}",
    "received_events_url": "https://api.github.com/users/romainr/received_events",
    "type": "User",
    "site_admin": false
  },
  "created_at": "2015-10-08T06:23:09Z",
  "updated_at": "2015-10-08T06:23:09Z",
  "body": "This is a very old part of the doc. AFAIK this is not used, it probably dates when use impersonation was not common in Hadoop, so it can be disgarded. I will see for removing it from the docs.\r\n\r\nhttps://groups.google.com/a/cloudera.org/forum/#!topic/hue-user/wHHbAga-NiM"
}
, {
  "url": "https://api.github.com/repos/cloudera/hue/issues/comments/146745702",
  "html_url": "https://github.com/cloudera/hue/issues/243#issuecomment-146745702",
  "issue_url": "https://api.github.com/repos/cloudera/hue/issues/243",
  "id": 146745702,
  "user": {
    "login": "sirtristancomtedeartois",
    "id": 3469881,
    "avatar_url": "https://avatars.githubusercontent.com/u/3469881?v=3",
    "gravatar_id": "",
    "url": "https://api.github.com/users/sirtristancomtedeartois",
    "html_url": "https://github.com/sirtristancomtedeartois",
    "followers_url": "https://api.github.com/users/sirtristancomtedeartois/followers",
    "following_url": "https://api.github.com/users/sirtristancomtedeartois/following{/other_user}",
    "gists_url": "https://api.github.com/users/sirtristancomtedeartois/gists{/gist_id}",
    "starred_url": "https://api.github.com/users/sirtristancomtedeartois/starred{/owner}{/repo}",
    "subscriptions_url": "https://api.github.com/users/sirtristancomtedeartois/subscriptions",
    "organizations_url": "https://api.github.com/users/sirtristancomtedeartois/orgs",
    "repos_url": "https://api.github.com/users/sirtristancomtedeartois/repos",
    "events_url": "https://api.github.com/users/sirtristancomtedeartois/events{/privacy}",
    "received_events_url": "https://api.github.com/users/sirtristancomtedeartois/received_events",
    "type": "User",
    "site_admin": false
  },
  "created_at": "2015-10-09T03:24:40Z",
  "updated_at": "2015-10-09T03:24:40Z",
  "body": "Hi Romainr, Thanks for the quick response, so does it mean that I I dont have to change hadoop.tmp.dir to /mnt/hadoop-${user.name}-${hue.suffix}, even if I just leave the settings as /mnt/hadoop-${user.name}, there will be no contention?"
}
, {
  "url": "https://api.github.com/repos/cloudera/hue/issues/comments/146747743",
  "html_url": "https://github.com/cloudera/hue/issues/243#issuecomment-146747743",
  "issue_url": "https://api.github.com/repos/cloudera/hue/issues/243",
  "id": 146747743,
  "user": {
    "login": "romainr",
    "id": 17945,
    "avatar_url": "https://avatars.githubusercontent.com/u/17945?v=3",
    "gravatar_id": "",
    "url": "https://api.github.com/users/romainr",
    "html_url": "https://github.com/romainr",
    "followers_url": "https://api.github.com/users/romainr/followers",
    "following_url": "https://api.github.com/users/romainr/following{/other_user}",
    "gists_url": "https://api.github.com/users/romainr/gists{/gist_id}",
    "starred_url": "https://api.github.com/users/romainr/starred{/owner}{/repo}",
    "subscriptions_url": "https://api.github.com/users/romainr/subscriptions",
    "organizations_url": "https://api.github.com/users/romainr/orgs",
    "repos_url": "https://api.github.com/users/romainr/repos",
    "events_url": "https://api.github.com/users/romainr/events{/privacy}",
    "received_events_url": "https://api.github.com/users/romainr/received_events",
    "type": "User",
    "site_admin": false
  },
  "created_at": "2015-10-09T03:40:29Z",
  "updated_at": "2015-10-09T03:40:29Z",
  "body": "Yes, just forget about it :)\r\n\r\nAnd the section will be removed at the next doc refresh."
}
]
