[
{
  "url": "https://api.github.com/repos/cloudera/hue/issues/comments/176124566",
  "html_url": "https://github.com/cloudera/hue/issues/305#issuecomment-176124566",
  "issue_url": "https://api.github.com/repos/cloudera/hue/issues/305",
  "id": 176124566,
  "user": {
    "login": "enricoberti",
    "id": 751894,
    "avatar_url": "https://avatars.githubusercontent.com/u/751894?v=3",
    "gravatar_id": "",
    "url": "https://api.github.com/users/enricoberti",
    "html_url": "https://github.com/enricoberti",
    "followers_url": "https://api.github.com/users/enricoberti/followers",
    "following_url": "https://api.github.com/users/enricoberti/following{/other_user}",
    "gists_url": "https://api.github.com/users/enricoberti/gists{/gist_id}",
    "starred_url": "https://api.github.com/users/enricoberti/starred{/owner}{/repo}",
    "subscriptions_url": "https://api.github.com/users/enricoberti/subscriptions",
    "organizations_url": "https://api.github.com/users/enricoberti/orgs",
    "repos_url": "https://api.github.com/users/enricoberti/repos",
    "events_url": "https://api.github.com/users/enricoberti/events{/privacy}",
    "received_events_url": "https://api.github.com/users/enricoberti/received_events",
    "type": "User",
    "site_admin": false
  },
  "created_at": "2016-01-28T11:03:20Z",
  "updated_at": "2016-01-28T11:03:20Z",
  "body": "Thanks!\r\nThat was recently fixed with https://github.com/cloudera/hue/commit/bb5dfc6fe865200151d88fa7a359eb037dfc2324\r\nand it's gonna be in Hue 3.10"
}
, {
  "url": "https://api.github.com/repos/cloudera/hue/issues/comments/176124826",
  "html_url": "https://github.com/cloudera/hue/issues/305#issuecomment-176124826",
  "issue_url": "https://api.github.com/repos/cloudera/hue/issues/305",
  "id": 176124826,
  "user": {
    "login": "fnerdwq",
    "id": 594148,
    "avatar_url": "https://avatars.githubusercontent.com/u/594148?v=3",
    "gravatar_id": "",
    "url": "https://api.github.com/users/fnerdwq",
    "html_url": "https://github.com/fnerdwq",
    "followers_url": "https://api.github.com/users/fnerdwq/followers",
    "following_url": "https://api.github.com/users/fnerdwq/following{/other_user}",
    "gists_url": "https://api.github.com/users/fnerdwq/gists{/gist_id}",
    "starred_url": "https://api.github.com/users/fnerdwq/starred{/owner}{/repo}",
    "subscriptions_url": "https://api.github.com/users/fnerdwq/subscriptions",
    "organizations_url": "https://api.github.com/users/fnerdwq/orgs",
    "repos_url": "https://api.github.com/users/fnerdwq/repos",
    "events_url": "https://api.github.com/users/fnerdwq/events{/privacy}",
    "received_events_url": "https://api.github.com/users/fnerdwq/received_events",
    "type": "User",
    "site_admin": false
  },
  "created_at": "2016-01-28T11:04:49Z",
  "updated_at": "2016-01-28T11:04:49Z",
  "body": "cool, thanks. Is there a schedule for 3.10?"
}
, {
  "url": "https://api.github.com/repos/cloudera/hue/issues/comments/176408620",
  "html_url": "https://github.com/cloudera/hue/issues/305#issuecomment-176408620",
  "issue_url": "https://api.github.com/repos/cloudera/hue/issues/305",
  "id": 176408620,
  "user": {
    "login": "romainr",
    "id": 17945,
    "avatar_url": "https://avatars.githubusercontent.com/u/17945?v=3",
    "gravatar_id": "",
    "url": "https://api.github.com/users/romainr",
    "html_url": "https://github.com/romainr",
    "followers_url": "https://api.github.com/users/romainr/followers",
    "following_url": "https://api.github.com/users/romainr/following{/other_user}",
    "gists_url": "https://api.github.com/users/romainr/gists{/gist_id}",
    "starred_url": "https://api.github.com/users/romainr/starred{/owner}{/repo}",
    "subscriptions_url": "https://api.github.com/users/romainr/subscriptions",
    "organizations_url": "https://api.github.com/users/romainr/orgs",
    "repos_url": "https://api.github.com/users/romainr/repos",
    "events_url": "https://api.github.com/users/romainr/events{/privacy}",
    "received_events_url": "https://api.github.com/users/romainr/received_events",
    "type": "User",
    "site_admin": false
  },
  "created_at": "2016-01-28T20:48:45Z",
  "updated_at": "2016-01-28T20:48:45Z",
  "body": "Current target is in about 2 weeks"
}
]
