[
{
  "url": "https://api.github.com/repos/linkedin/dustjs/issues/comments/106821203",
  "html_url": "https://github.com/linkedin/dustjs/issues/671#issuecomment-106821203",
  "issue_url": "https://api.github.com/repos/linkedin/dustjs/issues/671",
  "id": 106821203,
  "user": {
    "login": "sethkinast",
    "id": 1399532,
    "avatar_url": "https://avatars.githubusercontent.com/u/1399532?v=3",
    "gravatar_id": "",
    "url": "https://api.github.com/users/sethkinast",
    "html_url": "https://github.com/sethkinast",
    "followers_url": "https://api.github.com/users/sethkinast/followers",
    "following_url": "https://api.github.com/users/sethkinast/following{/other_user}",
    "gists_url": "https://api.github.com/users/sethkinast/gists{/gist_id}",
    "starred_url": "https://api.github.com/users/sethkinast/starred{/owner}{/repo}",
    "subscriptions_url": "https://api.github.com/users/sethkinast/subscriptions",
    "organizations_url": "https://api.github.com/users/sethkinast/orgs",
    "repos_url": "https://api.github.com/users/sethkinast/repos",
    "events_url": "https://api.github.com/users/sethkinast/events{/privacy}",
    "received_events_url": "https://api.github.com/users/sethkinast/received_events",
    "type": "User",
    "site_admin": false
  },
  "created_at": "2015-05-29T14:16:25Z",
  "updated_at": "2015-05-29T14:16:25Z",
  "body": "What node version? Can you share a representative context that fails?\r\n\r\nI can't quite imagine this being broken as it's one of the most tested code paths, and we test in node, phantom, and all major browsers."
}
, {
  "url": "https://api.github.com/repos/linkedin/dustjs/issues/comments/106828969",
  "html_url": "https://github.com/linkedin/dustjs/issues/671#issuecomment-106828969",
  "issue_url": "https://api.github.com/repos/linkedin/dustjs/issues/671",
  "id": 106828969,
  "user": {
    "login": "sethkinast",
    "id": 1399532,
    "avatar_url": "https://avatars.githubusercontent.com/u/1399532?v=3",
    "gravatar_id": "",
    "url": "https://api.github.com/users/sethkinast",
    "html_url": "https://github.com/sethkinast",
    "followers_url": "https://api.github.com/users/sethkinast/followers",
    "following_url": "https://api.github.com/users/sethkinast/following{/other_user}",
    "gists_url": "https://api.github.com/users/sethkinast/gists{/gist_id}",
    "starred_url": "https://api.github.com/users/sethkinast/starred{/owner}{/repo}",
    "subscriptions_url": "https://api.github.com/users/sethkinast/subscriptions",
    "organizations_url": "https://api.github.com/users/sethkinast/orgs",
    "repos_url": "https://api.github.com/users/sethkinast/repos",
    "events_url": "https://api.github.com/users/sethkinast/events{/privacy}",
    "received_events_url": "https://api.github.com/users/sethkinast/received_events",
    "type": "User",
    "site_admin": false
  },
  "created_at": "2015-05-29T14:33:39Z",
  "updated_at": "2015-05-29T14:33:39Z",
  "body": "I tested with this code:\r\n\r\n```\r\nvar dust = require('dustjs-linkedin');\r\n\r\nvar tmpl = dust.compile(\"{#organization}Name: {name} Address: {address.streetAddress}{/organization}\", \"hello\");\r\ndust.loadSource(tmpl);\r\n\r\ndust.render(\"hello\", { organization: { name: \"Foo\", address: { streetAddress: \"123 Bar St\" }} }, function(err, out) {\r\n  if(err) {\r\n    console.error(err);\r\n  } else {\r\n    console.log(out);\r\n  }\r\n});\r\n```\r\n\r\nAnd ran it using Node 0.8.28 and io.js 1.4.3. Each time, the output was as expected. Please provide any other info you can."
}
, {
  "url": "https://api.github.com/repos/linkedin/dustjs/issues/comments/106857244",
  "html_url": "https://github.com/linkedin/dustjs/issues/671#issuecomment-106857244",
  "issue_url": "https://api.github.com/repos/linkedin/dustjs/issues/671",
  "id": 106857244,
  "user": {
    "login": "lohfu",
    "id": 7393351,
    "avatar_url": "https://avatars.githubusercontent.com/u/7393351?v=3",
    "gravatar_id": "",
    "url": "https://api.github.com/users/lohfu",
    "html_url": "https://github.com/lohfu",
    "followers_url": "https://api.github.com/users/lohfu/followers",
    "following_url": "https://api.github.com/users/lohfu/following{/other_user}",
    "gists_url": "https://api.github.com/users/lohfu/gists{/gist_id}",
    "starred_url": "https://api.github.com/users/lohfu/starred{/owner}{/repo}",
    "subscriptions_url": "https://api.github.com/users/lohfu/subscriptions",
    "organizations_url": "https://api.github.com/users/lohfu/orgs",
    "repos_url": "https://api.github.com/users/lohfu/repos",
    "events_url": "https://api.github.com/users/lohfu/events{/privacy}",
    "received_events_url": "https://api.github.com/users/lohfu/received_events",
    "type": "User",
    "site_admin": false
  },
  "created_at": "2015-05-29T16:02:53Z",
  "updated_at": "2015-05-29T16:04:44Z",
  "body": "Hey again,\r\n\r\nSo yeah, took me a while to find what causes it... but it seems to be when I section ({#section}) a single NOT lean mongoose model. If I pass an array of NOT lean mongoose models it works.\r\n\r\nIf I make the mongoose model lean, then it works sectioning a single one.\r\n\r\nThe EXTREMELY annoying part was that Dust just completely freezes without outputting any errors, or calling the callback.\r\n\r\nEDIT: I am running node 0.12.2.\r\n\r\nEDIT2: And once again, this bug/feature does not occur in dust 2.6.2"
}
, {
  "url": "https://api.github.com/repos/linkedin/dustjs/issues/comments/106869903",
  "html_url": "https://github.com/linkedin/dustjs/issues/671#issuecomment-106869903",
  "issue_url": "https://api.github.com/repos/linkedin/dustjs/issues/671",
  "id": 106869903,
  "user": {
    "login": "sethkinast",
    "id": 1399532,
    "avatar_url": "https://avatars.githubusercontent.com/u/1399532?v=3",
    "gravatar_id": "",
    "url": "https://api.github.com/users/sethkinast",
    "html_url": "https://github.com/sethkinast",
    "followers_url": "https://api.github.com/users/sethkinast/followers",
    "following_url": "https://api.github.com/users/sethkinast/following{/other_user}",
    "gists_url": "https://api.github.com/users/sethkinast/gists{/gist_id}",
    "starred_url": "https://api.github.com/users/sethkinast/starred{/owner}{/repo}",
    "subscriptions_url": "https://api.github.com/users/sethkinast/subscriptions",
    "organizations_url": "https://api.github.com/users/sethkinast/orgs",
    "repos_url": "https://api.github.com/users/sethkinast/repos",
    "events_url": "https://api.github.com/users/sethkinast/events{/privacy}",
    "received_events_url": "https://api.github.com/users/sethkinast/received_events",
    "type": "User",
    "site_admin": false
  },
  "created_at": "2015-05-29T16:54:27Z",
  "updated_at": "2015-05-29T16:54:27Z",
  "body": "Ah ok, this is fixed in https://github.com/linkedin/dustjs/issues/663 and will be in Dust 2.7.2."
}
, {
  "url": "https://api.github.com/repos/linkedin/dustjs/issues/comments/106927695",
  "html_url": "https://github.com/linkedin/dustjs/issues/671#issuecomment-106927695",
  "issue_url": "https://api.github.com/repos/linkedin/dustjs/issues/671",
  "id": 106927695,
  "user": {
    "login": "lohfu",
    "id": 7393351,
    "avatar_url": "https://avatars.githubusercontent.com/u/7393351?v=3",
    "gravatar_id": "",
    "url": "https://api.github.com/users/lohfu",
    "html_url": "https://github.com/lohfu",
    "followers_url": "https://api.github.com/users/lohfu/followers",
    "following_url": "https://api.github.com/users/lohfu/following{/other_user}",
    "gists_url": "https://api.github.com/users/lohfu/gists{/gist_id}",
    "starred_url": "https://api.github.com/users/lohfu/starred{/owner}{/repo}",
    "subscriptions_url": "https://api.github.com/users/lohfu/subscriptions",
    "organizations_url": "https://api.github.com/users/lohfu/orgs",
    "repos_url": "https://api.github.com/users/lohfu/repos",
    "events_url": "https://api.github.com/users/lohfu/events{/privacy}",
    "received_events_url": "https://api.github.com/users/lohfu/received_events",
    "type": "User",
    "site_admin": false
  },
  "created_at": "2015-05-29T20:30:51Z",
  "updated_at": "2015-05-29T20:30:51Z",
  "body": "Shit sorry\nDen 29 maj 2015 18:55 skrev \"Seth Kinast\" <notifications@github.com>:\n\n> Ah ok, this is fixed in #663\n> <https://github.com/linkedin/dustjs/issues/663> and will be in Dust 2.7.2.\n>\n> —\n> Reply to this email directly or view it on GitHub\n> <https://github.com/linkedin/dustjs/issues/671#issuecomment-106869903>.\n>\n"
}
, {
  "url": "https://api.github.com/repos/linkedin/dustjs/issues/comments/106930041",
  "html_url": "https://github.com/linkedin/dustjs/issues/671#issuecomment-106930041",
  "issue_url": "https://api.github.com/repos/linkedin/dustjs/issues/671",
  "id": 106930041,
  "user": {
    "login": "sethkinast",
    "id": 1399532,
    "avatar_url": "https://avatars.githubusercontent.com/u/1399532?v=3",
    "gravatar_id": "",
    "url": "https://api.github.com/users/sethkinast",
    "html_url": "https://github.com/sethkinast",
    "followers_url": "https://api.github.com/users/sethkinast/followers",
    "following_url": "https://api.github.com/users/sethkinast/following{/other_user}",
    "gists_url": "https://api.github.com/users/sethkinast/gists{/gist_id}",
    "starred_url": "https://api.github.com/users/sethkinast/starred{/owner}{/repo}",
    "subscriptions_url": "https://api.github.com/users/sethkinast/subscriptions",
    "organizations_url": "https://api.github.com/users/sethkinast/orgs",
    "repos_url": "https://api.github.com/users/sethkinast/repos",
    "events_url": "https://api.github.com/users/sethkinast/events{/privacy}",
    "received_events_url": "https://api.github.com/users/sethkinast/received_events",
    "type": "User",
    "site_admin": false
  },
  "created_at": "2015-05-29T20:44:05Z",
  "updated_at": "2015-05-29T20:44:05Z",
  "body": "Oh you have nothing to be sorry for, I wouldn't expect you to search closed issues, not your fault!\r\n\r\nWe will try to have a new release out very soon; sorry you wasted time trying to debug."
}
, {
  "url": "https://api.github.com/repos/linkedin/dustjs/issues/comments/110153777",
  "html_url": "https://github.com/linkedin/dustjs/issues/671#issuecomment-110153777",
  "issue_url": "https://api.github.com/repos/linkedin/dustjs/issues/671",
  "id": 110153777,
  "user": {
    "login": "sethkinast",
    "id": 1399532,
    "avatar_url": "https://avatars.githubusercontent.com/u/1399532?v=3",
    "gravatar_id": "",
    "url": "https://api.github.com/users/sethkinast",
    "html_url": "https://github.com/sethkinast",
    "followers_url": "https://api.github.com/users/sethkinast/followers",
    "following_url": "https://api.github.com/users/sethkinast/following{/other_user}",
    "gists_url": "https://api.github.com/users/sethkinast/gists{/gist_id}",
    "starred_url": "https://api.github.com/users/sethkinast/starred{/owner}{/repo}",
    "subscriptions_url": "https://api.github.com/users/sethkinast/subscriptions",
    "organizations_url": "https://api.github.com/users/sethkinast/orgs",
    "repos_url": "https://api.github.com/users/sethkinast/repos",
    "events_url": "https://api.github.com/users/sethkinast/events{/privacy}",
    "received_events_url": "https://api.github.com/users/sethkinast/received_events",
    "type": "User",
    "site_admin": false
  },
  "created_at": "2015-06-08T21:57:37Z",
  "updated_at": "2015-06-08T21:57:37Z",
  "body": "This should be resolved in 2.7.2"
}
]
