[
{
  "url": "https://api.github.com/repos/linkedin/dustjs/issues/comments/30894349",
  "html_url": "https://github.com/linkedin/dustjs/issues/386#issuecomment-30894349",
  "issue_url": "https://api.github.com/repos/linkedin/dustjs/issues/386",
  "id": 30894349,
  "user": {
    "login": "prashn64",
    "id": 1528886,
    "avatar_url": "https://avatars.githubusercontent.com/u/1528886?v=3",
    "gravatar_id": "",
    "url": "https://api.github.com/users/prashn64",
    "html_url": "https://github.com/prashn64",
    "followers_url": "https://api.github.com/users/prashn64/followers",
    "following_url": "https://api.github.com/users/prashn64/following{/other_user}",
    "gists_url": "https://api.github.com/users/prashn64/gists{/gist_id}",
    "starred_url": "https://api.github.com/users/prashn64/starred{/owner}{/repo}",
    "subscriptions_url": "https://api.github.com/users/prashn64/subscriptions",
    "organizations_url": "https://api.github.com/users/prashn64/orgs",
    "repos_url": "https://api.github.com/users/prashn64/repos",
    "events_url": "https://api.github.com/users/prashn64/events{/privacy}",
    "received_events_url": "https://api.github.com/users/prashn64/received_events",
    "type": "User",
    "site_admin": false
  },
  "created_at": "2013-12-19T00:10:24Z",
  "updated_at": "2013-12-19T00:10:24Z",
  "body": "Agreed, this especially screws us up when we are trying to pull in the dust library to the linkedin repo, since that runs  the dust tests in rhino."
}
, {
  "url": "https://api.github.com/repos/linkedin/dustjs/issues/comments/30896902",
  "html_url": "https://github.com/linkedin/dustjs/issues/386#issuecomment-30896902",
  "issue_url": "https://api.github.com/repos/linkedin/dustjs/issues/386",
  "id": 30896902,
  "user": {
    "login": "jimmyhchan",
    "id": 718471,
    "avatar_url": "https://avatars.githubusercontent.com/u/718471?v=3",
    "gravatar_id": "",
    "url": "https://api.github.com/users/jimmyhchan",
    "html_url": "https://github.com/jimmyhchan",
    "followers_url": "https://api.github.com/users/jimmyhchan/followers",
    "following_url": "https://api.github.com/users/jimmyhchan/following{/other_user}",
    "gists_url": "https://api.github.com/users/jimmyhchan/gists{/gist_id}",
    "starred_url": "https://api.github.com/users/jimmyhchan/starred{/owner}{/repo}",
    "subscriptions_url": "https://api.github.com/users/jimmyhchan/subscriptions",
    "organizations_url": "https://api.github.com/users/jimmyhchan/orgs",
    "repos_url": "https://api.github.com/users/jimmyhchan/repos",
    "events_url": "https://api.github.com/users/jimmyhchan/events{/privacy}",
    "received_events_url": "https://api.github.com/users/jimmyhchan/received_events",
    "type": "User",
    "site_admin": false
  },
  "created_at": "2013-12-19T00:59:29Z",
  "updated_at": "2013-12-19T00:59:29Z",
  "body": "What rhino versions do we need to support. "
}
, {
  "url": "https://api.github.com/repos/linkedin/dustjs/issues/comments/30948079",
  "html_url": "https://github.com/linkedin/dustjs/issues/386#issuecomment-30948079",
  "issue_url": "https://api.github.com/repos/linkedin/dustjs/issues/386",
  "id": 30948079,
  "user": {
    "login": "kate2753",
    "id": 3639923,
    "avatar_url": "https://avatars.githubusercontent.com/u/3639923?v=3",
    "gravatar_id": "",
    "url": "https://api.github.com/users/kate2753",
    "html_url": "https://github.com/kate2753",
    "followers_url": "https://api.github.com/users/kate2753/followers",
    "following_url": "https://api.github.com/users/kate2753/following{/other_user}",
    "gists_url": "https://api.github.com/users/kate2753/gists{/gist_id}",
    "starred_url": "https://api.github.com/users/kate2753/starred{/owner}{/repo}",
    "subscriptions_url": "https://api.github.com/users/kate2753/subscriptions",
    "organizations_url": "https://api.github.com/users/kate2753/orgs",
    "repos_url": "https://api.github.com/users/kate2753/repos",
    "events_url": "https://api.github.com/users/kate2753/events{/privacy}",
    "received_events_url": "https://api.github.com/users/kate2753/received_events",
    "type": "User",
    "site_admin": false
  },
  "created_at": "2013-12-19T17:25:34Z",
  "updated_at": "2014-01-08T07:30:48Z",
  "body": "I think we should support the latest - Rhino 1.7R5. \r\n\r\nAlso in it looks like there are few cases where we use Rhino 1.7R3 for rendering. We should test this one as well."
}
, {
  "url": "https://api.github.com/repos/linkedin/dustjs/issues/comments/32568522",
  "html_url": "https://github.com/linkedin/dustjs/issues/386#issuecomment-32568522",
  "issue_url": "https://api.github.com/repos/linkedin/dustjs/issues/386",
  "id": 32568522,
  "user": {
    "login": "jimmyhchan",
    "id": 718471,
    "avatar_url": "https://avatars.githubusercontent.com/u/718471?v=3",
    "gravatar_id": "",
    "url": "https://api.github.com/users/jimmyhchan",
    "html_url": "https://github.com/jimmyhchan",
    "followers_url": "https://api.github.com/users/jimmyhchan/followers",
    "following_url": "https://api.github.com/users/jimmyhchan/following{/other_user}",
    "gists_url": "https://api.github.com/users/jimmyhchan/gists{/gist_id}",
    "starred_url": "https://api.github.com/users/jimmyhchan/starred{/owner}{/repo}",
    "subscriptions_url": "https://api.github.com/users/jimmyhchan/subscriptions",
    "organizations_url": "https://api.github.com/users/jimmyhchan/orgs",
    "repos_url": "https://api.github.com/users/jimmyhchan/repos",
    "events_url": "https://api.github.com/users/jimmyhchan/events{/privacy}",
    "received_events_url": "https://api.github.com/users/jimmyhchan/received_events",
    "type": "User",
    "site_admin": false
  },
  "created_at": "2014-01-17T00:36:55Z",
  "updated_at": "2014-01-17T00:36:55Z",
  "body": "Fixed in 2.3"
}
]
