[
{
  "url": "https://api.github.com/repos/google/cayley/issues/comments/47333679",
  "html_url": "https://github.com/google/cayley/pull/16#issuecomment-47333679",
  "issue_url": "https://api.github.com/repos/google/cayley/issues/16",
  "id": 47333679,
  "user": {
    "login": "jonathanmarvens",
    "id": 890200,
    "avatar_url": "https://avatars.githubusercontent.com/u/890200?v=3",
    "gravatar_id": "",
    "url": "https://api.github.com/users/jonathanmarvens",
    "html_url": "https://github.com/jonathanmarvens",
    "followers_url": "https://api.github.com/users/jonathanmarvens/followers",
    "following_url": "https://api.github.com/users/jonathanmarvens/following{/other_user}",
    "gists_url": "https://api.github.com/users/jonathanmarvens/gists{/gist_id}",
    "starred_url": "https://api.github.com/users/jonathanmarvens/starred{/owner}{/repo}",
    "subscriptions_url": "https://api.github.com/users/jonathanmarvens/subscriptions",
    "organizations_url": "https://api.github.com/users/jonathanmarvens/orgs",
    "repos_url": "https://api.github.com/users/jonathanmarvens/repos",
    "events_url": "https://api.github.com/users/jonathanmarvens/events{/privacy}",
    "received_events_url": "https://api.github.com/users/jonathanmarvens/received_events",
    "type": "User",
    "site_admin": false
  },
  "created_at": "2014-06-27T11:38:07Z",
  "updated_at": "2014-06-27T11:38:07Z",
  "body": "Sorry about this. Closing this PR and making these fixes in different branches."
}
]
