{
  "id": 16776244,
  "name": "webmaker-auth",
  "full_name": "mozilla/webmaker-auth",
  "owner": {
    "login": "mozilla",
    "id": 131524,
    "avatar_url": "https://avatars.githubusercontent.com/u/131524?v=3",
    "gravatar_id": "",
    "url": "https://api.github.com/users/mozilla",
    "html_url": "https://github.com/mozilla",
    "followers_url": "https://api.github.com/users/mozilla/followers",
    "following_url": "https://api.github.com/users/mozilla/following{/other_user}",
    "gists_url": "https://api.github.com/users/mozilla/gists{/gist_id}",
    "starred_url": "https://api.github.com/users/mozilla/starred{/owner}{/repo}",
    "subscriptions_url": "https://api.github.com/users/mozilla/subscriptions",
    "organizations_url": "https://api.github.com/users/mozilla/orgs",
    "repos_url": "https://api.github.com/users/mozilla/repos",
    "events_url": "https://api.github.com/users/mozilla/events{/privacy}",
    "received_events_url": "https://api.github.com/users/mozilla/received_events",
    "type": "Organization",
    "site_admin": false
  },
  "private": false,
  "html_url": "https://github.com/mozilla/webmaker-auth",
  "description": "Express middleware for proxying authentication requests to a webmaker login server",
  "fork": false,
  "url": "https://api.github.com/repos/mozilla/webmaker-auth",
  "forks_url": "https://api.github.com/repos/mozilla/webmaker-auth/forks",
  "keys_url": "https://api.github.com/repos/mozilla/webmaker-auth/keys{/key_id}",
  "collaborators_url": "https://api.github.com/repos/mozilla/webmaker-auth/collaborators{/collaborator}",
  "teams_url": "https://api.github.com/repos/mozilla/webmaker-auth/teams",
  "hooks_url": "https://api.github.com/repos/mozilla/webmaker-auth/hooks",
  "issue_events_url": "https://api.github.com/repos/mozilla/webmaker-auth/issues/events{/number}",
  "events_url": "https://api.github.com/repos/mozilla/webmaker-auth/events",
  "assignees_url": "https://api.github.com/repos/mozilla/webmaker-auth/assignees{/user}",
  "branches_url": "https://api.github.com/repos/mozilla/webmaker-auth/branches{/branch}",
  "tags_url": "https://api.github.com/repos/mozilla/webmaker-auth/tags",
  "blobs_url": "https://api.github.com/repos/mozilla/webmaker-auth/git/blobs{/sha}",
  "git_tags_url": "https://api.github.com/repos/mozilla/webmaker-auth/git/tags{/sha}",
  "git_refs_url": "https://api.github.com/repos/mozilla/webmaker-auth/git/refs{/sha}",
  "trees_url": "https://api.github.com/repos/mozilla/webmaker-auth/git/trees{/sha}",
  "statuses_url": "https://api.github.com/repos/mozilla/webmaker-auth/statuses/{sha}",
  "languages_url": "https://api.github.com/repos/mozilla/webmaker-auth/languages",
  "stargazers_url": "https://api.github.com/repos/mozilla/webmaker-auth/stargazers",
  "contributors_url": "https://api.github.com/repos/mozilla/webmaker-auth/contributors",
  "subscribers_url": "https://api.github.com/repos/mozilla/webmaker-auth/subscribers",
  "subscription_url": "https://api.github.com/repos/mozilla/webmaker-auth/subscription",
  "commits_url": "https://api.github.com/repos/mozilla/webmaker-auth/commits{/sha}",
  "git_commits_url": "https://api.github.com/repos/mozilla/webmaker-auth/git/commits{/sha}",
  "comments_url": "https://api.github.com/repos/mozilla/webmaker-auth/comments{/number}",
  "issue_comment_url": "https://api.github.com/repos/mozilla/webmaker-auth/issues/comments{/number}",
  "contents_url": "https://api.github.com/repos/mozilla/webmaker-auth/contents/{+path}",
  "compare_url": "https://api.github.com/repos/mozilla/webmaker-auth/compare/{base}...{head}",
  "merges_url": "https://api.github.com/repos/mozilla/webmaker-auth/merges",
  "archive_url": "https://api.github.com/repos/mozilla/webmaker-auth/{archive_format}{/ref}",
  "downloads_url": "https://api.github.com/repos/mozilla/webmaker-auth/downloads",
  "issues_url": "https://api.github.com/repos/mozilla/webmaker-auth/issues{/number}",
  "pulls_url": "https://api.github.com/repos/mozilla/webmaker-auth/pulls{/number}",
  "milestones_url": "https://api.github.com/repos/mozilla/webmaker-auth/milestones{/number}",
  "notifications_url": "https://api.github.com/repos/mozilla/webmaker-auth/notifications{?since,all,participating}",
  "labels_url": "https://api.github.com/repos/mozilla/webmaker-auth/labels{/name}",
  "releases_url": "https://api.github.com/repos/mozilla/webmaker-auth/releases{/id}",
  "deployments_url": "https://api.github.com/repos/mozilla/webmaker-auth/deployments",
  "created_at": "2014-02-12T17:57:05Z",
  "updated_at": "2015-09-04T12:01:36Z",
  "pushed_at": "2015-07-23T17:29:18Z",
  "git_url": "git://github.com/mozilla/webmaker-auth.git",
  "ssh_url": "git@github.com:mozilla/webmaker-auth.git",
  "clone_url": "https://github.com/mozilla/webmaker-auth.git",
  "svn_url": "https://github.com/mozilla/webmaker-auth",
  "homepage": null,
  "size": 510,
  "stargazers_count": 1,
  "watchers_count": 1,
  "language": "JavaScript",
  "has_issues": true,
  "has_downloads": true,
  "has_wiki": true,
  "has_pages": false,
  "forks_count": 8,
  "mirror_url": null,
  "open_issues_count": 4,
  "forks": 8,
  "open_issues": 4,
  "watchers": 1,
  "default_branch": "master",
  "master_branch": "master",
  "permissions": {
    "admin": false,
    "push": false,
    "pull": true
  },
  "license": {
    "key": "mpl-2.0",
    "name": "Mozilla Public License 2.0",
    "url": "https://api.github.com/licenses/mpl-2.0",
    "featured": false
  },
  "organization": {
    "login": "mozilla",
    "id": 131524,
    "avatar_url": "https://avatars.githubusercontent.com/u/131524?v=3",
    "gravatar_id": "",
    "url": "https://api.github.com/users/mozilla",
    "html_url": "https://github.com/mozilla",
    "followers_url": "https://api.github.com/users/mozilla/followers",
    "following_url": "https://api.github.com/users/mozilla/following{/other_user}",
    "gists_url": "https://api.github.com/users/mozilla/gists{/gist_id}",
    "starred_url": "https://api.github.com/users/mozilla/starred{/owner}{/repo}",
    "subscriptions_url": "https://api.github.com/users/mozilla/subscriptions",
    "organizations_url": "https://api.github.com/users/mozilla/orgs",
    "repos_url": "https://api.github.com/users/mozilla/repos",
    "events_url": "https://api.github.com/users/mozilla/events{/privacy}",
    "received_events_url": "https://api.github.com/users/mozilla/received_events",
    "type": "Organization",
    "site_admin": false
  },
  "network_count": 8,
  "subscribers_count": 44
}
