[
{
  "url": "https://api.github.com/repos/douban/douban-mc/issues/4",
  "labels_url": "https://api.github.com/repos/douban/douban-mc/issues/4/labels{/name}",
  "comments_url": "https://api.github.com/repos/douban/douban-mc/issues/4/comments",
  "events_url": "https://api.github.com/repos/douban/douban-mc/issues/4/events",
  "html_url": "https://github.com/douban/douban-mc/issues/4",
  "id": 34522892,
  "number": 4,
  "title": "关于数据一致性的疑问",
  "user": {
    "login": "thbourlove",
    "id": 1768066,
    "avatar_url": "https://avatars.githubusercontent.com/u/1768066?v=3",
    "gravatar_id": "",
    "url": "https://api.github.com/users/thbourlove",
    "html_url": "https://github.com/thbourlove",
    "followers_url": "https://api.github.com/users/thbourlove/followers",
    "following_url": "https://api.github.com/users/thbourlove/following{/other_user}",
    "gists_url": "https://api.github.com/users/thbourlove/gists{/gist_id}",
    "starred_url": "https://api.github.com/users/thbourlove/starred{/owner}{/repo}",
    "subscriptions_url": "https://api.github.com/users/thbourlove/subscriptions",
    "organizations_url": "https://api.github.com/users/thbourlove/orgs",
    "repos_url": "https://api.github.com/users/thbourlove/repos",
    "events_url": "https://api.github.com/users/thbourlove/events{/privacy}",
    "received_events_url": "https://api.github.com/users/thbourlove/received_events",
    "type": "User",
    "site_admin": false
  },
  "labels": [],
  "state": "closed",
  "locked": false,
  "assignee": null,
  "milestone": null,
  "comments": 2,
  "created_at": "2014-05-29T01:54:53Z",
  "updated_at": "2014-05-29T02:10:04Z",
  "closed_at": "2014-05-29T02:10:04Z",
  "body": "不知道你们对于数据一致性是怎么考虑的。在我看来默认情况下，cache 这个装饰器就是一个无锁的实现方式，那么douban是否有做什么其他工作来保证缓存中的数据与数据库中的数据的一致性？"
}
, {
  "url": "https://api.github.com/repos/douban/douban-mc/issues/2",
  "labels_url": "https://api.github.com/repos/douban/douban-mc/issues/2/labels{/name}",
  "comments_url": "https://api.github.com/repos/douban/douban-mc/issues/2/comments",
  "events_url": "https://api.github.com/repos/douban/douban-mc/issues/2/events",
  "html_url": "https://github.com/douban/douban-mc/pull/2",
  "id": 29106183,
  "number": 2,
  "title": "Modify wrapper",
  "user": {
    "login": "dongweiming",
    "id": 841395,
    "avatar_url": "https://avatars.githubusercontent.com/u/841395?v=3",
    "gravatar_id": "",
    "url": "https://api.github.com/users/dongweiming",
    "html_url": "https://github.com/dongweiming",
    "followers_url": "https://api.github.com/users/dongweiming/followers",
    "following_url": "https://api.github.com/users/dongweiming/following{/other_user}",
    "gists_url": "https://api.github.com/users/dongweiming/gists{/gist_id}",
    "starred_url": "https://api.github.com/users/dongweiming/starred{/owner}{/repo}",
    "subscriptions_url": "https://api.github.com/users/dongweiming/subscriptions",
    "organizations_url": "https://api.github.com/users/dongweiming/orgs",
    "repos_url": "https://api.github.com/users/dongweiming/repos",
    "events_url": "https://api.github.com/users/dongweiming/events{/privacy}",
    "received_events_url": "https://api.github.com/users/dongweiming/received_events",
    "type": "User",
    "site_admin": false
  },
  "labels": [],
  "state": "closed",
  "locked": false,
  "assignee": null,
  "milestone": null,
  "comments": 0,
  "created_at": "2014-03-10T15:49:35Z",
  "updated_at": "2015-04-19T11:42:28Z",
  "closed_at": "2015-04-19T11:42:28Z",
  "pull_request": {
    "url": "https://api.github.com/repos/douban/douban-mc/pulls/2",
    "html_url": "https://github.com/douban/douban-mc/pull/2",
    "diff_url": "https://github.com/douban/douban-mc/pull/2.diff",
    "patch_url": "https://github.com/douban/douban-mc/pull/2.patch"
  },
  "body": ""
}
, {
  "url": "https://api.github.com/repos/douban/douban-mc/issues/1",
  "labels_url": "https://api.github.com/repos/douban/douban-mc/issues/1/labels{/name}",
  "comments_url": "https://api.github.com/repos/douban/douban-mc/issues/1/comments",
  "events_url": "https://api.github.com/repos/douban/douban-mc/issues/1/events",
  "html_url": "https://github.com/douban/douban-mc/pull/1",
  "id": 29104927,
  "number": 1,
  "title": "Modify debug.py",
  "user": {
    "login": "dongweiming",
    "id": 841395,
    "avatar_url": "https://avatars.githubusercontent.com/u/841395?v=3",
    "gravatar_id": "",
    "url": "https://api.github.com/users/dongweiming",
    "html_url": "https://github.com/dongweiming",
    "followers_url": "https://api.github.com/users/dongweiming/followers",
    "following_url": "https://api.github.com/users/dongweiming/following{/other_user}",
    "gists_url": "https://api.github.com/users/dongweiming/gists{/gist_id}",
    "starred_url": "https://api.github.com/users/dongweiming/starred{/owner}{/repo}",
    "subscriptions_url": "https://api.github.com/users/dongweiming/subscriptions",
    "organizations_url": "https://api.github.com/users/dongweiming/orgs",
    "repos_url": "https://api.github.com/users/dongweiming/repos",
    "events_url": "https://api.github.com/users/dongweiming/events{/privacy}",
    "received_events_url": "https://api.github.com/users/dongweiming/received_events",
    "type": "User",
    "site_admin": false
  },
  "labels": [],
  "state": "closed",
  "locked": false,
  "assignee": null,
  "milestone": null,
  "comments": 0,
  "created_at": "2014-03-10T15:36:09Z",
  "updated_at": "2015-04-19T11:42:47Z",
  "closed_at": "2015-04-19T11:42:47Z",
  "pull_request": {
    "url": "https://api.github.com/repos/douban/douban-mc/pulls/1",
    "html_url": "https://github.com/douban/douban-mc/pull/1",
    "diff_url": "https://github.com/douban/douban-mc/pull/1.diff",
    "patch_url": "https://github.com/douban/douban-mc/pull/1.patch"
  },
  "body": "感觉这是很久以前的代码"
}
]
