[
{
  "url": "https://api.github.com/repos/stripe/stripe-python/issues/comments/165287986",
  "html_url": "https://github.com/stripe/stripe-python/pull/195#issuecomment-165287986",
  "issue_url": "https://api.github.com/repos/stripe/stripe-python/issues/195",
  "id": 165287986,
  "user": {
    "login": "kyleconroy",
    "id": 34893,
    "avatar_url": "https://avatars.githubusercontent.com/u/34893?v=3",
    "gravatar_id": "",
    "url": "https://api.github.com/users/kyleconroy",
    "html_url": "https://github.com/kyleconroy",
    "followers_url": "https://api.github.com/users/kyleconroy/followers",
    "following_url": "https://api.github.com/users/kyleconroy/following{/other_user}",
    "gists_url": "https://api.github.com/users/kyleconroy/gists{/gist_id}",
    "starred_url": "https://api.github.com/users/kyleconroy/starred{/owner}{/repo}",
    "subscriptions_url": "https://api.github.com/users/kyleconroy/subscriptions",
    "organizations_url": "https://api.github.com/users/kyleconroy/orgs",
    "repos_url": "https://api.github.com/users/kyleconroy/repos",
    "events_url": "https://api.github.com/users/kyleconroy/events{/privacy}",
    "received_events_url": "https://api.github.com/users/kyleconroy/received_events",
    "type": "User",
    "site_admin": false
  },
  "created_at": "2015-12-16T23:41:01Z",
  "updated_at": "2015-12-16T23:41:01Z",
  "body": "cc @stripe/dev-platform "
}
, {
  "url": "https://api.github.com/repos/stripe/stripe-python/issues/comments/165290032",
  "html_url": "https://github.com/stripe/stripe-python/pull/195#issuecomment-165290032",
  "issue_url": "https://api.github.com/repos/stripe/stripe-python/issues/195",
  "id": 165290032,
  "user": {
    "login": "kyleconroy",
    "id": 34893,
    "avatar_url": "https://avatars.githubusercontent.com/u/34893?v=3",
    "gravatar_id": "",
    "url": "https://api.github.com/users/kyleconroy",
    "html_url": "https://github.com/kyleconroy",
    "followers_url": "https://api.github.com/users/kyleconroy/followers",
    "following_url": "https://api.github.com/users/kyleconroy/following{/other_user}",
    "gists_url": "https://api.github.com/users/kyleconroy/gists{/gist_id}",
    "starred_url": "https://api.github.com/users/kyleconroy/starred{/owner}{/repo}",
    "subscriptions_url": "https://api.github.com/users/kyleconroy/subscriptions",
    "organizations_url": "https://api.github.com/users/kyleconroy/orgs",
    "repos_url": "https://api.github.com/users/kyleconroy/repos",
    "events_url": "https://api.github.com/users/kyleconroy/events{/privacy}",
    "received_events_url": "https://api.github.com/users/kyleconroy/received_events",
    "type": "User",
    "site_admin": false
  },
  "created_at": "2015-12-16T23:45:24Z",
  "updated_at": "2015-12-16T23:45:24Z",
  "body": "r? @tetrakai "
}
, {
  "url": "https://api.github.com/repos/stripe/stripe-python/issues/comments/165364977",
  "html_url": "https://github.com/stripe/stripe-python/pull/195#issuecomment-165364977",
  "issue_url": "https://api.github.com/repos/stripe/stripe-python/issues/195",
  "id": 165364977,
  "user": {
    "login": "tetrakai",
    "id": 842146,
    "avatar_url": "https://avatars.githubusercontent.com/u/842146?v=3",
    "gravatar_id": "",
    "url": "https://api.github.com/users/tetrakai",
    "html_url": "https://github.com/tetrakai",
    "followers_url": "https://api.github.com/users/tetrakai/followers",
    "following_url": "https://api.github.com/users/tetrakai/following{/other_user}",
    "gists_url": "https://api.github.com/users/tetrakai/gists{/gist_id}",
    "starred_url": "https://api.github.com/users/tetrakai/starred{/owner}{/repo}",
    "subscriptions_url": "https://api.github.com/users/tetrakai/subscriptions",
    "organizations_url": "https://api.github.com/users/tetrakai/orgs",
    "repos_url": "https://api.github.com/users/tetrakai/repos",
    "events_url": "https://api.github.com/users/tetrakai/events{/privacy}",
    "received_events_url": "https://api.github.com/users/tetrakai/received_events",
    "type": "User",
    "site_admin": false
  },
  "created_at": "2015-12-17T07:11:16Z",
  "updated_at": "2015-12-17T07:11:16Z",
  "body": "Looks good to me :+1: "
}
, {
  "url": "https://api.github.com/repos/stripe/stripe-python/issues/comments/165524122",
  "html_url": "https://github.com/stripe/stripe-python/pull/195#issuecomment-165524122",
  "issue_url": "https://api.github.com/repos/stripe/stripe-python/issues/195",
  "id": 165524122,
  "user": {
    "login": "brandur",
    "id": 96890,
    "avatar_url": "https://avatars.githubusercontent.com/u/96890?v=3",
    "gravatar_id": "",
    "url": "https://api.github.com/users/brandur",
    "html_url": "https://github.com/brandur",
    "followers_url": "https://api.github.com/users/brandur/followers",
    "following_url": "https://api.github.com/users/brandur/following{/other_user}",
    "gists_url": "https://api.github.com/users/brandur/gists{/gist_id}",
    "starred_url": "https://api.github.com/users/brandur/starred{/owner}{/repo}",
    "subscriptions_url": "https://api.github.com/users/brandur/subscriptions",
    "organizations_url": "https://api.github.com/users/brandur/orgs",
    "repos_url": "https://api.github.com/users/brandur/repos",
    "events_url": "https://api.github.com/users/brandur/events{/privacy}",
    "received_events_url": "https://api.github.com/users/brandur/received_events",
    "type": "User",
    "site_admin": false
  },
  "created_at": "2015-12-17T17:39:03Z",
  "updated_at": "2015-12-17T17:39:03Z",
  "body": "Nice one Kyle!"
}
]
