[
{
  "url": "https://api.github.com/repos/github/github-services/issues/comments/25036250",
  "html_url": "https://github.com/github/github-services/pull/691#issuecomment-25036250",
  "issue_url": "https://api.github.com/repos/github/github-services/issues/691",
  "id": 25036250,
  "user": {
    "login": "atmos",
    "id": 38,
    "avatar_url": "https://avatars.githubusercontent.com/u/38?v=3",
    "gravatar_id": "",
    "url": "https://api.github.com/users/atmos",
    "html_url": "https://github.com/atmos",
    "followers_url": "https://api.github.com/users/atmos/followers",
    "following_url": "https://api.github.com/users/atmos/following{/other_user}",
    "gists_url": "https://api.github.com/users/atmos/gists{/gist_id}",
    "starred_url": "https://api.github.com/users/atmos/starred{/owner}{/repo}",
    "subscriptions_url": "https://api.github.com/users/atmos/subscriptions",
    "organizations_url": "https://api.github.com/users/atmos/orgs",
    "repos_url": "https://api.github.com/users/atmos/repos",
    "events_url": "https://api.github.com/users/atmos/events{/privacy}",
    "received_events_url": "https://api.github.com/users/atmos/received_events",
    "type": "User",
    "site_admin": false
  },
  "created_at": "2013-09-24T19:44:19Z",
  "updated_at": "2013-09-24T19:44:19Z",
  "body": "![](http://www.ftlcollective.com/wp-content/uploads/2013/07/wtf.gif)"
}
]
