[
{
  "url": "https://api.github.com/repos/github/github-services/issues/comments/62434804",
  "html_url": "https://github.com/github/github-services/pull/973#issuecomment-62434804",
  "issue_url": "https://api.github.com/repos/github/github-services/issues/973",
  "id": 62434804,
  "user": {
    "login": "atmos",
    "id": 38,
    "avatar_url": "https://avatars.githubusercontent.com/u/38?v=3",
    "gravatar_id": "",
    "url": "https://api.github.com/users/atmos",
    "html_url": "https://github.com/atmos",
    "followers_url": "https://api.github.com/users/atmos/followers",
    "following_url": "https://api.github.com/users/atmos/following{/other_user}",
    "gists_url": "https://api.github.com/users/atmos/gists{/gist_id}",
    "starred_url": "https://api.github.com/users/atmos/starred{/owner}{/repo}",
    "subscriptions_url": "https://api.github.com/users/atmos/subscriptions",
    "organizations_url": "https://api.github.com/users/atmos/orgs",
    "repos_url": "https://api.github.com/users/atmos/repos",
    "events_url": "https://api.github.com/users/atmos/events{/privacy}",
    "received_events_url": "https://api.github.com/users/atmos/received_events",
    "type": "User",
    "site_admin": false
  },
  "created_at": "2014-11-10T18:57:43Z",
  "updated_at": "2014-11-10T18:57:43Z",
  "body": "Can you build this to work around the deployments API instead of just the push event?"
}
, {
  "url": "https://api.github.com/repos/github/github-services/issues/comments/64200741",
  "html_url": "https://github.com/github/github-services/pull/973#issuecomment-64200741",
  "issue_url": "https://api.github.com/repos/github/github-services/issues/973",
  "id": 64200741,
  "user": {
    "login": "kdaigle",
    "id": 2501,
    "avatar_url": "https://avatars.githubusercontent.com/u/2501?v=3",
    "gravatar_id": "",
    "url": "https://api.github.com/users/kdaigle",
    "html_url": "https://github.com/kdaigle",
    "followers_url": "https://api.github.com/users/kdaigle/followers",
    "following_url": "https://api.github.com/users/kdaigle/following{/other_user}",
    "gists_url": "https://api.github.com/users/kdaigle/gists{/gist_id}",
    "starred_url": "https://api.github.com/users/kdaigle/starred{/owner}{/repo}",
    "subscriptions_url": "https://api.github.com/users/kdaigle/subscriptions",
    "organizations_url": "https://api.github.com/users/kdaigle/orgs",
    "repos_url": "https://api.github.com/users/kdaigle/repos",
    "events_url": "https://api.github.com/users/kdaigle/events{/privacy}",
    "received_events_url": "https://api.github.com/users/kdaigle/received_events",
    "type": "User",
    "site_admin": true
  },
  "created_at": "2014-11-24T14:29:07Z",
  "updated_at": "2014-11-24T14:29:07Z",
  "body": "Thanks! This will be deployed in the next few days. :cake:"
}
]
