[
{
  "url": "https://api.github.com/repos/twilio/twilio-python/issues/comments/176351244",
  "html_url": "https://github.com/twilio/twilio-python/pull/247#issuecomment-176351244",
  "issue_url": "https://api.github.com/repos/twilio/twilio-python/issues/247",
  "id": 176351244,
  "user": {
    "login": "jingming",
    "id": 1530951,
    "avatar_url": "https://avatars.githubusercontent.com/u/1530951?v=3",
    "gravatar_id": "",
    "url": "https://api.github.com/users/jingming",
    "html_url": "https://github.com/jingming",
    "followers_url": "https://api.github.com/users/jingming/followers",
    "following_url": "https://api.github.com/users/jingming/following{/other_user}",
    "gists_url": "https://api.github.com/users/jingming/gists{/gist_id}",
    "starred_url": "https://api.github.com/users/jingming/starred{/owner}{/repo}",
    "subscriptions_url": "https://api.github.com/users/jingming/subscriptions",
    "organizations_url": "https://api.github.com/users/jingming/orgs",
    "repos_url": "https://api.github.com/users/jingming/repos",
    "events_url": "https://api.github.com/users/jingming/events{/privacy}",
    "received_events_url": "https://api.github.com/users/jingming/received_events",
    "type": "User",
    "site_admin": false
  },
  "created_at": "2016-01-28T19:13:36Z",
  "updated_at": "2016-01-28T19:13:36Z",
  "body": "+1"
}
]
