[
{
  "url": "https://api.github.com/repos/chef/ohai/issues/comments/45544787",
  "html_url": "https://github.com/chef/ohai/pull/340#issuecomment-45544787",
  "issue_url": "https://api.github.com/repos/chef/ohai/issues/340",
  "id": 45544787,
  "user": {
    "login": "sersut",
    "id": 1695955,
    "avatar_url": "https://avatars.githubusercontent.com/u/1695955?v=3",
    "gravatar_id": "",
    "url": "https://api.github.com/users/sersut",
    "html_url": "https://github.com/sersut",
    "followers_url": "https://api.github.com/users/sersut/followers",
    "following_url": "https://api.github.com/users/sersut/following{/other_user}",
    "gists_url": "https://api.github.com/users/sersut/gists{/gist_id}",
    "starred_url": "https://api.github.com/users/sersut/starred{/owner}{/repo}",
    "subscriptions_url": "https://api.github.com/users/sersut/subscriptions",
    "organizations_url": "https://api.github.com/users/sersut/orgs",
    "repos_url": "https://api.github.com/users/sersut/repos",
    "events_url": "https://api.github.com/users/sersut/events{/privacy}",
    "received_events_url": "https://api.github.com/users/sersut/received_events",
    "type": "User",
    "site_admin": false
  },
  "created_at": "2014-06-09T21:11:21Z",
  "updated_at": "2014-06-09T21:11:21Z",
  "body": ":+1: "
}
]
