[
{
  "url": "https://api.github.com/repos/chef/ohai/issues/comments/160369586",
  "html_url": "https://github.com/chef/ohai/pull/655#issuecomment-160369586",
  "issue_url": "https://api.github.com/repos/chef/ohai/issues/655",
  "id": 160369586,
  "user": {
    "login": "tas50",
    "id": 1015200,
    "avatar_url": "https://avatars.githubusercontent.com/u/1015200?v=3",
    "gravatar_id": "",
    "url": "https://api.github.com/users/tas50",
    "html_url": "https://github.com/tas50",
    "followers_url": "https://api.github.com/users/tas50/followers",
    "following_url": "https://api.github.com/users/tas50/following{/other_user}",
    "gists_url": "https://api.github.com/users/tas50/gists{/gist_id}",
    "starred_url": "https://api.github.com/users/tas50/starred{/owner}{/repo}",
    "subscriptions_url": "https://api.github.com/users/tas50/subscriptions",
    "organizations_url": "https://api.github.com/users/tas50/orgs",
    "repos_url": "https://api.github.com/users/tas50/repos",
    "events_url": "https://api.github.com/users/tas50/events{/privacy}",
    "received_events_url": "https://api.github.com/users/tas50/received_events",
    "type": "User",
    "site_admin": false
  },
  "created_at": "2015-11-29T04:24:19Z",
  "updated_at": "2015-11-29T04:24:19Z",
  "body": "@btm I'd love some feedback on moving the dmidecode logic out of linux and freebsd as well as how to test the collapsed BSD code."
}
, {
  "url": "https://api.github.com/repos/chef/ohai/issues/comments/161051476",
  "html_url": "https://github.com/chef/ohai/pull/655#issuecomment-161051476",
  "issue_url": "https://api.github.com/repos/chef/ohai/issues/655",
  "id": 161051476,
  "user": {
    "login": "lamont-granquist",
    "id": 454857,
    "avatar_url": "https://avatars.githubusercontent.com/u/454857?v=3",
    "gravatar_id": "",
    "url": "https://api.github.com/users/lamont-granquist",
    "html_url": "https://github.com/lamont-granquist",
    "followers_url": "https://api.github.com/users/lamont-granquist/followers",
    "following_url": "https://api.github.com/users/lamont-granquist/following{/other_user}",
    "gists_url": "https://api.github.com/users/lamont-granquist/gists{/gist_id}",
    "starred_url": "https://api.github.com/users/lamont-granquist/starred{/owner}{/repo}",
    "subscriptions_url": "https://api.github.com/users/lamont-granquist/subscriptions",
    "organizations_url": "https://api.github.com/users/lamont-granquist/orgs",
    "repos_url": "https://api.github.com/users/lamont-granquist/repos",
    "events_url": "https://api.github.com/users/lamont-granquist/events{/privacy}",
    "received_events_url": "https://api.github.com/users/lamont-granquist/received_events",
    "type": "User",
    "site_admin": false
  },
  "created_at": "2015-12-01T18:12:20Z",
  "updated_at": "2015-12-01T18:12:20Z",
  "body": "Yeah I was gonna say that the only *BSD-specific code in the parsing-dmidecode function might be in the specific output formation of dmidecode on *BSD.  The values that you pull out of dmidecode should be the same on *BSD and Linux.  I think I'm okay with doing the cleanup iteratively though and shipping this for *BSD and then having the work to merge *BSD and Linux happen."
}
, {
  "url": "https://api.github.com/repos/chef/ohai/issues/comments/161052105",
  "html_url": "https://github.com/chef/ohai/pull/655#issuecomment-161052105",
  "issue_url": "https://api.github.com/repos/chef/ohai/issues/655",
  "id": 161052105,
  "user": {
    "login": "lamont-granquist",
    "id": 454857,
    "avatar_url": "https://avatars.githubusercontent.com/u/454857?v=3",
    "gravatar_id": "",
    "url": "https://api.github.com/users/lamont-granquist",
    "html_url": "https://github.com/lamont-granquist",
    "followers_url": "https://api.github.com/users/lamont-granquist/followers",
    "following_url": "https://api.github.com/users/lamont-granquist/following{/other_user}",
    "gists_url": "https://api.github.com/users/lamont-granquist/gists{/gist_id}",
    "starred_url": "https://api.github.com/users/lamont-granquist/starred{/owner}{/repo}",
    "subscriptions_url": "https://api.github.com/users/lamont-granquist/subscriptions",
    "organizations_url": "https://api.github.com/users/lamont-granquist/orgs",
    "repos_url": "https://api.github.com/users/lamont-granquist/repos",
    "events_url": "https://api.github.com/users/lamont-granquist/events{/privacy}",
    "received_events_url": "https://api.github.com/users/lamont-granquist/received_events",
    "type": "User",
    "site_admin": false
  },
  "created_at": "2015-12-01T18:15:06Z",
  "updated_at": "2015-12-01T18:15:06Z",
  "body": ":+1: "
}
, {
  "url": "https://api.github.com/repos/chef/ohai/issues/comments/161052699",
  "html_url": "https://github.com/chef/ohai/pull/655#issuecomment-161052699",
  "issue_url": "https://api.github.com/repos/chef/ohai/issues/655",
  "id": 161052699,
  "user": {
    "login": "thommay",
    "id": 8500,
    "avatar_url": "https://avatars.githubusercontent.com/u/8500?v=3",
    "gravatar_id": "",
    "url": "https://api.github.com/users/thommay",
    "html_url": "https://github.com/thommay",
    "followers_url": "https://api.github.com/users/thommay/followers",
    "following_url": "https://api.github.com/users/thommay/following{/other_user}",
    "gists_url": "https://api.github.com/users/thommay/gists{/gist_id}",
    "starred_url": "https://api.github.com/users/thommay/starred{/owner}{/repo}",
    "subscriptions_url": "https://api.github.com/users/thommay/subscriptions",
    "organizations_url": "https://api.github.com/users/thommay/orgs",
    "repos_url": "https://api.github.com/users/thommay/repos",
    "events_url": "https://api.github.com/users/thommay/events{/privacy}",
    "received_events_url": "https://api.github.com/users/thommay/received_events",
    "type": "User",
    "site_admin": false
  },
  "created_at": "2015-12-01T18:17:34Z",
  "updated_at": "2015-12-01T18:17:34Z",
  "body": ":+1: "
}
, {
  "url": "https://api.github.com/repos/chef/ohai/issues/comments/161053714",
  "html_url": "https://github.com/chef/ohai/pull/655#issuecomment-161053714",
  "issue_url": "https://api.github.com/repos/chef/ohai/issues/655",
  "id": 161053714,
  "user": {
    "login": "smurawski",
    "id": 4006985,
    "avatar_url": "https://avatars.githubusercontent.com/u/4006985?v=3",
    "gravatar_id": "",
    "url": "https://api.github.com/users/smurawski",
    "html_url": "https://github.com/smurawski",
    "followers_url": "https://api.github.com/users/smurawski/followers",
    "following_url": "https://api.github.com/users/smurawski/following{/other_user}",
    "gists_url": "https://api.github.com/users/smurawski/gists{/gist_id}",
    "starred_url": "https://api.github.com/users/smurawski/starred{/owner}{/repo}",
    "subscriptions_url": "https://api.github.com/users/smurawski/subscriptions",
    "organizations_url": "https://api.github.com/users/smurawski/orgs",
    "repos_url": "https://api.github.com/users/smurawski/repos",
    "events_url": "https://api.github.com/users/smurawski/events{/privacy}",
    "received_events_url": "https://api.github.com/users/smurawski/received_events",
    "type": "User",
    "site_admin": false
  },
  "created_at": "2015-12-01T18:21:46Z",
  "updated_at": "2015-12-01T18:21:46Z",
  "body": ":+1: This won't catch all the hyper-v versions, but we can add more later."
}
]
