[
{
  "url": "https://api.github.com/repos/elastic/azure-marketplace/issues/comments/169863495",
  "html_url": "https://github.com/elastic/azure-marketplace/issues/12#issuecomment-169863495",
  "issue_url": "https://api.github.com/repos/elastic/azure-marketplace/issues/12",
  "id": 169863495,
  "user": {
    "login": "stackoverflower",
    "id": 16602423,
    "avatar_url": "https://avatars.githubusercontent.com/u/16602423?v=3",
    "gravatar_id": "",
    "url": "https://api.github.com/users/stackoverflower",
    "html_url": "https://github.com/stackoverflower",
    "followers_url": "https://api.github.com/users/stackoverflower/followers",
    "following_url": "https://api.github.com/users/stackoverflower/following{/other_user}",
    "gists_url": "https://api.github.com/users/stackoverflower/gists{/gist_id}",
    "starred_url": "https://api.github.com/users/stackoverflower/starred{/owner}{/repo}",
    "subscriptions_url": "https://api.github.com/users/stackoverflower/subscriptions",
    "organizations_url": "https://api.github.com/users/stackoverflower/orgs",
    "repos_url": "https://api.github.com/users/stackoverflower/repos",
    "events_url": "https://api.github.com/users/stackoverflower/events{/privacy}",
    "received_events_url": "https://api.github.com/users/stackoverflower/received_events",
    "type": "User",
    "site_admin": false
  },
  "created_at": "2016-01-08T01:48:33Z",
  "updated_at": "2016-01-08T01:48:33Z",
  "body": "Also, can you please add some documentation on how to access the endpoint after deployment. "
}
, {
  "url": "https://api.github.com/repos/elastic/azure-marketplace/issues/comments/169938115",
  "html_url": "https://github.com/elastic/azure-marketplace/issues/12#issuecomment-169938115",
  "issue_url": "https://api.github.com/repos/elastic/azure-marketplace/issues/12",
  "id": 169938115,
  "user": {
    "login": "Mpdreamz",
    "id": 245275,
    "avatar_url": "https://avatars.githubusercontent.com/u/245275?v=3",
    "gravatar_id": "",
    "url": "https://api.github.com/users/Mpdreamz",
    "html_url": "https://github.com/Mpdreamz",
    "followers_url": "https://api.github.com/users/Mpdreamz/followers",
    "following_url": "https://api.github.com/users/Mpdreamz/following{/other_user}",
    "gists_url": "https://api.github.com/users/Mpdreamz/gists{/gist_id}",
    "starred_url": "https://api.github.com/users/Mpdreamz/starred{/owner}{/repo}",
    "subscriptions_url": "https://api.github.com/users/Mpdreamz/subscriptions",
    "organizations_url": "https://api.github.com/users/Mpdreamz/orgs",
    "repos_url": "https://api.github.com/users/Mpdreamz/repos",
    "events_url": "https://api.github.com/users/Mpdreamz/events{/privacy}",
    "received_events_url": "https://api.github.com/users/Mpdreamz/received_events",
    "type": "User",
    "site_admin": false
  },
  "created_at": "2016-01-08T08:53:17Z",
  "updated_at": "2016-01-08T08:53:17Z",
  "body": "Windows is definitely on the backlog! We need to finish work on our MSI based installer first though.\r\n\r\nRe: documentation.,good point! We are working on putting a \"how to\" blog post out there, we'll port relevant parts back to the readme."
}
, {
  "url": "https://api.github.com/repos/elastic/azure-marketplace/issues/comments/170148861",
  "html_url": "https://github.com/elastic/azure-marketplace/issues/12#issuecomment-170148861",
  "issue_url": "https://api.github.com/repos/elastic/azure-marketplace/issues/12",
  "id": 170148861,
  "user": {
    "login": "stackoverflower",
    "id": 16602423,
    "avatar_url": "https://avatars.githubusercontent.com/u/16602423?v=3",
    "gravatar_id": "",
    "url": "https://api.github.com/users/stackoverflower",
    "html_url": "https://github.com/stackoverflower",
    "followers_url": "https://api.github.com/users/stackoverflower/followers",
    "following_url": "https://api.github.com/users/stackoverflower/following{/other_user}",
    "gists_url": "https://api.github.com/users/stackoverflower/gists{/gist_id}",
    "starred_url": "https://api.github.com/users/stackoverflower/starred{/owner}{/repo}",
    "subscriptions_url": "https://api.github.com/users/stackoverflower/subscriptions",
    "organizations_url": "https://api.github.com/users/stackoverflower/orgs",
    "repos_url": "https://api.github.com/users/stackoverflower/repos",
    "events_url": "https://api.github.com/users/stackoverflower/events{/privacy}",
    "received_events_url": "https://api.github.com/users/stackoverflower/received_events",
    "type": "User",
    "site_admin": false
  },
  "created_at": "2016-01-08T22:47:46Z",
  "updated_at": "2016-01-08T22:47:46Z",
  "body": "Thanks. Any ETA for when MSI based installer be available?"
}
]
