[
{
  "url": "https://api.github.com/repos/dropbox/pyston/issues/comments/170884301",
  "html_url": "https://github.com/dropbox/pyston/pull/1042#issuecomment-170884301",
  "issue_url": "https://api.github.com/repos/dropbox/pyston/issues/1042",
  "id": 170884301,
  "user": {
    "login": "undingen",
    "id": 7397630,
    "avatar_url": "https://avatars.githubusercontent.com/u/7397630?v=3",
    "gravatar_id": "",
    "url": "https://api.github.com/users/undingen",
    "html_url": "https://github.com/undingen",
    "followers_url": "https://api.github.com/users/undingen/followers",
    "following_url": "https://api.github.com/users/undingen/following{/other_user}",
    "gists_url": "https://api.github.com/users/undingen/gists{/gist_id}",
    "starred_url": "https://api.github.com/users/undingen/starred{/owner}{/repo}",
    "subscriptions_url": "https://api.github.com/users/undingen/subscriptions",
    "organizations_url": "https://api.github.com/users/undingen/orgs",
    "repos_url": "https://api.github.com/users/undingen/repos",
    "events_url": "https://api.github.com/users/undingen/events{/privacy}",
    "received_events_url": "https://api.github.com/users/undingen/received_events",
    "type": "User",
    "site_admin": false
  },
  "created_at": "2016-01-12T11:37:55Z",
  "updated_at": "2016-01-12T11:37:55Z",
  "body": "I forgot to add the dictview test but added in #1045"
}
]
