[
{
  "url": "https://api.github.com/repos/dropbox/pyston/issues/comments/122571029",
  "html_url": "https://github.com/dropbox/pyston/pull/720#issuecomment-122571029",
  "issue_url": "https://api.github.com/repos/dropbox/pyston/issues/720",
  "id": 122571029,
  "user": {
    "login": "undingen",
    "id": 7397630,
    "avatar_url": "https://avatars.githubusercontent.com/u/7397630?v=3",
    "gravatar_id": "",
    "url": "https://api.github.com/users/undingen",
    "html_url": "https://github.com/undingen",
    "followers_url": "https://api.github.com/users/undingen/followers",
    "following_url": "https://api.github.com/users/undingen/following{/other_user}",
    "gists_url": "https://api.github.com/users/undingen/gists{/gist_id}",
    "starred_url": "https://api.github.com/users/undingen/starred{/owner}{/repo}",
    "subscriptions_url": "https://api.github.com/users/undingen/subscriptions",
    "organizations_url": "https://api.github.com/users/undingen/orgs",
    "repos_url": "https://api.github.com/users/undingen/repos",
    "events_url": "https://api.github.com/users/undingen/events{/privacy}",
    "received_events_url": "https://api.github.com/users/undingen/received_events",
    "type": "User",
    "site_admin": false
  },
  "created_at": "2015-07-18T17:37:10Z",
  "updated_at": "2015-07-18T23:18:51Z",
  "body": "```\r\n                           e648044ce2266a3fc6:  9cb7171775427b9639:\r\n       django_template.py             3.5s (4)             3.4s (4)  -2.2%\r\n            pyxl_bench.py             3.3s (4)             3.3s (4)  -1.8%\r\nsqlalchemy_imperative2.py             4.1s (4)             4.0s (4)  -3.2%\r\n                  geomean                 3.6s                 3.5s  -2.4%\r\n```"
}
, {
  "url": "https://api.github.com/repos/dropbox/pyston/issues/comments/123310295",
  "html_url": "https://github.com/dropbox/pyston/pull/720#issuecomment-123310295",
  "issue_url": "https://api.github.com/repos/dropbox/pyston/issues/720",
  "id": 123310295,
  "user": {
    "login": "undingen",
    "id": 7397630,
    "avatar_url": "https://avatars.githubusercontent.com/u/7397630?v=3",
    "gravatar_id": "",
    "url": "https://api.github.com/users/undingen",
    "html_url": "https://github.com/undingen",
    "followers_url": "https://api.github.com/users/undingen/followers",
    "following_url": "https://api.github.com/users/undingen/following{/other_user}",
    "gists_url": "https://api.github.com/users/undingen/gists{/gist_id}",
    "starred_url": "https://api.github.com/users/undingen/starred{/owner}{/repo}",
    "subscriptions_url": "https://api.github.com/users/undingen/subscriptions",
    "organizations_url": "https://api.github.com/users/undingen/orgs",
    "repos_url": "https://api.github.com/users/undingen/repos",
    "events_url": "https://api.github.com/users/undingen/events{/privacy}",
    "received_events_url": "https://api.github.com/users/undingen/received_events",
    "type": "User",
    "site_admin": false
  },
  "created_at": "2015-07-21T13:45:13Z",
  "updated_at": "2015-07-21T13:45:13Z",
  "body": "Rebased and tried two builds --> booth succeeded.\r\nI think this change should be fine."
}
, {
  "url": "https://api.github.com/repos/dropbox/pyston/issues/comments/123853599",
  "html_url": "https://github.com/dropbox/pyston/pull/720#issuecomment-123853599",
  "issue_url": "https://api.github.com/repos/dropbox/pyston/issues/720",
  "id": 123853599,
  "user": {
    "login": "undingen",
    "id": 7397630,
    "avatar_url": "https://avatars.githubusercontent.com/u/7397630?v=3",
    "gravatar_id": "",
    "url": "https://api.github.com/users/undingen",
    "html_url": "https://github.com/undingen",
    "followers_url": "https://api.github.com/users/undingen/followers",
    "following_url": "https://api.github.com/users/undingen/following{/other_user}",
    "gists_url": "https://api.github.com/users/undingen/gists{/gist_id}",
    "starred_url": "https://api.github.com/users/undingen/starred{/owner}{/repo}",
    "subscriptions_url": "https://api.github.com/users/undingen/subscriptions",
    "organizations_url": "https://api.github.com/users/undingen/orgs",
    "repos_url": "https://api.github.com/users/undingen/repos",
    "events_url": "https://api.github.com/users/undingen/events{/privacy}",
    "received_events_url": "https://api.github.com/users/undingen/received_events",
    "type": "User",
    "site_admin": false
  },
  "created_at": "2015-07-22T20:32:51Z",
  "updated_at": "2015-07-22T20:32:51Z",
  "body": "please review :-)\r\neven if you don't like merging in the hard limit of numbers of variables, it helps because this will be the basis for #736 which gets ride of the limit."
}
, {
  "url": "https://api.github.com/repos/dropbox/pyston/issues/comments/123862689",
  "html_url": "https://github.com/dropbox/pyston/pull/720#issuecomment-123862689",
  "issue_url": "https://api.github.com/repos/dropbox/pyston/issues/720",
  "id": 123862689,
  "user": {
    "login": "kmod",
    "id": 271916,
    "avatar_url": "https://avatars.githubusercontent.com/u/271916?v=3",
    "gravatar_id": "",
    "url": "https://api.github.com/users/kmod",
    "html_url": "https://github.com/kmod",
    "followers_url": "https://api.github.com/users/kmod/followers",
    "following_url": "https://api.github.com/users/kmod/following{/other_user}",
    "gists_url": "https://api.github.com/users/kmod/gists{/gist_id}",
    "starred_url": "https://api.github.com/users/kmod/starred{/owner}{/repo}",
    "subscriptions_url": "https://api.github.com/users/kmod/subscriptions",
    "organizations_url": "https://api.github.com/users/kmod/orgs",
    "repos_url": "https://api.github.com/users/kmod/repos",
    "events_url": "https://api.github.com/users/kmod/events{/privacy}",
    "received_events_url": "https://api.github.com/users/kmod/received_events",
    "type": "User",
    "site_admin": false
  },
  "created_at": "2015-07-22T21:02:54Z",
  "updated_at": "2015-07-22T21:02:54Z",
  "body": "lgtm, though yeah I would prefer to hold off on merging this until #736 is ready since it seems like that's close."
}
, {
  "url": "https://api.github.com/repos/dropbox/pyston/issues/comments/124694867",
  "html_url": "https://github.com/dropbox/pyston/pull/720#issuecomment-124694867",
  "issue_url": "https://api.github.com/repos/dropbox/pyston/issues/720",
  "id": 124694867,
  "user": {
    "login": "kmod",
    "id": 271916,
    "avatar_url": "https://avatars.githubusercontent.com/u/271916?v=3",
    "gravatar_id": "",
    "url": "https://api.github.com/users/kmod",
    "html_url": "https://github.com/kmod",
    "followers_url": "https://api.github.com/users/kmod/followers",
    "following_url": "https://api.github.com/users/kmod/following{/other_user}",
    "gists_url": "https://api.github.com/users/kmod/gists{/gist_id}",
    "starred_url": "https://api.github.com/users/kmod/starred{/owner}{/repo}",
    "subscriptions_url": "https://api.github.com/users/kmod/subscriptions",
    "organizations_url": "https://api.github.com/users/kmod/orgs",
    "repos_url": "https://api.github.com/users/kmod/repos",
    "events_url": "https://api.github.com/users/kmod/events{/privacy}",
    "received_events_url": "https://api.github.com/users/kmod/received_events",
    "type": "User",
    "site_admin": false
  },
  "created_at": "2015-07-24T20:03:31Z",
  "updated_at": "2015-07-24T20:03:31Z",
  "body": "(closed by #736)"
}
]
