[
{
  "url": "https://api.github.com/repos/yahoo/pure/issues/comments/52864635",
  "html_url": "https://github.com/yahoo/pure/issues/362#issuecomment-52864635",
  "issue_url": "https://api.github.com/repos/yahoo/pure/issues/362",
  "id": 52864635,
  "user": {
    "login": "ericf",
    "id": 29096,
    "avatar_url": "https://avatars.githubusercontent.com/u/29096?v=3",
    "gravatar_id": "",
    "url": "https://api.github.com/users/ericf",
    "html_url": "https://github.com/ericf",
    "followers_url": "https://api.github.com/users/ericf/followers",
    "following_url": "https://api.github.com/users/ericf/following{/other_user}",
    "gists_url": "https://api.github.com/users/ericf/gists{/gist_id}",
    "starred_url": "https://api.github.com/users/ericf/starred{/owner}{/repo}",
    "subscriptions_url": "https://api.github.com/users/ericf/subscriptions",
    "organizations_url": "https://api.github.com/users/ericf/orgs",
    "repos_url": "https://api.github.com/users/ericf/repos",
    "events_url": "https://api.github.com/users/ericf/events{/privacy}",
    "received_events_url": "https://api.github.com/users/ericf/received_events",
    "type": "User",
    "site_admin": false
  },
  "created_at": "2014-08-21T00:37:08Z",
  "updated_at": "2014-08-21T00:37:08Z",
  "body": "I merge #367 so this is now fixed on master."
}
]
