[
{
  "url": "https://api.github.com/repos/apache/struts1/issues/1",
  "labels_url": "https://api.github.com/repos/apache/struts1/issues/1/labels{/name}",
  "comments_url": "https://api.github.com/repos/apache/struts1/issues/1/comments",
  "events_url": "https://api.github.com/repos/apache/struts1/issues/1/events",
  "html_url": "https://github.com/apache/struts1/pull/1",
  "id": 32507929,
  "number": 1,
  "title": "CVE-2014-0114 Fix",
  "user": {
    "login": "abn",
    "id": 165325,
    "avatar_url": "https://avatars.githubusercontent.com/u/165325?v=3",
    "gravatar_id": "",
    "url": "https://api.github.com/users/abn",
    "html_url": "https://github.com/abn",
    "followers_url": "https://api.github.com/users/abn/followers",
    "following_url": "https://api.github.com/users/abn/following{/other_user}",
    "gists_url": "https://api.github.com/users/abn/gists{/gist_id}",
    "starred_url": "https://api.github.com/users/abn/starred{/owner}{/repo}",
    "subscriptions_url": "https://api.github.com/users/abn/subscriptions",
    "organizations_url": "https://api.github.com/users/abn/orgs",
    "repos_url": "https://api.github.com/users/abn/repos",
    "events_url": "https://api.github.com/users/abn/events{/privacy}",
    "received_events_url": "https://api.github.com/users/abn/received_events",
    "type": "User",
    "site_admin": false
  },
  "labels": [],
  "state": "open",
  "locked": false,
  "assignee": null,
  "milestone": null,
  "comments": 3,
  "created_at": "2014-04-30T05:36:34Z",
  "updated_at": "2014-09-29T10:48:47Z",
  "closed_at": null,
  "pull_request": {
    "url": "https://api.github.com/repos/apache/struts1/pulls/1",
    "html_url": "https://github.com/apache/struts1/pull/1",
    "diff_url": "https://github.com/apache/struts1/pull/1.diff",
    "patch_url": "https://github.com/apache/struts1/pull/1.patch"
  },
  "body": "- Ignore any property that attempts to use the class attribute\r\n- Based on https://gist.github.com/ykare/1fb2d5d11e16cb0003c3#file-2-beanutils-patch-struts1-0-2"
}
]
