[
{
  "url": "https://api.github.com/repos/Azure/azure-quickstart-templates/issues/comments/160808345",
  "html_url": "https://github.com/Azure/azure-quickstart-templates/pull/903#issuecomment-160808345",
  "issue_url": "https://api.github.com/repos/Azure/azure-quickstart-templates/issues/903",
  "id": 160808345,
  "user": {
    "login": "acomghbot",
    "id": 8709442,
    "avatar_url": "https://avatars.githubusercontent.com/u/8709442?v=3",
    "gravatar_id": "",
    "url": "https://api.github.com/users/acomghbot",
    "html_url": "https://github.com/acomghbot",
    "followers_url": "https://api.github.com/users/acomghbot/followers",
    "following_url": "https://api.github.com/users/acomghbot/following{/other_user}",
    "gists_url": "https://api.github.com/users/acomghbot/gists{/gist_id}",
    "starred_url": "https://api.github.com/users/acomghbot/starred{/owner}{/repo}",
    "subscriptions_url": "https://api.github.com/users/acomghbot/subscriptions",
    "organizations_url": "https://api.github.com/users/acomghbot/orgs",
    "repos_url": "https://api.github.com/users/acomghbot/repos",
    "events_url": "https://api.github.com/users/acomghbot/events{/privacy}",
    "received_events_url": "https://api.github.com/users/acomghbot/received_events",
    "type": "User",
    "site_admin": false
  },
  "created_at": "2015-12-01T00:30:34Z",
  "updated_at": "2015-12-01T00:30:34Z",
  "body": "The following issues were detected in this pull request:\r\n\r\nTemplate: **201-encrypt-running-windows-vm-aad-client-cert**\r\n * Parameter 'aadClientCertThumbprint' in azuredeploy.json does not contain a 'description' property in the metadata (please note that the 'description' property must be in lower-case).\r\n"
}
, {
  "url": "https://api.github.com/repos/Azure/azure-quickstart-templates/issues/comments/160808359",
  "html_url": "https://github.com/Azure/azure-quickstart-templates/pull/903#issuecomment-160808359",
  "issue_url": "https://api.github.com/repos/Azure/azure-quickstart-templates/issues/903",
  "id": 160808359,
  "user": {
    "login": "azurecla",
    "id": 8030856,
    "avatar_url": "https://avatars.githubusercontent.com/u/8030856?v=3",
    "gravatar_id": "",
    "url": "https://api.github.com/users/azurecla",
    "html_url": "https://github.com/azurecla",
    "followers_url": "https://api.github.com/users/azurecla/followers",
    "following_url": "https://api.github.com/users/azurecla/following{/other_user}",
    "gists_url": "https://api.github.com/users/azurecla/gists{/gist_id}",
    "starred_url": "https://api.github.com/users/azurecla/starred{/owner}{/repo}",
    "subscriptions_url": "https://api.github.com/users/azurecla/subscriptions",
    "organizations_url": "https://api.github.com/users/azurecla/orgs",
    "repos_url": "https://api.github.com/users/azurecla/repos",
    "events_url": "https://api.github.com/users/azurecla/events{/privacy}",
    "received_events_url": "https://api.github.com/users/azurecla/received_events",
    "type": "User",
    "site_admin": false
  },
  "created_at": "2015-12-01T00:30:40Z",
  "updated_at": "2015-12-01T00:30:40Z",
  "body": "Hi __@SudhakaraReddyEvuri__, I'm your friendly neighborhood Azure Pull Request Bot (You can call me AZPRBOT). Thanks for your contribution!\n    <p>\n        It looks like you're working at Microsoft (suredd). If you're full-time, we DON'T require a contribution license agreement.\n    </p>\n    <p>\n        If you are a vendor, DO please sign the electronic contribution license agreement. It will take 2 minutes and there's no faxing! https://cla.azure.com.\n    </p>\n\nTTYL, AZPRBOT;\n"
}
, {
  "url": "https://api.github.com/repos/Azure/azure-quickstart-templates/issues/comments/160808735",
  "html_url": "https://github.com/Azure/azure-quickstart-templates/pull/903#issuecomment-160808735",
  "issue_url": "https://api.github.com/repos/Azure/azure-quickstart-templates/issues/903",
  "id": 160808735,
  "user": {
    "login": "template-deploy-bot",
    "id": 14239968,
    "avatar_url": "https://avatars.githubusercontent.com/u/14239968?v=3",
    "gravatar_id": "",
    "url": "https://api.github.com/users/template-deploy-bot",
    "html_url": "https://github.com/template-deploy-bot",
    "followers_url": "https://api.github.com/users/template-deploy-bot/followers",
    "following_url": "https://api.github.com/users/template-deploy-bot/following{/other_user}",
    "gists_url": "https://api.github.com/users/template-deploy-bot/gists{/gist_id}",
    "starred_url": "https://api.github.com/users/template-deploy-bot/starred{/owner}{/repo}",
    "subscriptions_url": "https://api.github.com/users/template-deploy-bot/subscriptions",
    "organizations_url": "https://api.github.com/users/template-deploy-bot/orgs",
    "repos_url": "https://api.github.com/users/template-deploy-bot/repos",
    "events_url": "https://api.github.com/users/template-deploy-bot/events{/privacy}",
    "received_events_url": "https://api.github.com/users/template-deploy-bot/received_events",
    "type": "User",
    "site_admin": false
  },
  "created_at": "2015-12-01T00:33:07Z",
  "updated_at": "2015-12-01T00:33:07Z",
  "body": "Can one of the admins verify this patch?"
}
, {
  "url": "https://api.github.com/repos/Azure/azure-quickstart-templates/issues/comments/160813149",
  "html_url": "https://github.com/Azure/azure-quickstart-templates/pull/903#issuecomment-160813149",
  "issue_url": "https://api.github.com/repos/Azure/azure-quickstart-templates/issues/903",
  "id": 160813149,
  "user": {
    "login": "acomghbot",
    "id": 8709442,
    "avatar_url": "https://avatars.githubusercontent.com/u/8709442?v=3",
    "gravatar_id": "",
    "url": "https://api.github.com/users/acomghbot",
    "html_url": "https://github.com/acomghbot",
    "followers_url": "https://api.github.com/users/acomghbot/followers",
    "following_url": "https://api.github.com/users/acomghbot/following{/other_user}",
    "gists_url": "https://api.github.com/users/acomghbot/gists{/gist_id}",
    "starred_url": "https://api.github.com/users/acomghbot/starred{/owner}{/repo}",
    "subscriptions_url": "https://api.github.com/users/acomghbot/subscriptions",
    "organizations_url": "https://api.github.com/users/acomghbot/orgs",
    "repos_url": "https://api.github.com/users/acomghbot/repos",
    "events_url": "https://api.github.com/users/acomghbot/events{/privacy}",
    "received_events_url": "https://api.github.com/users/acomghbot/received_events",
    "type": "User",
    "site_admin": false
  },
  "created_at": "2015-12-01T01:02:01Z",
  "updated_at": "2015-12-01T01:02:01Z",
  "body": "The following issues were detected in this pull request:\r\n\r\nTemplate: **201-encrypt-running-windows-vm-aad-client-cert**\r\n * Parameter 'aadClientCertThumbprint' in azuredeploy.json does not contain a 'description' property in the metadata (please note that the 'description' property must be in lower-case).\r\n"
}
, {
  "url": "https://api.github.com/repos/Azure/azure-quickstart-templates/issues/comments/160813439",
  "html_url": "https://github.com/Azure/azure-quickstart-templates/pull/903#issuecomment-160813439",
  "issue_url": "https://api.github.com/repos/Azure/azure-quickstart-templates/issues/903",
  "id": 160813439,
  "user": {
    "login": "acomghbot",
    "id": 8709442,
    "avatar_url": "https://avatars.githubusercontent.com/u/8709442?v=3",
    "gravatar_id": "",
    "url": "https://api.github.com/users/acomghbot",
    "html_url": "https://github.com/acomghbot",
    "followers_url": "https://api.github.com/users/acomghbot/followers",
    "following_url": "https://api.github.com/users/acomghbot/following{/other_user}",
    "gists_url": "https://api.github.com/users/acomghbot/gists{/gist_id}",
    "starred_url": "https://api.github.com/users/acomghbot/starred{/owner}{/repo}",
    "subscriptions_url": "https://api.github.com/users/acomghbot/subscriptions",
    "organizations_url": "https://api.github.com/users/acomghbot/orgs",
    "repos_url": "https://api.github.com/users/acomghbot/repos",
    "events_url": "https://api.github.com/users/acomghbot/events{/privacy}",
    "received_events_url": "https://api.github.com/users/acomghbot/received_events",
    "type": "User",
    "site_admin": false
  },
  "created_at": "2015-12-01T01:03:59Z",
  "updated_at": "2015-12-01T01:03:59Z",
  "body": "No issues were found in this pull request."
}
]
