[
{
  "url": "https://api.github.com/repos/google/google-authenticator/issues/comments/58638289",
  "html_url": "https://github.com/google/google-authenticator/issues/95#issuecomment-58638289",
  "issue_url": "https://api.github.com/repos/google/google-authenticator/issues/95",
  "id": 58638289,
  "user": {
    "login": "ThomasHabets",
    "id": 6056,
    "avatar_url": "https://avatars.githubusercontent.com/u/6056?v=3",
    "gravatar_id": "",
    "url": "https://api.github.com/users/ThomasHabets",
    "html_url": "https://github.com/ThomasHabets",
    "followers_url": "https://api.github.com/users/ThomasHabets/followers",
    "following_url": "https://api.github.com/users/ThomasHabets/following{/other_user}",
    "gists_url": "https://api.github.com/users/ThomasHabets/gists{/gist_id}",
    "starred_url": "https://api.github.com/users/ThomasHabets/starred{/owner}{/repo}",
    "subscriptions_url": "https://api.github.com/users/ThomasHabets/subscriptions",
    "organizations_url": "https://api.github.com/users/ThomasHabets/orgs",
    "repos_url": "https://api.github.com/users/ThomasHabets/repos",
    "events_url": "https://api.github.com/users/ThomasHabets/events{/privacy}",
    "received_events_url": "https://api.github.com/users/ThomasHabets/received_events",
    "type": "User",
    "site_admin": false
  },
  "created_at": "2014-10-10T10:28:11Z",
  "updated_at": "2014-10-10T10:28:11Z",
  "body": "Not related to this product. Please reopen in https://github.com/google/google-authenticator-android if applicable.\r\n"
}
, {
  "url": "https://api.github.com/repos/google/google-authenticator/issues/comments/58688557",
  "html_url": "https://github.com/google/google-authenticator/issues/95#issuecomment-58688557",
  "issue_url": "https://api.github.com/repos/google/google-authenticator/issues/95",
  "id": 58688557,
  "user": {
    "login": "ThomasHabets",
    "id": 6056,
    "avatar_url": "https://avatars.githubusercontent.com/u/6056?v=3",
    "gravatar_id": "",
    "url": "https://api.github.com/users/ThomasHabets",
    "html_url": "https://github.com/ThomasHabets",
    "followers_url": "https://api.github.com/users/ThomasHabets/followers",
    "following_url": "https://api.github.com/users/ThomasHabets/following{/other_user}",
    "gists_url": "https://api.github.com/users/ThomasHabets/gists{/gist_id}",
    "starred_url": "https://api.github.com/users/ThomasHabets/starred{/owner}{/repo}",
    "subscriptions_url": "https://api.github.com/users/ThomasHabets/subscriptions",
    "organizations_url": "https://api.github.com/users/ThomasHabets/orgs",
    "repos_url": "https://api.github.com/users/ThomasHabets/repos",
    "events_url": "https://api.github.com/users/ThomasHabets/events{/privacy}",
    "received_events_url": "https://api.github.com/users/ThomasHabets/received_events",
    "type": "User",
    "site_admin": false
  },
  "created_at": "2014-10-10T17:31:30Z",
  "updated_at": "2014-10-10T17:31:30Z",
  "body": "Comment [#1](https://code.google.com/p/google-authenticator/issues/detail?id=95#c1) originally posted by jerry.asher on 2011-08-12T04:17:43.000Z:\n\nOkay, well, I found the following workaround from\r\n\r\nhttp://www.google.com/support/forum/p/Google%20Mobile/thread?tid=68d101da79746641&hl=en\r\n\r\nBut regardless, there is something broken. If logging in via QR code is the only thing that works now, the other option should be removed.  Or it should be fixed.\r\n\r\nIt's not clear to me that I should have to exit all of 2-step verification, and re-enter it, just to get the authenticator to work."
}
, {
  "url": "https://api.github.com/repos/google/google-authenticator/issues/comments/58688564",
  "html_url": "https://github.com/google/google-authenticator/issues/95#issuecomment-58688564",
  "issue_url": "https://api.github.com/repos/google/google-authenticator/issues/95",
  "id": 58688564,
  "user": {
    "login": "ThomasHabets",
    "id": 6056,
    "avatar_url": "https://avatars.githubusercontent.com/u/6056?v=3",
    "gravatar_id": "",
    "url": "https://api.github.com/users/ThomasHabets",
    "html_url": "https://github.com/ThomasHabets",
    "followers_url": "https://api.github.com/users/ThomasHabets/followers",
    "following_url": "https://api.github.com/users/ThomasHabets/following{/other_user}",
    "gists_url": "https://api.github.com/users/ThomasHabets/gists{/gist_id}",
    "starred_url": "https://api.github.com/users/ThomasHabets/starred{/owner}{/repo}",
    "subscriptions_url": "https://api.github.com/users/ThomasHabets/subscriptions",
    "organizations_url": "https://api.github.com/users/ThomasHabets/orgs",
    "repos_url": "https://api.github.com/users/ThomasHabets/repos",
    "events_url": "https://api.github.com/users/ThomasHabets/events{/privacy}",
    "received_events_url": "https://api.github.com/users/ThomasHabets/received_events",
    "type": "User",
    "site_admin": false
  },
  "created_at": "2014-10-10T17:31:32Z",
  "updated_at": "2014-10-10T17:31:32Z",
  "body": "Comment [#2](https://code.google.com/p/google-authenticator/issues/detail?id=95#c2) originally posted by markus@google.com on 2011-08-12T17:07:16.000Z:\n\nThis almost certainly has something to do with your time being off by a minute or so. If you want to do some experimenting (and if you are somewhat technical) then play with the analysis tool at http://google-authenticator.googlecode.com/hg/libpam/totp.html It might help shed some light on what is going on.\r\n\r\nPlease note that depending on what you have done in the past, the QR code on that page might or might not display. I think, this has something to do with rate-limiting requests. If you don't see a QR code but just a broken image, try copying'n'pasting the URL for the image; but replace \"https\" with \"http\". That often helps in getting you out of the rate-limiting problem. I have tried doing this automatically, but it just gets the \"http\" URL rate-limited as well. Sorry about that."
}
, {
  "url": "https://api.github.com/repos/google/google-authenticator/issues/comments/58688567",
  "html_url": "https://github.com/google/google-authenticator/issues/95#issuecomment-58688567",
  "issue_url": "https://api.github.com/repos/google/google-authenticator/issues/95",
  "id": 58688567,
  "user": {
    "login": "ThomasHabets",
    "id": 6056,
    "avatar_url": "https://avatars.githubusercontent.com/u/6056?v=3",
    "gravatar_id": "",
    "url": "https://api.github.com/users/ThomasHabets",
    "html_url": "https://github.com/ThomasHabets",
    "followers_url": "https://api.github.com/users/ThomasHabets/followers",
    "following_url": "https://api.github.com/users/ThomasHabets/following{/other_user}",
    "gists_url": "https://api.github.com/users/ThomasHabets/gists{/gist_id}",
    "starred_url": "https://api.github.com/users/ThomasHabets/starred{/owner}{/repo}",
    "subscriptions_url": "https://api.github.com/users/ThomasHabets/subscriptions",
    "organizations_url": "https://api.github.com/users/ThomasHabets/orgs",
    "repos_url": "https://api.github.com/users/ThomasHabets/repos",
    "events_url": "https://api.github.com/users/ThomasHabets/events{/privacy}",
    "received_events_url": "https://api.github.com/users/ThomasHabets/received_events",
    "type": "User",
    "site_admin": false
  },
  "created_at": "2014-10-10T17:31:35Z",
  "updated_at": "2014-10-10T17:31:35Z",
  "body": "Comment [#3](https://code.google.com/p/google-authenticator/issues/detail?id=95#c3) originally posted by jerry.asher on 2011-08-12T17:34:01.000Z:\n\n\"This almost certainly has something to do with your time being off by a minute or so.\"\r\n\r\nThe time where? On the phone or on the computers?  I've had multiple computers fail to verify the code from the same nexus one -- laptops, desktops -- they are all on the same lan in my apartment -- they all sync to time.windows.com.  The phone itself is an AT&T phone set to get it's time from the network.  Checking the time on the phone against  http://www.time.gov/timezone.cgi?Mountain/s/-7/java indicates the phone's time is certainly within a second of time.gov.\r\n\r\nI'm not sure what to make of the debug page.\r\n\r\nWhat would I enter for secret key, account label, etc.?\r\n\r\nI am able to see the QR code using your tip regarding using http on the url of the image.\r\n\r\nProbably irrelevant, is that the debug page says my computer's time is 3s off.  So I updated the time with the time.windows.com, and it was still 3s off, so I updated the time with time.nist.gov, and it was still 3s off. And though the page says the time is 3s off, that time.gov page says the computer time is right on the money.\r\n\r\nI am happy to investigate further if you think it would be helpful.\r\n\r\nThanks!\r\n\r\n"
}
, {
  "url": "https://api.github.com/repos/google/google-authenticator/issues/comments/58688574",
  "html_url": "https://github.com/google/google-authenticator/issues/95#issuecomment-58688574",
  "issue_url": "https://api.github.com/repos/google/google-authenticator/issues/95",
  "id": 58688574,
  "user": {
    "login": "ThomasHabets",
    "id": 6056,
    "avatar_url": "https://avatars.githubusercontent.com/u/6056?v=3",
    "gravatar_id": "",
    "url": "https://api.github.com/users/ThomasHabets",
    "html_url": "https://github.com/ThomasHabets",
    "followers_url": "https://api.github.com/users/ThomasHabets/followers",
    "following_url": "https://api.github.com/users/ThomasHabets/following{/other_user}",
    "gists_url": "https://api.github.com/users/ThomasHabets/gists{/gist_id}",
    "starred_url": "https://api.github.com/users/ThomasHabets/starred{/owner}{/repo}",
    "subscriptions_url": "https://api.github.com/users/ThomasHabets/subscriptions",
    "organizations_url": "https://api.github.com/users/ThomasHabets/orgs",
    "repos_url": "https://api.github.com/users/ThomasHabets/repos",
    "events_url": "https://api.github.com/users/ThomasHabets/events{/privacy}",
    "received_events_url": "https://api.github.com/users/ThomasHabets/received_events",
    "type": "User",
    "site_admin": false
  },
  "created_at": "2014-10-10T17:31:37Z",
  "updated_at": "2014-10-10T17:31:37Z",
  "body": "Comment [#4](https://code.google.com/p/google-authenticator/issues/detail?id=95#c4) originally posted by klyubin@google.com on 2011-08-12T17:43:28.000Z:\n\nThanks for your report and for your effort!\r\n\r\nThe only system time that's important for verification codes to work is the time on your Android device which displays the codes. Note that the time displayed by your device may be correct, but the timezone might be wrong, which still means that the system time is wrong. You can double-check all of this by installing any decent NTP application from the Market. The application will display the time offset of your Android device and/or what the system time should be.\r\n\r\nQuestions:\r\n1. When you say you found a workaround. Which particular workaround are you talking about? What steps did you take?\r\n2. After the workaround, did the verification codes displayed by the Authenticator become valid again?\r\n3. Have you (or somebody else) generated a new configuration key for your account? If you go to your account settings in the web UI, then to \"Using 2-step verification\", then \"Set up 2-step verification\" or (next to Android) \"Edit\", select Android from the dropdown, then Next, again Next, expand the \"Set up a different phone\" section, there's a \"Generate a new configuration key\".\r\n\r\nPlease keep in mind that rooting the device makes it easier for third parties to steal your credentials, including the verification codes or even the key material used by the Authenticator application.\r\n\r\nPlease also keep in mind that we do not support unofficial Android builds/mods (such as CyanogenMod) and do not guarantee that the application will work correctly and securely on such builds.\r\n\r\nOther than that, I'm still eager to find out why the verification codes are wrong."
}
, {
  "url": "https://api.github.com/repos/google/google-authenticator/issues/comments/58688579",
  "html_url": "https://github.com/google/google-authenticator/issues/95#issuecomment-58688579",
  "issue_url": "https://api.github.com/repos/google/google-authenticator/issues/95",
  "id": 58688579,
  "user": {
    "login": "ThomasHabets",
    "id": 6056,
    "avatar_url": "https://avatars.githubusercontent.com/u/6056?v=3",
    "gravatar_id": "",
    "url": "https://api.github.com/users/ThomasHabets",
    "html_url": "https://github.com/ThomasHabets",
    "followers_url": "https://api.github.com/users/ThomasHabets/followers",
    "following_url": "https://api.github.com/users/ThomasHabets/following{/other_user}",
    "gists_url": "https://api.github.com/users/ThomasHabets/gists{/gist_id}",
    "starred_url": "https://api.github.com/users/ThomasHabets/starred{/owner}{/repo}",
    "subscriptions_url": "https://api.github.com/users/ThomasHabets/subscriptions",
    "organizations_url": "https://api.github.com/users/ThomasHabets/orgs",
    "repos_url": "https://api.github.com/users/ThomasHabets/repos",
    "events_url": "https://api.github.com/users/ThomasHabets/events{/privacy}",
    "received_events_url": "https://api.github.com/users/ThomasHabets/received_events",
    "type": "User",
    "site_admin": false
  },
  "created_at": "2014-10-10T17:31:39Z",
  "updated_at": "2014-10-10T17:31:39Z",
  "body": "Comment [#5](https://code.google.com/p/google-authenticator/issues/detail?id=95#c5) originally posted by jerry.asher on 2011-08-12T18:35:17.000Z:\n\nI installed ClockSync which seemed to indicate the phone was not quite a second off atomic time. (.917s)\r\n\r\nThe phone had been set to AT&T network time, and presented the correct time, but I can't quite tell what that means in terms of what the network thinks my timezone is.  I am in Arizona, which is on Arizona time...  When I disable the automatic setting of the phone's time settings, the timezone that is ungrayed is GMT-07:00 Mountain Standard Time.  (Now, if I were selecting the timezone in Android, I would choose GMT-07:00 Arizona.)\r\n\r\nThe workaround I used was a pretty big brute force hammer. \r\n\r\nI first tried the old uninstall/reinstall loop and that did nothing.  And then, googling a bit more, and as described here in the \"best answer\" http://goo.gl/gvM3V I disassociated my phone from 2-step authorization (side note: according to the messages I received, this seemed to turn completely off 2-step verification for my account which is not what I expected or wanted) and then I set it up again using the Scan barcode method and not just the email and secret method.\r\n\r\nAnd yes, after that, verification codes now seem to work just fine.\r\n\r\n\"3. Have you (or somebody else) generated a new configuration key for your account? If you go to your account settings in the web UI, then to \"Using 2-step verification\", then \"Set up 2-step verification\" or (next to Android) \"Edit\", select Android from the dropdown, then Next, again Next, expand the \"Set up a different phone\" section, there's a \"Generate a new configuration key\".\"\r\n\r\nThis is an interesting question.\r\n\r\nFirst, it seems to suggest that it would be good for Google to present a history of phones/times/... that the authenticator has been configured, or a key has been generated.\r\n\r\nAlso, is the statement from the site: \"Only the latest key will work.\" indicating that only one authenticator instance per account will work, or only that all authenticators from any account have to use the same key?  I wouldn't mind having two authenticators set up for my account.\r\n\r\nSecond, \r\n\r\nWithin the past month, I was messing around with a bunch of Android tablets, and I am pretty sure on one of them I installed Authenticator -- though I have no recollection of getting so far as to generate a configuration key for it. But maybe.\r\n\r\nAlso, it's certainly the case that, two weeks ago, when I switched from stock gingerbread to cyanogen that everything was wiped and I had to reinstall all the applications, including Authenticator.\r\n\r\nI don't know if this has been helpful.\r\n\r\nTo me, it feels as though the time issues are not the real issue since the phone only seems to have been off by a few seconds at the most.  The real issue seems to be something in either how the phone after CyanogenMod was installed was associated Authenticator was re-associated with my Google Account.\r\n\r\nBTW, I really like Authenticator and 2-step Verification -- I wish more companies knew they could piggy back off of it (which I discovered in a HackerNews discussion.)  For instance, I'd really like to see Evernote/Dropbox/LastPass pick it up."
}
, {
  "url": "https://api.github.com/repos/google/google-authenticator/issues/comments/58688582",
  "html_url": "https://github.com/google/google-authenticator/issues/95#issuecomment-58688582",
  "issue_url": "https://api.github.com/repos/google/google-authenticator/issues/95",
  "id": 58688582,
  "user": {
    "login": "ThomasHabets",
    "id": 6056,
    "avatar_url": "https://avatars.githubusercontent.com/u/6056?v=3",
    "gravatar_id": "",
    "url": "https://api.github.com/users/ThomasHabets",
    "html_url": "https://github.com/ThomasHabets",
    "followers_url": "https://api.github.com/users/ThomasHabets/followers",
    "following_url": "https://api.github.com/users/ThomasHabets/following{/other_user}",
    "gists_url": "https://api.github.com/users/ThomasHabets/gists{/gist_id}",
    "starred_url": "https://api.github.com/users/ThomasHabets/starred{/owner}{/repo}",
    "subscriptions_url": "https://api.github.com/users/ThomasHabets/subscriptions",
    "organizations_url": "https://api.github.com/users/ThomasHabets/orgs",
    "repos_url": "https://api.github.com/users/ThomasHabets/repos",
    "events_url": "https://api.github.com/users/ThomasHabets/events{/privacy}",
    "received_events_url": "https://api.github.com/users/ThomasHabets/received_events",
    "type": "User",
    "site_admin": false
  },
  "created_at": "2014-10-10T17:31:41Z",
  "updated_at": "2014-10-10T17:31:41Z",
  "body": "Comment [#6](https://code.google.com/p/google-authenticator/issues/detail?id=95#c6) originally posted by klyubin@google.com on 2011-08-13T01:54:01.000Z:\n\nIndeed, it does look like the issues had nothing to do with the system time on your Android device. Assuming you weren't trying to use the same verification code multiple times, the three other obvious explanations are:\r\n* There is a bug in the Authenticator application.\r\n* The configuration key was changed/corrupted on your Android device. Could it be that upgrading to CyanogenMod did that?\r\n* The configuration key was changed on the server-side. E.g., \"generate new key\" functionality or the key got corrupted somehow.\r\n\r\nThus, we'd like to learn more about how you obtained and re-entered the configuration key into the Authenticator after you upgraded to CyanogenMod.\r\n\r\nRegarding \"I first tried the old uninstall/reinstall loop and that did nothing.\":\r\n* How long ago did you go through this uninstall/reinstall loop?\r\n* When you reinstalled, how did you add your account to the Authenticator? Did you scan a barcode or did you manually enter the key. In either of these cases, where did you get the barcode/key from? Was it from your Google account page, or did you have them backed up/printed out somewhere from your previous attempts?\r\n\r\nWhen you upgraded to CyanogenMod and had to reinstall all applications, how did you add your account to the Authenticator app? Scan/manual entry? Or did the account magically reappear after reinstalling the Authenticator?"
}
, {
  "url": "https://api.github.com/repos/google/google-authenticator/issues/comments/58688590",
  "html_url": "https://github.com/google/google-authenticator/issues/95#issuecomment-58688590",
  "issue_url": "https://api.github.com/repos/google/google-authenticator/issues/95",
  "id": 58688590,
  "user": {
    "login": "ThomasHabets",
    "id": 6056,
    "avatar_url": "https://avatars.githubusercontent.com/u/6056?v=3",
    "gravatar_id": "",
    "url": "https://api.github.com/users/ThomasHabets",
    "html_url": "https://github.com/ThomasHabets",
    "followers_url": "https://api.github.com/users/ThomasHabets/followers",
    "following_url": "https://api.github.com/users/ThomasHabets/following{/other_user}",
    "gists_url": "https://api.github.com/users/ThomasHabets/gists{/gist_id}",
    "starred_url": "https://api.github.com/users/ThomasHabets/starred{/owner}{/repo}",
    "subscriptions_url": "https://api.github.com/users/ThomasHabets/subscriptions",
    "organizations_url": "https://api.github.com/users/ThomasHabets/orgs",
    "repos_url": "https://api.github.com/users/ThomasHabets/repos",
    "events_url": "https://api.github.com/users/ThomasHabets/events{/privacy}",
    "received_events_url": "https://api.github.com/users/ThomasHabets/received_events",
    "type": "User",
    "site_admin": false
  },
  "created_at": "2014-10-10T17:31:43Z",
  "updated_at": "2014-10-10T17:31:43Z",
  "body": "Comment [#7](https://code.google.com/p/google-authenticator/issues/detail?id=95#c7) originally posted by markus@google.com on 2011-12-15T09:24:42.000Z:\n\nIssue 129 has been merged into this issue."
}
, {
  "url": "https://api.github.com/repos/google/google-authenticator/issues/comments/58688595",
  "html_url": "https://github.com/google/google-authenticator/issues/95#issuecomment-58688595",
  "issue_url": "https://api.github.com/repos/google/google-authenticator/issues/95",
  "id": 58688595,
  "user": {
    "login": "ThomasHabets",
    "id": 6056,
    "avatar_url": "https://avatars.githubusercontent.com/u/6056?v=3",
    "gravatar_id": "",
    "url": "https://api.github.com/users/ThomasHabets",
    "html_url": "https://github.com/ThomasHabets",
    "followers_url": "https://api.github.com/users/ThomasHabets/followers",
    "following_url": "https://api.github.com/users/ThomasHabets/following{/other_user}",
    "gists_url": "https://api.github.com/users/ThomasHabets/gists{/gist_id}",
    "starred_url": "https://api.github.com/users/ThomasHabets/starred{/owner}{/repo}",
    "subscriptions_url": "https://api.github.com/users/ThomasHabets/subscriptions",
    "organizations_url": "https://api.github.com/users/ThomasHabets/orgs",
    "repos_url": "https://api.github.com/users/ThomasHabets/repos",
    "events_url": "https://api.github.com/users/ThomasHabets/events{/privacy}",
    "received_events_url": "https://api.github.com/users/ThomasHabets/received_events",
    "type": "User",
    "site_admin": false
  },
  "created_at": "2014-10-10T17:31:46Z",
  "updated_at": "2014-10-10T17:31:46Z",
  "body": "Comment [#8](https://code.google.com/p/google-authenticator/issues/detail?id=95#c8) originally posted by markus@google.com on 2011-12-15T09:24:59.000Z:\n\n&lt;empty&gt;"
}
, {
  "url": "https://api.github.com/repos/google/google-authenticator/issues/comments/58688601",
  "html_url": "https://github.com/google/google-authenticator/issues/95#issuecomment-58688601",
  "issue_url": "https://api.github.com/repos/google/google-authenticator/issues/95",
  "id": 58688601,
  "user": {
    "login": "ThomasHabets",
    "id": 6056,
    "avatar_url": "https://avatars.githubusercontent.com/u/6056?v=3",
    "gravatar_id": "",
    "url": "https://api.github.com/users/ThomasHabets",
    "html_url": "https://github.com/ThomasHabets",
    "followers_url": "https://api.github.com/users/ThomasHabets/followers",
    "following_url": "https://api.github.com/users/ThomasHabets/following{/other_user}",
    "gists_url": "https://api.github.com/users/ThomasHabets/gists{/gist_id}",
    "starred_url": "https://api.github.com/users/ThomasHabets/starred{/owner}{/repo}",
    "subscriptions_url": "https://api.github.com/users/ThomasHabets/subscriptions",
    "organizations_url": "https://api.github.com/users/ThomasHabets/orgs",
    "repos_url": "https://api.github.com/users/ThomasHabets/repos",
    "events_url": "https://api.github.com/users/ThomasHabets/events{/privacy}",
    "received_events_url": "https://api.github.com/users/ThomasHabets/received_events",
    "type": "User",
    "site_admin": false
  },
  "created_at": "2014-10-10T17:31:48Z",
  "updated_at": "2014-10-10T17:31:48Z",
  "body": "Comment [#9](https://code.google.com/p/google-authenticator/issues/detail?id=95#c9) originally posted by markus@google.com on 2011-12-15T09:33:25.000Z:\n\nIssue 96 has been merged into this issue."
}
, {
  "url": "https://api.github.com/repos/google/google-authenticator/issues/comments/58688609",
  "html_url": "https://github.com/google/google-authenticator/issues/95#issuecomment-58688609",
  "issue_url": "https://api.github.com/repos/google/google-authenticator/issues/95",
  "id": 58688609,
  "user": {
    "login": "ThomasHabets",
    "id": 6056,
    "avatar_url": "https://avatars.githubusercontent.com/u/6056?v=3",
    "gravatar_id": "",
    "url": "https://api.github.com/users/ThomasHabets",
    "html_url": "https://github.com/ThomasHabets",
    "followers_url": "https://api.github.com/users/ThomasHabets/followers",
    "following_url": "https://api.github.com/users/ThomasHabets/following{/other_user}",
    "gists_url": "https://api.github.com/users/ThomasHabets/gists{/gist_id}",
    "starred_url": "https://api.github.com/users/ThomasHabets/starred{/owner}{/repo}",
    "subscriptions_url": "https://api.github.com/users/ThomasHabets/subscriptions",
    "organizations_url": "https://api.github.com/users/ThomasHabets/orgs",
    "repos_url": "https://api.github.com/users/ThomasHabets/repos",
    "events_url": "https://api.github.com/users/ThomasHabets/events{/privacy}",
    "received_events_url": "https://api.github.com/users/ThomasHabets/received_events",
    "type": "User",
    "site_admin": false
  },
  "created_at": "2014-10-10T17:31:50Z",
  "updated_at": "2014-10-10T17:31:50Z",
  "body": "Comment [#10](https://code.google.com/p/google-authenticator/issues/detail?id=95#c10) originally posted by markus@google.com on 2011-12-15T09:34:10.000Z:\n\nChanged status to \"accepted\", as this looks identical to issue 96, which was marked as such."
}
, {
  "url": "https://api.github.com/repos/google/google-authenticator/issues/comments/58688613",
  "html_url": "https://github.com/google/google-authenticator/issues/95#issuecomment-58688613",
  "issue_url": "https://api.github.com/repos/google/google-authenticator/issues/95",
  "id": 58688613,
  "user": {
    "login": "ThomasHabets",
    "id": 6056,
    "avatar_url": "https://avatars.githubusercontent.com/u/6056?v=3",
    "gravatar_id": "",
    "url": "https://api.github.com/users/ThomasHabets",
    "html_url": "https://github.com/ThomasHabets",
    "followers_url": "https://api.github.com/users/ThomasHabets/followers",
    "following_url": "https://api.github.com/users/ThomasHabets/following{/other_user}",
    "gists_url": "https://api.github.com/users/ThomasHabets/gists{/gist_id}",
    "starred_url": "https://api.github.com/users/ThomasHabets/starred{/owner}{/repo}",
    "subscriptions_url": "https://api.github.com/users/ThomasHabets/subscriptions",
    "organizations_url": "https://api.github.com/users/ThomasHabets/orgs",
    "repos_url": "https://api.github.com/users/ThomasHabets/repos",
    "events_url": "https://api.github.com/users/ThomasHabets/events{/privacy}",
    "received_events_url": "https://api.github.com/users/ThomasHabets/received_events",
    "type": "User",
    "site_admin": false
  },
  "created_at": "2014-10-10T17:31:52Z",
  "updated_at": "2014-10-10T17:31:52Z",
  "body": "Comment [#11](https://code.google.com/p/google-authenticator/issues/detail?id=95#c11) originally posted by markus@google.com on 2011-12-15T09:35:14.000Z:\n\nIssue 72 has been merged into this issue."
}
, {
  "url": "https://api.github.com/repos/google/google-authenticator/issues/comments/58688619",
  "html_url": "https://github.com/google/google-authenticator/issues/95#issuecomment-58688619",
  "issue_url": "https://api.github.com/repos/google/google-authenticator/issues/95",
  "id": 58688619,
  "user": {
    "login": "ThomasHabets",
    "id": 6056,
    "avatar_url": "https://avatars.githubusercontent.com/u/6056?v=3",
    "gravatar_id": "",
    "url": "https://api.github.com/users/ThomasHabets",
    "html_url": "https://github.com/ThomasHabets",
    "followers_url": "https://api.github.com/users/ThomasHabets/followers",
    "following_url": "https://api.github.com/users/ThomasHabets/following{/other_user}",
    "gists_url": "https://api.github.com/users/ThomasHabets/gists{/gist_id}",
    "starred_url": "https://api.github.com/users/ThomasHabets/starred{/owner}{/repo}",
    "subscriptions_url": "https://api.github.com/users/ThomasHabets/subscriptions",
    "organizations_url": "https://api.github.com/users/ThomasHabets/orgs",
    "repos_url": "https://api.github.com/users/ThomasHabets/repos",
    "events_url": "https://api.github.com/users/ThomasHabets/events{/privacy}",
    "received_events_url": "https://api.github.com/users/ThomasHabets/received_events",
    "type": "User",
    "site_admin": false
  },
  "created_at": "2014-10-10T17:31:54Z",
  "updated_at": "2014-10-10T17:31:54Z",
  "body": "Comment [#12](https://code.google.com/p/google-authenticator/issues/detail?id=95#c12) originally posted by klyubin@google.com on 2012-06-13T20:22:24.000Z:\n\nGoogle Authenticator v2.21 (in Google Play now) adds the Time sync feature. The feature lets the user sync the app's internal time with Google. This should be useful for users whose Android device has the wrong time which in turn leads to time-based verification codes generated by the app to be wrong. See https://support.google.com/accounts?p=timesync for more information."
}
, {
  "url": "https://api.github.com/repos/google/google-authenticator/issues/comments/58688624",
  "html_url": "https://github.com/google/google-authenticator/issues/95#issuecomment-58688624",
  "issue_url": "https://api.github.com/repos/google/google-authenticator/issues/95",
  "id": 58688624,
  "user": {
    "login": "ThomasHabets",
    "id": 6056,
    "avatar_url": "https://avatars.githubusercontent.com/u/6056?v=3",
    "gravatar_id": "",
    "url": "https://api.github.com/users/ThomasHabets",
    "html_url": "https://github.com/ThomasHabets",
    "followers_url": "https://api.github.com/users/ThomasHabets/followers",
    "following_url": "https://api.github.com/users/ThomasHabets/following{/other_user}",
    "gists_url": "https://api.github.com/users/ThomasHabets/gists{/gist_id}",
    "starred_url": "https://api.github.com/users/ThomasHabets/starred{/owner}{/repo}",
    "subscriptions_url": "https://api.github.com/users/ThomasHabets/subscriptions",
    "organizations_url": "https://api.github.com/users/ThomasHabets/orgs",
    "repos_url": "https://api.github.com/users/ThomasHabets/repos",
    "events_url": "https://api.github.com/users/ThomasHabets/events{/privacy}",
    "received_events_url": "https://api.github.com/users/ThomasHabets/received_events",
    "type": "User",
    "site_admin": false
  },
  "created_at": "2014-10-10T17:31:56Z",
  "updated_at": "2014-10-10T17:31:56Z",
  "body": "Comment [#13](https://code.google.com/p/google-authenticator/issues/detail?id=95#c13) originally posted by shah@google.com on 2014-01-14T06:07:30.000Z:\n\n&lt;empty&gt;"
}
]
