[
{
  "url": "https://api.github.com/repos/google/google-authenticator/issues/comments/58691502",
  "html_url": "https://github.com/google/google-authenticator/issues/182#issuecomment-58691502",
  "issue_url": "https://api.github.com/repos/google/google-authenticator/issues/182",
  "id": 58691502,
  "user": {
    "login": "ThomasHabets",
    "id": 6056,
    "avatar_url": "https://avatars.githubusercontent.com/u/6056?v=3",
    "gravatar_id": "",
    "url": "https://api.github.com/users/ThomasHabets",
    "html_url": "https://github.com/ThomasHabets",
    "followers_url": "https://api.github.com/users/ThomasHabets/followers",
    "following_url": "https://api.github.com/users/ThomasHabets/following{/other_user}",
    "gists_url": "https://api.github.com/users/ThomasHabets/gists{/gist_id}",
    "starred_url": "https://api.github.com/users/ThomasHabets/starred{/owner}{/repo}",
    "subscriptions_url": "https://api.github.com/users/ThomasHabets/subscriptions",
    "organizations_url": "https://api.github.com/users/ThomasHabets/orgs",
    "repos_url": "https://api.github.com/users/ThomasHabets/repos",
    "events_url": "https://api.github.com/users/ThomasHabets/events{/privacy}",
    "received_events_url": "https://api.github.com/users/ThomasHabets/received_events",
    "type": "User",
    "site_admin": false
  },
  "created_at": "2014-10-10T17:50:42Z",
  "updated_at": "2014-10-10T17:50:42Z",
  "body": "Comment [#1](https://code.google.com/p/google-authenticator/issues/detail?id=183#c1) originally posted by GEOFFLK4 on 2012-06-12T21:13:44.000Z:\n\n looking for same "
}
, {
  "url": "https://api.github.com/repos/google/google-authenticator/issues/comments/58691505",
  "html_url": "https://github.com/google/google-authenticator/issues/182#issuecomment-58691505",
  "issue_url": "https://api.github.com/repos/google/google-authenticator/issues/182",
  "id": 58691505,
  "user": {
    "login": "ThomasHabets",
    "id": 6056,
    "avatar_url": "https://avatars.githubusercontent.com/u/6056?v=3",
    "gravatar_id": "",
    "url": "https://api.github.com/users/ThomasHabets",
    "html_url": "https://github.com/ThomasHabets",
    "followers_url": "https://api.github.com/users/ThomasHabets/followers",
    "following_url": "https://api.github.com/users/ThomasHabets/following{/other_user}",
    "gists_url": "https://api.github.com/users/ThomasHabets/gists{/gist_id}",
    "starred_url": "https://api.github.com/users/ThomasHabets/starred{/owner}{/repo}",
    "subscriptions_url": "https://api.github.com/users/ThomasHabets/subscriptions",
    "organizations_url": "https://api.github.com/users/ThomasHabets/orgs",
    "repos_url": "https://api.github.com/users/ThomasHabets/repos",
    "events_url": "https://api.github.com/users/ThomasHabets/events{/privacy}",
    "received_events_url": "https://api.github.com/users/ThomasHabets/received_events",
    "type": "User",
    "site_admin": false
  },
  "created_at": "2014-10-10T17:50:44Z",
  "updated_at": "2014-10-10T17:50:44Z",
  "body": "Comment [#2](https://code.google.com/p/google-authenticator/issues/detail?id=183#c2) originally posted by jeff@jsrog.com on 2012-08-17T19:37:37.000Z:\n\nSame here"
}
, {
  "url": "https://api.github.com/repos/google/google-authenticator/issues/comments/58691509",
  "html_url": "https://github.com/google/google-authenticator/issues/182#issuecomment-58691509",
  "issue_url": "https://api.github.com/repos/google/google-authenticator/issues/182",
  "id": 58691509,
  "user": {
    "login": "ThomasHabets",
    "id": 6056,
    "avatar_url": "https://avatars.githubusercontent.com/u/6056?v=3",
    "gravatar_id": "",
    "url": "https://api.github.com/users/ThomasHabets",
    "html_url": "https://github.com/ThomasHabets",
    "followers_url": "https://api.github.com/users/ThomasHabets/followers",
    "following_url": "https://api.github.com/users/ThomasHabets/following{/other_user}",
    "gists_url": "https://api.github.com/users/ThomasHabets/gists{/gist_id}",
    "starred_url": "https://api.github.com/users/ThomasHabets/starred{/owner}{/repo}",
    "subscriptions_url": "https://api.github.com/users/ThomasHabets/subscriptions",
    "organizations_url": "https://api.github.com/users/ThomasHabets/orgs",
    "repos_url": "https://api.github.com/users/ThomasHabets/repos",
    "events_url": "https://api.github.com/users/ThomasHabets/events{/privacy}",
    "received_events_url": "https://api.github.com/users/ThomasHabets/received_events",
    "type": "User",
    "site_admin": false
  },
  "created_at": "2014-10-10T17:50:46Z",
  "updated_at": "2014-10-10T17:50:46Z",
  "body": "Comment [#3](https://code.google.com/p/google-authenticator/issues/detail?id=183#c3) originally posted by dominik.pretzsch on 2012-08-17T20:47:47.000Z:\n\nMaybe this is an option for you:\r\nhttp://code.google.com/p/multi-one-time-password--credential-provider/"
}
, {
  "url": "https://api.github.com/repos/google/google-authenticator/issues/comments/58691512",
  "html_url": "https://github.com/google/google-authenticator/issues/182#issuecomment-58691512",
  "issue_url": "https://api.github.com/repos/google/google-authenticator/issues/182",
  "id": 58691512,
  "user": {
    "login": "ThomasHabets",
    "id": 6056,
    "avatar_url": "https://avatars.githubusercontent.com/u/6056?v=3",
    "gravatar_id": "",
    "url": "https://api.github.com/users/ThomasHabets",
    "html_url": "https://github.com/ThomasHabets",
    "followers_url": "https://api.github.com/users/ThomasHabets/followers",
    "following_url": "https://api.github.com/users/ThomasHabets/following{/other_user}",
    "gists_url": "https://api.github.com/users/ThomasHabets/gists{/gist_id}",
    "starred_url": "https://api.github.com/users/ThomasHabets/starred{/owner}{/repo}",
    "subscriptions_url": "https://api.github.com/users/ThomasHabets/subscriptions",
    "organizations_url": "https://api.github.com/users/ThomasHabets/orgs",
    "repos_url": "https://api.github.com/users/ThomasHabets/repos",
    "events_url": "https://api.github.com/users/ThomasHabets/events{/privacy}",
    "received_events_url": "https://api.github.com/users/ThomasHabets/received_events",
    "type": "User",
    "site_admin": false
  },
  "created_at": "2014-10-10T17:50:48Z",
  "updated_at": "2014-10-10T17:50:48Z",
  "body": "Comment [#4](https://code.google.com/p/google-authenticator/issues/detail?id=183#c4) originally posted by marcospinto@dipconsultants.com on 2012-08-30T02:06:22.000Z:\n\ni want this *really* badly for corporate security"
}
, {
  "url": "https://api.github.com/repos/google/google-authenticator/issues/comments/58691519",
  "html_url": "https://github.com/google/google-authenticator/issues/182#issuecomment-58691519",
  "issue_url": "https://api.github.com/repos/google/google-authenticator/issues/182",
  "id": 58691519,
  "user": {
    "login": "ThomasHabets",
    "id": 6056,
    "avatar_url": "https://avatars.githubusercontent.com/u/6056?v=3",
    "gravatar_id": "",
    "url": "https://api.github.com/users/ThomasHabets",
    "html_url": "https://github.com/ThomasHabets",
    "followers_url": "https://api.github.com/users/ThomasHabets/followers",
    "following_url": "https://api.github.com/users/ThomasHabets/following{/other_user}",
    "gists_url": "https://api.github.com/users/ThomasHabets/gists{/gist_id}",
    "starred_url": "https://api.github.com/users/ThomasHabets/starred{/owner}{/repo}",
    "subscriptions_url": "https://api.github.com/users/ThomasHabets/subscriptions",
    "organizations_url": "https://api.github.com/users/ThomasHabets/orgs",
    "repos_url": "https://api.github.com/users/ThomasHabets/repos",
    "events_url": "https://api.github.com/users/ThomasHabets/events{/privacy}",
    "received_events_url": "https://api.github.com/users/ThomasHabets/received_events",
    "type": "User",
    "site_admin": false
  },
  "created_at": "2014-10-10T17:50:51Z",
  "updated_at": "2014-10-10T17:50:51Z",
  "body": "Comment [#5](https://code.google.com/p/google-authenticator/issues/detail?id=183#c5) originally posted by mr2dave on 2012-09-12T22:32:11.000Z:\n\nI ended up here while searching for the same."
}
, {
  "url": "https://api.github.com/repos/google/google-authenticator/issues/comments/58691522",
  "html_url": "https://github.com/google/google-authenticator/issues/182#issuecomment-58691522",
  "issue_url": "https://api.github.com/repos/google/google-authenticator/issues/182",
  "id": 58691522,
  "user": {
    "login": "ThomasHabets",
    "id": 6056,
    "avatar_url": "https://avatars.githubusercontent.com/u/6056?v=3",
    "gravatar_id": "",
    "url": "https://api.github.com/users/ThomasHabets",
    "html_url": "https://github.com/ThomasHabets",
    "followers_url": "https://api.github.com/users/ThomasHabets/followers",
    "following_url": "https://api.github.com/users/ThomasHabets/following{/other_user}",
    "gists_url": "https://api.github.com/users/ThomasHabets/gists{/gist_id}",
    "starred_url": "https://api.github.com/users/ThomasHabets/starred{/owner}{/repo}",
    "subscriptions_url": "https://api.github.com/users/ThomasHabets/subscriptions",
    "organizations_url": "https://api.github.com/users/ThomasHabets/orgs",
    "repos_url": "https://api.github.com/users/ThomasHabets/repos",
    "events_url": "https://api.github.com/users/ThomasHabets/events{/privacy}",
    "received_events_url": "https://api.github.com/users/ThomasHabets/received_events",
    "type": "User",
    "site_admin": false
  },
  "created_at": "2014-10-10T17:50:53Z",
  "updated_at": "2014-10-10T17:50:53Z",
  "body": "Comment [#6](https://code.google.com/p/google-authenticator/issues/detail?id=183#c6) originally posted by niranjan.patil on 2013-01-09T11:41:29.000Z:\n\nI wish it could, though it's unlikely have this ported to Windows environment."
}
, {
  "url": "https://api.github.com/repos/google/google-authenticator/issues/comments/58691528",
  "html_url": "https://github.com/google/google-authenticator/issues/182#issuecomment-58691528",
  "issue_url": "https://api.github.com/repos/google/google-authenticator/issues/182",
  "id": 58691528,
  "user": {
    "login": "ThomasHabets",
    "id": 6056,
    "avatar_url": "https://avatars.githubusercontent.com/u/6056?v=3",
    "gravatar_id": "",
    "url": "https://api.github.com/users/ThomasHabets",
    "html_url": "https://github.com/ThomasHabets",
    "followers_url": "https://api.github.com/users/ThomasHabets/followers",
    "following_url": "https://api.github.com/users/ThomasHabets/following{/other_user}",
    "gists_url": "https://api.github.com/users/ThomasHabets/gists{/gist_id}",
    "starred_url": "https://api.github.com/users/ThomasHabets/starred{/owner}{/repo}",
    "subscriptions_url": "https://api.github.com/users/ThomasHabets/subscriptions",
    "organizations_url": "https://api.github.com/users/ThomasHabets/orgs",
    "repos_url": "https://api.github.com/users/ThomasHabets/repos",
    "events_url": "https://api.github.com/users/ThomasHabets/events{/privacy}",
    "received_events_url": "https://api.github.com/users/ThomasHabets/received_events",
    "type": "User",
    "site_admin": false
  },
  "created_at": "2014-10-10T17:50:55Z",
  "updated_at": "2014-10-10T17:50:55Z",
  "body": "Comment [#7](https://code.google.com/p/google-authenticator/issues/detail?id=183#c7) originally posted by f3rrix on 2013-01-11T19:48:22.000Z:\n\nSince google authenticator is just an OATH time-based one-time-password generator, you should be able to use it with any 2-factor logon solution for Windows that has support for OATH tokens.  There's not much (if any) \"google-specific\" work to be done.  And it's certainly not a defect in the authenticator.\r\n\r\nFor example (but certainly not the only example!) my company makes AuthLite, version 2 of which specifically has support for enterprise networks using google authenticator including with Windows.\r\n\r\nI guess there are a lot of security enthusiasts out there who would like to use google authenticator for standalone workstations too.  This inspires me!  \r\n\r\nI will make a quick free product to use google authenticator tokens to do windows workstation logon :) Should be easy considering we already have all the ground work done.  Do you think Google would mind if we called it \"Google Authenticator for Windows Logon\"?  I'm not sure what else it could possibly be called =P"
}
, {
  "url": "https://api.github.com/repos/google/google-authenticator/issues/comments/58691534",
  "html_url": "https://github.com/google/google-authenticator/issues/182#issuecomment-58691534",
  "issue_url": "https://api.github.com/repos/google/google-authenticator/issues/182",
  "id": 58691534,
  "user": {
    "login": "ThomasHabets",
    "id": 6056,
    "avatar_url": "https://avatars.githubusercontent.com/u/6056?v=3",
    "gravatar_id": "",
    "url": "https://api.github.com/users/ThomasHabets",
    "html_url": "https://github.com/ThomasHabets",
    "followers_url": "https://api.github.com/users/ThomasHabets/followers",
    "following_url": "https://api.github.com/users/ThomasHabets/following{/other_user}",
    "gists_url": "https://api.github.com/users/ThomasHabets/gists{/gist_id}",
    "starred_url": "https://api.github.com/users/ThomasHabets/starred{/owner}{/repo}",
    "subscriptions_url": "https://api.github.com/users/ThomasHabets/subscriptions",
    "organizations_url": "https://api.github.com/users/ThomasHabets/orgs",
    "repos_url": "https://api.github.com/users/ThomasHabets/repos",
    "events_url": "https://api.github.com/users/ThomasHabets/events{/privacy}",
    "received_events_url": "https://api.github.com/users/ThomasHabets/received_events",
    "type": "User",
    "site_admin": false
  },
  "created_at": "2014-10-10T17:50:57Z",
  "updated_at": "2014-10-10T17:50:57Z",
  "body": "Comment [#8](https://code.google.com/p/google-authenticator/issues/detail?id=183#c8) originally posted by jason.adams1301 on 2013-02-27T20:29:57.000Z:\n\nWould Love this as well"
}
, {
  "url": "https://api.github.com/repos/google/google-authenticator/issues/comments/58691540",
  "html_url": "https://github.com/google/google-authenticator/issues/182#issuecomment-58691540",
  "issue_url": "https://api.github.com/repos/google/google-authenticator/issues/182",
  "id": 58691540,
  "user": {
    "login": "ThomasHabets",
    "id": 6056,
    "avatar_url": "https://avatars.githubusercontent.com/u/6056?v=3",
    "gravatar_id": "",
    "url": "https://api.github.com/users/ThomasHabets",
    "html_url": "https://github.com/ThomasHabets",
    "followers_url": "https://api.github.com/users/ThomasHabets/followers",
    "following_url": "https://api.github.com/users/ThomasHabets/following{/other_user}",
    "gists_url": "https://api.github.com/users/ThomasHabets/gists{/gist_id}",
    "starred_url": "https://api.github.com/users/ThomasHabets/starred{/owner}{/repo}",
    "subscriptions_url": "https://api.github.com/users/ThomasHabets/subscriptions",
    "organizations_url": "https://api.github.com/users/ThomasHabets/orgs",
    "repos_url": "https://api.github.com/users/ThomasHabets/repos",
    "events_url": "https://api.github.com/users/ThomasHabets/events{/privacy}",
    "received_events_url": "https://api.github.com/users/ThomasHabets/received_events",
    "type": "User",
    "site_admin": false
  },
  "created_at": "2014-10-10T17:50:59Z",
  "updated_at": "2014-10-10T17:50:59Z",
  "body": "Comment [#9](https://code.google.com/p/google-authenticator/issues/detail?id=183#c9) originally posted by asilonos on 2013-03-11T11:03:56.000Z:\n\nTry rohos logon - \r\nhttp://www.rohos.com/2013/02/google-authenticator-windows-login/"
}
]
