[
{
  "url": "https://api.github.com/repos/cutting-room-floor/wax/issues/comments/6252292",
  "html_url": "https://github.com/cutting-room-floor/wax/pull/208#issuecomment-6252292",
  "issue_url": "https://api.github.com/repos/cutting-room-floor/wax/issues/208",
  "id": 6252292,
  "user": {
    "login": "ansis",
    "id": 1421652,
    "avatar_url": "https://avatars.githubusercontent.com/u/1421652?v=3",
    "gravatar_id": "",
    "url": "https://api.github.com/users/ansis",
    "html_url": "https://github.com/ansis",
    "followers_url": "https://api.github.com/users/ansis/followers",
    "following_url": "https://api.github.com/users/ansis/following{/other_user}",
    "gists_url": "https://api.github.com/users/ansis/gists{/gist_id}",
    "starred_url": "https://api.github.com/users/ansis/starred{/owner}{/repo}",
    "subscriptions_url": "https://api.github.com/users/ansis/subscriptions",
    "organizations_url": "https://api.github.com/users/ansis/orgs",
    "repos_url": "https://api.github.com/users/ansis/repos",
    "events_url": "https://api.github.com/users/ansis/events{/privacy}",
    "received_events_url": "https://api.github.com/users/ansis/received_events",
    "type": "User",
    "site_admin": false
  },
  "created_at": "2012-06-11T18:37:25Z",
  "updated_at": "2012-06-11T18:37:25Z",
  "body": "Accidental dupe"
}
]
