[
{
  "url": "https://api.github.com/repos/cutting-room-floor/wax/issues/comments/17004567",
  "html_url": "https://github.com/cutting-room-floor/wax/issues/276#issuecomment-17004567",
  "issue_url": "https://api.github.com/repos/cutting-room-floor/wax/issues/276",
  "id": 17004567,
  "user": {
    "login": "tmcw",
    "id": 32314,
    "avatar_url": "https://avatars.githubusercontent.com/u/32314?v=3",
    "gravatar_id": "",
    "url": "https://api.github.com/users/tmcw",
    "html_url": "https://github.com/tmcw",
    "followers_url": "https://api.github.com/users/tmcw/followers",
    "following_url": "https://api.github.com/users/tmcw/following{/other_user}",
    "gists_url": "https://api.github.com/users/tmcw/gists{/gist_id}",
    "starred_url": "https://api.github.com/users/tmcw/starred{/owner}{/repo}",
    "subscriptions_url": "https://api.github.com/users/tmcw/subscriptions",
    "organizations_url": "https://api.github.com/users/tmcw/orgs",
    "repos_url": "https://api.github.com/users/tmcw/repos",
    "events_url": "https://api.github.com/users/tmcw/events{/privacy}",
    "received_events_url": "https://api.github.com/users/tmcw/received_events",
    "type": "User",
    "site_admin": false
  },
  "created_at": "2013-04-25T12:49:16Z",
  "updated_at": "2013-04-25T12:49:16Z",
  "body": "Please check out [MapBox.js v1](http://mapbox.com/blog/mapbox-js-with-leaflet/), which includes a rewrite of the interaction code with Leaflet."
}
]
