[
{
  "url": "https://api.github.com/repos/mapbox/slippy-colors/issues/4",
  "labels_url": "https://api.github.com/repos/mapbox/slippy-colors/issues/4/labels{/name}",
  "comments_url": "https://api.github.com/repos/mapbox/slippy-colors/issues/4/comments",
  "events_url": "https://api.github.com/repos/mapbox/slippy-colors/issues/4/events",
  "html_url": "https://github.com/mapbox/slippy-colors/pull/4",
  "id": 54901397,
  "number": 4,
  "title": "Mouse position",
  "user": {
    "login": "GlennS",
    "id": 615606,
    "avatar_url": "https://avatars.githubusercontent.com/u/615606?v=3",
    "gravatar_id": "",
    "url": "https://api.github.com/users/GlennS",
    "html_url": "https://github.com/GlennS",
    "followers_url": "https://api.github.com/users/GlennS/followers",
    "following_url": "https://api.github.com/users/GlennS/following{/other_user}",
    "gists_url": "https://api.github.com/users/GlennS/gists{/gist_id}",
    "starred_url": "https://api.github.com/users/GlennS/starred{/owner}{/repo}",
    "subscriptions_url": "https://api.github.com/users/GlennS/subscriptions",
    "organizations_url": "https://api.github.com/users/GlennS/orgs",
    "repos_url": "https://api.github.com/users/GlennS/repos",
    "events_url": "https://api.github.com/users/GlennS/events{/privacy}",
    "received_events_url": "https://api.github.com/users/GlennS/received_events",
    "type": "User",
    "site_admin": false
  },
  "labels": [],
  "state": "closed",
  "locked": false,
  "assignee": null,
  "milestone": null,
  "comments": 2,
  "created_at": "2015-01-20T16:05:43Z",
  "updated_at": "2015-01-22T19:21:57Z",
  "closed_at": "2015-01-22T19:21:54Z",
  "pull_request": {
    "url": "https://api.github.com/repos/mapbox/slippy-colors/pulls/4",
    "html_url": "https://github.com/mapbox/slippy-colors/pull/4",
    "diff_url": "https://github.com/mapbox/slippy-colors/pull/4.diff",
    "patch_url": "https://github.com/mapbox/slippy-colors/pull/4.patch"
  },
  "body": "Hi,\r\nI liked your project, and have done a little work making it work with my own stuff. Would you like any of this?\r\n\r\nRegards,\r\nGlenn\r\n\r\n * Fixed some reliability issues:\r\n  * Cross-browser mouse position detection.\r\n  * Prevented a single NaN in the translate from permanently breaking the colour picker.\r\n  * The datum and index of the element which contains the colour picker is leaking into the zoom function. I'm unsure whether this is intentional, so I've added a check to make sure that it is at least a valid translate.\r\n * Updated d3 version.\r\n * Added a demo page.\r\n * Added a makefile to gather the npm dependencies and build the demo page."
}
, {
  "url": "https://api.github.com/repos/mapbox/slippy-colors/issues/3",
  "labels_url": "https://api.github.com/repos/mapbox/slippy-colors/issues/3/labels{/name}",
  "comments_url": "https://api.github.com/repos/mapbox/slippy-colors/issues/3/comments",
  "events_url": "https://api.github.com/repos/mapbox/slippy-colors/issues/3/events",
  "html_url": "https://github.com/mapbox/slippy-colors/pull/3",
  "id": 43978542,
  "number": 3,
  "title": "Color coerce",
  "user": {
    "login": "lbud",
    "id": 3170312,
    "avatar_url": "https://avatars.githubusercontent.com/u/3170312?v=3",
    "gravatar_id": "",
    "url": "https://api.github.com/users/lbud",
    "html_url": "https://github.com/lbud",
    "followers_url": "https://api.github.com/users/lbud/followers",
    "following_url": "https://api.github.com/users/lbud/following{/other_user}",
    "gists_url": "https://api.github.com/users/lbud/gists{/gist_id}",
    "starred_url": "https://api.github.com/users/lbud/starred{/owner}{/repo}",
    "subscriptions_url": "https://api.github.com/users/lbud/subscriptions",
    "organizations_url": "https://api.github.com/users/lbud/orgs",
    "repos_url": "https://api.github.com/users/lbud/repos",
    "events_url": "https://api.github.com/users/lbud/events{/privacy}",
    "received_events_url": "https://api.github.com/users/lbud/received_events",
    "type": "User",
    "site_admin": false
  },
  "labels": [],
  "state": "closed",
  "locked": false,
  "assignee": null,
  "milestone": null,
  "comments": 1,
  "created_at": "2014-09-25T23:05:10Z",
  "updated_at": "2014-09-29T18:20:01Z",
  "closed_at": "2014-09-29T18:19:58Z",
  "pull_request": {
    "url": "https://api.github.com/repos/mapbox/slippy-colors/pulls/3",
    "html_url": "https://github.com/mapbox/slippy-colors/pull/3",
    "diff_url": "https://github.com/mapbox/slippy-colors/pull/3.diff",
    "patch_url": "https://github.com/mapbox/slippy-colors/pull/3.patch"
  },
  "body": ""
}
, {
  "url": "https://api.github.com/repos/mapbox/slippy-colors/issues/1",
  "labels_url": "https://api.github.com/repos/mapbox/slippy-colors/issues/1/labels{/name}",
  "comments_url": "https://api.github.com/repos/mapbox/slippy-colors/issues/1/comments",
  "events_url": "https://api.github.com/repos/mapbox/slippy-colors/issues/1/events",
  "html_url": "https://github.com/mapbox/slippy-colors/issues/1",
  "id": 43699742,
  "number": 1,
  "title": "'Currently selected color' indicator",
  "user": {
    "login": "tmcw",
    "id": 32314,
    "avatar_url": "https://avatars.githubusercontent.com/u/32314?v=3",
    "gravatar_id": "",
    "url": "https://api.github.com/users/tmcw",
    "html_url": "https://github.com/tmcw",
    "followers_url": "https://api.github.com/users/tmcw/followers",
    "following_url": "https://api.github.com/users/tmcw/following{/other_user}",
    "gists_url": "https://api.github.com/users/tmcw/gists{/gist_id}",
    "starred_url": "https://api.github.com/users/tmcw/starred{/owner}{/repo}",
    "subscriptions_url": "https://api.github.com/users/tmcw/subscriptions",
    "organizations_url": "https://api.github.com/users/tmcw/orgs",
    "repos_url": "https://api.github.com/users/tmcw/repos",
    "events_url": "https://api.github.com/users/tmcw/events{/privacy}",
    "received_events_url": "https://api.github.com/users/tmcw/received_events",
    "type": "User",
    "site_admin": false
  },
  "labels": [],
  "state": "closed",
  "locked": false,
  "assignee": null,
  "milestone": null,
  "comments": 2,
  "created_at": "2014-09-24T00:03:41Z",
  "updated_at": "2014-12-15T01:32:05Z",
  "closed_at": "2014-12-15T01:32:05Z",
  "body": "This would be a dot or crosshair on the color picker for where the current selection lies."
}
]
