[
{
  "url": "https://api.github.com/repos/yahoo/react-intl/issues/comments/59426537",
  "html_url": "https://github.com/yahoo/react-intl/pull/24#issuecomment-59426537",
  "issue_url": "https://api.github.com/repos/yahoo/react-intl/issues/24",
  "id": 59426537,
  "user": {
    "login": "yahoocla",
    "id": 6155154,
    "avatar_url": "https://avatars.githubusercontent.com/u/6155154?v=3",
    "gravatar_id": "",
    "url": "https://api.github.com/users/yahoocla",
    "html_url": "https://github.com/yahoocla",
    "followers_url": "https://api.github.com/users/yahoocla/followers",
    "following_url": "https://api.github.com/users/yahoocla/following{/other_user}",
    "gists_url": "https://api.github.com/users/yahoocla/gists{/gist_id}",
    "starred_url": "https://api.github.com/users/yahoocla/starred{/owner}{/repo}",
    "subscriptions_url": "https://api.github.com/users/yahoocla/subscriptions",
    "organizations_url": "https://api.github.com/users/yahoocla/orgs",
    "repos_url": "https://api.github.com/users/yahoocla/repos",
    "events_url": "https://api.github.com/users/yahoocla/events{/privacy}",
    "received_events_url": "https://api.github.com/users/yahoocla/received_events",
    "type": "User",
    "site_admin": false
  },
  "created_at": "2014-10-16T20:38:40Z",
  "updated_at": "2014-10-16T20:38:40Z",
  "body": "CLA is valid!"
}
, {
  "url": "https://api.github.com/repos/yahoo/react-intl/issues/comments/59430617",
  "html_url": "https://github.com/yahoo/react-intl/pull/24#issuecomment-59430617",
  "issue_url": "https://api.github.com/repos/yahoo/react-intl/issues/24",
  "id": 59430617,
  "user": {
    "login": "caridy",
    "id": 38969,
    "avatar_url": "https://avatars.githubusercontent.com/u/38969?v=3",
    "gravatar_id": "",
    "url": "https://api.github.com/users/caridy",
    "html_url": "https://github.com/caridy",
    "followers_url": "https://api.github.com/users/caridy/followers",
    "following_url": "https://api.github.com/users/caridy/following{/other_user}",
    "gists_url": "https://api.github.com/users/caridy/gists{/gist_id}",
    "starred_url": "https://api.github.com/users/caridy/starred{/owner}{/repo}",
    "subscriptions_url": "https://api.github.com/users/caridy/subscriptions",
    "organizations_url": "https://api.github.com/users/caridy/orgs",
    "repos_url": "https://api.github.com/users/caridy/repos",
    "events_url": "https://api.github.com/users/caridy/events{/privacy}",
    "received_events_url": "https://api.github.com/users/caridy/received_events",
    "type": "User",
    "site_admin": false
  },
  "created_at": "2014-10-16T21:06:14Z",
  "updated_at": "2014-10-16T21:06:14Z",
  "body": "LGTM"
}
, {
  "url": "https://api.github.com/repos/yahoo/react-intl/issues/comments/59430687",
  "html_url": "https://github.com/yahoo/react-intl/pull/24#issuecomment-59430687",
  "issue_url": "https://api.github.com/repos/yahoo/react-intl/issues/24",
  "id": 59430687,
  "user": {
    "login": "caridy",
    "id": 38969,
    "avatar_url": "https://avatars.githubusercontent.com/u/38969?v=3",
    "gravatar_id": "",
    "url": "https://api.github.com/users/caridy",
    "html_url": "https://github.com/caridy",
    "followers_url": "https://api.github.com/users/caridy/followers",
    "following_url": "https://api.github.com/users/caridy/following{/other_user}",
    "gists_url": "https://api.github.com/users/caridy/gists{/gist_id}",
    "starred_url": "https://api.github.com/users/caridy/starred{/owner}{/repo}",
    "subscriptions_url": "https://api.github.com/users/caridy/subscriptions",
    "organizations_url": "https://api.github.com/users/caridy/orgs",
    "repos_url": "https://api.github.com/users/caridy/repos",
    "events_url": "https://api.github.com/users/caridy/events{/privacy}",
    "received_events_url": "https://api.github.com/users/caridy/received_events",
    "type": "User",
    "site_admin": false
  },
  "created_at": "2014-10-16T21:06:38Z",
  "updated_at": "2014-10-16T21:06:38Z",
  "body": "@ericf lets way for more feedback on this, we are not in a hurry"
}
, {
  "url": "https://api.github.com/repos/yahoo/react-intl/issues/comments/59431270",
  "html_url": "https://github.com/yahoo/react-intl/pull/24#issuecomment-59431270",
  "issue_url": "https://api.github.com/repos/yahoo/react-intl/issues/24",
  "id": 59431270,
  "user": {
    "login": "ericf",
    "id": 29096,
    "avatar_url": "https://avatars.githubusercontent.com/u/29096?v=3",
    "gravatar_id": "",
    "url": "https://api.github.com/users/ericf",
    "html_url": "https://github.com/ericf",
    "followers_url": "https://api.github.com/users/ericf/followers",
    "following_url": "https://api.github.com/users/ericf/following{/other_user}",
    "gists_url": "https://api.github.com/users/ericf/gists{/gist_id}",
    "starred_url": "https://api.github.com/users/ericf/starred{/owner}{/repo}",
    "subscriptions_url": "https://api.github.com/users/ericf/subscriptions",
    "organizations_url": "https://api.github.com/users/ericf/orgs",
    "repos_url": "https://api.github.com/users/ericf/repos",
    "events_url": "https://api.github.com/users/ericf/events{/privacy}",
    "received_events_url": "https://api.github.com/users/ericf/received_events",
    "type": "User",
    "site_admin": false
  },
  "created_at": "2014-10-16T21:10:57Z",
  "updated_at": "2014-10-16T21:11:13Z",
  "body": "@caridy the \"[WIP]\" in the title and Todo list hopefully suggest that I'm not in a hurry ;)"
}
, {
  "url": "https://api.github.com/repos/yahoo/react-intl/issues/comments/60166762",
  "html_url": "https://github.com/yahoo/react-intl/pull/24#issuecomment-60166762",
  "issue_url": "https://api.github.com/repos/yahoo/react-intl/issues/24",
  "id": 60166762,
  "user": {
    "login": "ericf",
    "id": 29096,
    "avatar_url": "https://avatars.githubusercontent.com/u/29096?v=3",
    "gravatar_id": "",
    "url": "https://api.github.com/users/ericf",
    "html_url": "https://github.com/ericf",
    "followers_url": "https://api.github.com/users/ericf/followers",
    "following_url": "https://api.github.com/users/ericf/following{/other_user}",
    "gists_url": "https://api.github.com/users/ericf/gists{/gist_id}",
    "starred_url": "https://api.github.com/users/ericf/starred{/owner}{/repo}",
    "subscriptions_url": "https://api.github.com/users/ericf/subscriptions",
    "organizations_url": "https://api.github.com/users/ericf/orgs",
    "repos_url": "https://api.github.com/users/ericf/repos",
    "events_url": "https://api.github.com/users/ericf/events{/privacy}",
    "received_events_url": "https://api.github.com/users/ericf/received_events",
    "type": "User",
    "site_admin": false
  },
  "created_at": "2014-10-22T22:34:20Z",
  "updated_at": "2014-10-22T22:34:20Z",
  "body": "> See if `O.dP` is okay to use in browser.\r\n\r\nReact [does not use `O.dP`](http://facebook.github.io/react/docs/working-with-the-browser.html#polyfills-needed-to-support-older-browsers), but it is supported by the `es5-sham.js` that React does require. Although [it's unclear whether the polyfill actually works in IE8](https://github.com/es-shims/es5-shim#may-fail)."
}
, {
  "url": "https://api.github.com/repos/yahoo/react-intl/issues/comments/60274278",
  "html_url": "https://github.com/yahoo/react-intl/pull/24#issuecomment-60274278",
  "issue_url": "https://api.github.com/repos/yahoo/react-intl/issues/24",
  "id": 60274278,
  "user": {
    "login": "ericf",
    "id": 29096,
    "avatar_url": "https://avatars.githubusercontent.com/u/29096?v=3",
    "gravatar_id": "",
    "url": "https://api.github.com/users/ericf",
    "html_url": "https://github.com/ericf",
    "followers_url": "https://api.github.com/users/ericf/followers",
    "following_url": "https://api.github.com/users/ericf/following{/other_user}",
    "gists_url": "https://api.github.com/users/ericf/gists{/gist_id}",
    "starred_url": "https://api.github.com/users/ericf/starred{/owner}{/repo}",
    "subscriptions_url": "https://api.github.com/users/ericf/subscriptions",
    "organizations_url": "https://api.github.com/users/ericf/orgs",
    "repos_url": "https://api.github.com/users/ericf/repos",
    "events_url": "https://api.github.com/users/ericf/events{/privacy}",
    "received_events_url": "https://api.github.com/users/ericf/received_events",
    "type": "User",
    "site_admin": false
  },
  "created_at": "2014-10-23T17:18:29Z",
  "updated_at": "2014-10-23T17:18:29Z",
  "body": "We don't want to use `O.dP` in the browser output, especially if we use accessors since it will not work at all in non-ES5 browsers. This precludes us from using `import * as` since the transpiled output of using that syntax uses ES5 getters."
}
, {
  "url": "https://api.github.com/repos/yahoo/react-intl/issues/comments/62453617",
  "html_url": "https://github.com/yahoo/react-intl/pull/24#issuecomment-62453617",
  "issue_url": "https://api.github.com/repos/yahoo/react-intl/issues/24",
  "id": 62453617,
  "user": {
    "login": "alpjor",
    "id": 61747,
    "avatar_url": "https://avatars.githubusercontent.com/u/61747?v=3",
    "gravatar_id": "",
    "url": "https://api.github.com/users/alpjor",
    "html_url": "https://github.com/alpjor",
    "followers_url": "https://api.github.com/users/alpjor/followers",
    "following_url": "https://api.github.com/users/alpjor/following{/other_user}",
    "gists_url": "https://api.github.com/users/alpjor/gists{/gist_id}",
    "starred_url": "https://api.github.com/users/alpjor/starred{/owner}{/repo}",
    "subscriptions_url": "https://api.github.com/users/alpjor/subscriptions",
    "organizations_url": "https://api.github.com/users/alpjor/orgs",
    "repos_url": "https://api.github.com/users/alpjor/repos",
    "events_url": "https://api.github.com/users/alpjor/events{/privacy}",
    "received_events_url": "https://api.github.com/users/alpjor/received_events",
    "type": "User",
    "site_admin": false
  },
  "created_at": "2014-11-10T20:56:54Z",
  "updated_at": "2014-11-10T22:22:01Z",
  "body": "I hacked together a version that seems to work with JSX being passed as props to the IntlJSX. I know this is prob unsafe, but it would be nice to just pass JSX (inline elements only, to make this more robust I'd need a way to detect inline vs block elements) into ReactIntl for replacement. I hope this helps.\r\n\r\n```\r\nvar interpolateStringToArray = function(str, options) {\r\n    options = options || {};\r\n\r\n    var split = str.split(/\\{([\\w_]+)\\}/g);\r\n\r\n    for (var i = 1; i < split.length; i += 2) {\r\n        var replaceWith = options[split[i]];\r\n        split[i] = typeof replaceWith == \"undefined\" ?\r\n            React.DOM.span({key: i}, \"{\" + split[i] + \"}\") :\r\n            React.DOM.span({key: i}, replaceWith);\r\n    }\r\n    return split;\r\n};\r\n\r\nI18n = React.createClass({\r\n  render: function() {\r\n    return (\r\n      <span>\r\n        {interpolateStringToArray(this.props.children, this.props)}\r\n      </span>\r\n    );\r\n  }\r\n});\r\n```"
}
, {
  "url": "https://api.github.com/repos/yahoo/react-intl/issues/comments/62496430",
  "html_url": "https://github.com/yahoo/react-intl/pull/24#issuecomment-62496430",
  "issue_url": "https://api.github.com/repos/yahoo/react-intl/issues/24",
  "id": 62496430,
  "user": {
    "login": "ericf",
    "id": 29096,
    "avatar_url": "https://avatars.githubusercontent.com/u/29096?v=3",
    "gravatar_id": "",
    "url": "https://api.github.com/users/ericf",
    "html_url": "https://github.com/ericf",
    "followers_url": "https://api.github.com/users/ericf/followers",
    "following_url": "https://api.github.com/users/ericf/following{/other_user}",
    "gists_url": "https://api.github.com/users/ericf/gists{/gist_id}",
    "starred_url": "https://api.github.com/users/ericf/starred{/owner}{/repo}",
    "subscriptions_url": "https://api.github.com/users/ericf/subscriptions",
    "organizations_url": "https://api.github.com/users/ericf/orgs",
    "repos_url": "https://api.github.com/users/ericf/repos",
    "events_url": "https://api.github.com/users/ericf/events{/privacy}",
    "received_events_url": "https://api.github.com/users/ericf/received_events",
    "type": "User",
    "site_admin": false
  },
  "created_at": "2014-11-11T03:21:21Z",
  "updated_at": "2014-11-11T03:21:21Z",
  "body": "@alpjor We don't plan to support JSX inside the message strings because of safety, simplicity, portability, and a clash of syntax — the ICU message syntax also uses `{` and `}` to denote tokens.\r\n\r\nIn this PR, I did add support for **HTML** in message strings, which will solve the issue where people want to have rich-text messages, but doesn't get into the business of nested JSX inside of messages. Here's the currently implementation of the [`<HTMLMessage>` component](https://github.com/ericf/react-intl/blob/components/src/components/html-message.js).\r\n\r\nAdding support for HTML messages, will also bring this package inline with what its sibling package, [`handlebars-intl` supports](http://formatjs.io/handlebars/#formatMessage)."
}
, {
  "url": "https://api.github.com/repos/yahoo/react-intl/issues/comments/63345450",
  "html_url": "https://github.com/yahoo/react-intl/pull/24#issuecomment-63345450",
  "issue_url": "https://api.github.com/repos/yahoo/react-intl/issues/24",
  "id": 63345450,
  "user": {
    "login": "ericf",
    "id": 29096,
    "avatar_url": "https://avatars.githubusercontent.com/u/29096?v=3",
    "gravatar_id": "",
    "url": "https://api.github.com/users/ericf",
    "html_url": "https://github.com/ericf",
    "followers_url": "https://api.github.com/users/ericf/followers",
    "following_url": "https://api.github.com/users/ericf/following{/other_user}",
    "gists_url": "https://api.github.com/users/ericf/gists{/gist_id}",
    "starred_url": "https://api.github.com/users/ericf/starred{/owner}{/repo}",
    "subscriptions_url": "https://api.github.com/users/ericf/subscriptions",
    "organizations_url": "https://api.github.com/users/ericf/orgs",
    "repos_url": "https://api.github.com/users/ericf/repos",
    "events_url": "https://api.github.com/users/ericf/events{/privacy}",
    "received_events_url": "https://api.github.com/users/ericf/received_events",
    "type": "User",
    "site_admin": false
  },
  "created_at": "2014-11-17T17:54:23Z",
  "updated_at": "2014-11-17T17:54:23Z",
  "body": "Things are looking good with this approach. I've refactored the FormatJS website to use the upcoming React Intl components here: https://github.com/yahoo/formatjs-site/pull/153"
}
, {
  "url": "https://api.github.com/repos/yahoo/react-intl/issues/comments/64304161",
  "html_url": "https://github.com/yahoo/react-intl/pull/24#issuecomment-64304161",
  "issue_url": "https://api.github.com/repos/yahoo/react-intl/issues/24",
  "id": 64304161,
  "user": {
    "login": "jbelcher",
    "id": 49094,
    "avatar_url": "https://avatars.githubusercontent.com/u/49094?v=3",
    "gravatar_id": "",
    "url": "https://api.github.com/users/jbelcher",
    "html_url": "https://github.com/jbelcher",
    "followers_url": "https://api.github.com/users/jbelcher/followers",
    "following_url": "https://api.github.com/users/jbelcher/following{/other_user}",
    "gists_url": "https://api.github.com/users/jbelcher/gists{/gist_id}",
    "starred_url": "https://api.github.com/users/jbelcher/starred{/owner}{/repo}",
    "subscriptions_url": "https://api.github.com/users/jbelcher/subscriptions",
    "organizations_url": "https://api.github.com/users/jbelcher/orgs",
    "repos_url": "https://api.github.com/users/jbelcher/repos",
    "events_url": "https://api.github.com/users/jbelcher/events{/privacy}",
    "received_events_url": "https://api.github.com/users/jbelcher/received_events",
    "type": "User",
    "site_admin": false
  },
  "created_at": "2014-11-25T03:11:58Z",
  "updated_at": "2014-11-25T03:12:07Z",
  "body": "@ericf is your fork in a good place to begin coding against? "
}
, {
  "url": "https://api.github.com/repos/yahoo/react-intl/issues/comments/64466366",
  "html_url": "https://github.com/yahoo/react-intl/pull/24#issuecomment-64466366",
  "issue_url": "https://api.github.com/repos/yahoo/react-intl/issues/24",
  "id": 64466366,
  "user": {
    "login": "ericf",
    "id": 29096,
    "avatar_url": "https://avatars.githubusercontent.com/u/29096?v=3",
    "gravatar_id": "",
    "url": "https://api.github.com/users/ericf",
    "html_url": "https://github.com/ericf",
    "followers_url": "https://api.github.com/users/ericf/followers",
    "following_url": "https://api.github.com/users/ericf/following{/other_user}",
    "gists_url": "https://api.github.com/users/ericf/gists{/gist_id}",
    "starred_url": "https://api.github.com/users/ericf/starred{/owner}{/repo}",
    "subscriptions_url": "https://api.github.com/users/ericf/subscriptions",
    "organizations_url": "https://api.github.com/users/ericf/orgs",
    "repos_url": "https://api.github.com/users/ericf/repos",
    "events_url": "https://api.github.com/users/ericf/events{/privacy}",
    "received_events_url": "https://api.github.com/users/ericf/received_events",
    "type": "User",
    "site_admin": false
  },
  "created_at": "2014-11-25T20:34:41Z",
  "updated_at": "2014-11-25T20:34:41Z",
  "body": "@jbelcher You could, although it might be hard to work with because you'll need to run the build, etc. But you're welcome to trying, and `npm link` will be your friend :)\r\n\r\nWe do want to get an RC release out, which will make it much easier for people to test. I'd like to get that out this week, if possible, but no promises since it's a holiday week."
}
, {
  "url": "https://api.github.com/repos/yahoo/react-intl/issues/comments/64466956",
  "html_url": "https://github.com/yahoo/react-intl/pull/24#issuecomment-64466956",
  "issue_url": "https://api.github.com/repos/yahoo/react-intl/issues/24",
  "id": 64466956,
  "user": {
    "login": "jbelcher",
    "id": 49094,
    "avatar_url": "https://avatars.githubusercontent.com/u/49094?v=3",
    "gravatar_id": "",
    "url": "https://api.github.com/users/jbelcher",
    "html_url": "https://github.com/jbelcher",
    "followers_url": "https://api.github.com/users/jbelcher/followers",
    "following_url": "https://api.github.com/users/jbelcher/following{/other_user}",
    "gists_url": "https://api.github.com/users/jbelcher/gists{/gist_id}",
    "starred_url": "https://api.github.com/users/jbelcher/starred{/owner}{/repo}",
    "subscriptions_url": "https://api.github.com/users/jbelcher/subscriptions",
    "organizations_url": "https://api.github.com/users/jbelcher/orgs",
    "repos_url": "https://api.github.com/users/jbelcher/repos",
    "events_url": "https://api.github.com/users/jbelcher/events{/privacy}",
    "received_events_url": "https://api.github.com/users/jbelcher/received_events",
    "type": "User",
    "site_admin": false
  },
  "created_at": "2014-11-25T20:38:51Z",
  "updated_at": "2014-11-25T20:38:51Z",
  "body": "@ericf Understood and thanks!"
}
]
