[
{
  "url": "https://api.github.com/repos/stripe/stripe-php/issues/comments/26450215",
  "html_url": "https://github.com/stripe/stripe-php/pull/57#issuecomment-26450215",
  "issue_url": "https://api.github.com/repos/stripe/stripe-php/issues/57",
  "id": 26450215,
  "user": {
    "login": "SlexAxton",
    "id": 96554,
    "avatar_url": "https://avatars.githubusercontent.com/u/96554?v=3",
    "gravatar_id": "",
    "url": "https://api.github.com/users/SlexAxton",
    "html_url": "https://github.com/SlexAxton",
    "followers_url": "https://api.github.com/users/SlexAxton/followers",
    "following_url": "https://api.github.com/users/SlexAxton/following{/other_user}",
    "gists_url": "https://api.github.com/users/SlexAxton/gists{/gist_id}",
    "starred_url": "https://api.github.com/users/SlexAxton/starred{/owner}{/repo}",
    "subscriptions_url": "https://api.github.com/users/SlexAxton/subscriptions",
    "organizations_url": "https://api.github.com/users/SlexAxton/orgs",
    "repos_url": "https://api.github.com/users/SlexAxton/repos",
    "events_url": "https://api.github.com/users/SlexAxton/events{/privacy}",
    "received_events_url": "https://api.github.com/users/SlexAxton/received_events",
    "type": "User",
    "site_admin": false
  },
  "created_at": "2013-10-16T19:35:35Z",
  "updated_at": "2013-10-16T19:35:35Z",
  "body": "Read through this. Seems peaceful."
}
]
