[
{
  "url": "https://api.github.com/repos/chef/opscode-omnibus/issues/comments/54703881",
  "html_url": "https://github.com/chef/opscode-omnibus/pull/446#issuecomment-54703881",
  "issue_url": "https://api.github.com/repos/chef/opscode-omnibus/issues/446",
  "id": 54703881,
  "user": {
    "login": "tylercloke",
    "id": 1899715,
    "avatar_url": "https://avatars.githubusercontent.com/u/1899715?v=3",
    "gravatar_id": "",
    "url": "https://api.github.com/users/tylercloke",
    "html_url": "https://github.com/tylercloke",
    "followers_url": "https://api.github.com/users/tylercloke/followers",
    "following_url": "https://api.github.com/users/tylercloke/following{/other_user}",
    "gists_url": "https://api.github.com/users/tylercloke/gists{/gist_id}",
    "starred_url": "https://api.github.com/users/tylercloke/starred{/owner}{/repo}",
    "subscriptions_url": "https://api.github.com/users/tylercloke/subscriptions",
    "organizations_url": "https://api.github.com/users/tylercloke/orgs",
    "repos_url": "https://api.github.com/users/tylercloke/repos",
    "events_url": "https://api.github.com/users/tylercloke/events{/privacy}",
    "received_events_url": "https://api.github.com/users/tylercloke/received_events",
    "type": "User",
    "site_admin": false
  },
  "created_at": "2014-09-06T06:11:03Z",
  "updated_at": "2014-09-06T06:11:03Z",
  "body": "LGTM"
}
, {
  "url": "https://api.github.com/repos/chef/opscode-omnibus/issues/comments/58555423",
  "html_url": "https://github.com/chef/opscode-omnibus/pull/446#issuecomment-58555423",
  "issue_url": "https://api.github.com/repos/chef/opscode-omnibus/issues/446",
  "id": 58555423,
  "user": {
    "login": "ryanerato",
    "id": 913753,
    "avatar_url": "https://avatars.githubusercontent.com/u/913753?v=3",
    "gravatar_id": "",
    "url": "https://api.github.com/users/ryanerato",
    "html_url": "https://github.com/ryanerato",
    "followers_url": "https://api.github.com/users/ryanerato/followers",
    "following_url": "https://api.github.com/users/ryanerato/following{/other_user}",
    "gists_url": "https://api.github.com/users/ryanerato/gists{/gist_id}",
    "starred_url": "https://api.github.com/users/ryanerato/starred{/owner}{/repo}",
    "subscriptions_url": "https://api.github.com/users/ryanerato/subscriptions",
    "organizations_url": "https://api.github.com/users/ryanerato/orgs",
    "repos_url": "https://api.github.com/users/ryanerato/repos",
    "events_url": "https://api.github.com/users/ryanerato/events{/privacy}",
    "received_events_url": "https://api.github.com/users/ryanerato/received_events",
    "type": "User",
    "site_admin": false
  },
  "created_at": "2014-10-09T18:30:56Z",
  "updated_at": "2014-10-09T18:30:56Z",
  "body": "I'm not sure if this is related (or the correct place to put this), but even though this change (albeit modified) appears to be in Chef server 12rc4 that I'm currently running, I am still unable to get reporting to work. I keep seeing the following errors in the logs on the frontend server:\r\n\r\n    ==> /var/log/opscode/opscode-reporting/reporting_error.log <==\r\n    2014-10-09T18:13:11.297 [error] CRASH REPORT Process <0.3001.0> with 0 neighbours exited with reason: {error,invalid_password} in gen_server:init_it/6 line 320\r\n    2014-10-09T18:13:11.297 [error] pool 'sqerl' failed to start member: {error,{error,invalid_password}}\r\n    2014-10-09T18:13:11.304 [error] Unable to start database connection: {error,invalid_password}\r\n\r\n    ==> /var/log/opscode/opscode-reporting/crash.log <==\r\n        ancestors: [pooler_sqerl_member_sup,pooler_sqerl_pool_sup,pooler_sup,<0.102.0>]\r\n        messages: []\r\n        links: [<0.106.0>]\r\n        dictionary: []\r\n        trap_exit: false\r\n        status: running\r\n        heap_size: 4181\r\n        stack_size: 24\r\n        reductions: 7120\r\n      neighbours:\r\n\r\nI'm sure I'm missing something in either the chef server configuration or the infrastructure it's sitting on, but I haven't been able to figure it out. While it doesn't prevent me from using chef server 12, any chef runs keep attempting, and retrying, to add the information to the reporting service, timing out on each request."
}
, {
  "url": "https://api.github.com/repos/chef/opscode-omnibus/issues/comments/58611057",
  "html_url": "https://github.com/chef/opscode-omnibus/pull/446#issuecomment-58611057",
  "issue_url": "https://api.github.com/repos/chef/opscode-omnibus/issues/446",
  "id": 58611057,
  "user": {
    "login": "mmzyk",
    "id": 66784,
    "avatar_url": "https://avatars.githubusercontent.com/u/66784?v=3",
    "gravatar_id": "",
    "url": "https://api.github.com/users/mmzyk",
    "html_url": "https://github.com/mmzyk",
    "followers_url": "https://api.github.com/users/mmzyk/followers",
    "following_url": "https://api.github.com/users/mmzyk/following{/other_user}",
    "gists_url": "https://api.github.com/users/mmzyk/gists{/gist_id}",
    "starred_url": "https://api.github.com/users/mmzyk/starred{/owner}{/repo}",
    "subscriptions_url": "https://api.github.com/users/mmzyk/subscriptions",
    "organizations_url": "https://api.github.com/users/mmzyk/orgs",
    "repos_url": "https://api.github.com/users/mmzyk/repos",
    "events_url": "https://api.github.com/users/mmzyk/events{/privacy}",
    "received_events_url": "https://api.github.com/users/mmzyk/received_events",
    "type": "User",
    "site_admin": false
  },
  "created_at": "2014-10-10T04:23:09Z",
  "updated_at": "2014-10-10T04:23:09Z",
  "body": "Hey @BuzzAlderaan. It's generally best to open an issue when you hit problems like this. I've taken the liberty of doing that for you in this case, so you can find the open issue here:\r\n\r\nhttps://github.com/opscode/opscode-omnibus/issues/540\r\n\r\nIt's awesome that you tracked down this PR as a reference point. It's likely we'll ask for more information from you on the issue once we've had a change to look more deeply into this. "
}
]
