[
{
  "url": "https://api.github.com/repos/mapbox/node-s2/issues/comments/49913882",
  "html_url": "https://github.com/mapbox/node-s2/issues/45#issuecomment-49913882",
  "issue_url": "https://api.github.com/repos/mapbox/node-s2/issues/45",
  "id": 49913882,
  "user": {
    "login": "tmcw",
    "id": 32314,
    "avatar_url": "https://avatars.githubusercontent.com/u/32314?v=3",
    "gravatar_id": "",
    "url": "https://api.github.com/users/tmcw",
    "html_url": "https://github.com/tmcw",
    "followers_url": "https://api.github.com/users/tmcw/followers",
    "following_url": "https://api.github.com/users/tmcw/following{/other_user}",
    "gists_url": "https://api.github.com/users/tmcw/gists{/gist_id}",
    "starred_url": "https://api.github.com/users/tmcw/starred{/owner}{/repo}",
    "subscriptions_url": "https://api.github.com/users/tmcw/subscriptions",
    "organizations_url": "https://api.github.com/users/tmcw/orgs",
    "repos_url": "https://api.github.com/users/tmcw/repos",
    "events_url": "https://api.github.com/users/tmcw/events{/privacy}",
    "received_events_url": "https://api.github.com/users/tmcw/received_events",
    "type": "User",
    "site_admin": false
  },
  "created_at": "2014-07-23T18:20:44Z",
  "updated_at": "2014-07-23T18:20:44Z",
  "body": "That would permit holes, not multipolys though. I don't think we should support multipolygons in this interface, rather we should just union polygon covers\r\n"
}
, {
  "url": "https://api.github.com/repos/mapbox/node-s2/issues/comments/49914311",
  "html_url": "https://github.com/mapbox/node-s2/issues/45#issuecomment-49914311",
  "issue_url": "https://api.github.com/repos/mapbox/node-s2/issues/45",
  "id": 49914311,
  "user": {
    "login": "morganherlocker",
    "id": 814300,
    "avatar_url": "https://avatars.githubusercontent.com/u/814300?v=3",
    "gravatar_id": "",
    "url": "https://api.github.com/users/morganherlocker",
    "html_url": "https://github.com/morganherlocker",
    "followers_url": "https://api.github.com/users/morganherlocker/followers",
    "following_url": "https://api.github.com/users/morganherlocker/following{/other_user}",
    "gists_url": "https://api.github.com/users/morganherlocker/gists{/gist_id}",
    "starred_url": "https://api.github.com/users/morganherlocker/starred{/owner}{/repo}",
    "subscriptions_url": "https://api.github.com/users/morganherlocker/subscriptions",
    "organizations_url": "https://api.github.com/users/morganherlocker/orgs",
    "repos_url": "https://api.github.com/users/morganherlocker/repos",
    "events_url": "https://api.github.com/users/morganherlocker/events{/privacy}",
    "received_events_url": "https://api.github.com/users/morganherlocker/received_events",
    "type": "User",
    "site_admin": false
  },
  "created_at": "2014-07-23T18:23:51Z",
  "updated_at": "2014-07-23T18:23:51Z",
  "body": "Whoops, I forgot multi is 4 deep."
}
, {
  "url": "https://api.github.com/repos/mapbox/node-s2/issues/comments/50074936",
  "html_url": "https://github.com/mapbox/node-s2/issues/45#issuecomment-50074936",
  "issue_url": "https://api.github.com/repos/mapbox/node-s2/issues/45",
  "id": 50074936,
  "user": {
    "login": "morganherlocker",
    "id": 814300,
    "avatar_url": "https://avatars.githubusercontent.com/u/814300?v=3",
    "gravatar_id": "",
    "url": "https://api.github.com/users/morganherlocker",
    "html_url": "https://github.com/morganherlocker",
    "followers_url": "https://api.github.com/users/morganherlocker/followers",
    "following_url": "https://api.github.com/users/morganherlocker/following{/other_user}",
    "gists_url": "https://api.github.com/users/morganherlocker/gists{/gist_id}",
    "starred_url": "https://api.github.com/users/morganherlocker/starred{/owner}{/repo}",
    "subscriptions_url": "https://api.github.com/users/morganherlocker/subscriptions",
    "organizations_url": "https://api.github.com/users/morganherlocker/orgs",
    "repos_url": "https://api.github.com/users/morganherlocker/repos",
    "events_url": "https://api.github.com/users/morganherlocker/events{/privacy}",
    "received_events_url": "https://api.github.com/users/morganherlocker/received_events",
    "type": "User",
    "site_admin": false
  },
  "created_at": "2014-07-24T20:40:54Z",
  "updated_at": "2014-07-24T20:40:54Z",
  "body": "Implemented"
}
]
