[
{
  "url": "https://api.github.com/repos/mongodb/docs-tools/issues/comments/36260009",
  "html_url": "https://github.com/mongodb/docs-tools/pull/33#issuecomment-36260009",
  "issue_url": "https://api.github.com/repos/mongodb/docs-tools/issues/33",
  "id": 36260009,
  "user": {
    "login": "tychoish",
    "id": 17534,
    "avatar_url": "https://avatars.githubusercontent.com/u/17534?v=3",
    "gravatar_id": "",
    "url": "https://api.github.com/users/tychoish",
    "html_url": "https://github.com/tychoish",
    "followers_url": "https://api.github.com/users/tychoish/followers",
    "following_url": "https://api.github.com/users/tychoish/following{/other_user}",
    "gists_url": "https://api.github.com/users/tychoish/gists{/gist_id}",
    "starred_url": "https://api.github.com/users/tychoish/starred{/owner}{/repo}",
    "subscriptions_url": "https://api.github.com/users/tychoish/subscriptions",
    "organizations_url": "https://api.github.com/users/tychoish/orgs",
    "repos_url": "https://api.github.com/users/tychoish/repos",
    "events_url": "https://api.github.com/users/tychoish/events{/privacy}",
    "received_events_url": "https://api.github.com/users/tychoish/received_events",
    "type": "User",
    "site_admin": false
  },
  "created_at": "2014-02-27T16:25:04Z",
  "updated_at": "2014-02-27T16:25:04Z",
  "body": "this is merged"
}
]
