[
{
  "url": "https://api.github.com/repos/github/hub/issues/comments/2455506",
  "html_url": "https://github.com/github/hub/issues/89#issuecomment-2455506",
  "issue_url": "https://api.github.com/repos/github/hub/issues/89",
  "id": 2455506,
  "user": {
    "login": "mislav",
    "id": 887,
    "avatar_url": "https://avatars.githubusercontent.com/u/887?v=3",
    "gravatar_id": "",
    "url": "https://api.github.com/users/mislav",
    "html_url": "https://github.com/mislav",
    "followers_url": "https://api.github.com/users/mislav/followers",
    "following_url": "https://api.github.com/users/mislav/following{/other_user}",
    "gists_url": "https://api.github.com/users/mislav/gists{/gist_id}",
    "starred_url": "https://api.github.com/users/mislav/starred{/owner}{/repo}",
    "subscriptions_url": "https://api.github.com/users/mislav/subscriptions",
    "organizations_url": "https://api.github.com/users/mislav/orgs",
    "repos_url": "https://api.github.com/users/mislav/repos",
    "events_url": "https://api.github.com/users/mislav/events{/privacy}",
    "received_events_url": "https://api.github.com/users/mislav/received_events",
    "type": "User",
    "site_admin": true
  },
  "created_at": "2011-10-19T13:19:32Z",
  "updated_at": "2011-10-19T13:19:32Z",
  "body": "I use `hub` on hub repo all the time. No problems.\r\n\r\nYou have a problem because you probably have \"./bin\" in your PATH. Yes, this is one of the reasons why you shouldn't have that in your PATH.\r\n\r\nIf I'm guessing wrong, please comment here and we'll get to the bottom of this."
}
]
