[
{
  "url": "https://api.github.com/repos/github/hub/issues/comments/150307587",
  "html_url": "https://github.com/github/hub/issues/1015#issuecomment-150307587",
  "issue_url": "https://api.github.com/repos/github/hub/issues/1015",
  "id": 150307587,
  "user": {
    "login": "mislav",
    "id": 887,
    "avatar_url": "https://avatars.githubusercontent.com/u/887?v=3",
    "gravatar_id": "",
    "url": "https://api.github.com/users/mislav",
    "html_url": "https://github.com/mislav",
    "followers_url": "https://api.github.com/users/mislav/followers",
    "following_url": "https://api.github.com/users/mislav/following{/other_user}",
    "gists_url": "https://api.github.com/users/mislav/gists{/gist_id}",
    "starred_url": "https://api.github.com/users/mislav/starred{/owner}{/repo}",
    "subscriptions_url": "https://api.github.com/users/mislav/subscriptions",
    "organizations_url": "https://api.github.com/users/mislav/orgs",
    "repos_url": "https://api.github.com/users/mislav/repos",
    "events_url": "https://api.github.com/users/mislav/events{/privacy}",
    "received_events_url": "https://api.github.com/users/mislav/received_events",
    "type": "User",
    "site_admin": true
  },
  "created_at": "2015-10-22T18:03:19Z",
  "updated_at": "2015-10-22T18:03:19Z",
  "body": "Thanks for reporting, and sorry about that! Please try again.\n"
}
, {
  "url": "https://api.github.com/repos/github/hub/issues/comments/150333088",
  "html_url": "https://github.com/github/hub/issues/1015#issuecomment-150333088",
  "issue_url": "https://api.github.com/repos/github/hub/issues/1015",
  "id": 150333088,
  "user": {
    "login": "lloydde",
    "id": 962387,
    "avatar_url": "https://avatars.githubusercontent.com/u/962387?v=3",
    "gravatar_id": "",
    "url": "https://api.github.com/users/lloydde",
    "html_url": "https://github.com/lloydde",
    "followers_url": "https://api.github.com/users/lloydde/followers",
    "following_url": "https://api.github.com/users/lloydde/following{/other_user}",
    "gists_url": "https://api.github.com/users/lloydde/gists{/gist_id}",
    "starred_url": "https://api.github.com/users/lloydde/starred{/owner}{/repo}",
    "subscriptions_url": "https://api.github.com/users/lloydde/subscriptions",
    "organizations_url": "https://api.github.com/users/lloydde/orgs",
    "repos_url": "https://api.github.com/users/lloydde/repos",
    "events_url": "https://api.github.com/users/lloydde/events{/privacy}",
    "received_events_url": "https://api.github.com/users/lloydde/received_events",
    "type": "User",
    "site_admin": false
  },
  "created_at": "2015-10-22T19:37:20Z",
  "updated_at": "2015-10-22T19:37:20Z",
  "body": "Verified resolved. Thank you @mislav."
}
]
