[
{
  "url": "https://api.github.com/repos/github/hub/issues/comments/143470147",
  "html_url": "https://github.com/github/hub/pull/843#issuecomment-143470147",
  "issue_url": "https://api.github.com/repos/github/hub/issues/843",
  "id": 143470147,
  "user": {
    "login": "mislav",
    "id": 887,
    "avatar_url": "https://avatars.githubusercontent.com/u/887?v=3",
    "gravatar_id": "",
    "url": "https://api.github.com/users/mislav",
    "html_url": "https://github.com/mislav",
    "followers_url": "https://api.github.com/users/mislav/followers",
    "following_url": "https://api.github.com/users/mislav/following{/other_user}",
    "gists_url": "https://api.github.com/users/mislav/gists{/gist_id}",
    "starred_url": "https://api.github.com/users/mislav/starred{/owner}{/repo}",
    "subscriptions_url": "https://api.github.com/users/mislav/subscriptions",
    "organizations_url": "https://api.github.com/users/mislav/orgs",
    "repos_url": "https://api.github.com/users/mislav/repos",
    "events_url": "https://api.github.com/users/mislav/events{/privacy}",
    "received_events_url": "https://api.github.com/users/mislav/received_events",
    "type": "User",
    "site_admin": true
  },
  "created_at": "2015-09-26T17:05:43Z",
  "updated_at": "2015-09-26T17:05:43Z",
  "body": "Hi, thanks for your attempt to fix this and sorry for the late reply. This only takes care of Ubuntu and probably doesn't cover other bash completion locations if bash lazy completion loading is enabled. Unfortunately, we'll need a more comprehensive solution than this. It would be ideal if we could just tell bash \"load completions for `git` if they haven't loaded yet.\""
}
]
