[
{
  "url": "https://api.github.com/repos/mapbox/mapbox-ios-sdk-legacy/issues/comments/6023770",
  "html_url": "https://github.com/mapbox/mapbox-ios-sdk-legacy/issues/34#issuecomment-6023770",
  "issue_url": "https://api.github.com/repos/mapbox/mapbox-ios-sdk-legacy/issues/34",
  "id": 6023770,
  "user": {
    "login": "incanus",
    "id": 17722,
    "avatar_url": "https://avatars.githubusercontent.com/u/17722?v=3",
    "gravatar_id": "",
    "url": "https://api.github.com/users/incanus",
    "html_url": "https://github.com/incanus",
    "followers_url": "https://api.github.com/users/incanus/followers",
    "following_url": "https://api.github.com/users/incanus/following{/other_user}",
    "gists_url": "https://api.github.com/users/incanus/gists{/gist_id}",
    "starred_url": "https://api.github.com/users/incanus/starred{/owner}{/repo}",
    "subscriptions_url": "https://api.github.com/users/incanus/subscriptions",
    "organizations_url": "https://api.github.com/users/incanus/orgs",
    "repos_url": "https://api.github.com/users/incanus/repos",
    "events_url": "https://api.github.com/users/incanus/events{/privacy}",
    "received_events_url": "https://api.github.com/users/incanus/received_events",
    "type": "User",
    "site_admin": false
  },
  "created_at": "2012-05-30T22:48:11Z",
  "updated_at": "2012-05-30T22:48:11Z",
  "body": "This is done in 19fa710ae2cc6fe5f19eaff44ed4692a597de81b. "
}
]
