[
{
  "url": "https://api.github.com/repos/owncloud/core/issues/comments/102955905",
  "html_url": "https://github.com/owncloud/core/issues/16388#issuecomment-102955905",
  "issue_url": "https://api.github.com/repos/owncloud/core/issues/16388",
  "id": 102955905,
  "user": {
    "login": "PVince81",
    "id": 277525,
    "avatar_url": "https://avatars.githubusercontent.com/u/277525?v=3",
    "gravatar_id": "",
    "url": "https://api.github.com/users/PVince81",
    "html_url": "https://github.com/PVince81",
    "followers_url": "https://api.github.com/users/PVince81/followers",
    "following_url": "https://api.github.com/users/PVince81/following{/other_user}",
    "gists_url": "https://api.github.com/users/PVince81/gists{/gist_id}",
    "starred_url": "https://api.github.com/users/PVince81/starred{/owner}{/repo}",
    "subscriptions_url": "https://api.github.com/users/PVince81/subscriptions",
    "organizations_url": "https://api.github.com/users/PVince81/orgs",
    "repos_url": "https://api.github.com/users/PVince81/repos",
    "events_url": "https://api.github.com/users/PVince81/events{/privacy}",
    "received_events_url": "https://api.github.com/users/PVince81/received_events",
    "type": "User",
    "site_admin": false
  },
  "created_at": "2015-05-18T08:02:44Z",
  "updated_at": "2015-05-18T08:02:44Z",
  "body": "@schiesbn @th3fallen "
}
, {
  "url": "https://api.github.com/repos/owncloud/core/issues/comments/103463282",
  "html_url": "https://github.com/owncloud/core/issues/16388#issuecomment-103463282",
  "issue_url": "https://api.github.com/repos/owncloud/core/issues/16388",
  "id": 103463282,
  "user": {
    "login": "VincentvgNn",
    "id": 7522929,
    "avatar_url": "https://avatars.githubusercontent.com/u/7522929?v=3",
    "gravatar_id": "",
    "url": "https://api.github.com/users/VincentvgNn",
    "html_url": "https://github.com/VincentvgNn",
    "followers_url": "https://api.github.com/users/VincentvgNn/followers",
    "following_url": "https://api.github.com/users/VincentvgNn/following{/other_user}",
    "gists_url": "https://api.github.com/users/VincentvgNn/gists{/gist_id}",
    "starred_url": "https://api.github.com/users/VincentvgNn/starred{/owner}{/repo}",
    "subscriptions_url": "https://api.github.com/users/VincentvgNn/subscriptions",
    "organizations_url": "https://api.github.com/users/VincentvgNn/orgs",
    "repos_url": "https://api.github.com/users/VincentvgNn/repos",
    "events_url": "https://api.github.com/users/VincentvgNn/events{/privacy}",
    "received_events_url": "https://api.github.com/users/VincentvgNn/received_events",
    "type": "User",
    "site_admin": false
  },
  "created_at": "2015-05-19T12:11:41Z",
  "updated_at": "2015-05-19T12:11:41Z",
  "body": "This bug could be the result of the latest decision at #11395\r\n"
}
, {
  "url": "https://api.github.com/repos/owncloud/core/issues/comments/105433705",
  "html_url": "https://github.com/owncloud/core/issues/16388#issuecomment-105433705",
  "issue_url": "https://api.github.com/repos/owncloud/core/issues/16388",
  "id": 105433705,
  "user": {
    "login": "schiesbn",
    "id": 1589737,
    "avatar_url": "https://avatars.githubusercontent.com/u/1589737?v=3",
    "gravatar_id": "",
    "url": "https://api.github.com/users/schiesbn",
    "html_url": "https://github.com/schiesbn",
    "followers_url": "https://api.github.com/users/schiesbn/followers",
    "following_url": "https://api.github.com/users/schiesbn/following{/other_user}",
    "gists_url": "https://api.github.com/users/schiesbn/gists{/gist_id}",
    "starred_url": "https://api.github.com/users/schiesbn/starred{/owner}{/repo}",
    "subscriptions_url": "https://api.github.com/users/schiesbn/subscriptions",
    "organizations_url": "https://api.github.com/users/schiesbn/orgs",
    "repos_url": "https://api.github.com/users/schiesbn/repos",
    "events_url": "https://api.github.com/users/schiesbn/events{/privacy}",
    "received_events_url": "https://api.github.com/users/schiesbn/received_events",
    "type": "User",
    "site_admin": false
  },
  "created_at": "2015-05-26T08:00:08Z",
  "updated_at": "2015-05-26T08:00:08Z",
  "body": "> When the encryption app is on and a user resets his password, all files cannot be red anymore.\r\nThe system does not ask for the recovery password that has been set before.\r\nLogin with the new password works, but it looks as if all files did not get the right updated keys.\r\n\r\nThat's by purpose because you, the user, typically don't know the recovery password but only the admin. So it doesn't make sense to ask for the recovery key password on the \"reset password\" page. What the admin needs to do in order to recover the users files:\r\n\r\n- go to the user management\r\n- enter the recovery key\r\n- change the password of the user who lost his password.\r\n\r\n-> the user should be able to login with the new password and access his files again"
}
]
