[
{
  "url": "https://api.github.com/repos/owncloud/core/issues/comments/152188675",
  "html_url": "https://github.com/owncloud/core/pull/20136#issuecomment-152188675",
  "issue_url": "https://api.github.com/repos/owncloud/core/issues/20136",
  "id": 152188675,
  "user": {
    "login": "DeepDiver1975",
    "id": 1005065,
    "avatar_url": "https://avatars.githubusercontent.com/u/1005065?v=3",
    "gravatar_id": "",
    "url": "https://api.github.com/users/DeepDiver1975",
    "html_url": "https://github.com/DeepDiver1975",
    "followers_url": "https://api.github.com/users/DeepDiver1975/followers",
    "following_url": "https://api.github.com/users/DeepDiver1975/following{/other_user}",
    "gists_url": "https://api.github.com/users/DeepDiver1975/gists{/gist_id}",
    "starred_url": "https://api.github.com/users/DeepDiver1975/starred{/owner}{/repo}",
    "subscriptions_url": "https://api.github.com/users/DeepDiver1975/subscriptions",
    "organizations_url": "https://api.github.com/users/DeepDiver1975/orgs",
    "repos_url": "https://api.github.com/users/DeepDiver1975/repos",
    "events_url": "https://api.github.com/users/DeepDiver1975/events{/privacy}",
    "received_events_url": "https://api.github.com/users/DeepDiver1975/received_events",
    "type": "User",
    "site_admin": false
  },
  "created_at": "2015-10-29T13:57:01Z",
  "updated_at": "2015-10-29T13:57:01Z",
  "body": "why close? Please allow me to take the time to see if this works :wink: \r\n\r\nPull request tracking was disabled in scrutinizer - just reenabled ...."
}
, {
  "url": "https://api.github.com/repos/owncloud/core/issues/comments/152188990",
  "html_url": "https://github.com/owncloud/core/pull/20136#issuecomment-152188990",
  "issue_url": "https://api.github.com/repos/owncloud/core/issues/20136",
  "id": 152188990,
  "user": {
    "login": "LukasReschke",
    "id": 878997,
    "avatar_url": "https://avatars.githubusercontent.com/u/878997?v=3",
    "gravatar_id": "",
    "url": "https://api.github.com/users/LukasReschke",
    "html_url": "https://github.com/LukasReschke",
    "followers_url": "https://api.github.com/users/LukasReschke/followers",
    "following_url": "https://api.github.com/users/LukasReschke/following{/other_user}",
    "gists_url": "https://api.github.com/users/LukasReschke/gists{/gist_id}",
    "starred_url": "https://api.github.com/users/LukasReschke/starred{/owner}{/repo}",
    "subscriptions_url": "https://api.github.com/users/LukasReschke/subscriptions",
    "organizations_url": "https://api.github.com/users/LukasReschke/orgs",
    "repos_url": "https://api.github.com/users/LukasReschke/repos",
    "events_url": "https://api.github.com/users/LukasReschke/events{/privacy}",
    "received_events_url": "https://api.github.com/users/LukasReschke/received_events",
    "type": "User",
    "site_admin": false
  },
  "created_at": "2015-10-29T13:58:11Z",
  "updated_at": "2015-10-29T13:58:11Z",
  "body": "Did fail at https://scrutinizer-ci.com/g/owncloud/core/inspections/37dcd771-5286-408d-b602-39d5bd1d7b9e as far I get.\r\n\r\nThat said, there is https://github.com/owncloud/core/pull/20149 now."
}
, {
  "url": "https://api.github.com/repos/owncloud/core/issues/comments/152193388",
  "html_url": "https://github.com/owncloud/core/pull/20136#issuecomment-152193388",
  "issue_url": "https://api.github.com/repos/owncloud/core/issues/20136",
  "id": 152193388,
  "user": {
    "login": "DeepDiver1975",
    "id": 1005065,
    "avatar_url": "https://avatars.githubusercontent.com/u/1005065?v=3",
    "gravatar_id": "",
    "url": "https://api.github.com/users/DeepDiver1975",
    "html_url": "https://github.com/DeepDiver1975",
    "followers_url": "https://api.github.com/users/DeepDiver1975/followers",
    "following_url": "https://api.github.com/users/DeepDiver1975/following{/other_user}",
    "gists_url": "https://api.github.com/users/DeepDiver1975/gists{/gist_id}",
    "starred_url": "https://api.github.com/users/DeepDiver1975/starred{/owner}{/repo}",
    "subscriptions_url": "https://api.github.com/users/DeepDiver1975/subscriptions",
    "organizations_url": "https://api.github.com/users/DeepDiver1975/orgs",
    "repos_url": "https://api.github.com/users/DeepDiver1975/repos",
    "events_url": "https://api.github.com/users/DeepDiver1975/events{/privacy}",
    "received_events_url": "https://api.github.com/users/DeepDiver1975/received_events",
    "type": "User",
    "site_admin": false
  },
  "created_at": "2015-10-29T14:14:55Z",
  "updated_at": "2015-10-29T14:14:55Z",
  "body": "> That said, there is #20149 now.\r\n\r\nok - thx - let's see ..."
}
]
