[
{
  "url": "https://api.github.com/repos/owncloud/core/issues/comments/98503482",
  "html_url": "https://github.com/owncloud/core/issues/16016#issuecomment-98503482",
  "issue_url": "https://api.github.com/repos/owncloud/core/issues/16016",
  "id": 98503482,
  "user": {
    "login": "DeepDiver1975",
    "id": 1005065,
    "avatar_url": "https://avatars.githubusercontent.com/u/1005065?v=3",
    "gravatar_id": "",
    "url": "https://api.github.com/users/DeepDiver1975",
    "html_url": "https://github.com/DeepDiver1975",
    "followers_url": "https://api.github.com/users/DeepDiver1975/followers",
    "following_url": "https://api.github.com/users/DeepDiver1975/following{/other_user}",
    "gists_url": "https://api.github.com/users/DeepDiver1975/gists{/gist_id}",
    "starred_url": "https://api.github.com/users/DeepDiver1975/starred{/owner}{/repo}",
    "subscriptions_url": "https://api.github.com/users/DeepDiver1975/subscriptions",
    "organizations_url": "https://api.github.com/users/DeepDiver1975/orgs",
    "repos_url": "https://api.github.com/users/DeepDiver1975/repos",
    "events_url": "https://api.github.com/users/DeepDiver1975/events{/privacy}",
    "received_events_url": "https://api.github.com/users/DeepDiver1975/received_events",
    "type": "User",
    "site_admin": false
  },
  "created_at": "2015-05-03T16:49:52Z",
  "updated_at": "2015-05-03T16:49:52Z",
  "body": "@icewind1991 can you please have a look? THX"
}
, {
  "url": "https://api.github.com/repos/owncloud/core/issues/comments/99592961",
  "html_url": "https://github.com/owncloud/core/issues/16016#issuecomment-99592961",
  "issue_url": "https://api.github.com/repos/owncloud/core/issues/16016",
  "id": 99592961,
  "user": {
    "login": "cmonteroluque",
    "id": 879976,
    "avatar_url": "https://avatars.githubusercontent.com/u/879976?v=3",
    "gravatar_id": "",
    "url": "https://api.github.com/users/cmonteroluque",
    "html_url": "https://github.com/cmonteroluque",
    "followers_url": "https://api.github.com/users/cmonteroluque/followers",
    "following_url": "https://api.github.com/users/cmonteroluque/following{/other_user}",
    "gists_url": "https://api.github.com/users/cmonteroluque/gists{/gist_id}",
    "starred_url": "https://api.github.com/users/cmonteroluque/starred{/owner}{/repo}",
    "subscriptions_url": "https://api.github.com/users/cmonteroluque/subscriptions",
    "organizations_url": "https://api.github.com/users/cmonteroluque/orgs",
    "repos_url": "https://api.github.com/users/cmonteroluque/repos",
    "events_url": "https://api.github.com/users/cmonteroluque/events{/privacy}",
    "received_events_url": "https://api.github.com/users/cmonteroluque/received_events",
    "type": "User",
    "site_admin": false
  },
  "created_at": "2015-05-06T20:15:19Z",
  "updated_at": "2015-05-06T20:15:19Z",
  "body": "@icewind1991 ping"
}
, {
  "url": "https://api.github.com/repos/owncloud/core/issues/comments/99838199",
  "html_url": "https://github.com/owncloud/core/issues/16016#issuecomment-99838199",
  "issue_url": "https://api.github.com/repos/owncloud/core/issues/16016",
  "id": 99838199,
  "user": {
    "login": "icewind1991",
    "id": 1283854,
    "avatar_url": "https://avatars.githubusercontent.com/u/1283854?v=3",
    "gravatar_id": "",
    "url": "https://api.github.com/users/icewind1991",
    "html_url": "https://github.com/icewind1991",
    "followers_url": "https://api.github.com/users/icewind1991/followers",
    "following_url": "https://api.github.com/users/icewind1991/following{/other_user}",
    "gists_url": "https://api.github.com/users/icewind1991/gists{/gist_id}",
    "starred_url": "https://api.github.com/users/icewind1991/starred{/owner}{/repo}",
    "subscriptions_url": "https://api.github.com/users/icewind1991/subscriptions",
    "organizations_url": "https://api.github.com/users/icewind1991/orgs",
    "repos_url": "https://api.github.com/users/icewind1991/repos",
    "events_url": "https://api.github.com/users/icewind1991/events{/privacy}",
    "received_events_url": "https://api.github.com/users/icewind1991/received_events",
    "type": "User",
    "site_admin": false
  },
  "created_at": "2015-05-07T12:08:52Z",
  "updated_at": "2015-05-07T12:08:52Z",
  "body": "Fix here: #16158"
}
]
