[
{
  "url": "https://api.github.com/repos/owncloud/core/issues/comments/13943635",
  "html_url": "https://github.com/owncloud/core/issues/1817#issuecomment-13943635",
  "issue_url": "https://api.github.com/repos/owncloud/core/issues/1817",
  "id": 13943635,
  "user": {
    "login": "LukasReschke",
    "id": 878997,
    "avatar_url": "https://avatars.githubusercontent.com/u/878997?v=3",
    "gravatar_id": "",
    "url": "https://api.github.com/users/LukasReschke",
    "html_url": "https://github.com/LukasReschke",
    "followers_url": "https://api.github.com/users/LukasReschke/followers",
    "following_url": "https://api.github.com/users/LukasReschke/following{/other_user}",
    "gists_url": "https://api.github.com/users/LukasReschke/gists{/gist_id}",
    "starred_url": "https://api.github.com/users/LukasReschke/starred{/owner}{/repo}",
    "subscriptions_url": "https://api.github.com/users/LukasReschke/subscriptions",
    "organizations_url": "https://api.github.com/users/LukasReschke/orgs",
    "repos_url": "https://api.github.com/users/LukasReschke/repos",
    "events_url": "https://api.github.com/users/LukasReschke/events{/privacy}",
    "received_events_url": "https://api.github.com/users/LukasReschke/received_events",
    "type": "User",
    "site_admin": false
  },
  "created_at": "2013-02-22T13:40:07Z",
  "updated_at": "2013-02-22T13:40:07Z",
  "body": "@icewind1991 I assume you know more ;-)"
}
, {
  "url": "https://api.github.com/repos/owncloud/core/issues/comments/13943637",
  "html_url": "https://github.com/owncloud/core/issues/1817#issuecomment-13943637",
  "issue_url": "https://api.github.com/repos/owncloud/core/issues/1817",
  "id": 13943637,
  "user": {
    "login": "quidam",
    "id": 339391,
    "avatar_url": "https://avatars.githubusercontent.com/u/339391?v=3",
    "gravatar_id": "",
    "url": "https://api.github.com/users/quidam",
    "html_url": "https://github.com/quidam",
    "followers_url": "https://api.github.com/users/quidam/followers",
    "following_url": "https://api.github.com/users/quidam/following{/other_user}",
    "gists_url": "https://api.github.com/users/quidam/gists{/gist_id}",
    "starred_url": "https://api.github.com/users/quidam/starred{/owner}{/repo}",
    "subscriptions_url": "https://api.github.com/users/quidam/subscriptions",
    "organizations_url": "https://api.github.com/users/quidam/orgs",
    "repos_url": "https://api.github.com/users/quidam/repos",
    "events_url": "https://api.github.com/users/quidam/events{/privacy}",
    "received_events_url": "https://api.github.com/users/quidam/received_events",
    "type": "User",
    "site_admin": false
  },
  "created_at": "2013-02-22T13:40:09Z",
  "updated_at": "2013-02-22T13:40:09Z",
  "body": "The solution is to change isFileBlacklisted to isBlacklisted on line 329 of file lib/helper.php"
}
, {
  "url": "https://api.github.com/repos/owncloud/core/issues/comments/14247856",
  "html_url": "https://github.com/owncloud/core/issues/1817#issuecomment-14247856",
  "issue_url": "https://api.github.com/repos/owncloud/core/issues/1817",
  "id": 14247856,
  "user": {
    "login": "Happyfeet01",
    "id": 3295104,
    "avatar_url": "https://avatars.githubusercontent.com/u/3295104?v=3",
    "gravatar_id": "",
    "url": "https://api.github.com/users/Happyfeet01",
    "html_url": "https://github.com/Happyfeet01",
    "followers_url": "https://api.github.com/users/Happyfeet01/followers",
    "following_url": "https://api.github.com/users/Happyfeet01/following{/other_user}",
    "gists_url": "https://api.github.com/users/Happyfeet01/gists{/gist_id}",
    "starred_url": "https://api.github.com/users/Happyfeet01/starred{/owner}{/repo}",
    "subscriptions_url": "https://api.github.com/users/Happyfeet01/subscriptions",
    "organizations_url": "https://api.github.com/users/Happyfeet01/orgs",
    "repos_url": "https://api.github.com/users/Happyfeet01/repos",
    "events_url": "https://api.github.com/users/Happyfeet01/events{/privacy}",
    "received_events_url": "https://api.github.com/users/Happyfeet01/received_events",
    "type": "User",
    "site_admin": false
  },
  "created_at": "2013-02-28T18:14:05Z",
  "updated_at": "2013-02-28T18:14:05Z",
  "body": "i have Download all Apps and 3rd Party Apps over Github and it works."
}
]
