[
{
  "url": "https://api.github.com/repos/owncloud/core/issues/comments/25072246",
  "html_url": "https://github.com/owncloud/core/issues/4985#issuecomment-25072246",
  "issue_url": "https://api.github.com/repos/owncloud/core/issues/4985",
  "id": 25072246,
  "user": {
    "login": "vasyugan",
    "id": 3313208,
    "avatar_url": "https://avatars.githubusercontent.com/u/3313208?v=3",
    "gravatar_id": "",
    "url": "https://api.github.com/users/vasyugan",
    "html_url": "https://github.com/vasyugan",
    "followers_url": "https://api.github.com/users/vasyugan/followers",
    "following_url": "https://api.github.com/users/vasyugan/following{/other_user}",
    "gists_url": "https://api.github.com/users/vasyugan/gists{/gist_id}",
    "starred_url": "https://api.github.com/users/vasyugan/starred{/owner}{/repo}",
    "subscriptions_url": "https://api.github.com/users/vasyugan/subscriptions",
    "organizations_url": "https://api.github.com/users/vasyugan/orgs",
    "repos_url": "https://api.github.com/users/vasyugan/repos",
    "events_url": "https://api.github.com/users/vasyugan/events{/privacy}",
    "received_events_url": "https://api.github.com/users/vasyugan/received_events",
    "type": "User",
    "site_admin": false
  },
  "created_at": "2013-09-25T09:18:05Z",
  "updated_at": "2013-09-25T09:18:05Z",
  "body": "I also see Owncloud complaining about the Open_basedir restriction being in place. Clearly, owncloud fails to download the app archive. Could this be related?"
}
, {
  "url": "https://api.github.com/repos/owncloud/core/issues/comments/25073379",
  "html_url": "https://github.com/owncloud/core/issues/4985#issuecomment-25073379",
  "issue_url": "https://api.github.com/repos/owncloud/core/issues/4985",
  "id": 25073379,
  "user": {
    "login": "RealRancor",
    "id": 2248459,
    "avatar_url": "https://avatars.githubusercontent.com/u/2248459?v=3",
    "gravatar_id": "",
    "url": "https://api.github.com/users/RealRancor",
    "html_url": "https://github.com/RealRancor",
    "followers_url": "https://api.github.com/users/RealRancor/followers",
    "following_url": "https://api.github.com/users/RealRancor/following{/other_user}",
    "gists_url": "https://api.github.com/users/RealRancor/gists{/gist_id}",
    "starred_url": "https://api.github.com/users/RealRancor/starred{/owner}{/repo}",
    "subscriptions_url": "https://api.github.com/users/RealRancor/subscriptions",
    "organizations_url": "https://api.github.com/users/RealRancor/orgs",
    "repos_url": "https://api.github.com/users/RealRancor/repos",
    "events_url": "https://api.github.com/users/RealRancor/events{/privacy}",
    "received_events_url": "https://api.github.com/users/RealRancor/received_events",
    "type": "User",
    "site_admin": false
  },
  "created_at": "2013-09-25T09:40:02Z",
  "updated_at": "2013-09-25T09:40:02Z",
  "body": "Hi,\r\n\r\nthere is a larger thread available on the forums containing some workarounds on how to fix such app installation problems:\r\n\r\nhttps://forum.owncloud.org/viewtopic.php?f=17&t=7739\r\n\r\nMaybe you can find some infos in this thread on how to fix this."
}
, {
  "url": "https://api.github.com/repos/owncloud/core/issues/comments/27645861",
  "html_url": "https://github.com/owncloud/core/issues/4985#issuecomment-27645861",
  "issue_url": "https://api.github.com/repos/owncloud/core/issues/4985",
  "id": 27645861,
  "user": {
    "login": "boriel",
    "id": 1433137,
    "avatar_url": "https://avatars.githubusercontent.com/u/1433137?v=3",
    "gravatar_id": "",
    "url": "https://api.github.com/users/boriel",
    "html_url": "https://github.com/boriel",
    "followers_url": "https://api.github.com/users/boriel/followers",
    "following_url": "https://api.github.com/users/boriel/following{/other_user}",
    "gists_url": "https://api.github.com/users/boriel/gists{/gist_id}",
    "starred_url": "https://api.github.com/users/boriel/starred{/owner}{/repo}",
    "subscriptions_url": "https://api.github.com/users/boriel/subscriptions",
    "organizations_url": "https://api.github.com/users/boriel/orgs",
    "repos_url": "https://api.github.com/users/boriel/repos",
    "events_url": "https://api.github.com/users/boriel/events{/privacy}",
    "received_events_url": "https://api.github.com/users/boriel/received_events",
    "type": "User",
    "site_admin": false
  },
  "created_at": "2013-11-03T14:48:14Z",
  "updated_at": "2013-11-03T15:00:26Z",
  "body": "I suspect this is related to installing owncloud behind a proxy.\r\nStarting from owncloud 5.0.2 the configuration \r\n'proxy' = 'www.myproxy.org:3128' in config/config.php seems to work, but only for http connections.\r\nMany plugins are using https:// connections and are not being proxy (e.g. those from github). \r\nCan anybody else checked this?\r\nEDIT: I always get a timeout error, and then\r\n{\"app\":\"core\",\"message\":\"Archives of type application\\/x-empty are not supported\",\"level\":3,\"time\":\"2013-09-25T09:06:45+00:00\"}"
}
, {
  "url": "https://api.github.com/repos/owncloud/core/issues/comments/36115856",
  "html_url": "https://github.com/owncloud/core/issues/4985#issuecomment-36115856",
  "issue_url": "https://api.github.com/repos/owncloud/core/issues/4985",
  "id": 36115856,
  "user": {
    "login": "jancborchardt",
    "id": 925062,
    "avatar_url": "https://avatars.githubusercontent.com/u/925062?v=3",
    "gravatar_id": "",
    "url": "https://api.github.com/users/jancborchardt",
    "html_url": "https://github.com/jancborchardt",
    "followers_url": "https://api.github.com/users/jancborchardt/followers",
    "following_url": "https://api.github.com/users/jancborchardt/following{/other_user}",
    "gists_url": "https://api.github.com/users/jancborchardt/gists{/gist_id}",
    "starred_url": "https://api.github.com/users/jancborchardt/starred{/owner}{/repo}",
    "subscriptions_url": "https://api.github.com/users/jancborchardt/subscriptions",
    "organizations_url": "https://api.github.com/users/jancborchardt/orgs",
    "repos_url": "https://api.github.com/users/jancborchardt/repos",
    "events_url": "https://api.github.com/users/jancborchardt/events{/privacy}",
    "received_events_url": "https://api.github.com/users/jancborchardt/received_events",
    "type": "User",
    "site_admin": false
  },
  "created_at": "2014-02-26T11:30:05Z",
  "updated_at": "2014-02-26T11:30:05Z",
  "body": "I’m closing this issue because it has been inactive for a few months. This probably means that the issue is not reproducible or it has been fixed in a newer version.\r\n\r\nPlease reopen if you still encounter this issue with the [latest stable version](http://owncloud.org/install/) and then please use the [issue template](https://raw.github.com/owncloud/core/master/issue_template.md). You an also contribute directly by providing a patch – see the [developer manual](http://doc.owncloud.org/server/6.0/developer_manual/). :)\r\n\r\nThank you!"
}
, {
  "url": "https://api.github.com/repos/owncloud/core/issues/comments/36419298",
  "html_url": "https://github.com/owncloud/core/issues/4985#issuecomment-36419298",
  "issue_url": "https://api.github.com/repos/owncloud/core/issues/4985",
  "id": 36419298,
  "user": {
    "login": "scarleo",
    "id": 1687844,
    "avatar_url": "https://avatars.githubusercontent.com/u/1687844?v=3",
    "gravatar_id": "",
    "url": "https://api.github.com/users/scarleo",
    "html_url": "https://github.com/scarleo",
    "followers_url": "https://api.github.com/users/scarleo/followers",
    "following_url": "https://api.github.com/users/scarleo/following{/other_user}",
    "gists_url": "https://api.github.com/users/scarleo/gists{/gist_id}",
    "starred_url": "https://api.github.com/users/scarleo/starred{/owner}{/repo}",
    "subscriptions_url": "https://api.github.com/users/scarleo/subscriptions",
    "organizations_url": "https://api.github.com/users/scarleo/orgs",
    "repos_url": "https://api.github.com/users/scarleo/repos",
    "events_url": "https://api.github.com/users/scarleo/events{/privacy}",
    "received_events_url": "https://api.github.com/users/scarleo/received_events",
    "type": "User",
    "site_admin": false
  },
  "created_at": "2014-03-01T08:13:43Z",
  "updated_at": "2014-03-01T08:13:43Z",
  "body": "I'm having this problem in a 6.0.1 installation, open_basedir turned off so it's not really resolved"
}
, {
  "url": "https://api.github.com/repos/owncloud/core/issues/comments/36419472",
  "html_url": "https://github.com/owncloud/core/issues/4985#issuecomment-36419472",
  "issue_url": "https://api.github.com/repos/owncloud/core/issues/4985",
  "id": 36419472,
  "user": {
    "login": "scarleo",
    "id": 1687844,
    "avatar_url": "https://avatars.githubusercontent.com/u/1687844?v=3",
    "gravatar_id": "",
    "url": "https://api.github.com/users/scarleo",
    "html_url": "https://github.com/scarleo",
    "followers_url": "https://api.github.com/users/scarleo/followers",
    "following_url": "https://api.github.com/users/scarleo/following{/other_user}",
    "gists_url": "https://api.github.com/users/scarleo/gists{/gist_id}",
    "starred_url": "https://api.github.com/users/scarleo/starred{/owner}{/repo}",
    "subscriptions_url": "https://api.github.com/users/scarleo/subscriptions",
    "organizations_url": "https://api.github.com/users/scarleo/orgs",
    "repos_url": "https://api.github.com/users/scarleo/repos",
    "events_url": "https://api.github.com/users/scarleo/events{/privacy}",
    "received_events_url": "https://api.github.com/users/scarleo/received_events",
    "type": "User",
    "site_admin": false
  },
  "created_at": "2014-03-01T08:26:27Z",
  "updated_at": "2014-03-01T08:26:27Z",
  "body": "Ok, fixed it: allow_url_fopen=off just turn that on and it works great"
}
]
