[
{
  "url": "https://api.github.com/repos/owncloud/core/issues/comments/122842335",
  "html_url": "https://github.com/owncloud/core/issues/17740#issuecomment-122842335",
  "issue_url": "https://api.github.com/repos/owncloud/core/issues/17740",
  "id": 122842335,
  "user": {
    "login": "DeepDiver1975",
    "id": 1005065,
    "avatar_url": "https://avatars.githubusercontent.com/u/1005065?v=3",
    "gravatar_id": "",
    "url": "https://api.github.com/users/DeepDiver1975",
    "html_url": "https://github.com/DeepDiver1975",
    "followers_url": "https://api.github.com/users/DeepDiver1975/followers",
    "following_url": "https://api.github.com/users/DeepDiver1975/following{/other_user}",
    "gists_url": "https://api.github.com/users/DeepDiver1975/gists{/gist_id}",
    "starred_url": "https://api.github.com/users/DeepDiver1975/starred{/owner}{/repo}",
    "subscriptions_url": "https://api.github.com/users/DeepDiver1975/subscriptions",
    "organizations_url": "https://api.github.com/users/DeepDiver1975/orgs",
    "repos_url": "https://api.github.com/users/DeepDiver1975/repos",
    "events_url": "https://api.github.com/users/DeepDiver1975/events{/privacy}",
    "received_events_url": "https://api.github.com/users/DeepDiver1975/received_events",
    "type": "User",
    "site_admin": false
  },
  "created_at": "2015-07-20T10:28:04Z",
  "updated_at": "2015-07-20T10:28:04Z",
  "body": "Works for me.\r\n\r\n@Ninos Any errors in the browser console or in data/owncloud.log? THX"
}
, {
  "url": "https://api.github.com/repos/owncloud/core/issues/comments/122871451",
  "html_url": "https://github.com/owncloud/core/issues/17740#issuecomment-122871451",
  "issue_url": "https://api.github.com/repos/owncloud/core/issues/17740",
  "id": 122871451,
  "user": {
    "login": "nickvergessen",
    "id": 213943,
    "avatar_url": "https://avatars.githubusercontent.com/u/213943?v=3",
    "gravatar_id": "",
    "url": "https://api.github.com/users/nickvergessen",
    "html_url": "https://github.com/nickvergessen",
    "followers_url": "https://api.github.com/users/nickvergessen/followers",
    "following_url": "https://api.github.com/users/nickvergessen/following{/other_user}",
    "gists_url": "https://api.github.com/users/nickvergessen/gists{/gist_id}",
    "starred_url": "https://api.github.com/users/nickvergessen/starred{/owner}{/repo}",
    "subscriptions_url": "https://api.github.com/users/nickvergessen/subscriptions",
    "organizations_url": "https://api.github.com/users/nickvergessen/orgs",
    "repos_url": "https://api.github.com/users/nickvergessen/repos",
    "events_url": "https://api.github.com/users/nickvergessen/events{/privacy}",
    "received_events_url": "https://api.github.com/users/nickvergessen/received_events",
    "type": "User",
    "site_admin": false
  },
  "created_at": "2015-07-20T12:38:01Z",
  "updated_at": "2015-07-20T12:38:01Z",
  "body": "Please use:\r\nhttps://raw.githubusercontent.com/owncloud/core/master/issue_template.md\r\n\r\nwas it \"Das Passwort konnte nicht geändert werden. Vielleicht war das alte Passwort falsch.\"?\r\n\r\nThe exact string helps to find the place that fails."
}
, {
  "url": "https://api.github.com/repos/owncloud/core/issues/comments/123033778",
  "html_url": "https://github.com/owncloud/core/issues/17740#issuecomment-123033778",
  "issue_url": "https://api.github.com/repos/owncloud/core/issues/17740",
  "id": 123033778,
  "user": {
    "login": "Ninos",
    "id": 1012403,
    "avatar_url": "https://avatars.githubusercontent.com/u/1012403?v=3",
    "gravatar_id": "",
    "url": "https://api.github.com/users/Ninos",
    "html_url": "https://github.com/Ninos",
    "followers_url": "https://api.github.com/users/Ninos/followers",
    "following_url": "https://api.github.com/users/Ninos/following{/other_user}",
    "gists_url": "https://api.github.com/users/Ninos/gists{/gist_id}",
    "starred_url": "https://api.github.com/users/Ninos/starred{/owner}{/repo}",
    "subscriptions_url": "https://api.github.com/users/Ninos/subscriptions",
    "organizations_url": "https://api.github.com/users/Ninos/orgs",
    "repos_url": "https://api.github.com/users/Ninos/repos",
    "events_url": "https://api.github.com/users/Ninos/events{/privacy}",
    "received_events_url": "https://api.github.com/users/Ninos/received_events",
    "type": "User",
    "site_admin": false
  },
  "created_at": "2015-07-20T20:53:40Z",
  "updated_at": "2015-07-20T20:53:40Z",
  "body": "Ok sorry guys, can be closed. Was too stupid and wrote the new password into both fields (old password, new password). The feedback message is just:\r\n`Das Passwort konnte nicht geändert werden`. `. Vielleicht war das alte Passwort falsch.` is missing here. I may would add such info, because most systems have also a validation field for the new password, so there should be also other peoples, which add the new password to both fields."
}
]
