[
{
  "url": "https://api.github.com/repos/owncloud/core/issues/comments/14628005",
  "html_url": "https://github.com/owncloud/core/issues/2201#issuecomment-14628005",
  "issue_url": "https://api.github.com/repos/owncloud/core/issues/2201",
  "id": 14628005,
  "user": {
    "login": "BernhardPosselt",
    "id": 195053,
    "avatar_url": "https://avatars.githubusercontent.com/u/195053?v=3",
    "gravatar_id": "",
    "url": "https://api.github.com/users/BernhardPosselt",
    "html_url": "https://github.com/BernhardPosselt",
    "followers_url": "https://api.github.com/users/BernhardPosselt/followers",
    "following_url": "https://api.github.com/users/BernhardPosselt/following{/other_user}",
    "gists_url": "https://api.github.com/users/BernhardPosselt/gists{/gist_id}",
    "starred_url": "https://api.github.com/users/BernhardPosselt/starred{/owner}{/repo}",
    "subscriptions_url": "https://api.github.com/users/BernhardPosselt/subscriptions",
    "organizations_url": "https://api.github.com/users/BernhardPosselt/orgs",
    "repos_url": "https://api.github.com/users/BernhardPosselt/repos",
    "events_url": "https://api.github.com/users/BernhardPosselt/events{/privacy}",
    "received_events_url": "https://api.github.com/users/BernhardPosselt/received_events",
    "type": "User",
    "site_admin": false
  },
  "created_at": "2013-03-08T16:14:10Z",
  "updated_at": "2013-03-08T16:14:10Z",
  "body": "Please open this in the sync client repo ;) https://github.com/owncloud/mirall"
}
]
