[
{
  "url": "https://api.github.com/repos/owncloud/core/issues/comments/35378430",
  "html_url": "https://github.com/owncloud/core/pull/7256#issuecomment-35378430",
  "issue_url": "https://api.github.com/repos/owncloud/core/issues/7256",
  "id": 35378430,
  "user": {
    "login": "bantu",
    "id": 189375,
    "avatar_url": "https://avatars.githubusercontent.com/u/189375?v=3",
    "gravatar_id": "",
    "url": "https://api.github.com/users/bantu",
    "html_url": "https://github.com/bantu",
    "followers_url": "https://api.github.com/users/bantu/followers",
    "following_url": "https://api.github.com/users/bantu/following{/other_user}",
    "gists_url": "https://api.github.com/users/bantu/gists{/gist_id}",
    "starred_url": "https://api.github.com/users/bantu/starred{/owner}{/repo}",
    "subscriptions_url": "https://api.github.com/users/bantu/subscriptions",
    "organizations_url": "https://api.github.com/users/bantu/orgs",
    "repos_url": "https://api.github.com/users/bantu/repos",
    "events_url": "https://api.github.com/users/bantu/events{/privacy}",
    "received_events_url": "https://api.github.com/users/bantu/received_events",
    "type": "User",
    "site_admin": false
  },
  "created_at": "2014-02-18T12:15:45Z",
  "updated_at": "2014-02-18T12:15:45Z",
  "body": ":-1: "
}
, {
  "url": "https://api.github.com/repos/owncloud/core/issues/comments/35384594",
  "html_url": "https://github.com/owncloud/core/pull/7256#issuecomment-35384594",
  "issue_url": "https://api.github.com/repos/owncloud/core/issues/7256",
  "id": 35384594,
  "user": {
    "login": "butonic",
    "id": 956847,
    "avatar_url": "https://avatars.githubusercontent.com/u/956847?v=3",
    "gravatar_id": "",
    "url": "https://api.github.com/users/butonic",
    "html_url": "https://github.com/butonic",
    "followers_url": "https://api.github.com/users/butonic/followers",
    "following_url": "https://api.github.com/users/butonic/following{/other_user}",
    "gists_url": "https://api.github.com/users/butonic/gists{/gist_id}",
    "starred_url": "https://api.github.com/users/butonic/starred{/owner}{/repo}",
    "subscriptions_url": "https://api.github.com/users/butonic/subscriptions",
    "organizations_url": "https://api.github.com/users/butonic/orgs",
    "repos_url": "https://api.github.com/users/butonic/repos",
    "events_url": "https://api.github.com/users/butonic/events{/privacy}",
    "received_events_url": "https://api.github.com/users/butonic/received_events",
    "type": "User",
    "site_admin": false
  },
  "created_at": "2014-02-18T13:40:25Z",
  "updated_at": "2014-02-18T13:40:25Z",
  "body": "closing this in favor of #5515 which correctly shows the permission problem in the browser"
}
, {
  "url": "https://api.github.com/repos/owncloud/core/issues/comments/35387406",
  "html_url": "https://github.com/owncloud/core/pull/7256#issuecomment-35387406",
  "issue_url": "https://api.github.com/repos/owncloud/core/issues/7256",
  "id": 35387406,
  "user": {
    "login": "owncloud-bot",
    "id": 2709266,
    "avatar_url": "https://avatars.githubusercontent.com/u/2709266?v=3",
    "gravatar_id": "",
    "url": "https://api.github.com/users/owncloud-bot",
    "html_url": "https://github.com/owncloud-bot",
    "followers_url": "https://api.github.com/users/owncloud-bot/followers",
    "following_url": "https://api.github.com/users/owncloud-bot/following{/other_user}",
    "gists_url": "https://api.github.com/users/owncloud-bot/gists{/gist_id}",
    "starred_url": "https://api.github.com/users/owncloud-bot/starred{/owner}{/repo}",
    "subscriptions_url": "https://api.github.com/users/owncloud-bot/subscriptions",
    "organizations_url": "https://api.github.com/users/owncloud-bot/orgs",
    "repos_url": "https://api.github.com/users/owncloud-bot/repos",
    "events_url": "https://api.github.com/users/owncloud-bot/events{/privacy}",
    "received_events_url": "https://api.github.com/users/owncloud-bot/received_events",
    "type": "User",
    "site_admin": false
  },
  "created_at": "2014-02-18T14:14:04Z",
  "updated_at": "2014-02-18T14:14:04Z",
  "body": ":rocket: Test Passed. :rocket:\nRefer to this link for build results: https://ci.owncloud.org/job/pull-request-analyser/3129/"
}
, {
  "url": "https://api.github.com/repos/owncloud/core/issues/comments/35427774",
  "html_url": "https://github.com/owncloud/core/pull/7256#issuecomment-35427774",
  "issue_url": "https://api.github.com/repos/owncloud/core/issues/7256",
  "id": 35427774,
  "user": {
    "login": "scrutinizer-notifier",
    "id": 6398257,
    "avatar_url": "https://avatars.githubusercontent.com/u/6398257?v=3",
    "gravatar_id": "",
    "url": "https://api.github.com/users/scrutinizer-notifier",
    "html_url": "https://github.com/scrutinizer-notifier",
    "followers_url": "https://api.github.com/users/scrutinizer-notifier/followers",
    "following_url": "https://api.github.com/users/scrutinizer-notifier/following{/other_user}",
    "gists_url": "https://api.github.com/users/scrutinizer-notifier/gists{/gist_id}",
    "starred_url": "https://api.github.com/users/scrutinizer-notifier/starred{/owner}{/repo}",
    "subscriptions_url": "https://api.github.com/users/scrutinizer-notifier/subscriptions",
    "organizations_url": "https://api.github.com/users/scrutinizer-notifier/orgs",
    "repos_url": "https://api.github.com/users/scrutinizer-notifier/repos",
    "events_url": "https://api.github.com/users/scrutinizer-notifier/events{/privacy}",
    "received_events_url": "https://api.github.com/users/scrutinizer-notifier/received_events",
    "type": "User",
    "site_admin": false
  },
  "created_at": "2014-02-18T20:11:43Z",
  "updated_at": "2014-02-18T20:11:43Z",
  "body": "The [inspection](https://scrutinizer-ci.com/g/owncloud/core/inspections/57d4973c-6c10-4388-a963-7ac02d352ec7) completed: **No new issues**"
}
]
