[
{
  "url": "https://api.github.com/repos/owncloud/core/issues/comments/52419049",
  "html_url": "https://github.com/owncloud/core/issues/10462#issuecomment-52419049",
  "issue_url": "https://api.github.com/repos/owncloud/core/issues/10462",
  "id": 52419049,
  "user": {
    "login": "tomneedham",
    "id": 660805,
    "avatar_url": "https://avatars.githubusercontent.com/u/660805?v=3",
    "gravatar_id": "",
    "url": "https://api.github.com/users/tomneedham",
    "html_url": "https://github.com/tomneedham",
    "followers_url": "https://api.github.com/users/tomneedham/followers",
    "following_url": "https://api.github.com/users/tomneedham/following{/other_user}",
    "gists_url": "https://api.github.com/users/tomneedham/gists{/gist_id}",
    "starred_url": "https://api.github.com/users/tomneedham/starred{/owner}{/repo}",
    "subscriptions_url": "https://api.github.com/users/tomneedham/subscriptions",
    "organizations_url": "https://api.github.com/users/tomneedham/orgs",
    "repos_url": "https://api.github.com/users/tomneedham/repos",
    "events_url": "https://api.github.com/users/tomneedham/events{/privacy}",
    "received_events_url": "https://api.github.com/users/tomneedham/received_events",
    "type": "User",
    "site_admin": false
  },
  "created_at": "2014-08-17T11:02:55Z",
  "updated_at": "2014-08-17T11:02:55Z",
  "body": "It is much nicer to provide an undo, rather than a checkbox that everyone just clicks 'ok' on. Just because many other products do it differently doesn't make then better / right :)\r\n\r\nFor more info on some of the design guidelines we try to follow with ownCloud see: http://owncloud.org/contribute/design/"
}
]
