[
{
  "url": "https://api.github.com/repos/owncloud/core/issues/comments/41103589",
  "html_url": "https://github.com/owncloud/core/pull/8315#issuecomment-41103589",
  "issue_url": "https://api.github.com/repos/owncloud/core/issues/8315",
  "id": 41103589,
  "user": {
    "login": "scrutinizer-notifier",
    "id": 6398257,
    "avatar_url": "https://avatars.githubusercontent.com/u/6398257?v=3",
    "gravatar_id": "",
    "url": "https://api.github.com/users/scrutinizer-notifier",
    "html_url": "https://github.com/scrutinizer-notifier",
    "followers_url": "https://api.github.com/users/scrutinizer-notifier/followers",
    "following_url": "https://api.github.com/users/scrutinizer-notifier/following{/other_user}",
    "gists_url": "https://api.github.com/users/scrutinizer-notifier/gists{/gist_id}",
    "starred_url": "https://api.github.com/users/scrutinizer-notifier/starred{/owner}{/repo}",
    "subscriptions_url": "https://api.github.com/users/scrutinizer-notifier/subscriptions",
    "organizations_url": "https://api.github.com/users/scrutinizer-notifier/orgs",
    "repos_url": "https://api.github.com/users/scrutinizer-notifier/repos",
    "events_url": "https://api.github.com/users/scrutinizer-notifier/events{/privacy}",
    "received_events_url": "https://api.github.com/users/scrutinizer-notifier/received_events",
    "type": "User",
    "site_admin": false
  },
  "created_at": "2014-04-22T22:25:42Z",
  "updated_at": "2014-04-22T22:25:42Z",
  "body": "The [inspection](https://scrutinizer-ci.com/g/owncloud/core/inspections/f354a52b-8cfc-4949-ad08-80296f97f75a) completed: **102 new issues**"
}
, {
  "url": "https://api.github.com/repos/owncloud/core/issues/comments/41103869",
  "html_url": "https://github.com/owncloud/core/pull/8315#issuecomment-41103869",
  "issue_url": "https://api.github.com/repos/owncloud/core/issues/8315",
  "id": 41103869,
  "user": {
    "login": "DeepDiver1975",
    "id": 1005065,
    "avatar_url": "https://avatars.githubusercontent.com/u/1005065?v=3",
    "gravatar_id": "",
    "url": "https://api.github.com/users/DeepDiver1975",
    "html_url": "https://github.com/DeepDiver1975",
    "followers_url": "https://api.github.com/users/DeepDiver1975/followers",
    "following_url": "https://api.github.com/users/DeepDiver1975/following{/other_user}",
    "gists_url": "https://api.github.com/users/DeepDiver1975/gists{/gist_id}",
    "starred_url": "https://api.github.com/users/DeepDiver1975/starred{/owner}{/repo}",
    "subscriptions_url": "https://api.github.com/users/DeepDiver1975/subscriptions",
    "organizations_url": "https://api.github.com/users/DeepDiver1975/orgs",
    "repos_url": "https://api.github.com/users/DeepDiver1975/repos",
    "events_url": "https://api.github.com/users/DeepDiver1975/events{/privacy}",
    "received_events_url": "https://api.github.com/users/DeepDiver1975/received_events",
    "type": "User",
    "site_admin": false
  },
  "created_at": "2014-04-22T22:28:44Z",
  "updated_at": "2014-04-22T22:28:44Z",
  "body": "@wakeup can you please add these two files to https://github.com/owncloud/core/blob/master/.scrutinizer.yml - THX"
}
, {
  "url": "https://api.github.com/repos/owncloud/core/issues/comments/41106851",
  "html_url": "https://github.com/owncloud/core/pull/8315#issuecomment-41106851",
  "issue_url": "https://api.github.com/repos/owncloud/core/issues/8315",
  "id": 41106851,
  "user": {
    "login": "owncloud-bot",
    "id": 2709266,
    "avatar_url": "https://avatars.githubusercontent.com/u/2709266?v=3",
    "gravatar_id": "",
    "url": "https://api.github.com/users/owncloud-bot",
    "html_url": "https://github.com/owncloud-bot",
    "followers_url": "https://api.github.com/users/owncloud-bot/followers",
    "following_url": "https://api.github.com/users/owncloud-bot/following{/other_user}",
    "gists_url": "https://api.github.com/users/owncloud-bot/gists{/gist_id}",
    "starred_url": "https://api.github.com/users/owncloud-bot/starred{/owner}{/repo}",
    "subscriptions_url": "https://api.github.com/users/owncloud-bot/subscriptions",
    "organizations_url": "https://api.github.com/users/owncloud-bot/orgs",
    "repos_url": "https://api.github.com/users/owncloud-bot/repos",
    "events_url": "https://api.github.com/users/owncloud-bot/events{/privacy}",
    "received_events_url": "https://api.github.com/users/owncloud-bot/received_events",
    "type": "User",
    "site_admin": false
  },
  "created_at": "2014-04-22T23:06:17Z",
  "updated_at": "2014-04-22T23:06:17Z",
  "body": ":rocket: Test Passed. :rocket:\nRefer to this link for build results: https://ci.owncloud.org/job/pull-request-analyser/4408/"
}
, {
  "url": "https://api.github.com/repos/owncloud/core/issues/comments/41107480",
  "html_url": "https://github.com/owncloud/core/pull/8315#issuecomment-41107480",
  "issue_url": "https://api.github.com/repos/owncloud/core/issues/8315",
  "id": 41107480,
  "user": {
    "login": "vgezer",
    "id": 231068,
    "avatar_url": "https://avatars.githubusercontent.com/u/231068?v=3",
    "gravatar_id": "",
    "url": "https://api.github.com/users/vgezer",
    "html_url": "https://github.com/vgezer",
    "followers_url": "https://api.github.com/users/vgezer/followers",
    "following_url": "https://api.github.com/users/vgezer/following{/other_user}",
    "gists_url": "https://api.github.com/users/vgezer/gists{/gist_id}",
    "starred_url": "https://api.github.com/users/vgezer/starred{/owner}{/repo}",
    "subscriptions_url": "https://api.github.com/users/vgezer/subscriptions",
    "organizations_url": "https://api.github.com/users/vgezer/orgs",
    "repos_url": "https://api.github.com/users/vgezer/repos",
    "events_url": "https://api.github.com/users/vgezer/events{/privacy}",
    "received_events_url": "https://api.github.com/users/vgezer/received_events",
    "type": "User",
    "site_admin": false
  },
  "created_at": "2014-04-22T23:15:01Z",
  "updated_at": "2014-04-22T23:15:01Z",
  "body": "@DeepDiver1975 done :)"
}
, {
  "url": "https://api.github.com/repos/owncloud/core/issues/comments/41131381",
  "html_url": "https://github.com/owncloud/core/pull/8315#issuecomment-41131381",
  "issue_url": "https://api.github.com/repos/owncloud/core/issues/8315",
  "id": 41131381,
  "user": {
    "login": "DeepDiver1975",
    "id": 1005065,
    "avatar_url": "https://avatars.githubusercontent.com/u/1005065?v=3",
    "gravatar_id": "",
    "url": "https://api.github.com/users/DeepDiver1975",
    "html_url": "https://github.com/DeepDiver1975",
    "followers_url": "https://api.github.com/users/DeepDiver1975/followers",
    "following_url": "https://api.github.com/users/DeepDiver1975/following{/other_user}",
    "gists_url": "https://api.github.com/users/DeepDiver1975/gists{/gist_id}",
    "starred_url": "https://api.github.com/users/DeepDiver1975/starred{/owner}{/repo}",
    "subscriptions_url": "https://api.github.com/users/DeepDiver1975/subscriptions",
    "organizations_url": "https://api.github.com/users/DeepDiver1975/orgs",
    "repos_url": "https://api.github.com/users/DeepDiver1975/repos",
    "events_url": "https://api.github.com/users/DeepDiver1975/events{/privacy}",
    "received_events_url": "https://api.github.com/users/DeepDiver1975/received_events",
    "type": "User",
    "site_admin": false
  },
  "created_at": "2014-04-23T07:15:06Z",
  "updated_at": "2014-04-23T07:15:06Z",
  "body": "@wakeup THX - you could have added this change to this PR - no need for an additional PR. But nevermind."
}
, {
  "url": "https://api.github.com/repos/owncloud/core/issues/comments/41131384",
  "html_url": "https://github.com/owncloud/core/pull/8315#issuecomment-41131384",
  "issue_url": "https://api.github.com/repos/owncloud/core/issues/8315",
  "id": 41131384,
  "user": {
    "login": "DeepDiver1975",
    "id": 1005065,
    "avatar_url": "https://avatars.githubusercontent.com/u/1005065?v=3",
    "gravatar_id": "",
    "url": "https://api.github.com/users/DeepDiver1975",
    "html_url": "https://github.com/DeepDiver1975",
    "followers_url": "https://api.github.com/users/DeepDiver1975/followers",
    "following_url": "https://api.github.com/users/DeepDiver1975/following{/other_user}",
    "gists_url": "https://api.github.com/users/DeepDiver1975/gists{/gist_id}",
    "starred_url": "https://api.github.com/users/DeepDiver1975/starred{/owner}{/repo}",
    "subscriptions_url": "https://api.github.com/users/DeepDiver1975/subscriptions",
    "organizations_url": "https://api.github.com/users/DeepDiver1975/orgs",
    "repos_url": "https://api.github.com/users/DeepDiver1975/repos",
    "events_url": "https://api.github.com/users/DeepDiver1975/events{/privacy}",
    "received_events_url": "https://api.github.com/users/DeepDiver1975/received_events",
    "type": "User",
    "site_admin": false
  },
  "created_at": "2014-04-23T07:15:11Z",
  "updated_at": "2014-04-23T07:15:11Z",
  "body": ":+1: "
}
, {
  "url": "https://api.github.com/repos/owncloud/core/issues/comments/41131389",
  "html_url": "https://github.com/owncloud/core/pull/8315#issuecomment-41131389",
  "issue_url": "https://api.github.com/repos/owncloud/core/issues/8315",
  "id": 41131389,
  "user": {
    "login": "DeepDiver1975",
    "id": 1005065,
    "avatar_url": "https://avatars.githubusercontent.com/u/1005065?v=3",
    "gravatar_id": "",
    "url": "https://api.github.com/users/DeepDiver1975",
    "html_url": "https://github.com/DeepDiver1975",
    "followers_url": "https://api.github.com/users/DeepDiver1975/followers",
    "following_url": "https://api.github.com/users/DeepDiver1975/following{/other_user}",
    "gists_url": "https://api.github.com/users/DeepDiver1975/gists{/gist_id}",
    "starred_url": "https://api.github.com/users/DeepDiver1975/starred{/owner}{/repo}",
    "subscriptions_url": "https://api.github.com/users/DeepDiver1975/subscriptions",
    "organizations_url": "https://api.github.com/users/DeepDiver1975/orgs",
    "repos_url": "https://api.github.com/users/DeepDiver1975/repos",
    "events_url": "https://api.github.com/users/DeepDiver1975/events{/privacy}",
    "received_events_url": "https://api.github.com/users/DeepDiver1975/received_events",
    "type": "User",
    "site_admin": false
  },
  "created_at": "2014-04-23T07:15:17Z",
  "updated_at": "2014-04-23T07:15:17Z",
  "body": "@karlitschek "
}
, {
  "url": "https://api.github.com/repos/owncloud/core/issues/comments/41131882",
  "html_url": "https://github.com/owncloud/core/pull/8315#issuecomment-41131882",
  "issue_url": "https://api.github.com/repos/owncloud/core/issues/8315",
  "id": 41131882,
  "user": {
    "login": "karlitschek",
    "id": 867445,
    "avatar_url": "https://avatars.githubusercontent.com/u/867445?v=3",
    "gravatar_id": "",
    "url": "https://api.github.com/users/karlitschek",
    "html_url": "https://github.com/karlitschek",
    "followers_url": "https://api.github.com/users/karlitschek/followers",
    "following_url": "https://api.github.com/users/karlitschek/following{/other_user}",
    "gists_url": "https://api.github.com/users/karlitschek/gists{/gist_id}",
    "starred_url": "https://api.github.com/users/karlitschek/starred{/owner}{/repo}",
    "subscriptions_url": "https://api.github.com/users/karlitschek/subscriptions",
    "organizations_url": "https://api.github.com/users/karlitschek/orgs",
    "repos_url": "https://api.github.com/users/karlitschek/repos",
    "events_url": "https://api.github.com/users/karlitschek/events{/privacy}",
    "received_events_url": "https://api.github.com/users/karlitschek/received_events",
    "type": "User",
    "site_admin": false
  },
  "created_at": "2014-04-23T07:23:18Z",
  "updated_at": "2014-04-23T07:23:18Z",
  "body": "Thanks :+1: "
}
]
