[
{
  "url": "https://api.github.com/repos/owncloud/core/issues/comments/31155686",
  "html_url": "https://github.com/owncloud/core/pull/6562#issuecomment-31155686",
  "issue_url": "https://api.github.com/repos/owncloud/core/issues/6562",
  "id": 31155686,
  "user": {
    "login": "owncloud-bot",
    "id": 2709266,
    "avatar_url": "https://avatars.githubusercontent.com/u/2709266?v=3",
    "gravatar_id": "",
    "url": "https://api.github.com/users/owncloud-bot",
    "html_url": "https://github.com/owncloud-bot",
    "followers_url": "https://api.github.com/users/owncloud-bot/followers",
    "following_url": "https://api.github.com/users/owncloud-bot/following{/other_user}",
    "gists_url": "https://api.github.com/users/owncloud-bot/gists{/gist_id}",
    "starred_url": "https://api.github.com/users/owncloud-bot/starred{/owner}{/repo}",
    "subscriptions_url": "https://api.github.com/users/owncloud-bot/subscriptions",
    "organizations_url": "https://api.github.com/users/owncloud-bot/orgs",
    "repos_url": "https://api.github.com/users/owncloud-bot/repos",
    "events_url": "https://api.github.com/users/owncloud-bot/events{/privacy}",
    "received_events_url": "https://api.github.com/users/owncloud-bot/received_events",
    "type": "User",
    "site_admin": false
  },
  "created_at": "2013-12-24T02:42:48Z",
  "updated_at": "2013-12-24T02:42:48Z",
  "body": "Can one of the admins verify this patch?"
}
, {
  "url": "https://api.github.com/repos/owncloud/core/issues/comments/31169347",
  "html_url": "https://github.com/owncloud/core/pull/6562#issuecomment-31169347",
  "issue_url": "https://api.github.com/repos/owncloud/core/issues/6562",
  "id": 31169347,
  "user": {
    "login": "DeepDiver1975",
    "id": 1005065,
    "avatar_url": "https://avatars.githubusercontent.com/u/1005065?v=3",
    "gravatar_id": "",
    "url": "https://api.github.com/users/DeepDiver1975",
    "html_url": "https://github.com/DeepDiver1975",
    "followers_url": "https://api.github.com/users/DeepDiver1975/followers",
    "following_url": "https://api.github.com/users/DeepDiver1975/following{/other_user}",
    "gists_url": "https://api.github.com/users/DeepDiver1975/gists{/gist_id}",
    "starred_url": "https://api.github.com/users/DeepDiver1975/starred{/owner}{/repo}",
    "subscriptions_url": "https://api.github.com/users/DeepDiver1975/subscriptions",
    "organizations_url": "https://api.github.com/users/DeepDiver1975/orgs",
    "repos_url": "https://api.github.com/users/DeepDiver1975/repos",
    "events_url": "https://api.github.com/users/DeepDiver1975/events{/privacy}",
    "received_events_url": "https://api.github.com/users/DeepDiver1975/received_events",
    "type": "User",
    "site_admin": false
  },
  "created_at": "2013-12-24T12:02:38Z",
  "updated_at": "2013-12-24T12:02:38Z",
  "body": "@owncloud-bot retest this please"
}
, {
  "url": "https://api.github.com/repos/owncloud/core/issues/comments/31169353",
  "html_url": "https://github.com/owncloud/core/pull/6562#issuecomment-31169353",
  "issue_url": "https://api.github.com/repos/owncloud/core/issues/6562",
  "id": 31169353,
  "user": {
    "login": "DeepDiver1975",
    "id": 1005065,
    "avatar_url": "https://avatars.githubusercontent.com/u/1005065?v=3",
    "gravatar_id": "",
    "url": "https://api.github.com/users/DeepDiver1975",
    "html_url": "https://github.com/DeepDiver1975",
    "followers_url": "https://api.github.com/users/DeepDiver1975/followers",
    "following_url": "https://api.github.com/users/DeepDiver1975/following{/other_user}",
    "gists_url": "https://api.github.com/users/DeepDiver1975/gists{/gist_id}",
    "starred_url": "https://api.github.com/users/DeepDiver1975/starred{/owner}{/repo}",
    "subscriptions_url": "https://api.github.com/users/DeepDiver1975/subscriptions",
    "organizations_url": "https://api.github.com/users/DeepDiver1975/orgs",
    "repos_url": "https://api.github.com/users/DeepDiver1975/repos",
    "events_url": "https://api.github.com/users/DeepDiver1975/events{/privacy}",
    "received_events_url": "https://api.github.com/users/DeepDiver1975/received_events",
    "type": "User",
    "site_admin": false
  },
  "created_at": "2013-12-24T12:02:46Z",
  "updated_at": "2013-12-24T12:02:46Z",
  "body": "> MIT licensed\r\n\r\nThanks!"
}
, {
  "url": "https://api.github.com/repos/owncloud/core/issues/comments/31170076",
  "html_url": "https://github.com/owncloud/core/pull/6562#issuecomment-31170076",
  "issue_url": "https://api.github.com/repos/owncloud/core/issues/6562",
  "id": 31170076,
  "user": {
    "login": "owncloud-bot",
    "id": 2709266,
    "avatar_url": "https://avatars.githubusercontent.com/u/2709266?v=3",
    "gravatar_id": "",
    "url": "https://api.github.com/users/owncloud-bot",
    "html_url": "https://github.com/owncloud-bot",
    "followers_url": "https://api.github.com/users/owncloud-bot/followers",
    "following_url": "https://api.github.com/users/owncloud-bot/following{/other_user}",
    "gists_url": "https://api.github.com/users/owncloud-bot/gists{/gist_id}",
    "starred_url": "https://api.github.com/users/owncloud-bot/starred{/owner}{/repo}",
    "subscriptions_url": "https://api.github.com/users/owncloud-bot/subscriptions",
    "organizations_url": "https://api.github.com/users/owncloud-bot/orgs",
    "repos_url": "https://api.github.com/users/owncloud-bot/repos",
    "events_url": "https://api.github.com/users/owncloud-bot/events{/privacy}",
    "received_events_url": "https://api.github.com/users/owncloud-bot/received_events",
    "type": "User",
    "site_admin": false
  },
  "created_at": "2013-12-24T12:31:33Z",
  "updated_at": "2013-12-24T12:31:33Z",
  "body": "Test passed.\nRefer to this link for build results: https://ci.owncloud.org/job/pull-request-analyser/2469/"
}
, {
  "url": "https://api.github.com/repos/owncloud/core/issues/comments/31193722",
  "html_url": "https://github.com/owncloud/core/pull/6562#issuecomment-31193722",
  "issue_url": "https://api.github.com/repos/owncloud/core/issues/6562",
  "id": 31193722,
  "user": {
    "login": "vsapronov",
    "id": 886198,
    "avatar_url": "https://avatars.githubusercontent.com/u/886198?v=3",
    "gravatar_id": "",
    "url": "https://api.github.com/users/vsapronov",
    "html_url": "https://github.com/vsapronov",
    "followers_url": "https://api.github.com/users/vsapronov/followers",
    "following_url": "https://api.github.com/users/vsapronov/following{/other_user}",
    "gists_url": "https://api.github.com/users/vsapronov/gists{/gist_id}",
    "starred_url": "https://api.github.com/users/vsapronov/starred{/owner}{/repo}",
    "subscriptions_url": "https://api.github.com/users/vsapronov/subscriptions",
    "organizations_url": "https://api.github.com/users/vsapronov/orgs",
    "repos_url": "https://api.github.com/users/vsapronov/repos",
    "events_url": "https://api.github.com/users/vsapronov/events{/privacy}",
    "received_events_url": "https://api.github.com/users/vsapronov/received_events",
    "type": "User",
    "site_admin": false
  },
  "created_at": "2013-12-25T07:27:05Z",
  "updated_at": "2013-12-25T07:27:05Z",
  "body": "Can this be merged into stable6, since the same pull request was merged for master (https://github.com/owncloud/core/pull/6561) and this patch doesn't affect stability?"
}
, {
  "url": "https://api.github.com/repos/owncloud/core/issues/comments/31197641",
  "html_url": "https://github.com/owncloud/core/pull/6562#issuecomment-31197641",
  "issue_url": "https://api.github.com/repos/owncloud/core/issues/6562",
  "id": 31197641,
  "user": {
    "login": "karlitschek",
    "id": 867445,
    "avatar_url": "https://avatars.githubusercontent.com/u/867445?v=3",
    "gravatar_id": "",
    "url": "https://api.github.com/users/karlitschek",
    "html_url": "https://github.com/karlitschek",
    "followers_url": "https://api.github.com/users/karlitschek/followers",
    "following_url": "https://api.github.com/users/karlitschek/following{/other_user}",
    "gists_url": "https://api.github.com/users/karlitschek/gists{/gist_id}",
    "starred_url": "https://api.github.com/users/karlitschek/starred{/owner}{/repo}",
    "subscriptions_url": "https://api.github.com/users/karlitschek/subscriptions",
    "organizations_url": "https://api.github.com/users/karlitschek/orgs",
    "repos_url": "https://api.github.com/users/karlitschek/repos",
    "events_url": "https://api.github.com/users/karlitschek/events{/privacy}",
    "received_events_url": "https://api.github.com/users/karlitschek/received_events",
    "type": "User",
    "site_admin": false
  },
  "created_at": "2013-12-25T11:35:20Z",
  "updated_at": "2013-12-25T11:35:20Z",
  "body": "Ok. By the way. You can just ask for a backport in the Master pull request. No need to do a second one. :-)"
}
, {
  "url": "https://api.github.com/repos/owncloud/core/issues/comments/31201564",
  "html_url": "https://github.com/owncloud/core/pull/6562#issuecomment-31201564",
  "issue_url": "https://api.github.com/repos/owncloud/core/issues/6562",
  "id": 31201564,
  "user": {
    "login": "vsapronov",
    "id": 886198,
    "avatar_url": "https://avatars.githubusercontent.com/u/886198?v=3",
    "gravatar_id": "",
    "url": "https://api.github.com/users/vsapronov",
    "html_url": "https://github.com/vsapronov",
    "followers_url": "https://api.github.com/users/vsapronov/followers",
    "following_url": "https://api.github.com/users/vsapronov/following{/other_user}",
    "gists_url": "https://api.github.com/users/vsapronov/gists{/gist_id}",
    "starred_url": "https://api.github.com/users/vsapronov/starred{/owner}{/repo}",
    "subscriptions_url": "https://api.github.com/users/vsapronov/subscriptions",
    "organizations_url": "https://api.github.com/users/vsapronov/orgs",
    "repos_url": "https://api.github.com/users/vsapronov/repos",
    "events_url": "https://api.github.com/users/vsapronov/events{/privacy}",
    "received_events_url": "https://api.github.com/users/vsapronov/received_events",
    "type": "User",
    "site_admin": false
  },
  "created_at": "2013-12-25T16:18:27Z",
  "updated_at": "2013-12-25T16:19:41Z",
  "body": "@karlitschek Thanks! Good to know. Is there any schedule for stable releases? No rush,\r\nbut of course I wish to know when this patch will be released...\r\nOn Dec 25, 2013 6:35 AM, \"Frank Karlitschek\" <notifications@github.com>\r\nwrote:\r\n\r\n> Ok. By the way. You can just ask for a backport in the Master pull\r\n> request. No need to do a second one. :-)\r\n>\r\n> —\r\n> Reply to this email directly or view it on GitHub<https://github.com/owncloud/core/pull/6562#issuecomment-31197641>\r\n> .\r\n>"
}
, {
  "url": "https://api.github.com/repos/owncloud/core/issues/comments/31201589",
  "html_url": "https://github.com/owncloud/core/pull/6562#issuecomment-31201589",
  "issue_url": "https://api.github.com/repos/owncloud/core/issues/6562",
  "id": 31201589,
  "user": {
    "login": "karlitschek",
    "id": 867445,
    "avatar_url": "https://avatars.githubusercontent.com/u/867445?v=3",
    "gravatar_id": "",
    "url": "https://api.github.com/users/karlitschek",
    "html_url": "https://github.com/karlitschek",
    "followers_url": "https://api.github.com/users/karlitschek/followers",
    "following_url": "https://api.github.com/users/karlitschek/following{/other_user}",
    "gists_url": "https://api.github.com/users/karlitschek/gists{/gist_id}",
    "starred_url": "https://api.github.com/users/karlitschek/starred{/owner}{/repo}",
    "subscriptions_url": "https://api.github.com/users/karlitschek/subscriptions",
    "organizations_url": "https://api.github.com/users/karlitschek/orgs",
    "repos_url": "https://api.github.com/users/karlitschek/repos",
    "events_url": "https://api.github.com/users/karlitschek/events{/privacy}",
    "received_events_url": "https://api.github.com/users/karlitschek/received_events",
    "type": "User",
    "site_admin": false
  },
  "created_at": "2013-12-25T16:20:34Z",
  "updated_at": "2013-12-25T16:20:34Z",
  "body": "Not plan yet. probably early January"
}
]
