[
{
  "url": "https://api.github.com/repos/owncloud/core/issues/comments/36606226",
  "html_url": "https://github.com/owncloud/core/pull/7522#issuecomment-36606226",
  "issue_url": "https://api.github.com/repos/owncloud/core/issues/7522",
  "id": 36606226,
  "user": {
    "login": "scrutinizer-notifier",
    "id": 6398257,
    "avatar_url": "https://avatars.githubusercontent.com/u/6398257?v=3",
    "gravatar_id": "",
    "url": "https://api.github.com/users/scrutinizer-notifier",
    "html_url": "https://github.com/scrutinizer-notifier",
    "followers_url": "https://api.github.com/users/scrutinizer-notifier/followers",
    "following_url": "https://api.github.com/users/scrutinizer-notifier/following{/other_user}",
    "gists_url": "https://api.github.com/users/scrutinizer-notifier/gists{/gist_id}",
    "starred_url": "https://api.github.com/users/scrutinizer-notifier/starred{/owner}{/repo}",
    "subscriptions_url": "https://api.github.com/users/scrutinizer-notifier/subscriptions",
    "organizations_url": "https://api.github.com/users/scrutinizer-notifier/orgs",
    "repos_url": "https://api.github.com/users/scrutinizer-notifier/repos",
    "events_url": "https://api.github.com/users/scrutinizer-notifier/events{/privacy}",
    "received_events_url": "https://api.github.com/users/scrutinizer-notifier/received_events",
    "type": "User",
    "site_admin": false
  },
  "created_at": "2014-03-04T09:31:37Z",
  "updated_at": "2014-03-04T09:31:37Z",
  "body": "A [new inspection](https://scrutinizer-ci.com/g/owncloud/core/inspections/1c088223-b8dd-40cb-852a-3846821a400c) was created."
}
, {
  "url": "https://api.github.com/repos/owncloud/core/issues/comments/36606394",
  "html_url": "https://github.com/owncloud/core/pull/7522#issuecomment-36606394",
  "issue_url": "https://api.github.com/repos/owncloud/core/issues/7522",
  "id": 36606394,
  "user": {
    "login": "karlitschek",
    "id": 867445,
    "avatar_url": "https://avatars.githubusercontent.com/u/867445?v=3",
    "gravatar_id": "",
    "url": "https://api.github.com/users/karlitschek",
    "html_url": "https://github.com/karlitschek",
    "followers_url": "https://api.github.com/users/karlitschek/followers",
    "following_url": "https://api.github.com/users/karlitschek/following{/other_user}",
    "gists_url": "https://api.github.com/users/karlitschek/gists{/gist_id}",
    "starred_url": "https://api.github.com/users/karlitschek/starred{/owner}{/repo}",
    "subscriptions_url": "https://api.github.com/users/karlitschek/subscriptions",
    "organizations_url": "https://api.github.com/users/karlitschek/orgs",
    "repos_url": "https://api.github.com/users/karlitschek/repos",
    "events_url": "https://api.github.com/users/karlitschek/events{/privacy}",
    "received_events_url": "https://api.github.com/users/karlitschek/received_events",
    "type": "User",
    "site_admin": false
  },
  "created_at": "2014-03-04T09:33:37Z",
  "updated_at": "2014-03-04T09:33:37Z",
  "body": "looks good :+1: "
}
, {
  "url": "https://api.github.com/repos/owncloud/core/issues/comments/36606490",
  "html_url": "https://github.com/owncloud/core/pull/7522#issuecomment-36606490",
  "issue_url": "https://api.github.com/repos/owncloud/core/issues/7522",
  "id": 36606490,
  "user": {
    "login": "raghunayyar",
    "id": 992488,
    "avatar_url": "https://avatars.githubusercontent.com/u/992488?v=3",
    "gravatar_id": "",
    "url": "https://api.github.com/users/raghunayyar",
    "html_url": "https://github.com/raghunayyar",
    "followers_url": "https://api.github.com/users/raghunayyar/followers",
    "following_url": "https://api.github.com/users/raghunayyar/following{/other_user}",
    "gists_url": "https://api.github.com/users/raghunayyar/gists{/gist_id}",
    "starred_url": "https://api.github.com/users/raghunayyar/starred{/owner}{/repo}",
    "subscriptions_url": "https://api.github.com/users/raghunayyar/subscriptions",
    "organizations_url": "https://api.github.com/users/raghunayyar/orgs",
    "repos_url": "https://api.github.com/users/raghunayyar/repos",
    "events_url": "https://api.github.com/users/raghunayyar/events{/privacy}",
    "received_events_url": "https://api.github.com/users/raghunayyar/received_events",
    "type": "User",
    "site_admin": false
  },
  "created_at": "2014-03-04T09:35:02Z",
  "updated_at": "2014-03-04T09:35:10Z",
  "body": "bingo. lets get this in. :+1:"
}
, {
  "url": "https://api.github.com/repos/owncloud/core/issues/comments/36606792",
  "html_url": "https://github.com/owncloud/core/pull/7522#issuecomment-36606792",
  "issue_url": "https://api.github.com/repos/owncloud/core/issues/7522",
  "id": 36606792,
  "user": {
    "login": "DeepDiver1975",
    "id": 1005065,
    "avatar_url": "https://avatars.githubusercontent.com/u/1005065?v=3",
    "gravatar_id": "",
    "url": "https://api.github.com/users/DeepDiver1975",
    "html_url": "https://github.com/DeepDiver1975",
    "followers_url": "https://api.github.com/users/DeepDiver1975/followers",
    "following_url": "https://api.github.com/users/DeepDiver1975/following{/other_user}",
    "gists_url": "https://api.github.com/users/DeepDiver1975/gists{/gist_id}",
    "starred_url": "https://api.github.com/users/DeepDiver1975/starred{/owner}{/repo}",
    "subscriptions_url": "https://api.github.com/users/DeepDiver1975/subscriptions",
    "organizations_url": "https://api.github.com/users/DeepDiver1975/orgs",
    "repos_url": "https://api.github.com/users/DeepDiver1975/repos",
    "events_url": "https://api.github.com/users/DeepDiver1975/events{/privacy}",
    "received_events_url": "https://api.github.com/users/DeepDiver1975/received_events",
    "type": "User",
    "site_admin": false
  },
  "created_at": "2014-03-04T09:38:55Z",
  "updated_at": "2014-03-04T09:38:55Z",
  "body": "@raghunayyar You remember the pull review process? :wink: "
}
, {
  "url": "https://api.github.com/repos/owncloud/core/issues/comments/36606875",
  "html_url": "https://github.com/owncloud/core/pull/7522#issuecomment-36606875",
  "issue_url": "https://api.github.com/repos/owncloud/core/issues/7522",
  "id": 36606875,
  "user": {
    "login": "PVince81",
    "id": 277525,
    "avatar_url": "https://avatars.githubusercontent.com/u/277525?v=3",
    "gravatar_id": "",
    "url": "https://api.github.com/users/PVince81",
    "html_url": "https://github.com/PVince81",
    "followers_url": "https://api.github.com/users/PVince81/followers",
    "following_url": "https://api.github.com/users/PVince81/following{/other_user}",
    "gists_url": "https://api.github.com/users/PVince81/gists{/gist_id}",
    "starred_url": "https://api.github.com/users/PVince81/starred{/owner}{/repo}",
    "subscriptions_url": "https://api.github.com/users/PVince81/subscriptions",
    "organizations_url": "https://api.github.com/users/PVince81/orgs",
    "repos_url": "https://api.github.com/users/PVince81/repos",
    "events_url": "https://api.github.com/users/PVince81/events{/privacy}",
    "received_events_url": "https://api.github.com/users/PVince81/received_events",
    "type": "User",
    "site_admin": false
  },
  "created_at": "2014-03-04T09:39:54Z",
  "updated_at": "2014-03-04T09:39:54Z",
  "body": "@DeepDiver1975  Let's add a NLP engine to Jenkins so it can also verify the validity and wording of text messages :wink: "
}
, {
  "url": "https://api.github.com/repos/owncloud/core/issues/comments/36616864",
  "html_url": "https://github.com/owncloud/core/pull/7522#issuecomment-36616864",
  "issue_url": "https://api.github.com/repos/owncloud/core/issues/7522",
  "id": 36616864,
  "user": {
    "login": "jancborchardt",
    "id": 925062,
    "avatar_url": "https://avatars.githubusercontent.com/u/925062?v=3",
    "gravatar_id": "",
    "url": "https://api.github.com/users/jancborchardt",
    "html_url": "https://github.com/jancborchardt",
    "followers_url": "https://api.github.com/users/jancborchardt/followers",
    "following_url": "https://api.github.com/users/jancborchardt/following{/other_user}",
    "gists_url": "https://api.github.com/users/jancborchardt/gists{/gist_id}",
    "starred_url": "https://api.github.com/users/jancborchardt/starred{/owner}{/repo}",
    "subscriptions_url": "https://api.github.com/users/jancborchardt/subscriptions",
    "organizations_url": "https://api.github.com/users/jancborchardt/orgs",
    "repos_url": "https://api.github.com/users/jancborchardt/repos",
    "events_url": "https://api.github.com/users/jancborchardt/events{/privacy}",
    "received_events_url": "https://api.github.com/users/jancborchardt/received_events",
    "type": "User",
    "site_admin": false
  },
  "created_at": "2014-03-04T11:53:18Z",
  "updated_at": "2014-03-04T11:53:18Z",
  "body": "I like the way @MorrisJobke made this an intro pull request to review for others (more of that! :). A pity it was merged in so fast …"
}
, {
  "url": "https://api.github.com/repos/owncloud/core/issues/comments/36620011",
  "html_url": "https://github.com/owncloud/core/pull/7522#issuecomment-36620011",
  "issue_url": "https://api.github.com/repos/owncloud/core/issues/7522",
  "id": 36620011,
  "user": {
    "login": "MorrisJobke",
    "id": 245432,
    "avatar_url": "https://avatars.githubusercontent.com/u/245432?v=3",
    "gravatar_id": "",
    "url": "https://api.github.com/users/MorrisJobke",
    "html_url": "https://github.com/MorrisJobke",
    "followers_url": "https://api.github.com/users/MorrisJobke/followers",
    "following_url": "https://api.github.com/users/MorrisJobke/following{/other_user}",
    "gists_url": "https://api.github.com/users/MorrisJobke/gists{/gist_id}",
    "starred_url": "https://api.github.com/users/MorrisJobke/starred{/owner}{/repo}",
    "subscriptions_url": "https://api.github.com/users/MorrisJobke/subscriptions",
    "organizations_url": "https://api.github.com/users/MorrisJobke/orgs",
    "repos_url": "https://api.github.com/users/MorrisJobke/repos",
    "events_url": "https://api.github.com/users/MorrisJobke/events{/privacy}",
    "received_events_url": "https://api.github.com/users/MorrisJobke/received_events",
    "type": "User",
    "site_admin": false
  },
  "created_at": "2014-03-04T12:41:46Z",
  "updated_at": "2014-03-04T12:41:46Z",
  "body": "@jancborchardt I will try to introduce more reviewers in other junior job reviews ;)"
}
, {
  "url": "https://api.github.com/repos/owncloud/core/issues/comments/36727220",
  "html_url": "https://github.com/owncloud/core/pull/7522#issuecomment-36727220",
  "issue_url": "https://api.github.com/repos/owncloud/core/issues/7522",
  "id": 36727220,
  "user": {
    "login": "jancborchardt",
    "id": 925062,
    "avatar_url": "https://avatars.githubusercontent.com/u/925062?v=3",
    "gravatar_id": "",
    "url": "https://api.github.com/users/jancborchardt",
    "html_url": "https://github.com/jancborchardt",
    "followers_url": "https://api.github.com/users/jancborchardt/followers",
    "following_url": "https://api.github.com/users/jancborchardt/following{/other_user}",
    "gists_url": "https://api.github.com/users/jancborchardt/gists{/gist_id}",
    "starred_url": "https://api.github.com/users/jancborchardt/starred{/owner}{/repo}",
    "subscriptions_url": "https://api.github.com/users/jancborchardt/subscriptions",
    "organizations_url": "https://api.github.com/users/jancborchardt/orgs",
    "repos_url": "https://api.github.com/users/jancborchardt/repos",
    "events_url": "https://api.github.com/users/jancborchardt/events{/privacy}",
    "received_events_url": "https://api.github.com/users/jancborchardt/received_events",
    "type": "User",
    "site_admin": false
  },
  "created_at": "2014-03-05T10:08:35Z",
  "updated_at": "2014-03-05T10:08:35Z",
  "body": "@MorrisJobke thanks! :) Good initiative."
}
]
