[
{
  "url": "https://api.github.com/repos/owncloud/core/issues/comments/136634306",
  "html_url": "https://github.com/owncloud/core/issues/18729#issuecomment-136634306",
  "issue_url": "https://api.github.com/repos/owncloud/core/issues/18729",
  "id": 136634306,
  "user": {
    "login": "DeepDiver1975",
    "id": 1005065,
    "avatar_url": "https://avatars.githubusercontent.com/u/1005065?v=3",
    "gravatar_id": "",
    "url": "https://api.github.com/users/DeepDiver1975",
    "html_url": "https://github.com/DeepDiver1975",
    "followers_url": "https://api.github.com/users/DeepDiver1975/followers",
    "following_url": "https://api.github.com/users/DeepDiver1975/following{/other_user}",
    "gists_url": "https://api.github.com/users/DeepDiver1975/gists{/gist_id}",
    "starred_url": "https://api.github.com/users/DeepDiver1975/starred{/owner}{/repo}",
    "subscriptions_url": "https://api.github.com/users/DeepDiver1975/subscriptions",
    "organizations_url": "https://api.github.com/users/DeepDiver1975/orgs",
    "repos_url": "https://api.github.com/users/DeepDiver1975/repos",
    "events_url": "https://api.github.com/users/DeepDiver1975/events{/privacy}",
    "received_events_url": "https://api.github.com/users/DeepDiver1975/received_events",
    "type": "User",
    "site_admin": false
  },
  "created_at": "2015-09-01T08:23:08Z",
  "updated_at": "2015-09-01T08:23:08Z",
  "body": "THX  for this detailed report! But we need this in te files-antivirus repo. THX.\r\n\r\n@vicdeo fyi\r\n"
}
, {
  "url": "https://api.github.com/repos/owncloud/core/issues/comments/136637279",
  "html_url": "https://github.com/owncloud/core/issues/18729#issuecomment-136637279",
  "issue_url": "https://api.github.com/repos/owncloud/core/issues/18729",
  "id": 136637279,
  "user": {
    "login": "DeepDiver1975",
    "id": 1005065,
    "avatar_url": "https://avatars.githubusercontent.com/u/1005065?v=3",
    "gravatar_id": "",
    "url": "https://api.github.com/users/DeepDiver1975",
    "html_url": "https://github.com/DeepDiver1975",
    "followers_url": "https://api.github.com/users/DeepDiver1975/followers",
    "following_url": "https://api.github.com/users/DeepDiver1975/following{/other_user}",
    "gists_url": "https://api.github.com/users/DeepDiver1975/gists{/gist_id}",
    "starred_url": "https://api.github.com/users/DeepDiver1975/starred{/owner}{/repo}",
    "subscriptions_url": "https://api.github.com/users/DeepDiver1975/subscriptions",
    "organizations_url": "https://api.github.com/users/DeepDiver1975/orgs",
    "repos_url": "https://api.github.com/users/DeepDiver1975/repos",
    "events_url": "https://api.github.com/users/DeepDiver1975/events{/privacy}",
    "received_events_url": "https://api.github.com/users/DeepDiver1975/received_events",
    "type": "User",
    "site_admin": false
  },
  "created_at": "2015-09-01T08:41:08Z",
  "updated_at": "2015-09-01T08:41:08Z",
  "body": "THX  for this detailed report! But we need this in te files-antivirus repo. THX.\r\n\r\n@vicdeo fyi\r\n"
}
, {
  "url": "https://api.github.com/repos/owncloud/core/issues/comments/136722039",
  "html_url": "https://github.com/owncloud/core/issues/18729#issuecomment-136722039",
  "issue_url": "https://api.github.com/repos/owncloud/core/issues/18729",
  "id": 136722039,
  "user": {
    "login": "VicDeo",
    "id": 991300,
    "avatar_url": "https://avatars.githubusercontent.com/u/991300?v=3",
    "gravatar_id": "",
    "url": "https://api.github.com/users/VicDeo",
    "html_url": "https://github.com/VicDeo",
    "followers_url": "https://api.github.com/users/VicDeo/followers",
    "following_url": "https://api.github.com/users/VicDeo/following{/other_user}",
    "gists_url": "https://api.github.com/users/VicDeo/gists{/gist_id}",
    "starred_url": "https://api.github.com/users/VicDeo/starred{/owner}{/repo}",
    "subscriptions_url": "https://api.github.com/users/VicDeo/subscriptions",
    "organizations_url": "https://api.github.com/users/VicDeo/orgs",
    "repos_url": "https://api.github.com/users/VicDeo/repos",
    "events_url": "https://api.github.com/users/VicDeo/events{/privacy}",
    "received_events_url": "https://api.github.com/users/VicDeo/received_events",
    "type": "User",
    "site_admin": false
  },
  "created_at": "2015-09-01T13:27:20Z",
  "updated_at": "2015-09-01T13:27:20Z",
  "body": "known as https://github.com/owncloud/files_antivirus/issues/68"
}
]
