[
{
  "url": "https://api.github.com/repos/owncloud/core/issues/comments/20824638",
  "html_url": "https://github.com/owncloud/core/pull/4029#issuecomment-20824638",
  "issue_url": "https://api.github.com/repos/owncloud/core/issues/4029",
  "id": 20824638,
  "user": {
    "login": "karlitschek",
    "id": 867445,
    "avatar_url": "https://avatars.githubusercontent.com/u/867445?v=3",
    "gravatar_id": "",
    "url": "https://api.github.com/users/karlitschek",
    "html_url": "https://github.com/karlitschek",
    "followers_url": "https://api.github.com/users/karlitschek/followers",
    "following_url": "https://api.github.com/users/karlitschek/following{/other_user}",
    "gists_url": "https://api.github.com/users/karlitschek/gists{/gist_id}",
    "starred_url": "https://api.github.com/users/karlitschek/starred{/owner}{/repo}",
    "subscriptions_url": "https://api.github.com/users/karlitschek/subscriptions",
    "organizations_url": "https://api.github.com/users/karlitschek/orgs",
    "repos_url": "https://api.github.com/users/karlitschek/repos",
    "events_url": "https://api.github.com/users/karlitschek/events{/privacy}",
    "received_events_url": "https://api.github.com/users/karlitschek/received_events",
    "type": "User",
    "site_admin": false
  },
  "created_at": "2013-07-11T16:33:07Z",
  "updated_at": "2013-07-11T16:33:07Z",
  "body": "Good idea :+1: "
}
, {
  "url": "https://api.github.com/repos/owncloud/core/issues/comments/20827067",
  "html_url": "https://github.com/owncloud/core/pull/4029#issuecomment-20827067",
  "issue_url": "https://api.github.com/repos/owncloud/core/issues/4029",
  "id": 20827067,
  "user": {
    "login": "tanghus",
    "id": 533222,
    "avatar_url": "https://avatars.githubusercontent.com/u/533222?v=3",
    "gravatar_id": "",
    "url": "https://api.github.com/users/tanghus",
    "html_url": "https://github.com/tanghus",
    "followers_url": "https://api.github.com/users/tanghus/followers",
    "following_url": "https://api.github.com/users/tanghus/following{/other_user}",
    "gists_url": "https://api.github.com/users/tanghus/gists{/gist_id}",
    "starred_url": "https://api.github.com/users/tanghus/starred{/owner}{/repo}",
    "subscriptions_url": "https://api.github.com/users/tanghus/subscriptions",
    "organizations_url": "https://api.github.com/users/tanghus/orgs",
    "repos_url": "https://api.github.com/users/tanghus/repos",
    "events_url": "https://api.github.com/users/tanghus/events{/privacy}",
    "received_events_url": "https://api.github.com/users/tanghus/received_events",
    "type": "User",
    "site_admin": false
  },
  "created_at": "2013-07-11T17:13:34Z",
  "updated_at": "2013-07-11T17:13:34Z",
  "body": "@VicDeo you've accidentally added 3rdparty submodule"
}
, {
  "url": "https://api.github.com/repos/owncloud/core/issues/comments/20839980",
  "html_url": "https://github.com/owncloud/core/pull/4029#issuecomment-20839980",
  "issue_url": "https://api.github.com/repos/owncloud/core/issues/4029",
  "id": 20839980,
  "user": {
    "login": "VicDeo",
    "id": 991300,
    "avatar_url": "https://avatars.githubusercontent.com/u/991300?v=3",
    "gravatar_id": "",
    "url": "https://api.github.com/users/VicDeo",
    "html_url": "https://github.com/VicDeo",
    "followers_url": "https://api.github.com/users/VicDeo/followers",
    "following_url": "https://api.github.com/users/VicDeo/following{/other_user}",
    "gists_url": "https://api.github.com/users/VicDeo/gists{/gist_id}",
    "starred_url": "https://api.github.com/users/VicDeo/starred{/owner}{/repo}",
    "subscriptions_url": "https://api.github.com/users/VicDeo/subscriptions",
    "organizations_url": "https://api.github.com/users/VicDeo/orgs",
    "repos_url": "https://api.github.com/users/VicDeo/repos",
    "events_url": "https://api.github.com/users/VicDeo/events{/privacy}",
    "received_events_url": "https://api.github.com/users/VicDeo/received_events",
    "type": "User",
    "site_admin": false
  },
  "created_at": "2013-07-11T20:30:26Z",
  "updated_at": "2013-07-11T20:32:25Z",
  "body": "@tanghus not exactly. I commited submodule update to the main project, as it is suggested by submodule reference. This can be easily reverted.\r\n\r\nNote: Jenkins won't be happy with this PR until respective changes are merged to 3rdparty."
}
, {
  "url": "https://api.github.com/repos/owncloud/core/issues/comments/20841854",
  "html_url": "https://github.com/owncloud/core/pull/4029#issuecomment-20841854",
  "issue_url": "https://api.github.com/repos/owncloud/core/issues/4029",
  "id": 20841854,
  "user": {
    "login": "tanghus",
    "id": 533222,
    "avatar_url": "https://avatars.githubusercontent.com/u/533222?v=3",
    "gravatar_id": "",
    "url": "https://api.github.com/users/tanghus",
    "html_url": "https://github.com/tanghus",
    "followers_url": "https://api.github.com/users/tanghus/followers",
    "following_url": "https://api.github.com/users/tanghus/following{/other_user}",
    "gists_url": "https://api.github.com/users/tanghus/gists{/gist_id}",
    "starred_url": "https://api.github.com/users/tanghus/starred{/owner}{/repo}",
    "subscriptions_url": "https://api.github.com/users/tanghus/subscriptions",
    "organizations_url": "https://api.github.com/users/tanghus/orgs",
    "repos_url": "https://api.github.com/users/tanghus/repos",
    "events_url": "https://api.github.com/users/tanghus/events{/privacy}",
    "received_events_url": "https://api.github.com/users/tanghus/received_events",
    "type": "User",
    "site_admin": false
  },
  "created_at": "2013-07-11T20:59:38Z",
  "updated_at": "2013-07-11T20:59:38Z",
  "body": "I only realized you had also made changes to 3rdparty later, sry"
}
, {
  "url": "https://api.github.com/repos/owncloud/core/issues/comments/21778882",
  "html_url": "https://github.com/owncloud/core/pull/4029#issuecomment-21778882",
  "issue_url": "https://api.github.com/repos/owncloud/core/issues/4029",
  "id": 21778882,
  "user": {
    "login": "DeepDiver1975",
    "id": 1005065,
    "avatar_url": "https://avatars.githubusercontent.com/u/1005065?v=3",
    "gravatar_id": "",
    "url": "https://api.github.com/users/DeepDiver1975",
    "html_url": "https://github.com/DeepDiver1975",
    "followers_url": "https://api.github.com/users/DeepDiver1975/followers",
    "following_url": "https://api.github.com/users/DeepDiver1975/following{/other_user}",
    "gists_url": "https://api.github.com/users/DeepDiver1975/gists{/gist_id}",
    "starred_url": "https://api.github.com/users/DeepDiver1975/starred{/owner}{/repo}",
    "subscriptions_url": "https://api.github.com/users/DeepDiver1975/subscriptions",
    "organizations_url": "https://api.github.com/users/DeepDiver1975/orgs",
    "repos_url": "https://api.github.com/users/DeepDiver1975/repos",
    "events_url": "https://api.github.com/users/DeepDiver1975/events{/privacy}",
    "received_events_url": "https://api.github.com/users/DeepDiver1975/received_events",
    "type": "User",
    "site_admin": false
  },
  "created_at": "2013-07-30T09:20:19Z",
  "updated_at": "2013-07-30T09:20:19Z",
  "body": "@VicDeo this pull request would help on stable5 - master switched to doctrine and schema handling has changed\r\nCan you resubmit this as stable5 fix? THX\r\n\r\n@bartv2 is the doctrine schema stuff capable of dealing with this scenario? THX"
}
]
