[
{
  "url": "https://api.github.com/repos/owncloud/core/issues/comments/42355821",
  "html_url": "https://github.com/owncloud/core/issues/7688#issuecomment-42355821",
  "issue_url": "https://api.github.com/repos/owncloud/core/issues/7688",
  "id": 42355821,
  "user": {
    "login": "Jeroen52",
    "id": 2915526,
    "avatar_url": "https://avatars.githubusercontent.com/u/2915526?v=3",
    "gravatar_id": "",
    "url": "https://api.github.com/users/Jeroen52",
    "html_url": "https://github.com/Jeroen52",
    "followers_url": "https://api.github.com/users/Jeroen52/followers",
    "following_url": "https://api.github.com/users/Jeroen52/following{/other_user}",
    "gists_url": "https://api.github.com/users/Jeroen52/gists{/gist_id}",
    "starred_url": "https://api.github.com/users/Jeroen52/starred{/owner}{/repo}",
    "subscriptions_url": "https://api.github.com/users/Jeroen52/subscriptions",
    "organizations_url": "https://api.github.com/users/Jeroen52/orgs",
    "repos_url": "https://api.github.com/users/Jeroen52/repos",
    "events_url": "https://api.github.com/users/Jeroen52/events{/privacy}",
    "received_events_url": "https://api.github.com/users/Jeroen52/received_events",
    "type": "User",
    "site_admin": false
  },
  "created_at": "2014-05-06T20:40:17Z",
  "updated_at": "2014-05-06T20:40:17Z",
  "body": "I also suggest showing the total usage of all users."
}
, {
  "url": "https://api.github.com/repos/owncloud/core/issues/comments/48108929",
  "html_url": "https://github.com/owncloud/core/issues/7688#issuecomment-48108929",
  "issue_url": "https://api.github.com/repos/owncloud/core/issues/7688",
  "id": 48108929,
  "user": {
    "login": "kaplandani",
    "id": 7215011,
    "avatar_url": "https://avatars.githubusercontent.com/u/7215011?v=3",
    "gravatar_id": "",
    "url": "https://api.github.com/users/kaplandani",
    "html_url": "https://github.com/kaplandani",
    "followers_url": "https://api.github.com/users/kaplandani/followers",
    "following_url": "https://api.github.com/users/kaplandani/following{/other_user}",
    "gists_url": "https://api.github.com/users/kaplandani/gists{/gist_id}",
    "starred_url": "https://api.github.com/users/kaplandani/starred{/owner}{/repo}",
    "subscriptions_url": "https://api.github.com/users/kaplandani/subscriptions",
    "organizations_url": "https://api.github.com/users/kaplandani/orgs",
    "repos_url": "https://api.github.com/users/kaplandani/repos",
    "events_url": "https://api.github.com/users/kaplandani/events{/privacy}",
    "received_events_url": "https://api.github.com/users/kaplandani/received_events",
    "type": "User",
    "site_admin": false
  },
  "created_at": "2014-07-06T11:15:13Z",
  "updated_at": "2014-07-06T11:15:13Z",
  "body": "I vote for this one as well. need to know all user's usage vs. quotas...."
}
, {
  "url": "https://api.github.com/repos/owncloud/core/issues/comments/65808259",
  "html_url": "https://github.com/owncloud/core/issues/7688#issuecomment-65808259",
  "issue_url": "https://api.github.com/repos/owncloud/core/issues/7688",
  "id": 65808259,
  "user": {
    "login": "PVince81",
    "id": 277525,
    "avatar_url": "https://avatars.githubusercontent.com/u/277525?v=3",
    "gravatar_id": "",
    "url": "https://api.github.com/users/PVince81",
    "html_url": "https://github.com/PVince81",
    "followers_url": "https://api.github.com/users/PVince81/followers",
    "following_url": "https://api.github.com/users/PVince81/following{/other_user}",
    "gists_url": "https://api.github.com/users/PVince81/gists{/gist_id}",
    "starred_url": "https://api.github.com/users/PVince81/starred{/owner}{/repo}",
    "subscriptions_url": "https://api.github.com/users/PVince81/subscriptions",
    "organizations_url": "https://api.github.com/users/PVince81/orgs",
    "repos_url": "https://api.github.com/users/PVince81/repos",
    "events_url": "https://api.github.com/users/PVince81/events{/privacy}",
    "received_events_url": "https://api.github.com/users/PVince81/received_events",
    "type": "User",
    "site_admin": false
  },
  "created_at": "2014-12-05T15:50:23Z",
  "updated_at": "2014-12-05T15:50:23Z",
  "body": "Closing in favor of https://github.com/owncloud/core/issues/12602"
}
]
