[
{
  "url": "https://api.github.com/repos/owncloud/core/issues/comments/134202781",
  "html_url": "https://github.com/owncloud/core/issues/18519#issuecomment-134202781",
  "issue_url": "https://api.github.com/repos/owncloud/core/issues/18519",
  "id": 134202781,
  "user": {
    "login": "MorrisJobke",
    "id": 245432,
    "avatar_url": "https://avatars.githubusercontent.com/u/245432?v=3",
    "gravatar_id": "",
    "url": "https://api.github.com/users/MorrisJobke",
    "html_url": "https://github.com/MorrisJobke",
    "followers_url": "https://api.github.com/users/MorrisJobke/followers",
    "following_url": "https://api.github.com/users/MorrisJobke/following{/other_user}",
    "gists_url": "https://api.github.com/users/MorrisJobke/gists{/gist_id}",
    "starred_url": "https://api.github.com/users/MorrisJobke/starred{/owner}{/repo}",
    "subscriptions_url": "https://api.github.com/users/MorrisJobke/subscriptions",
    "organizations_url": "https://api.github.com/users/MorrisJobke/orgs",
    "repos_url": "https://api.github.com/users/MorrisJobke/repos",
    "events_url": "https://api.github.com/users/MorrisJobke/events{/privacy}",
    "received_events_url": "https://api.github.com/users/MorrisJobke/received_events",
    "type": "User",
    "site_admin": false
  },
  "created_at": "2015-08-24T13:35:50Z",
  "updated_at": "2015-08-24T13:35:50Z",
  "body": "@oparoz Is there anything in the logs?"
}
, {
  "url": "https://api.github.com/repos/owncloud/core/issues/comments/134202902",
  "html_url": "https://github.com/owncloud/core/issues/18519#issuecomment-134202902",
  "issue_url": "https://api.github.com/repos/owncloud/core/issues/18519",
  "id": 134202902,
  "user": {
    "login": "MorrisJobke",
    "id": 245432,
    "avatar_url": "https://avatars.githubusercontent.com/u/245432?v=3",
    "gravatar_id": "",
    "url": "https://api.github.com/users/MorrisJobke",
    "html_url": "https://github.com/MorrisJobke",
    "followers_url": "https://api.github.com/users/MorrisJobke/followers",
    "following_url": "https://api.github.com/users/MorrisJobke/following{/other_user}",
    "gists_url": "https://api.github.com/users/MorrisJobke/gists{/gist_id}",
    "starred_url": "https://api.github.com/users/MorrisJobke/starred{/owner}{/repo}",
    "subscriptions_url": "https://api.github.com/users/MorrisJobke/subscriptions",
    "organizations_url": "https://api.github.com/users/MorrisJobke/orgs",
    "repos_url": "https://api.github.com/users/MorrisJobke/repos",
    "events_url": "https://api.github.com/users/MorrisJobke/events{/privacy}",
    "received_events_url": "https://api.github.com/users/MorrisJobke/received_events",
    "type": "User",
    "site_admin": false
  },
  "created_at": "2015-08-24T13:36:28Z",
  "updated_at": "2015-08-24T13:36:28Z",
  "body": "@oparoz Any change to get to know which versions of server (old & new) and activity (old & new) you used?"
}
, {
  "url": "https://api.github.com/repos/owncloud/core/issues/comments/134235318",
  "html_url": "https://github.com/owncloud/core/issues/18519#issuecomment-134235318",
  "issue_url": "https://api.github.com/repos/owncloud/core/issues/18519",
  "id": 134235318,
  "user": {
    "login": "oparoz",
    "id": 323220,
    "avatar_url": "https://avatars.githubusercontent.com/u/323220?v=3",
    "gravatar_id": "",
    "url": "https://api.github.com/users/oparoz",
    "html_url": "https://github.com/oparoz",
    "followers_url": "https://api.github.com/users/oparoz/followers",
    "following_url": "https://api.github.com/users/oparoz/following{/other_user}",
    "gists_url": "https://api.github.com/users/oparoz/gists{/gist_id}",
    "starred_url": "https://api.github.com/users/oparoz/starred{/owner}{/repo}",
    "subscriptions_url": "https://api.github.com/users/oparoz/subscriptions",
    "organizations_url": "https://api.github.com/users/oparoz/orgs",
    "repos_url": "https://api.github.com/users/oparoz/repos",
    "events_url": "https://api.github.com/users/oparoz/events{/privacy}",
    "received_events_url": "https://api.github.com/users/oparoz/received_events",
    "type": "User",
    "site_admin": false
  },
  "created_at": "2015-08-24T15:01:44Z",
  "updated_at": "2015-08-24T15:01:44Z",
  "body": "Nothing in the ownCloud log, apart from the updateexception, but Firefox refused to connect to the update endpoint and the reply way an unparsable response error.\r\n\r\nThere was no server upgrade, just a git pull. For the activity app:\r\n```\r\nFrom https://github.com/owncloud/activity\r\n   7847faa..dddba49  master     -> origin/master\r\n```\r\n\r\nBut if nobody else is seeing this, then it's probably just a glitch when using master as opposed to releases."
}
, {
  "url": "https://api.github.com/repos/owncloud/core/issues/comments/135065903",
  "html_url": "https://github.com/owncloud/core/issues/18519#issuecomment-135065903",
  "issue_url": "https://api.github.com/repos/owncloud/core/issues/18519",
  "id": 135065903,
  "user": {
    "login": "PVince81",
    "id": 277525,
    "avatar_url": "https://avatars.githubusercontent.com/u/277525?v=3",
    "gravatar_id": "",
    "url": "https://api.github.com/users/PVince81",
    "html_url": "https://github.com/PVince81",
    "followers_url": "https://api.github.com/users/PVince81/followers",
    "following_url": "https://api.github.com/users/PVince81/following{/other_user}",
    "gists_url": "https://api.github.com/users/PVince81/gists{/gist_id}",
    "starred_url": "https://api.github.com/users/PVince81/starred{/owner}{/repo}",
    "subscriptions_url": "https://api.github.com/users/PVince81/subscriptions",
    "organizations_url": "https://api.github.com/users/PVince81/orgs",
    "repos_url": "https://api.github.com/users/PVince81/repos",
    "events_url": "https://api.github.com/users/PVince81/events{/privacy}",
    "received_events_url": "https://api.github.com/users/PVince81/received_events",
    "type": "User",
    "site_admin": false
  },
  "created_at": "2015-08-26T15:33:23Z",
  "updated_at": "2015-08-26T15:33:23Z",
  "body": "Refresh the page, update again.\r\nProblem solved :wink: "
}
, {
  "url": "https://api.github.com/repos/owncloud/core/issues/comments/135066111",
  "html_url": "https://github.com/owncloud/core/issues/18519#issuecomment-135066111",
  "issue_url": "https://api.github.com/repos/owncloud/core/issues/18519",
  "id": 135066111,
  "user": {
    "login": "PVince81",
    "id": 277525,
    "avatar_url": "https://avatars.githubusercontent.com/u/277525?v=3",
    "gravatar_id": "",
    "url": "https://api.github.com/users/PVince81",
    "html_url": "https://github.com/PVince81",
    "followers_url": "https://api.github.com/users/PVince81/followers",
    "following_url": "https://api.github.com/users/PVince81/following{/other_user}",
    "gists_url": "https://api.github.com/users/PVince81/gists{/gist_id}",
    "starred_url": "https://api.github.com/users/PVince81/starred{/owner}{/repo}",
    "subscriptions_url": "https://api.github.com/users/PVince81/subscriptions",
    "organizations_url": "https://api.github.com/users/PVince81/orgs",
    "repos_url": "https://api.github.com/users/PVince81/repos",
    "events_url": "https://api.github.com/users/PVince81/events{/privacy}",
    "received_events_url": "https://api.github.com/users/PVince81/received_events",
    "type": "User",
    "site_admin": false
  },
  "created_at": "2015-08-26T15:33:37Z",
  "updated_at": "2015-08-26T15:33:37Z",
  "body": "Duplicate of https://github.com/owncloud/core/issues/18557"
}
, {
  "url": "https://api.github.com/repos/owncloud/core/issues/comments/135073597",
  "html_url": "https://github.com/owncloud/core/issues/18519#issuecomment-135073597",
  "issue_url": "https://api.github.com/repos/owncloud/core/issues/18519",
  "id": 135073597,
  "user": {
    "login": "oparoz",
    "id": 323220,
    "avatar_url": "https://avatars.githubusercontent.com/u/323220?v=3",
    "gravatar_id": "",
    "url": "https://api.github.com/users/oparoz",
    "html_url": "https://github.com/oparoz",
    "followers_url": "https://api.github.com/users/oparoz/followers",
    "following_url": "https://api.github.com/users/oparoz/following{/other_user}",
    "gists_url": "https://api.github.com/users/oparoz/gists{/gist_id}",
    "starred_url": "https://api.github.com/users/oparoz/starred{/owner}{/repo}",
    "subscriptions_url": "https://api.github.com/users/oparoz/subscriptions",
    "organizations_url": "https://api.github.com/users/oparoz/orgs",
    "repos_url": "https://api.github.com/users/oparoz/repos",
    "events_url": "https://api.github.com/users/oparoz/events{/privacy}",
    "received_events_url": "https://api.github.com/users/oparoz/received_events",
    "type": "User",
    "site_admin": false
  },
  "created_at": "2015-08-26T15:45:17Z",
  "updated_at": "2015-08-26T15:45:17Z",
  "body": "Nope, I refreshed many times and ended up in a loop.\r\n\r\nSo this needs to stay open until I can either reproduce or confirm it as fixed."
}
, {
  "url": "https://api.github.com/repos/owncloud/core/issues/comments/135074977",
  "html_url": "https://github.com/owncloud/core/issues/18519#issuecomment-135074977",
  "issue_url": "https://api.github.com/repos/owncloud/core/issues/18519",
  "id": 135074977,
  "user": {
    "login": "PVince81",
    "id": 277525,
    "avatar_url": "https://avatars.githubusercontent.com/u/277525?v=3",
    "gravatar_id": "",
    "url": "https://api.github.com/users/PVince81",
    "html_url": "https://github.com/PVince81",
    "followers_url": "https://api.github.com/users/PVince81/followers",
    "following_url": "https://api.github.com/users/PVince81/following{/other_user}",
    "gists_url": "https://api.github.com/users/PVince81/gists{/gist_id}",
    "starred_url": "https://api.github.com/users/PVince81/starred{/owner}{/repo}",
    "subscriptions_url": "https://api.github.com/users/PVince81/subscriptions",
    "organizations_url": "https://api.github.com/users/PVince81/orgs",
    "repos_url": "https://api.github.com/users/PVince81/repos",
    "events_url": "https://api.github.com/users/PVince81/events{/privacy}",
    "received_events_url": "https://api.github.com/users/PVince81/received_events",
    "type": "User",
    "site_admin": false
  },
  "created_at": "2015-08-26T15:46:58Z",
  "updated_at": "2015-08-26T15:46:58Z",
  "body": "Argh, so possible yet another bug.\r\n\r\nDoes it disappear when you clear the cache + cookies ? (to check if related to session)"
}
, {
  "url": "https://api.github.com/repos/owncloud/core/issues/comments/135076105",
  "html_url": "https://github.com/owncloud/core/issues/18519#issuecomment-135076105",
  "issue_url": "https://api.github.com/repos/owncloud/core/issues/18519",
  "id": 135076105,
  "user": {
    "login": "oparoz",
    "id": 323220,
    "avatar_url": "https://avatars.githubusercontent.com/u/323220?v=3",
    "gravatar_id": "",
    "url": "https://api.github.com/users/oparoz",
    "html_url": "https://github.com/oparoz",
    "followers_url": "https://api.github.com/users/oparoz/followers",
    "following_url": "https://api.github.com/users/oparoz/following{/other_user}",
    "gists_url": "https://api.github.com/users/oparoz/gists{/gist_id}",
    "starred_url": "https://api.github.com/users/oparoz/starred{/owner}{/repo}",
    "subscriptions_url": "https://api.github.com/users/oparoz/subscriptions",
    "organizations_url": "https://api.github.com/users/oparoz/orgs",
    "repos_url": "https://api.github.com/users/oparoz/repos",
    "events_url": "https://api.github.com/users/oparoz/events{/privacy}",
    "received_events_url": "https://api.github.com/users/oparoz/received_events",
    "type": "User",
    "site_admin": false
  },
  "created_at": "2015-08-26T15:48:33Z",
  "updated_at": "2015-08-26T15:48:33Z",
  "body": "Since I manually upgraded using occ (or I couldn't use the instance), I can't test any more, until I need to upgrade another app.\r\n\r\nLet me see if I can find another app to update..."
}
, {
  "url": "https://api.github.com/repos/owncloud/core/issues/comments/135076905",
  "html_url": "https://github.com/owncloud/core/issues/18519#issuecomment-135076905",
  "issue_url": "https://api.github.com/repos/owncloud/core/issues/18519",
  "id": 135076905,
  "user": {
    "login": "PVince81",
    "id": 277525,
    "avatar_url": "https://avatars.githubusercontent.com/u/277525?v=3",
    "gravatar_id": "",
    "url": "https://api.github.com/users/PVince81",
    "html_url": "https://github.com/PVince81",
    "followers_url": "https://api.github.com/users/PVince81/followers",
    "following_url": "https://api.github.com/users/PVince81/following{/other_user}",
    "gists_url": "https://api.github.com/users/PVince81/gists{/gist_id}",
    "starred_url": "https://api.github.com/users/PVince81/starred{/owner}{/repo}",
    "subscriptions_url": "https://api.github.com/users/PVince81/subscriptions",
    "organizations_url": "https://api.github.com/users/PVince81/orgs",
    "repos_url": "https://api.github.com/users/PVince81/repos",
    "events_url": "https://api.github.com/users/PVince81/events{/privacy}",
    "received_events_url": "https://api.github.com/users/PVince81/received_events",
    "type": "User",
    "site_admin": false
  },
  "created_at": "2015-08-26T15:50:30Z",
  "updated_at": "2015-08-26T15:50:30Z",
  "body": "You can also install a test app then manually increase its version to trigger an app update. Then make sure to delete that app afterwards :smile: "
}
, {
  "url": "https://api.github.com/repos/owncloud/core/issues/comments/135077248",
  "html_url": "https://github.com/owncloud/core/issues/18519#issuecomment-135077248",
  "issue_url": "https://api.github.com/repos/owncloud/core/issues/18519",
  "id": 135077248,
  "user": {
    "login": "oparoz",
    "id": 323220,
    "avatar_url": "https://avatars.githubusercontent.com/u/323220?v=3",
    "gravatar_id": "",
    "url": "https://api.github.com/users/oparoz",
    "html_url": "https://github.com/oparoz",
    "followers_url": "https://api.github.com/users/oparoz/followers",
    "following_url": "https://api.github.com/users/oparoz/following{/other_user}",
    "gists_url": "https://api.github.com/users/oparoz/gists{/gist_id}",
    "starred_url": "https://api.github.com/users/oparoz/starred{/owner}{/repo}",
    "subscriptions_url": "https://api.github.com/users/oparoz/subscriptions",
    "organizations_url": "https://api.github.com/users/oparoz/orgs",
    "repos_url": "https://api.github.com/users/oparoz/repos",
    "events_url": "https://api.github.com/users/oparoz/events{/privacy}",
    "received_events_url": "https://api.github.com/users/oparoz/received_events",
    "type": "User",
    "site_admin": false
  },
  "created_at": "2015-08-26T15:51:55Z",
  "updated_at": "2015-08-26T15:51:55Z",
  "body": "Is there such a test app somewhere? If I use a normal app, then it messes up the next updates since app info is never removed from the DB."
}
, {
  "url": "https://api.github.com/repos/owncloud/core/issues/comments/135079132",
  "html_url": "https://github.com/owncloud/core/issues/18519#issuecomment-135079132",
  "issue_url": "https://api.github.com/repos/owncloud/core/issues/18519",
  "id": 135079132,
  "user": {
    "login": "oparoz",
    "id": 323220,
    "avatar_url": "https://avatars.githubusercontent.com/u/323220?v=3",
    "gravatar_id": "",
    "url": "https://api.github.com/users/oparoz",
    "html_url": "https://github.com/oparoz",
    "followers_url": "https://api.github.com/users/oparoz/followers",
    "following_url": "https://api.github.com/users/oparoz/following{/other_user}",
    "gists_url": "https://api.github.com/users/oparoz/gists{/gist_id}",
    "starred_url": "https://api.github.com/users/oparoz/starred{/owner}{/repo}",
    "subscriptions_url": "https://api.github.com/users/oparoz/subscriptions",
    "organizations_url": "https://api.github.com/users/oparoz/orgs",
    "repos_url": "https://api.github.com/users/oparoz/repos",
    "events_url": "https://api.github.com/users/oparoz/events{/privacy}",
    "received_events_url": "https://api.github.com/users/oparoz/received_events",
    "type": "User",
    "site_admin": false
  },
  "created_at": "2015-08-26T15:59:33Z",
  "updated_at": "2015-08-26T15:59:33Z",
  "body": "Just updated an app and got the problem you described in the other ticket. The updater wants to update the Files app.\r\n\r\nI cleared the cache and hit ctrl+f5 and still get the empty message.\r\n\r\nIn the web console, I definitely see weird things...\r\n\r\n* 2 oc_sessionPassphrase request cookies, with different hashes\r\n* 2 response cookies. 1 with a hash, another saying \"deleted\"\r\n"
}
, {
  "url": "https://api.github.com/repos/owncloud/core/issues/comments/135080295",
  "html_url": "https://github.com/owncloud/core/issues/18519#issuecomment-135080295",
  "issue_url": "https://api.github.com/repos/owncloud/core/issues/18519",
  "id": 135080295,
  "user": {
    "login": "oparoz",
    "id": 323220,
    "avatar_url": "https://avatars.githubusercontent.com/u/323220?v=3",
    "gravatar_id": "",
    "url": "https://api.github.com/users/oparoz",
    "html_url": "https://github.com/oparoz",
    "followers_url": "https://api.github.com/users/oparoz/followers",
    "following_url": "https://api.github.com/users/oparoz/following{/other_user}",
    "gists_url": "https://api.github.com/users/oparoz/gists{/gist_id}",
    "starred_url": "https://api.github.com/users/oparoz/starred{/owner}{/repo}",
    "subscriptions_url": "https://api.github.com/users/oparoz/subscriptions",
    "organizations_url": "https://api.github.com/users/oparoz/orgs",
    "repos_url": "https://api.github.com/users/oparoz/repos",
    "events_url": "https://api.github.com/users/oparoz/events{/privacy}",
    "received_events_url": "https://api.github.com/users/oparoz/received_events",
    "type": "User",
    "site_admin": false
  },
  "created_at": "2015-08-26T16:04:08Z",
  "updated_at": "2015-08-26T16:04:08Z",
  "body": "If I switch to PR #18574\r\n\r\nThen I get an error message in the GUI\r\n\r\n> Possible CSRF attack. Connection will be closed."
}
, {
  "url": "https://api.github.com/repos/owncloud/core/issues/comments/135082288",
  "html_url": "https://github.com/owncloud/core/issues/18519#issuecomment-135082288",
  "issue_url": "https://api.github.com/repos/owncloud/core/issues/18519",
  "id": 135082288,
  "user": {
    "login": "PVince81",
    "id": 277525,
    "avatar_url": "https://avatars.githubusercontent.com/u/277525?v=3",
    "gravatar_id": "",
    "url": "https://api.github.com/users/PVince81",
    "html_url": "https://github.com/PVince81",
    "followers_url": "https://api.github.com/users/PVince81/followers",
    "following_url": "https://api.github.com/users/PVince81/following{/other_user}",
    "gists_url": "https://api.github.com/users/PVince81/gists{/gist_id}",
    "starred_url": "https://api.github.com/users/PVince81/starred{/owner}{/repo}",
    "subscriptions_url": "https://api.github.com/users/PVince81/subscriptions",
    "organizations_url": "https://api.github.com/users/PVince81/orgs",
    "repos_url": "https://api.github.com/users/PVince81/repos",
    "events_url": "https://api.github.com/users/PVince81/events{/privacy}",
    "received_events_url": "https://api.github.com/users/PVince81/received_events",
    "type": "User",
    "site_admin": false
  },
  "created_at": "2015-08-26T16:12:22Z",
  "updated_at": "2015-08-26T16:12:22Z",
  "body": "CC @LukasReschke "
}
, {
  "url": "https://api.github.com/repos/owncloud/core/issues/comments/136159882",
  "html_url": "https://github.com/owncloud/core/issues/18519#issuecomment-136159882",
  "issue_url": "https://api.github.com/repos/owncloud/core/issues/18519",
  "id": 136159882,
  "user": {
    "login": "oparoz",
    "id": 323220,
    "avatar_url": "https://avatars.githubusercontent.com/u/323220?v=3",
    "gravatar_id": "",
    "url": "https://api.github.com/users/oparoz",
    "html_url": "https://github.com/oparoz",
    "followers_url": "https://api.github.com/users/oparoz/followers",
    "following_url": "https://api.github.com/users/oparoz/following{/other_user}",
    "gists_url": "https://api.github.com/users/oparoz/gists{/gist_id}",
    "starred_url": "https://api.github.com/users/oparoz/starred{/owner}{/repo}",
    "subscriptions_url": "https://api.github.com/users/oparoz/subscriptions",
    "organizations_url": "https://api.github.com/users/oparoz/orgs",
    "repos_url": "https://api.github.com/users/oparoz/repos",
    "events_url": "https://api.github.com/users/oparoz/events{/privacy}",
    "received_events_url": "https://api.github.com/users/oparoz/received_events",
    "type": "User",
    "site_admin": false
  },
  "created_at": "2015-08-30T16:55:26Z",
  "updated_at": "2015-08-30T16:55:26Z",
  "body": "A recent git pull fixed the issue. So, I'm closing it and will re-open if it breaks again."
}
]
