[
{
  "url": "https://api.github.com/repos/owncloud/core/issues/comments/64913012",
  "html_url": "https://github.com/owncloud/core/issues/12502#issuecomment-64913012",
  "issue_url": "https://api.github.com/repos/owncloud/core/issues/12502",
  "id": 64913012,
  "user": {
    "login": "karlitschek",
    "id": 867445,
    "avatar_url": "https://avatars.githubusercontent.com/u/867445?v=3",
    "gravatar_id": "",
    "url": "https://api.github.com/users/karlitschek",
    "html_url": "https://github.com/karlitschek",
    "followers_url": "https://api.github.com/users/karlitschek/followers",
    "following_url": "https://api.github.com/users/karlitschek/following{/other_user}",
    "gists_url": "https://api.github.com/users/karlitschek/gists{/gist_id}",
    "starred_url": "https://api.github.com/users/karlitschek/starred{/owner}{/repo}",
    "subscriptions_url": "https://api.github.com/users/karlitschek/subscriptions",
    "organizations_url": "https://api.github.com/users/karlitschek/orgs",
    "repos_url": "https://api.github.com/users/karlitschek/repos",
    "events_url": "https://api.github.com/users/karlitschek/events{/privacy}",
    "received_events_url": "https://api.github.com/users/karlitschek/received_events",
    "type": "User",
    "site_admin": false
  },
  "created_at": "2014-11-28T16:54:12Z",
  "updated_at": "2014-11-28T16:54:12Z",
  "body": "Only after serious performance tests that show that we are not getting slower because of that."
}
, {
  "url": "https://api.github.com/repos/owncloud/core/issues/comments/64915864",
  "html_url": "https://github.com/owncloud/core/issues/12502#issuecomment-64915864",
  "issue_url": "https://api.github.com/repos/owncloud/core/issues/12502",
  "id": 64915864,
  "user": {
    "login": "PVince81",
    "id": 277525,
    "avatar_url": "https://avatars.githubusercontent.com/u/277525?v=3",
    "gravatar_id": "",
    "url": "https://api.github.com/users/PVince81",
    "html_url": "https://github.com/PVince81",
    "followers_url": "https://api.github.com/users/PVince81/followers",
    "following_url": "https://api.github.com/users/PVince81/following{/other_user}",
    "gists_url": "https://api.github.com/users/PVince81/gists{/gist_id}",
    "starred_url": "https://api.github.com/users/PVince81/starred{/owner}{/repo}",
    "subscriptions_url": "https://api.github.com/users/PVince81/subscriptions",
    "organizations_url": "https://api.github.com/users/PVince81/orgs",
    "repos_url": "https://api.github.com/users/PVince81/repos",
    "events_url": "https://api.github.com/users/PVince81/events{/privacy}",
    "received_events_url": "https://api.github.com/users/PVince81/received_events",
    "type": "User",
    "site_admin": false
  },
  "created_at": "2014-11-28T17:30:45Z",
  "updated_at": "2014-11-28T17:30:45Z",
  "body": "We'll actually get faster and better with this, considering the following:\r\n\r\nCurrently querying the file cache needs to go to the Cache class which does a \"SELECT\" on `oc_filecache`.\r\nNow, how can an external app like \"metadata/tags/favorite\" extend that select to include additional fields like tags and join on the tags table ? How can we even add filters in the \"WHERE\" clause ?\r\n\r\nWe can't.\r\n\r\nCurrently we're doing the joins and sort on the PHP side which is ugly and inefficient. See an example here: https://github.com/owncloud/metadata/pull/2/files#diff-7d68f805cd62ca74aea358f46e62a20dR47\r\nTo be able to return \"tags\" together with the file information I need to query the tags for every file separately and then inject them into the result using a PHP loop. I'm pretty sure that having a SQL JOIN would be more efficient than that (that's where we can be faster)\r\n\r\nNow you could say I could try and extend the Cache class to allow apps to hook into the SQL query and add additional fields and stuff. But do we want to manually concatenate many pieces of SQL strings together ? I'm not sure, and there's a risk to reach this level of ugliness und unreadability like in share.php: https://github.com/owncloud/core/blob/master/lib/private/share/share.php#L1278\r\n\r\nIf Doctrine provides a way to build SQL queres in a modular way that would also allow apps to elegantly plugin their own pieces of the statement (fields, where, sort), then I think we should give it a try.\r\n"
}
, {
  "url": "https://api.github.com/repos/owncloud/core/issues/comments/64919536",
  "html_url": "https://github.com/owncloud/core/issues/12502#issuecomment-64919536",
  "issue_url": "https://api.github.com/repos/owncloud/core/issues/12502",
  "id": 64919536,
  "user": {
    "login": "karlitschek",
    "id": 867445,
    "avatar_url": "https://avatars.githubusercontent.com/u/867445?v=3",
    "gravatar_id": "",
    "url": "https://api.github.com/users/karlitschek",
    "html_url": "https://github.com/karlitschek",
    "followers_url": "https://api.github.com/users/karlitschek/followers",
    "following_url": "https://api.github.com/users/karlitschek/following{/other_user}",
    "gists_url": "https://api.github.com/users/karlitschek/gists{/gist_id}",
    "starred_url": "https://api.github.com/users/karlitschek/starred{/owner}{/repo}",
    "subscriptions_url": "https://api.github.com/users/karlitschek/subscriptions",
    "organizations_url": "https://api.github.com/users/karlitschek/orgs",
    "repos_url": "https://api.github.com/users/karlitschek/repos",
    "events_url": "https://api.github.com/users/karlitschek/events{/privacy}",
    "received_events_url": "https://api.github.com/users/karlitschek/received_events",
    "type": "User",
    "site_admin": false
  },
  "created_at": "2014-11-28T18:26:42Z",
  "updated_at": "2014-11-28T18:27:23Z",
  "body": "Interesting example but also a cornercase. Adding an abstraction layer doesn't make things faster in 99% of all cases. The best we can get is to have only a small performance penalty. \r\nJust look at the performance data of other software who moved to ORM.\r\nYou get the optimal performance if you understand how a database works and which tables, rows and indexes exists. Than you can write the queries in the optimal way. \r\nI know that this kind of low level opimisation is uncool today. A lot of people don't even learn SQL anymore.\r\n\r\n\r\nThis said: i'm open to move to ORM in the long term for selected areas. IF we understand the performance impact and we look at the generated SQL.\r\n\r\n\r\n"
}
, {
  "url": "https://api.github.com/repos/owncloud/core/issues/comments/64922406",
  "html_url": "https://github.com/owncloud/core/issues/12502#issuecomment-64922406",
  "issue_url": "https://api.github.com/repos/owncloud/core/issues/12502",
  "id": 64922406,
  "user": {
    "login": "PVince81",
    "id": 277525,
    "avatar_url": "https://avatars.githubusercontent.com/u/277525?v=3",
    "gravatar_id": "",
    "url": "https://api.github.com/users/PVince81",
    "html_url": "https://github.com/PVince81",
    "followers_url": "https://api.github.com/users/PVince81/followers",
    "following_url": "https://api.github.com/users/PVince81/following{/other_user}",
    "gists_url": "https://api.github.com/users/PVince81/gists{/gist_id}",
    "starred_url": "https://api.github.com/users/PVince81/starred{/owner}{/repo}",
    "subscriptions_url": "https://api.github.com/users/PVince81/subscriptions",
    "organizations_url": "https://api.github.com/users/PVince81/orgs",
    "repos_url": "https://api.github.com/users/PVince81/repos",
    "events_url": "https://api.github.com/users/PVince81/events{/privacy}",
    "received_events_url": "https://api.github.com/users/PVince81/received_events",
    "type": "User",
    "site_admin": false
  },
  "created_at": "2014-11-28T19:13:28Z",
  "updated_at": "2014-11-28T19:13:28Z",
  "body": "I think there is a big difference between the query builder an ORM.\r\n\r\nIf the query builder is just a helper to create SQL expressions, then it shouldn't have any performance impact (unless it is stupid and adds cruft in the SQL strings, that's what we need to check). In the worst case we can then write our own. Goal is to avoid code that looks like the share.php example I posted above and make it possible to plugin external apps.\r\n\r\nI would be against having an ORM though which is a higher level of abstraction."
}
, {
  "url": "https://api.github.com/repos/owncloud/core/issues/comments/64924229",
  "html_url": "https://github.com/owncloud/core/issues/12502#issuecomment-64924229",
  "issue_url": "https://api.github.com/repos/owncloud/core/issues/12502",
  "id": 64924229,
  "user": {
    "login": "DeepDiver1975",
    "id": 1005065,
    "avatar_url": "https://avatars.githubusercontent.com/u/1005065?v=3",
    "gravatar_id": "",
    "url": "https://api.github.com/users/DeepDiver1975",
    "html_url": "https://github.com/DeepDiver1975",
    "followers_url": "https://api.github.com/users/DeepDiver1975/followers",
    "following_url": "https://api.github.com/users/DeepDiver1975/following{/other_user}",
    "gists_url": "https://api.github.com/users/DeepDiver1975/gists{/gist_id}",
    "starred_url": "https://api.github.com/users/DeepDiver1975/starred{/owner}{/repo}",
    "subscriptions_url": "https://api.github.com/users/DeepDiver1975/subscriptions",
    "organizations_url": "https://api.github.com/users/DeepDiver1975/orgs",
    "repos_url": "https://api.github.com/users/DeepDiver1975/repos",
    "events_url": "https://api.github.com/users/DeepDiver1975/events{/privacy}",
    "received_events_url": "https://api.github.com/users/DeepDiver1975/received_events",
    "type": "User",
    "site_admin": false
  },
  "created_at": "2014-11-28T19:47:18Z",
  "updated_at": "2014-11-28T19:47:18Z",
  "body": "I totally agree that introducing query builder is a much lesser effort compared to introduce orm.\r\n\r\nWhat we have to keep in mind regarding ORM is the fact than (in theory) using ORM will allow us to move to nosql databases which is in terms of scalability the as-of-today approach - just like using object store for blob data.\r\n\r\n(We might even want to think about moving our structured data into the object store ????)"
}
, {
  "url": "https://api.github.com/repos/owncloud/core/issues/comments/69628550",
  "html_url": "https://github.com/owncloud/core/issues/12502#issuecomment-69628550",
  "issue_url": "https://api.github.com/repos/owncloud/core/issues/12502",
  "id": 69628550,
  "user": {
    "login": "DeepDiver1975",
    "id": 1005065,
    "avatar_url": "https://avatars.githubusercontent.com/u/1005065?v=3",
    "gravatar_id": "",
    "url": "https://api.github.com/users/DeepDiver1975",
    "html_url": "https://github.com/DeepDiver1975",
    "followers_url": "https://api.github.com/users/DeepDiver1975/followers",
    "following_url": "https://api.github.com/users/DeepDiver1975/following{/other_user}",
    "gists_url": "https://api.github.com/users/DeepDiver1975/gists{/gist_id}",
    "starred_url": "https://api.github.com/users/DeepDiver1975/starred{/owner}{/repo}",
    "subscriptions_url": "https://api.github.com/users/DeepDiver1975/subscriptions",
    "organizations_url": "https://api.github.com/users/DeepDiver1975/orgs",
    "repos_url": "https://api.github.com/users/DeepDiver1975/repos",
    "events_url": "https://api.github.com/users/DeepDiver1975/events{/privacy}",
    "received_events_url": "https://api.github.com/users/DeepDiver1975/received_events",
    "type": "User",
    "site_admin": false
  },
  "created_at": "2015-01-12T19:22:14Z",
  "updated_at": "2015-01-12T19:22:14Z",
  "body": "#13278 shows how querybuilder can be used"
}
]
