[
{
  "url": "https://api.github.com/repos/owncloud/core/issues/comments/154249126",
  "html_url": "https://github.com/owncloud/core/issues/20343#issuecomment-154249126",
  "issue_url": "https://api.github.com/repos/owncloud/core/issues/20343",
  "id": 154249126,
  "user": {
    "login": "LukasReschke",
    "id": 878997,
    "avatar_url": "https://avatars.githubusercontent.com/u/878997?v=3",
    "gravatar_id": "",
    "url": "https://api.github.com/users/LukasReschke",
    "html_url": "https://github.com/LukasReschke",
    "followers_url": "https://api.github.com/users/LukasReschke/followers",
    "following_url": "https://api.github.com/users/LukasReschke/following{/other_user}",
    "gists_url": "https://api.github.com/users/LukasReschke/gists{/gist_id}",
    "starred_url": "https://api.github.com/users/LukasReschke/starred{/owner}{/repo}",
    "subscriptions_url": "https://api.github.com/users/LukasReschke/subscriptions",
    "organizations_url": "https://api.github.com/users/LukasReschke/orgs",
    "repos_url": "https://api.github.com/users/LukasReschke/repos",
    "events_url": "https://api.github.com/users/LukasReschke/events{/privacy}",
    "received_events_url": "https://api.github.com/users/LukasReschke/received_events",
    "type": "User",
    "site_admin": false
  },
  "created_at": "2015-11-06T00:49:24Z",
  "updated_at": "2015-11-06T00:49:24Z",
  "body": "Thanks a lot for your report. To debug this properly we need some more information.\r\n\r\nCould you please fill out the issue template as described at https://github.com/owncloud/core/blob/master/CONTRIBUTING.md#short-version? Thanks a lot!"
}
, {
  "url": "https://api.github.com/repos/owncloud/core/issues/comments/154251582",
  "html_url": "https://github.com/owncloud/core/issues/20343#issuecomment-154251582",
  "issue_url": "https://api.github.com/repos/owncloud/core/issues/20343",
  "id": 154251582,
  "user": {
    "login": "kebenxiaoming",
    "id": 8503116,
    "avatar_url": "https://avatars.githubusercontent.com/u/8503116?v=3",
    "gravatar_id": "",
    "url": "https://api.github.com/users/kebenxiaoming",
    "html_url": "https://github.com/kebenxiaoming",
    "followers_url": "https://api.github.com/users/kebenxiaoming/followers",
    "following_url": "https://api.github.com/users/kebenxiaoming/following{/other_user}",
    "gists_url": "https://api.github.com/users/kebenxiaoming/gists{/gist_id}",
    "starred_url": "https://api.github.com/users/kebenxiaoming/starred{/owner}{/repo}",
    "subscriptions_url": "https://api.github.com/users/kebenxiaoming/subscriptions",
    "organizations_url": "https://api.github.com/users/kebenxiaoming/orgs",
    "repos_url": "https://api.github.com/users/kebenxiaoming/repos",
    "events_url": "https://api.github.com/users/kebenxiaoming/events{/privacy}",
    "received_events_url": "https://api.github.com/users/kebenxiaoming/received_events",
    "type": "User",
    "site_admin": false
  },
  "created_at": "2015-11-06T01:05:42Z",
  "updated_at": "2015-11-06T03:13:35Z",
  "body": "@LukasReschke .OK,thx.\r\nExpected behaviour:\r\nI want to use swift.\r\n\r\nActual behaviour\r\nsomething happened in owncloud.log when I upload or delete files\r\n\r\nServer configuration\r\nOperating system:\r\n\r\ncentos 7\r\n\r\nWeb server:\r\n\r\napache\r\n\r\nDatabase:\r\n\r\nmysql\r\n\r\nPHP version:\r\n\r\n5.4\r\n\r\nownCloud version:\r\n\r\n8.0.4.2\r\n\r\nUpdated from an older ownCloud or fresh install:\r\n\r\nfresh install\r\n\r\nList of activated apps:\r\n\r\nfiles_external and other default\r\nwhit swift we use swift proxy and corresponding three object-storage server machines\r\n\r\nownCloud log:\r\n\r\n{\"reqId\":\"d60b3118a7d20f90e323463eaf1b2f49\",\"remoteAddr\":\"127.0.0.1\",\"app\":\"files_external\",\"message\":\"Client error response\\r\\n[status code] 404\\r\\n[reason phrase] Not Found\\r\\n[url] http:\\/\\/192.168.200.188:8080\\/v1\\/AUTH_0fd51bb47779419e890c7320c12fbc43\\/1001001166\\/1.zip\",\"level\":3,\"time\":\"2015-11-05T09:08:49+00:00\"}\r\n\r\nBrowser log:\r\n\r\nnothing\r\n\r\nAt last,I can use owncloud normally,but also can see log,this problem can't effect normal use."
}
, {
  "url": "https://api.github.com/repos/owncloud/core/issues/comments/154292511",
  "html_url": "https://github.com/owncloud/core/issues/20343#issuecomment-154292511",
  "issue_url": "https://api.github.com/repos/owncloud/core/issues/20343",
  "id": 154292511,
  "user": {
    "login": "RealRancor",
    "id": 2248459,
    "avatar_url": "https://avatars.githubusercontent.com/u/2248459?v=3",
    "gravatar_id": "",
    "url": "https://api.github.com/users/RealRancor",
    "html_url": "https://github.com/RealRancor",
    "followers_url": "https://api.github.com/users/RealRancor/followers",
    "following_url": "https://api.github.com/users/RealRancor/following{/other_user}",
    "gists_url": "https://api.github.com/users/RealRancor/gists{/gist_id}",
    "starred_url": "https://api.github.com/users/RealRancor/starred{/owner}{/repo}",
    "subscriptions_url": "https://api.github.com/users/RealRancor/subscriptions",
    "organizations_url": "https://api.github.com/users/RealRancor/orgs",
    "repos_url": "https://api.github.com/users/RealRancor/repos",
    "events_url": "https://api.github.com/users/RealRancor/events{/privacy}",
    "received_events_url": "https://api.github.com/users/RealRancor/received_events",
    "type": "User",
    "site_admin": false
  },
  "created_at": "2015-11-06T05:34:13Z",
  "updated_at": "2015-11-06T05:34:13Z",
  "body": "> ownCloud version: 8.0.4.2\r\n\r\nHave you considered to update/upgrade to one of the latest stable 8.0.9/8.1.4/8.2.0. When having such issues its always a good idea to use the latest available version to avoid reporting an issue which might be already fixed."
}
, {
  "url": "https://api.github.com/repos/owncloud/core/issues/comments/154300542",
  "html_url": "https://github.com/owncloud/core/issues/20343#issuecomment-154300542",
  "issue_url": "https://api.github.com/repos/owncloud/core/issues/20343",
  "id": 154300542,
  "user": {
    "login": "kebenxiaoming",
    "id": 8503116,
    "avatar_url": "https://avatars.githubusercontent.com/u/8503116?v=3",
    "gravatar_id": "",
    "url": "https://api.github.com/users/kebenxiaoming",
    "html_url": "https://github.com/kebenxiaoming",
    "followers_url": "https://api.github.com/users/kebenxiaoming/followers",
    "following_url": "https://api.github.com/users/kebenxiaoming/following{/other_user}",
    "gists_url": "https://api.github.com/users/kebenxiaoming/gists{/gist_id}",
    "starred_url": "https://api.github.com/users/kebenxiaoming/starred{/owner}{/repo}",
    "subscriptions_url": "https://api.github.com/users/kebenxiaoming/subscriptions",
    "organizations_url": "https://api.github.com/users/kebenxiaoming/orgs",
    "repos_url": "https://api.github.com/users/kebenxiaoming/repos",
    "events_url": "https://api.github.com/users/kebenxiaoming/events{/privacy}",
    "received_events_url": "https://api.github.com/users/kebenxiaoming/received_events",
    "type": "User",
    "site_admin": false
  },
  "created_at": "2015-11-06T05:45:54Z",
  "updated_at": "2015-11-06T05:46:10Z",
  "body": "@RealRancor \r\n\r\nMaybe I can modify this like the lastest version:\r\n\r\nprivate function doesObjectExist($path) {\r\n\t\ttry {\r\n\t\t\t$this->getContainer()->getPartialObject($path);\r\n\t\t\treturn true;\r\n\t\t} catch (ClientErrorResponseException $e) {\r\n\t\t\t// Expected response is \"404 Not Found\", so only log if it isn't\r\n\t\t\tif ($e->getResponse()->getStatusCode() !== 404) {\r\n\t\t\t\t\\OCP\\Util::writeLog('files_external', $e->getMessage(), \\OCP\\Util::ERROR);\r\n\t\t\t}\r\n\t\t\treturn false;\r\n\t\t}\r\n\t}\r\n\r\nthis is the lastest version modify,not write \"404 Not Found\" in log....\r\n\r\nThanks a lot."
}
, {
  "url": "https://api.github.com/repos/owncloud/core/issues/comments/154330936",
  "html_url": "https://github.com/owncloud/core/issues/20343#issuecomment-154330936",
  "issue_url": "https://api.github.com/repos/owncloud/core/issues/20343",
  "id": 154330936,
  "user": {
    "login": "MorrisJobke",
    "id": 245432,
    "avatar_url": "https://avatars.githubusercontent.com/u/245432?v=3",
    "gravatar_id": "",
    "url": "https://api.github.com/users/MorrisJobke",
    "html_url": "https://github.com/MorrisJobke",
    "followers_url": "https://api.github.com/users/MorrisJobke/followers",
    "following_url": "https://api.github.com/users/MorrisJobke/following{/other_user}",
    "gists_url": "https://api.github.com/users/MorrisJobke/gists{/gist_id}",
    "starred_url": "https://api.github.com/users/MorrisJobke/starred{/owner}{/repo}",
    "subscriptions_url": "https://api.github.com/users/MorrisJobke/subscriptions",
    "organizations_url": "https://api.github.com/users/MorrisJobke/orgs",
    "repos_url": "https://api.github.com/users/MorrisJobke/repos",
    "events_url": "https://api.github.com/users/MorrisJobke/events{/privacy}",
    "received_events_url": "https://api.github.com/users/MorrisJobke/received_events",
    "type": "User",
    "site_admin": false
  },
  "created_at": "2015-11-06T07:05:44Z",
  "updated_at": "2015-11-06T07:05:44Z",
  "body": "> Have you considered to update/upgrade to one of the latest stable 8.0.9/8.1.4/8.2.0. When having such issues its always a good idea to use the latest available version to avoid reporting an issue which might be already fixed.\r\n\r\nIndeed. We improved a lot for the swift storage in 8.2.0. Can you please try this version? Thanks"
}
, {
  "url": "https://api.github.com/repos/owncloud/core/issues/comments/154334725",
  "html_url": "https://github.com/owncloud/core/issues/20343#issuecomment-154334725",
  "issue_url": "https://api.github.com/repos/owncloud/core/issues/20343",
  "id": 154334725,
  "user": {
    "login": "kebenxiaoming",
    "id": 8503116,
    "avatar_url": "https://avatars.githubusercontent.com/u/8503116?v=3",
    "gravatar_id": "",
    "url": "https://api.github.com/users/kebenxiaoming",
    "html_url": "https://github.com/kebenxiaoming",
    "followers_url": "https://api.github.com/users/kebenxiaoming/followers",
    "following_url": "https://api.github.com/users/kebenxiaoming/following{/other_user}",
    "gists_url": "https://api.github.com/users/kebenxiaoming/gists{/gist_id}",
    "starred_url": "https://api.github.com/users/kebenxiaoming/starred{/owner}{/repo}",
    "subscriptions_url": "https://api.github.com/users/kebenxiaoming/subscriptions",
    "organizations_url": "https://api.github.com/users/kebenxiaoming/orgs",
    "repos_url": "https://api.github.com/users/kebenxiaoming/repos",
    "events_url": "https://api.github.com/users/kebenxiaoming/events{/privacy}",
    "received_events_url": "https://api.github.com/users/kebenxiaoming/received_events",
    "type": "User",
    "site_admin": false
  },
  "created_at": "2015-11-06T07:30:59Z",
  "updated_at": "2015-11-06T07:30:59Z",
  "body": "@MorrisJobke \r\nI will consider to update to the latest stable version 8.2.0.Thanks"
}
, {
  "url": "https://api.github.com/repos/owncloud/core/issues/comments/154396754",
  "html_url": "https://github.com/owncloud/core/issues/20343#issuecomment-154396754",
  "issue_url": "https://api.github.com/repos/owncloud/core/issues/20343",
  "id": 154396754,
  "user": {
    "login": "PVince81",
    "id": 277525,
    "avatar_url": "https://avatars.githubusercontent.com/u/277525?v=3",
    "gravatar_id": "",
    "url": "https://api.github.com/users/PVince81",
    "html_url": "https://github.com/PVince81",
    "followers_url": "https://api.github.com/users/PVince81/followers",
    "following_url": "https://api.github.com/users/PVince81/following{/other_user}",
    "gists_url": "https://api.github.com/users/PVince81/gists{/gist_id}",
    "starred_url": "https://api.github.com/users/PVince81/starred{/owner}{/repo}",
    "subscriptions_url": "https://api.github.com/users/PVince81/subscriptions",
    "organizations_url": "https://api.github.com/users/PVince81/orgs",
    "repos_url": "https://api.github.com/users/PVince81/repos",
    "events_url": "https://api.github.com/users/PVince81/events{/privacy}",
    "received_events_url": "https://api.github.com/users/PVince81/received_events",
    "type": "User",
    "site_admin": false
  },
  "created_at": "2015-11-06T12:24:25Z",
  "updated_at": "2015-11-06T12:24:25Z",
  "body": "(note: you need to first upgrade to 8.1.x and only then 8.2.x)"
}
, {
  "url": "https://api.github.com/repos/owncloud/core/issues/comments/154775069",
  "html_url": "https://github.com/owncloud/core/issues/20343#issuecomment-154775069",
  "issue_url": "https://api.github.com/repos/owncloud/core/issues/20343",
  "id": 154775069,
  "user": {
    "login": "kebenxiaoming",
    "id": 8503116,
    "avatar_url": "https://avatars.githubusercontent.com/u/8503116?v=3",
    "gravatar_id": "",
    "url": "https://api.github.com/users/kebenxiaoming",
    "html_url": "https://github.com/kebenxiaoming",
    "followers_url": "https://api.github.com/users/kebenxiaoming/followers",
    "following_url": "https://api.github.com/users/kebenxiaoming/following{/other_user}",
    "gists_url": "https://api.github.com/users/kebenxiaoming/gists{/gist_id}",
    "starred_url": "https://api.github.com/users/kebenxiaoming/starred{/owner}{/repo}",
    "subscriptions_url": "https://api.github.com/users/kebenxiaoming/subscriptions",
    "organizations_url": "https://api.github.com/users/kebenxiaoming/orgs",
    "repos_url": "https://api.github.com/users/kebenxiaoming/repos",
    "events_url": "https://api.github.com/users/kebenxiaoming/events{/privacy}",
    "received_events_url": "https://api.github.com/users/kebenxiaoming/received_events",
    "type": "User",
    "site_admin": false
  },
  "created_at": "2015-11-08T04:23:00Z",
  "updated_at": "2015-11-08T04:23:00Z",
  "body": "@PVince81 OK,Thanks for your reminding."
}
]
