[
{
  "url": "https://api.github.com/repos/owncloud/core/issues/comments/30923023",
  "html_url": "https://github.com/owncloud/core/issues/6505#issuecomment-30923023",
  "issue_url": "https://api.github.com/repos/owncloud/core/issues/6505",
  "id": 30923023,
  "user": {
    "login": "karlitschek",
    "id": 867445,
    "avatar_url": "https://avatars.githubusercontent.com/u/867445?v=3",
    "gravatar_id": "",
    "url": "https://api.github.com/users/karlitschek",
    "html_url": "https://github.com/karlitschek",
    "followers_url": "https://api.github.com/users/karlitschek/followers",
    "following_url": "https://api.github.com/users/karlitschek/following{/other_user}",
    "gists_url": "https://api.github.com/users/karlitschek/gists{/gist_id}",
    "starred_url": "https://api.github.com/users/karlitschek/starred{/owner}{/repo}",
    "subscriptions_url": "https://api.github.com/users/karlitschek/subscriptions",
    "organizations_url": "https://api.github.com/users/karlitschek/orgs",
    "repos_url": "https://api.github.com/users/karlitschek/repos",
    "events_url": "https://api.github.com/users/karlitschek/events{/privacy}",
    "received_events_url": "https://api.github.com/users/karlitschek/received_events",
    "type": "User",
    "site_admin": false
  },
  "created_at": "2013-12-19T11:48:45Z",
  "updated_at": "2013-12-19T11:48:45Z",
  "body": "This is most likely a configuration error on you server, router or firewall. Can you check if you can open the WebDAV url from outside with a WebDAV client? Perhaps something in your firewall blocks certain requests. Or your apache is configured to only listen to requests from the internal network? "
}
]
