[
{
  "url": "https://api.github.com/repos/owncloud/core/issues/comments/17192098",
  "html_url": "https://github.com/owncloud/core/issues/3138#issuecomment-17192098",
  "issue_url": "https://api.github.com/repos/owncloud/core/issues/3138",
  "id": 17192098,
  "user": {
    "login": "jancborchardt",
    "id": 925062,
    "avatar_url": "https://avatars.githubusercontent.com/u/925062?v=3",
    "gravatar_id": "",
    "url": "https://api.github.com/users/jancborchardt",
    "html_url": "https://github.com/jancborchardt",
    "followers_url": "https://api.github.com/users/jancborchardt/followers",
    "following_url": "https://api.github.com/users/jancborchardt/following{/other_user}",
    "gists_url": "https://api.github.com/users/jancborchardt/gists{/gist_id}",
    "starred_url": "https://api.github.com/users/jancborchardt/starred{/owner}{/repo}",
    "subscriptions_url": "https://api.github.com/users/jancborchardt/subscriptions",
    "organizations_url": "https://api.github.com/users/jancborchardt/orgs",
    "repos_url": "https://api.github.com/users/jancborchardt/repos",
    "events_url": "https://api.github.com/users/jancborchardt/events{/privacy}",
    "received_events_url": "https://api.github.com/users/jancborchardt/received_events",
    "type": "User",
    "site_admin": false
  },
  "created_at": "2013-04-29T20:28:56Z",
  "updated_at": "2013-04-29T20:28:56Z",
  "body": "@niktsl strange, I can not reproduce this at all (with the multiselect bar). Also I fixed this in an earlier version. (The icon select thing is intentional, will change as soon as thumbnails are in.)\r\nDo you get any errors in the browser console? Does it also happen with the latest git master?\r\n\r\n@raghunayyar @Kondou-ger @kabum can you reproduce this?"
}
, {
  "url": "https://api.github.com/repos/owncloud/core/issues/comments/17214016",
  "html_url": "https://github.com/owncloud/core/issues/3138#issuecomment-17214016",
  "issue_url": "https://api.github.com/repos/owncloud/core/issues/3138",
  "id": 17214016,
  "user": {
    "login": "MorrisJobke",
    "id": 245432,
    "avatar_url": "https://avatars.githubusercontent.com/u/245432?v=3",
    "gravatar_id": "",
    "url": "https://api.github.com/users/MorrisJobke",
    "html_url": "https://github.com/MorrisJobke",
    "followers_url": "https://api.github.com/users/MorrisJobke/followers",
    "following_url": "https://api.github.com/users/MorrisJobke/following{/other_user}",
    "gists_url": "https://api.github.com/users/MorrisJobke/gists{/gist_id}",
    "starred_url": "https://api.github.com/users/MorrisJobke/starred{/owner}{/repo}",
    "subscriptions_url": "https://api.github.com/users/MorrisJobke/subscriptions",
    "organizations_url": "https://api.github.com/users/MorrisJobke/orgs",
    "repos_url": "https://api.github.com/users/MorrisJobke/repos",
    "events_url": "https://api.github.com/users/MorrisJobke/events{/privacy}",
    "received_events_url": "https://api.github.com/users/MorrisJobke/received_events",
    "type": "User",
    "site_admin": false
  },
  "created_at": "2013-04-30T07:54:56Z",
  "updated_at": "2013-04-30T07:54:56Z",
  "body": "Tested on Linux with Chromium 26 and Firefox 20 with ownCloud 5.0.5 and current master. Not reproducable.\r\n\r\nThe selection counter replaces the table header (name, size, modification date)"
}
, {
  "url": "https://api.github.com/repos/owncloud/core/issues/comments/17214142",
  "html_url": "https://github.com/owncloud/core/issues/3138#issuecomment-17214142",
  "issue_url": "https://api.github.com/repos/owncloud/core/issues/3138",
  "id": 17214142,
  "user": {
    "login": "raghunayyar",
    "id": 992488,
    "avatar_url": "https://avatars.githubusercontent.com/u/992488?v=3",
    "gravatar_id": "",
    "url": "https://api.github.com/users/raghunayyar",
    "html_url": "https://github.com/raghunayyar",
    "followers_url": "https://api.github.com/users/raghunayyar/followers",
    "following_url": "https://api.github.com/users/raghunayyar/following{/other_user}",
    "gists_url": "https://api.github.com/users/raghunayyar/gists{/gist_id}",
    "starred_url": "https://api.github.com/users/raghunayyar/starred{/owner}{/repo}",
    "subscriptions_url": "https://api.github.com/users/raghunayyar/subscriptions",
    "organizations_url": "https://api.github.com/users/raghunayyar/orgs",
    "repos_url": "https://api.github.com/users/raghunayyar/repos",
    "events_url": "https://api.github.com/users/raghunayyar/events{/privacy}",
    "received_events_url": "https://api.github.com/users/raghunayyar/received_events",
    "type": "User",
    "site_admin": false
  },
  "created_at": "2013-04-30T07:58:37Z",
  "updated_at": "2013-04-30T07:58:37Z",
  "body": "I can't reproduce this either on Chrome 26 on Mac OSX."
}
, {
  "url": "https://api.github.com/repos/owncloud/core/issues/comments/17216428",
  "html_url": "https://github.com/owncloud/core/issues/3138#issuecomment-17216428",
  "issue_url": "https://api.github.com/repos/owncloud/core/issues/3138",
  "id": 17216428,
  "user": {
    "login": "niktsl",
    "id": 4262441,
    "avatar_url": "https://avatars.githubusercontent.com/u/4262441?v=3",
    "gravatar_id": "",
    "url": "https://api.github.com/users/niktsl",
    "html_url": "https://github.com/niktsl",
    "followers_url": "https://api.github.com/users/niktsl/followers",
    "following_url": "https://api.github.com/users/niktsl/following{/other_user}",
    "gists_url": "https://api.github.com/users/niktsl/gists{/gist_id}",
    "starred_url": "https://api.github.com/users/niktsl/starred{/owner}{/repo}",
    "subscriptions_url": "https://api.github.com/users/niktsl/subscriptions",
    "organizations_url": "https://api.github.com/users/niktsl/orgs",
    "repos_url": "https://api.github.com/users/niktsl/repos",
    "events_url": "https://api.github.com/users/niktsl/events{/privacy}",
    "received_events_url": "https://api.github.com/users/niktsl/received_events",
    "type": "User",
    "site_admin": false
  },
  "created_at": "2013-04-30T09:00:02Z",
  "updated_at": "2013-04-30T09:00:02Z",
  "body": "Sorry for the delay, funny is that I can reproduce this kind of problem to any computer that I use either to my iPhone.\r\nThere are not js errors or something else, the only different is that to my installation ( debian repos opensuse ) the multi select bar is not appear at start but after you will make the first choice and at demo is every time visible.\r\nSend you some screens to check it, those screens are from another computers with difference operation systems. First on is from Windows XP and second one from Windows Server 2008 R2, all screens are with firefox or chrome.\r\n\r\n1. First picture is the local installation without choice any file, as you can see the multi select bar is not visible.\r\n2. Same as above with selected files \r\n3. The official demo - the multi select bar is visible even without selection of any file\r\n4. Local installation from another operation system\r\n\r\nOperation System for above screen shoots - Windows XP, Windows 2008 R2\r\nBrowser : Firefox 20.0.1\r\n\r\nThank you,\r\n\r\n![1](https://f.cloud.github.com/assets/4262441/443142/1a185398-b174-11e2-97b6-b4b453a11442.jpg)\r\n![2](https://f.cloud.github.com/assets/4262441/443144/1c5b8a6c-b174-11e2-9b33-34e3b47a85ae.jpg)\r\n![3](https://f.cloud.github.com/assets/4262441/443145/1e8dbb3e-b174-11e2-9588-dec3e9814852.jpg)\r\n![5](https://f.cloud.github.com/assets/4262441/443146/2186aa44-b174-11e2-957d-8545e5be8a87.jpg)\r\n\r\n\r\n"
}
, {
  "url": "https://api.github.com/repos/owncloud/core/issues/comments/17216610",
  "html_url": "https://github.com/owncloud/core/issues/3138#issuecomment-17216610",
  "issue_url": "https://api.github.com/repos/owncloud/core/issues/3138",
  "id": 17216610,
  "user": {
    "login": "MorrisJobke",
    "id": 245432,
    "avatar_url": "https://avatars.githubusercontent.com/u/245432?v=3",
    "gravatar_id": "",
    "url": "https://api.github.com/users/MorrisJobke",
    "html_url": "https://github.com/MorrisJobke",
    "followers_url": "https://api.github.com/users/MorrisJobke/followers",
    "following_url": "https://api.github.com/users/MorrisJobke/following{/other_user}",
    "gists_url": "https://api.github.com/users/MorrisJobke/gists{/gist_id}",
    "starred_url": "https://api.github.com/users/MorrisJobke/starred{/owner}{/repo}",
    "subscriptions_url": "https://api.github.com/users/MorrisJobke/subscriptions",
    "organizations_url": "https://api.github.com/users/MorrisJobke/orgs",
    "repos_url": "https://api.github.com/users/MorrisJobke/repos",
    "events_url": "https://api.github.com/users/MorrisJobke/events{/privacy}",
    "received_events_url": "https://api.github.com/users/MorrisJobke/received_events",
    "type": "User",
    "site_admin": false
  },
  "created_at": "2013-04-30T09:05:13Z",
  "updated_at": "2013-04-30T09:05:13Z",
  "body": "@jancborchardt Seems that some styles are broken. Is there a way to verify the content? Checksums or something like that, to track down the error to a specific file? i.e. diff the content of the 5.0.5 tar ball with the installation folder"
}
, {
  "url": "https://api.github.com/repos/owncloud/core/issues/comments/17217020",
  "html_url": "https://github.com/owncloud/core/issues/3138#issuecomment-17217020",
  "issue_url": "https://api.github.com/repos/owncloud/core/issues/3138",
  "id": 17217020,
  "user": {
    "login": "raghunayyar",
    "id": 992488,
    "avatar_url": "https://avatars.githubusercontent.com/u/992488?v=3",
    "gravatar_id": "",
    "url": "https://api.github.com/users/raghunayyar",
    "html_url": "https://github.com/raghunayyar",
    "followers_url": "https://api.github.com/users/raghunayyar/followers",
    "following_url": "https://api.github.com/users/raghunayyar/following{/other_user}",
    "gists_url": "https://api.github.com/users/raghunayyar/gists{/gist_id}",
    "starred_url": "https://api.github.com/users/raghunayyar/starred{/owner}{/repo}",
    "subscriptions_url": "https://api.github.com/users/raghunayyar/subscriptions",
    "organizations_url": "https://api.github.com/users/raghunayyar/orgs",
    "repos_url": "https://api.github.com/users/raghunayyar/repos",
    "events_url": "https://api.github.com/users/raghunayyar/events{/privacy}",
    "received_events_url": "https://api.github.com/users/raghunayyar/received_events",
    "type": "User",
    "site_admin": false
  },
  "created_at": "2013-04-30T09:15:38Z",
  "updated_at": "2013-04-30T09:15:38Z",
  "body": "Ok, I am Reopening this after the screenshots above. Though I can't reproduce this."
}
, {
  "url": "https://api.github.com/repos/owncloud/core/issues/comments/17217125",
  "html_url": "https://github.com/owncloud/core/issues/3138#issuecomment-17217125",
  "issue_url": "https://api.github.com/repos/owncloud/core/issues/3138",
  "id": 17217125,
  "user": {
    "login": "raghunayyar",
    "id": 992488,
    "avatar_url": "https://avatars.githubusercontent.com/u/992488?v=3",
    "gravatar_id": "",
    "url": "https://api.github.com/users/raghunayyar",
    "html_url": "https://github.com/raghunayyar",
    "followers_url": "https://api.github.com/users/raghunayyar/followers",
    "following_url": "https://api.github.com/users/raghunayyar/following{/other_user}",
    "gists_url": "https://api.github.com/users/raghunayyar/gists{/gist_id}",
    "starred_url": "https://api.github.com/users/raghunayyar/starred{/owner}{/repo}",
    "subscriptions_url": "https://api.github.com/users/raghunayyar/subscriptions",
    "organizations_url": "https://api.github.com/users/raghunayyar/orgs",
    "repos_url": "https://api.github.com/users/raghunayyar/repos",
    "events_url": "https://api.github.com/users/raghunayyar/events{/privacy}",
    "received_events_url": "https://api.github.com/users/raghunayyar/received_events",
    "type": "User",
    "site_admin": false
  },
  "created_at": "2013-04-30T09:18:33Z",
  "updated_at": "2013-04-30T09:18:33Z",
  "body": "@niktsl Ok, A wild guess. Can you disable all these apps and then tell us how it looks like? I had a similar issue with Impress App interfering with the entire oC styling. So, this seems very much possible. :) cc @kabum @jancborchardt "
}
, {
  "url": "https://api.github.com/repos/owncloud/core/issues/comments/17217244",
  "html_url": "https://github.com/owncloud/core/issues/3138#issuecomment-17217244",
  "issue_url": "https://api.github.com/repos/owncloud/core/issues/3138",
  "id": 17217244,
  "user": {
    "login": "MorrisJobke",
    "id": 245432,
    "avatar_url": "https://avatars.githubusercontent.com/u/245432?v=3",
    "gravatar_id": "",
    "url": "https://api.github.com/users/MorrisJobke",
    "html_url": "https://github.com/MorrisJobke",
    "followers_url": "https://api.github.com/users/MorrisJobke/followers",
    "following_url": "https://api.github.com/users/MorrisJobke/following{/other_user}",
    "gists_url": "https://api.github.com/users/MorrisJobke/gists{/gist_id}",
    "starred_url": "https://api.github.com/users/MorrisJobke/starred{/owner}{/repo}",
    "subscriptions_url": "https://api.github.com/users/MorrisJobke/subscriptions",
    "organizations_url": "https://api.github.com/users/MorrisJobke/orgs",
    "repos_url": "https://api.github.com/users/MorrisJobke/repos",
    "events_url": "https://api.github.com/users/MorrisJobke/events{/privacy}",
    "received_events_url": "https://api.github.com/users/MorrisJobke/received_events",
    "type": "User",
    "site_admin": false
  },
  "created_at": "2013-04-30T09:21:13Z",
  "updated_at": "2013-04-30T09:22:10Z",
  "body": "@niktsl a good way to do this is to disable the apps step by step and check the layout after each of them. But be sure to have a backup of the content of the disabled app, because it could be deleted."
}
, {
  "url": "https://api.github.com/repos/owncloud/core/issues/comments/17218231",
  "html_url": "https://github.com/owncloud/core/issues/3138#issuecomment-17218231",
  "issue_url": "https://api.github.com/repos/owncloud/core/issues/3138",
  "id": 17218231,
  "user": {
    "login": "niktsl",
    "id": 4262441,
    "avatar_url": "https://avatars.githubusercontent.com/u/4262441?v=3",
    "gravatar_id": "",
    "url": "https://api.github.com/users/niktsl",
    "html_url": "https://github.com/niktsl",
    "followers_url": "https://api.github.com/users/niktsl/followers",
    "following_url": "https://api.github.com/users/niktsl/following{/other_user}",
    "gists_url": "https://api.github.com/users/niktsl/gists{/gist_id}",
    "starred_url": "https://api.github.com/users/niktsl/starred{/owner}{/repo}",
    "subscriptions_url": "https://api.github.com/users/niktsl/subscriptions",
    "organizations_url": "https://api.github.com/users/niktsl/orgs",
    "repos_url": "https://api.github.com/users/niktsl/repos",
    "events_url": "https://api.github.com/users/niktsl/events{/privacy}",
    "received_events_url": "https://api.github.com/users/niktsl/received_events",
    "type": "User",
    "site_admin": false
  },
  "created_at": "2013-04-30T09:46:34Z",
  "updated_at": "2013-04-30T09:46:34Z",
  "body": "Well, when u watch broken layout u disable all the apps has to do with the lay out ( bookmarks, video pdf etc ) not the \"MailNotify1.4\"!\r\nAnyway, guys for me this was the problem and to be more specific, I enabled the apps and pop up come and said cannot enable. Second time pop up did not appear and app enabled. You need to make 2 time the mistake in order to take the broken lay out. Even as future seems to be interesting will have to disable for now. Can also someone else try it ?\r\n"
}
, {
  "url": "https://api.github.com/repos/owncloud/core/issues/comments/17231744",
  "html_url": "https://github.com/owncloud/core/issues/3138#issuecomment-17231744",
  "issue_url": "https://api.github.com/repos/owncloud/core/issues/3138",
  "id": 17231744,
  "user": {
    "login": "Kondou-ger",
    "id": 1410802,
    "avatar_url": "https://avatars.githubusercontent.com/u/1410802?v=3",
    "gravatar_id": "",
    "url": "https://api.github.com/users/Kondou-ger",
    "html_url": "https://github.com/Kondou-ger",
    "followers_url": "https://api.github.com/users/Kondou-ger/followers",
    "following_url": "https://api.github.com/users/Kondou-ger/following{/other_user}",
    "gists_url": "https://api.github.com/users/Kondou-ger/gists{/gist_id}",
    "starred_url": "https://api.github.com/users/Kondou-ger/starred{/owner}{/repo}",
    "subscriptions_url": "https://api.github.com/users/Kondou-ger/subscriptions",
    "organizations_url": "https://api.github.com/users/Kondou-ger/orgs",
    "repos_url": "https://api.github.com/users/Kondou-ger/repos",
    "events_url": "https://api.github.com/users/Kondou-ger/events{/privacy}",
    "received_events_url": "https://api.github.com/users/Kondou-ger/received_events",
    "type": "User",
    "site_admin": false
  },
  "created_at": "2013-04-30T14:48:49Z",
  "updated_at": "2013-04-30T14:49:01Z",
  "body": "Could this be related to font-sizes and em? @raghunayyar >:3"
}
, {
  "url": "https://api.github.com/repos/owncloud/core/issues/comments/17232265",
  "html_url": "https://github.com/owncloud/core/issues/3138#issuecomment-17232265",
  "issue_url": "https://api.github.com/repos/owncloud/core/issues/3138",
  "id": 17232265,
  "user": {
    "login": "jancborchardt",
    "id": 925062,
    "avatar_url": "https://avatars.githubusercontent.com/u/925062?v=3",
    "gravatar_id": "",
    "url": "https://api.github.com/users/jancborchardt",
    "html_url": "https://github.com/jancborchardt",
    "followers_url": "https://api.github.com/users/jancborchardt/followers",
    "following_url": "https://api.github.com/users/jancborchardt/following{/other_user}",
    "gists_url": "https://api.github.com/users/jancborchardt/gists{/gist_id}",
    "starred_url": "https://api.github.com/users/jancborchardt/starred{/owner}{/repo}",
    "subscriptions_url": "https://api.github.com/users/jancborchardt/subscriptions",
    "organizations_url": "https://api.github.com/users/jancborchardt/orgs",
    "repos_url": "https://api.github.com/users/jancborchardt/repos",
    "events_url": "https://api.github.com/users/jancborchardt/events{/privacy}",
    "received_events_url": "https://api.github.com/users/jancborchardt/received_events",
    "type": "User",
    "site_admin": false
  },
  "created_at": "2013-04-30T14:56:50Z",
  "updated_at": "2013-04-30T14:56:50Z",
  "body": "@niktsl does this happen for you on a completely vanilla 5.0.5 install, without any apps enabled (except Files), on Linux with Apache?"
}
, {
  "url": "https://api.github.com/repos/owncloud/core/issues/comments/17232594",
  "html_url": "https://github.com/owncloud/core/issues/3138#issuecomment-17232594",
  "issue_url": "https://api.github.com/repos/owncloud/core/issues/3138",
  "id": 17232594,
  "user": {
    "login": "eMerzh",
    "id": 177003,
    "avatar_url": "https://avatars.githubusercontent.com/u/177003?v=3",
    "gravatar_id": "",
    "url": "https://api.github.com/users/eMerzh",
    "html_url": "https://github.com/eMerzh",
    "followers_url": "https://api.github.com/users/eMerzh/followers",
    "following_url": "https://api.github.com/users/eMerzh/following{/other_user}",
    "gists_url": "https://api.github.com/users/eMerzh/gists{/gist_id}",
    "starred_url": "https://api.github.com/users/eMerzh/starred{/owner}{/repo}",
    "subscriptions_url": "https://api.github.com/users/eMerzh/subscriptions",
    "organizations_url": "https://api.github.com/users/eMerzh/orgs",
    "repos_url": "https://api.github.com/users/eMerzh/repos",
    "events_url": "https://api.github.com/users/eMerzh/events{/privacy}",
    "received_events_url": "https://api.github.com/users/eMerzh/received_events",
    "type": "User",
    "site_admin": false
  },
  "created_at": "2013-04-30T15:01:34Z",
  "updated_at": "2013-04-30T15:01:34Z",
  "body": "i vote for the em  problem.... \r\ndo you have also kind of broken bookmarks? like the side bar is not align & ..."
}
, {
  "url": "https://api.github.com/repos/owncloud/core/issues/comments/17238224",
  "html_url": "https://github.com/owncloud/core/issues/3138#issuecomment-17238224",
  "issue_url": "https://api.github.com/repos/owncloud/core/issues/3138",
  "id": 17238224,
  "user": {
    "login": "niktsl",
    "id": 4262441,
    "avatar_url": "https://avatars.githubusercontent.com/u/4262441?v=3",
    "gravatar_id": "",
    "url": "https://api.github.com/users/niktsl",
    "html_url": "https://github.com/niktsl",
    "followers_url": "https://api.github.com/users/niktsl/followers",
    "following_url": "https://api.github.com/users/niktsl/following{/other_user}",
    "gists_url": "https://api.github.com/users/niktsl/gists{/gist_id}",
    "starred_url": "https://api.github.com/users/niktsl/starred{/owner}{/repo}",
    "subscriptions_url": "https://api.github.com/users/niktsl/subscriptions",
    "organizations_url": "https://api.github.com/users/niktsl/orgs",
    "repos_url": "https://api.github.com/users/niktsl/repos",
    "events_url": "https://api.github.com/users/niktsl/events{/privacy}",
    "received_events_url": "https://api.github.com/users/niktsl/received_events",
    "type": "User",
    "site_admin": false
  },
  "created_at": "2013-04-30T16:32:15Z",
  "updated_at": "2013-04-30T16:32:15Z",
  "body": "@jancborchardt Debian 6 32bit system LAMP and default installation from repos.\r\nProblem has to do with the app that told you before, sending another two screen shots ( operation system linux, browser chrome ) as you can see all apps are disabled except mail notification - problem still exist if I will disable it layout will be correct.\r\n\r\nHow to reproduce the problem\r\nInstalling the app Mail Notify an error pop up will appear, press \"X\" and not OK at pop up, reload the page with apps and enable again the app, then check your lay out at files, guess has to do with the css files that this app use.\r\n\r\n![screenshot1](https://f.cloud.github.com/assets/4262441/445087/55ff6470-b1b3-11e2-9957-83fc5f8ccc77.png)\r\n![screenshot2](https://f.cloud.github.com/assets/4262441/445088/583a8ada-b1b3-11e2-8f5c-38589cf26f19.png)\r\n \r\n "
}
, {
  "url": "https://api.github.com/repos/owncloud/core/issues/comments/17614504",
  "html_url": "https://github.com/owncloud/core/issues/3138#issuecomment-17614504",
  "issue_url": "https://api.github.com/repos/owncloud/core/issues/3138",
  "id": 17614504,
  "user": {
    "login": "MorrisJobke",
    "id": 245432,
    "avatar_url": "https://avatars.githubusercontent.com/u/245432?v=3",
    "gravatar_id": "",
    "url": "https://api.github.com/users/MorrisJobke",
    "html_url": "https://github.com/MorrisJobke",
    "followers_url": "https://api.github.com/users/MorrisJobke/followers",
    "following_url": "https://api.github.com/users/MorrisJobke/following{/other_user}",
    "gists_url": "https://api.github.com/users/MorrisJobke/gists{/gist_id}",
    "starred_url": "https://api.github.com/users/MorrisJobke/starred{/owner}{/repo}",
    "subscriptions_url": "https://api.github.com/users/MorrisJobke/subscriptions",
    "organizations_url": "https://api.github.com/users/MorrisJobke/orgs",
    "repos_url": "https://api.github.com/users/MorrisJobke/repos",
    "events_url": "https://api.github.com/users/MorrisJobke/events{/privacy}",
    "received_events_url": "https://api.github.com/users/MorrisJobke/received_events",
    "type": "User",
    "site_admin": false
  },
  "created_at": "2013-05-08T15:46:25Z",
  "updated_at": "2013-05-08T15:46:25Z",
  "body": "@niktsl Did you mean: http://apps.owncloud.com/content/show.php/Mail+Notification?content=155982?"
}
, {
  "url": "https://api.github.com/repos/owncloud/core/issues/comments/17614831",
  "html_url": "https://github.com/owncloud/core/issues/3138#issuecomment-17614831",
  "issue_url": "https://api.github.com/repos/owncloud/core/issues/3138",
  "id": 17614831,
  "user": {
    "login": "MorrisJobke",
    "id": 245432,
    "avatar_url": "https://avatars.githubusercontent.com/u/245432?v=3",
    "gravatar_id": "",
    "url": "https://api.github.com/users/MorrisJobke",
    "html_url": "https://github.com/MorrisJobke",
    "followers_url": "https://api.github.com/users/MorrisJobke/followers",
    "following_url": "https://api.github.com/users/MorrisJobke/following{/other_user}",
    "gists_url": "https://api.github.com/users/MorrisJobke/gists{/gist_id}",
    "starred_url": "https://api.github.com/users/MorrisJobke/starred{/owner}{/repo}",
    "subscriptions_url": "https://api.github.com/users/MorrisJobke/subscriptions",
    "organizations_url": "https://api.github.com/users/MorrisJobke/orgs",
    "repos_url": "https://api.github.com/users/MorrisJobke/repos",
    "events_url": "https://api.github.com/users/MorrisJobke/events{/privacy}",
    "received_events_url": "https://api.github.com/users/MorrisJobke/received_events",
    "type": "User",
    "site_admin": false
  },
  "created_at": "2013-05-08T15:51:32Z",
  "updated_at": "2013-05-08T15:51:32Z",
  "body": "@niktsl If so, this isn't an issue by owncloud but rahter an issue of this app. So it's promissing to contact the author of the app. BTW: His email address can be found in mailnotify/appinfo/app.php - Maybe send a link to this issue for clarification."
}
, {
  "url": "https://api.github.com/repos/owncloud/core/issues/comments/17796058",
  "html_url": "https://github.com/owncloud/core/issues/3138#issuecomment-17796058",
  "issue_url": "https://api.github.com/repos/owncloud/core/issues/3138",
  "id": 17796058,
  "user": {
    "login": "niktsl",
    "id": 4262441,
    "avatar_url": "https://avatars.githubusercontent.com/u/4262441?v=3",
    "gravatar_id": "",
    "url": "https://api.github.com/users/niktsl",
    "html_url": "https://github.com/niktsl",
    "followers_url": "https://api.github.com/users/niktsl/followers",
    "following_url": "https://api.github.com/users/niktsl/following{/other_user}",
    "gists_url": "https://api.github.com/users/niktsl/gists{/gist_id}",
    "starred_url": "https://api.github.com/users/niktsl/starred{/owner}{/repo}",
    "subscriptions_url": "https://api.github.com/users/niktsl/subscriptions",
    "organizations_url": "https://api.github.com/users/niktsl/orgs",
    "repos_url": "https://api.github.com/users/niktsl/repos",
    "events_url": "https://api.github.com/users/niktsl/events{/privacy}",
    "received_events_url": "https://api.github.com/users/niktsl/received_events",
    "type": "User",
    "site_admin": false
  },
  "created_at": "2013-05-13T07:22:29Z",
  "updated_at": "2013-05-13T07:22:29Z",
  "body": "@kabum Yes. File section is the primary function for the owncloud, if a third-part extension that is embedded with the default installation cause problem, maybe it not problem only for the developer of Mail Notification. "
}
, {
  "url": "https://api.github.com/repos/owncloud/core/issues/comments/17828591",
  "html_url": "https://github.com/owncloud/core/issues/3138#issuecomment-17828591",
  "issue_url": "https://api.github.com/repos/owncloud/core/issues/3138",
  "id": 17828591,
  "user": {
    "login": "raghunayyar",
    "id": 992488,
    "avatar_url": "https://avatars.githubusercontent.com/u/992488?v=3",
    "gravatar_id": "",
    "url": "https://api.github.com/users/raghunayyar",
    "html_url": "https://github.com/raghunayyar",
    "followers_url": "https://api.github.com/users/raghunayyar/followers",
    "following_url": "https://api.github.com/users/raghunayyar/following{/other_user}",
    "gists_url": "https://api.github.com/users/raghunayyar/gists{/gist_id}",
    "starred_url": "https://api.github.com/users/raghunayyar/starred{/owner}{/repo}",
    "subscriptions_url": "https://api.github.com/users/raghunayyar/subscriptions",
    "organizations_url": "https://api.github.com/users/raghunayyar/orgs",
    "repos_url": "https://api.github.com/users/raghunayyar/repos",
    "events_url": "https://api.github.com/users/raghunayyar/events{/privacy}",
    "received_events_url": "https://api.github.com/users/raghunayyar/received_events",
    "type": "User",
    "site_admin": false
  },
  "created_at": "2013-05-13T17:54:39Z",
  "updated_at": "2013-05-13T17:54:39Z",
  "body": "I guess we can close this since the issue is about an 3rdParty app. Please re open if its not fine. :) // cc @kabum @jancborchardt "
}
]
