[
{
  "url": "https://api.github.com/repos/owncloud/core/issues/comments/138246638",
  "html_url": "https://github.com/owncloud/core/issues/18869#issuecomment-138246638",
  "issue_url": "https://api.github.com/repos/owncloud/core/issues/18869",
  "id": 138246638,
  "user": {
    "login": "MorrisJobke",
    "id": 245432,
    "avatar_url": "https://avatars.githubusercontent.com/u/245432?v=3",
    "gravatar_id": "",
    "url": "https://api.github.com/users/MorrisJobke",
    "html_url": "https://github.com/MorrisJobke",
    "followers_url": "https://api.github.com/users/MorrisJobke/followers",
    "following_url": "https://api.github.com/users/MorrisJobke/following{/other_user}",
    "gists_url": "https://api.github.com/users/MorrisJobke/gists{/gist_id}",
    "starred_url": "https://api.github.com/users/MorrisJobke/starred{/owner}{/repo}",
    "subscriptions_url": "https://api.github.com/users/MorrisJobke/subscriptions",
    "organizations_url": "https://api.github.com/users/MorrisJobke/orgs",
    "repos_url": "https://api.github.com/users/MorrisJobke/repos",
    "events_url": "https://api.github.com/users/MorrisJobke/events{/privacy}",
    "received_events_url": "https://api.github.com/users/MorrisJobke/received_events",
    "type": "User",
    "site_admin": false
  },
  "created_at": "2015-09-07T09:12:28Z",
  "updated_at": "2015-09-07T09:12:28Z",
  "body": "cc @icewind1991 @Xenopathic "
}
, {
  "url": "https://api.github.com/repos/owncloud/core/issues/comments/140710161",
  "html_url": "https://github.com/owncloud/core/issues/18869#issuecomment-140710161",
  "issue_url": "https://api.github.com/repos/owncloud/core/issues/18869",
  "id": 140710161,
  "user": {
    "login": "Xenopathic",
    "id": 2016878,
    "avatar_url": "https://avatars.githubusercontent.com/u/2016878?v=3",
    "gravatar_id": "",
    "url": "https://api.github.com/users/Xenopathic",
    "html_url": "https://github.com/Xenopathic",
    "followers_url": "https://api.github.com/users/Xenopathic/followers",
    "following_url": "https://api.github.com/users/Xenopathic/following{/other_user}",
    "gists_url": "https://api.github.com/users/Xenopathic/gists{/gist_id}",
    "starred_url": "https://api.github.com/users/Xenopathic/starred{/owner}{/repo}",
    "subscriptions_url": "https://api.github.com/users/Xenopathic/subscriptions",
    "organizations_url": "https://api.github.com/users/Xenopathic/orgs",
    "repos_url": "https://api.github.com/users/Xenopathic/repos",
    "events_url": "https://api.github.com/users/Xenopathic/events{/privacy}",
    "received_events_url": "https://api.github.com/users/Xenopathic/received_events",
    "type": "User",
    "site_admin": false
  },
  "created_at": "2015-09-16T11:12:11Z",
  "updated_at": "2015-09-16T11:12:20Z",
  "body": "XSendfile will no longer be supported in 8.2, since it conflicts with file locking. cc @LukasReschke "
}
, {
  "url": "https://api.github.com/repos/owncloud/core/issues/comments/140711243",
  "html_url": "https://github.com/owncloud/core/issues/18869#issuecomment-140711243",
  "issue_url": "https://api.github.com/repos/owncloud/core/issues/18869",
  "id": 140711243,
  "user": {
    "login": "Xenopathic",
    "id": 2016878,
    "avatar_url": "https://avatars.githubusercontent.com/u/2016878?v=3",
    "gravatar_id": "",
    "url": "https://api.github.com/users/Xenopathic",
    "html_url": "https://github.com/Xenopathic",
    "followers_url": "https://api.github.com/users/Xenopathic/followers",
    "following_url": "https://api.github.com/users/Xenopathic/following{/other_user}",
    "gists_url": "https://api.github.com/users/Xenopathic/gists{/gist_id}",
    "starred_url": "https://api.github.com/users/Xenopathic/starred{/owner}{/repo}",
    "subscriptions_url": "https://api.github.com/users/Xenopathic/subscriptions",
    "organizations_url": "https://api.github.com/users/Xenopathic/orgs",
    "repos_url": "https://api.github.com/users/Xenopathic/repos",
    "events_url": "https://api.github.com/users/Xenopathic/events{/privacy}",
    "received_events_url": "https://api.github.com/users/Xenopathic/received_events",
    "type": "User",
    "site_admin": false
  },
  "created_at": "2015-09-16T11:18:26Z",
  "updated_at": "2015-09-16T11:18:26Z",
  "body": "Also, the `moveToNoClean()` issue was fixed in 7.0.0."
}
, {
  "url": "https://api.github.com/repos/owncloud/core/issues/comments/140715964",
  "html_url": "https://github.com/owncloud/core/issues/18869#issuecomment-140715964",
  "issue_url": "https://api.github.com/repos/owncloud/core/issues/18869",
  "id": 140715964,
  "user": {
    "login": "LukasReschke",
    "id": 878997,
    "avatar_url": "https://avatars.githubusercontent.com/u/878997?v=3",
    "gravatar_id": "",
    "url": "https://api.github.com/users/LukasReschke",
    "html_url": "https://github.com/LukasReschke",
    "followers_url": "https://api.github.com/users/LukasReschke/followers",
    "following_url": "https://api.github.com/users/LukasReschke/following{/other_user}",
    "gists_url": "https://api.github.com/users/LukasReschke/gists{/gist_id}",
    "starred_url": "https://api.github.com/users/LukasReschke/starred{/owner}{/repo}",
    "subscriptions_url": "https://api.github.com/users/LukasReschke/subscriptions",
    "organizations_url": "https://api.github.com/users/LukasReschke/orgs",
    "repos_url": "https://api.github.com/users/LukasReschke/repos",
    "events_url": "https://api.github.com/users/LukasReschke/events{/privacy}",
    "received_events_url": "https://api.github.com/users/LukasReschke/received_events",
    "type": "User",
    "site_admin": false
  },
  "created_at": "2015-09-16T11:44:17Z",
  "updated_at": "2015-09-16T11:44:17Z",
  "body": "ownCloud 6 is also EoL."
}
]
