[
{
  "url": "https://api.github.com/repos/owncloud/core/issues/comments/53255547",
  "html_url": "https://github.com/owncloud/core/issues/10617#issuecomment-53255547",
  "issue_url": "https://api.github.com/repos/owncloud/core/issues/10617",
  "id": 53255547,
  "user": {
    "login": "PVince81",
    "id": 277525,
    "avatar_url": "https://avatars.githubusercontent.com/u/277525?v=3",
    "gravatar_id": "",
    "url": "https://api.github.com/users/PVince81",
    "html_url": "https://github.com/PVince81",
    "followers_url": "https://api.github.com/users/PVince81/followers",
    "following_url": "https://api.github.com/users/PVince81/following{/other_user}",
    "gists_url": "https://api.github.com/users/PVince81/gists{/gist_id}",
    "starred_url": "https://api.github.com/users/PVince81/starred{/owner}{/repo}",
    "subscriptions_url": "https://api.github.com/users/PVince81/subscriptions",
    "organizations_url": "https://api.github.com/users/PVince81/orgs",
    "repos_url": "https://api.github.com/users/PVince81/repos",
    "events_url": "https://api.github.com/users/PVince81/events{/privacy}",
    "received_events_url": "https://api.github.com/users/PVince81/received_events",
    "type": "User",
    "site_admin": false
  },
  "created_at": "2014-08-25T12:06:16Z",
  "updated_at": "2014-08-25T12:06:16Z",
  "body": "When you say \"admin settings not available\" do you mean that the page doesn't load at all / stays blank ?\r\n\r\nFrom what I know that webdav test is run by the PHP code and if it takes a long time to timeout, the page will not be rendered or too late."
}
, {
  "url": "https://api.github.com/repos/owncloud/core/issues/comments/53273683",
  "html_url": "https://github.com/owncloud/core/issues/10617#issuecomment-53273683",
  "issue_url": "https://api.github.com/repos/owncloud/core/issues/10617",
  "id": 53273683,
  "user": {
    "login": "danse-entropy",
    "id": 8071243,
    "avatar_url": "https://avatars.githubusercontent.com/u/8071243?v=3",
    "gravatar_id": "",
    "url": "https://api.github.com/users/danse-entropy",
    "html_url": "https://github.com/danse-entropy",
    "followers_url": "https://api.github.com/users/danse-entropy/followers",
    "following_url": "https://api.github.com/users/danse-entropy/following{/other_user}",
    "gists_url": "https://api.github.com/users/danse-entropy/gists{/gist_id}",
    "starred_url": "https://api.github.com/users/danse-entropy/starred{/owner}{/repo}",
    "subscriptions_url": "https://api.github.com/users/danse-entropy/subscriptions",
    "organizations_url": "https://api.github.com/users/danse-entropy/orgs",
    "repos_url": "https://api.github.com/users/danse-entropy/repos",
    "events_url": "https://api.github.com/users/danse-entropy/events{/privacy}",
    "received_events_url": "https://api.github.com/users/danse-entropy/received_events",
    "type": "User",
    "site_admin": false
  },
  "created_at": "2014-08-25T14:50:24Z",
  "updated_at": "2014-08-25T14:50:24Z",
  "body": "The page doesn't load at all due to seg faulting nginx worker process. I don't if this seg fault is caused by owncloud but i wanted to be sure as many people possible with this error can try the solution.\r\nFirst time i saw nginx constantly crash like this thou."
}
, {
  "url": "https://api.github.com/repos/owncloud/core/issues/comments/61067339",
  "html_url": "https://github.com/owncloud/core/issues/10617#issuecomment-61067339",
  "issue_url": "https://api.github.com/repos/owncloud/core/issues/10617",
  "id": 61067339,
  "user": {
    "login": "LukasReschke",
    "id": 878997,
    "avatar_url": "https://avatars.githubusercontent.com/u/878997?v=3",
    "gravatar_id": "",
    "url": "https://api.github.com/users/LukasReschke",
    "html_url": "https://github.com/LukasReschke",
    "followers_url": "https://api.github.com/users/LukasReschke/followers",
    "following_url": "https://api.github.com/users/LukasReschke/following{/other_user}",
    "gists_url": "https://api.github.com/users/LukasReschke/gists{/gist_id}",
    "starred_url": "https://api.github.com/users/LukasReschke/starred{/owner}{/repo}",
    "subscriptions_url": "https://api.github.com/users/LukasReschke/subscriptions",
    "organizations_url": "https://api.github.com/users/LukasReschke/orgs",
    "repos_url": "https://api.github.com/users/LukasReschke/repos",
    "events_url": "https://api.github.com/users/LukasReschke/events{/privacy}",
    "received_events_url": "https://api.github.com/users/LukasReschke/received_events",
    "type": "User",
    "site_admin": false
  },
  "created_at": "2014-10-30T09:51:23Z",
  "updated_at": "2014-10-30T09:51:23Z",
  "body": "This problem is not directly related to ownCloud but how NGINX uses OpenSSL.\r\n\r\nClosing this for now. Thanks for posting your solution!"
}
, {
  "url": "https://api.github.com/repos/owncloud/core/issues/comments/71100848",
  "html_url": "https://github.com/owncloud/core/issues/10617#issuecomment-71100848",
  "issue_url": "https://api.github.com/repos/owncloud/core/issues/10617",
  "id": 71100848,
  "user": {
    "login": "kralleman",
    "id": 668341,
    "avatar_url": "https://avatars.githubusercontent.com/u/668341?v=3",
    "gravatar_id": "",
    "url": "https://api.github.com/users/kralleman",
    "html_url": "https://github.com/kralleman",
    "followers_url": "https://api.github.com/users/kralleman/followers",
    "following_url": "https://api.github.com/users/kralleman/following{/other_user}",
    "gists_url": "https://api.github.com/users/kralleman/gists{/gist_id}",
    "starred_url": "https://api.github.com/users/kralleman/starred{/owner}{/repo}",
    "subscriptions_url": "https://api.github.com/users/kralleman/subscriptions",
    "organizations_url": "https://api.github.com/users/kralleman/orgs",
    "repos_url": "https://api.github.com/users/kralleman/repos",
    "events_url": "https://api.github.com/users/kralleman/events{/privacy}",
    "received_events_url": "https://api.github.com/users/kralleman/received_events",
    "type": "User",
    "site_admin": false
  },
  "created_at": "2015-01-22T21:19:19Z",
  "updated_at": "2015-01-22T21:19:19Z",
  "body": "My owncloud web-ui (7.0.X) was really slow and I could not login with the android app (it failed when testing the URL). My nginx error.log showed \"worker process exited on signal 11\" each time I tried to login with the app. I have GitLab running on my server as well and it seems that I introduced the problem when I created a separate GitLab config with the ssl_session_cache directive set. Once I moved the directive out of the config and into an include-file that all my SSL-sites include, I could log in with the app and the web-ui for owncloud (and GitLab for that matter) performed much better.\r\n\r\nSo GitLab with recommended nginx+ssl config made the web-ui slow and the android app could not log in at all. I just wanted to mention this so that it is documented that the problem may manifest itself in the android app as well (and that the above solution seems to fix it).\r\n"
}
]
