[
{
  "url": "https://api.github.com/repos/owncloud/core/issues/comments/33381608",
  "html_url": "https://github.com/owncloud/core/pull/6962#issuecomment-33381608",
  "issue_url": "https://api.github.com/repos/owncloud/core/issues/6962",
  "id": 33381608,
  "user": {
    "login": "owncloud-bot",
    "id": 2709266,
    "avatar_url": "https://avatars.githubusercontent.com/u/2709266?v=3",
    "gravatar_id": "",
    "url": "https://api.github.com/users/owncloud-bot",
    "html_url": "https://github.com/owncloud-bot",
    "followers_url": "https://api.github.com/users/owncloud-bot/followers",
    "following_url": "https://api.github.com/users/owncloud-bot/following{/other_user}",
    "gists_url": "https://api.github.com/users/owncloud-bot/gists{/gist_id}",
    "starred_url": "https://api.github.com/users/owncloud-bot/starred{/owner}{/repo}",
    "subscriptions_url": "https://api.github.com/users/owncloud-bot/subscriptions",
    "organizations_url": "https://api.github.com/users/owncloud-bot/orgs",
    "repos_url": "https://api.github.com/users/owncloud-bot/repos",
    "events_url": "https://api.github.com/users/owncloud-bot/events{/privacy}",
    "received_events_url": "https://api.github.com/users/owncloud-bot/received_events",
    "type": "User",
    "site_admin": false
  },
  "created_at": "2014-01-27T16:16:36Z",
  "updated_at": "2014-01-27T16:16:36Z",
  "body": "Test passed.\nRefer to this link for build results: https://ci.owncloud.org/job/pull-request-analyser/2792/"
}
, {
  "url": "https://api.github.com/repos/owncloud/core/issues/comments/33472828",
  "html_url": "https://github.com/owncloud/core/pull/6962#issuecomment-33472828",
  "issue_url": "https://api.github.com/repos/owncloud/core/issues/6962",
  "id": 33472828,
  "user": {
    "login": "PVince81",
    "id": 277525,
    "avatar_url": "https://avatars.githubusercontent.com/u/277525?v=3",
    "gravatar_id": "",
    "url": "https://api.github.com/users/PVince81",
    "html_url": "https://github.com/PVince81",
    "followers_url": "https://api.github.com/users/PVince81/followers",
    "following_url": "https://api.github.com/users/PVince81/following{/other_user}",
    "gists_url": "https://api.github.com/users/PVince81/gists{/gist_id}",
    "starred_url": "https://api.github.com/users/PVince81/starred{/owner}{/repo}",
    "subscriptions_url": "https://api.github.com/users/PVince81/subscriptions",
    "organizations_url": "https://api.github.com/users/PVince81/orgs",
    "repos_url": "https://api.github.com/users/PVince81/repos",
    "events_url": "https://api.github.com/users/PVince81/events{/privacy}",
    "received_events_url": "https://api.github.com/users/PVince81/received_events",
    "type": "User",
    "site_admin": false
  },
  "created_at": "2014-01-28T12:09:43Z",
  "updated_at": "2014-01-28T12:09:43Z",
  "body": "Looks good, not tested :+1: \r\n\r\nFrom what I see we were still using \"/\" for the storage size instead of \"/files\" which could cause wrong values to be displayed in the UI. I expect this PR to fix it."
}
, {
  "url": "https://api.github.com/repos/owncloud/core/issues/comments/33472896",
  "html_url": "https://github.com/owncloud/core/pull/6962#issuecomment-33472896",
  "issue_url": "https://api.github.com/repos/owncloud/core/issues/6962",
  "id": 33472896,
  "user": {
    "login": "PVince81",
    "id": 277525,
    "avatar_url": "https://avatars.githubusercontent.com/u/277525?v=3",
    "gravatar_id": "",
    "url": "https://api.github.com/users/PVince81",
    "html_url": "https://github.com/PVince81",
    "followers_url": "https://api.github.com/users/PVince81/followers",
    "following_url": "https://api.github.com/users/PVince81/following{/other_user}",
    "gists_url": "https://api.github.com/users/PVince81/gists{/gist_id}",
    "starred_url": "https://api.github.com/users/PVince81/starred{/owner}{/repo}",
    "subscriptions_url": "https://api.github.com/users/PVince81/subscriptions",
    "organizations_url": "https://api.github.com/users/PVince81/orgs",
    "repos_url": "https://api.github.com/users/PVince81/repos",
    "events_url": "https://api.github.com/users/PVince81/events{/privacy}",
    "received_events_url": "https://api.github.com/users/PVince81/received_events",
    "type": "User",
    "site_admin": false
  },
  "created_at": "2014-01-28T12:11:03Z",
  "updated_at": "2014-01-28T12:11:03Z",
  "body": "@icewind1991 would be good to have a unit test for that as well"
}
, {
  "url": "https://api.github.com/repos/owncloud/core/issues/comments/34069848",
  "html_url": "https://github.com/owncloud/core/pull/6962#issuecomment-34069848",
  "issue_url": "https://api.github.com/repos/owncloud/core/issues/6962",
  "id": 34069848,
  "user": {
    "login": "PVince81",
    "id": 277525,
    "avatar_url": "https://avatars.githubusercontent.com/u/277525?v=3",
    "gravatar_id": "",
    "url": "https://api.github.com/users/PVince81",
    "html_url": "https://github.com/PVince81",
    "followers_url": "https://api.github.com/users/PVince81/followers",
    "following_url": "https://api.github.com/users/PVince81/following{/other_user}",
    "gists_url": "https://api.github.com/users/PVince81/gists{/gist_id}",
    "starred_url": "https://api.github.com/users/PVince81/starred{/owner}{/repo}",
    "subscriptions_url": "https://api.github.com/users/PVince81/subscriptions",
    "organizations_url": "https://api.github.com/users/PVince81/orgs",
    "repos_url": "https://api.github.com/users/PVince81/repos",
    "events_url": "https://api.github.com/users/PVince81/events{/privacy}",
    "received_events_url": "https://api.github.com/users/PVince81/received_events",
    "type": "User",
    "site_admin": false
  },
  "created_at": "2014-02-04T15:23:15Z",
  "updated_at": "2014-02-04T15:23:15Z",
  "body": ":+1: for the unit tests.\r\nThis needs another reviewer.\r\n@schiesbn ?"
}
, {
  "url": "https://api.github.com/repos/owncloud/core/issues/comments/34170081",
  "html_url": "https://github.com/owncloud/core/pull/6962#issuecomment-34170081",
  "issue_url": "https://api.github.com/repos/owncloud/core/issues/6962",
  "id": 34170081,
  "user": {
    "login": "owncloud-bot",
    "id": 2709266,
    "avatar_url": "https://avatars.githubusercontent.com/u/2709266?v=3",
    "gravatar_id": "",
    "url": "https://api.github.com/users/owncloud-bot",
    "html_url": "https://github.com/owncloud-bot",
    "followers_url": "https://api.github.com/users/owncloud-bot/followers",
    "following_url": "https://api.github.com/users/owncloud-bot/following{/other_user}",
    "gists_url": "https://api.github.com/users/owncloud-bot/gists{/gist_id}",
    "starred_url": "https://api.github.com/users/owncloud-bot/starred{/owner}{/repo}",
    "subscriptions_url": "https://api.github.com/users/owncloud-bot/subscriptions",
    "organizations_url": "https://api.github.com/users/owncloud-bot/orgs",
    "repos_url": "https://api.github.com/users/owncloud-bot/repos",
    "events_url": "https://api.github.com/users/owncloud-bot/events{/privacy}",
    "received_events_url": "https://api.github.com/users/owncloud-bot/received_events",
    "type": "User",
    "site_admin": false
  },
  "created_at": "2014-02-05T13:54:29Z",
  "updated_at": "2014-02-05T13:54:29Z",
  "body": "Test passed.\nRefer to this link for build results: https://ci.owncloud.org/job/pull-request-analyser/2900/"
}
, {
  "url": "https://api.github.com/repos/owncloud/core/issues/comments/34318765",
  "html_url": "https://github.com/owncloud/core/pull/6962#issuecomment-34318765",
  "issue_url": "https://api.github.com/repos/owncloud/core/issues/6962",
  "id": 34318765,
  "user": {
    "login": "icewind1991",
    "id": 1283854,
    "avatar_url": "https://avatars.githubusercontent.com/u/1283854?v=3",
    "gravatar_id": "",
    "url": "https://api.github.com/users/icewind1991",
    "html_url": "https://github.com/icewind1991",
    "followers_url": "https://api.github.com/users/icewind1991/followers",
    "following_url": "https://api.github.com/users/icewind1991/following{/other_user}",
    "gists_url": "https://api.github.com/users/icewind1991/gists{/gist_id}",
    "starred_url": "https://api.github.com/users/icewind1991/starred{/owner}{/repo}",
    "subscriptions_url": "https://api.github.com/users/icewind1991/subscriptions",
    "organizations_url": "https://api.github.com/users/icewind1991/orgs",
    "repos_url": "https://api.github.com/users/icewind1991/repos",
    "events_url": "https://api.github.com/users/icewind1991/events{/privacy}",
    "received_events_url": "https://api.github.com/users/icewind1991/received_events",
    "type": "User",
    "site_admin": false
  },
  "created_at": "2014-02-06T12:34:06Z",
  "updated_at": "2014-02-06T12:34:06Z",
  "body": "cc @DeepDiver1975 @karlitschek "
}
, {
  "url": "https://api.github.com/repos/owncloud/core/issues/comments/34432171",
  "html_url": "https://github.com/owncloud/core/pull/6962#issuecomment-34432171",
  "issue_url": "https://api.github.com/repos/owncloud/core/issues/6962",
  "id": 34432171,
  "user": {
    "login": "PVince81",
    "id": 277525,
    "avatar_url": "https://avatars.githubusercontent.com/u/277525?v=3",
    "gravatar_id": "",
    "url": "https://api.github.com/users/PVince81",
    "html_url": "https://github.com/PVince81",
    "followers_url": "https://api.github.com/users/PVince81/followers",
    "following_url": "https://api.github.com/users/PVince81/following{/other_user}",
    "gists_url": "https://api.github.com/users/PVince81/gists{/gist_id}",
    "starred_url": "https://api.github.com/users/PVince81/starred{/owner}{/repo}",
    "subscriptions_url": "https://api.github.com/users/PVince81/subscriptions",
    "organizations_url": "https://api.github.com/users/PVince81/orgs",
    "repos_url": "https://api.github.com/users/PVince81/repos",
    "events_url": "https://api.github.com/users/PVince81/events{/privacy}",
    "received_events_url": "https://api.github.com/users/PVince81/received_events",
    "type": "User",
    "site_admin": false
  },
  "created_at": "2014-02-07T12:20:53Z",
  "updated_at": "2014-02-07T12:20:53Z",
  "body": "This might need a rebase onto master to unstuck Jenkins."
}
, {
  "url": "https://api.github.com/repos/owncloud/core/issues/comments/34628362",
  "html_url": "https://github.com/owncloud/core/pull/6962#issuecomment-34628362",
  "issue_url": "https://api.github.com/repos/owncloud/core/issues/6962",
  "id": 34628362,
  "user": {
    "login": "scrutinizer-notifier",
    "id": 6398257,
    "avatar_url": "https://avatars.githubusercontent.com/u/6398257?v=3",
    "gravatar_id": "",
    "url": "https://api.github.com/users/scrutinizer-notifier",
    "html_url": "https://github.com/scrutinizer-notifier",
    "followers_url": "https://api.github.com/users/scrutinizer-notifier/followers",
    "following_url": "https://api.github.com/users/scrutinizer-notifier/following{/other_user}",
    "gists_url": "https://api.github.com/users/scrutinizer-notifier/gists{/gist_id}",
    "starred_url": "https://api.github.com/users/scrutinizer-notifier/starred{/owner}{/repo}",
    "subscriptions_url": "https://api.github.com/users/scrutinizer-notifier/subscriptions",
    "organizations_url": "https://api.github.com/users/scrutinizer-notifier/orgs",
    "repos_url": "https://api.github.com/users/scrutinizer-notifier/repos",
    "events_url": "https://api.github.com/users/scrutinizer-notifier/events{/privacy}",
    "received_events_url": "https://api.github.com/users/scrutinizer-notifier/received_events",
    "type": "User",
    "site_admin": false
  },
  "created_at": "2014-02-10T13:03:26Z",
  "updated_at": "2014-02-10T13:03:26Z",
  "body": "A [new inspection](https://scrutinizer-ci.com/g/owncloud/core/inspections/53fd9bd9-0d37-4b31-ab18-9f7a7f72b833) was created."
}
, {
  "url": "https://api.github.com/repos/owncloud/core/issues/comments/34662097",
  "html_url": "https://github.com/owncloud/core/pull/6962#issuecomment-34662097",
  "issue_url": "https://api.github.com/repos/owncloud/core/issues/6962",
  "id": 34662097,
  "user": {
    "login": "owncloud-bot",
    "id": 2709266,
    "avatar_url": "https://avatars.githubusercontent.com/u/2709266?v=3",
    "gravatar_id": "",
    "url": "https://api.github.com/users/owncloud-bot",
    "html_url": "https://github.com/owncloud-bot",
    "followers_url": "https://api.github.com/users/owncloud-bot/followers",
    "following_url": "https://api.github.com/users/owncloud-bot/following{/other_user}",
    "gists_url": "https://api.github.com/users/owncloud-bot/gists{/gist_id}",
    "starred_url": "https://api.github.com/users/owncloud-bot/starred{/owner}{/repo}",
    "subscriptions_url": "https://api.github.com/users/owncloud-bot/subscriptions",
    "organizations_url": "https://api.github.com/users/owncloud-bot/orgs",
    "repos_url": "https://api.github.com/users/owncloud-bot/repos",
    "events_url": "https://api.github.com/users/owncloud-bot/events{/privacy}",
    "received_events_url": "https://api.github.com/users/owncloud-bot/received_events",
    "type": "User",
    "site_admin": false
  },
  "created_at": "2014-02-10T18:07:56Z",
  "updated_at": "2014-02-10T18:07:56Z",
  "body": ":rocket: Test Passed. :rocket:\nRefer to this link for build results: https://ci.owncloud.org/job/pull-request-analyser/3020/"
}
, {
  "url": "https://api.github.com/repos/owncloud/core/issues/comments/34749172",
  "html_url": "https://github.com/owncloud/core/pull/6962#issuecomment-34749172",
  "issue_url": "https://api.github.com/repos/owncloud/core/issues/6962",
  "id": 34749172,
  "user": {
    "login": "icewind1991",
    "id": 1283854,
    "avatar_url": "https://avatars.githubusercontent.com/u/1283854?v=3",
    "gravatar_id": "",
    "url": "https://api.github.com/users/icewind1991",
    "html_url": "https://github.com/icewind1991",
    "followers_url": "https://api.github.com/users/icewind1991/followers",
    "following_url": "https://api.github.com/users/icewind1991/following{/other_user}",
    "gists_url": "https://api.github.com/users/icewind1991/gists{/gist_id}",
    "starred_url": "https://api.github.com/users/icewind1991/starred{/owner}{/repo}",
    "subscriptions_url": "https://api.github.com/users/icewind1991/subscriptions",
    "organizations_url": "https://api.github.com/users/icewind1991/orgs",
    "repos_url": "https://api.github.com/users/icewind1991/repos",
    "events_url": "https://api.github.com/users/icewind1991/events{/privacy}",
    "received_events_url": "https://api.github.com/users/icewind1991/received_events",
    "type": "User",
    "site_admin": false
  },
  "created_at": "2014-02-11T12:22:12Z",
  "updated_at": "2014-02-11T12:22:12Z",
  "body": "can this have another reviewer? @DeepDiver1975 @schiesbn "
}
, {
  "url": "https://api.github.com/repos/owncloud/core/issues/comments/35384161",
  "html_url": "https://github.com/owncloud/core/pull/6962#issuecomment-35384161",
  "issue_url": "https://api.github.com/repos/owncloud/core/issues/6962",
  "id": 35384161,
  "user": {
    "login": "icewind1991",
    "id": 1283854,
    "avatar_url": "https://avatars.githubusercontent.com/u/1283854?v=3",
    "gravatar_id": "",
    "url": "https://api.github.com/users/icewind1991",
    "html_url": "https://github.com/icewind1991",
    "followers_url": "https://api.github.com/users/icewind1991/followers",
    "following_url": "https://api.github.com/users/icewind1991/following{/other_user}",
    "gists_url": "https://api.github.com/users/icewind1991/gists{/gist_id}",
    "starred_url": "https://api.github.com/users/icewind1991/starred{/owner}{/repo}",
    "subscriptions_url": "https://api.github.com/users/icewind1991/subscriptions",
    "organizations_url": "https://api.github.com/users/icewind1991/orgs",
    "repos_url": "https://api.github.com/users/icewind1991/repos",
    "events_url": "https://api.github.com/users/icewind1991/events{/privacy}",
    "received_events_url": "https://api.github.com/users/icewind1991/received_events",
    "type": "User",
    "site_admin": false
  },
  "created_at": "2014-02-18T13:34:57Z",
  "updated_at": "2014-02-18T13:34:57Z",
  "body": "*poke* @DeepDiver1975 "
}
, {
  "url": "https://api.github.com/repos/owncloud/core/issues/comments/35635075",
  "html_url": "https://github.com/owncloud/core/pull/6962#issuecomment-35635075",
  "issue_url": "https://api.github.com/repos/owncloud/core/issues/6962",
  "id": 35635075,
  "user": {
    "login": "DeepDiver1975",
    "id": 1005065,
    "avatar_url": "https://avatars.githubusercontent.com/u/1005065?v=3",
    "gravatar_id": "",
    "url": "https://api.github.com/users/DeepDiver1975",
    "html_url": "https://github.com/DeepDiver1975",
    "followers_url": "https://api.github.com/users/DeepDiver1975/followers",
    "following_url": "https://api.github.com/users/DeepDiver1975/following{/other_user}",
    "gists_url": "https://api.github.com/users/DeepDiver1975/gists{/gist_id}",
    "starred_url": "https://api.github.com/users/DeepDiver1975/starred{/owner}{/repo}",
    "subscriptions_url": "https://api.github.com/users/DeepDiver1975/subscriptions",
    "organizations_url": "https://api.github.com/users/DeepDiver1975/orgs",
    "repos_url": "https://api.github.com/users/DeepDiver1975/repos",
    "events_url": "https://api.github.com/users/DeepDiver1975/events{/privacy}",
    "received_events_url": "https://api.github.com/users/DeepDiver1975/received_events",
    "type": "User",
    "site_admin": false
  },
  "created_at": "2014-02-20T15:47:45Z",
  "updated_at": "2014-02-20T15:47:45Z",
  "body": ":+1:"
}
]
