[
{
  "url": "https://api.github.com/repos/owncloud/core/issues/comments/72285321",
  "html_url": "https://github.com/owncloud/core/issues/13806#issuecomment-72285321",
  "issue_url": "https://api.github.com/repos/owncloud/core/issues/13806",
  "id": 72285321,
  "user": {
    "login": "joshi07",
    "id": 10674976,
    "avatar_url": "https://avatars.githubusercontent.com/u/10674976?v=3",
    "gravatar_id": "",
    "url": "https://api.github.com/users/joshi07",
    "html_url": "https://github.com/joshi07",
    "followers_url": "https://api.github.com/users/joshi07/followers",
    "following_url": "https://api.github.com/users/joshi07/following{/other_user}",
    "gists_url": "https://api.github.com/users/joshi07/gists{/gist_id}",
    "starred_url": "https://api.github.com/users/joshi07/starred{/owner}{/repo}",
    "subscriptions_url": "https://api.github.com/users/joshi07/subscriptions",
    "organizations_url": "https://api.github.com/users/joshi07/orgs",
    "repos_url": "https://api.github.com/users/joshi07/repos",
    "events_url": "https://api.github.com/users/joshi07/events{/privacy}",
    "received_events_url": "https://api.github.com/users/joshi07/received_events",
    "type": "User",
    "site_admin": false
  },
  "created_at": "2015-01-30T22:57:04Z",
  "updated_at": "2015-01-30T22:57:04Z",
  "body": "as i tried to reproduce the error, it happened again, but renaming the folder a 2. time wasn't doing any good, so im stuck with no sync again :-(\r\n"
}
, {
  "url": "https://api.github.com/repos/owncloud/core/issues/comments/72287370",
  "html_url": "https://github.com/owncloud/core/issues/13806#issuecomment-72287370",
  "issue_url": "https://api.github.com/repos/owncloud/core/issues/13806",
  "id": 72287370,
  "user": {
    "login": "RealRancor",
    "id": 2248459,
    "avatar_url": "https://avatars.githubusercontent.com/u/2248459?v=3",
    "gravatar_id": "",
    "url": "https://api.github.com/users/RealRancor",
    "html_url": "https://github.com/RealRancor",
    "followers_url": "https://api.github.com/users/RealRancor/followers",
    "following_url": "https://api.github.com/users/RealRancor/following{/other_user}",
    "gists_url": "https://api.github.com/users/RealRancor/gists{/gist_id}",
    "starred_url": "https://api.github.com/users/RealRancor/starred{/owner}{/repo}",
    "subscriptions_url": "https://api.github.com/users/RealRancor/subscriptions",
    "organizations_url": "https://api.github.com/users/RealRancor/orgs",
    "repos_url": "https://api.github.com/users/RealRancor/repos",
    "events_url": "https://api.github.com/users/RealRancor/events{/privacy}",
    "received_events_url": "https://api.github.com/users/RealRancor/received_events",
    "type": "User",
    "site_admin": false
  },
  "created_at": "2015-01-30T23:14:37Z",
  "updated_at": "2015-01-30T23:14:37Z",
  "body": "Hi,\r\n\r\nplease use the issue template provided here:\r\n\r\nhttps://raw.githubusercontent.com/owncloud/core/master/issue_template.md\r\n\r\nas asked in the \"guidelines for contributing\" (linked in the yellow box when creating a new issue).\r\n"
}
, {
  "url": "https://api.github.com/repos/owncloud/core/issues/comments/72310891",
  "html_url": "https://github.com/owncloud/core/issues/13806#issuecomment-72310891",
  "issue_url": "https://api.github.com/repos/owncloud/core/issues/13806",
  "id": 72310891,
  "user": {
    "login": "MorrisJobke",
    "id": 245432,
    "avatar_url": "https://avatars.githubusercontent.com/u/245432?v=3",
    "gravatar_id": "",
    "url": "https://api.github.com/users/MorrisJobke",
    "html_url": "https://github.com/MorrisJobke",
    "followers_url": "https://api.github.com/users/MorrisJobke/followers",
    "following_url": "https://api.github.com/users/MorrisJobke/following{/other_user}",
    "gists_url": "https://api.github.com/users/MorrisJobke/gists{/gist_id}",
    "starred_url": "https://api.github.com/users/MorrisJobke/starred{/owner}{/repo}",
    "subscriptions_url": "https://api.github.com/users/MorrisJobke/subscriptions",
    "organizations_url": "https://api.github.com/users/MorrisJobke/orgs",
    "repos_url": "https://api.github.com/users/MorrisJobke/repos",
    "events_url": "https://api.github.com/users/MorrisJobke/events{/privacy}",
    "received_events_url": "https://api.github.com/users/MorrisJobke/received_events",
    "type": "User",
    "site_admin": false
  },
  "created_at": "2015-01-31T09:25:41Z",
  "updated_at": "2015-01-31T09:25:41Z",
  "body": "@danimo @dragotin Did you ever tested with Windows 8/10? Looks like maybe something bad happened there. If you have a test instance, can you try to sync a folder named \"NP++\"?"
}
, {
  "url": "https://api.github.com/repos/owncloud/core/issues/comments/72313075",
  "html_url": "https://github.com/owncloud/core/issues/13806#issuecomment-72313075",
  "issue_url": "https://api.github.com/repos/owncloud/core/issues/13806",
  "id": 72313075,
  "user": {
    "login": "joshi07",
    "id": 10674976,
    "avatar_url": "https://avatars.githubusercontent.com/u/10674976?v=3",
    "gravatar_id": "",
    "url": "https://api.github.com/users/joshi07",
    "html_url": "https://github.com/joshi07",
    "followers_url": "https://api.github.com/users/joshi07/followers",
    "following_url": "https://api.github.com/users/joshi07/following{/other_user}",
    "gists_url": "https://api.github.com/users/joshi07/gists{/gist_id}",
    "starred_url": "https://api.github.com/users/joshi07/starred{/owner}{/repo}",
    "subscriptions_url": "https://api.github.com/users/joshi07/subscriptions",
    "organizations_url": "https://api.github.com/users/joshi07/orgs",
    "repos_url": "https://api.github.com/users/joshi07/repos",
    "events_url": "https://api.github.com/users/joshi07/events{/privacy}",
    "received_events_url": "https://api.github.com/users/joshi07/received_events",
    "type": "User",
    "site_admin": false
  },
  "created_at": "2015-01-31T10:48:42Z",
  "updated_at": "2015-01-31T10:53:18Z",
  "body": "### Steps to reproduce\r\nInstall owncloud on Win8 or Win10\r\n\r\ntry to sync with an already filled (by win 7  OC client, android OC client) webspace lying at OVH shared hosting.\r\n\r\nSince i cant reproduce the error, i decline that the folder name is the cause of this. i was able to sync single folders, but others not. and i deleted every folder with signs or other special chars.\r\n\r\nSo i only have 2 folders left, 1 named \"slider\" which syncs if i syn just that folder.\r\nAnd a folder named \"Privat\" which does not sync no matter what... even not if i only sync that one!\r\n\r\n### Expected behaviour\r\nSync with OC server\r\n\r\n### Actual behaviour\r\nThis is in the logs of the client.\r\n\r\n01-31 11:17:31:849 0xb91198c oc_module: Call the csync callback for ownCloud\r\n01-31 11:17:31:881 0xb91198c oc_module: Neon error code was 1\r\n01-31 11:17:31:881 0xb91198c oc_module: WRN: propfind named failed with 1, request error: 400 Bad Request\r\n01-31 11:17:31:882 0xb91198c oc_module: fill_recursive_propfind_cache /remote.php/webdav Server maybe did not give us an 'infinity' depth result\r\n01-31 11:17:31:882 0xb91198c oc_module: get_listdir_context_from_recursive_cache No cache\r\n01-31 11:17:32:953 0xb91198c oc_module: Simple propfind result code 207.\r\n01-31 11:17:32:954 0xb91198c oc_module: opendir returning handle 0a207c60 (count=4)\r\n01-31 11:17:32:954 0xb91198c csync_walker: directory: ownclouds://xxx.xx/remote.php/webdav/slider [file_id=00000005ocdd92866b32]\r\n01-31 11:17:32:954 0xb91198c _csync_detect_update: file: slider, instruction: INSTRUCTION_NEW <<=\r\n01-31 11:17:32:954 0xb91198c oc_module: opendir method called on ownclouds://xxx.xx/remote.php/webdav/slider\r\n01-31 11:17:32:987 0xb91198c oc_module: Neon error code was 1\r\n01-31 11:17:32:987 0xb91198c oc_module: Neon error code was 1\r\n01-31 11:17:32:987 0xb91198c oc_module: WRN: propfind named failed with 1, request error: 400 Bad Request\r\n01-31 11:17:32:988 0xb91198c oc_module: Errno set to 22\r\n01-31 11:17:32:988 0xb91198c csync_ftw: opendir failed for ownclouds://xxx.xx/remote.php/webdav/slider - errno 22\r\n01-31 11:17:32:988 0xb91198c csync_statedb_close: sqlite3_close=0\r\n01-31 11:17:33:020 0x5759d90 syncengine.cpp:518  #### ERROR during  csync_update :  \"CSync hat einen schwerwiegender Parameterfehler festgestellt. 400 Bad Request\"\r\n01-31 11:17:33:024 0x5759d90 syncengine.cpp:824 CSync run took  1969\r\n01-31 11:17:33:030 0x5759d90 folder.cpp:836 -> SyncEngine finished with ERROR, warn count is 0\r\nno sync, it shows a red cross in the task bar, the interface says csync has a fatal error, 400 bad request.\r\n\r\n### Server configuration\r\nOVH Shared Hosting 2014\r\n\r\nSQLite\r\n\r\nPHP Version 5.4.37\r\n\r\nownCloud 7.0.4 (stable) \r\n\r\nFreshly installed ca 2 weeks ago\r\n\r\n**List of activated apps:**\r\nno more than originally activated.\r\n\r\n**The content of config/config.php:**\r\n<?php\r\n$CONFIG = array (\r\n'trusted_domains' => \r\n  array (\r\n    0 => 'XXX.XX',\r\n    1 => 'XXXXX.XX',\r\n  ),\r\n  'datadirectory' => '/home/madelppsql/www/ownCloud/data',\r\n  'overwrite.cli.url' => 'xxx.xxx',\r\n  'dbtype' => 'sqlite3',\r\n  'version' => '7.0.4.2',\r\n  'installed' => true,\r\n  'loglevel' => '0',\r\n  'mail_smtpmode' => 'smtp',\r\n  'mail_smtpsecure' => 'ssl',\r\n  'mail_smtpauthtype' => 'LOGIN',\r\n  'mail_smtpauth' => 1,\r\n);\r\n\r\n\r\n**Are you using external storage, if yes which one:** local/smb/sftp/...\r\nno external storage\r\n\r\n**Are you using encryption:** yes/no\r\ni dont know, i guess not!\r\n\r\n### Client configuration\r\nChromium, Iron, FF, IE\r\n\r\n**Operating system:**\r\nWindows 8/8.1/10 triple boot Computer\r\n\r\n### Logs\r\n#### Web server error log\r\nshared hosting, no log....\r\n\r\n#### ownCloud log (data/owncloud.log)\r\nThis is the only line when the sync fails\r\n\r\n{\"reqId\":\"54ccb268bb559\",\"app\":\"webdav\",\"message\":\"Sabre\\\\DAV\\\\Exception\\\\NotAuthenticated: No basic authentication headers were found\",\"level\":0,\"time\":\"2015-01-31T10:46:00+00:00\",\"method\":\"PROPFIND\",\"url\":\"\\/remote.php\\/webdav\"}\r\n\r\n\r\n#### Browser log\r\nsince its no browser problem, no log!"
}
, {
  "url": "https://api.github.com/repos/owncloud/core/issues/comments/72313429",
  "html_url": "https://github.com/owncloud/core/issues/13806#issuecomment-72313429",
  "issue_url": "https://api.github.com/repos/owncloud/core/issues/13806",
  "id": 72313429,
  "user": {
    "login": "MorrisJobke",
    "id": 245432,
    "avatar_url": "https://avatars.githubusercontent.com/u/245432?v=3",
    "gravatar_id": "",
    "url": "https://api.github.com/users/MorrisJobke",
    "html_url": "https://github.com/MorrisJobke",
    "followers_url": "https://api.github.com/users/MorrisJobke/followers",
    "following_url": "https://api.github.com/users/MorrisJobke/following{/other_user}",
    "gists_url": "https://api.github.com/users/MorrisJobke/gists{/gist_id}",
    "starred_url": "https://api.github.com/users/MorrisJobke/starred{/owner}{/repo}",
    "subscriptions_url": "https://api.github.com/users/MorrisJobke/subscriptions",
    "organizations_url": "https://api.github.com/users/MorrisJobke/orgs",
    "repos_url": "https://api.github.com/users/MorrisJobke/repos",
    "events_url": "https://api.github.com/users/MorrisJobke/events{/privacy}",
    "received_events_url": "https://api.github.com/users/MorrisJobke/received_events",
    "type": "User",
    "site_admin": false
  },
  "created_at": "2015-01-31T11:01:40Z",
  "updated_at": "2015-01-31T11:01:40Z",
  "body": "Maybe related: #13398, #12146\r\n\r\n@joshi07 Did you mount another public share to that folder or any subfolder? Either by getting a public link share and then clicking in the top right to \"add to my owncloud\" or by getting it directly from another owncloud instance: https://github.com/owncloud/owncloud.org/blob/ownCloudEight/assets/img/screenshots/server/eight/FederatedShare2.png\r\nhttps://github.com/owncloud/owncloud.org/blob/ownCloudEight/assets/img/screenshots/server/eight/FederatedShare3.png\r\n\r\n(those are ownCloud 8 screenshots and I'm not sure if they are already available in ownCloud 7, but it could be)"
}
, {
  "url": "https://api.github.com/repos/owncloud/core/issues/comments/72313475",
  "html_url": "https://github.com/owncloud/core/issues/13806#issuecomment-72313475",
  "issue_url": "https://api.github.com/repos/owncloud/core/issues/13806",
  "id": 72313475,
  "user": {
    "login": "MorrisJobke",
    "id": 245432,
    "avatar_url": "https://avatars.githubusercontent.com/u/245432?v=3",
    "gravatar_id": "",
    "url": "https://api.github.com/users/MorrisJobke",
    "html_url": "https://github.com/MorrisJobke",
    "followers_url": "https://api.github.com/users/MorrisJobke/followers",
    "following_url": "https://api.github.com/users/MorrisJobke/following{/other_user}",
    "gists_url": "https://api.github.com/users/MorrisJobke/gists{/gist_id}",
    "starred_url": "https://api.github.com/users/MorrisJobke/starred{/owner}{/repo}",
    "subscriptions_url": "https://api.github.com/users/MorrisJobke/subscriptions",
    "organizations_url": "https://api.github.com/users/MorrisJobke/orgs",
    "repos_url": "https://api.github.com/users/MorrisJobke/repos",
    "events_url": "https://api.github.com/users/MorrisJobke/events{/privacy}",
    "received_events_url": "https://api.github.com/users/MorrisJobke/received_events",
    "type": "User",
    "site_admin": false
  },
  "created_at": "2015-01-31T11:03:13Z",
  "updated_at": "2015-01-31T11:03:13Z",
  "body": "@LukasReschke Didn't you fixed some \"Not authenticated\" problems recently?"
}
, {
  "url": "https://api.github.com/repos/owncloud/core/issues/comments/72313531",
  "html_url": "https://github.com/owncloud/core/issues/13806#issuecomment-72313531",
  "issue_url": "https://api.github.com/repos/owncloud/core/issues/13806",
  "id": 72313531,
  "user": {
    "login": "joshi07",
    "id": 10674976,
    "avatar_url": "https://avatars.githubusercontent.com/u/10674976?v=3",
    "gravatar_id": "",
    "url": "https://api.github.com/users/joshi07",
    "html_url": "https://github.com/joshi07",
    "followers_url": "https://api.github.com/users/joshi07/followers",
    "following_url": "https://api.github.com/users/joshi07/following{/other_user}",
    "gists_url": "https://api.github.com/users/joshi07/gists{/gist_id}",
    "starred_url": "https://api.github.com/users/joshi07/starred{/owner}{/repo}",
    "subscriptions_url": "https://api.github.com/users/joshi07/subscriptions",
    "organizations_url": "https://api.github.com/users/joshi07/orgs",
    "repos_url": "https://api.github.com/users/joshi07/repos",
    "events_url": "https://api.github.com/users/joshi07/events{/privacy}",
    "received_events_url": "https://api.github.com/users/joshi07/received_events",
    "type": "User",
    "site_admin": false
  },
  "created_at": "2015-01-31T11:05:46Z",
  "updated_at": "2015-01-31T11:08:01Z",
  "body": "@MorrisJobke i just shared the folder via link with a workmate ( he only accesses it via web! ) which is why i cant reinstall OC server right now, which i would do if he didnt need that files for buissness.\r\n\r\nbut if its the share ( and the sync was already failing before i shared that folder.) why is the android and windows 7 client working fine ?  And even  the CarrotDAV is working from my windows 8 or 10."
}
, {
  "url": "https://api.github.com/repos/owncloud/core/issues/comments/72314113",
  "html_url": "https://github.com/owncloud/core/issues/13806#issuecomment-72314113",
  "issue_url": "https://api.github.com/repos/owncloud/core/issues/13806",
  "id": 72314113,
  "user": {
    "login": "MorrisJobke",
    "id": 245432,
    "avatar_url": "https://avatars.githubusercontent.com/u/245432?v=3",
    "gravatar_id": "",
    "url": "https://api.github.com/users/MorrisJobke",
    "html_url": "https://github.com/MorrisJobke",
    "followers_url": "https://api.github.com/users/MorrisJobke/followers",
    "following_url": "https://api.github.com/users/MorrisJobke/following{/other_user}",
    "gists_url": "https://api.github.com/users/MorrisJobke/gists{/gist_id}",
    "starred_url": "https://api.github.com/users/MorrisJobke/starred{/owner}{/repo}",
    "subscriptions_url": "https://api.github.com/users/MorrisJobke/subscriptions",
    "organizations_url": "https://api.github.com/users/MorrisJobke/orgs",
    "repos_url": "https://api.github.com/users/MorrisJobke/repos",
    "events_url": "https://api.github.com/users/MorrisJobke/events{/privacy}",
    "received_events_url": "https://api.github.com/users/MorrisJobke/received_events",
    "type": "User",
    "site_admin": false
  },
  "created_at": "2015-01-31T11:25:29Z",
  "updated_at": "2015-01-31T11:25:29Z",
  "body": "@joshi07 So it just fails for the Windows 8/10 client? Can you lookup the apache access log? So we see which request come in and which one causes the 400? "
}
, {
  "url": "https://api.github.com/repos/owncloud/core/issues/comments/72314224",
  "html_url": "https://github.com/owncloud/core/issues/13806#issuecomment-72314224",
  "issue_url": "https://api.github.com/repos/owncloud/core/issues/13806",
  "id": 72314224,
  "user": {
    "login": "joshi07",
    "id": 10674976,
    "avatar_url": "https://avatars.githubusercontent.com/u/10674976?v=3",
    "gravatar_id": "",
    "url": "https://api.github.com/users/joshi07",
    "html_url": "https://github.com/joshi07",
    "followers_url": "https://api.github.com/users/joshi07/followers",
    "following_url": "https://api.github.com/users/joshi07/following{/other_user}",
    "gists_url": "https://api.github.com/users/joshi07/gists{/gist_id}",
    "starred_url": "https://api.github.com/users/joshi07/starred{/owner}{/repo}",
    "subscriptions_url": "https://api.github.com/users/joshi07/subscriptions",
    "organizations_url": "https://api.github.com/users/joshi07/orgs",
    "repos_url": "https://api.github.com/users/joshi07/repos",
    "events_url": "https://api.github.com/users/joshi07/events{/privacy}",
    "received_events_url": "https://api.github.com/users/joshi07/received_events",
    "type": "User",
    "site_admin": false
  },
  "created_at": "2015-01-31T11:30:12Z",
  "updated_at": "2015-01-31T12:42:42Z",
  "body": "@MorrisJobke its a shared hosting by OVH i do not know how to take the apache access log from there since i have no SSH  for it :( sorry\r\n\r\nNevermind, i found out how to get the apache logs:\r\nhere is the error log \r\n\r\n```\r\n[Sat Jan 31 11:22:01 2015] [crit] [client 213.186.33.40] [host xxxx.xxx] (13)Permission denied: /homez.642/madelppsql/www/ownCloud/data/.htaccess pcfg_openfile: unable to check htaccess file, ensure it is readable\r\n```\r\n\r\nand the access log:\r\n\r\n```\r\n82.83.171.99 xxx.xx - [31/Jan/2015:12:40:26 +0100] \"PROPFIND /remote.php/webdav/ HTTP/1.1\" 207 470 \"-\" \"Mozilla/5.0 (Windows) mirall/1.7.1\"\r\n82.83.171.99 xxx.xx - [31/Jan/2015:12:40:57 +0100] \"PROPFIND /remote.php/webdav/ HTTP/1.1\" 207 470 \"-\" \"Mozilla/5.0 (Windows) mirall/1.7.1\"\r\n82.83.171.99 xxx.xx - [31/Jan/2015:12:41:27 +0100] \"PROPFIND /remote.php/webdav/ HTTP/1.1\" 207 470 \"-\" \"Mozilla/5.0 (Windows) mirall/1.7.1\"\r\n82.83.171.99 xxx.xx - [31/Jan/2015:12:41:44 +0100] \"PROPFIND /remote.php/webdav/ HTTP/1.1\" 207 1204 \"-\" \"Mozilla/5.0 (Windows) mirall/1.7.1\"\r\n82.83.171.99 xxx.xx - [31/Jan/2015:12:41:57 +0100] \"PROPFIND /remote.php/webdav/ HTTP/1.1\" 207 470 \"-\" \"Mozilla/5.0 (Windows) mirall/1.7.1\"\r\n82.83.171.99 xxx.xx - [31/Jan/2015:12:42:14 +0100] \"PROPFIND /remote.php/webdav/ HTTP/1.1\" 207 1204 \"-\" \"Mozilla/5.0 (Windows) mirall/1.7.1\"\r\n82.83.171.99 xxx.xx - [31/Jan/2015:12:42:28 +0100] \"PROPFIND /remote.php/webdav/ HTTP/1.1\" 207 470 \"-\" \"Mozilla/5.0 (Windows) mirall/1.7.1\"\r\n82.83.171.99 xxx.xx - [31/Jan/2015:12:42:44 +0100] \"PROPFIND /remote.php/webdav/ HTTP/1.1\" 207 1204 \"-\" \"Mozilla/5.0 (Windows) mirall/1.7.1\"\r\n82.83.171.99 xxx.xx - [31/Jan/2015:12:42:58 +0100] \"PROPFIND /remote.php/webdav/ HTTP/1.1\" 207 470 \"-\" \"Mozilla/5.0 (Windows) mirall/1.7.1\"\r\n82.83.171.99 xxx.xx - [31/Jan/2015:12:43:14 +0100] \"PROPFIND /remote.php/webdav/ HTTP/1.1\" 207 1204 \"-\" \"Mozilla/5.0 (Windows) mirall/1.7.1\"\r\n82.83.171.99 xxx.xx - [31/Jan/2015:12:43:21 +0100] \"GET /status.php HTTP/1.1\" 200 77 \"-\" \"Mozilla/5.0 (Windows) mirall/1.7.1\"\r\n82.83.171.99 xxx.xx - [31/Jan/2015:12:43:21 +0100] \"PROPFIND /remote.php/webdav/ HTTP/1.1\" 207 434 \"-\" \"Mozilla/5.0 (Windows) mirall/1.7.1\"\r\n82.83.171.99 xxx.xx - [31/Jan/2015:12:43:21 +0100] \"PROPFIND /remote.php/webdav/ HTTP/1.1\" 207 470 \"-\" \"Mozilla/5.0 (Windows) mirall/1.7.1\"\r\n82.83.171.99 xxx.xx - [31/Jan/2015:12:43:22 +0100] \"PROPFIND /remote.php/webdav/ HTTP/1.1\" 207 470 \"-\" \"Mozilla/5.0 (Windows) mirall/1.7.1\"\r\n82.83.171.99 xxx.xx - [31/Jan/2015:12:43:52 +0100] \"PROPFIND /remote.php/webdav/ HTTP/1.1\" 207 470 \"-\" \"Mozilla/5.0 (Windows) mirall/1.7.1\"\r\n82.83.171.99 xxx.xx - [31/Jan/2015:12:44:22 +0100] \"PROPFIND /remote.php/webdav/ HTTP/1.1\" 207 470 \"-\" \"Mozilla/5.0 (Windows) mirall/1.7.1\"\r\n82.83.171.99 xxx.xx - [31/Jan/2015:12:40:46 +0100] \"PROPFIND /remote.php/webdav HTTP/1.1\" 401 292 \"-\" \"Mozilla/5.0 (Windows) csyncoC/0.91.5 neon/0.30.1\"\r\n82.83.171.99 xxx.xx - [31/Jan/2015:12:40:46 +0100] \"PROPFIND /remote.php/webdav HTTP/1.1\" 207 2159 \"-\" \"Mozilla/5.0 (Windows) csyncoC/0.91.5 neon/0.30.1\"\r\n82.83.171.99 xxx.xx - [31/Jan/2015:12:43:22 +0100] \"PROPFIND /remote.php/webdav HTTP/1.1\" 401 292 \"-\" \"Mozilla/5.0 (Windows) csyncoC/0.91.5 neon/0.30.1\"\r\n82.83.171.99 xxx.xx - [31/Jan/2015:12:43:22 +0100] \"PROPFIND /remote.php/webdav HTTP/1.1\" 207 2159 \"-\" \"Mozilla/5.0 (Windows) csyncoC/0.91.5 neon/0.30.1\"\r\n82.83.171.99 xxx.xx - [31/Jan/2015:12:44:23 +0100] \"PROPFIND /remote.php/webdav HTTP/1.1\" 401 292 \"-\" \"Mozilla/5.0 (Windows) csyncoC/0.91.5 neon/0.30.1\"\r\n82.83.171.99 xxx.xx - [31/Jan/2015:12:44:23 +0100] \"PROPFIND /remote.php/webdav HTTP/1.1\" 207 2159 \"-\" \"Mozilla/5.0 (Windows) csyncoC/0.91.5 neon/0.30.1\"\r\n```"
}
, {
  "url": "https://api.github.com/repos/owncloud/core/issues/comments/72316359",
  "html_url": "https://github.com/owncloud/core/issues/13806#issuecomment-72316359",
  "issue_url": "https://api.github.com/repos/owncloud/core/issues/13806",
  "id": 72316359,
  "user": {
    "login": "MorrisJobke",
    "id": 245432,
    "avatar_url": "https://avatars.githubusercontent.com/u/245432?v=3",
    "gravatar_id": "",
    "url": "https://api.github.com/users/MorrisJobke",
    "html_url": "https://github.com/MorrisJobke",
    "followers_url": "https://api.github.com/users/MorrisJobke/followers",
    "following_url": "https://api.github.com/users/MorrisJobke/following{/other_user}",
    "gists_url": "https://api.github.com/users/MorrisJobke/gists{/gist_id}",
    "starred_url": "https://api.github.com/users/MorrisJobke/starred{/owner}{/repo}",
    "subscriptions_url": "https://api.github.com/users/MorrisJobke/subscriptions",
    "organizations_url": "https://api.github.com/users/MorrisJobke/orgs",
    "repos_url": "https://api.github.com/users/MorrisJobke/repos",
    "events_url": "https://api.github.com/users/MorrisJobke/events{/privacy}",
    "received_events_url": "https://api.github.com/users/MorrisJobke/received_events",
    "type": "User",
    "site_admin": false
  },
  "created_at": "2015-01-31T12:44:43Z",
  "updated_at": "2015-01-31T12:44:43Z",
  "body": "@joshi07 Is the access log just from the time where just the Windows 8/10 client tried to connect?"
}
, {
  "url": "https://api.github.com/repos/owncloud/core/issues/comments/72316392",
  "html_url": "https://github.com/owncloud/core/issues/13806#issuecomment-72316392",
  "issue_url": "https://api.github.com/repos/owncloud/core/issues/13806",
  "id": 72316392,
  "user": {
    "login": "joshi07",
    "id": 10674976,
    "avatar_url": "https://avatars.githubusercontent.com/u/10674976?v=3",
    "gravatar_id": "",
    "url": "https://api.github.com/users/joshi07",
    "html_url": "https://github.com/joshi07",
    "followers_url": "https://api.github.com/users/joshi07/followers",
    "following_url": "https://api.github.com/users/joshi07/following{/other_user}",
    "gists_url": "https://api.github.com/users/joshi07/gists{/gist_id}",
    "starred_url": "https://api.github.com/users/joshi07/starred{/owner}{/repo}",
    "subscriptions_url": "https://api.github.com/users/joshi07/subscriptions",
    "organizations_url": "https://api.github.com/users/joshi07/orgs",
    "repos_url": "https://api.github.com/users/joshi07/repos",
    "events_url": "https://api.github.com/users/joshi07/events{/privacy}",
    "received_events_url": "https://api.github.com/users/joshi07/received_events",
    "type": "User",
    "site_admin": false
  },
  "created_at": "2015-01-31T12:45:41Z",
  "updated_at": "2015-01-31T12:45:41Z",
  "body": "@MorrisJobke yes!"
}
, {
  "url": "https://api.github.com/repos/owncloud/core/issues/comments/72316452",
  "html_url": "https://github.com/owncloud/core/issues/13806#issuecomment-72316452",
  "issue_url": "https://api.github.com/repos/owncloud/core/issues/13806",
  "id": 72316452,
  "user": {
    "login": "MorrisJobke",
    "id": 245432,
    "avatar_url": "https://avatars.githubusercontent.com/u/245432?v=3",
    "gravatar_id": "",
    "url": "https://api.github.com/users/MorrisJobke",
    "html_url": "https://github.com/MorrisJobke",
    "followers_url": "https://api.github.com/users/MorrisJobke/followers",
    "following_url": "https://api.github.com/users/MorrisJobke/following{/other_user}",
    "gists_url": "https://api.github.com/users/MorrisJobke/gists{/gist_id}",
    "starred_url": "https://api.github.com/users/MorrisJobke/starred{/owner}{/repo}",
    "subscriptions_url": "https://api.github.com/users/MorrisJobke/subscriptions",
    "organizations_url": "https://api.github.com/users/MorrisJobke/orgs",
    "repos_url": "https://api.github.com/users/MorrisJobke/repos",
    "events_url": "https://api.github.com/users/MorrisJobke/events{/privacy}",
    "received_events_url": "https://api.github.com/users/MorrisJobke/received_events",
    "type": "User",
    "site_admin": false
  },
  "created_at": "2015-01-31T12:47:48Z",
  "updated_at": "2015-01-31T12:47:58Z",
  "body": "```\r\n82.83.171.99 xxx.xx - [31/Jan/2015:12:40:46 +0100] \"PROPFIND /remote.php/webdav HTTP/1.1\" 401 292 \"-\" \"Mozilla/5.0 (Windows) csyncoC/0.91.5 neon/0.30.1\" \r\n82.83.171.99 xxx.xx - [31/Jan/2015:12:40:46 +0100] \"PROPFIND /remote.php/webdav HTTP/1.1\" 207 2159 \"-\" \"Mozilla/5.0 (Windows) csyncoC/0.91.5 neon/0.30.1\"\r\n```\r\n\r\nWeird ... two propfinds to the same resource with different response o.O\r\n\r\n@dragotin @danimo Is this normal behaviour or maybe caused by this issue? Usually the folder is part of the URL in a PROPFIND, isn't it? So this is a PROPFIND to the root folder?\r\n\r\n"
}
, {
  "url": "https://api.github.com/repos/owncloud/core/issues/comments/72316739",
  "html_url": "https://github.com/owncloud/core/issues/13806#issuecomment-72316739",
  "issue_url": "https://api.github.com/repos/owncloud/core/issues/13806",
  "id": 72316739,
  "user": {
    "login": "MorrisJobke",
    "id": 245432,
    "avatar_url": "https://avatars.githubusercontent.com/u/245432?v=3",
    "gravatar_id": "",
    "url": "https://api.github.com/users/MorrisJobke",
    "html_url": "https://github.com/MorrisJobke",
    "followers_url": "https://api.github.com/users/MorrisJobke/followers",
    "following_url": "https://api.github.com/users/MorrisJobke/following{/other_user}",
    "gists_url": "https://api.github.com/users/MorrisJobke/gists{/gist_id}",
    "starred_url": "https://api.github.com/users/MorrisJobke/starred{/owner}{/repo}",
    "subscriptions_url": "https://api.github.com/users/MorrisJobke/subscriptions",
    "organizations_url": "https://api.github.com/users/MorrisJobke/orgs",
    "repos_url": "https://api.github.com/users/MorrisJobke/repos",
    "events_url": "https://api.github.com/users/MorrisJobke/events{/privacy}",
    "received_events_url": "https://api.github.com/users/MorrisJobke/received_events",
    "type": "User",
    "site_admin": false
  },
  "created_at": "2015-01-31T12:56:07Z",
  "updated_at": "2015-01-31T12:56:07Z",
  "body": "I just tried it and it looks good :(\r\n\r\n```\r\n$ curl -u mjob:mjob -X PROPFIND http://localhost/master/remote.php/webdav\r\n  % Total    % Received % Xferd  Average Speed   Time    Time     Time  Current\r\n                                 Dload  Upload   Total   Spent    Left  Speed\r\n100   650    0   650    0     0   5228      0 --:--:-- --:--:-- --:--:--  5241\r\n```\r\n\r\n```xml\r\n<?xml version=\"1.0\" encoding=\"utf-8\"?>\r\n<d:multistatus xmlns:d=\"DAV:\" xmlns:s=\"http://sabredav.org/ns\" xmlns:oc=\"http://owncloud.org/ns\">\r\n  <d:response>\r\n    <d:href>/master/remote.php/webdav/</d:href>\r\n    <d:propstat>\r\n      <d:prop>\r\n        <oc:id>00000003ocgzoerbcimi</oc:id>\r\n        <oc:permissions>RDNVCK</oc:permissions>\r\n        <oc:size>0</oc:size>\r\n        <d:getetag>\"54ccd070b3835\"</d:getetag>\r\n        <d:getlastmodified>Sat, 31 Jan 2015 12:54:08 GMT</d:getlastmodified>\r\n        <d:resourcetype>\r\n          <d:collection/>\r\n        </d:resourcetype>\r\n        <d:quota-used-bytes>0</d:quota-used-bytes>\r\n        <d:quota-available-bytes>9250074624</d:quota-available-bytes>\r\n      </d:prop>\r\n      <d:status>HTTP/1.1 200 OK</d:status>\r\n    </d:propstat>\r\n  </d:response>\r\n</d:multistatus>\r\n```\r\n\r\nCurrently I have no idea, why the first PROPFIND fails and the second not (and why there are two propfinds at the exact same time at all)\r\n\r\nMaybe wait for the others ;)"
}
, {
  "url": "https://api.github.com/repos/owncloud/core/issues/comments/72316787",
  "html_url": "https://github.com/owncloud/core/issues/13806#issuecomment-72316787",
  "issue_url": "https://api.github.com/repos/owncloud/core/issues/13806",
  "id": 72316787,
  "user": {
    "login": "joshi07",
    "id": 10674976,
    "avatar_url": "https://avatars.githubusercontent.com/u/10674976?v=3",
    "gravatar_id": "",
    "url": "https://api.github.com/users/joshi07",
    "html_url": "https://github.com/joshi07",
    "followers_url": "https://api.github.com/users/joshi07/followers",
    "following_url": "https://api.github.com/users/joshi07/following{/other_user}",
    "gists_url": "https://api.github.com/users/joshi07/gists{/gist_id}",
    "starred_url": "https://api.github.com/users/joshi07/starred{/owner}{/repo}",
    "subscriptions_url": "https://api.github.com/users/joshi07/subscriptions",
    "organizations_url": "https://api.github.com/users/joshi07/orgs",
    "repos_url": "https://api.github.com/users/joshi07/repos",
    "events_url": "https://api.github.com/users/joshi07/events{/privacy}",
    "received_events_url": "https://api.github.com/users/joshi07/received_events",
    "type": "User",
    "site_admin": false
  },
  "created_at": "2015-01-31T12:57:24Z",
  "updated_at": "2015-01-31T12:57:24Z",
  "body": "if i can provide any more information or even a Teamviewer session since were both germans, i would be happy to help.\r\n\r\nGreetings"
}
, {
  "url": "https://api.github.com/repos/owncloud/core/issues/comments/72317958",
  "html_url": "https://github.com/owncloud/core/issues/13806#issuecomment-72317958",
  "issue_url": "https://api.github.com/repos/owncloud/core/issues/13806",
  "id": 72317958,
  "user": {
    "login": "MorrisJobke",
    "id": 245432,
    "avatar_url": "https://avatars.githubusercontent.com/u/245432?v=3",
    "gravatar_id": "",
    "url": "https://api.github.com/users/MorrisJobke",
    "html_url": "https://github.com/MorrisJobke",
    "followers_url": "https://api.github.com/users/MorrisJobke/followers",
    "following_url": "https://api.github.com/users/MorrisJobke/following{/other_user}",
    "gists_url": "https://api.github.com/users/MorrisJobke/gists{/gist_id}",
    "starred_url": "https://api.github.com/users/MorrisJobke/starred{/owner}{/repo}",
    "subscriptions_url": "https://api.github.com/users/MorrisJobke/subscriptions",
    "organizations_url": "https://api.github.com/users/MorrisJobke/orgs",
    "repos_url": "https://api.github.com/users/MorrisJobke/repos",
    "events_url": "https://api.github.com/users/MorrisJobke/events{/privacy}",
    "received_events_url": "https://api.github.com/users/MorrisJobke/received_events",
    "type": "User",
    "site_admin": false
  },
  "created_at": "2015-01-31T13:35:11Z",
  "updated_at": "2015-01-31T13:35:11Z",
  "body": "@joshi07 Thanks. But I guess we need to wait for monday and then have a look at this together with other devs."
}
, {
  "url": "https://api.github.com/repos/owncloud/core/issues/comments/72318047",
  "html_url": "https://github.com/owncloud/core/issues/13806#issuecomment-72318047",
  "issue_url": "https://api.github.com/repos/owncloud/core/issues/13806",
  "id": 72318047,
  "user": {
    "login": "joshi07",
    "id": 10674976,
    "avatar_url": "https://avatars.githubusercontent.com/u/10674976?v=3",
    "gravatar_id": "",
    "url": "https://api.github.com/users/joshi07",
    "html_url": "https://github.com/joshi07",
    "followers_url": "https://api.github.com/users/joshi07/followers",
    "following_url": "https://api.github.com/users/joshi07/following{/other_user}",
    "gists_url": "https://api.github.com/users/joshi07/gists{/gist_id}",
    "starred_url": "https://api.github.com/users/joshi07/starred{/owner}{/repo}",
    "subscriptions_url": "https://api.github.com/users/joshi07/subscriptions",
    "organizations_url": "https://api.github.com/users/joshi07/orgs",
    "repos_url": "https://api.github.com/users/joshi07/repos",
    "events_url": "https://api.github.com/users/joshi07/events{/privacy}",
    "received_events_url": "https://api.github.com/users/joshi07/received_events",
    "type": "User",
    "site_admin": false
  },
  "created_at": "2015-01-31T13:37:43Z",
  "updated_at": "2015-01-31T13:37:43Z",
  "body": "@MorrisJobke  i hope this is not my fault :o config error or such. ... but thanks anyway :)"
}
, {
  "url": "https://api.github.com/repos/owncloud/core/issues/comments/72332746",
  "html_url": "https://github.com/owncloud/core/issues/13806#issuecomment-72332746",
  "issue_url": "https://api.github.com/repos/owncloud/core/issues/13806",
  "id": 72332746,
  "user": {
    "login": "dragotin",
    "id": 1070214,
    "avatar_url": "https://avatars.githubusercontent.com/u/1070214?v=3",
    "gravatar_id": "",
    "url": "https://api.github.com/users/dragotin",
    "html_url": "https://github.com/dragotin",
    "followers_url": "https://api.github.com/users/dragotin/followers",
    "following_url": "https://api.github.com/users/dragotin/following{/other_user}",
    "gists_url": "https://api.github.com/users/dragotin/gists{/gist_id}",
    "starred_url": "https://api.github.com/users/dragotin/starred{/owner}{/repo}",
    "subscriptions_url": "https://api.github.com/users/dragotin/subscriptions",
    "organizations_url": "https://api.github.com/users/dragotin/orgs",
    "repos_url": "https://api.github.com/users/dragotin/repos",
    "events_url": "https://api.github.com/users/dragotin/events{/privacy}",
    "received_events_url": "https://api.github.com/users/dragotin/received_events",
    "type": "User",
    "site_admin": false
  },
  "created_at": "2015-01-31T19:39:57Z",
  "updated_at": "2015-01-31T19:39:57Z",
  "body": "The two PROPFINDs are fine, the 401 comes in reply to a non authenticated PROPFIND, and the client than trries again with credentials which results in 201. \r\n\r\nYou say it works with the win7 client, but not with the client on win8 or 10. What file systems are used on that systems? And, do we know which operating system runs on the server?"
}
, {
  "url": "https://api.github.com/repos/owncloud/core/issues/comments/72333060",
  "html_url": "https://github.com/owncloud/core/issues/13806#issuecomment-72333060",
  "issue_url": "https://api.github.com/repos/owncloud/core/issues/13806",
  "id": 72333060,
  "user": {
    "login": "MorrisJobke",
    "id": 245432,
    "avatar_url": "https://avatars.githubusercontent.com/u/245432?v=3",
    "gravatar_id": "",
    "url": "https://api.github.com/users/MorrisJobke",
    "html_url": "https://github.com/MorrisJobke",
    "followers_url": "https://api.github.com/users/MorrisJobke/followers",
    "following_url": "https://api.github.com/users/MorrisJobke/following{/other_user}",
    "gists_url": "https://api.github.com/users/MorrisJobke/gists{/gist_id}",
    "starred_url": "https://api.github.com/users/MorrisJobke/starred{/owner}{/repo}",
    "subscriptions_url": "https://api.github.com/users/MorrisJobke/subscriptions",
    "organizations_url": "https://api.github.com/users/MorrisJobke/orgs",
    "repos_url": "https://api.github.com/users/MorrisJobke/repos",
    "events_url": "https://api.github.com/users/MorrisJobke/events{/privacy}",
    "received_events_url": "https://api.github.com/users/MorrisJobke/received_events",
    "type": "User",
    "site_admin": false
  },
  "created_at": "2015-01-31T19:47:11Z",
  "updated_at": "2015-01-31T19:47:18Z",
  "body": "They just provide some info about their product: http://cluster015.ovh.net/infos/ is the config for https://www.ovh.de/hosting/hosting-basic.xml \r\n\r\n@dragotin What do you want to know exactly?\r\n\r\n@joshi07 Do you have any additional info?"
}
, {
  "url": "https://api.github.com/repos/owncloud/core/issues/comments/72333133",
  "html_url": "https://github.com/owncloud/core/issues/13806#issuecomment-72333133",
  "issue_url": "https://api.github.com/repos/owncloud/core/issues/13806",
  "id": 72333133,
  "user": {
    "login": "LukasReschke",
    "id": 878997,
    "avatar_url": "https://avatars.githubusercontent.com/u/878997?v=3",
    "gravatar_id": "",
    "url": "https://api.github.com/users/LukasReschke",
    "html_url": "https://github.com/LukasReschke",
    "followers_url": "https://api.github.com/users/LukasReschke/followers",
    "following_url": "https://api.github.com/users/LukasReschke/following{/other_user}",
    "gists_url": "https://api.github.com/users/LukasReschke/gists{/gist_id}",
    "starred_url": "https://api.github.com/users/LukasReschke/starred{/owner}{/repo}",
    "subscriptions_url": "https://api.github.com/users/LukasReschke/subscriptions",
    "organizations_url": "https://api.github.com/users/LukasReschke/orgs",
    "repos_url": "https://api.github.com/users/LukasReschke/repos",
    "events_url": "https://api.github.com/users/LukasReschke/events{/privacy}",
    "received_events_url": "https://api.github.com/users/LukasReschke/received_events",
    "type": "User",
    "site_admin": false
  },
  "created_at": "2015-01-31T19:48:48Z",
  "updated_at": "2015-01-31T19:53:35Z",
  "body": "> @LukasReschke Didn't you fixed some \"Not authenticated\" problems recently?\r\n\r\nI can't think of any recent change that relates to this bug in this concern."
}
, {
  "url": "https://api.github.com/repos/owncloud/core/issues/comments/72338384",
  "html_url": "https://github.com/owncloud/core/issues/13806#issuecomment-72338384",
  "issue_url": "https://api.github.com/repos/owncloud/core/issues/13806",
  "id": 72338384,
  "user": {
    "login": "joshi07",
    "id": 10674976,
    "avatar_url": "https://avatars.githubusercontent.com/u/10674976?v=3",
    "gravatar_id": "",
    "url": "https://api.github.com/users/joshi07",
    "html_url": "https://github.com/joshi07",
    "followers_url": "https://api.github.com/users/joshi07/followers",
    "following_url": "https://api.github.com/users/joshi07/following{/other_user}",
    "gists_url": "https://api.github.com/users/joshi07/gists{/gist_id}",
    "starred_url": "https://api.github.com/users/joshi07/starred{/owner}{/repo}",
    "subscriptions_url": "https://api.github.com/users/joshi07/subscriptions",
    "organizations_url": "https://api.github.com/users/joshi07/orgs",
    "repos_url": "https://api.github.com/users/joshi07/repos",
    "events_url": "https://api.github.com/users/joshi07/events{/privacy}",
    "received_events_url": "https://api.github.com/users/joshi07/received_events",
    "type": "User",
    "site_admin": false
  },
  "created_at": "2015-01-31T21:43:55Z",
  "updated_at": "2015-01-31T21:43:55Z",
  "body": "@MorrisJobke you got the informations right.\r\n\r\nAbout the server... i do not have more informations than you do, since its a standard product and i have no acces to the hardware or operating system. \r\nBut i am on cluster 11 so my link is http://cluster011.ovh.net/infos/\r\n\r\n@dragotin since the Win 7 Client is my PC at work, i will see which filesystem is there.\r\nhere at home i am using NTFS which, i think, is the same at my workplace, but im not 100% sure.\r\n\r\nI will try a Virtual mashine with W7 to see if my home network is the issue or the operating system.\r\nMaybe its an issue with my home router? (fritzbox) on the other hand, android is working fine.\r\n\r\nBoth my Windows 8 and 10 systems are also freshly installed. Not even 1 week old."
}
, {
  "url": "https://api.github.com/repos/owncloud/core/issues/comments/72361638",
  "html_url": "https://github.com/owncloud/core/issues/13806#issuecomment-72361638",
  "issue_url": "https://api.github.com/repos/owncloud/core/issues/13806",
  "id": 72361638,
  "user": {
    "login": "joshi07",
    "id": 10674976,
    "avatar_url": "https://avatars.githubusercontent.com/u/10674976?v=3",
    "gravatar_id": "",
    "url": "https://api.github.com/users/joshi07",
    "html_url": "https://github.com/joshi07",
    "followers_url": "https://api.github.com/users/joshi07/followers",
    "following_url": "https://api.github.com/users/joshi07/following{/other_user}",
    "gists_url": "https://api.github.com/users/joshi07/gists{/gist_id}",
    "starred_url": "https://api.github.com/users/joshi07/starred{/owner}{/repo}",
    "subscriptions_url": "https://api.github.com/users/joshi07/subscriptions",
    "organizations_url": "https://api.github.com/users/joshi07/orgs",
    "repos_url": "https://api.github.com/users/joshi07/repos",
    "events_url": "https://api.github.com/users/joshi07/events{/privacy}",
    "received_events_url": "https://api.github.com/users/joshi07/received_events",
    "type": "User",
    "site_admin": false
  },
  "created_at": "2015-02-01T11:48:43Z",
  "updated_at": "2015-02-01T12:38:10Z",
  "body": "without doing anything, it started syncing today morning, is still going. i have no idea why ?! O,o\r\n\r\nIt synced half way through, and stopped again with the same error as before. this is making me nuts xD"
}
, {
  "url": "https://api.github.com/repos/owncloud/core/issues/comments/72365139",
  "html_url": "https://github.com/owncloud/core/issues/13806#issuecomment-72365139",
  "issue_url": "https://api.github.com/repos/owncloud/core/issues/13806",
  "id": 72365139,
  "user": {
    "login": "MorrisJobke",
    "id": 245432,
    "avatar_url": "https://avatars.githubusercontent.com/u/245432?v=3",
    "gravatar_id": "",
    "url": "https://api.github.com/users/MorrisJobke",
    "html_url": "https://github.com/MorrisJobke",
    "followers_url": "https://api.github.com/users/MorrisJobke/followers",
    "following_url": "https://api.github.com/users/MorrisJobke/following{/other_user}",
    "gists_url": "https://api.github.com/users/MorrisJobke/gists{/gist_id}",
    "starred_url": "https://api.github.com/users/MorrisJobke/starred{/owner}{/repo}",
    "subscriptions_url": "https://api.github.com/users/MorrisJobke/subscriptions",
    "organizations_url": "https://api.github.com/users/MorrisJobke/orgs",
    "repos_url": "https://api.github.com/users/MorrisJobke/repos",
    "events_url": "https://api.github.com/users/MorrisJobke/events{/privacy}",
    "received_events_url": "https://api.github.com/users/MorrisJobke/received_events",
    "type": "User",
    "site_admin": false
  },
  "created_at": "2015-02-01T13:42:07Z",
  "updated_at": "2015-02-01T13:42:07Z",
  "body": "@joshi07 Can you try to log the stuff the client is doing: http://doc.owncloud.org/desktop/1.7/troubleshooting.html#saving-files-directly Maybe this helps."
}
, {
  "url": "https://api.github.com/repos/owncloud/core/issues/comments/127169503",
  "html_url": "https://github.com/owncloud/core/issues/13806#issuecomment-127169503",
  "issue_url": "https://api.github.com/repos/owncloud/core/issues/13806",
  "id": 127169503,
  "user": {
    "login": "MorrisJobke",
    "id": 245432,
    "avatar_url": "https://avatars.githubusercontent.com/u/245432?v=3",
    "gravatar_id": "",
    "url": "https://api.github.com/users/MorrisJobke",
    "html_url": "https://github.com/MorrisJobke",
    "followers_url": "https://api.github.com/users/MorrisJobke/followers",
    "following_url": "https://api.github.com/users/MorrisJobke/following{/other_user}",
    "gists_url": "https://api.github.com/users/MorrisJobke/gists{/gist_id}",
    "starred_url": "https://api.github.com/users/MorrisJobke/starred{/owner}{/repo}",
    "subscriptions_url": "https://api.github.com/users/MorrisJobke/subscriptions",
    "organizations_url": "https://api.github.com/users/MorrisJobke/orgs",
    "repos_url": "https://api.github.com/users/MorrisJobke/repos",
    "events_url": "https://api.github.com/users/MorrisJobke/events{/privacy}",
    "received_events_url": "https://api.github.com/users/MorrisJobke/received_events",
    "type": "User",
    "site_admin": false
  },
  "created_at": "2015-08-03T09:00:27Z",
  "updated_at": "2015-08-03T09:00:27Z",
  "body": "@joshi07 Any news on this?"
}
, {
  "url": "https://api.github.com/repos/owncloud/core/issues/comments/152163883",
  "html_url": "https://github.com/owncloud/core/issues/13806#issuecomment-152163883",
  "issue_url": "https://api.github.com/repos/owncloud/core/issues/13806",
  "id": 152163883,
  "user": {
    "login": "MorrisJobke",
    "id": 245432,
    "avatar_url": "https://avatars.githubusercontent.com/u/245432?v=3",
    "gravatar_id": "",
    "url": "https://api.github.com/users/MorrisJobke",
    "html_url": "https://github.com/MorrisJobke",
    "followers_url": "https://api.github.com/users/MorrisJobke/followers",
    "following_url": "https://api.github.com/users/MorrisJobke/following{/other_user}",
    "gists_url": "https://api.github.com/users/MorrisJobke/gists{/gist_id}",
    "starred_url": "https://api.github.com/users/MorrisJobke/starred{/owner}{/repo}",
    "subscriptions_url": "https://api.github.com/users/MorrisJobke/subscriptions",
    "organizations_url": "https://api.github.com/users/MorrisJobke/orgs",
    "repos_url": "https://api.github.com/users/MorrisJobke/repos",
    "events_url": "https://api.github.com/users/MorrisJobke/events{/privacy}",
    "received_events_url": "https://api.github.com/users/MorrisJobke/received_events",
    "type": "User",
    "site_admin": false
  },
  "created_at": "2015-10-29T12:31:12Z",
  "updated_at": "2015-10-29T12:31:12Z",
  "body": "There wasn't any complain about this anymore. I will close this due to inactivity."
}
]
