[
{
  "url": "https://api.github.com/repos/owncloud/core/issues/comments/25964028",
  "html_url": "https://github.com/owncloud/core/issues/4824#issuecomment-25964028",
  "issue_url": "https://api.github.com/repos/owncloud/core/issues/4824",
  "id": 25964028,
  "user": {
    "login": "netman49",
    "id": 3963912,
    "avatar_url": "https://avatars.githubusercontent.com/u/3963912?v=3",
    "gravatar_id": "",
    "url": "https://api.github.com/users/netman49",
    "html_url": "https://github.com/netman49",
    "followers_url": "https://api.github.com/users/netman49/followers",
    "following_url": "https://api.github.com/users/netman49/following{/other_user}",
    "gists_url": "https://api.github.com/users/netman49/gists{/gist_id}",
    "starred_url": "https://api.github.com/users/netman49/starred{/owner}{/repo}",
    "subscriptions_url": "https://api.github.com/users/netman49/subscriptions",
    "organizations_url": "https://api.github.com/users/netman49/orgs",
    "repos_url": "https://api.github.com/users/netman49/repos",
    "events_url": "https://api.github.com/users/netman49/events{/privacy}",
    "received_events_url": "https://api.github.com/users/netman49/received_events",
    "type": "User",
    "site_admin": false
  },
  "created_at": "2013-10-09T11:31:33Z",
  "updated_at": "2013-10-09T11:31:33Z",
  "body": "Hi VicDeo,\r\n\r\nDo we need to manually upgrade from version 5.0.11 to version 5.0.12 to solve this problem?\r\nOr can we just replace or adjust a source file in order to get the updater show the right information and so be able to do an automated update again?"
}
, {
  "url": "https://api.github.com/repos/owncloud/core/issues/comments/25973963",
  "html_url": "https://github.com/owncloud/core/issues/4824#issuecomment-25973963",
  "issue_url": "https://api.github.com/repos/owncloud/core/issues/4824",
  "id": 25973963,
  "user": {
    "login": "VicDeo",
    "id": 991300,
    "avatar_url": "https://avatars.githubusercontent.com/u/991300?v=3",
    "gravatar_id": "",
    "url": "https://api.github.com/users/VicDeo",
    "html_url": "https://github.com/VicDeo",
    "followers_url": "https://api.github.com/users/VicDeo/followers",
    "following_url": "https://api.github.com/users/VicDeo/following{/other_user}",
    "gists_url": "https://api.github.com/users/VicDeo/gists{/gist_id}",
    "starred_url": "https://api.github.com/users/VicDeo/starred{/owner}{/repo}",
    "subscriptions_url": "https://api.github.com/users/VicDeo/subscriptions",
    "organizations_url": "https://api.github.com/users/VicDeo/orgs",
    "repos_url": "https://api.github.com/users/VicDeo/repos",
    "events_url": "https://api.github.com/users/VicDeo/events{/privacy}",
    "received_events_url": "https://api.github.com/users/VicDeo/received_events",
    "type": "User",
    "site_admin": false
  },
  "created_at": "2013-10-09T14:10:19Z",
  "updated_at": "2013-10-09T14:10:19Z",
  "body": "@netman49 5.0.12 is also affected unfortunately,\r\nit's up to you to decide update manually or delete one line in core file as suggested in https://github.com/owncloud/core/pull/5185/files\r\n"
}
, {
  "url": "https://api.github.com/repos/owncloud/core/issues/comments/26037719",
  "html_url": "https://github.com/owncloud/core/issues/4824#issuecomment-26037719",
  "issue_url": "https://api.github.com/repos/owncloud/core/issues/4824",
  "id": 26037719,
  "user": {
    "login": "netman49",
    "id": 3963912,
    "avatar_url": "https://avatars.githubusercontent.com/u/3963912?v=3",
    "gravatar_id": "",
    "url": "https://api.github.com/users/netman49",
    "html_url": "https://github.com/netman49",
    "followers_url": "https://api.github.com/users/netman49/followers",
    "following_url": "https://api.github.com/users/netman49/following{/other_user}",
    "gists_url": "https://api.github.com/users/netman49/gists{/gist_id}",
    "starred_url": "https://api.github.com/users/netman49/starred{/owner}{/repo}",
    "subscriptions_url": "https://api.github.com/users/netman49/subscriptions",
    "organizations_url": "https://api.github.com/users/netman49/orgs",
    "repos_url": "https://api.github.com/users/netman49/repos",
    "events_url": "https://api.github.com/users/netman49/events{/privacy}",
    "received_events_url": "https://api.github.com/users/netman49/received_events",
    "type": "User",
    "site_admin": false
  },
  "created_at": "2013-10-10T08:50:31Z",
  "updated_at": "2013-10-10T08:50:31Z",
  "body": "@VicDeo \r\nGreat advice! I've deleted the code line and the updater now shows the correct info.\r\nThanks!\r\n![schermafbeelding 2013-10-10 om 10 47 12](https://f.cloud.github.com/assets/3963912/1304777/f63a4d42-3188-11e3-8eff-20bf38886544.png)\r\n"
}
, {
  "url": "https://api.github.com/repos/owncloud/core/issues/comments/26448580",
  "html_url": "https://github.com/owncloud/core/issues/4824#issuecomment-26448580",
  "issue_url": "https://api.github.com/repos/owncloud/core/issues/4824",
  "id": 26448580,
  "user": {
    "login": "VicDeo",
    "id": 991300,
    "avatar_url": "https://avatars.githubusercontent.com/u/991300?v=3",
    "gravatar_id": "",
    "url": "https://api.github.com/users/VicDeo",
    "html_url": "https://github.com/VicDeo",
    "followers_url": "https://api.github.com/users/VicDeo/followers",
    "following_url": "https://api.github.com/users/VicDeo/following{/other_user}",
    "gists_url": "https://api.github.com/users/VicDeo/gists{/gist_id}",
    "starred_url": "https://api.github.com/users/VicDeo/starred{/owner}{/repo}",
    "subscriptions_url": "https://api.github.com/users/VicDeo/subscriptions",
    "organizations_url": "https://api.github.com/users/VicDeo/orgs",
    "repos_url": "https://api.github.com/users/VicDeo/repos",
    "events_url": "https://api.github.com/users/VicDeo/events{/privacy}",
    "received_events_url": "https://api.github.com/users/VicDeo/received_events",
    "type": "User",
    "site_admin": false
  },
  "created_at": "2013-10-16T19:15:46Z",
  "updated_at": "2013-10-16T19:15:46Z",
  "body": "Fix to be shipped with 5.0.13"
}
]
