[
{
  "url": "https://api.github.com/repos/owncloud/core/issues/comments/63585746",
  "html_url": "https://github.com/owncloud/core/issues/12285#issuecomment-63585746",
  "issue_url": "https://api.github.com/repos/owncloud/core/issues/12285",
  "id": 63585746,
  "user": {
    "login": "karlitschek",
    "id": 867445,
    "avatar_url": "https://avatars.githubusercontent.com/u/867445?v=3",
    "gravatar_id": "",
    "url": "https://api.github.com/users/karlitschek",
    "html_url": "https://github.com/karlitschek",
    "followers_url": "https://api.github.com/users/karlitschek/followers",
    "following_url": "https://api.github.com/users/karlitschek/following{/other_user}",
    "gists_url": "https://api.github.com/users/karlitschek/gists{/gist_id}",
    "starred_url": "https://api.github.com/users/karlitschek/starred{/owner}{/repo}",
    "subscriptions_url": "https://api.github.com/users/karlitschek/subscriptions",
    "organizations_url": "https://api.github.com/users/karlitschek/orgs",
    "repos_url": "https://api.github.com/users/karlitschek/repos",
    "events_url": "https://api.github.com/users/karlitschek/events{/privacy}",
    "received_events_url": "https://api.github.com/users/karlitschek/received_events",
    "type": "User",
    "site_admin": false
  },
  "created_at": "2014-11-19T03:09:01Z",
  "updated_at": "2014-11-19T03:09:01Z",
  "body": "@schiesbn "
}
, {
  "url": "https://api.github.com/repos/owncloud/core/issues/comments/63823361",
  "html_url": "https://github.com/owncloud/core/issues/12285#issuecomment-63823361",
  "issue_url": "https://api.github.com/repos/owncloud/core/issues/12285",
  "id": 63823361,
  "user": {
    "login": "schiesbn",
    "id": 1589737,
    "avatar_url": "https://avatars.githubusercontent.com/u/1589737?v=3",
    "gravatar_id": "",
    "url": "https://api.github.com/users/schiesbn",
    "html_url": "https://github.com/schiesbn",
    "followers_url": "https://api.github.com/users/schiesbn/followers",
    "following_url": "https://api.github.com/users/schiesbn/following{/other_user}",
    "gists_url": "https://api.github.com/users/schiesbn/gists{/gist_id}",
    "starred_url": "https://api.github.com/users/schiesbn/starred{/owner}{/repo}",
    "subscriptions_url": "https://api.github.com/users/schiesbn/subscriptions",
    "organizations_url": "https://api.github.com/users/schiesbn/orgs",
    "repos_url": "https://api.github.com/users/schiesbn/repos",
    "events_url": "https://api.github.com/users/schiesbn/events{/privacy}",
    "received_events_url": "https://api.github.com/users/schiesbn/received_events",
    "type": "User",
    "site_admin": false
  },
  "created_at": "2014-11-20T15:19:37Z",
  "updated_at": "2015-01-20T21:13:52Z",
  "body": "Way to server2server sharing ng (the plan is to implement the feature by implementing this bullet points from the top to the bottom, each completed task also marks a state which could be released):\r\n\r\n- [x] provide OCS api to send and receive share requests (pr #12452, merged)\r\n- [x] UI to accept/decline share (pr #12749)\r\n- [x] simple server2server sharing by adding user to the share drop down as ```user@owncloudserver.de``` (pr #12749)\r\n- [x] update script (pr https://github.com/owncloud/core/pull/13286, merged)\r\n- [ ] cache users to whom I already shared (issue: https://github.com/owncloud/core/issues/13532)\r\n- [ ] deleting a server-to-server should send a unshare to the recipient\r\n- [ ] plugin system to register user back-ends for auto completion\r\n- [ ] first prove of concept plugin, need to decide which one (probably some kind of LDAP integration)\r\n- [ ] server2server sharing works with auto complete in share dialog\r\n\r\nNice to have:\r\n- [ ] integration in contacts app\r\n- [ ] overview page with all open s2s shares do accept/decline them (replace the pop-up dialogs)\r\n\r\nOpen questions on the way to s2s sharing ng:\r\n\r\n- can we re-use the user back-ends already exists for login to avoid code duplication? I think this would be appreciated. \r\n- what changed are needed for the existing user back-ends in order to re-use it for s2s?\r\n\r\nLong term questions (out of scope for the first iteration):\r\n\r\n- we probably need some way to cache users to whom we already shared for performance reasons\r\n- contacts app could also store the owncloud address of a user so that we could auto-complete from the address book\r\n- find users where we don't know anything about beside a name, a email address or something similar. Maybe something like WebID support?\r\n- the user should be able to accept/decline share request directly on the desktop and mobile client.\r\n"
}
, {
  "url": "https://api.github.com/repos/owncloud/core/issues/comments/63825237",
  "html_url": "https://github.com/owncloud/core/issues/12285#issuecomment-63825237",
  "issue_url": "https://api.github.com/repos/owncloud/core/issues/12285",
  "id": 63825237,
  "user": {
    "login": "schiesbn",
    "id": 1589737,
    "avatar_url": "https://avatars.githubusercontent.com/u/1589737?v=3",
    "gravatar_id": "",
    "url": "https://api.github.com/users/schiesbn",
    "html_url": "https://github.com/schiesbn",
    "followers_url": "https://api.github.com/users/schiesbn/followers",
    "following_url": "https://api.github.com/users/schiesbn/following{/other_user}",
    "gists_url": "https://api.github.com/users/schiesbn/gists{/gist_id}",
    "starred_url": "https://api.github.com/users/schiesbn/starred{/owner}{/repo}",
    "subscriptions_url": "https://api.github.com/users/schiesbn/subscriptions",
    "organizations_url": "https://api.github.com/users/schiesbn/orgs",
    "repos_url": "https://api.github.com/users/schiesbn/repos",
    "events_url": "https://api.github.com/users/schiesbn/events{/privacy}",
    "received_events_url": "https://api.github.com/users/schiesbn/received_events",
    "type": "User",
    "site_admin": false
  },
  "created_at": "2014-11-20T15:30:15Z",
  "updated_at": "2014-11-20T15:31:21Z",
  "body": "cc @jancborchardt do you have a idea how a UI should look to accept/decline server2server shares? For the beginning a simple pup-up would probably be OK, similar the pop-up we already use today for server2server sharing."
}
, {
  "url": "https://api.github.com/repos/owncloud/core/issues/comments/63847192",
  "html_url": "https://github.com/owncloud/core/issues/12285#issuecomment-63847192",
  "issue_url": "https://api.github.com/repos/owncloud/core/issues/12285",
  "id": 63847192,
  "user": {
    "login": "jancborchardt",
    "id": 925062,
    "avatar_url": "https://avatars.githubusercontent.com/u/925062?v=3",
    "gravatar_id": "",
    "url": "https://api.github.com/users/jancborchardt",
    "html_url": "https://github.com/jancborchardt",
    "followers_url": "https://api.github.com/users/jancborchardt/followers",
    "following_url": "https://api.github.com/users/jancborchardt/following{/other_user}",
    "gists_url": "https://api.github.com/users/jancborchardt/gists{/gist_id}",
    "starred_url": "https://api.github.com/users/jancborchardt/starred{/owner}{/repo}",
    "subscriptions_url": "https://api.github.com/users/jancborchardt/subscriptions",
    "organizations_url": "https://api.github.com/users/jancborchardt/orgs",
    "repos_url": "https://api.github.com/users/jancborchardt/repos",
    "events_url": "https://api.github.com/users/jancborchardt/events{/privacy}",
    "received_events_url": "https://api.github.com/users/jancborchardt/received_events",
    "type": "User",
    "site_admin": false
  },
  "created_at": "2014-11-20T17:36:00Z",
  "updated_at": "2014-11-20T17:36:00Z",
  "body": "Yes, in the first run that is probably best. For further integration, we can put new shares which need to be accepted/declined on the top of the »Shared with you« list, and give the navigation entry some highlight (like bold, or some notice that there’s something new)."
}
, {
  "url": "https://api.github.com/repos/owncloud/core/issues/comments/71108030",
  "html_url": "https://github.com/owncloud/core/issues/12285#issuecomment-71108030",
  "issue_url": "https://api.github.com/repos/owncloud/core/issues/12285",
  "id": 71108030,
  "user": {
    "login": "DeepDiver1975",
    "id": 1005065,
    "avatar_url": "https://avatars.githubusercontent.com/u/1005065?v=3",
    "gravatar_id": "",
    "url": "https://api.github.com/users/DeepDiver1975",
    "html_url": "https://github.com/DeepDiver1975",
    "followers_url": "https://api.github.com/users/DeepDiver1975/followers",
    "following_url": "https://api.github.com/users/DeepDiver1975/following{/other_user}",
    "gists_url": "https://api.github.com/users/DeepDiver1975/gists{/gist_id}",
    "starred_url": "https://api.github.com/users/DeepDiver1975/starred{/owner}{/repo}",
    "subscriptions_url": "https://api.github.com/users/DeepDiver1975/subscriptions",
    "organizations_url": "https://api.github.com/users/DeepDiver1975/orgs",
    "repos_url": "https://api.github.com/users/DeepDiver1975/repos",
    "events_url": "https://api.github.com/users/DeepDiver1975/events{/privacy}",
    "received_events_url": "https://api.github.com/users/DeepDiver1975/received_events",
    "type": "User",
    "site_admin": false
  },
  "created_at": "2015-01-22T22:01:38Z",
  "updated_at": "2015-01-22T22:01:38Z",
  "body": "from my pov we are done with this  - remaining pieces are to be scheduled for 8.1\r\n\r\nmoving this to 8.1"
}
, {
  "url": "https://api.github.com/repos/owncloud/core/issues/comments/72901817",
  "html_url": "https://github.com/owncloud/core/issues/12285#issuecomment-72901817",
  "issue_url": "https://api.github.com/repos/owncloud/core/issues/12285",
  "id": 72901817,
  "user": {
    "login": "PVince81",
    "id": 277525,
    "avatar_url": "https://avatars.githubusercontent.com/u/277525?v=3",
    "gravatar_id": "",
    "url": "https://api.github.com/users/PVince81",
    "html_url": "https://github.com/PVince81",
    "followers_url": "https://api.github.com/users/PVince81/followers",
    "following_url": "https://api.github.com/users/PVince81/following{/other_user}",
    "gists_url": "https://api.github.com/users/PVince81/gists{/gist_id}",
    "starred_url": "https://api.github.com/users/PVince81/starred{/owner}{/repo}",
    "subscriptions_url": "https://api.github.com/users/PVince81/subscriptions",
    "organizations_url": "https://api.github.com/users/PVince81/orgs",
    "repos_url": "https://api.github.com/users/PVince81/repos",
    "events_url": "https://api.github.com/users/PVince81/events{/privacy}",
    "received_events_url": "https://api.github.com/users/PVince81/received_events",
    "type": "User",
    "site_admin": false
  },
  "created_at": "2015-02-04T17:44:52Z",
  "updated_at": "2015-02-10T13:34:33Z",
  "body": "- [ ] display shares in \"Shared with you\" section: https://github.com/owncloud/core/issues/9098\r\n- [ ] overview page of pending+rejected shares: #13495 "
}
, {
  "url": "https://api.github.com/repos/owncloud/core/issues/comments/139405982",
  "html_url": "https://github.com/owncloud/core/issues/12285#issuecomment-139405982",
  "issue_url": "https://api.github.com/repos/owncloud/core/issues/12285",
  "id": 139405982,
  "user": {
    "login": "cmonteroluque",
    "id": 879976,
    "avatar_url": "https://avatars.githubusercontent.com/u/879976?v=3",
    "gravatar_id": "",
    "url": "https://api.github.com/users/cmonteroluque",
    "html_url": "https://github.com/cmonteroluque",
    "followers_url": "https://api.github.com/users/cmonteroluque/followers",
    "following_url": "https://api.github.com/users/cmonteroluque/following{/other_user}",
    "gists_url": "https://api.github.com/users/cmonteroluque/gists{/gist_id}",
    "starred_url": "https://api.github.com/users/cmonteroluque/starred{/owner}{/repo}",
    "subscriptions_url": "https://api.github.com/users/cmonteroluque/subscriptions",
    "organizations_url": "https://api.github.com/users/cmonteroluque/orgs",
    "repos_url": "https://api.github.com/users/cmonteroluque/repos",
    "events_url": "https://api.github.com/users/cmonteroluque/events{/privacy}",
    "received_events_url": "https://api.github.com/users/cmonteroluque/received_events",
    "type": "User",
    "site_admin": false
  },
  "created_at": "2015-09-10T23:00:15Z",
  "updated_at": "2015-09-10T23:00:15Z",
  "body": "@karlitschek unsure about proper milestone for this issue"
}
, {
  "url": "https://api.github.com/repos/owncloud/core/issues/comments/139409826",
  "html_url": "https://github.com/owncloud/core/issues/12285#issuecomment-139409826",
  "issue_url": "https://api.github.com/repos/owncloud/core/issues/12285",
  "id": 139409826,
  "user": {
    "login": "karlitschek",
    "id": 867445,
    "avatar_url": "https://avatars.githubusercontent.com/u/867445?v=3",
    "gravatar_id": "",
    "url": "https://api.github.com/users/karlitschek",
    "html_url": "https://github.com/karlitschek",
    "followers_url": "https://api.github.com/users/karlitschek/followers",
    "following_url": "https://api.github.com/users/karlitschek/following{/other_user}",
    "gists_url": "https://api.github.com/users/karlitschek/gists{/gist_id}",
    "starred_url": "https://api.github.com/users/karlitschek/starred{/owner}{/repo}",
    "subscriptions_url": "https://api.github.com/users/karlitschek/subscriptions",
    "organizations_url": "https://api.github.com/users/karlitschek/orgs",
    "repos_url": "https://api.github.com/users/karlitschek/repos",
    "events_url": "https://api.github.com/users/karlitschek/events{/privacy}",
    "received_events_url": "https://api.github.com/users/karlitschek/received_events",
    "type": "User",
    "site_admin": false
  },
  "created_at": "2015-09-10T23:22:29Z",
  "updated_at": "2015-09-10T23:22:29Z",
  "body": "i would suggest to move this to 9 "
}
]
