[
{
  "url": "https://api.github.com/repos/owncloud/core/issues/comments/134354439",
  "html_url": "https://github.com/owncloud/core/issues/18535#issuecomment-134354439",
  "issue_url": "https://api.github.com/repos/owncloud/core/issues/18535",
  "id": 134354439,
  "user": {
    "login": "RealRancor",
    "id": 2248459,
    "avatar_url": "https://avatars.githubusercontent.com/u/2248459?v=3",
    "gravatar_id": "",
    "url": "https://api.github.com/users/RealRancor",
    "html_url": "https://github.com/RealRancor",
    "followers_url": "https://api.github.com/users/RealRancor/followers",
    "following_url": "https://api.github.com/users/RealRancor/following{/other_user}",
    "gists_url": "https://api.github.com/users/RealRancor/gists{/gist_id}",
    "starred_url": "https://api.github.com/users/RealRancor/starred{/owner}{/repo}",
    "subscriptions_url": "https://api.github.com/users/RealRancor/subscriptions",
    "organizations_url": "https://api.github.com/users/RealRancor/orgs",
    "repos_url": "https://api.github.com/users/RealRancor/repos",
    "events_url": "https://api.github.com/users/RealRancor/events{/privacy}",
    "received_events_url": "https://api.github.com/users/RealRancor/received_events",
    "type": "User",
    "site_admin": false
  },
  "created_at": "2015-08-24T19:47:55Z",
  "updated_at": "2015-08-24T19:47:55Z",
  "body": "Hi,\r\n\r\n> This is my first backtrace so if this is incorrect please let me know.\r\n\r\nunfortunately you've picked the wrong repository. The one for the sync-client is available here:\r\n\r\nhttps://github.com/owncloud/client/issues\r\n\r\nWhen re-opeing there you could also use the issue template provided here:\r\n\r\nhttps://github.com/owncloud/client/blob/master/CONTRIBUTING.md#bug-reporting-guidelines"
}
]
