[
{
  "url": "https://api.github.com/repos/docker/docker/issues/comments/62651248",
  "html_url": "https://github.com/docker/docker/pull/9108#issuecomment-62651248",
  "issue_url": "https://api.github.com/repos/docker/docker/issues/9108",
  "id": 62651248,
  "user": {
    "login": "vieux",
    "id": 1032519,
    "avatar_url": "https://avatars.githubusercontent.com/u/1032519?v=3",
    "gravatar_id": "",
    "url": "https://api.github.com/users/vieux",
    "html_url": "https://github.com/vieux",
    "followers_url": "https://api.github.com/users/vieux/followers",
    "following_url": "https://api.github.com/users/vieux/following{/other_user}",
    "gists_url": "https://api.github.com/users/vieux/gists{/gist_id}",
    "starred_url": "https://api.github.com/users/vieux/starred{/owner}{/repo}",
    "subscriptions_url": "https://api.github.com/users/vieux/subscriptions",
    "organizations_url": "https://api.github.com/users/vieux/orgs",
    "repos_url": "https://api.github.com/users/vieux/repos",
    "events_url": "https://api.github.com/users/vieux/events{/privacy}",
    "received_events_url": "https://api.github.com/users/vieux/received_events",
    "type": "User",
    "site_admin": false
  },
  "created_at": "2014-11-12T00:45:25Z",
  "updated_at": "2014-11-12T00:45:25Z",
  "body": "ping @tiborvass @jfrazelle @LK4D4 please take another look"
}
, {
  "url": "https://api.github.com/repos/docker/docker/issues/comments/62656031",
  "html_url": "https://github.com/docker/docker/pull/9108#issuecomment-62656031",
  "issue_url": "https://api.github.com/repos/docker/docker/issues/9108",
  "id": 62656031,
  "user": {
    "login": "jfrazelle",
    "id": 1445228,
    "avatar_url": "https://avatars.githubusercontent.com/u/1445228?v=3",
    "gravatar_id": "",
    "url": "https://api.github.com/users/jfrazelle",
    "html_url": "https://github.com/jfrazelle",
    "followers_url": "https://api.github.com/users/jfrazelle/followers",
    "following_url": "https://api.github.com/users/jfrazelle/following{/other_user}",
    "gists_url": "https://api.github.com/users/jfrazelle/gists{/gist_id}",
    "starred_url": "https://api.github.com/users/jfrazelle/starred{/owner}{/repo}",
    "subscriptions_url": "https://api.github.com/users/jfrazelle/subscriptions",
    "organizations_url": "https://api.github.com/users/jfrazelle/orgs",
    "repos_url": "https://api.github.com/users/jfrazelle/repos",
    "events_url": "https://api.github.com/users/jfrazelle/events{/privacy}",
    "received_events_url": "https://api.github.com/users/jfrazelle/received_events",
    "type": "User",
    "site_admin": false
  },
  "created_at": "2014-11-12T01:36:46Z",
  "updated_at": "2014-11-12T01:36:46Z",
  "body": "LGTM"
}
, {
  "url": "https://api.github.com/repos/docker/docker/issues/comments/62662813",
  "html_url": "https://github.com/docker/docker/pull/9108#issuecomment-62662813",
  "issue_url": "https://api.github.com/repos/docker/docker/issues/9108",
  "id": 62662813,
  "user": {
    "login": "crosbymichael",
    "id": 749551,
    "avatar_url": "https://avatars.githubusercontent.com/u/749551?v=3",
    "gravatar_id": "",
    "url": "https://api.github.com/users/crosbymichael",
    "html_url": "https://github.com/crosbymichael",
    "followers_url": "https://api.github.com/users/crosbymichael/followers",
    "following_url": "https://api.github.com/users/crosbymichael/following{/other_user}",
    "gists_url": "https://api.github.com/users/crosbymichael/gists{/gist_id}",
    "starred_url": "https://api.github.com/users/crosbymichael/starred{/owner}{/repo}",
    "subscriptions_url": "https://api.github.com/users/crosbymichael/subscriptions",
    "organizations_url": "https://api.github.com/users/crosbymichael/orgs",
    "repos_url": "https://api.github.com/users/crosbymichael/repos",
    "events_url": "https://api.github.com/users/crosbymichael/events{/privacy}",
    "received_events_url": "https://api.github.com/users/crosbymichael/received_events",
    "type": "User",
    "site_admin": false
  },
  "created_at": "2014-11-12T03:08:40Z",
  "updated_at": "2014-11-12T03:08:40Z",
  "body": "@vieux can you explain a little more because your title does not match the code."
}
, {
  "url": "https://api.github.com/repos/docker/docker/issues/comments/62835739",
  "html_url": "https://github.com/docker/docker/pull/9108#issuecomment-62835739",
  "issue_url": "https://api.github.com/repos/docker/docker/issues/9108",
  "id": 62835739,
  "user": {
    "login": "vieux",
    "id": 1032519,
    "avatar_url": "https://avatars.githubusercontent.com/u/1032519?v=3",
    "gravatar_id": "",
    "url": "https://api.github.com/users/vieux",
    "html_url": "https://github.com/vieux",
    "followers_url": "https://api.github.com/users/vieux/followers",
    "following_url": "https://api.github.com/users/vieux/following{/other_user}",
    "gists_url": "https://api.github.com/users/vieux/gists{/gist_id}",
    "starred_url": "https://api.github.com/users/vieux/starred{/owner}{/repo}",
    "subscriptions_url": "https://api.github.com/users/vieux/subscriptions",
    "organizations_url": "https://api.github.com/users/vieux/orgs",
    "repos_url": "https://api.github.com/users/vieux/repos",
    "events_url": "https://api.github.com/users/vieux/events{/privacy}",
    "received_events_url": "https://api.github.com/users/vieux/received_events",
    "type": "User",
    "site_admin": false
  },
  "created_at": "2014-11-13T03:23:34Z",
  "updated_at": "2014-11-13T03:23:34Z",
  "body": "@crosbymichael sure sorry.\r\n\r\nRight now the client code in master doesn't follow `30x`, mainly because of the `net.DialTimeout` function.\r\nWith this patch, the CLI will follow HTTP redirects when talking to a daemon over HTTP."
}
, {
  "url": "https://api.github.com/repos/docker/docker/issues/comments/63121715",
  "html_url": "https://github.com/docker/docker/pull/9108#issuecomment-63121715",
  "issue_url": "https://api.github.com/repos/docker/docker/issues/9108",
  "id": 63121715,
  "user": {
    "login": "crosbymichael",
    "id": 749551,
    "avatar_url": "https://avatars.githubusercontent.com/u/749551?v=3",
    "gravatar_id": "",
    "url": "https://api.github.com/users/crosbymichael",
    "html_url": "https://github.com/crosbymichael",
    "followers_url": "https://api.github.com/users/crosbymichael/followers",
    "following_url": "https://api.github.com/users/crosbymichael/following{/other_user}",
    "gists_url": "https://api.github.com/users/crosbymichael/gists{/gist_id}",
    "starred_url": "https://api.github.com/users/crosbymichael/starred{/owner}{/repo}",
    "subscriptions_url": "https://api.github.com/users/crosbymichael/subscriptions",
    "organizations_url": "https://api.github.com/users/crosbymichael/orgs",
    "repos_url": "https://api.github.com/users/crosbymichael/repos",
    "events_url": "https://api.github.com/users/crosbymichael/events{/privacy}",
    "received_events_url": "https://api.github.com/users/crosbymichael/received_events",
    "type": "User",
    "site_admin": false
  },
  "created_at": "2014-11-14T20:07:13Z",
  "updated_at": "2014-11-14T20:07:13Z",
  "body": "LGTM"
}
]
