[
{
  "url": "https://api.github.com/repos/docker/docker/issues/comments/138127638",
  "html_url": "https://github.com/docker/docker/pull/16108#issuecomment-138127638",
  "issue_url": "https://api.github.com/repos/docker/docker/issues/16108",
  "id": 138127638,
  "user": {
    "login": "charleswhchan",
    "id": 679475,
    "avatar_url": "https://avatars.githubusercontent.com/u/679475?v=3",
    "gravatar_id": "",
    "url": "https://api.github.com/users/charleswhchan",
    "html_url": "https://github.com/charleswhchan",
    "followers_url": "https://api.github.com/users/charleswhchan/followers",
    "following_url": "https://api.github.com/users/charleswhchan/following{/other_user}",
    "gists_url": "https://api.github.com/users/charleswhchan/gists{/gist_id}",
    "starred_url": "https://api.github.com/users/charleswhchan/starred{/owner}{/repo}",
    "subscriptions_url": "https://api.github.com/users/charleswhchan/subscriptions",
    "organizations_url": "https://api.github.com/users/charleswhchan/orgs",
    "repos_url": "https://api.github.com/users/charleswhchan/repos",
    "events_url": "https://api.github.com/users/charleswhchan/events{/privacy}",
    "received_events_url": "https://api.github.com/users/charleswhchan/received_events",
    "type": "User",
    "site_admin": false
  },
  "created_at": "2015-09-06T21:33:10Z",
  "updated_at": "2015-09-06T21:33:10Z",
  "body": "This is a continuation of https://github.com/docker/docker/pull/15937. \r\n\r\n(Screwed up the branch when I try to rebase.)\r\n\r\n"
}
, {
  "url": "https://api.github.com/repos/docker/docker/issues/comments/146646400",
  "html_url": "https://github.com/docker/docker/pull/16108#issuecomment-146646400",
  "issue_url": "https://api.github.com/repos/docker/docker/issues/16108",
  "id": 146646400,
  "user": {
    "login": "icecrime",
    "id": 1564054,
    "avatar_url": "https://avatars.githubusercontent.com/u/1564054?v=3",
    "gravatar_id": "",
    "url": "https://api.github.com/users/icecrime",
    "html_url": "https://github.com/icecrime",
    "followers_url": "https://api.github.com/users/icecrime/followers",
    "following_url": "https://api.github.com/users/icecrime/following{/other_user}",
    "gists_url": "https://api.github.com/users/icecrime/gists{/gist_id}",
    "starred_url": "https://api.github.com/users/icecrime/starred{/owner}{/repo}",
    "subscriptions_url": "https://api.github.com/users/icecrime/subscriptions",
    "organizations_url": "https://api.github.com/users/icecrime/orgs",
    "repos_url": "https://api.github.com/users/icecrime/repos",
    "events_url": "https://api.github.com/users/icecrime/events{/privacy}",
    "received_events_url": "https://api.github.com/users/icecrime/received_events",
    "type": "User",
    "site_admin": false
  },
  "created_at": "2015-10-08T18:29:22Z",
  "updated_at": "2015-10-08T18:29:22Z",
  "body": "Ping @thaJeztah @moxiegirl @SvenDowideit!"
}
, {
  "url": "https://api.github.com/repos/docker/docker/issues/comments/146668515",
  "html_url": "https://github.com/docker/docker/pull/16108#issuecomment-146668515",
  "issue_url": "https://api.github.com/repos/docker/docker/issues/16108",
  "id": 146668515,
  "user": {
    "login": "moxiegirl",
    "id": 1347209,
    "avatar_url": "https://avatars.githubusercontent.com/u/1347209?v=3",
    "gravatar_id": "",
    "url": "https://api.github.com/users/moxiegirl",
    "html_url": "https://github.com/moxiegirl",
    "followers_url": "https://api.github.com/users/moxiegirl/followers",
    "following_url": "https://api.github.com/users/moxiegirl/following{/other_user}",
    "gists_url": "https://api.github.com/users/moxiegirl/gists{/gist_id}",
    "starred_url": "https://api.github.com/users/moxiegirl/starred{/owner}{/repo}",
    "subscriptions_url": "https://api.github.com/users/moxiegirl/subscriptions",
    "organizations_url": "https://api.github.com/users/moxiegirl/orgs",
    "repos_url": "https://api.github.com/users/moxiegirl/repos",
    "events_url": "https://api.github.com/users/moxiegirl/events{/privacy}",
    "received_events_url": "https://api.github.com/users/moxiegirl/received_events",
    "type": "User",
    "site_admin": false
  },
  "created_at": "2015-10-08T19:53:28Z",
  "updated_at": "2015-10-08T19:53:28Z",
  "body": "@charleswhchan thanks for the touch up!  LGTM"
}
, {
  "url": "https://api.github.com/repos/docker/docker/issues/comments/146709010",
  "html_url": "https://github.com/docker/docker/pull/16108#issuecomment-146709010",
  "issue_url": "https://api.github.com/repos/docker/docker/issues/16108",
  "id": 146709010,
  "user": {
    "login": "jfrazelle",
    "id": 1445228,
    "avatar_url": "https://avatars.githubusercontent.com/u/1445228?v=3",
    "gravatar_id": "",
    "url": "https://api.github.com/users/jfrazelle",
    "html_url": "https://github.com/jfrazelle",
    "followers_url": "https://api.github.com/users/jfrazelle/followers",
    "following_url": "https://api.github.com/users/jfrazelle/following{/other_user}",
    "gists_url": "https://api.github.com/users/jfrazelle/gists{/gist_id}",
    "starred_url": "https://api.github.com/users/jfrazelle/starred{/owner}{/repo}",
    "subscriptions_url": "https://api.github.com/users/jfrazelle/subscriptions",
    "organizations_url": "https://api.github.com/users/jfrazelle/orgs",
    "repos_url": "https://api.github.com/users/jfrazelle/repos",
    "events_url": "https://api.github.com/users/jfrazelle/events{/privacy}",
    "received_events_url": "https://api.github.com/users/jfrazelle/received_events",
    "type": "User",
    "site_admin": false
  },
  "created_at": "2015-10-08T22:44:12Z",
  "updated_at": "2015-10-08T22:44:12Z",
  "body": "ping @thaJeztah "
}
, {
  "url": "https://api.github.com/repos/docker/docker/issues/comments/146872531",
  "html_url": "https://github.com/docker/docker/pull/16108#issuecomment-146872531",
  "issue_url": "https://api.github.com/repos/docker/docker/issues/16108",
  "id": 146872531,
  "user": {
    "login": "thaJeztah",
    "id": 1804568,
    "avatar_url": "https://avatars.githubusercontent.com/u/1804568?v=3",
    "gravatar_id": "",
    "url": "https://api.github.com/users/thaJeztah",
    "html_url": "https://github.com/thaJeztah",
    "followers_url": "https://api.github.com/users/thaJeztah/followers",
    "following_url": "https://api.github.com/users/thaJeztah/following{/other_user}",
    "gists_url": "https://api.github.com/users/thaJeztah/gists{/gist_id}",
    "starred_url": "https://api.github.com/users/thaJeztah/starred{/owner}{/repo}",
    "subscriptions_url": "https://api.github.com/users/thaJeztah/subscriptions",
    "organizations_url": "https://api.github.com/users/thaJeztah/orgs",
    "repos_url": "https://api.github.com/users/thaJeztah/repos",
    "events_url": "https://api.github.com/users/thaJeztah/events{/privacy}",
    "received_events_url": "https://api.github.com/users/thaJeztah/received_events",
    "type": "User",
    "site_admin": false
  },
  "created_at": "2015-10-09T13:32:58Z",
  "updated_at": "2015-10-09T13:32:58Z",
  "body": "LGTM, thanks @charleswhchan !"
}
, {
  "url": "https://api.github.com/repos/docker/docker/issues/comments/146877160",
  "html_url": "https://github.com/docker/docker/pull/16108#issuecomment-146877160",
  "issue_url": "https://api.github.com/repos/docker/docker/issues/16108",
  "id": 146877160,
  "user": {
    "login": "charleswhchan",
    "id": 679475,
    "avatar_url": "https://avatars.githubusercontent.com/u/679475?v=3",
    "gravatar_id": "",
    "url": "https://api.github.com/users/charleswhchan",
    "html_url": "https://github.com/charleswhchan",
    "followers_url": "https://api.github.com/users/charleswhchan/followers",
    "following_url": "https://api.github.com/users/charleswhchan/following{/other_user}",
    "gists_url": "https://api.github.com/users/charleswhchan/gists{/gist_id}",
    "starred_url": "https://api.github.com/users/charleswhchan/starred{/owner}{/repo}",
    "subscriptions_url": "https://api.github.com/users/charleswhchan/subscriptions",
    "organizations_url": "https://api.github.com/users/charleswhchan/orgs",
    "repos_url": "https://api.github.com/users/charleswhchan/repos",
    "events_url": "https://api.github.com/users/charleswhchan/events{/privacy}",
    "received_events_url": "https://api.github.com/users/charleswhchan/received_events",
    "type": "User",
    "site_admin": false
  },
  "created_at": "2015-10-09T13:53:05Z",
  "updated_at": "2015-10-09T13:53:05Z",
  "body": "Thank you!"
}
]
