[
{
  "url": "https://api.github.com/repos/docker/docker/issues/comments/27881202",
  "html_url": "https://github.com/docker/docker/issues/2570#issuecomment-27881202",
  "issue_url": "https://api.github.com/repos/docker/docker/issues/2570",
  "id": 27881202,
  "user": {
    "login": "jpetazzo",
    "id": 171481,
    "avatar_url": "https://avatars.githubusercontent.com/u/171481?v=3",
    "gravatar_id": "",
    "url": "https://api.github.com/users/jpetazzo",
    "html_url": "https://github.com/jpetazzo",
    "followers_url": "https://api.github.com/users/jpetazzo/followers",
    "following_url": "https://api.github.com/users/jpetazzo/following{/other_user}",
    "gists_url": "https://api.github.com/users/jpetazzo/gists{/gist_id}",
    "starred_url": "https://api.github.com/users/jpetazzo/starred{/owner}{/repo}",
    "subscriptions_url": "https://api.github.com/users/jpetazzo/subscriptions",
    "organizations_url": "https://api.github.com/users/jpetazzo/orgs",
    "repos_url": "https://api.github.com/users/jpetazzo/repos",
    "events_url": "https://api.github.com/users/jpetazzo/events{/privacy}",
    "received_events_url": "https://api.github.com/users/jpetazzo/received_events",
    "type": "User",
    "site_admin": false
  },
  "created_at": "2013-11-06T15:15:51Z",
  "updated_at": "2013-11-06T15:15:51Z",
  "body": "You could do a bind-mount; i.e. before starting Docker, something like this:\r\n\r\n    mkdir -p /var/lib/docker/containers /mnt/containers\r\n    mount -o bind /mnt/containers /var/lib/docker/containers\r\n\r\nWould that work for you?"
}
, {
  "url": "https://api.github.com/repos/docker/docker/issues/comments/27892916",
  "html_url": "https://github.com/docker/docker/issues/2570#issuecomment-27892916",
  "issue_url": "https://api.github.com/repos/docker/docker/issues/2570",
  "id": 27892916,
  "user": {
    "login": "amitmurthy",
    "id": 117461,
    "avatar_url": "https://avatars.githubusercontent.com/u/117461?v=3",
    "gravatar_id": "",
    "url": "https://api.github.com/users/amitmurthy",
    "html_url": "https://github.com/amitmurthy",
    "followers_url": "https://api.github.com/users/amitmurthy/followers",
    "following_url": "https://api.github.com/users/amitmurthy/following{/other_user}",
    "gists_url": "https://api.github.com/users/amitmurthy/gists{/gist_id}",
    "starred_url": "https://api.github.com/users/amitmurthy/starred{/owner}{/repo}",
    "subscriptions_url": "https://api.github.com/users/amitmurthy/subscriptions",
    "organizations_url": "https://api.github.com/users/amitmurthy/orgs",
    "repos_url": "https://api.github.com/users/amitmurthy/repos",
    "events_url": "https://api.github.com/users/amitmurthy/events{/privacy}",
    "received_events_url": "https://api.github.com/users/amitmurthy/received_events",
    "type": "User",
    "site_admin": false
  },
  "created_at": "2013-11-06T17:13:37Z",
  "updated_at": "2013-11-06T17:13:37Z",
  "body": "That does work.\r\n\r\nThough it will be convenient if it were a configurable feature of docker itself!"
}
, {
  "url": "https://api.github.com/repos/docker/docker/issues/comments/28176390",
  "html_url": "https://github.com/docker/docker/issues/2570#issuecomment-28176390",
  "issue_url": "https://api.github.com/repos/docker/docker/issues/2570",
  "id": 28176390,
  "user": {
    "login": "amitmurthy",
    "id": 117461,
    "avatar_url": "https://avatars.githubusercontent.com/u/117461?v=3",
    "gravatar_id": "",
    "url": "https://api.github.com/users/amitmurthy",
    "html_url": "https://github.com/amitmurthy",
    "followers_url": "https://api.github.com/users/amitmurthy/followers",
    "following_url": "https://api.github.com/users/amitmurthy/following{/other_user}",
    "gists_url": "https://api.github.com/users/amitmurthy/gists{/gist_id}",
    "starred_url": "https://api.github.com/users/amitmurthy/starred{/owner}{/repo}",
    "subscriptions_url": "https://api.github.com/users/amitmurthy/subscriptions",
    "organizations_url": "https://api.github.com/users/amitmurthy/orgs",
    "repos_url": "https://api.github.com/users/amitmurthy/repos",
    "events_url": "https://api.github.com/users/amitmurthy/events{/privacy}",
    "received_events_url": "https://api.github.com/users/amitmurthy/received_events",
    "type": "User",
    "site_admin": false
  },
  "created_at": "2013-11-11T06:00:48Z",
  "updated_at": "2013-11-11T06:00:48Z",
  "body": "Also, a start/stop on an EC2 instance removes the mount. So, if this directory was something that could be specified in /etc/docker.cfg or equivalent, it will be really helpful. "
}
, {
  "url": "https://api.github.com/repos/docker/docker/issues/comments/29208378",
  "html_url": "https://github.com/docker/docker/issues/2570#issuecomment-29208378",
  "issue_url": "https://api.github.com/repos/docker/docker/issues/2570",
  "id": 29208378,
  "user": {
    "login": "unclejack",
    "id": 1409668,
    "avatar_url": "https://avatars.githubusercontent.com/u/1409668?v=3",
    "gravatar_id": "",
    "url": "https://api.github.com/users/unclejack",
    "html_url": "https://github.com/unclejack",
    "followers_url": "https://api.github.com/users/unclejack/followers",
    "following_url": "https://api.github.com/users/unclejack/following{/other_user}",
    "gists_url": "https://api.github.com/users/unclejack/gists{/gist_id}",
    "starred_url": "https://api.github.com/users/unclejack/starred{/owner}{/repo}",
    "subscriptions_url": "https://api.github.com/users/unclejack/subscriptions",
    "organizations_url": "https://api.github.com/users/unclejack/orgs",
    "repos_url": "https://api.github.com/users/unclejack/repos",
    "events_url": "https://api.github.com/users/unclejack/events{/privacy}",
    "received_events_url": "https://api.github.com/users/unclejack/received_events",
    "type": "User",
    "site_admin": false
  },
  "created_at": "2013-11-25T15:06:50Z",
  "updated_at": "2013-11-25T15:06:55Z",
  "body": "This can be accomplished easily with the solution provided by @jpetazzo and you can also accomplish this using a link or a mount.\r\n\r\nI'll close this issue now. Please feel free to comment."
}
]
