[
{
  "url": "https://api.github.com/repos/docker/docker/issues/comments/107165460",
  "html_url": "https://github.com/docker/docker/issues/13619#issuecomment-107165460",
  "issue_url": "https://api.github.com/repos/docker/docker/issues/13619",
  "id": 107165460,
  "user": {
    "login": "GordonTheTurtle",
    "id": 10620046,
    "avatar_url": "https://avatars.githubusercontent.com/u/10620046?v=3",
    "gravatar_id": "",
    "url": "https://api.github.com/users/GordonTheTurtle",
    "html_url": "https://github.com/GordonTheTurtle",
    "followers_url": "https://api.github.com/users/GordonTheTurtle/followers",
    "following_url": "https://api.github.com/users/GordonTheTurtle/following{/other_user}",
    "gists_url": "https://api.github.com/users/GordonTheTurtle/gists{/gist_id}",
    "starred_url": "https://api.github.com/users/GordonTheTurtle/starred{/owner}{/repo}",
    "subscriptions_url": "https://api.github.com/users/GordonTheTurtle/subscriptions",
    "organizations_url": "https://api.github.com/users/GordonTheTurtle/orgs",
    "repos_url": "https://api.github.com/users/GordonTheTurtle/repos",
    "events_url": "https://api.github.com/users/GordonTheTurtle/events{/privacy}",
    "received_events_url": "https://api.github.com/users/GordonTheTurtle/received_events",
    "type": "User",
    "site_admin": false
  },
  "created_at": "2015-05-31T12:11:48Z",
  "updated_at": "2015-05-31T12:11:48Z",
  "body": "Hi!\n\t\nPlease read this important information about creating issues.\n\nIf you are reporting a new issue, make sure that we do not have any duplicates already open. You can ensure this by searching the issue list for this repository. If there is a duplicate, please close your issue and add a comment to the existing issue instead.\n\nIf you suspect your issue is a bug, please edit your issue description to include the BUG REPORT INFORMATION shown below. If you fail to provide this information within 7 days, we cannot debug your issue and will close it. We will, however, reopen it if you later provide the information.\n\nThis is an automated, informational response. \n\nThank you.\n\nFor more information about reporting issues, see https://github.com/docker/docker/blob/master/CONTRIBUTING.md#reporting-other-issues \n\n-----------------------------\nBUG REPORT INFORMATION\n-----------------------------\nUse the commands below to provide key information from your environment:\n\n`docker version`:\n`docker info`:\n`uname -a`:\n\nProvide additional environment details (AWS, VirtualBox, physical, etc.):\n\n\n\nList the steps to reproduce the issue:\n1.\n2.\n3.\n\n\nDescribe the results you received:\n\n\nDescribe the results you expected:\n\n\nProvide additional info you think is important:\n\n\n----------END REPORT ---------\n\n\n\n#ENEEDMOREINFO\n"
}
, {
  "url": "https://api.github.com/repos/docker/docker/issues/comments/107247573",
  "html_url": "https://github.com/docker/docker/issues/13619#issuecomment-107247573",
  "issue_url": "https://api.github.com/repos/docker/docker/issues/13619",
  "id": 107247573,
  "user": {
    "login": "unclejack",
    "id": 1409668,
    "avatar_url": "https://avatars.githubusercontent.com/u/1409668?v=3",
    "gravatar_id": "",
    "url": "https://api.github.com/users/unclejack",
    "html_url": "https://github.com/unclejack",
    "followers_url": "https://api.github.com/users/unclejack/followers",
    "following_url": "https://api.github.com/users/unclejack/following{/other_user}",
    "gists_url": "https://api.github.com/users/unclejack/gists{/gist_id}",
    "starred_url": "https://api.github.com/users/unclejack/starred{/owner}{/repo}",
    "subscriptions_url": "https://api.github.com/users/unclejack/subscriptions",
    "organizations_url": "https://api.github.com/users/unclejack/orgs",
    "repos_url": "https://api.github.com/users/unclejack/repos",
    "events_url": "https://api.github.com/users/unclejack/events{/privacy}",
    "received_events_url": "https://api.github.com/users/unclejack/received_events",
    "type": "User",
    "site_admin": false
  },
  "created_at": "2015-05-31T21:17:17Z",
  "updated_at": "2015-05-31T21:17:43Z",
  "body": "@bitliner Please make sure to update Docker on your system. You're running a very old version of Docker. Given that you're running kernel 3.14 and devicemapper, I really think you might also run into many other devicemapper related problems if you're running an old Docker version.\r\n\r\nHere are the steps I'd recommend:\r\n1) upgrade to the latest docker release\r\n2) keep your system fully updated\r\n3) ensure that you're running the latest kernel for your Linux distribution\r\n4) Whenever you want to reclaim space allocated in the same layer as something like `RUN ./do-something-which-takes-a-lot-of-space` in your Dockerfile, you should append something like ` && cleanup-after-the-command-which-created-the-files`.\r\n5) you can try alternative graph drivers such as AUFS\r\n\r\nSince this isn't a real problem and the bug report is against an older version of Docker with many known bugs which would cause such problems (less than ideal link and hard links handling, etc), I'm going to close this now.\r\n\r\nPlease feel free to comment."
}
]
