[
{
  "url": "https://api.github.com/repos/docker/docker/issues/comments/75644923",
  "html_url": "https://github.com/docker/docker/pull/10957#issuecomment-75644923",
  "issue_url": "https://api.github.com/repos/docker/docker/issues/10957",
  "id": 75644923,
  "user": {
    "login": "jfrazelle",
    "id": 1445228,
    "avatar_url": "https://avatars.githubusercontent.com/u/1445228?v=3",
    "gravatar_id": "",
    "url": "https://api.github.com/users/jfrazelle",
    "html_url": "https://github.com/jfrazelle",
    "followers_url": "https://api.github.com/users/jfrazelle/followers",
    "following_url": "https://api.github.com/users/jfrazelle/following{/other_user}",
    "gists_url": "https://api.github.com/users/jfrazelle/gists{/gist_id}",
    "starred_url": "https://api.github.com/users/jfrazelle/starred{/owner}{/repo}",
    "subscriptions_url": "https://api.github.com/users/jfrazelle/subscriptions",
    "organizations_url": "https://api.github.com/users/jfrazelle/orgs",
    "repos_url": "https://api.github.com/users/jfrazelle/repos",
    "events_url": "https://api.github.com/users/jfrazelle/events{/privacy}",
    "received_events_url": "https://api.github.com/users/jfrazelle/received_events",
    "type": "User",
    "site_admin": false
  },
  "created_at": "2015-02-23T21:54:09Z",
  "updated_at": "2015-02-23T21:54:09Z",
  "body": "LGTM"
}
, {
  "url": "https://api.github.com/repos/docker/docker/issues/comments/75650590",
  "html_url": "https://github.com/docker/docker/pull/10957#issuecomment-75650590",
  "issue_url": "https://api.github.com/repos/docker/docker/issues/10957",
  "id": 75650590,
  "user": {
    "login": "duglin",
    "id": 1944671,
    "avatar_url": "https://avatars.githubusercontent.com/u/1944671?v=3",
    "gravatar_id": "",
    "url": "https://api.github.com/users/duglin",
    "html_url": "https://github.com/duglin",
    "followers_url": "https://api.github.com/users/duglin/followers",
    "following_url": "https://api.github.com/users/duglin/following{/other_user}",
    "gists_url": "https://api.github.com/users/duglin/gists{/gist_id}",
    "starred_url": "https://api.github.com/users/duglin/starred{/owner}{/repo}",
    "subscriptions_url": "https://api.github.com/users/duglin/subscriptions",
    "organizations_url": "https://api.github.com/users/duglin/orgs",
    "repos_url": "https://api.github.com/users/duglin/repos",
    "events_url": "https://api.github.com/users/duglin/events{/privacy}",
    "received_events_url": "https://api.github.com/users/duglin/received_events",
    "type": "User",
    "site_admin": false
  },
  "created_at": "2015-02-23T22:23:35Z",
  "updated_at": "2015-02-23T22:23:35Z",
  "body": "hmmm so if I manually stop the build (ctrl-c) and then rename stuff in the build, could it mess it?\r\nWhat if I mess up trying to do renames in the build, could that be an issue?"
}
, {
  "url": "https://api.github.com/repos/docker/docker/issues/comments/75676194",
  "html_url": "https://github.com/docker/docker/pull/10957#issuecomment-75676194",
  "issue_url": "https://api.github.com/repos/docker/docker/issues/10957",
  "id": 75676194,
  "user": {
    "login": "tianon",
    "id": 161631,
    "avatar_url": "https://avatars.githubusercontent.com/u/161631?v=3",
    "gravatar_id": "",
    "url": "https://api.github.com/users/tianon",
    "html_url": "https://github.com/tianon",
    "followers_url": "https://api.github.com/users/tianon/followers",
    "following_url": "https://api.github.com/users/tianon/following{/other_user}",
    "gists_url": "https://api.github.com/users/tianon/gists{/gist_id}",
    "starred_url": "https://api.github.com/users/tianon/starred{/owner}{/repo}",
    "subscriptions_url": "https://api.github.com/users/tianon/subscriptions",
    "organizations_url": "https://api.github.com/users/tianon/orgs",
    "repos_url": "https://api.github.com/users/tianon/repos",
    "events_url": "https://api.github.com/users/tianon/events{/privacy}",
    "received_events_url": "https://api.github.com/users/tianon/received_events",
    "type": "User",
    "site_admin": false
  },
  "created_at": "2015-02-24T00:51:07Z",
  "updated_at": "2015-02-24T00:51:07Z",
  "body": "Naw, we took care of that with\nhttps://github.com/docker/docker/blob/master/project/make/.dockerversion#L3\n"
}
, {
  "url": "https://api.github.com/repos/docker/docker/issues/comments/75677654",
  "html_url": "https://github.com/docker/docker/pull/10957#issuecomment-75677654",
  "issue_url": "https://api.github.com/repos/docker/docker/issues/10957",
  "id": 75677654,
  "user": {
    "login": "duglin",
    "id": 1944671,
    "avatar_url": "https://avatars.githubusercontent.com/u/1944671?v=3",
    "gravatar_id": "",
    "url": "https://api.github.com/users/duglin",
    "html_url": "https://github.com/duglin",
    "followers_url": "https://api.github.com/users/duglin/followers",
    "following_url": "https://api.github.com/users/duglin/following{/other_user}",
    "gists_url": "https://api.github.com/users/duglin/gists{/gist_id}",
    "starred_url": "https://api.github.com/users/duglin/starred{/owner}{/repo}",
    "subscriptions_url": "https://api.github.com/users/duglin/subscriptions",
    "organizations_url": "https://api.github.com/users/duglin/orgs",
    "repos_url": "https://api.github.com/users/duglin/repos",
    "events_url": "https://api.github.com/users/duglin/events{/privacy}",
    "received_events_url": "https://api.github.com/users/duglin/received_events",
    "type": "User",
    "site_admin": false
  },
  "created_at": "2015-02-24T00:57:22Z",
  "updated_at": "2015-02-24T00:57:22Z",
  "body": "Ah right, I forgot \n\n-Doug\n\nSent from my iPhone\n\n> On Feb 23, 2015, at 4:51 PM, Tianon Gravi <notifications@github.com> wrote:\n> \n> Naw, we took care of that with\n> https://github.com/docker/docker/blob/master/project/make/.dockerversion#L3\n> —\n> Reply to this email directly or view it on GitHub.\n> \n"
}
, {
  "url": "https://api.github.com/repos/docker/docker/issues/comments/75849470",
  "html_url": "https://github.com/docker/docker/pull/10957#issuecomment-75849470",
  "issue_url": "https://api.github.com/repos/docker/docker/issues/10957",
  "id": 75849470,
  "user": {
    "login": "crosbymichael",
    "id": 749551,
    "avatar_url": "https://avatars.githubusercontent.com/u/749551?v=3",
    "gravatar_id": "",
    "url": "https://api.github.com/users/crosbymichael",
    "html_url": "https://github.com/crosbymichael",
    "followers_url": "https://api.github.com/users/crosbymichael/followers",
    "following_url": "https://api.github.com/users/crosbymichael/following{/other_user}",
    "gists_url": "https://api.github.com/users/crosbymichael/gists{/gist_id}",
    "starred_url": "https://api.github.com/users/crosbymichael/starred{/owner}{/repo}",
    "subscriptions_url": "https://api.github.com/users/crosbymichael/subscriptions",
    "organizations_url": "https://api.github.com/users/crosbymichael/orgs",
    "repos_url": "https://api.github.com/users/crosbymichael/repos",
    "events_url": "https://api.github.com/users/crosbymichael/events{/privacy}",
    "received_events_url": "https://api.github.com/users/crosbymichael/received_events",
    "type": "User",
    "site_admin": false
  },
  "created_at": "2015-02-24T21:25:41Z",
  "updated_at": "2015-02-24T21:25:41Z",
  "body": "LGTM"
}
]
