[
{
  "url": "https://api.github.com/repos/docker/docker/issues/comments/51526527",
  "html_url": "https://github.com/docker/docker/issues/7467#issuecomment-51526527",
  "issue_url": "https://api.github.com/repos/docker/docker/issues/7467",
  "id": 51526527,
  "user": {
    "login": "gabrtv",
    "id": 231123,
    "avatar_url": "https://avatars.githubusercontent.com/u/231123?v=3",
    "gravatar_id": "",
    "url": "https://api.github.com/users/gabrtv",
    "html_url": "https://github.com/gabrtv",
    "followers_url": "https://api.github.com/users/gabrtv/followers",
    "following_url": "https://api.github.com/users/gabrtv/following{/other_user}",
    "gists_url": "https://api.github.com/users/gabrtv/gists{/gist_id}",
    "starred_url": "https://api.github.com/users/gabrtv/starred{/owner}{/repo}",
    "subscriptions_url": "https://api.github.com/users/gabrtv/subscriptions",
    "organizations_url": "https://api.github.com/users/gabrtv/orgs",
    "repos_url": "https://api.github.com/users/gabrtv/repos",
    "events_url": "https://api.github.com/users/gabrtv/events{/privacy}",
    "received_events_url": "https://api.github.com/users/gabrtv/received_events",
    "type": "User",
    "site_admin": false
  },
  "created_at": "2014-08-07T20:24:16Z",
  "updated_at": "2014-08-07T20:24:16Z",
  "body": "> reassign the ip to the veth in the target container. This has some arp issues but may be significantly less surprising or complicated to end-users digging through the links abstraction.\r\n\r\nNot a fan of swapping ip's of existing veths and the ARP issues that would ensue.\r\n\r\n> Use an iptables facade to mimic a higher level network that links containers. This would be the point of reference, making retargeting these addresses easily. This would use another internal subnet but is rather flexible.\r\n\r\nSeems the most flexible and understandable for admins, but feels like the 5 min fix for a problem that needs a longer-term solution.\r\n\r\n> moving the veth to a new network namespace for the target container (via ip link set) from the host, should incur no arp issues. This method still needs to be tested but should provide great failover benefits that we wouldn’t get with ip address reassignment.\r\n\r\nThis seems like the cleanest implementation with the most long-term appeal.  Do we have a sense for how feasible this really is?"
}
, {
  "url": "https://api.github.com/repos/docker/docker/issues/comments/51527083",
  "html_url": "https://github.com/docker/docker/issues/7467#issuecomment-51527083",
  "issue_url": "https://api.github.com/repos/docker/docker/issues/7467",
  "id": 51527083,
  "user": {
    "login": "erikh",
    "id": 18923,
    "avatar_url": "https://avatars.githubusercontent.com/u/18923?v=3",
    "gravatar_id": "",
    "url": "https://api.github.com/users/erikh",
    "html_url": "https://github.com/erikh",
    "followers_url": "https://api.github.com/users/erikh/followers",
    "following_url": "https://api.github.com/users/erikh/following{/other_user}",
    "gists_url": "https://api.github.com/users/erikh/gists{/gist_id}",
    "starred_url": "https://api.github.com/users/erikh/starred{/owner}{/repo}",
    "subscriptions_url": "https://api.github.com/users/erikh/subscriptions",
    "organizations_url": "https://api.github.com/users/erikh/orgs",
    "repos_url": "https://api.github.com/users/erikh/repos",
    "events_url": "https://api.github.com/users/erikh/events{/privacy}",
    "received_events_url": "https://api.github.com/users/erikh/received_events",
    "type": "User",
    "site_admin": false
  },
  "created_at": "2014-08-07T20:29:13Z",
  "updated_at": "2014-08-07T20:29:13Z",
  "body": "I'll be testing the netns stuff later today, hopefully. I will get back to you once I know more."
}
, {
  "url": "https://api.github.com/repos/docker/docker/issues/comments/51532021",
  "html_url": "https://github.com/docker/docker/issues/7467#issuecomment-51532021",
  "issue_url": "https://api.github.com/repos/docker/docker/issues/7467",
  "id": 51532021,
  "user": {
    "login": "thaJeztah",
    "id": 1804568,
    "avatar_url": "https://avatars.githubusercontent.com/u/1804568?v=3",
    "gravatar_id": "",
    "url": "https://api.github.com/users/thaJeztah",
    "html_url": "https://github.com/thaJeztah",
    "followers_url": "https://api.github.com/users/thaJeztah/followers",
    "following_url": "https://api.github.com/users/thaJeztah/following{/other_user}",
    "gists_url": "https://api.github.com/users/thaJeztah/gists{/gist_id}",
    "starred_url": "https://api.github.com/users/thaJeztah/starred{/owner}{/repo}",
    "subscriptions_url": "https://api.github.com/users/thaJeztah/subscriptions",
    "organizations_url": "https://api.github.com/users/thaJeztah/orgs",
    "repos_url": "https://api.github.com/users/thaJeztah/repos",
    "events_url": "https://api.github.com/users/thaJeztah/events{/privacy}",
    "received_events_url": "https://api.github.com/users/thaJeztah/received_events",
    "type": "User",
    "site_admin": false
  },
  "created_at": "2014-08-07T21:08:11Z",
  "updated_at": "2014-08-07T21:08:11Z",
  "body": "> Links ideally do not need to be named, the container ID should suffice in a hosts file.\r\n\r\nNot sure I understand this; currently, I'm able to name a link (e.g. `db`) so that I can pre-configure an application to connect to a linked database container using `db` as host name.\r\n\r\nIf this is reloaded with the container-id of the linked container, how would I use that (without using additional service-discovery software)?"
}
, {
  "url": "https://api.github.com/repos/docker/docker/issues/comments/51564182",
  "html_url": "https://github.com/docker/docker/issues/7467#issuecomment-51564182",
  "issue_url": "https://api.github.com/repos/docker/docker/issues/7467",
  "id": 51564182,
  "user": {
    "login": "LK4D4",
    "id": 101445,
    "avatar_url": "https://avatars.githubusercontent.com/u/101445?v=3",
    "gravatar_id": "",
    "url": "https://api.github.com/users/LK4D4",
    "html_url": "https://github.com/LK4D4",
    "followers_url": "https://api.github.com/users/LK4D4/followers",
    "following_url": "https://api.github.com/users/LK4D4/following{/other_user}",
    "gists_url": "https://api.github.com/users/LK4D4/gists{/gist_id}",
    "starred_url": "https://api.github.com/users/LK4D4/starred{/owner}{/repo}",
    "subscriptions_url": "https://api.github.com/users/LK4D4/subscriptions",
    "organizations_url": "https://api.github.com/users/LK4D4/orgs",
    "repos_url": "https://api.github.com/users/LK4D4/repos",
    "events_url": "https://api.github.com/users/LK4D4/events{/privacy}",
    "received_events_url": "https://api.github.com/users/LK4D4/received_events",
    "type": "User",
    "site_admin": false
  },
  "created_at": "2014-08-08T05:14:00Z",
  "updated_at": "2014-08-08T05:14:00Z",
  "body": "@thaJeztah +1, this is main case of links for me and all my friends."
}
, {
  "url": "https://api.github.com/repos/docker/docker/issues/comments/51564742",
  "html_url": "https://github.com/docker/docker/issues/7467#issuecomment-51564742",
  "issue_url": "https://api.github.com/repos/docker/docker/issues/7467",
  "id": 51564742,
  "user": {
    "login": "erikh",
    "id": 18923,
    "avatar_url": "https://avatars.githubusercontent.com/u/18923?v=3",
    "gravatar_id": "",
    "url": "https://api.github.com/users/erikh",
    "html_url": "https://github.com/erikh",
    "followers_url": "https://api.github.com/users/erikh/followers",
    "following_url": "https://api.github.com/users/erikh/following{/other_user}",
    "gists_url": "https://api.github.com/users/erikh/gists{/gist_id}",
    "starred_url": "https://api.github.com/users/erikh/starred{/owner}{/repo}",
    "subscriptions_url": "https://api.github.com/users/erikh/subscriptions",
    "organizations_url": "https://api.github.com/users/erikh/orgs",
    "repos_url": "https://api.github.com/users/erikh/repos",
    "events_url": "https://api.github.com/users/erikh/events{/privacy}",
    "received_events_url": "https://api.github.com/users/erikh/received_events",
    "type": "User",
    "site_admin": false
  },
  "created_at": "2014-08-08T05:27:02Z",
  "updated_at": "2014-08-08T05:27:02Z",
  "body": "Sorry, that was tacked on at the end and in retrospect it probably shouldn’t be — it’s more related to the links UI (which was split out from this proposal) than this.\r\n\r\nI’ll retool in a few minutes here.\r\n\r\n> On Aug 7, 2014, at 2:08 PM, Sebastiaan van Stijn <notifications@github.com> wrote:\r\n> \r\n> Links ideally do not need to be named, the container ID should suffice in a hosts file.\r\n> \r\n> Not sure I understand this; currently, I'm able to name a link (e.g. db) so that I can pre-configure an application to connect to a linked database container using db as host name.\r\n> \r\n> If this is reloaded with the container-id of the linked container, how would I use that (without using additional service-discovery software)?\r\n> \r\n> —\r\n> Reply to this email directly or view it on GitHub <https://github.com/docker/docker/issues/7467#issuecomment-51532021>.\r\n> "
}
, {
  "url": "https://api.github.com/repos/docker/docker/issues/comments/51847108",
  "html_url": "https://github.com/docker/docker/issues/7467#issuecomment-51847108",
  "issue_url": "https://api.github.com/repos/docker/docker/issues/7467",
  "id": 51847108,
  "user": {
    "login": "erikh",
    "id": 18923,
    "avatar_url": "https://avatars.githubusercontent.com/u/18923?v=3",
    "gravatar_id": "",
    "url": "https://api.github.com/users/erikh",
    "html_url": "https://github.com/erikh",
    "followers_url": "https://api.github.com/users/erikh/followers",
    "following_url": "https://api.github.com/users/erikh/following{/other_user}",
    "gists_url": "https://api.github.com/users/erikh/gists{/gist_id}",
    "starred_url": "https://api.github.com/users/erikh/starred{/owner}{/repo}",
    "subscriptions_url": "https://api.github.com/users/erikh/subscriptions",
    "organizations_url": "https://api.github.com/users/erikh/orgs",
    "repos_url": "https://api.github.com/users/erikh/repos",
    "events_url": "https://api.github.com/users/erikh/events{/privacy}",
    "received_events_url": "https://api.github.com/users/erikh/received_events",
    "type": "User",
    "site_admin": false
  },
  "created_at": "2014-08-11T22:02:22Z",
  "updated_at": "2014-08-11T22:02:22Z",
  "body": "@gabrtv @crosbymichael and I worked out the details and think the veth move should be feasible, but we're probably going to have to tear up a bit of docker to accomplish it. He gave me some sample code to chew on and I'm fairly confident we'll be able to do this.\r\n\r\nThe trick is to orchestrate it with named network namespaces as opposed to PID namespaces (which is what docker and libcontainer do currently). Then they should be portable. I'm still a little hazy on implementation but that should be resolved in a few days. I just need some time to play."
}
, {
  "url": "https://api.github.com/repos/docker/docker/issues/comments/52341030",
  "html_url": "https://github.com/docker/docker/issues/7467#issuecomment-52341030",
  "issue_url": "https://api.github.com/repos/docker/docker/issues/7467",
  "id": 52341030,
  "user": {
    "login": "jpetazzo",
    "id": 171481,
    "avatar_url": "https://avatars.githubusercontent.com/u/171481?v=3",
    "gravatar_id": "",
    "url": "https://api.github.com/users/jpetazzo",
    "html_url": "https://github.com/jpetazzo",
    "followers_url": "https://api.github.com/users/jpetazzo/followers",
    "following_url": "https://api.github.com/users/jpetazzo/following{/other_user}",
    "gists_url": "https://api.github.com/users/jpetazzo/gists{/gist_id}",
    "starred_url": "https://api.github.com/users/jpetazzo/starred{/owner}{/repo}",
    "subscriptions_url": "https://api.github.com/users/jpetazzo/subscriptions",
    "organizations_url": "https://api.github.com/users/jpetazzo/orgs",
    "repos_url": "https://api.github.com/users/jpetazzo/repos",
    "events_url": "https://api.github.com/users/jpetazzo/events{/privacy}",
    "received_events_url": "https://api.github.com/users/jpetazzo/received_events",
    "type": "User",
    "site_admin": false
  },
  "created_at": "2014-08-15T18:25:51Z",
  "updated_at": "2014-08-15T18:25:51Z",
  "body": "+1!\r\n\r\nMinor remark though: \r\n\r\n> A container is assigned a specific IP address that will not change until the container is removed, or if stopped and the existing address space is exhausted (in least recently used order of stopped containers).\r\n\r\nI would not free up IP addresses when the address space is exhausted. I would rather require the user to explicitly clean up old containers. I understand that it could be an annoyance, but it makes me feel uncomfortable for two reasons:\r\n\r\n- some things might behave differently depending on whether the address space is under pressure or not (e.g. people might have weird link issues because they have many containers and IP addresses get reused too fast)\r\n- IMHO, IP addresses are a resource just like any other, e.g. disk usage. We wouldn't automatically destroy old containers if the disk is full (would we?), so why would we free up IP addresses if the address space is full?\r\n\r\nJust my 2c.\r\n\r\nOther than that, everything else is +1 +1 +1 :-)"
}
, {
  "url": "https://api.github.com/repos/docker/docker/issues/comments/52341243",
  "html_url": "https://github.com/docker/docker/issues/7467#issuecomment-52341243",
  "issue_url": "https://api.github.com/repos/docker/docker/issues/7467",
  "id": 52341243,
  "user": {
    "login": "erikh",
    "id": 18923,
    "avatar_url": "https://avatars.githubusercontent.com/u/18923?v=3",
    "gravatar_id": "",
    "url": "https://api.github.com/users/erikh",
    "html_url": "https://github.com/erikh",
    "followers_url": "https://api.github.com/users/erikh/followers",
    "following_url": "https://api.github.com/users/erikh/following{/other_user}",
    "gists_url": "https://api.github.com/users/erikh/gists{/gist_id}",
    "starred_url": "https://api.github.com/users/erikh/starred{/owner}{/repo}",
    "subscriptions_url": "https://api.github.com/users/erikh/subscriptions",
    "organizations_url": "https://api.github.com/users/erikh/orgs",
    "repos_url": "https://api.github.com/users/erikh/repos",
    "events_url": "https://api.github.com/users/erikh/events{/privacy}",
    "received_events_url": "https://api.github.com/users/erikh/received_events",
    "type": "User",
    "site_admin": false
  },
  "created_at": "2014-08-15T18:27:50Z",
  "updated_at": "2014-08-15T18:27:50Z",
  "body": "I agree it is surprising. I’ll bring it up with the powers that be.\r\n\r\n-Erik\r\n\r\n> On Aug 15, 2014, at 11:25 AM, Jérôme Petazzoni <notifications@github.com> wrote:\r\n> \r\n> +1!\r\n> \r\n> Minor remark though:\r\n> \r\n> A container is assigned a specific IP address that will not change until the container is removed, or if stopped and the existing address space is exhausted (in least recently used order of stopped containers).\r\n> \r\n> I would not free up IP addresses when the address space is exhausted. I would rather require the user to explicitly clean up old containers. I understand that it could be an annoyance, but it makes me feel uncomfortable for two reasons:\r\n> \r\n> some things might behave differently depending on whether the address space is under pressure or not (e.g. people might have weird link issues because they have many containers and IP addresses get reused too fast)\r\n> IMHO, IP addresses are a resource just like any other, e.g. disk usage. We wouldn't automatically destroy old containers if the disk is full (would we?), so why would we free up IP addresses if the address space is full?\r\n> Just my 2c.\r\n> \r\n> Other than that, everything else is +1 +1 +1 :-)\r\n> \r\n> —\r\n> Reply to this email directly or view it on GitHub <https://github.com/docker/docker/issues/7467#issuecomment-52341030>.\r\n> "
}
, {
  "url": "https://api.github.com/repos/docker/docker/issues/comments/52661521",
  "html_url": "https://github.com/docker/docker/issues/7467#issuecomment-52661521",
  "issue_url": "https://api.github.com/repos/docker/docker/issues/7467",
  "id": 52661521,
  "user": {
    "login": "erikh",
    "id": 18923,
    "avatar_url": "https://avatars.githubusercontent.com/u/18923?v=3",
    "gravatar_id": "",
    "url": "https://api.github.com/users/erikh",
    "html_url": "https://github.com/erikh",
    "followers_url": "https://api.github.com/users/erikh/followers",
    "following_url": "https://api.github.com/users/erikh/following{/other_user}",
    "gists_url": "https://api.github.com/users/erikh/gists{/gist_id}",
    "starred_url": "https://api.github.com/users/erikh/starred{/owner}{/repo}",
    "subscriptions_url": "https://api.github.com/users/erikh/subscriptions",
    "organizations_url": "https://api.github.com/users/erikh/orgs",
    "repos_url": "https://api.github.com/users/erikh/repos",
    "events_url": "https://api.github.com/users/erikh/events{/privacy}",
    "received_events_url": "https://api.github.com/users/erikh/received_events",
    "type": "User",
    "site_admin": false
  },
  "created_at": "2014-08-19T16:36:04Z",
  "updated_at": "2014-08-19T16:36:04Z",
  "body": "@gabrtv we accomplished this yesterday, so hopefully we'll have some code to show soon."
}
, {
  "url": "https://api.github.com/repos/docker/docker/issues/comments/53995459",
  "html_url": "https://github.com/docker/docker/issues/7467#issuecomment-53995459",
  "issue_url": "https://api.github.com/repos/docker/docker/issues/7467",
  "id": 53995459,
  "user": {
    "login": "tristanz",
    "id": 290978,
    "avatar_url": "https://avatars.githubusercontent.com/u/290978?v=3",
    "gravatar_id": "",
    "url": "https://api.github.com/users/tristanz",
    "html_url": "https://github.com/tristanz",
    "followers_url": "https://api.github.com/users/tristanz/followers",
    "following_url": "https://api.github.com/users/tristanz/following{/other_user}",
    "gists_url": "https://api.github.com/users/tristanz/gists{/gist_id}",
    "starred_url": "https://api.github.com/users/tristanz/starred{/owner}{/repo}",
    "subscriptions_url": "https://api.github.com/users/tristanz/subscriptions",
    "organizations_url": "https://api.github.com/users/tristanz/orgs",
    "repos_url": "https://api.github.com/users/tristanz/repos",
    "events_url": "https://api.github.com/users/tristanz/events{/privacy}",
    "received_events_url": "https://api.github.com/users/tristanz/received_events",
    "type": "User",
    "site_admin": false
  },
  "created_at": "2014-08-31T17:47:05Z",
  "updated_at": "2014-08-31T17:47:05Z",
  "body": "+1 for not automatically reusing IPs.  This would help make things more predictable.  I confront this when implementing firewall rules."
}
, {
  "url": "https://api.github.com/repos/docker/docker/issues/comments/59849538",
  "html_url": "https://github.com/docker/docker/issues/7467#issuecomment-59849538",
  "issue_url": "https://api.github.com/repos/docker/docker/issues/7467",
  "id": 59849538,
  "user": {
    "login": "erikh",
    "id": 18923,
    "avatar_url": "https://avatars.githubusercontent.com/u/18923?v=3",
    "gravatar_id": "",
    "url": "https://api.github.com/users/erikh",
    "html_url": "https://github.com/erikh",
    "followers_url": "https://api.github.com/users/erikh/followers",
    "following_url": "https://api.github.com/users/erikh/following{/other_user}",
    "gists_url": "https://api.github.com/users/erikh/gists{/gist_id}",
    "starred_url": "https://api.github.com/users/erikh/starred{/owner}{/repo}",
    "subscriptions_url": "https://api.github.com/users/erikh/subscriptions",
    "organizations_url": "https://api.github.com/users/erikh/orgs",
    "repos_url": "https://api.github.com/users/erikh/repos",
    "events_url": "https://api.github.com/users/erikh/events{/privacy}",
    "received_events_url": "https://api.github.com/users/erikh/received_events",
    "type": "User",
    "site_admin": false
  },
  "created_at": "2014-10-20T22:21:27Z",
  "updated_at": "2014-10-20T22:21:27Z",
  "body": "This has been updated to accommodate port discovery. Comments welcome."
}
, {
  "url": "https://api.github.com/repos/docker/docker/issues/comments/59854552",
  "html_url": "https://github.com/docker/docker/issues/7467#issuecomment-59854552",
  "issue_url": "https://api.github.com/repos/docker/docker/issues/7467",
  "id": 59854552,
  "user": {
    "login": "duglin",
    "id": 1944671,
    "avatar_url": "https://avatars.githubusercontent.com/u/1944671?v=3",
    "gravatar_id": "",
    "url": "https://api.github.com/users/duglin",
    "html_url": "https://github.com/duglin",
    "followers_url": "https://api.github.com/users/duglin/followers",
    "following_url": "https://api.github.com/users/duglin/following{/other_user}",
    "gists_url": "https://api.github.com/users/duglin/gists{/gist_id}",
    "starred_url": "https://api.github.com/users/duglin/starred{/owner}{/repo}",
    "subscriptions_url": "https://api.github.com/users/duglin/subscriptions",
    "organizations_url": "https://api.github.com/users/duglin/orgs",
    "repos_url": "https://api.github.com/users/duglin/repos",
    "events_url": "https://api.github.com/users/duglin/events{/privacy}",
    "received_events_url": "https://api.github.com/users/duglin/received_events",
    "type": "User",
    "site_admin": false
  },
  "created_at": "2014-10-20T23:06:07Z",
  "updated_at": "2014-10-20T23:06:07Z",
  "body": "for port discovery, I assume it'll be \"port/protocol\" and not just \"port\", right? "
}
, {
  "url": "https://api.github.com/repos/docker/docker/issues/comments/59854816",
  "html_url": "https://github.com/docker/docker/issues/7467#issuecomment-59854816",
  "issue_url": "https://api.github.com/repos/docker/docker/issues/7467",
  "id": 59854816,
  "user": {
    "login": "erikh",
    "id": 18923,
    "avatar_url": "https://avatars.githubusercontent.com/u/18923?v=3",
    "gravatar_id": "",
    "url": "https://api.github.com/users/erikh",
    "html_url": "https://github.com/erikh",
    "followers_url": "https://api.github.com/users/erikh/followers",
    "following_url": "https://api.github.com/users/erikh/following{/other_user}",
    "gists_url": "https://api.github.com/users/erikh/gists{/gist_id}",
    "starred_url": "https://api.github.com/users/erikh/starred{/owner}{/repo}",
    "subscriptions_url": "https://api.github.com/users/erikh/subscriptions",
    "organizations_url": "https://api.github.com/users/erikh/orgs",
    "repos_url": "https://api.github.com/users/erikh/repos",
    "events_url": "https://api.github.com/users/erikh/events{/privacy}",
    "received_events_url": "https://api.github.com/users/erikh/received_events",
    "type": "User",
    "site_admin": false
  },
  "created_at": "2014-10-20T23:08:45Z",
  "updated_at": "2014-10-20T23:08:45Z",
  "body": "Perhaps we should make it `DOCKER_LINK_${proto}_PORTS` or something like that.\r\n\r\nI don't like the idea of carrying the proto in the value largely because it makes it harder to parse with tools like `cut` and `awk`."
}
, {
  "url": "https://api.github.com/repos/docker/docker/issues/comments/59856214",
  "html_url": "https://github.com/docker/docker/issues/7467#issuecomment-59856214",
  "issue_url": "https://api.github.com/repos/docker/docker/issues/7467",
  "id": 59856214,
  "user": {
    "login": "duglin",
    "id": 1944671,
    "avatar_url": "https://avatars.githubusercontent.com/u/1944671?v=3",
    "gravatar_id": "",
    "url": "https://api.github.com/users/duglin",
    "html_url": "https://github.com/duglin",
    "followers_url": "https://api.github.com/users/duglin/followers",
    "following_url": "https://api.github.com/users/duglin/following{/other_user}",
    "gists_url": "https://api.github.com/users/duglin/gists{/gist_id}",
    "starred_url": "https://api.github.com/users/duglin/starred{/owner}{/repo}",
    "subscriptions_url": "https://api.github.com/users/duglin/subscriptions",
    "organizations_url": "https://api.github.com/users/duglin/orgs",
    "repos_url": "https://api.github.com/users/duglin/repos",
    "events_url": "https://api.github.com/users/duglin/events{/privacy}",
    "received_events_url": "https://api.github.com/users/duglin/received_events",
    "type": "User",
    "site_admin": false
  },
  "created_at": "2014-10-20T23:23:32Z",
  "updated_at": "2014-10-20T23:23:32Z",
  "body": "I'd prefer to avoid having to go \"looking for\" info like this. Today we have tcp and udp, if a 3rd pops up then we have to modify code (hard coded) to search for that env var too.  If its all in one list then we only need to grab one env var and parse and we don't need to presume any protocols at all - we just parse it.  As long as its always of the form #/proto I don't see the issue in parsing. \r\n\r\nAdding the info we're trying to \"discover\" into the env name is part of the issue I have with our current solution. I feels like you have to already know what the answer is in order to find what you're looking for - kind of silly.  That's why I proposed: #8515 \r\n\r\nKeep in mind usecases where the code doing the \"discovery\" know nothing - and assume all it might be doing is displaying what it discovers (via some kind of \"inspect\" op).  In those cases it shouldn't really need to have a list of protocols - it should discover those too and having the protocol in the name would make that harder if not impossible.\r\n"
}
, {
  "url": "https://api.github.com/repos/docker/docker/issues/comments/59856688",
  "html_url": "https://github.com/docker/docker/issues/7467#issuecomment-59856688",
  "issue_url": "https://api.github.com/repos/docker/docker/issues/7467",
  "id": 59856688,
  "user": {
    "login": "erikh",
    "id": 18923,
    "avatar_url": "https://avatars.githubusercontent.com/u/18923?v=3",
    "gravatar_id": "",
    "url": "https://api.github.com/users/erikh",
    "html_url": "https://github.com/erikh",
    "followers_url": "https://api.github.com/users/erikh/followers",
    "following_url": "https://api.github.com/users/erikh/following{/other_user}",
    "gists_url": "https://api.github.com/users/erikh/gists{/gist_id}",
    "starred_url": "https://api.github.com/users/erikh/starred{/owner}{/repo}",
    "subscriptions_url": "https://api.github.com/users/erikh/subscriptions",
    "organizations_url": "https://api.github.com/users/erikh/orgs",
    "repos_url": "https://api.github.com/users/erikh/repos",
    "events_url": "https://api.github.com/users/erikh/events{/privacy}",
    "received_events_url": "https://api.github.com/users/erikh/received_events",
    "type": "User",
    "site_admin": false
  },
  "created_at": "2014-10-20T23:28:47Z",
  "updated_at": "2014-10-20T23:28:47Z",
  "body": "I don't really foresee us adding a new layer 4 protocol, but I suppose anything's possible. :)\r\n\r\nLet's not over-architect this. I need to think about the rest of your message, but I'm not sure what the problem is here if you know the link name:\r\n\r\n```\r\necho \"${DOCKER_LINK_TCP_PORTS_MYLINK}\" | cut -d,\r\n```\r\n\r\nIs not that complicated."
}
, {
  "url": "https://api.github.com/repos/docker/docker/issues/comments/59857221",
  "html_url": "https://github.com/docker/docker/issues/7467#issuecomment-59857221",
  "issue_url": "https://api.github.com/repos/docker/docker/issues/7467",
  "id": 59857221,
  "user": {
    "login": "duglin",
    "id": 1944671,
    "avatar_url": "https://avatars.githubusercontent.com/u/1944671?v=3",
    "gravatar_id": "",
    "url": "https://api.github.com/users/duglin",
    "html_url": "https://github.com/duglin",
    "followers_url": "https://api.github.com/users/duglin/followers",
    "following_url": "https://api.github.com/users/duglin/following{/other_user}",
    "gists_url": "https://api.github.com/users/duglin/gists{/gist_id}",
    "starred_url": "https://api.github.com/users/duglin/starred{/owner}{/repo}",
    "subscriptions_url": "https://api.github.com/users/duglin/subscriptions",
    "organizations_url": "https://api.github.com/users/duglin/orgs",
    "repos_url": "https://api.github.com/users/duglin/repos",
    "events_url": "https://api.github.com/users/duglin/events{/privacy}",
    "received_events_url": "https://api.github.com/users/duglin/received_events",
    "type": "User",
    "site_admin": false
  },
  "created_at": "2014-10-20T23:34:28Z",
  "updated_at": "2014-10-20T23:39:54Z",
  "body": "If you know in advance what the answer is, there's no problem.\r\nedit: I'm not concerned about the parsing"
}
, {
  "url": "https://api.github.com/repos/docker/docker/issues/comments/107152012",
  "html_url": "https://github.com/docker/docker/issues/7467#issuecomment-107152012",
  "issue_url": "https://api.github.com/repos/docker/docker/issues/7467",
  "id": 107152012,
  "user": {
    "login": "adamkdean",
    "id": 1639527,
    "avatar_url": "https://avatars.githubusercontent.com/u/1639527?v=3",
    "gravatar_id": "",
    "url": "https://api.github.com/users/adamkdean",
    "html_url": "https://github.com/adamkdean",
    "followers_url": "https://api.github.com/users/adamkdean/followers",
    "following_url": "https://api.github.com/users/adamkdean/following{/other_user}",
    "gists_url": "https://api.github.com/users/adamkdean/gists{/gist_id}",
    "starred_url": "https://api.github.com/users/adamkdean/starred{/owner}{/repo}",
    "subscriptions_url": "https://api.github.com/users/adamkdean/subscriptions",
    "organizations_url": "https://api.github.com/users/adamkdean/orgs",
    "repos_url": "https://api.github.com/users/adamkdean/repos",
    "events_url": "https://api.github.com/users/adamkdean/events{/privacy}",
    "received_events_url": "https://api.github.com/users/adamkdean/received_events",
    "type": "User",
    "site_admin": false
  },
  "created_at": "2015-05-31T10:25:30Z",
  "updated_at": "2015-05-31T10:25:30Z",
  "body": "Any update on this?"
}
, {
  "url": "https://api.github.com/repos/docker/docker/issues/comments/107235724",
  "html_url": "https://github.com/docker/docker/issues/7467#issuecomment-107235724",
  "issue_url": "https://api.github.com/repos/docker/docker/issues/7467",
  "id": 107235724,
  "user": {
    "login": "cpuguy83",
    "id": 799078,
    "avatar_url": "https://avatars.githubusercontent.com/u/799078?v=3",
    "gravatar_id": "",
    "url": "https://api.github.com/users/cpuguy83",
    "html_url": "https://github.com/cpuguy83",
    "followers_url": "https://api.github.com/users/cpuguy83/followers",
    "following_url": "https://api.github.com/users/cpuguy83/following{/other_user}",
    "gists_url": "https://api.github.com/users/cpuguy83/gists{/gist_id}",
    "starred_url": "https://api.github.com/users/cpuguy83/starred{/owner}{/repo}",
    "subscriptions_url": "https://api.github.com/users/cpuguy83/subscriptions",
    "organizations_url": "https://api.github.com/users/cpuguy83/orgs",
    "repos_url": "https://api.github.com/users/cpuguy83/repos",
    "events_url": "https://api.github.com/users/cpuguy83/events{/privacy}",
    "received_events_url": "https://api.github.com/users/cpuguy83/received_events",
    "type": "User",
    "site_admin": false
  },
  "created_at": "2015-05-31T19:14:30Z",
  "updated_at": "2015-05-31T19:14:30Z",
  "body": "@adamkdean A tremendous amount has happened.\r\nSee github.com/docker/libnetwork\r\nThis is now being used by Docker, which includes plugins support, as well.\r\nAnd see: #13441"
}
, {
  "url": "https://api.github.com/repos/docker/docker/issues/comments/107251653",
  "html_url": "https://github.com/docker/docker/issues/7467#issuecomment-107251653",
  "issue_url": "https://api.github.com/repos/docker/docker/issues/7467",
  "id": 107251653,
  "user": {
    "login": "erikh",
    "id": 18923,
    "avatar_url": "https://avatars.githubusercontent.com/u/18923?v=3",
    "gravatar_id": "",
    "url": "https://api.github.com/users/erikh",
    "html_url": "https://github.com/erikh",
    "followers_url": "https://api.github.com/users/erikh/followers",
    "following_url": "https://api.github.com/users/erikh/following{/other_user}",
    "gists_url": "https://api.github.com/users/erikh/gists{/gist_id}",
    "starred_url": "https://api.github.com/users/erikh/starred{/owner}{/repo}",
    "subscriptions_url": "https://api.github.com/users/erikh/subscriptions",
    "organizations_url": "https://api.github.com/users/erikh/orgs",
    "repos_url": "https://api.github.com/users/erikh/repos",
    "events_url": "https://api.github.com/users/erikh/events{/privacy}",
    "received_events_url": "https://api.github.com/users/erikh/received_events",
    "type": "User",
    "site_admin": false
  },
  "created_at": "2015-05-31T22:03:55Z",
  "updated_at": "2015-05-31T22:03:55Z",
  "body": "We should probably close this."
}
]
