[
{
  "url": "https://api.github.com/repos/docker/docker/issues/comments/32431798",
  "html_url": "https://github.com/docker/docker/pull/3616#issuecomment-32431798",
  "issue_url": "https://api.github.com/repos/docker/docker/issues/3616",
  "id": 32431798,
  "user": {
    "login": "unclejack",
    "id": 1409668,
    "avatar_url": "https://avatars.githubusercontent.com/u/1409668?v=3",
    "gravatar_id": "",
    "url": "https://api.github.com/users/unclejack",
    "html_url": "https://github.com/unclejack",
    "followers_url": "https://api.github.com/users/unclejack/followers",
    "following_url": "https://api.github.com/users/unclejack/following{/other_user}",
    "gists_url": "https://api.github.com/users/unclejack/gists{/gist_id}",
    "starred_url": "https://api.github.com/users/unclejack/starred{/owner}{/repo}",
    "subscriptions_url": "https://api.github.com/users/unclejack/subscriptions",
    "organizations_url": "https://api.github.com/users/unclejack/orgs",
    "repos_url": "https://api.github.com/users/unclejack/repos",
    "events_url": "https://api.github.com/users/unclejack/events{/privacy}",
    "received_events_url": "https://api.github.com/users/unclejack/received_events",
    "type": "User",
    "site_admin": false
  },
  "created_at": "2014-01-16T00:41:41Z",
  "updated_at": "2014-01-16T00:41:41Z",
  "body": "LGTM"
}
, {
  "url": "https://api.github.com/repos/docker/docker/issues/comments/32433629",
  "html_url": "https://github.com/docker/docker/pull/3616#issuecomment-32433629",
  "issue_url": "https://api.github.com/repos/docker/docker/issues/3616",
  "id": 32433629,
  "user": {
    "login": "vieux",
    "id": 1032519,
    "avatar_url": "https://avatars.githubusercontent.com/u/1032519?v=3",
    "gravatar_id": "",
    "url": "https://api.github.com/users/vieux",
    "html_url": "https://github.com/vieux",
    "followers_url": "https://api.github.com/users/vieux/followers",
    "following_url": "https://api.github.com/users/vieux/following{/other_user}",
    "gists_url": "https://api.github.com/users/vieux/gists{/gist_id}",
    "starred_url": "https://api.github.com/users/vieux/starred{/owner}{/repo}",
    "subscriptions_url": "https://api.github.com/users/vieux/subscriptions",
    "organizations_url": "https://api.github.com/users/vieux/orgs",
    "repos_url": "https://api.github.com/users/vieux/repos",
    "events_url": "https://api.github.com/users/vieux/events{/privacy}",
    "received_events_url": "https://api.github.com/users/vieux/received_events",
    "type": "User",
    "site_admin": false
  },
  "created_at": "2014-01-16T01:13:37Z",
  "updated_at": "2014-01-16T01:13:37Z",
  "body": "ping @crosbymichael "
}
, {
  "url": "https://api.github.com/repos/docker/docker/issues/comments/32552150",
  "html_url": "https://github.com/docker/docker/pull/3616#issuecomment-32552150",
  "issue_url": "https://api.github.com/repos/docker/docker/issues/3616",
  "id": 32552150,
  "user": {
    "login": "crosbymichael",
    "id": 749551,
    "avatar_url": "https://avatars.githubusercontent.com/u/749551?v=3",
    "gravatar_id": "",
    "url": "https://api.github.com/users/crosbymichael",
    "html_url": "https://github.com/crosbymichael",
    "followers_url": "https://api.github.com/users/crosbymichael/followers",
    "following_url": "https://api.github.com/users/crosbymichael/following{/other_user}",
    "gists_url": "https://api.github.com/users/crosbymichael/gists{/gist_id}",
    "starred_url": "https://api.github.com/users/crosbymichael/starred{/owner}{/repo}",
    "subscriptions_url": "https://api.github.com/users/crosbymichael/subscriptions",
    "organizations_url": "https://api.github.com/users/crosbymichael/orgs",
    "repos_url": "https://api.github.com/users/crosbymichael/repos",
    "events_url": "https://api.github.com/users/crosbymichael/events{/privacy}",
    "received_events_url": "https://api.github.com/users/crosbymichael/received_events",
    "type": "User",
    "site_admin": false
  },
  "created_at": "2014-01-16T22:05:35Z",
  "updated_at": "2014-01-16T22:05:35Z",
  "body": "LGTM"
}
, {
  "url": "https://api.github.com/repos/docker/docker/issues/comments/32552185",
  "html_url": "https://github.com/docker/docker/pull/3616#issuecomment-32552185",
  "issue_url": "https://api.github.com/repos/docker/docker/issues/3616",
  "id": 32552185,
  "user": {
    "login": "crosbymichael",
    "id": 749551,
    "avatar_url": "https://avatars.githubusercontent.com/u/749551?v=3",
    "gravatar_id": "",
    "url": "https://api.github.com/users/crosbymichael",
    "html_url": "https://github.com/crosbymichael",
    "followers_url": "https://api.github.com/users/crosbymichael/followers",
    "following_url": "https://api.github.com/users/crosbymichael/following{/other_user}",
    "gists_url": "https://api.github.com/users/crosbymichael/gists{/gist_id}",
    "starred_url": "https://api.github.com/users/crosbymichael/starred{/owner}{/repo}",
    "subscriptions_url": "https://api.github.com/users/crosbymichael/subscriptions",
    "organizations_url": "https://api.github.com/users/crosbymichael/orgs",
    "repos_url": "https://api.github.com/users/crosbymichael/repos",
    "events_url": "https://api.github.com/users/crosbymichael/events{/privacy}",
    "received_events_url": "https://api.github.com/users/crosbymichael/received_events",
    "type": "User",
    "site_admin": false
  },
  "created_at": "2014-01-16T22:06:04Z",
  "updated_at": "2014-01-16T22:06:04Z",
  "body": "On a side note the test for `TestPostContainersAttachStderr` is writing about 100 hello's on new lines.  Is this correct? "
}
, {
  "url": "https://api.github.com/repos/docker/docker/issues/comments/32566019",
  "html_url": "https://github.com/docker/docker/pull/3616#issuecomment-32566019",
  "issue_url": "https://api.github.com/repos/docker/docker/issues/3616",
  "id": 32566019,
  "user": {
    "login": "vieux",
    "id": 1032519,
    "avatar_url": "https://avatars.githubusercontent.com/u/1032519?v=3",
    "gravatar_id": "",
    "url": "https://api.github.com/users/vieux",
    "html_url": "https://github.com/vieux",
    "followers_url": "https://api.github.com/users/vieux/followers",
    "following_url": "https://api.github.com/users/vieux/following{/other_user}",
    "gists_url": "https://api.github.com/users/vieux/gists{/gist_id}",
    "starred_url": "https://api.github.com/users/vieux/starred{/owner}{/repo}",
    "subscriptions_url": "https://api.github.com/users/vieux/subscriptions",
    "organizations_url": "https://api.github.com/users/vieux/orgs",
    "repos_url": "https://api.github.com/users/vieux/repos",
    "events_url": "https://api.github.com/users/vieux/events{/privacy}",
    "received_events_url": "https://api.github.com/users/vieux/received_events",
    "type": "User",
    "site_admin": false
  },
  "created_at": "2014-01-16T23:52:55Z",
  "updated_at": "2014-01-16T23:52:55Z",
  "body": "@crosbymichael unrelated to this PR :/\r\n"
}
]
