[
{
  "url": "https://api.github.com/repos/docker/docker/issues/comments/136944808",
  "html_url": "https://github.com/docker/docker/issues/15933#issuecomment-136944808",
  "issue_url": "https://api.github.com/repos/docker/docker/issues/15933",
  "id": 136944808,
  "user": {
    "login": "runcom",
    "id": 849915,
    "avatar_url": "https://avatars.githubusercontent.com/u/849915?v=3",
    "gravatar_id": "",
    "url": "https://api.github.com/users/runcom",
    "html_url": "https://github.com/runcom",
    "followers_url": "https://api.github.com/users/runcom/followers",
    "following_url": "https://api.github.com/users/runcom/following{/other_user}",
    "gists_url": "https://api.github.com/users/runcom/gists{/gist_id}",
    "starred_url": "https://api.github.com/users/runcom/starred{/owner}{/repo}",
    "subscriptions_url": "https://api.github.com/users/runcom/subscriptions",
    "organizations_url": "https://api.github.com/users/runcom/orgs",
    "repos_url": "https://api.github.com/users/runcom/repos",
    "events_url": "https://api.github.com/users/runcom/events{/privacy}",
    "received_events_url": "https://api.github.com/users/runcom/received_events",
    "type": "User",
    "site_admin": false
  },
  "created_at": "2015-09-02T05:52:48Z",
  "updated_at": "2015-09-02T05:52:48Z",
  "body": "seems like this has to do with specific fedora Docker pkg and as such I think it would be better to report this directly to their tracker rather than here cause we can't do anything (docker rpm repo doesn't add anything after version also)\r\n \r\nI'm closing but ping me if you think I'm mistaken "
}
, {
  "url": "https://api.github.com/repos/docker/docker/issues/comments/136945930",
  "html_url": "https://github.com/docker/docker/issues/15933#issuecomment-136945930",
  "issue_url": "https://api.github.com/repos/docker/docker/issues/15933",
  "id": 136945930,
  "user": {
    "login": "haosdent",
    "id": 950759,
    "avatar_url": "https://avatars.githubusercontent.com/u/950759?v=3",
    "gravatar_id": "",
    "url": "https://api.github.com/users/haosdent",
    "html_url": "https://github.com/haosdent",
    "followers_url": "https://api.github.com/users/haosdent/followers",
    "following_url": "https://api.github.com/users/haosdent/following{/other_user}",
    "gists_url": "https://api.github.com/users/haosdent/gists{/gist_id}",
    "starred_url": "https://api.github.com/users/haosdent/starred{/owner}{/repo}",
    "subscriptions_url": "https://api.github.com/users/haosdent/subscriptions",
    "organizations_url": "https://api.github.com/users/haosdent/orgs",
    "repos_url": "https://api.github.com/users/haosdent/repos",
    "events_url": "https://api.github.com/users/haosdent/events{/privacy}",
    "received_events_url": "https://api.github.com/users/haosdent/received_events",
    "type": "User",
    "site_admin": false
  },
  "created_at": "2015-09-02T06:01:00Z",
  "updated_at": "2015-09-02T06:01:00Z",
  "body": "Thank you very much!"
}
]
