[
{
  "url": "https://api.github.com/repos/docker/docker/issues/comments/45424216",
  "html_url": "https://github.com/docker/docker/pull/6261#issuecomment-45424216",
  "issue_url": "https://api.github.com/repos/docker/docker/issues/6261",
  "id": 45424216,
  "user": {
    "login": "unclejack",
    "id": 1409668,
    "avatar_url": "https://avatars.githubusercontent.com/u/1409668?v=3",
    "gravatar_id": "",
    "url": "https://api.github.com/users/unclejack",
    "html_url": "https://github.com/unclejack",
    "followers_url": "https://api.github.com/users/unclejack/followers",
    "following_url": "https://api.github.com/users/unclejack/following{/other_user}",
    "gists_url": "https://api.github.com/users/unclejack/gists{/gist_id}",
    "starred_url": "https://api.github.com/users/unclejack/starred{/owner}{/repo}",
    "subscriptions_url": "https://api.github.com/users/unclejack/subscriptions",
    "organizations_url": "https://api.github.com/users/unclejack/orgs",
    "repos_url": "https://api.github.com/users/unclejack/repos",
    "events_url": "https://api.github.com/users/unclejack/events{/privacy}",
    "received_events_url": "https://api.github.com/users/unclejack/received_events",
    "type": "User",
    "site_admin": false
  },
  "created_at": "2014-06-07T23:47:49Z",
  "updated_at": "2014-06-07T23:47:49Z",
  "body": "ping @alexlarsson @crosbymichael @vieux "
}
, {
  "url": "https://api.github.com/repos/docker/docker/issues/comments/45477269",
  "html_url": "https://github.com/docker/docker/pull/6261#issuecomment-45477269",
  "issue_url": "https://api.github.com/repos/docker/docker/issues/6261",
  "id": 45477269,
  "user": {
    "login": "alexlarsson",
    "id": 990736,
    "avatar_url": "https://avatars.githubusercontent.com/u/990736?v=3",
    "gravatar_id": "",
    "url": "https://api.github.com/users/alexlarsson",
    "html_url": "https://github.com/alexlarsson",
    "followers_url": "https://api.github.com/users/alexlarsson/followers",
    "following_url": "https://api.github.com/users/alexlarsson/following{/other_user}",
    "gists_url": "https://api.github.com/users/alexlarsson/gists{/gist_id}",
    "starred_url": "https://api.github.com/users/alexlarsson/starred{/owner}{/repo}",
    "subscriptions_url": "https://api.github.com/users/alexlarsson/subscriptions",
    "organizations_url": "https://api.github.com/users/alexlarsson/orgs",
    "repos_url": "https://api.github.com/users/alexlarsson/repos",
    "events_url": "https://api.github.com/users/alexlarsson/events{/privacy}",
    "received_events_url": "https://api.github.com/users/alexlarsson/received_events",
    "type": "User",
    "site_admin": false
  },
  "created_at": "2014-06-09T10:12:28Z",
  "updated_at": "2014-06-09T10:12:28Z",
  "body": "This doesn't seem right to me. It includes the init layer of the container in the commited image, so the result might not be the same as a normal commit. Otoh, if we allow this we could do similar optimizations for devicemapper.\r\n\r\nThe OptimizedCommit boolean is kind of weird. For e.g. diff we do the optional implementation via the Differ interface. In general, the whole thing looks a bit bolted on. If we want this we should just make Commit be an always-supported API in the driver, and supply helper functions to implement it easily."
}
, {
  "url": "https://api.github.com/repos/docker/docker/issues/comments/46915941",
  "html_url": "https://github.com/docker/docker/pull/6261#issuecomment-46915941",
  "issue_url": "https://api.github.com/repos/docker/docker/issues/6261",
  "id": 46915941,
  "user": {
    "login": "unclejack",
    "id": 1409668,
    "avatar_url": "https://avatars.githubusercontent.com/u/1409668?v=3",
    "gravatar_id": "",
    "url": "https://api.github.com/users/unclejack",
    "html_url": "https://github.com/unclejack",
    "followers_url": "https://api.github.com/users/unclejack/followers",
    "following_url": "https://api.github.com/users/unclejack/following{/other_user}",
    "gists_url": "https://api.github.com/users/unclejack/gists{/gist_id}",
    "starred_url": "https://api.github.com/users/unclejack/starred{/owner}{/repo}",
    "subscriptions_url": "https://api.github.com/users/unclejack/subscriptions",
    "organizations_url": "https://api.github.com/users/unclejack/orgs",
    "repos_url": "https://api.github.com/users/unclejack/repos",
    "events_url": "https://api.github.com/users/unclejack/events{/privacy}",
    "received_events_url": "https://api.github.com/users/unclejack/received_events",
    "type": "User",
    "site_admin": false
  },
  "created_at": "2014-06-23T23:38:53Z",
  "updated_at": "2014-06-23T23:38:53Z",
  "body": "@alexlarsson I've updated the code to refactor the commit.\r\n\r\nHowever, the optimized btrfs and devicemapper commit code is more complex than it seemed at first."
}
, {
  "url": "https://api.github.com/repos/docker/docker/issues/comments/47350396",
  "html_url": "https://github.com/docker/docker/pull/6261#issuecomment-47350396",
  "issue_url": "https://api.github.com/repos/docker/docker/issues/6261",
  "id": 47350396,
  "user": {
    "login": "vbatts",
    "id": 67049,
    "avatar_url": "https://avatars.githubusercontent.com/u/67049?v=3",
    "gravatar_id": "",
    "url": "https://api.github.com/users/vbatts",
    "html_url": "https://github.com/vbatts",
    "followers_url": "https://api.github.com/users/vbatts/followers",
    "following_url": "https://api.github.com/users/vbatts/following{/other_user}",
    "gists_url": "https://api.github.com/users/vbatts/gists{/gist_id}",
    "starred_url": "https://api.github.com/users/vbatts/starred{/owner}{/repo}",
    "subscriptions_url": "https://api.github.com/users/vbatts/subscriptions",
    "organizations_url": "https://api.github.com/users/vbatts/orgs",
    "repos_url": "https://api.github.com/users/vbatts/repos",
    "events_url": "https://api.github.com/users/vbatts/events{/privacy}",
    "received_events_url": "https://api.github.com/users/vbatts/received_events",
    "type": "User",
    "site_admin": false
  },
  "created_at": "2014-06-27T14:20:15Z",
  "updated_at": "2014-06-27T14:20:15Z",
  "body": "@unclejack on a simple test scenario, it is running a little slower than without this refactor http://fpaste.org/113790/38787561/"
}
, {
  "url": "https://api.github.com/repos/docker/docker/issues/comments/47351947",
  "html_url": "https://github.com/docker/docker/pull/6261#issuecomment-47351947",
  "issue_url": "https://api.github.com/repos/docker/docker/issues/6261",
  "id": 47351947,
  "user": {
    "login": "unclejack",
    "id": 1409668,
    "avatar_url": "https://avatars.githubusercontent.com/u/1409668?v=3",
    "gravatar_id": "",
    "url": "https://api.github.com/users/unclejack",
    "html_url": "https://github.com/unclejack",
    "followers_url": "https://api.github.com/users/unclejack/followers",
    "following_url": "https://api.github.com/users/unclejack/following{/other_user}",
    "gists_url": "https://api.github.com/users/unclejack/gists{/gist_id}",
    "starred_url": "https://api.github.com/users/unclejack/starred{/owner}{/repo}",
    "subscriptions_url": "https://api.github.com/users/unclejack/subscriptions",
    "organizations_url": "https://api.github.com/users/unclejack/orgs",
    "repos_url": "https://api.github.com/users/unclejack/repos",
    "events_url": "https://api.github.com/users/unclejack/events{/privacy}",
    "received_events_url": "https://api.github.com/users/unclejack/received_events",
    "type": "User",
    "site_admin": false
  },
  "created_at": "2014-06-27T14:33:10Z",
  "updated_at": "2014-06-27T14:33:10Z",
  "body": "@vbatts The difference is rather small and this refactoring should speed things up a bit once it's done, not slow them down. It's not done yet.\r\n\r\nHowever, the really important parts aren't there: we need to use btrfs snapshotting and devicemapper snapshotting together with a three way (or equivalent) diff for the container--init--parent image.\r\n\r\nOnce we've made those optimizations, it should become much faster."
}
, {
  "url": "https://api.github.com/repos/docker/docker/issues/comments/47384192",
  "html_url": "https://github.com/docker/docker/pull/6261#issuecomment-47384192",
  "issue_url": "https://api.github.com/repos/docker/docker/issues/6261",
  "id": 47384192,
  "user": {
    "login": "vbatts",
    "id": 67049,
    "avatar_url": "https://avatars.githubusercontent.com/u/67049?v=3",
    "gravatar_id": "",
    "url": "https://api.github.com/users/vbatts",
    "html_url": "https://github.com/vbatts",
    "followers_url": "https://api.github.com/users/vbatts/followers",
    "following_url": "https://api.github.com/users/vbatts/following{/other_user}",
    "gists_url": "https://api.github.com/users/vbatts/gists{/gist_id}",
    "starred_url": "https://api.github.com/users/vbatts/starred{/owner}{/repo}",
    "subscriptions_url": "https://api.github.com/users/vbatts/subscriptions",
    "organizations_url": "https://api.github.com/users/vbatts/orgs",
    "repos_url": "https://api.github.com/users/vbatts/repos",
    "events_url": "https://api.github.com/users/vbatts/events{/privacy}",
    "received_events_url": "https://api.github.com/users/vbatts/received_events",
    "type": "User",
    "site_admin": false
  },
  "created_at": "2014-06-27T18:28:18Z",
  "updated_at": "2014-06-27T18:28:18Z",
  "body": "@unclejack sounds good. A nit, could there be some comments added? I know stuff like the Driver interface are clean from comments, but anytime is a good time to fix that :-)\r\n\r\n"
}
, {
  "url": "https://api.github.com/repos/docker/docker/issues/comments/47384418",
  "html_url": "https://github.com/docker/docker/pull/6261#issuecomment-47384418",
  "issue_url": "https://api.github.com/repos/docker/docker/issues/6261",
  "id": 47384418,
  "user": {
    "login": "unclejack",
    "id": 1409668,
    "avatar_url": "https://avatars.githubusercontent.com/u/1409668?v=3",
    "gravatar_id": "",
    "url": "https://api.github.com/users/unclejack",
    "html_url": "https://github.com/unclejack",
    "followers_url": "https://api.github.com/users/unclejack/followers",
    "following_url": "https://api.github.com/users/unclejack/following{/other_user}",
    "gists_url": "https://api.github.com/users/unclejack/gists{/gist_id}",
    "starred_url": "https://api.github.com/users/unclejack/starred{/owner}{/repo}",
    "subscriptions_url": "https://api.github.com/users/unclejack/subscriptions",
    "organizations_url": "https://api.github.com/users/unclejack/orgs",
    "repos_url": "https://api.github.com/users/unclejack/repos",
    "events_url": "https://api.github.com/users/unclejack/events{/privacy}",
    "received_events_url": "https://api.github.com/users/unclejack/received_events",
    "type": "User",
    "site_admin": false
  },
  "created_at": "2014-06-27T18:30:15Z",
  "updated_at": "2014-06-27T18:30:15Z",
  "body": "@vbatts Sure, this is just a starting point to have something to look at and discuss about the implementation of the optimized diff. I'll document the commit process properly for each driver."
}
, {
  "url": "https://api.github.com/repos/docker/docker/issues/comments/50635295",
  "html_url": "https://github.com/docker/docker/pull/6261#issuecomment-50635295",
  "issue_url": "https://api.github.com/repos/docker/docker/issues/6261",
  "id": 50635295,
  "user": {
    "login": "unclejack",
    "id": 1409668,
    "avatar_url": "https://avatars.githubusercontent.com/u/1409668?v=3",
    "gravatar_id": "",
    "url": "https://api.github.com/users/unclejack",
    "html_url": "https://github.com/unclejack",
    "followers_url": "https://api.github.com/users/unclejack/followers",
    "following_url": "https://api.github.com/users/unclejack/following{/other_user}",
    "gists_url": "https://api.github.com/users/unclejack/gists{/gist_id}",
    "starred_url": "https://api.github.com/users/unclejack/starred{/owner}{/repo}",
    "subscriptions_url": "https://api.github.com/users/unclejack/subscriptions",
    "organizations_url": "https://api.github.com/users/unclejack/orgs",
    "repos_url": "https://api.github.com/users/unclejack/repos",
    "events_url": "https://api.github.com/users/unclejack/events{/privacy}",
    "received_events_url": "https://api.github.com/users/unclejack/received_events",
    "type": "User",
    "site_admin": false
  },
  "created_at": "2014-07-30T15:56:10Z",
  "updated_at": "2014-07-30T15:56:10Z",
  "body": "I'm closing this for now. We can discuss it later."
}
, {
  "url": "https://api.github.com/repos/docker/docker/issues/comments/52024734",
  "html_url": "https://github.com/docker/docker/pull/6261#issuecomment-52024734",
  "issue_url": "https://api.github.com/repos/docker/docker/issues/6261",
  "id": 52024734,
  "user": {
    "login": "unclejack",
    "id": 1409668,
    "avatar_url": "https://avatars.githubusercontent.com/u/1409668?v=3",
    "gravatar_id": "",
    "url": "https://api.github.com/users/unclejack",
    "html_url": "https://github.com/unclejack",
    "followers_url": "https://api.github.com/users/unclejack/followers",
    "following_url": "https://api.github.com/users/unclejack/following{/other_user}",
    "gists_url": "https://api.github.com/users/unclejack/gists{/gist_id}",
    "starred_url": "https://api.github.com/users/unclejack/starred{/owner}{/repo}",
    "subscriptions_url": "https://api.github.com/users/unclejack/subscriptions",
    "organizations_url": "https://api.github.com/users/unclejack/orgs",
    "repos_url": "https://api.github.com/users/unclejack/repos",
    "events_url": "https://api.github.com/users/unclejack/events{/privacy}",
    "received_events_url": "https://api.github.com/users/unclejack/received_events",
    "type": "User",
    "site_admin": false
  },
  "created_at": "2014-08-13T09:00:11Z",
  "updated_at": "2014-08-13T09:00:11Z",
  "body": "@alexlarsson Can you take a look at this, please?"
}
, {
  "url": "https://api.github.com/repos/docker/docker/issues/comments/52914367",
  "html_url": "https://github.com/docker/docker/pull/6261#issuecomment-52914367",
  "issue_url": "https://api.github.com/repos/docker/docker/issues/6261",
  "id": 52914367,
  "user": {
    "login": "unclejack",
    "id": 1409668,
    "avatar_url": "https://avatars.githubusercontent.com/u/1409668?v=3",
    "gravatar_id": "",
    "url": "https://api.github.com/users/unclejack",
    "html_url": "https://github.com/unclejack",
    "followers_url": "https://api.github.com/users/unclejack/followers",
    "following_url": "https://api.github.com/users/unclejack/following{/other_user}",
    "gists_url": "https://api.github.com/users/unclejack/gists{/gist_id}",
    "starred_url": "https://api.github.com/users/unclejack/starred{/owner}{/repo}",
    "subscriptions_url": "https://api.github.com/users/unclejack/subscriptions",
    "organizations_url": "https://api.github.com/users/unclejack/orgs",
    "repos_url": "https://api.github.com/users/unclejack/repos",
    "events_url": "https://api.github.com/users/unclejack/events{/privacy}",
    "received_events_url": "https://api.github.com/users/unclejack/received_events",
    "type": "User",
    "site_admin": false
  },
  "created_at": "2014-08-21T12:45:09Z",
  "updated_at": "2014-08-21T12:45:09Z",
  "body": "A rebased version of this PR can be found here: https://github.com/unclejack/docker/commit/05efa76cb2c78490b7dbb3ece175877102d07353"
}
]
