[
{
  "url": "https://api.github.com/repos/docker/docker/issues/comments/35418258",
  "html_url": "https://github.com/docker/docker/pull/4206#issuecomment-35418258",
  "issue_url": "https://api.github.com/repos/docker/docker/issues/4206",
  "id": 35418258,
  "user": {
    "login": "tianon",
    "id": 161631,
    "avatar_url": "https://avatars.githubusercontent.com/u/161631?v=3",
    "gravatar_id": "",
    "url": "https://api.github.com/users/tianon",
    "html_url": "https://github.com/tianon",
    "followers_url": "https://api.github.com/users/tianon/followers",
    "following_url": "https://api.github.com/users/tianon/following{/other_user}",
    "gists_url": "https://api.github.com/users/tianon/gists{/gist_id}",
    "starred_url": "https://api.github.com/users/tianon/starred{/owner}{/repo}",
    "subscriptions_url": "https://api.github.com/users/tianon/subscriptions",
    "organizations_url": "https://api.github.com/users/tianon/orgs",
    "repos_url": "https://api.github.com/users/tianon/repos",
    "events_url": "https://api.github.com/users/tianon/events{/privacy}",
    "received_events_url": "https://api.github.com/users/tianon/received_events",
    "type": "User",
    "site_admin": false
  },
  "created_at": "2014-02-18T18:45:14Z",
  "updated_at": "2014-02-18T18:45:14Z",
  "body": "Just need a humble volunteer to look at my shell syntax here and make sure I didn't bork up the arguments being passed in."
}
, {
  "url": "https://api.github.com/repos/docker/docker/issues/comments/35418404",
  "html_url": "https://github.com/docker/docker/pull/4206#issuecomment-35418404",
  "issue_url": "https://api.github.com/repos/docker/docker/issues/4206",
  "id": 35418404,
  "user": {
    "login": "crosbymichael",
    "id": 749551,
    "avatar_url": "https://avatars.githubusercontent.com/u/749551?v=3",
    "gravatar_id": "",
    "url": "https://api.github.com/users/crosbymichael",
    "html_url": "https://github.com/crosbymichael",
    "followers_url": "https://api.github.com/users/crosbymichael/followers",
    "following_url": "https://api.github.com/users/crosbymichael/following{/other_user}",
    "gists_url": "https://api.github.com/users/crosbymichael/gists{/gist_id}",
    "starred_url": "https://api.github.com/users/crosbymichael/starred{/owner}{/repo}",
    "subscriptions_url": "https://api.github.com/users/crosbymichael/subscriptions",
    "organizations_url": "https://api.github.com/users/crosbymichael/orgs",
    "repos_url": "https://api.github.com/users/crosbymichael/repos",
    "events_url": "https://api.github.com/users/crosbymichael/events{/privacy}",
    "received_events_url": "https://api.github.com/users/crosbymichael/received_events",
    "type": "User",
    "site_admin": false
  },
  "created_at": "2014-02-18T18:46:29Z",
  "updated_at": "2014-02-18T18:46:29Z",
  "body": "i'll do it"
}
, {
  "url": "https://api.github.com/repos/docker/docker/issues/comments/35418759",
  "html_url": "https://github.com/docker/docker/pull/4206#issuecomment-35418759",
  "issue_url": "https://api.github.com/repos/docker/docker/issues/4206",
  "id": 35418759,
  "user": {
    "login": "crosbymichael",
    "id": 749551,
    "avatar_url": "https://avatars.githubusercontent.com/u/749551?v=3",
    "gravatar_id": "",
    "url": "https://api.github.com/users/crosbymichael",
    "html_url": "https://github.com/crosbymichael",
    "followers_url": "https://api.github.com/users/crosbymichael/followers",
    "following_url": "https://api.github.com/users/crosbymichael/following{/other_user}",
    "gists_url": "https://api.github.com/users/crosbymichael/gists{/gist_id}",
    "starred_url": "https://api.github.com/users/crosbymichael/starred{/owner}{/repo}",
    "subscriptions_url": "https://api.github.com/users/crosbymichael/subscriptions",
    "organizations_url": "https://api.github.com/users/crosbymichael/orgs",
    "repos_url": "https://api.github.com/users/crosbymichael/repos",
    "events_url": "https://api.github.com/users/crosbymichael/events{/privacy}",
    "received_events_url": "https://api.github.com/users/crosbymichael/received_events",
    "type": "User",
    "site_admin": false
  },
  "created_at": "2014-02-18T18:49:40Z",
  "updated_at": "2014-02-18T18:49:40Z",
  "body": "LGTM"
}
]
