[
{
  "url": "https://api.github.com/repos/docker/docker/issues/comments/122033785",
  "html_url": "https://github.com/docker/docker/pull/14683#issuecomment-122033785",
  "issue_url": "https://api.github.com/repos/docker/docker/issues/14683",
  "id": 122033785,
  "user": {
    "login": "duglin",
    "id": 1944671,
    "avatar_url": "https://avatars.githubusercontent.com/u/1944671?v=3",
    "gravatar_id": "",
    "url": "https://api.github.com/users/duglin",
    "html_url": "https://github.com/duglin",
    "followers_url": "https://api.github.com/users/duglin/followers",
    "following_url": "https://api.github.com/users/duglin/following{/other_user}",
    "gists_url": "https://api.github.com/users/duglin/gists{/gist_id}",
    "starred_url": "https://api.github.com/users/duglin/starred{/owner}{/repo}",
    "subscriptions_url": "https://api.github.com/users/duglin/subscriptions",
    "organizations_url": "https://api.github.com/users/duglin/orgs",
    "repos_url": "https://api.github.com/users/duglin/repos",
    "events_url": "https://api.github.com/users/duglin/events{/privacy}",
    "received_events_url": "https://api.github.com/users/duglin/received_events",
    "type": "User",
    "site_admin": false
  },
  "created_at": "2015-07-16T17:50:07Z",
  "updated_at": "2015-07-16T17:50:07Z",
  "body": "LGTM"
}
, {
  "url": "https://api.github.com/repos/docker/docker/issues/comments/122036421",
  "html_url": "https://github.com/docker/docker/pull/14683#issuecomment-122036421",
  "issue_url": "https://api.github.com/repos/docker/docker/issues/14683",
  "id": 122036421,
  "user": {
    "login": "dmp42",
    "id": 332946,
    "avatar_url": "https://avatars.githubusercontent.com/u/332946?v=3",
    "gravatar_id": "",
    "url": "https://api.github.com/users/dmp42",
    "html_url": "https://github.com/dmp42",
    "followers_url": "https://api.github.com/users/dmp42/followers",
    "following_url": "https://api.github.com/users/dmp42/following{/other_user}",
    "gists_url": "https://api.github.com/users/dmp42/gists{/gist_id}",
    "starred_url": "https://api.github.com/users/dmp42/starred{/owner}{/repo}",
    "subscriptions_url": "https://api.github.com/users/dmp42/subscriptions",
    "organizations_url": "https://api.github.com/users/dmp42/orgs",
    "repos_url": "https://api.github.com/users/dmp42/repos",
    "events_url": "https://api.github.com/users/dmp42/events{/privacy}",
    "received_events_url": "https://api.github.com/users/dmp42/received_events",
    "type": "User",
    "site_admin": false
  },
  "created_at": "2015-07-16T18:01:28Z",
  "updated_at": "2015-07-16T18:01:28Z",
  "body": "@calavera that requires modifying documentation over there: https://github.com/docker/distribution/blob/master/docs/authentication.md and probably https://github.com/docker/distribution/blob/master/docs/deploying.md since these document hard require HTTPS for auth."
}
, {
  "url": "https://api.github.com/repos/docker/docker/issues/comments/122047015",
  "html_url": "https://github.com/docker/docker/pull/14683#issuecomment-122047015",
  "issue_url": "https://api.github.com/repos/docker/docker/issues/14683",
  "id": 122047015,
  "user": {
    "login": "ewindisch",
    "id": 73207,
    "avatar_url": "https://avatars.githubusercontent.com/u/73207?v=3",
    "gravatar_id": "",
    "url": "https://api.github.com/users/ewindisch",
    "html_url": "https://github.com/ewindisch",
    "followers_url": "https://api.github.com/users/ewindisch/followers",
    "following_url": "https://api.github.com/users/ewindisch/following{/other_user}",
    "gists_url": "https://api.github.com/users/ewindisch/gists{/gist_id}",
    "starred_url": "https://api.github.com/users/ewindisch/starred{/owner}{/repo}",
    "subscriptions_url": "https://api.github.com/users/ewindisch/subscriptions",
    "organizations_url": "https://api.github.com/users/ewindisch/orgs",
    "repos_url": "https://api.github.com/users/ewindisch/repos",
    "events_url": "https://api.github.com/users/ewindisch/events{/privacy}",
    "received_events_url": "https://api.github.com/users/ewindisch/received_events",
    "type": "User",
    "site_admin": false
  },
  "created_at": "2015-07-16T18:46:01Z",
  "updated_at": "2015-07-16T18:46:01Z",
  "body": "Do not want. One major issue is that the insecure-registry setting is daemon-level, but the authentication details are provided by the *client*. The client trusts the daemon not to willy-nilly send those credentials in cleartext over the wire."
}
, {
  "url": "https://api.github.com/repos/docker/docker/issues/comments/122049291",
  "html_url": "https://github.com/docker/docker/pull/14683#issuecomment-122049291",
  "issue_url": "https://api.github.com/repos/docker/docker/issues/14683",
  "id": 122049291,
  "user": {
    "login": "duglin",
    "id": 1944671,
    "avatar_url": "https://avatars.githubusercontent.com/u/1944671?v=3",
    "gravatar_id": "",
    "url": "https://api.github.com/users/duglin",
    "html_url": "https://github.com/duglin",
    "followers_url": "https://api.github.com/users/duglin/followers",
    "following_url": "https://api.github.com/users/duglin/following{/other_user}",
    "gists_url": "https://api.github.com/users/duglin/gists{/gist_id}",
    "starred_url": "https://api.github.com/users/duglin/starred{/owner}{/repo}",
    "subscriptions_url": "https://api.github.com/users/duglin/subscriptions",
    "organizations_url": "https://api.github.com/users/duglin/orgs",
    "repos_url": "https://api.github.com/users/duglin/repos",
    "events_url": "https://api.github.com/users/duglin/events{/privacy}",
    "received_events_url": "https://api.github.com/users/duglin/received_events",
    "type": "User",
    "site_admin": false
  },
  "created_at": "2015-07-16T18:53:05Z",
  "updated_at": "2015-07-16T18:53:05Z",
  "body": "To me this isn't actually allowing anything new - its just removing a specialized error msg and letting the default error processing handle it.  IOW, 401 is no longer special-cased. Unless I missed something."
}
, {
  "url": "https://api.github.com/repos/docker/docker/issues/comments/122051853",
  "html_url": "https://github.com/docker/docker/pull/14683#issuecomment-122051853",
  "issue_url": "https://api.github.com/repos/docker/docker/issues/14683",
  "id": 122051853,
  "user": {
    "login": "ewindisch",
    "id": 73207,
    "avatar_url": "https://avatars.githubusercontent.com/u/73207?v=3",
    "gravatar_id": "",
    "url": "https://api.github.com/users/ewindisch",
    "html_url": "https://github.com/ewindisch",
    "followers_url": "https://api.github.com/users/ewindisch/followers",
    "following_url": "https://api.github.com/users/ewindisch/following{/other_user}",
    "gists_url": "https://api.github.com/users/ewindisch/gists{/gist_id}",
    "starred_url": "https://api.github.com/users/ewindisch/starred{/owner}{/repo}",
    "subscriptions_url": "https://api.github.com/users/ewindisch/subscriptions",
    "organizations_url": "https://api.github.com/users/ewindisch/orgs",
    "repos_url": "https://api.github.com/users/ewindisch/repos",
    "events_url": "https://api.github.com/users/ewindisch/events{/privacy}",
    "received_events_url": "https://api.github.com/users/ewindisch/received_events",
    "type": "User",
    "site_admin": false
  },
  "created_at": "2015-07-16T19:04:53Z",
  "updated_at": "2015-07-16T19:04:53Z",
  "body": "@duglin that's true of the current patch but the commit message describes and links to #9570 "
}
, {
  "url": "https://api.github.com/repos/docker/docker/issues/comments/122057760",
  "html_url": "https://github.com/docker/docker/pull/14683#issuecomment-122057760",
  "issue_url": "https://api.github.com/repos/docker/docker/issues/14683",
  "id": 122057760,
  "user": {
    "login": "dmp42",
    "id": 332946,
    "avatar_url": "https://avatars.githubusercontent.com/u/332946?v=3",
    "gravatar_id": "",
    "url": "https://api.github.com/users/dmp42",
    "html_url": "https://github.com/dmp42",
    "followers_url": "https://api.github.com/users/dmp42/followers",
    "following_url": "https://api.github.com/users/dmp42/following{/other_user}",
    "gists_url": "https://api.github.com/users/dmp42/gists{/gist_id}",
    "starred_url": "https://api.github.com/users/dmp42/starred{/owner}{/repo}",
    "subscriptions_url": "https://api.github.com/users/dmp42/subscriptions",
    "organizations_url": "https://api.github.com/users/dmp42/orgs",
    "repos_url": "https://api.github.com/users/dmp42/repos",
    "events_url": "https://api.github.com/users/dmp42/events{/privacy}",
    "received_events_url": "https://api.github.com/users/dmp42/received_events",
    "type": "User",
    "site_admin": false
  },
  "created_at": "2015-07-16T19:21:31Z",
  "updated_at": "2015-07-16T19:21:31Z",
  "body": "@ewindisch not allowing authentication over plain http is a problem.\r\n\r\nAlso, ---insecure is a daemon level setting as well, and there is no way from the client perspective to know that his data (eg: images) is being transmitted over plain text or not.\r\nIMHO, sensitive image layers are at least as sensitive as credentials.\r\n\r\nTrue, auth over plain text is not an efficient security feature - it's still a feature, and if people are explicitly stating --insecure, they should be allowed to do that.\r\n\r\nWDYT?"
}
, {
  "url": "https://api.github.com/repos/docker/docker/issues/comments/122066450",
  "html_url": "https://github.com/docker/docker/pull/14683#issuecomment-122066450",
  "issue_url": "https://api.github.com/repos/docker/docker/issues/14683",
  "id": 122066450,
  "user": {
    "login": "ewindisch",
    "id": 73207,
    "avatar_url": "https://avatars.githubusercontent.com/u/73207?v=3",
    "gravatar_id": "",
    "url": "https://api.github.com/users/ewindisch",
    "html_url": "https://github.com/ewindisch",
    "followers_url": "https://api.github.com/users/ewindisch/followers",
    "following_url": "https://api.github.com/users/ewindisch/following{/other_user}",
    "gists_url": "https://api.github.com/users/ewindisch/gists{/gist_id}",
    "starred_url": "https://api.github.com/users/ewindisch/starred{/owner}{/repo}",
    "subscriptions_url": "https://api.github.com/users/ewindisch/subscriptions",
    "organizations_url": "https://api.github.com/users/ewindisch/orgs",
    "repos_url": "https://api.github.com/users/ewindisch/repos",
    "events_url": "https://api.github.com/users/ewindisch/events{/privacy}",
    "received_events_url": "https://api.github.com/users/ewindisch/received_events",
    "type": "User",
    "site_admin": false
  },
  "created_at": "2015-07-16T19:43:19Z",
  "updated_at": "2015-07-16T19:43:19Z",
  "body": "@dmp42 I personally think that --insecure-registry should be on the client side, period. However, various historical and reasons of, \"it just works\", it is implemented as it is today.\r\n\r\nWhile running potentially malicious containers is (very) bad, sending an end-user's auth over the wire in  cleartext without an opt-in is even worse."
}
, {
  "url": "https://api.github.com/repos/docker/docker/issues/comments/122069849",
  "html_url": "https://github.com/docker/docker/pull/14683#issuecomment-122069849",
  "issue_url": "https://api.github.com/repos/docker/docker/issues/14683",
  "id": 122069849,
  "user": {
    "login": "dmp42",
    "id": 332946,
    "avatar_url": "https://avatars.githubusercontent.com/u/332946?v=3",
    "gravatar_id": "",
    "url": "https://api.github.com/users/dmp42",
    "html_url": "https://github.com/dmp42",
    "followers_url": "https://api.github.com/users/dmp42/followers",
    "following_url": "https://api.github.com/users/dmp42/following{/other_user}",
    "gists_url": "https://api.github.com/users/dmp42/gists{/gist_id}",
    "starred_url": "https://api.github.com/users/dmp42/starred{/owner}{/repo}",
    "subscriptions_url": "https://api.github.com/users/dmp42/subscriptions",
    "organizations_url": "https://api.github.com/users/dmp42/orgs",
    "repos_url": "https://api.github.com/users/dmp42/repos",
    "events_url": "https://api.github.com/users/dmp42/events{/privacy}",
    "received_events_url": "https://api.github.com/users/dmp42/received_events",
    "type": "User",
    "site_admin": false
  },
  "created_at": "2015-07-16T19:53:10Z",
  "updated_at": "2015-07-16T19:53:10Z",
  "body": "@ewindisch to my eyes, the current situation is that we have an (daemon level) opt-in (--insecure) that basically allow a simple MITM to execute arbitrary code, but in that scenario we cling on refusing to send credentials in the name of best practice.\r\n\r\nMy point is just that we are not really coherent here, and causing user headaches without any real added security...   "
}
, {
  "url": "https://api.github.com/repos/docker/docker/issues/comments/122069916",
  "html_url": "https://github.com/docker/docker/pull/14683#issuecomment-122069916",
  "issue_url": "https://api.github.com/repos/docker/docker/issues/14683",
  "id": 122069916,
  "user": {
    "login": "calavera",
    "id": 1050,
    "avatar_url": "https://avatars.githubusercontent.com/u/1050?v=3",
    "gravatar_id": "",
    "url": "https://api.github.com/users/calavera",
    "html_url": "https://github.com/calavera",
    "followers_url": "https://api.github.com/users/calavera/followers",
    "following_url": "https://api.github.com/users/calavera/following{/other_user}",
    "gists_url": "https://api.github.com/users/calavera/gists{/gist_id}",
    "starred_url": "https://api.github.com/users/calavera/starred{/owner}{/repo}",
    "subscriptions_url": "https://api.github.com/users/calavera/subscriptions",
    "organizations_url": "https://api.github.com/users/calavera/orgs",
    "repos_url": "https://api.github.com/users/calavera/repos",
    "events_url": "https://api.github.com/users/calavera/events{/privacy}",
    "received_events_url": "https://api.github.com/users/calavera/received_events",
    "type": "User",
    "site_admin": false
  },
  "created_at": "2015-07-16T19:53:32Z",
  "updated_at": "2015-07-16T19:53:32Z",
  "body": "@ewindisch if we allow people to use http we should not restrict its usage. So, either we stop allowing http or we fully supported, but we should not restrict what the protocol allows."
}
, {
  "url": "https://api.github.com/repos/docker/docker/issues/comments/122072209",
  "html_url": "https://github.com/docker/docker/pull/14683#issuecomment-122072209",
  "issue_url": "https://api.github.com/repos/docker/docker/issues/14683",
  "id": 122072209,
  "user": {
    "login": "cpuguy83",
    "id": 799078,
    "avatar_url": "https://avatars.githubusercontent.com/u/799078?v=3",
    "gravatar_id": "",
    "url": "https://api.github.com/users/cpuguy83",
    "html_url": "https://github.com/cpuguy83",
    "followers_url": "https://api.github.com/users/cpuguy83/followers",
    "following_url": "https://api.github.com/users/cpuguy83/following{/other_user}",
    "gists_url": "https://api.github.com/users/cpuguy83/gists{/gist_id}",
    "starred_url": "https://api.github.com/users/cpuguy83/starred{/owner}{/repo}",
    "subscriptions_url": "https://api.github.com/users/cpuguy83/subscriptions",
    "organizations_url": "https://api.github.com/users/cpuguy83/orgs",
    "repos_url": "https://api.github.com/users/cpuguy83/repos",
    "events_url": "https://api.github.com/users/cpuguy83/events{/privacy}",
    "received_events_url": "https://api.github.com/users/cpuguy83/received_events",
    "type": "User",
    "site_admin": false
  },
  "created_at": "2015-07-16T20:03:09Z",
  "updated_at": "2015-07-16T20:03:09Z",
  "body": "@dmp42 makes an excellent point. I'm inclined to +1 this."
}
, {
  "url": "https://api.github.com/repos/docker/docker/issues/comments/122072590",
  "html_url": "https://github.com/docker/docker/pull/14683#issuecomment-122072590",
  "issue_url": "https://api.github.com/repos/docker/docker/issues/14683",
  "id": 122072590,
  "user": {
    "login": "ewindisch",
    "id": 73207,
    "avatar_url": "https://avatars.githubusercontent.com/u/73207?v=3",
    "gravatar_id": "",
    "url": "https://api.github.com/users/ewindisch",
    "html_url": "https://github.com/ewindisch",
    "followers_url": "https://api.github.com/users/ewindisch/followers",
    "following_url": "https://api.github.com/users/ewindisch/following{/other_user}",
    "gists_url": "https://api.github.com/users/ewindisch/gists{/gist_id}",
    "starred_url": "https://api.github.com/users/ewindisch/starred{/owner}{/repo}",
    "subscriptions_url": "https://api.github.com/users/ewindisch/subscriptions",
    "organizations_url": "https://api.github.com/users/ewindisch/orgs",
    "repos_url": "https://api.github.com/users/ewindisch/repos",
    "events_url": "https://api.github.com/users/ewindisch/events{/privacy}",
    "received_events_url": "https://api.github.com/users/ewindisch/received_events",
    "type": "User",
    "site_admin": false
  },
  "created_at": "2015-07-16T20:04:56Z",
  "updated_at": "2015-07-16T20:04:56Z",
  "body": "@dmp42 in the v2+notary case, http gets won't be executing arbitrary code (even if that's true right now). I'm just saying this *really* needs a client-side flag either on each pull/push or on login.\r\n\r\nBecause being able to run a container is effectively \"root\" on the machine, there is no reason to make --insecure-registry a daemon-side flag.\r\n"
}
, {
  "url": "https://api.github.com/repos/docker/docker/issues/comments/122074724",
  "html_url": "https://github.com/docker/docker/pull/14683#issuecomment-122074724",
  "issue_url": "https://api.github.com/repos/docker/docker/issues/14683",
  "id": 122074724,
  "user": {
    "login": "dmp42",
    "id": 332946,
    "avatar_url": "https://avatars.githubusercontent.com/u/332946?v=3",
    "gravatar_id": "",
    "url": "https://api.github.com/users/dmp42",
    "html_url": "https://github.com/dmp42",
    "followers_url": "https://api.github.com/users/dmp42/followers",
    "following_url": "https://api.github.com/users/dmp42/following{/other_user}",
    "gists_url": "https://api.github.com/users/dmp42/gists{/gist_id}",
    "starred_url": "https://api.github.com/users/dmp42/starred{/owner}{/repo}",
    "subscriptions_url": "https://api.github.com/users/dmp42/subscriptions",
    "organizations_url": "https://api.github.com/users/dmp42/orgs",
    "repos_url": "https://api.github.com/users/dmp42/repos",
    "events_url": "https://api.github.com/users/dmp42/events{/privacy}",
    "received_events_url": "https://api.github.com/users/dmp42/received_events",
    "type": "User",
    "site_admin": false
  },
  "created_at": "2015-07-16T20:11:16Z",
  "updated_at": "2015-07-16T20:11:16Z",
  "body": "@ewindisch then the discussion here is about whether to allow authentication over --insecure - not about making --insecure better"
}
, {
  "url": "https://api.github.com/repos/docker/docker/issues/comments/122075069",
  "html_url": "https://github.com/docker/docker/pull/14683#issuecomment-122075069",
  "issue_url": "https://api.github.com/repos/docker/docker/issues/14683",
  "id": 122075069,
  "user": {
    "login": "dmp42",
    "id": 332946,
    "avatar_url": "https://avatars.githubusercontent.com/u/332946?v=3",
    "gravatar_id": "",
    "url": "https://api.github.com/users/dmp42",
    "html_url": "https://github.com/dmp42",
    "followers_url": "https://api.github.com/users/dmp42/followers",
    "following_url": "https://api.github.com/users/dmp42/following{/other_user}",
    "gists_url": "https://api.github.com/users/dmp42/gists{/gist_id}",
    "starred_url": "https://api.github.com/users/dmp42/starred{/owner}{/repo}",
    "subscriptions_url": "https://api.github.com/users/dmp42/subscriptions",
    "organizations_url": "https://api.github.com/users/dmp42/orgs",
    "repos_url": "https://api.github.com/users/dmp42/repos",
    "events_url": "https://api.github.com/users/dmp42/events{/privacy}",
    "received_events_url": "https://api.github.com/users/dmp42/received_events",
    "type": "User",
    "site_admin": false
  },
  "created_at": "2015-07-16T20:12:13Z",
  "updated_at": "2015-07-16T20:12:13Z",
  "body": "And by the way, we allow credentials sending over self-signed https certificates that are not verified, allowing for trivial MITM.\r\nAgain, we are not consistent..."
}
, {
  "url": "https://api.github.com/repos/docker/docker/issues/comments/122095590",
  "html_url": "https://github.com/docker/docker/pull/14683#issuecomment-122095590",
  "issue_url": "https://api.github.com/repos/docker/docker/issues/14683",
  "id": 122095590,
  "user": {
    "login": "ewindisch",
    "id": 73207,
    "avatar_url": "https://avatars.githubusercontent.com/u/73207?v=3",
    "gravatar_id": "",
    "url": "https://api.github.com/users/ewindisch",
    "html_url": "https://github.com/ewindisch",
    "followers_url": "https://api.github.com/users/ewindisch/followers",
    "following_url": "https://api.github.com/users/ewindisch/following{/other_user}",
    "gists_url": "https://api.github.com/users/ewindisch/gists{/gist_id}",
    "starred_url": "https://api.github.com/users/ewindisch/starred{/owner}{/repo}",
    "subscriptions_url": "https://api.github.com/users/ewindisch/subscriptions",
    "organizations_url": "https://api.github.com/users/ewindisch/orgs",
    "repos_url": "https://api.github.com/users/ewindisch/repos",
    "events_url": "https://api.github.com/users/ewindisch/events{/privacy}",
    "received_events_url": "https://api.github.com/users/ewindisch/received_events",
    "type": "User",
    "site_admin": false
  },
  "created_at": "2015-07-16T21:06:51Z",
  "updated_at": "2015-07-16T21:06:51Z",
  "body": "@dmp42 is sending credentials over unverified ssl-certs happening with --insecure-registry or without? If without, that's a critical bug, not \"inconsistent\""
}
, {
  "url": "https://api.github.com/repos/docker/docker/issues/comments/122096171",
  "html_url": "https://github.com/docker/docker/pull/14683#issuecomment-122096171",
  "issue_url": "https://api.github.com/repos/docker/docker/issues/14683",
  "id": 122096171,
  "user": {
    "login": "ewindisch",
    "id": 73207,
    "avatar_url": "https://avatars.githubusercontent.com/u/73207?v=3",
    "gravatar_id": "",
    "url": "https://api.github.com/users/ewindisch",
    "html_url": "https://github.com/ewindisch",
    "followers_url": "https://api.github.com/users/ewindisch/followers",
    "following_url": "https://api.github.com/users/ewindisch/following{/other_user}",
    "gists_url": "https://api.github.com/users/ewindisch/gists{/gist_id}",
    "starred_url": "https://api.github.com/users/ewindisch/starred{/owner}{/repo}",
    "subscriptions_url": "https://api.github.com/users/ewindisch/subscriptions",
    "organizations_url": "https://api.github.com/users/ewindisch/orgs",
    "repos_url": "https://api.github.com/users/ewindisch/repos",
    "events_url": "https://api.github.com/users/ewindisch/events{/privacy}",
    "received_events_url": "https://api.github.com/users/ewindisch/received_events",
    "type": "User",
    "site_admin": false
  },
  "created_at": "2015-07-16T21:07:50Z",
  "updated_at": "2015-07-16T21:07:50Z",
  "body": "@dmp42 I don't think we can do this without making --insecure(-registry) better, and do consider them one in the same in light of this proposal."
}
, {
  "url": "https://api.github.com/repos/docker/docker/issues/comments/122101078",
  "html_url": "https://github.com/docker/docker/pull/14683#issuecomment-122101078",
  "issue_url": "https://api.github.com/repos/docker/docker/issues/14683",
  "id": 122101078,
  "user": {
    "login": "diogomonica",
    "id": 55332,
    "avatar_url": "https://avatars.githubusercontent.com/u/55332?v=3",
    "gravatar_id": "",
    "url": "https://api.github.com/users/diogomonica",
    "html_url": "https://github.com/diogomonica",
    "followers_url": "https://api.github.com/users/diogomonica/followers",
    "following_url": "https://api.github.com/users/diogomonica/following{/other_user}",
    "gists_url": "https://api.github.com/users/diogomonica/gists{/gist_id}",
    "starred_url": "https://api.github.com/users/diogomonica/starred{/owner}{/repo}",
    "subscriptions_url": "https://api.github.com/users/diogomonica/subscriptions",
    "organizations_url": "https://api.github.com/users/diogomonica/orgs",
    "repos_url": "https://api.github.com/users/diogomonica/repos",
    "events_url": "https://api.github.com/users/diogomonica/events{/privacy}",
    "received_events_url": "https://api.github.com/users/diogomonica/received_events",
    "type": "User",
    "site_admin": false
  },
  "created_at": "2015-07-16T21:17:49Z",
  "updated_at": "2015-07-16T21:19:02Z",
  "body": "I'm sympathetic to the argument @calavera, but the reality is that @dmp42 is wrong when he says that we're not adding real security here.\r\n\r\nThere is a significant difference between a passive and an active attacker. It is trivial to sniff credentials over the air without detection, it is a whole different story to create an active MiTM, capture all requests and modify them on-the-fly (for the example of code injection).\r\n\r\nI'm not saying there aren't tools out there that make this easier, I'm saying that the difficulty of launching attack # 2 sucessfully without being detected is a lot higher than just sniffing credentials.\r\n\r\nIncreasing the level of effort an attacker has to go through to launch a successful attack *is* increasing security.\r\n\r\nI'm against this change."
}
, {
  "url": "https://api.github.com/repos/docker/docker/issues/comments/122103980",
  "html_url": "https://github.com/docker/docker/pull/14683#issuecomment-122103980",
  "issue_url": "https://api.github.com/repos/docker/docker/issues/14683",
  "id": 122103980,
  "user": {
    "login": "jfrazelle",
    "id": 1445228,
    "avatar_url": "https://avatars.githubusercontent.com/u/1445228?v=3",
    "gravatar_id": "",
    "url": "https://api.github.com/users/jfrazelle",
    "html_url": "https://github.com/jfrazelle",
    "followers_url": "https://api.github.com/users/jfrazelle/followers",
    "following_url": "https://api.github.com/users/jfrazelle/following{/other_user}",
    "gists_url": "https://api.github.com/users/jfrazelle/gists{/gist_id}",
    "starred_url": "https://api.github.com/users/jfrazelle/starred{/owner}{/repo}",
    "subscriptions_url": "https://api.github.com/users/jfrazelle/subscriptions",
    "organizations_url": "https://api.github.com/users/jfrazelle/orgs",
    "repos_url": "https://api.github.com/users/jfrazelle/repos",
    "events_url": "https://api.github.com/users/jfrazelle/events{/privacy}",
    "received_events_url": "https://api.github.com/users/jfrazelle/received_events",
    "type": "User",
    "site_admin": false
  },
  "created_at": "2015-07-16T21:26:53Z",
  "updated_at": "2015-07-16T21:26:53Z",
  "body": "NOT LGTM I was against this in the issue it is \"solving\" as well. We should not allow people to do this."
}
, {
  "url": "https://api.github.com/repos/docker/docker/issues/comments/122104283",
  "html_url": "https://github.com/docker/docker/pull/14683#issuecomment-122104283",
  "issue_url": "https://api.github.com/repos/docker/docker/issues/14683",
  "id": 122104283,
  "user": {
    "login": "dmp42",
    "id": 332946,
    "avatar_url": "https://avatars.githubusercontent.com/u/332946?v=3",
    "gravatar_id": "",
    "url": "https://api.github.com/users/dmp42",
    "html_url": "https://github.com/dmp42",
    "followers_url": "https://api.github.com/users/dmp42/followers",
    "following_url": "https://api.github.com/users/dmp42/following{/other_user}",
    "gists_url": "https://api.github.com/users/dmp42/gists{/gist_id}",
    "starred_url": "https://api.github.com/users/dmp42/starred{/owner}{/repo}",
    "subscriptions_url": "https://api.github.com/users/dmp42/subscriptions",
    "organizations_url": "https://api.github.com/users/dmp42/orgs",
    "repos_url": "https://api.github.com/users/dmp42/repos",
    "events_url": "https://api.github.com/users/dmp42/events{/privacy}",
    "received_events_url": "https://api.github.com/users/dmp42/received_events",
    "type": "User",
    "site_admin": false
  },
  "created_at": "2015-07-16T21:28:31Z",
  "updated_at": "2015-07-16T21:40:39Z",
  "body": "@diogomonica to me there is no difference between\r\n\r\n * credentials over plain text\r\n * credentials over blindly trusted self signed TLS\r\n\r\nBoth are trivial to exploit, yet we say #2 is ok and #1 is not.\r\n\r\nAnyhow, we are only talking about a use case where people already said: \"I want --insecure on this registry, which I'm blindly trusting\". Not letting them do what they want in that scenario is weird."
}
, {
  "url": "https://api.github.com/repos/docker/docker/issues/comments/122110015",
  "html_url": "https://github.com/docker/docker/pull/14683#issuecomment-122110015",
  "issue_url": "https://api.github.com/repos/docker/docker/issues/14683",
  "id": 122110015,
  "user": {
    "login": "jfrazelle",
    "id": 1445228,
    "avatar_url": "https://avatars.githubusercontent.com/u/1445228?v=3",
    "gravatar_id": "",
    "url": "https://api.github.com/users/jfrazelle",
    "html_url": "https://github.com/jfrazelle",
    "followers_url": "https://api.github.com/users/jfrazelle/followers",
    "following_url": "https://api.github.com/users/jfrazelle/following{/other_user}",
    "gists_url": "https://api.github.com/users/jfrazelle/gists{/gist_id}",
    "starred_url": "https://api.github.com/users/jfrazelle/starred{/owner}{/repo}",
    "subscriptions_url": "https://api.github.com/users/jfrazelle/subscriptions",
    "organizations_url": "https://api.github.com/users/jfrazelle/orgs",
    "repos_url": "https://api.github.com/users/jfrazelle/repos",
    "events_url": "https://api.github.com/users/jfrazelle/events{/privacy}",
    "received_events_url": "https://api.github.com/users/jfrazelle/received_events",
    "type": "User",
    "site_admin": false
  },
  "created_at": "2015-07-16T21:39:45Z",
  "updated_at": "2015-07-16T21:39:45Z",
  "body": "We have had this debate time and time again...\r\n\r\nI understand that by the user passing `--insecure-registry` they are accepting the fact that they are open to being exploited through this non-existent contract the flag implies. BUT sending credentials over http is just dumb and I do NOT think we should allow the user to do this EVEN WITH a flag. We have some responsibility over protecting them from themselves, because some people run commands without even reading it etc etc. \r\nAlso maybe use https://letsencrypt.org/ to secure the registry! Its free and easy to use!"
}
, {
  "url": "https://api.github.com/repos/docker/docker/issues/comments/122113967",
  "html_url": "https://github.com/docker/docker/pull/14683#issuecomment-122113967",
  "issue_url": "https://api.github.com/repos/docker/docker/issues/14683",
  "id": 122113967,
  "user": {
    "login": "tiborvass",
    "id": 827131,
    "avatar_url": "https://avatars.githubusercontent.com/u/827131?v=3",
    "gravatar_id": "",
    "url": "https://api.github.com/users/tiborvass",
    "html_url": "https://github.com/tiborvass",
    "followers_url": "https://api.github.com/users/tiborvass/followers",
    "following_url": "https://api.github.com/users/tiborvass/following{/other_user}",
    "gists_url": "https://api.github.com/users/tiborvass/gists{/gist_id}",
    "starred_url": "https://api.github.com/users/tiborvass/starred{/owner}{/repo}",
    "subscriptions_url": "https://api.github.com/users/tiborvass/subscriptions",
    "organizations_url": "https://api.github.com/users/tiborvass/orgs",
    "repos_url": "https://api.github.com/users/tiborvass/repos",
    "events_url": "https://api.github.com/users/tiborvass/events{/privacy}",
    "received_events_url": "https://api.github.com/users/tiborvass/received_events",
    "type": "User",
    "site_admin": false
  },
  "created_at": "2015-07-16T21:50:45Z",
  "updated_at": "2015-07-16T21:50:45Z",
  "body": "We should be having this discussion on the issue, not here. Closing since we're not ready to have any consensus. We can reopen or open a new one once we know what we want."
}
, {
  "url": "https://api.github.com/repos/docker/docker/issues/comments/122122846",
  "html_url": "https://github.com/docker/docker/pull/14683#issuecomment-122122846",
  "issue_url": "https://api.github.com/repos/docker/docker/issues/14683",
  "id": 122122846,
  "user": {
    "login": "dmp42",
    "id": 332946,
    "avatar_url": "https://avatars.githubusercontent.com/u/332946?v=3",
    "gravatar_id": "",
    "url": "https://api.github.com/users/dmp42",
    "html_url": "https://github.com/dmp42",
    "followers_url": "https://api.github.com/users/dmp42/followers",
    "following_url": "https://api.github.com/users/dmp42/following{/other_user}",
    "gists_url": "https://api.github.com/users/dmp42/gists{/gist_id}",
    "starred_url": "https://api.github.com/users/dmp42/starred{/owner}{/repo}",
    "subscriptions_url": "https://api.github.com/users/dmp42/subscriptions",
    "organizations_url": "https://api.github.com/users/dmp42/orgs",
    "repos_url": "https://api.github.com/users/dmp42/repos",
    "events_url": "https://api.github.com/users/dmp42/events{/privacy}",
    "received_events_url": "https://api.github.com/users/dmp42/received_events",
    "type": "User",
    "site_admin": false
  },
  "created_at": "2015-07-16T22:35:27Z",
  "updated_at": "2015-07-16T22:35:27Z",
  "body": "@jfrazelle my argument is just: it is equally dumb to send credentials over (--insecure) blindly trusted, self-signed certificates. Yet we allow this. We also allow --insecure altogether, which one may argue is really dumb as well, while people could simply trust their cert instead... \r\n\r\n2 cents."
}
]
