[
{
  "url": "https://api.github.com/repos/docker/docker/issues/comments/35169708",
  "html_url": "https://github.com/docker/docker/pull/4166#issuecomment-35169708",
  "issue_url": "https://api.github.com/repos/docker/docker/issues/4166",
  "id": 35169708,
  "user": {
    "login": "shykes",
    "id": 29565,
    "avatar_url": "https://avatars.githubusercontent.com/u/29565?v=3",
    "gravatar_id": "",
    "url": "https://api.github.com/users/shykes",
    "html_url": "https://github.com/shykes",
    "followers_url": "https://api.github.com/users/shykes/followers",
    "following_url": "https://api.github.com/users/shykes/following{/other_user}",
    "gists_url": "https://api.github.com/users/shykes/gists{/gist_id}",
    "starred_url": "https://api.github.com/users/shykes/starred{/owner}{/repo}",
    "subscriptions_url": "https://api.github.com/users/shykes/subscriptions",
    "organizations_url": "https://api.github.com/users/shykes/orgs",
    "repos_url": "https://api.github.com/users/shykes/repos",
    "events_url": "https://api.github.com/users/shykes/events{/privacy}",
    "received_events_url": "https://api.github.com/users/shykes/received_events",
    "type": "User",
    "site_admin": false
  },
  "created_at": "2014-02-15T22:14:34Z",
  "updated_at": "2014-02-15T22:14:34Z",
  "body": "Trying to make @tianon happy, one patch at a time :)"
}
, {
  "url": "https://api.github.com/repos/docker/docker/issues/comments/35170458",
  "html_url": "https://github.com/docker/docker/pull/4166#issuecomment-35170458",
  "issue_url": "https://api.github.com/repos/docker/docker/issues/4166",
  "id": 35170458,
  "user": {
    "login": "tianon",
    "id": 161631,
    "avatar_url": "https://avatars.githubusercontent.com/u/161631?v=3",
    "gravatar_id": "",
    "url": "https://api.github.com/users/tianon",
    "html_url": "https://github.com/tianon",
    "followers_url": "https://api.github.com/users/tianon/followers",
    "following_url": "https://api.github.com/users/tianon/following{/other_user}",
    "gists_url": "https://api.github.com/users/tianon/gists{/gist_id}",
    "starred_url": "https://api.github.com/users/tianon/starred{/owner}{/repo}",
    "subscriptions_url": "https://api.github.com/users/tianon/subscriptions",
    "organizations_url": "https://api.github.com/users/tianon/orgs",
    "repos_url": "https://api.github.com/users/tianon/repos",
    "events_url": "https://api.github.com/users/tianon/events{/privacy}",
    "received_events_url": "https://api.github.com/users/tianon/received_events",
    "type": "User",
    "site_admin": false
  },
  "created_at": "2014-02-15T22:45:54Z",
  "updated_at": "2014-02-15T22:45:54Z",
  "body": "\\o/! :dart:"
}
, {
  "url": "https://api.github.com/repos/docker/docker/issues/comments/35173007",
  "html_url": "https://github.com/docker/docker/pull/4166#issuecomment-35173007",
  "issue_url": "https://api.github.com/repos/docker/docker/issues/4166",
  "id": 35173007,
  "user": {
    "login": "crosbymichael",
    "id": 749551,
    "avatar_url": "https://avatars.githubusercontent.com/u/749551?v=3",
    "gravatar_id": "",
    "url": "https://api.github.com/users/crosbymichael",
    "html_url": "https://github.com/crosbymichael",
    "followers_url": "https://api.github.com/users/crosbymichael/followers",
    "following_url": "https://api.github.com/users/crosbymichael/following{/other_user}",
    "gists_url": "https://api.github.com/users/crosbymichael/gists{/gist_id}",
    "starred_url": "https://api.github.com/users/crosbymichael/starred{/owner}{/repo}",
    "subscriptions_url": "https://api.github.com/users/crosbymichael/subscriptions",
    "organizations_url": "https://api.github.com/users/crosbymichael/orgs",
    "repos_url": "https://api.github.com/users/crosbymichael/repos",
    "events_url": "https://api.github.com/users/crosbymichael/events{/privacy}",
    "received_events_url": "https://api.github.com/users/crosbymichael/received_events",
    "type": "User",
    "site_admin": false
  },
  "created_at": "2014-02-16T00:32:24Z",
  "updated_at": "2014-02-16T00:32:24Z",
  "body": "LGTM"
}
, {
  "url": "https://api.github.com/repos/docker/docker/issues/comments/35173884",
  "html_url": "https://github.com/docker/docker/pull/4166#issuecomment-35173884",
  "issue_url": "https://api.github.com/repos/docker/docker/issues/4166",
  "id": 35173884,
  "user": {
    "login": "vieux",
    "id": 1032519,
    "avatar_url": "https://avatars.githubusercontent.com/u/1032519?v=3",
    "gravatar_id": "",
    "url": "https://api.github.com/users/vieux",
    "html_url": "https://github.com/vieux",
    "followers_url": "https://api.github.com/users/vieux/followers",
    "following_url": "https://api.github.com/users/vieux/following{/other_user}",
    "gists_url": "https://api.github.com/users/vieux/gists{/gist_id}",
    "starred_url": "https://api.github.com/users/vieux/starred{/owner}{/repo}",
    "subscriptions_url": "https://api.github.com/users/vieux/subscriptions",
    "organizations_url": "https://api.github.com/users/vieux/orgs",
    "repos_url": "https://api.github.com/users/vieux/repos",
    "events_url": "https://api.github.com/users/vieux/events{/privacy}",
    "received_events_url": "https://api.github.com/users/vieux/received_events",
    "type": "User",
    "site_admin": false
  },
  "created_at": "2014-02-16T00:53:43Z",
  "updated_at": "2014-02-16T00:53:43Z",
  "body": "@shykes @crosbymichael  should'nt we add `engine.Logging = false` in the tests as well ?"
}
, {
  "url": "https://api.github.com/repos/docker/docker/issues/comments/35175109",
  "html_url": "https://github.com/docker/docker/pull/4166#issuecomment-35175109",
  "issue_url": "https://api.github.com/repos/docker/docker/issues/4166",
  "id": 35175109,
  "user": {
    "login": "shykes",
    "id": 29565,
    "avatar_url": "https://avatars.githubusercontent.com/u/29565?v=3",
    "gravatar_id": "",
    "url": "https://api.github.com/users/shykes",
    "html_url": "https://github.com/shykes",
    "followers_url": "https://api.github.com/users/shykes/followers",
    "following_url": "https://api.github.com/users/shykes/following{/other_user}",
    "gists_url": "https://api.github.com/users/shykes/gists{/gist_id}",
    "starred_url": "https://api.github.com/users/shykes/starred{/owner}{/repo}",
    "subscriptions_url": "https://api.github.com/users/shykes/subscriptions",
    "organizations_url": "https://api.github.com/users/shykes/orgs",
    "repos_url": "https://api.github.com/users/shykes/repos",
    "events_url": "https://api.github.com/users/shykes/events{/privacy}",
    "received_events_url": "https://api.github.com/users/shykes/received_events",
    "type": "User",
    "site_admin": false
  },
  "created_at": "2014-02-16T02:09:59Z",
  "updated_at": "2014-02-16T02:09:59Z",
  "body": "I personally like enabling logging in the tests, that way the \"test\" bundle for a release includes a full output of the tests, available later on get.docker.io for audit.\r\n\r\nOn Sat, Feb 15, 2014 at 4:53 PM, Victor Vieux <notifications@github.com>\r\nwrote:\r\n\r\n> @shykes @crosbymichael  should'nt we add `engine.Logging = false` in the tests as well ?\r\n> ---\r\n> Reply to this email directly or view it on GitHub:\r\n> https://github.com/dotcloud/docker/pull/4166#issuecomment-35173884"
}
, {
  "url": "https://api.github.com/repos/docker/docker/issues/comments/35175268",
  "html_url": "https://github.com/docker/docker/pull/4166#issuecomment-35175268",
  "issue_url": "https://api.github.com/repos/docker/docker/issues/4166",
  "id": 35175268,
  "user": {
    "login": "vieux",
    "id": 1032519,
    "avatar_url": "https://avatars.githubusercontent.com/u/1032519?v=3",
    "gravatar_id": "",
    "url": "https://api.github.com/users/vieux",
    "html_url": "https://github.com/vieux",
    "followers_url": "https://api.github.com/users/vieux/followers",
    "following_url": "https://api.github.com/users/vieux/following{/other_user}",
    "gists_url": "https://api.github.com/users/vieux/gists{/gist_id}",
    "starred_url": "https://api.github.com/users/vieux/starred{/owner}{/repo}",
    "subscriptions_url": "https://api.github.com/users/vieux/subscriptions",
    "organizations_url": "https://api.github.com/users/vieux/orgs",
    "repos_url": "https://api.github.com/users/vieux/repos",
    "events_url": "https://api.github.com/users/vieux/events{/privacy}",
    "received_events_url": "https://api.github.com/users/vieux/received_events",
    "type": "User",
    "site_admin": false
  },
  "created_at": "2014-02-16T02:21:34Z",
  "updated_at": "2014-02-16T02:21:34Z",
  "body": "@shykes I don't see why we add a variable, if it's never set to false ?\n\n\nOn Sat, Feb 15, 2014 at 6:10 PM, Solomon Hykes <notifications@github.com>wrote:\n\n> I personally like enabling logging in the tests, that way the \"test\"\n> bundle for a release includes a full output of the tests, available later\n> on get.docker.io for audit.\n>\n> On Sat, Feb 15, 2014 at 4:53 PM, Victor Vieux <notifications@github.com>\n> wrote:\n>\n> > @shykes @crosbymichael should'nt we add `engine.Logging = false` in the\n> tests as well ?\n> > ---\n> > Reply to this email directly or view it on GitHub:\n> > https://github.com/dotcloud/docker/pull/4166#issuecomment-35173884\n>\n> --\n> Reply to this email directly or view it on GitHub<https://github.com/dotcloud/docker/pull/4166#issuecomment-35175109>\n> .\n>\n\n\n\n-- \nVictor VIEUX\nhttp://vvieux.com"
}
, {
  "url": "https://api.github.com/repos/docker/docker/issues/comments/35175290",
  "html_url": "https://github.com/docker/docker/pull/4166#issuecomment-35175290",
  "issue_url": "https://api.github.com/repos/docker/docker/issues/4166",
  "id": 35175290,
  "user": {
    "login": "tianon",
    "id": 161631,
    "avatar_url": "https://avatars.githubusercontent.com/u/161631?v=3",
    "gravatar_id": "",
    "url": "https://api.github.com/users/tianon",
    "html_url": "https://github.com/tianon",
    "followers_url": "https://api.github.com/users/tianon/followers",
    "following_url": "https://api.github.com/users/tianon/following{/other_user}",
    "gists_url": "https://api.github.com/users/tianon/gists{/gist_id}",
    "starred_url": "https://api.github.com/users/tianon/starred{/owner}{/repo}",
    "subscriptions_url": "https://api.github.com/users/tianon/subscriptions",
    "organizations_url": "https://api.github.com/users/tianon/orgs",
    "repos_url": "https://api.github.com/users/tianon/repos",
    "events_url": "https://api.github.com/users/tianon/events{/privacy}",
    "received_events_url": "https://api.github.com/users/tianon/received_events",
    "type": "User",
    "site_admin": false
  },
  "created_at": "2014-02-16T02:22:40Z",
  "updated_at": "2014-02-16T02:22:40Z",
  "body": "Can't we log to a separate file for the tests? (Especially so the test output is still easy to read?)"
}
, {
  "url": "https://api.github.com/repos/docker/docker/issues/comments/35175479",
  "html_url": "https://github.com/docker/docker/pull/4166#issuecomment-35175479",
  "issue_url": "https://api.github.com/repos/docker/docker/issues/4166",
  "id": 35175479,
  "user": {
    "login": "shykes",
    "id": 29565,
    "avatar_url": "https://avatars.githubusercontent.com/u/29565?v=3",
    "gravatar_id": "",
    "url": "https://api.github.com/users/shykes",
    "html_url": "https://github.com/shykes",
    "followers_url": "https://api.github.com/users/shykes/followers",
    "following_url": "https://api.github.com/users/shykes/following{/other_user}",
    "gists_url": "https://api.github.com/users/shykes/gists{/gist_id}",
    "starred_url": "https://api.github.com/users/shykes/starred{/owner}{/repo}",
    "subscriptions_url": "https://api.github.com/users/shykes/subscriptions",
    "organizations_url": "https://api.github.com/users/shykes/orgs",
    "repos_url": "https://api.github.com/users/shykes/repos",
    "events_url": "https://api.github.com/users/shykes/events{/privacy}",
    "received_events_url": "https://api.github.com/users/shykes/received_events",
    "type": "User",
    "site_admin": false
  },
  "created_at": "2014-02-16T02:35:31Z",
  "updated_at": "2014-02-16T02:35:31Z",
  "body": "@vieux I added the variable in preparation to running the engine in the client (otherwise the docker client would log all its internal calls on stdout)."
}
, {
  "url": "https://api.github.com/repos/docker/docker/issues/comments/35925114",
  "html_url": "https://github.com/docker/docker/pull/4166#issuecomment-35925114",
  "issue_url": "https://api.github.com/repos/docker/docker/issues/4166",
  "id": 35925114,
  "user": {
    "login": "shykes",
    "id": 29565,
    "avatar_url": "https://avatars.githubusercontent.com/u/29565?v=3",
    "gravatar_id": "",
    "url": "https://api.github.com/users/shykes",
    "html_url": "https://github.com/shykes",
    "followers_url": "https://api.github.com/users/shykes/followers",
    "following_url": "https://api.github.com/users/shykes/following{/other_user}",
    "gists_url": "https://api.github.com/users/shykes/gists{/gist_id}",
    "starred_url": "https://api.github.com/users/shykes/starred{/owner}{/repo}",
    "subscriptions_url": "https://api.github.com/users/shykes/subscriptions",
    "organizations_url": "https://api.github.com/users/shykes/orgs",
    "repos_url": "https://api.github.com/users/shykes/repos",
    "events_url": "https://api.github.com/users/shykes/events{/privacy}",
    "received_events_url": "https://api.github.com/users/shykes/received_events",
    "type": "User",
    "site_admin": false
  },
  "created_at": "2014-02-24T19:29:15Z",
  "updated_at": "2014-02-24T19:29:15Z",
  "body": "Rebased on master."
}
, {
  "url": "https://api.github.com/repos/docker/docker/issues/comments/35951263",
  "html_url": "https://github.com/docker/docker/pull/4166#issuecomment-35951263",
  "issue_url": "https://api.github.com/repos/docker/docker/issues/4166",
  "id": 35951263,
  "user": {
    "login": "vieux",
    "id": 1032519,
    "avatar_url": "https://avatars.githubusercontent.com/u/1032519?v=3",
    "gravatar_id": "",
    "url": "https://api.github.com/users/vieux",
    "html_url": "https://github.com/vieux",
    "followers_url": "https://api.github.com/users/vieux/followers",
    "following_url": "https://api.github.com/users/vieux/following{/other_user}",
    "gists_url": "https://api.github.com/users/vieux/gists{/gist_id}",
    "starred_url": "https://api.github.com/users/vieux/starred{/owner}{/repo}",
    "subscriptions_url": "https://api.github.com/users/vieux/subscriptions",
    "organizations_url": "https://api.github.com/users/vieux/orgs",
    "repos_url": "https://api.github.com/users/vieux/repos",
    "events_url": "https://api.github.com/users/vieux/events{/privacy}",
    "received_events_url": "https://api.github.com/users/vieux/received_events",
    "type": "User",
    "site_admin": false
  },
  "created_at": "2014-02-24T23:01:27Z",
  "updated_at": "2014-02-24T23:01:27Z",
  "body": "ping @creack "
}
, {
  "url": "https://api.github.com/repos/docker/docker/issues/comments/36284400",
  "html_url": "https://github.com/docker/docker/pull/4166#issuecomment-36284400",
  "issue_url": "https://api.github.com/repos/docker/docker/issues/4166",
  "id": 36284400,
  "user": {
    "login": "creack",
    "id": 521701,
    "avatar_url": "https://avatars.githubusercontent.com/u/521701?v=3",
    "gravatar_id": "",
    "url": "https://api.github.com/users/creack",
    "html_url": "https://github.com/creack",
    "followers_url": "https://api.github.com/users/creack/followers",
    "following_url": "https://api.github.com/users/creack/following{/other_user}",
    "gists_url": "https://api.github.com/users/creack/gists{/gist_id}",
    "starred_url": "https://api.github.com/users/creack/starred{/owner}{/repo}",
    "subscriptions_url": "https://api.github.com/users/creack/subscriptions",
    "organizations_url": "https://api.github.com/users/creack/orgs",
    "repos_url": "https://api.github.com/users/creack/repos",
    "events_url": "https://api.github.com/users/creack/events{/privacy}",
    "received_events_url": "https://api.github.com/users/creack/received_events",
    "type": "User",
    "site_admin": false
  },
  "created_at": "2014-02-27T19:59:42Z",
  "updated_at": "2014-02-27T19:59:42Z",
  "body": "I have a failure in the test, but my tmux backlog is not big enough to know which. I know I can check the log file, but I think it is a pretty good indicator that we have too much output."
}
, {
  "url": "https://api.github.com/repos/docker/docker/issues/comments/36284703",
  "html_url": "https://github.com/docker/docker/pull/4166#issuecomment-36284703",
  "issue_url": "https://api.github.com/repos/docker/docker/issues/4166",
  "id": 36284703,
  "user": {
    "login": "creack",
    "id": 521701,
    "avatar_url": "https://avatars.githubusercontent.com/u/521701?v=3",
    "gravatar_id": "",
    "url": "https://api.github.com/users/creack",
    "html_url": "https://github.com/creack",
    "followers_url": "https://api.github.com/users/creack/followers",
    "following_url": "https://api.github.com/users/creack/following{/other_user}",
    "gists_url": "https://api.github.com/users/creack/gists{/gist_id}",
    "starred_url": "https://api.github.com/users/creack/starred{/owner}{/repo}",
    "subscriptions_url": "https://api.github.com/users/creack/subscriptions",
    "organizations_url": "https://api.github.com/users/creack/orgs",
    "repos_url": "https://api.github.com/users/creack/repos",
    "events_url": "https://api.github.com/users/creack/events{/privacy}",
    "received_events_url": "https://api.github.com/users/creack/received_events",
    "type": "User",
    "site_admin": false
  },
  "created_at": "2014-02-27T20:02:09Z",
  "updated_at": "2014-03-04T00:35:44Z",
  "body": "Ok, just fail on Login test, the index staging is once again down.\r\nLGTM.\r\n/cc @shykes I'll let you merge, but it would be nice to disable the logging for the tests."
}
, {
  "url": "https://api.github.com/repos/docker/docker/issues/comments/37984652",
  "html_url": "https://github.com/docker/docker/pull/4166#issuecomment-37984652",
  "issue_url": "https://api.github.com/repos/docker/docker/issues/4166",
  "id": 37984652,
  "user": {
    "login": "crosbymichael",
    "id": 749551,
    "avatar_url": "https://avatars.githubusercontent.com/u/749551?v=3",
    "gravatar_id": "",
    "url": "https://api.github.com/users/crosbymichael",
    "html_url": "https://github.com/crosbymichael",
    "followers_url": "https://api.github.com/users/crosbymichael/followers",
    "following_url": "https://api.github.com/users/crosbymichael/following{/other_user}",
    "gists_url": "https://api.github.com/users/crosbymichael/gists{/gist_id}",
    "starred_url": "https://api.github.com/users/crosbymichael/starred{/owner}{/repo}",
    "subscriptions_url": "https://api.github.com/users/crosbymichael/subscriptions",
    "organizations_url": "https://api.github.com/users/crosbymichael/orgs",
    "repos_url": "https://api.github.com/users/crosbymichael/repos",
    "events_url": "https://api.github.com/users/crosbymichael/events{/privacy}",
    "received_events_url": "https://api.github.com/users/crosbymichael/received_events",
    "type": "User",
    "site_admin": false
  },
  "created_at": "2014-03-18T20:39:07Z",
  "updated_at": "2014-03-18T20:39:07Z",
  "body": "ping @shykes \r\n\r\nI think we can use this now"
}
, {
  "url": "https://api.github.com/repos/docker/docker/issues/comments/39787644",
  "html_url": "https://github.com/docker/docker/pull/4166#issuecomment-39787644",
  "issue_url": "https://api.github.com/repos/docker/docker/issues/4166",
  "id": 39787644,
  "user": {
    "login": "shykes",
    "id": 29565,
    "avatar_url": "https://avatars.githubusercontent.com/u/29565?v=3",
    "gravatar_id": "",
    "url": "https://api.github.com/users/shykes",
    "html_url": "https://github.com/shykes",
    "followers_url": "https://api.github.com/users/shykes/followers",
    "following_url": "https://api.github.com/users/shykes/following{/other_user}",
    "gists_url": "https://api.github.com/users/shykes/gists{/gist_id}",
    "starred_url": "https://api.github.com/users/shykes/starred{/owner}{/repo}",
    "subscriptions_url": "https://api.github.com/users/shykes/subscriptions",
    "organizations_url": "https://api.github.com/users/shykes/orgs",
    "repos_url": "https://api.github.com/users/shykes/repos",
    "events_url": "https://api.github.com/users/shykes/events{/privacy}",
    "received_events_url": "https://api.github.com/users/shykes/received_events",
    "type": "User",
    "site_admin": false
  },
  "created_at": "2014-04-07T21:43:35Z",
  "updated_at": "2014-04-07T21:43:35Z",
  "body": "Rebased should be ready to go\r\n\r\nping @crosbymichael @creack @vieux"
}
]
