[
{
  "url": "https://api.github.com/repos/docker/docker/issues/comments/30034458",
  "html_url": "https://github.com/docker/docker/issues/2931#issuecomment-30034458",
  "issue_url": "https://api.github.com/repos/docker/docker/issues/2931",
  "id": 30034458,
  "user": {
    "login": "mzdaniel",
    "id": 68684,
    "avatar_url": "https://avatars.githubusercontent.com/u/68684?v=3",
    "gravatar_id": "",
    "url": "https://api.github.com/users/mzdaniel",
    "html_url": "https://github.com/mzdaniel",
    "followers_url": "https://api.github.com/users/mzdaniel/followers",
    "following_url": "https://api.github.com/users/mzdaniel/following{/other_user}",
    "gists_url": "https://api.github.com/users/mzdaniel/gists{/gist_id}",
    "starred_url": "https://api.github.com/users/mzdaniel/starred{/owner}{/repo}",
    "subscriptions_url": "https://api.github.com/users/mzdaniel/subscriptions",
    "organizations_url": "https://api.github.com/users/mzdaniel/orgs",
    "repos_url": "https://api.github.com/users/mzdaniel/repos",
    "events_url": "https://api.github.com/users/mzdaniel/events{/privacy}",
    "received_events_url": "https://api.github.com/users/mzdaniel/received_events",
    "type": "User",
    "site_admin": false
  },
  "created_at": "2013-12-06T22:17:11Z",
  "updated_at": "2013-12-06T22:17:11Z",
  "body": "@pnasrat: As explained in https://github.com/dotcloud/docker/pull/2932#issuecomment-30033911, pullrequest and docker builder just needed a rebuild of the test_docker container. If you'd like to work in fixing the docker-coverage test, let's containerize it leveraging the standard docker image in a new issue."
}
]
