[
{
  "url": "https://api.github.com/repos/docker/docker/issues/comments/43651654",
  "html_url": "https://github.com/docker/docker/pull/5927#issuecomment-43651654",
  "issue_url": "https://api.github.com/repos/docker/docker/issues/5927",
  "id": 43651654,
  "user": {
    "login": "tianon",
    "id": 161631,
    "avatar_url": "https://avatars.githubusercontent.com/u/161631?v=3",
    "gravatar_id": "",
    "url": "https://api.github.com/users/tianon",
    "html_url": "https://github.com/tianon",
    "followers_url": "https://api.github.com/users/tianon/followers",
    "following_url": "https://api.github.com/users/tianon/following{/other_user}",
    "gists_url": "https://api.github.com/users/tianon/gists{/gist_id}",
    "starred_url": "https://api.github.com/users/tianon/starred{/owner}{/repo}",
    "subscriptions_url": "https://api.github.com/users/tianon/subscriptions",
    "organizations_url": "https://api.github.com/users/tianon/orgs",
    "repos_url": "https://api.github.com/users/tianon/repos",
    "events_url": "https://api.github.com/users/tianon/events{/privacy}",
    "received_events_url": "https://api.github.com/users/tianon/received_events",
    "type": "User",
    "site_admin": false
  },
  "created_at": "2014-05-20T16:47:16Z",
  "updated_at": "2014-05-20T16:47:16Z",
  "body": "LGTM as a placeholder for documenting the process"
}
, {
  "url": "https://api.github.com/repos/docker/docker/issues/comments/44079042",
  "html_url": "https://github.com/docker/docker/pull/5927#issuecomment-44079042",
  "issue_url": "https://api.github.com/repos/docker/docker/issues/5927",
  "id": 44079042,
  "user": {
    "login": "SvenDowideit",
    "id": 28492,
    "avatar_url": "https://avatars.githubusercontent.com/u/28492?v=3",
    "gravatar_id": "",
    "url": "https://api.github.com/users/SvenDowideit",
    "html_url": "https://github.com/SvenDowideit",
    "followers_url": "https://api.github.com/users/SvenDowideit/followers",
    "following_url": "https://api.github.com/users/SvenDowideit/following{/other_user}",
    "gists_url": "https://api.github.com/users/SvenDowideit/gists{/gist_id}",
    "starred_url": "https://api.github.com/users/SvenDowideit/starred{/owner}{/repo}",
    "subscriptions_url": "https://api.github.com/users/SvenDowideit/subscriptions",
    "organizations_url": "https://api.github.com/users/SvenDowideit/orgs",
    "repos_url": "https://api.github.com/users/SvenDowideit/repos",
    "events_url": "https://api.github.com/users/SvenDowideit/events{/privacy}",
    "received_events_url": "https://api.github.com/users/SvenDowideit/received_events",
    "type": "User",
    "site_admin": false
  },
  "created_at": "2014-05-24T06:14:42Z",
  "updated_at": "2014-05-24T06:14:42Z",
  "body": "@unclejack @shykes "
}
, {
  "url": "https://api.github.com/repos/docker/docker/issues/comments/50554402",
  "html_url": "https://github.com/docker/docker/pull/5927#issuecomment-50554402",
  "issue_url": "https://api.github.com/repos/docker/docker/issues/5927",
  "id": 50554402,
  "user": {
    "login": "tianon",
    "id": 161631,
    "avatar_url": "https://avatars.githubusercontent.com/u/161631?v=3",
    "gravatar_id": "",
    "url": "https://api.github.com/users/tianon",
    "html_url": "https://github.com/tianon",
    "followers_url": "https://api.github.com/users/tianon/followers",
    "following_url": "https://api.github.com/users/tianon/following{/other_user}",
    "gists_url": "https://api.github.com/users/tianon/gists{/gist_id}",
    "starred_url": "https://api.github.com/users/tianon/starred{/owner}{/repo}",
    "subscriptions_url": "https://api.github.com/users/tianon/subscriptions",
    "organizations_url": "https://api.github.com/users/tianon/orgs",
    "repos_url": "https://api.github.com/users/tianon/repos",
    "events_url": "https://api.github.com/users/tianon/events{/privacy}",
    "received_events_url": "https://api.github.com/users/tianon/received_events",
    "type": "User",
    "site_admin": false
  },
  "created_at": "2014-07-29T23:39:21Z",
  "updated_at": "2014-07-29T23:39:21Z",
  "body": "This is definitely outdated now. :)"
}
, {
  "url": "https://api.github.com/repos/docker/docker/issues/comments/50744939",
  "html_url": "https://github.com/docker/docker/pull/5927#issuecomment-50744939",
  "issue_url": "https://api.github.com/repos/docker/docker/issues/5927",
  "id": 50744939,
  "user": {
    "login": "SvenDowideit",
    "id": 28492,
    "avatar_url": "https://avatars.githubusercontent.com/u/28492?v=3",
    "gravatar_id": "",
    "url": "https://api.github.com/users/SvenDowideit",
    "html_url": "https://github.com/SvenDowideit",
    "followers_url": "https://api.github.com/users/SvenDowideit/followers",
    "following_url": "https://api.github.com/users/SvenDowideit/following{/other_user}",
    "gists_url": "https://api.github.com/users/SvenDowideit/gists{/gist_id}",
    "starred_url": "https://api.github.com/users/SvenDowideit/starred{/owner}{/repo}",
    "subscriptions_url": "https://api.github.com/users/SvenDowideit/subscriptions",
    "organizations_url": "https://api.github.com/users/SvenDowideit/orgs",
    "repos_url": "https://api.github.com/users/SvenDowideit/repos",
    "events_url": "https://api.github.com/users/SvenDowideit/events{/privacy}",
    "received_events_url": "https://api.github.com/users/SvenDowideit/received_events",
    "type": "User",
    "site_admin": false
  },
  "created_at": "2014-07-31T11:04:10Z",
  "updated_at": "2014-07-31T11:04:10Z",
  "body": "updated to what I did for 1.1.2 - I'll probably push the initial OSX Dockerfile to hub next...\r\n\r\n@tianon "
}
, {
  "url": "https://api.github.com/repos/docker/docker/issues/comments/53345530",
  "html_url": "https://github.com/docker/docker/pull/5927#issuecomment-53345530",
  "issue_url": "https://api.github.com/repos/docker/docker/issues/5927",
  "id": 53345530,
  "user": {
    "login": "crosbymichael",
    "id": 749551,
    "avatar_url": "https://avatars.githubusercontent.com/u/749551?v=3",
    "gravatar_id": "",
    "url": "https://api.github.com/users/crosbymichael",
    "html_url": "https://github.com/crosbymichael",
    "followers_url": "https://api.github.com/users/crosbymichael/followers",
    "following_url": "https://api.github.com/users/crosbymichael/following{/other_user}",
    "gists_url": "https://api.github.com/users/crosbymichael/gists{/gist_id}",
    "starred_url": "https://api.github.com/users/crosbymichael/starred{/owner}{/repo}",
    "subscriptions_url": "https://api.github.com/users/crosbymichael/subscriptions",
    "organizations_url": "https://api.github.com/users/crosbymichael/orgs",
    "repos_url": "https://api.github.com/users/crosbymichael/repos",
    "events_url": "https://api.github.com/users/crosbymichael/events{/privacy}",
    "received_events_url": "https://api.github.com/users/crosbymichael/received_events",
    "type": "User",
    "site_admin": false
  },
  "created_at": "2014-08-25T22:31:49Z",
  "updated_at": "2014-08-25T22:31:49Z",
  "body": "This should go in release.sh and be automated as part of the official build if a release manager is to do this. "
}
]
