[
{
  "url": "https://api.github.com/repos/docker/docker/issues/comments/123099086",
  "html_url": "https://github.com/docker/docker/pull/14775#issuecomment-123099086",
  "issue_url": "https://api.github.com/repos/docker/docker/issues/14775",
  "id": 123099086,
  "user": {
    "login": "LK4D4",
    "id": 101445,
    "avatar_url": "https://avatars.githubusercontent.com/u/101445?v=3",
    "gravatar_id": "",
    "url": "https://api.github.com/users/LK4D4",
    "html_url": "https://github.com/LK4D4",
    "followers_url": "https://api.github.com/users/LK4D4/followers",
    "following_url": "https://api.github.com/users/LK4D4/following{/other_user}",
    "gists_url": "https://api.github.com/users/LK4D4/gists{/gist_id}",
    "starred_url": "https://api.github.com/users/LK4D4/starred{/owner}{/repo}",
    "subscriptions_url": "https://api.github.com/users/LK4D4/subscriptions",
    "organizations_url": "https://api.github.com/users/LK4D4/orgs",
    "repos_url": "https://api.github.com/users/LK4D4/repos",
    "events_url": "https://api.github.com/users/LK4D4/events{/privacy}",
    "received_events_url": "https://api.github.com/users/LK4D4/received_events",
    "type": "User",
    "site_admin": false
  },
  "created_at": "2015-07-20T23:59:03Z",
  "updated_at": "2015-07-20T23:59:03Z",
  "body": "LGTM"
}
, {
  "url": "https://api.github.com/repos/docker/docker/issues/comments/123101111",
  "html_url": "https://github.com/docker/docker/pull/14775#issuecomment-123101111",
  "issue_url": "https://api.github.com/repos/docker/docker/issues/14775",
  "id": 123101111,
  "user": {
    "login": "duglin",
    "id": 1944671,
    "avatar_url": "https://avatars.githubusercontent.com/u/1944671?v=3",
    "gravatar_id": "",
    "url": "https://api.github.com/users/duglin",
    "html_url": "https://github.com/duglin",
    "followers_url": "https://api.github.com/users/duglin/followers",
    "following_url": "https://api.github.com/users/duglin/following{/other_user}",
    "gists_url": "https://api.github.com/users/duglin/gists{/gist_id}",
    "starred_url": "https://api.github.com/users/duglin/starred{/owner}{/repo}",
    "subscriptions_url": "https://api.github.com/users/duglin/subscriptions",
    "organizations_url": "https://api.github.com/users/duglin/orgs",
    "repos_url": "https://api.github.com/users/duglin/repos",
    "events_url": "https://api.github.com/users/duglin/events{/privacy}",
    "received_events_url": "https://api.github.com/users/duglin/received_events",
    "type": "User",
    "site_admin": false
  },
  "created_at": "2015-07-21T00:06:25Z",
  "updated_at": "2015-07-21T00:06:30Z",
  "body": "LGTM"
}
]
