[
{
  "url": "https://api.github.com/repos/docker/docker/issues/comments/17558379",
  "html_url": "https://github.com/docker/docker/pull/544#issuecomment-17558379",
  "issue_url": "https://api.github.com/repos/docker/docker/issues/544",
  "id": 17558379,
  "user": {
    "login": "kencochrane",
    "id": 261601,
    "avatar_url": "https://avatars.githubusercontent.com/u/261601?v=3",
    "gravatar_id": "",
    "url": "https://api.github.com/users/kencochrane",
    "html_url": "https://github.com/kencochrane",
    "followers_url": "https://api.github.com/users/kencochrane/followers",
    "following_url": "https://api.github.com/users/kencochrane/following{/other_user}",
    "gists_url": "https://api.github.com/users/kencochrane/gists{/gist_id}",
    "starred_url": "https://api.github.com/users/kencochrane/starred{/owner}{/repo}",
    "subscriptions_url": "https://api.github.com/users/kencochrane/subscriptions",
    "organizations_url": "https://api.github.com/users/kencochrane/orgs",
    "repos_url": "https://api.github.com/users/kencochrane/repos",
    "events_url": "https://api.github.com/users/kencochrane/events{/privacy}",
    "received_events_url": "https://api.github.com/users/kencochrane/received_events",
    "type": "User",
    "site_admin": false
  },
  "created_at": "2013-05-07T17:51:45Z",
  "updated_at": "2013-05-07T17:51:45Z",
  "body": "thank you"
}
]
