[
{
  "url": "https://api.github.com/repos/docker/docker/issues/comments/123876300",
  "html_url": "https://github.com/docker/docker/issues/14876#issuecomment-123876300",
  "issue_url": "https://api.github.com/repos/docker/docker/issues/14876",
  "id": 123876300,
  "user": {
    "login": "frioux",
    "id": 8163,
    "avatar_url": "https://avatars.githubusercontent.com/u/8163?v=3",
    "gravatar_id": "",
    "url": "https://api.github.com/users/frioux",
    "html_url": "https://github.com/frioux",
    "followers_url": "https://api.github.com/users/frioux/followers",
    "following_url": "https://api.github.com/users/frioux/following{/other_user}",
    "gists_url": "https://api.github.com/users/frioux/gists{/gist_id}",
    "starred_url": "https://api.github.com/users/frioux/starred{/owner}{/repo}",
    "subscriptions_url": "https://api.github.com/users/frioux/subscriptions",
    "organizations_url": "https://api.github.com/users/frioux/orgs",
    "repos_url": "https://api.github.com/users/frioux/repos",
    "events_url": "https://api.github.com/users/frioux/events{/privacy}",
    "received_events_url": "https://api.github.com/users/frioux/received_events",
    "type": "User",
    "site_admin": false
  },
  "created_at": "2015-07-22T21:46:59Z",
  "updated_at": "2015-07-22T21:46:59Z",
  "body": "Sorry about that!  I did look through the issues and couldn't find another similar issue.\r\n\r\n```\r\ndocker version: Client version: 1.7.1\r\n                Client API version: 1.19\r\n                Go version (client): go1.4.2\r\n                Git commit (client): 786b29d\r\n                OS/Arch (client): linux/amd64\r\n                Server version: 1.7.1\r\n                Server API version: 1.19\r\n                Go version (server): go1.4.2\r\n                Git commit (server): 786b29d\r\n                OS/Arch (server): linux/amd64\r\n\r\ndocker info: Containers: 4\r\n             Images: 128\r\n             Storage Driver: overlay\r\n              Backing Filesystem: extfs\r\n             Execution Driver: native-0.2\r\n             Logging Driver: json-file\r\n             Kernel Version: 3.19.0-21-generic\r\n             Operating System: Ubuntu 15.04\r\n             CPUs: 4\r\n             Total Memory: 15.37 GiB\r\n             Name: zfp\r\n             ID: WWAV:EBRG:XQKU:LLZ7:JUMU:MDR4:BPJ4:C7T3:XKVQ:WFUT:3DAP:6ZHU\r\n             WARNING: No swap limit support\r\n\r\nuname -a: Linux zfp 3.19.0-21-generic #21-Ubuntu SMP Sun Jun 14 18:31:11 UTC 2015 x86_64 x86_64 x86_64 GNU/Linux\r\n```\r\n\r\nSteps to reproduce issue:\r\n\r\n1. git clone git@github.com/frioux/agent-test\r\n2. cd agent-test\r\n3. make build\r\n4. make fail\r\n\r\nI expected to see either a list of ssh-keys or a strange error related to ssh-agent permissions\r\n\r\nInstead I see an error related to docker exec itself.\r\n"
}
, {
  "url": "https://api.github.com/repos/docker/docker/issues/comments/123896764",
  "html_url": "https://github.com/docker/docker/issues/14876#issuecomment-123896764",
  "issue_url": "https://api.github.com/repos/docker/docker/issues/14876",
  "id": 123896764,
  "user": {
    "login": "cpuguy83",
    "id": 799078,
    "avatar_url": "https://avatars.githubusercontent.com/u/799078?v=3",
    "gravatar_id": "",
    "url": "https://api.github.com/users/cpuguy83",
    "html_url": "https://github.com/cpuguy83",
    "followers_url": "https://api.github.com/users/cpuguy83/followers",
    "following_url": "https://api.github.com/users/cpuguy83/following{/other_user}",
    "gists_url": "https://api.github.com/users/cpuguy83/gists{/gist_id}",
    "starred_url": "https://api.github.com/users/cpuguy83/starred{/owner}{/repo}",
    "subscriptions_url": "https://api.github.com/users/cpuguy83/subscriptions",
    "organizations_url": "https://api.github.com/users/cpuguy83/orgs",
    "repos_url": "https://api.github.com/users/cpuguy83/repos",
    "events_url": "https://api.github.com/users/cpuguy83/events{/privacy}",
    "received_events_url": "https://api.github.com/users/cpuguy83/received_events",
    "type": "User",
    "site_admin": false
  },
  "created_at": "2015-07-22T22:52:53Z",
  "updated_at": "2015-07-22T22:52:53Z",
  "body": "This looks like it may be that you are starting cash without -t, and so it stops immediately, but is running for long enough for your exec command to fire."
}
, {
  "url": "https://api.github.com/repos/docker/docker/issues/comments/123896998",
  "html_url": "https://github.com/docker/docker/issues/14876#issuecomment-123896998",
  "issue_url": "https://api.github.com/repos/docker/docker/issues/14876",
  "id": 123896998,
  "user": {
    "login": "cpuguy83",
    "id": 799078,
    "avatar_url": "https://avatars.githubusercontent.com/u/799078?v=3",
    "gravatar_id": "",
    "url": "https://api.github.com/users/cpuguy83",
    "html_url": "https://github.com/cpuguy83",
    "followers_url": "https://api.github.com/users/cpuguy83/followers",
    "following_url": "https://api.github.com/users/cpuguy83/following{/other_user}",
    "gists_url": "https://api.github.com/users/cpuguy83/gists{/gist_id}",
    "starred_url": "https://api.github.com/users/cpuguy83/starred{/owner}{/repo}",
    "subscriptions_url": "https://api.github.com/users/cpuguy83/subscriptions",
    "organizations_url": "https://api.github.com/users/cpuguy83/orgs",
    "repos_url": "https://api.github.com/users/cpuguy83/repos",
    "events_url": "https://api.github.com/users/cpuguy83/events{/privacy}",
    "received_events_url": "https://api.github.com/users/cpuguy83/received_events",
    "type": "User",
    "site_admin": false
  },
  "created_at": "2015-07-22T22:53:59Z",
  "updated_at": "2015-07-22T22:53:59Z",
  "body": "*bash, darn phone...\r\n\r\nBash needs a tty otherwise it will exit."
}
, {
  "url": "https://api.github.com/repos/docker/docker/issues/comments/123899741",
  "html_url": "https://github.com/docker/docker/issues/14876#issuecomment-123899741",
  "issue_url": "https://api.github.com/repos/docker/docker/issues/14876",
  "id": 123899741,
  "user": {
    "login": "frioux",
    "id": 8163,
    "avatar_url": "https://avatars.githubusercontent.com/u/8163?v=3",
    "gravatar_id": "",
    "url": "https://api.github.com/users/frioux",
    "html_url": "https://github.com/frioux",
    "followers_url": "https://api.github.com/users/frioux/followers",
    "following_url": "https://api.github.com/users/frioux/following{/other_user}",
    "gists_url": "https://api.github.com/users/frioux/gists{/gist_id}",
    "starred_url": "https://api.github.com/users/frioux/starred{/owner}{/repo}",
    "subscriptions_url": "https://api.github.com/users/frioux/subscriptions",
    "organizations_url": "https://api.github.com/users/frioux/orgs",
    "repos_url": "https://api.github.com/users/frioux/repos",
    "events_url": "https://api.github.com/users/frioux/events{/privacy}",
    "received_events_url": "https://api.github.com/users/frioux/received_events",
    "type": "User",
    "site_admin": false
  },
  "created_at": "2015-07-22T23:03:43Z",
  "updated_at": "2015-07-22T23:03:43Z",
  "body": "Thanks @cpuguy83!  I should have realized that there was some kind of race condition.  There could theoretically be a better error message nonetheless.  I'll let you decide if you want to just close this because it's so weird"
}
, {
  "url": "https://api.github.com/repos/docker/docker/issues/comments/125315909",
  "html_url": "https://github.com/docker/docker/issues/14876#issuecomment-125315909",
  "issue_url": "https://api.github.com/repos/docker/docker/issues/14876",
  "id": 125315909,
  "user": {
    "login": "cpuguy83",
    "id": 799078,
    "avatar_url": "https://avatars.githubusercontent.com/u/799078?v=3",
    "gravatar_id": "",
    "url": "https://api.github.com/users/cpuguy83",
    "html_url": "https://github.com/cpuguy83",
    "followers_url": "https://api.github.com/users/cpuguy83/followers",
    "following_url": "https://api.github.com/users/cpuguy83/following{/other_user}",
    "gists_url": "https://api.github.com/users/cpuguy83/gists{/gist_id}",
    "starred_url": "https://api.github.com/users/cpuguy83/starred{/owner}{/repo}",
    "subscriptions_url": "https://api.github.com/users/cpuguy83/subscriptions",
    "organizations_url": "https://api.github.com/users/cpuguy83/orgs",
    "repos_url": "https://api.github.com/users/cpuguy83/repos",
    "events_url": "https://api.github.com/users/cpuguy83/events{/privacy}",
    "received_events_url": "https://api.github.com/users/cpuguy83/received_events",
    "type": "User",
    "site_admin": false
  },
  "created_at": "2015-07-27T19:25:06Z",
  "updated_at": "2015-07-27T19:25:06Z",
  "body": "@frioux Did your error message include `error response from daemon`?"
}
, {
  "url": "https://api.github.com/repos/docker/docker/issues/comments/125320521",
  "html_url": "https://github.com/docker/docker/issues/14876#issuecomment-125320521",
  "issue_url": "https://api.github.com/repos/docker/docker/issues/14876",
  "id": 125320521,
  "user": {
    "login": "frioux",
    "id": 8163,
    "avatar_url": "https://avatars.githubusercontent.com/u/8163?v=3",
    "gravatar_id": "",
    "url": "https://api.github.com/users/frioux",
    "html_url": "https://github.com/frioux",
    "followers_url": "https://api.github.com/users/frioux/followers",
    "following_url": "https://api.github.com/users/frioux/following{/other_user}",
    "gists_url": "https://api.github.com/users/frioux/gists{/gist_id}",
    "starred_url": "https://api.github.com/users/frioux/starred{/owner}{/repo}",
    "subscriptions_url": "https://api.github.com/users/frioux/subscriptions",
    "organizations_url": "https://api.github.com/users/frioux/orgs",
    "repos_url": "https://api.github.com/users/frioux/repos",
    "events_url": "https://api.github.com/users/frioux/events{/privacy}",
    "received_events_url": "https://api.github.com/users/frioux/received_events",
    "type": "User",
    "site_admin": false
  },
  "created_at": "2015-07-27T19:37:26Z",
  "updated_at": "2015-07-27T19:37:26Z",
  "body": "No, it was exactly as I pasted.\n\n-- \nsent from a rotary phone, pardon my brevity\n\n@frioux <https://github.com/frioux> Did your error message include error\nresponse from daemon?\n\n—\nReply to this email directly or view it on GitHub\n<https://github.com/docker/docker/issues/14876#issuecomment-125315909>.\n"
}
, {
  "url": "https://api.github.com/repos/docker/docker/issues/comments/129253990",
  "html_url": "https://github.com/docker/docker/issues/14876#issuecomment-129253990",
  "issue_url": "https://api.github.com/repos/docker/docker/issues/14876",
  "id": 129253990,
  "user": {
    "login": "thaJeztah",
    "id": 1804568,
    "avatar_url": "https://avatars.githubusercontent.com/u/1804568?v=3",
    "gravatar_id": "",
    "url": "https://api.github.com/users/thaJeztah",
    "html_url": "https://github.com/thaJeztah",
    "followers_url": "https://api.github.com/users/thaJeztah/followers",
    "following_url": "https://api.github.com/users/thaJeztah/following{/other_user}",
    "gists_url": "https://api.github.com/users/thaJeztah/gists{/gist_id}",
    "starred_url": "https://api.github.com/users/thaJeztah/starred{/owner}{/repo}",
    "subscriptions_url": "https://api.github.com/users/thaJeztah/subscriptions",
    "organizations_url": "https://api.github.com/users/thaJeztah/orgs",
    "repos_url": "https://api.github.com/users/thaJeztah/repos",
    "events_url": "https://api.github.com/users/thaJeztah/events{/privacy}",
    "received_events_url": "https://api.github.com/users/thaJeztah/received_events",
    "type": "User",
    "site_admin": false
  },
  "created_at": "2015-08-09T22:03:44Z",
  "updated_at": "2015-08-09T22:03:44Z",
  "body": "@cpuguy83 what's the status here; is there a way to handle this and output a better error message?"
}
, {
  "url": "https://api.github.com/repos/docker/docker/issues/comments/129448262",
  "html_url": "https://github.com/docker/docker/issues/14876#issuecomment-129448262",
  "issue_url": "https://api.github.com/repos/docker/docker/issues/14876",
  "id": 129448262,
  "user": {
    "login": "cpuguy83",
    "id": 799078,
    "avatar_url": "https://avatars.githubusercontent.com/u/799078?v=3",
    "gravatar_id": "",
    "url": "https://api.github.com/users/cpuguy83",
    "html_url": "https://github.com/cpuguy83",
    "followers_url": "https://api.github.com/users/cpuguy83/followers",
    "following_url": "https://api.github.com/users/cpuguy83/following{/other_user}",
    "gists_url": "https://api.github.com/users/cpuguy83/gists{/gist_id}",
    "starred_url": "https://api.github.com/users/cpuguy83/starred{/owner}{/repo}",
    "subscriptions_url": "https://api.github.com/users/cpuguy83/subscriptions",
    "organizations_url": "https://api.github.com/users/cpuguy83/orgs",
    "repos_url": "https://api.github.com/users/cpuguy83/repos",
    "events_url": "https://api.github.com/users/cpuguy83/events{/privacy}",
    "received_events_url": "https://api.github.com/users/cpuguy83/received_events",
    "type": "User",
    "site_admin": false
  },
  "created_at": "2015-08-10T13:24:40Z",
  "updated_at": "2015-08-10T13:24:40Z",
  "body": "Yes, it looks like we can improve this. I'll have something up in a few mins.\r\nRight now it's just returning the low-level error which is not good."
}
, {
  "url": "https://api.github.com/repos/docker/docker/issues/comments/129461775",
  "html_url": "https://github.com/docker/docker/issues/14876#issuecomment-129461775",
  "issue_url": "https://api.github.com/repos/docker/docker/issues/14876",
  "id": 129461775,
  "user": {
    "login": "cpuguy83",
    "id": 799078,
    "avatar_url": "https://avatars.githubusercontent.com/u/799078?v=3",
    "gravatar_id": "",
    "url": "https://api.github.com/users/cpuguy83",
    "html_url": "https://github.com/cpuguy83",
    "followers_url": "https://api.github.com/users/cpuguy83/followers",
    "following_url": "https://api.github.com/users/cpuguy83/following{/other_user}",
    "gists_url": "https://api.github.com/users/cpuguy83/gists{/gist_id}",
    "starred_url": "https://api.github.com/users/cpuguy83/starred{/owner}{/repo}",
    "subscriptions_url": "https://api.github.com/users/cpuguy83/subscriptions",
    "organizations_url": "https://api.github.com/users/cpuguy83/orgs",
    "repos_url": "https://api.github.com/users/cpuguy83/repos",
    "events_url": "https://api.github.com/users/cpuguy83/events{/privacy}",
    "received_events_url": "https://api.github.com/users/cpuguy83/received_events",
    "type": "User",
    "site_admin": false
  },
  "created_at": "2015-08-10T13:56:32Z",
  "updated_at": "2015-08-10T13:56:32Z",
  "body": "#15446"
}
, {
  "url": "https://api.github.com/repos/docker/docker/issues/comments/129477452",
  "html_url": "https://github.com/docker/docker/issues/14876#issuecomment-129477452",
  "issue_url": "https://api.github.com/repos/docker/docker/issues/14876",
  "id": 129477452,
  "user": {
    "login": "thaJeztah",
    "id": 1804568,
    "avatar_url": "https://avatars.githubusercontent.com/u/1804568?v=3",
    "gravatar_id": "",
    "url": "https://api.github.com/users/thaJeztah",
    "html_url": "https://github.com/thaJeztah",
    "followers_url": "https://api.github.com/users/thaJeztah/followers",
    "following_url": "https://api.github.com/users/thaJeztah/following{/other_user}",
    "gists_url": "https://api.github.com/users/thaJeztah/gists{/gist_id}",
    "starred_url": "https://api.github.com/users/thaJeztah/starred{/owner}{/repo}",
    "subscriptions_url": "https://api.github.com/users/thaJeztah/subscriptions",
    "organizations_url": "https://api.github.com/users/thaJeztah/orgs",
    "repos_url": "https://api.github.com/users/thaJeztah/repos",
    "events_url": "https://api.github.com/users/thaJeztah/events{/privacy}",
    "received_events_url": "https://api.github.com/users/thaJeztah/received_events",
    "type": "User",
    "site_admin": false
  },
  "created_at": "2015-08-10T14:39:57Z",
  "updated_at": "2015-08-10T14:39:57Z",
  "body": "Thanks @cpuguy83 !"
}
]
