[
{
  "url": "https://api.github.com/repos/docker/docker/issues/comments/124902344",
  "html_url": "https://github.com/docker/docker/pull/14998#issuecomment-124902344",
  "issue_url": "https://api.github.com/repos/docker/docker/issues/14998",
  "id": 124902344,
  "user": {
    "login": "tianon",
    "id": 161631,
    "avatar_url": "https://avatars.githubusercontent.com/u/161631?v=3",
    "gravatar_id": "",
    "url": "https://api.github.com/users/tianon",
    "html_url": "https://github.com/tianon",
    "followers_url": "https://api.github.com/users/tianon/followers",
    "following_url": "https://api.github.com/users/tianon/following{/other_user}",
    "gists_url": "https://api.github.com/users/tianon/gists{/gist_id}",
    "starred_url": "https://api.github.com/users/tianon/starred{/owner}{/repo}",
    "subscriptions_url": "https://api.github.com/users/tianon/subscriptions",
    "organizations_url": "https://api.github.com/users/tianon/orgs",
    "repos_url": "https://api.github.com/users/tianon/repos",
    "events_url": "https://api.github.com/users/tianon/events{/privacy}",
    "received_events_url": "https://api.github.com/users/tianon/received_events",
    "type": "User",
    "site_admin": false
  },
  "created_at": "2015-07-25T21:55:39Z",
  "updated_at": "2015-07-25T21:55:39Z",
  "body": "Gah good catch, LGTM"
}
, {
  "url": "https://api.github.com/repos/docker/docker/issues/comments/124909534",
  "html_url": "https://github.com/docker/docker/pull/14998#issuecomment-124909534",
  "issue_url": "https://api.github.com/repos/docker/docker/issues/14998",
  "id": 124909534,
  "user": {
    "login": "thaJeztah",
    "id": 1804568,
    "avatar_url": "https://avatars.githubusercontent.com/u/1804568?v=3",
    "gravatar_id": "",
    "url": "https://api.github.com/users/thaJeztah",
    "html_url": "https://github.com/thaJeztah",
    "followers_url": "https://api.github.com/users/thaJeztah/followers",
    "following_url": "https://api.github.com/users/thaJeztah/following{/other_user}",
    "gists_url": "https://api.github.com/users/thaJeztah/gists{/gist_id}",
    "starred_url": "https://api.github.com/users/thaJeztah/starred{/owner}{/repo}",
    "subscriptions_url": "https://api.github.com/users/thaJeztah/subscriptions",
    "organizations_url": "https://api.github.com/users/thaJeztah/orgs",
    "repos_url": "https://api.github.com/users/thaJeztah/repos",
    "events_url": "https://api.github.com/users/thaJeztah/events{/privacy}",
    "received_events_url": "https://api.github.com/users/thaJeztah/received_events",
    "type": "User",
    "site_admin": false
  },
  "created_at": "2015-07-25T22:54:55Z",
  "updated_at": "2015-07-25T22:54:55Z",
  "body": "@tianon I think @eolamey really gets all the credits here!  Perhaps we should send out MobyDock plushies :+1: "
}
, {
  "url": "https://api.github.com/repos/docker/docker/issues/comments/124915130",
  "html_url": "https://github.com/docker/docker/pull/14998#issuecomment-124915130",
  "issue_url": "https://api.github.com/repos/docker/docker/issues/14998",
  "id": 124915130,
  "user": {
    "login": "eolamey",
    "id": 34300,
    "avatar_url": "https://avatars.githubusercontent.com/u/34300?v=3",
    "gravatar_id": "",
    "url": "https://api.github.com/users/eolamey",
    "html_url": "https://github.com/eolamey",
    "followers_url": "https://api.github.com/users/eolamey/followers",
    "following_url": "https://api.github.com/users/eolamey/following{/other_user}",
    "gists_url": "https://api.github.com/users/eolamey/gists{/gist_id}",
    "starred_url": "https://api.github.com/users/eolamey/starred{/owner}{/repo}",
    "subscriptions_url": "https://api.github.com/users/eolamey/subscriptions",
    "organizations_url": "https://api.github.com/users/eolamey/orgs",
    "repos_url": "https://api.github.com/users/eolamey/repos",
    "events_url": "https://api.github.com/users/eolamey/events{/privacy}",
    "received_events_url": "https://api.github.com/users/eolamey/received_events",
    "type": "User",
    "site_admin": false
  },
  "created_at": "2015-07-25T23:38:54Z",
  "updated_at": "2015-07-25T23:38:54Z",
  "body": "Hahaha, actually, you all deserve credits :) Less than 30 minutes from bug report to fix, on a saturday... <3"
}
, {
  "url": "https://api.github.com/repos/docker/docker/issues/comments/125053236",
  "html_url": "https://github.com/docker/docker/pull/14998#issuecomment-125053236",
  "issue_url": "https://api.github.com/repos/docker/docker/issues/14998",
  "id": 125053236,
  "user": {
    "login": "jfrazelle",
    "id": 1445228,
    "avatar_url": "https://avatars.githubusercontent.com/u/1445228?v=3",
    "gravatar_id": "",
    "url": "https://api.github.com/users/jfrazelle",
    "html_url": "https://github.com/jfrazelle",
    "followers_url": "https://api.github.com/users/jfrazelle/followers",
    "following_url": "https://api.github.com/users/jfrazelle/following{/other_user}",
    "gists_url": "https://api.github.com/users/jfrazelle/gists{/gist_id}",
    "starred_url": "https://api.github.com/users/jfrazelle/starred{/owner}{/repo}",
    "subscriptions_url": "https://api.github.com/users/jfrazelle/subscriptions",
    "organizations_url": "https://api.github.com/users/jfrazelle/orgs",
    "repos_url": "https://api.github.com/users/jfrazelle/repos",
    "events_url": "https://api.github.com/users/jfrazelle/events{/privacy}",
    "received_events_url": "https://api.github.com/users/jfrazelle/received_events",
    "type": "User",
    "site_admin": false
  },
  "created_at": "2015-07-27T00:50:09Z",
  "updated_at": "2015-07-27T00:50:09Z",
  "body": "ping @calavera to cherry-pick into release branch"
}
, {
  "url": "https://api.github.com/repos/docker/docker/issues/comments/125307057",
  "html_url": "https://github.com/docker/docker/pull/14998#issuecomment-125307057",
  "issue_url": "https://api.github.com/repos/docker/docker/issues/14998",
  "id": 125307057,
  "user": {
    "login": "calavera",
    "id": 1050,
    "avatar_url": "https://avatars.githubusercontent.com/u/1050?v=3",
    "gravatar_id": "",
    "url": "https://api.github.com/users/calavera",
    "html_url": "https://github.com/calavera",
    "followers_url": "https://api.github.com/users/calavera/followers",
    "following_url": "https://api.github.com/users/calavera/following{/other_user}",
    "gists_url": "https://api.github.com/users/calavera/gists{/gist_id}",
    "starred_url": "https://api.github.com/users/calavera/starred{/owner}{/repo}",
    "subscriptions_url": "https://api.github.com/users/calavera/subscriptions",
    "organizations_url": "https://api.github.com/users/calavera/orgs",
    "repos_url": "https://api.github.com/users/calavera/repos",
    "events_url": "https://api.github.com/users/calavera/events{/privacy}",
    "received_events_url": "https://api.github.com/users/calavera/received_events",
    "type": "User",
    "site_admin": false
  },
  "created_at": "2015-07-27T19:03:29Z",
  "updated_at": "2015-07-27T19:03:29Z",
  "body": "cherry-picked"
}
]
