[
{
  "url": "https://api.github.com/repos/docker/docker/issues/comments/127514010",
  "html_url": "https://github.com/docker/docker/issues/15282#issuecomment-127514010",
  "issue_url": "https://api.github.com/repos/docker/docker/issues/15282",
  "id": 127514010,
  "user": {
    "login": "Pensu",
    "id": 4402424,
    "avatar_url": "https://avatars.githubusercontent.com/u/4402424?v=3",
    "gravatar_id": "",
    "url": "https://api.github.com/users/Pensu",
    "html_url": "https://github.com/Pensu",
    "followers_url": "https://api.github.com/users/Pensu/followers",
    "following_url": "https://api.github.com/users/Pensu/following{/other_user}",
    "gists_url": "https://api.github.com/users/Pensu/gists{/gist_id}",
    "starred_url": "https://api.github.com/users/Pensu/starred{/owner}{/repo}",
    "subscriptions_url": "https://api.github.com/users/Pensu/subscriptions",
    "organizations_url": "https://api.github.com/users/Pensu/orgs",
    "repos_url": "https://api.github.com/users/Pensu/repos",
    "events_url": "https://api.github.com/users/Pensu/events{/privacy}",
    "received_events_url": "https://api.github.com/users/Pensu/received_events",
    "type": "User",
    "site_admin": false
  },
  "created_at": "2015-08-04T08:06:12Z",
  "updated_at": "2015-08-04T08:06:12Z",
  "body": "Ok, so I figured it out. I apparently need devmapper static library to build docker. But one thing I am not able to understand, why do we need static library when we are not creating a static binary?"
}
, {
  "url": "https://api.github.com/repos/docker/docker/issues/comments/127524684",
  "html_url": "https://github.com/docker/docker/issues/15282#issuecomment-127524684",
  "issue_url": "https://api.github.com/repos/docker/docker/issues/15282",
  "id": 127524684,
  "user": {
    "login": "unclejack",
    "id": 1409668,
    "avatar_url": "https://avatars.githubusercontent.com/u/1409668?v=3",
    "gravatar_id": "",
    "url": "https://api.github.com/users/unclejack",
    "html_url": "https://github.com/unclejack",
    "followers_url": "https://api.github.com/users/unclejack/followers",
    "following_url": "https://api.github.com/users/unclejack/following{/other_user}",
    "gists_url": "https://api.github.com/users/unclejack/gists{/gist_id}",
    "starred_url": "https://api.github.com/users/unclejack/starred{/owner}{/repo}",
    "subscriptions_url": "https://api.github.com/users/unclejack/subscriptions",
    "organizations_url": "https://api.github.com/users/unclejack/orgs",
    "repos_url": "https://api.github.com/users/unclejack/repos",
    "events_url": "https://api.github.com/users/unclejack/events{/privacy}",
    "received_events_url": "https://api.github.com/users/unclejack/received_events",
    "type": "User",
    "site_admin": false
  },
  "created_at": "2015-08-04T08:29:36Z",
  "updated_at": "2015-08-04T08:29:54Z",
  "body": "Support isn't provided for this. If you're not trying to hack on Docker, please use the official packages.\r\n\r\nI'm going to close this issue since there are official repositories now and there's no reason to manually build Docker to get dynamic binaries with devicemapper. People interested in hacking on Docker can drop by the #docker-dev channel on freenode if they want to discuss developing Docker."
}
, {
  "url": "https://api.github.com/repos/docker/docker/issues/comments/127539441",
  "html_url": "https://github.com/docker/docker/issues/15282#issuecomment-127539441",
  "issue_url": "https://api.github.com/repos/docker/docker/issues/15282",
  "id": 127539441,
  "user": {
    "login": "Pensu",
    "id": 4402424,
    "avatar_url": "https://avatars.githubusercontent.com/u/4402424?v=3",
    "gravatar_id": "",
    "url": "https://api.github.com/users/Pensu",
    "html_url": "https://github.com/Pensu",
    "followers_url": "https://api.github.com/users/Pensu/followers",
    "following_url": "https://api.github.com/users/Pensu/following{/other_user}",
    "gists_url": "https://api.github.com/users/Pensu/gists{/gist_id}",
    "starred_url": "https://api.github.com/users/Pensu/starred{/owner}{/repo}",
    "subscriptions_url": "https://api.github.com/users/Pensu/subscriptions",
    "organizations_url": "https://api.github.com/users/Pensu/orgs",
    "repos_url": "https://api.github.com/users/Pensu/repos",
    "events_url": "https://api.github.com/users/Pensu/events{/privacy}",
    "received_events_url": "https://api.github.com/users/Pensu/received_events",
    "type": "User",
    "site_admin": false
  },
  "created_at": "2015-08-04T09:22:25Z",
  "updated_at": "2015-08-04T09:22:25Z",
  "body": "@unclejack Sure, will do that. Thanks!"
}
]
