[
{
  "url": "https://api.github.com/repos/docker/docker/issues/comments/97581063",
  "html_url": "https://github.com/docker/docker/issues/12872#issuecomment-97581063",
  "issue_url": "https://api.github.com/repos/docker/docker/issues/12872",
  "id": 97581063,
  "user": {
    "login": "GordonTheTurtle",
    "id": 10620046,
    "avatar_url": "https://avatars.githubusercontent.com/u/10620046?v=3",
    "gravatar_id": "",
    "url": "https://api.github.com/users/GordonTheTurtle",
    "html_url": "https://github.com/GordonTheTurtle",
    "followers_url": "https://api.github.com/users/GordonTheTurtle/followers",
    "following_url": "https://api.github.com/users/GordonTheTurtle/following{/other_user}",
    "gists_url": "https://api.github.com/users/GordonTheTurtle/gists{/gist_id}",
    "starred_url": "https://api.github.com/users/GordonTheTurtle/starred{/owner}{/repo}",
    "subscriptions_url": "https://api.github.com/users/GordonTheTurtle/subscriptions",
    "organizations_url": "https://api.github.com/users/GordonTheTurtle/orgs",
    "repos_url": "https://api.github.com/users/GordonTheTurtle/repos",
    "events_url": "https://api.github.com/users/GordonTheTurtle/events{/privacy}",
    "received_events_url": "https://api.github.com/users/GordonTheTurtle/received_events",
    "type": "User",
    "site_admin": false
  },
  "created_at": "2015-04-29T20:46:51Z",
  "updated_at": "2015-04-29T20:46:51Z",
  "body": "Hi!\nIf you are reporting a new issue (that does not have any duplicates already open) we would like to take this time to remind you of the information we need to debug the problem you are seeing. This is an automated response so if this ticket is _not_ about a bug, do not fret.\nPlease see:\nhttps://github.com/docker/docker/blob/master/CONTRIBUTING.md#reporting-other-issues\n~~~console\nDescription of problem:\n\n\n`docker version`:\n\n\n`docker info`:\n\n\n`uname -a`:\n\n\nEnvironment details (AWS, VirtualBox, physical, etc.):\n\n\nHow reproducible:\n\n\nSteps to Reproduce:\n1.\n2.\n3.\n\n\nActual Results:\n\n\nExpected Results:\n\n\nAdditional info:\n\n\n\n~~~\n\n#ENEEDMOREINFO\n"
}
]
