[
{
  "url": "https://api.github.com/repos/docker/docker/issues/comments/64739451",
  "html_url": "https://github.com/docker/docker/issues/9353#issuecomment-64739451",
  "issue_url": "https://api.github.com/repos/docker/docker/issues/9353",
  "id": 64739451,
  "user": {
    "login": "SvenDowideit",
    "id": 28492,
    "avatar_url": "https://avatars.githubusercontent.com/u/28492?v=3",
    "gravatar_id": "",
    "url": "https://api.github.com/users/SvenDowideit",
    "html_url": "https://github.com/SvenDowideit",
    "followers_url": "https://api.github.com/users/SvenDowideit/followers",
    "following_url": "https://api.github.com/users/SvenDowideit/following{/other_user}",
    "gists_url": "https://api.github.com/users/SvenDowideit/gists{/gist_id}",
    "starred_url": "https://api.github.com/users/SvenDowideit/starred{/owner}{/repo}",
    "subscriptions_url": "https://api.github.com/users/SvenDowideit/subscriptions",
    "organizations_url": "https://api.github.com/users/SvenDowideit/orgs",
    "repos_url": "https://api.github.com/users/SvenDowideit/repos",
    "events_url": "https://api.github.com/users/SvenDowideit/events{/privacy}",
    "received_events_url": "https://api.github.com/users/SvenDowideit/received_events",
    "type": "User",
    "site_admin": false
  },
  "created_at": "2014-11-27T02:43:03Z",
  "updated_at": "2014-11-27T02:43:03Z",
  "body": "this sounds like a duplicate of #8955 - please close if you agree :)"
}
, {
  "url": "https://api.github.com/repos/docker/docker/issues/comments/64753077",
  "html_url": "https://github.com/docker/docker/issues/9353#issuecomment-64753077",
  "issue_url": "https://api.github.com/repos/docker/docker/issues/9353",
  "id": 64753077,
  "user": {
    "login": "monsterzz",
    "id": 33060,
    "avatar_url": "https://avatars.githubusercontent.com/u/33060?v=3",
    "gravatar_id": "",
    "url": "https://api.github.com/users/monsterzz",
    "html_url": "https://github.com/monsterzz",
    "followers_url": "https://api.github.com/users/monsterzz/followers",
    "following_url": "https://api.github.com/users/monsterzz/following{/other_user}",
    "gists_url": "https://api.github.com/users/monsterzz/gists{/gist_id}",
    "starred_url": "https://api.github.com/users/monsterzz/starred{/owner}{/repo}",
    "subscriptions_url": "https://api.github.com/users/monsterzz/subscriptions",
    "organizations_url": "https://api.github.com/users/monsterzz/orgs",
    "repos_url": "https://api.github.com/users/monsterzz/repos",
    "events_url": "https://api.github.com/users/monsterzz/events{/privacy}",
    "received_events_url": "https://api.github.com/users/monsterzz/received_events",
    "type": "User",
    "site_admin": false
  },
  "created_at": "2014-11-27T07:03:07Z",
  "updated_at": "2014-11-27T07:03:07Z",
  "body": "Not sure that it's duplicate. #8955 is about adding metadata to images. My\r\nproposal is to add metadata for container (I think there should be plenty\r\nof issues about that, but I can't find any suitable).\r\n\r\nWe're running private PaaS, and it's multi-tenant. Now we're using ENV to\r\nstore data related to container (project, application, branch, ...).\r\nOn Thu 27 Nov 2014 at 5:43 am Sven Dowideit <notifications@github.com>\r\nwrote:\r\n\r\n> this sounds like a duplicate of #8955 - please close if you agree :)\r\n>\r\n> —\r\n> Reply to this email directly or view it on GitHub.\r\n>"
}
, {
  "url": "https://api.github.com/repos/docker/docker/issues/comments/64754046",
  "html_url": "https://github.com/docker/docker/issues/9353#issuecomment-64754046",
  "issue_url": "https://api.github.com/repos/docker/docker/issues/9353",
  "id": 64754046,
  "user": {
    "login": "LK4D4",
    "id": 101445,
    "avatar_url": "https://avatars.githubusercontent.com/u/101445?v=3",
    "gravatar_id": "",
    "url": "https://api.github.com/users/LK4D4",
    "html_url": "https://github.com/LK4D4",
    "followers_url": "https://api.github.com/users/LK4D4/followers",
    "following_url": "https://api.github.com/users/LK4D4/following{/other_user}",
    "gists_url": "https://api.github.com/users/LK4D4/gists{/gist_id}",
    "starred_url": "https://api.github.com/users/LK4D4/starred{/owner}{/repo}",
    "subscriptions_url": "https://api.github.com/users/LK4D4/subscriptions",
    "organizations_url": "https://api.github.com/users/LK4D4/orgs",
    "repos_url": "https://api.github.com/users/LK4D4/repos",
    "events_url": "https://api.github.com/users/LK4D4/events{/privacy}",
    "received_events_url": "https://api.github.com/users/LK4D4/received_events",
    "type": "User",
    "site_admin": false
  },
  "created_at": "2014-11-27T07:18:12Z",
  "updated_at": "2014-11-27T07:18:12Z",
  "body": "But this is data related to image as I see :)"
}
, {
  "url": "https://api.github.com/repos/docker/docker/issues/comments/64830080",
  "html_url": "https://github.com/docker/docker/issues/9353#issuecomment-64830080",
  "issue_url": "https://api.github.com/repos/docker/docker/issues/9353",
  "id": 64830080,
  "user": {
    "login": "thaJeztah",
    "id": 1804568,
    "avatar_url": "https://avatars.githubusercontent.com/u/1804568?v=3",
    "gravatar_id": "",
    "url": "https://api.github.com/users/thaJeztah",
    "html_url": "https://github.com/thaJeztah",
    "followers_url": "https://api.github.com/users/thaJeztah/followers",
    "following_url": "https://api.github.com/users/thaJeztah/following{/other_user}",
    "gists_url": "https://api.github.com/users/thaJeztah/gists{/gist_id}",
    "starred_url": "https://api.github.com/users/thaJeztah/starred{/owner}{/repo}",
    "subscriptions_url": "https://api.github.com/users/thaJeztah/subscriptions",
    "organizations_url": "https://api.github.com/users/thaJeztah/orgs",
    "repos_url": "https://api.github.com/users/thaJeztah/repos",
    "events_url": "https://api.github.com/users/thaJeztah/events{/privacy}",
    "received_events_url": "https://api.github.com/users/thaJeztah/received_events",
    "type": "User",
    "site_admin": false
  },
  "created_at": "2014-11-27T21:04:26Z",
  "updated_at": "2014-11-27T21:04:26Z",
  "body": "Dup of https://github.com/docker/docker/pull/9013 ?"
}
, {
  "url": "https://api.github.com/repos/docker/docker/issues/comments/64831571",
  "html_url": "https://github.com/docker/docker/issues/9353#issuecomment-64831571",
  "issue_url": "https://api.github.com/repos/docker/docker/issues/9353",
  "id": 64831571,
  "user": {
    "login": "monsterzz",
    "id": 33060,
    "avatar_url": "https://avatars.githubusercontent.com/u/33060?v=3",
    "gravatar_id": "",
    "url": "https://api.github.com/users/monsterzz",
    "html_url": "https://github.com/monsterzz",
    "followers_url": "https://api.github.com/users/monsterzz/followers",
    "following_url": "https://api.github.com/users/monsterzz/following{/other_user}",
    "gists_url": "https://api.github.com/users/monsterzz/gists{/gist_id}",
    "starred_url": "https://api.github.com/users/monsterzz/starred{/owner}{/repo}",
    "subscriptions_url": "https://api.github.com/users/monsterzz/subscriptions",
    "organizations_url": "https://api.github.com/users/monsterzz/orgs",
    "repos_url": "https://api.github.com/users/monsterzz/repos",
    "events_url": "https://api.github.com/users/monsterzz/events{/privacy}",
    "received_events_url": "https://api.github.com/users/monsterzz/received_events",
    "type": "User",
    "site_admin": false
  },
  "created_at": "2014-11-27T21:31:45Z",
  "updated_at": "2014-11-27T21:31:45Z",
  "body": "@LK4D4 nop, it's related to running container (my fault, I provided very small context)\r\n\r\n# docker inspect 6fc9e3482be2\r\n    [{\r\n        \"AppArmorProfile\": \"\",\r\n        \"Args\": [\r\n            \"3650d\"\r\n        ],\r\n        \"Config\": {\r\n            \"AttachStderr\": false,\r\n            \"AttachStdin\": false,\r\n            \"AttachStdout\": false,\r\n            \"Cmd\": [\r\n                \"sleep\",\r\n                \"3650d\"\r\n            ],\r\n            \"CpuShares\": 0,\r\n            \"Cpuset\": \"\",\r\n            \"Domainname\": \"pool01d.****.net\",\r\n            \"Entrypoint\": null,\r\n            \"Env\": [\r\n                \"HOME=/\",\r\n                \"PATH=/usr/local/sbin:/usr/local/bin:/usr/sbin:/usr/bin:/sbin:/bin\"\r\n            ],\r\n            \"ExposedPorts\": null,\r\n            \"Hostname\": \"unit3\",\r\n            \"Image\": \"registry.****.net/busybox\",\r\n            \"Memory\": 0,\r\n            \"MemorySwap\": 0,\r\n            \"NetworkDisabled\": true,\r\n            \"OnBuild\": null,\r\n            \"OpenStdin\": false,\r\n            \"PortSpecs\": null,\r\n            \"StdinOnce\": false,\r\n            \"Tty\": false,\r\n            \"User\": \"\",\r\n            \"Volumes\": null,\r\n            \"WorkingDir\": \"\"\r\n        },\r\n        ..."
}
, {
  "url": "https://api.github.com/repos/docker/docker/issues/comments/64831741",
  "html_url": "https://github.com/docker/docker/issues/9353#issuecomment-64831741",
  "issue_url": "https://api.github.com/repos/docker/docker/issues/9353",
  "id": 64831741,
  "user": {
    "login": "monsterzz",
    "id": 33060,
    "avatar_url": "https://avatars.githubusercontent.com/u/33060?v=3",
    "gravatar_id": "",
    "url": "https://api.github.com/users/monsterzz",
    "html_url": "https://github.com/monsterzz",
    "followers_url": "https://api.github.com/users/monsterzz/followers",
    "following_url": "https://api.github.com/users/monsterzz/following{/other_user}",
    "gists_url": "https://api.github.com/users/monsterzz/gists{/gist_id}",
    "starred_url": "https://api.github.com/users/monsterzz/starred{/owner}{/repo}",
    "subscriptions_url": "https://api.github.com/users/monsterzz/subscriptions",
    "organizations_url": "https://api.github.com/users/monsterzz/orgs",
    "repos_url": "https://api.github.com/users/monsterzz/repos",
    "events_url": "https://api.github.com/users/monsterzz/events{/privacy}",
    "received_events_url": "https://api.github.com/users/monsterzz/received_events",
    "type": "User",
    "site_admin": false
  },
  "created_at": "2014-11-27T21:35:08Z",
  "updated_at": "2014-11-27T21:35:08Z",
  "body": "@thaJeztah Thanks! Seems that #9013 is exactly what we need."
}
, {
  "url": "https://api.github.com/repos/docker/docker/issues/comments/64832096",
  "html_url": "https://github.com/docker/docker/issues/9353#issuecomment-64832096",
  "issue_url": "https://api.github.com/repos/docker/docker/issues/9353",
  "id": 64832096,
  "user": {
    "login": "thaJeztah",
    "id": 1804568,
    "avatar_url": "https://avatars.githubusercontent.com/u/1804568?v=3",
    "gravatar_id": "",
    "url": "https://api.github.com/users/thaJeztah",
    "html_url": "https://github.com/thaJeztah",
    "followers_url": "https://api.github.com/users/thaJeztah/followers",
    "following_url": "https://api.github.com/users/thaJeztah/following{/other_user}",
    "gists_url": "https://api.github.com/users/thaJeztah/gists{/gist_id}",
    "starred_url": "https://api.github.com/users/thaJeztah/starred{/owner}{/repo}",
    "subscriptions_url": "https://api.github.com/users/thaJeztah/subscriptions",
    "organizations_url": "https://api.github.com/users/thaJeztah/orgs",
    "repos_url": "https://api.github.com/users/thaJeztah/repos",
    "events_url": "https://api.github.com/users/thaJeztah/events{/privacy}",
    "received_events_url": "https://api.github.com/users/thaJeztah/received_events",
    "type": "User",
    "site_admin": false
  },
  "created_at": "2014-11-27T21:42:14Z",
  "updated_at": "2014-11-27T21:42:14Z",
  "body": "@monsterzz I think that's what https://github.com/docker/docker/pull/9013 proposes (add information to specific (running) containers). If not, could you explain what makes this proposal different than that one?"
}
, {
  "url": "https://api.github.com/repos/docker/docker/issues/comments/64832149",
  "html_url": "https://github.com/docker/docker/issues/9353#issuecomment-64832149",
  "issue_url": "https://api.github.com/repos/docker/docker/issues/9353",
  "id": 64832149,
  "user": {
    "login": "thaJeztah",
    "id": 1804568,
    "avatar_url": "https://avatars.githubusercontent.com/u/1804568?v=3",
    "gravatar_id": "",
    "url": "https://api.github.com/users/thaJeztah",
    "html_url": "https://github.com/thaJeztah",
    "followers_url": "https://api.github.com/users/thaJeztah/followers",
    "following_url": "https://api.github.com/users/thaJeztah/following{/other_user}",
    "gists_url": "https://api.github.com/users/thaJeztah/gists{/gist_id}",
    "starred_url": "https://api.github.com/users/thaJeztah/starred{/owner}{/repo}",
    "subscriptions_url": "https://api.github.com/users/thaJeztah/subscriptions",
    "organizations_url": "https://api.github.com/users/thaJeztah/orgs",
    "repos_url": "https://api.github.com/users/thaJeztah/repos",
    "events_url": "https://api.github.com/users/thaJeztah/events{/privacy}",
    "received_events_url": "https://api.github.com/users/thaJeztah/received_events",
    "type": "User",
    "site_admin": false
  },
  "created_at": "2014-11-27T21:43:18Z",
  "updated_at": "2014-11-27T21:43:18Z",
  "body": "Hmf.. browser cache, didn't see your last comment while I was typing.. Thx!"
}
]
