[
{
  "url": "https://api.github.com/repos/docker/docker/issues/comments/176791968",
  "html_url": "https://github.com/docker/docker/pull/19832#issuecomment-176791968",
  "issue_url": "https://api.github.com/repos/docker/docker/issues/19832",
  "id": 176791968,
  "user": {
    "login": "fsoppelsa",
    "id": 973806,
    "avatar_url": "https://avatars.githubusercontent.com/u/973806?v=3",
    "gravatar_id": "",
    "url": "https://api.github.com/users/fsoppelsa",
    "html_url": "https://github.com/fsoppelsa",
    "followers_url": "https://api.github.com/users/fsoppelsa/followers",
    "following_url": "https://api.github.com/users/fsoppelsa/following{/other_user}",
    "gists_url": "https://api.github.com/users/fsoppelsa/gists{/gist_id}",
    "starred_url": "https://api.github.com/users/fsoppelsa/starred{/owner}{/repo}",
    "subscriptions_url": "https://api.github.com/users/fsoppelsa/subscriptions",
    "organizations_url": "https://api.github.com/users/fsoppelsa/orgs",
    "repos_url": "https://api.github.com/users/fsoppelsa/repos",
    "events_url": "https://api.github.com/users/fsoppelsa/events{/privacy}",
    "received_events_url": "https://api.github.com/users/fsoppelsa/received_events",
    "type": "User",
    "site_admin": false
  },
  "created_at": "2016-01-29T14:48:44Z",
  "updated_at": "2016-01-29T14:48:44Z",
  "body": "One jenkins jobs just timeouts, I have no idea of the reason for the windows one failure, instead."
}
, {
  "url": "https://api.github.com/repos/docker/docker/issues/comments/176890347",
  "html_url": "https://github.com/docker/docker/pull/19832#issuecomment-176890347",
  "issue_url": "https://api.github.com/repos/docker/docker/issues/19832",
  "id": 176890347,
  "user": {
    "login": "calavera",
    "id": 1050,
    "avatar_url": "https://avatars.githubusercontent.com/u/1050?v=3",
    "gravatar_id": "",
    "url": "https://api.github.com/users/calavera",
    "html_url": "https://github.com/calavera",
    "followers_url": "https://api.github.com/users/calavera/followers",
    "following_url": "https://api.github.com/users/calavera/following{/other_user}",
    "gists_url": "https://api.github.com/users/calavera/gists{/gist_id}",
    "starred_url": "https://api.github.com/users/calavera/starred{/owner}{/repo}",
    "subscriptions_url": "https://api.github.com/users/calavera/subscriptions",
    "organizations_url": "https://api.github.com/users/calavera/orgs",
    "repos_url": "https://api.github.com/users/calavera/repos",
    "events_url": "https://api.github.com/users/calavera/events{/privacy}",
    "received_events_url": "https://api.github.com/users/calavera/received_events",
    "type": "User",
    "site_admin": false
  },
  "created_at": "2016-01-29T18:05:19Z",
  "updated_at": "2016-01-29T18:05:19Z",
  "body": "I think we should add a `filter` flag, rather than another specialized flag. That would be more consistent with other commands we already have. Examples:\r\n\r\n```\r\n$ docker search --filter official=true # only official images\r\n$ docker search --filter official=false # only non-official images\r\n\r\n$ docker search --filter automated=true # only automated builds\r\n$ docker search --filter automated=false # only non-automated builds\r\n```"
}
, {
  "url": "https://api.github.com/repos/docker/docker/issues/comments/176899074",
  "html_url": "https://github.com/docker/docker/pull/19832#issuecomment-176899074",
  "issue_url": "https://api.github.com/repos/docker/docker/issues/19832",
  "id": 176899074,
  "user": {
    "login": "tianon",
    "id": 161631,
    "avatar_url": "https://avatars.githubusercontent.com/u/161631?v=3",
    "gravatar_id": "",
    "url": "https://api.github.com/users/tianon",
    "html_url": "https://github.com/tianon",
    "followers_url": "https://api.github.com/users/tianon/followers",
    "following_url": "https://api.github.com/users/tianon/following{/other_user}",
    "gists_url": "https://api.github.com/users/tianon/gists{/gist_id}",
    "starred_url": "https://api.github.com/users/tianon/starred{/owner}{/repo}",
    "subscriptions_url": "https://api.github.com/users/tianon/subscriptions",
    "organizations_url": "https://api.github.com/users/tianon/orgs",
    "repos_url": "https://api.github.com/users/tianon/repos",
    "events_url": "https://api.github.com/users/tianon/events{/privacy}",
    "received_events_url": "https://api.github.com/users/tianon/received_events",
    "type": "User",
    "site_admin": false
  },
  "created_at": "2016-01-29T18:29:49Z",
  "updated_at": "2016-01-29T18:29:49Z",
  "body": "+1 for generic search filters! :smiley:"
}
, {
  "url": "https://api.github.com/repos/docker/docker/issues/comments/176901871",
  "html_url": "https://github.com/docker/docker/pull/19832#issuecomment-176901871",
  "issue_url": "https://api.github.com/repos/docker/docker/issues/19832",
  "id": 176901871,
  "user": {
    "login": "albers",
    "id": 2901725,
    "avatar_url": "https://avatars.githubusercontent.com/u/2901725?v=3",
    "gravatar_id": "",
    "url": "https://api.github.com/users/albers",
    "html_url": "https://github.com/albers",
    "followers_url": "https://api.github.com/users/albers/followers",
    "following_url": "https://api.github.com/users/albers/following{/other_user}",
    "gists_url": "https://api.github.com/users/albers/gists{/gist_id}",
    "starred_url": "https://api.github.com/users/albers/starred{/owner}{/repo}",
    "subscriptions_url": "https://api.github.com/users/albers/subscriptions",
    "organizations_url": "https://api.github.com/users/albers/orgs",
    "repos_url": "https://api.github.com/users/albers/repos",
    "events_url": "https://api.github.com/users/albers/events{/privacy}",
    "received_events_url": "https://api.github.com/users/albers/received_events",
    "type": "User",
    "site_admin": false
  },
  "created_at": "2016-01-29T18:38:23Z",
  "updated_at": "2016-01-29T18:38:23Z",
  "body": "+1 too, and I also agree with @thaJeztah in https://github.com/docker/docker/issues/18980#issuecomment-167989656 that `--automated` and `-s`, `--stars` should be implemented as filters as well."
}
, {
  "url": "https://api.github.com/repos/docker/docker/issues/comments/177434477",
  "html_url": "https://github.com/docker/docker/pull/19832#issuecomment-177434477",
  "issue_url": "https://api.github.com/repos/docker/docker/issues/19832",
  "id": 177434477,
  "user": {
    "login": "fsoppelsa",
    "id": 973806,
    "avatar_url": "https://avatars.githubusercontent.com/u/973806?v=3",
    "gravatar_id": "",
    "url": "https://api.github.com/users/fsoppelsa",
    "html_url": "https://github.com/fsoppelsa",
    "followers_url": "https://api.github.com/users/fsoppelsa/followers",
    "following_url": "https://api.github.com/users/fsoppelsa/following{/other_user}",
    "gists_url": "https://api.github.com/users/fsoppelsa/gists{/gist_id}",
    "starred_url": "https://api.github.com/users/fsoppelsa/starred{/owner}{/repo}",
    "subscriptions_url": "https://api.github.com/users/fsoppelsa/subscriptions",
    "organizations_url": "https://api.github.com/users/fsoppelsa/orgs",
    "repos_url": "https://api.github.com/users/fsoppelsa/repos",
    "events_url": "https://api.github.com/users/fsoppelsa/events{/privacy}",
    "received_events_url": "https://api.github.com/users/fsoppelsa/received_events",
    "type": "User",
    "site_admin": false
  },
  "created_at": "2016-01-31T08:37:22Z",
  "updated_at": "2016-01-31T08:37:22Z",
  "body": "Ah ok, so can we trash this? I will work on the options as soon as I will get some time :)"
}
, {
  "url": "https://api.github.com/repos/docker/docker/issues/comments/177508614",
  "html_url": "https://github.com/docker/docker/pull/19832#issuecomment-177508614",
  "issue_url": "https://api.github.com/repos/docker/docker/issues/19832",
  "id": 177508614,
  "user": {
    "login": "thaJeztah",
    "id": 1804568,
    "avatar_url": "https://avatars.githubusercontent.com/u/1804568?v=3",
    "gravatar_id": "",
    "url": "https://api.github.com/users/thaJeztah",
    "html_url": "https://github.com/thaJeztah",
    "followers_url": "https://api.github.com/users/thaJeztah/followers",
    "following_url": "https://api.github.com/users/thaJeztah/following{/other_user}",
    "gists_url": "https://api.github.com/users/thaJeztah/gists{/gist_id}",
    "starred_url": "https://api.github.com/users/thaJeztah/starred{/owner}{/repo}",
    "subscriptions_url": "https://api.github.com/users/thaJeztah/subscriptions",
    "organizations_url": "https://api.github.com/users/thaJeztah/orgs",
    "repos_url": "https://api.github.com/users/thaJeztah/repos",
    "events_url": "https://api.github.com/users/thaJeztah/events{/privacy}",
    "received_events_url": "https://api.github.com/users/thaJeztah/received_events",
    "type": "User",
    "site_admin": false
  },
  "created_at": "2016-01-31T14:13:14Z",
  "updated_at": "2016-01-31T14:13:14Z",
  "body": "@fsoppelsa whatever works best for you; if you think you're able to work on this soon, we can also keep this PR open, and you can update this PR; otherwise, we can close this one, and you can open a new PR"
}
, {
  "url": "https://api.github.com/repos/docker/docker/issues/comments/179583570",
  "html_url": "https://github.com/docker/docker/pull/19832#issuecomment-179583570",
  "issue_url": "https://api.github.com/repos/docker/docker/issues/19832",
  "id": 179583570,
  "user": {
    "login": "tiborvass",
    "id": 827131,
    "avatar_url": "https://avatars.githubusercontent.com/u/827131?v=3",
    "gravatar_id": "",
    "url": "https://api.github.com/users/tiborvass",
    "html_url": "https://github.com/tiborvass",
    "followers_url": "https://api.github.com/users/tiborvass/followers",
    "following_url": "https://api.github.com/users/tiborvass/following{/other_user}",
    "gists_url": "https://api.github.com/users/tiborvass/gists{/gist_id}",
    "starred_url": "https://api.github.com/users/tiborvass/starred{/owner}{/repo}",
    "subscriptions_url": "https://api.github.com/users/tiborvass/subscriptions",
    "organizations_url": "https://api.github.com/users/tiborvass/orgs",
    "repos_url": "https://api.github.com/users/tiborvass/repos",
    "events_url": "https://api.github.com/users/tiborvass/events{/privacy}",
    "received_events_url": "https://api.github.com/users/tiborvass/received_events",
    "type": "User",
    "site_admin": false
  },
  "created_at": "2016-02-04T02:31:43Z",
  "updated_at": "2016-02-04T02:31:43Z",
  "body": "@fsoppelsa I'm closing this now, feel free to ping us right before you're ready to push. If you push on a closed PR, you'll have to open a new one."
}
]
