[
{
  "url": "https://api.github.com/repos/docker/docker/issues/comments/83543301",
  "html_url": "https://github.com/docker/docker/issues/11491#issuecomment-83543301",
  "issue_url": "https://api.github.com/repos/docker/docker/issues/11491",
  "id": 83543301,
  "user": {
    "login": "cpuguy83",
    "id": 799078,
    "avatar_url": "https://avatars.githubusercontent.com/u/799078?v=3",
    "gravatar_id": "",
    "url": "https://api.github.com/users/cpuguy83",
    "html_url": "https://github.com/cpuguy83",
    "followers_url": "https://api.github.com/users/cpuguy83/followers",
    "following_url": "https://api.github.com/users/cpuguy83/following{/other_user}",
    "gists_url": "https://api.github.com/users/cpuguy83/gists{/gist_id}",
    "starred_url": "https://api.github.com/users/cpuguy83/starred{/owner}{/repo}",
    "subscriptions_url": "https://api.github.com/users/cpuguy83/subscriptions",
    "organizations_url": "https://api.github.com/users/cpuguy83/orgs",
    "repos_url": "https://api.github.com/users/cpuguy83/repos",
    "events_url": "https://api.github.com/users/cpuguy83/events{/privacy}",
    "received_events_url": "https://api.github.com/users/cpuguy83/received_events",
    "type": "User",
    "site_admin": false
  },
  "created_at": "2015-03-19T12:50:25Z",
  "updated_at": "2015-03-19T12:50:25Z",
  "body": "Seems like this was fixed by #10244, and is probably a dup of #10228 (which is a panic on push).\r\n\r\ncc @stevvooe to confirm"
}
, {
  "url": "https://api.github.com/repos/docker/docker/issues/comments/83731584",
  "html_url": "https://github.com/docker/docker/issues/11491#issuecomment-83731584",
  "issue_url": "https://api.github.com/repos/docker/docker/issues/11491",
  "id": 83731584,
  "user": {
    "login": "stevvooe",
    "id": 120601,
    "avatar_url": "https://avatars.githubusercontent.com/u/120601?v=3",
    "gravatar_id": "",
    "url": "https://api.github.com/users/stevvooe",
    "html_url": "https://github.com/stevvooe",
    "followers_url": "https://api.github.com/users/stevvooe/followers",
    "following_url": "https://api.github.com/users/stevvooe/following{/other_user}",
    "gists_url": "https://api.github.com/users/stevvooe/gists{/gist_id}",
    "starred_url": "https://api.github.com/users/stevvooe/starred{/owner}{/repo}",
    "subscriptions_url": "https://api.github.com/users/stevvooe/subscriptions",
    "organizations_url": "https://api.github.com/users/stevvooe/orgs",
    "repos_url": "https://api.github.com/users/stevvooe/repos",
    "events_url": "https://api.github.com/users/stevvooe/events{/privacy}",
    "received_events_url": "https://api.github.com/users/stevvooe/received_events",
    "type": "User",
    "site_admin": false
  },
  "created_at": "2015-03-19T19:30:07Z",
  "updated_at": "2015-03-19T19:30:07Z",
  "body": "@cpuguy83 Confirmed."
}
, {
  "url": "https://api.github.com/repos/docker/docker/issues/comments/83732913",
  "html_url": "https://github.com/docker/docker/issues/11491#issuecomment-83732913",
  "issue_url": "https://api.github.com/repos/docker/docker/issues/11491",
  "id": 83732913,
  "user": {
    "login": "cpuguy83",
    "id": 799078,
    "avatar_url": "https://avatars.githubusercontent.com/u/799078?v=3",
    "gravatar_id": "",
    "url": "https://api.github.com/users/cpuguy83",
    "html_url": "https://github.com/cpuguy83",
    "followers_url": "https://api.github.com/users/cpuguy83/followers",
    "following_url": "https://api.github.com/users/cpuguy83/following{/other_user}",
    "gists_url": "https://api.github.com/users/cpuguy83/gists{/gist_id}",
    "starred_url": "https://api.github.com/users/cpuguy83/starred{/owner}{/repo}",
    "subscriptions_url": "https://api.github.com/users/cpuguy83/subscriptions",
    "organizations_url": "https://api.github.com/users/cpuguy83/orgs",
    "repos_url": "https://api.github.com/users/cpuguy83/repos",
    "events_url": "https://api.github.com/users/cpuguy83/events{/privacy}",
    "received_events_url": "https://api.github.com/users/cpuguy83/received_events",
    "type": "User",
    "site_admin": false
  },
  "created_at": "2015-03-19T19:33:22Z",
  "updated_at": "2015-03-19T19:33:22Z",
  "body": "Ok, closing this then."
}
]
