[
{
  "url": "https://api.github.com/repos/docker/docker/issues/comments/91380038",
  "html_url": "https://github.com/docker/docker/pull/12256#issuecomment-91380038",
  "issue_url": "https://api.github.com/repos/docker/docker/issues/12256",
  "id": 91380038,
  "user": {
    "login": "icecrime",
    "id": 1564054,
    "avatar_url": "https://avatars.githubusercontent.com/u/1564054?v=3",
    "gravatar_id": "",
    "url": "https://api.github.com/users/icecrime",
    "html_url": "https://github.com/icecrime",
    "followers_url": "https://api.github.com/users/icecrime/followers",
    "following_url": "https://api.github.com/users/icecrime/following{/other_user}",
    "gists_url": "https://api.github.com/users/icecrime/gists{/gist_id}",
    "starred_url": "https://api.github.com/users/icecrime/starred{/owner}{/repo}",
    "subscriptions_url": "https://api.github.com/users/icecrime/subscriptions",
    "organizations_url": "https://api.github.com/users/icecrime/orgs",
    "repos_url": "https://api.github.com/users/icecrime/repos",
    "events_url": "https://api.github.com/users/icecrime/events{/privacy}",
    "received_events_url": "https://api.github.com/users/icecrime/received_events",
    "type": "User",
    "site_admin": false
  },
  "created_at": "2015-04-09T23:26:11Z",
  "updated_at": "2015-04-09T23:26:11Z",
  "body": "Cool, thanks! Waiting for Jenkins but looks good."
}
, {
  "url": "https://api.github.com/repos/docker/docker/issues/comments/91394587",
  "html_url": "https://github.com/docker/docker/pull/12256#issuecomment-91394587",
  "issue_url": "https://api.github.com/repos/docker/docker/issues/12256",
  "id": 91394587,
  "user": {
    "login": "LK4D4",
    "id": 101445,
    "avatar_url": "https://avatars.githubusercontent.com/u/101445?v=3",
    "gravatar_id": "",
    "url": "https://api.github.com/users/LK4D4",
    "html_url": "https://github.com/LK4D4",
    "followers_url": "https://api.github.com/users/LK4D4/followers",
    "following_url": "https://api.github.com/users/LK4D4/following{/other_user}",
    "gists_url": "https://api.github.com/users/LK4D4/gists{/gist_id}",
    "starred_url": "https://api.github.com/users/LK4D4/starred{/owner}{/repo}",
    "subscriptions_url": "https://api.github.com/users/LK4D4/subscriptions",
    "organizations_url": "https://api.github.com/users/LK4D4/orgs",
    "repos_url": "https://api.github.com/users/LK4D4/repos",
    "events_url": "https://api.github.com/users/LK4D4/events{/privacy}",
    "received_events_url": "https://api.github.com/users/LK4D4/received_events",
    "type": "User",
    "site_admin": false
  },
  "created_at": "2015-04-10T01:25:04Z",
  "updated_at": "2015-04-10T01:25:04Z",
  "body": "LGTM"
}
]
