[
{
  "url": "https://api.github.com/repos/docker/docker/issues/comments/71038375",
  "html_url": "https://github.com/docker/docker/issues/10274#issuecomment-71038375",
  "issue_url": "https://api.github.com/repos/docker/docker/issues/10274",
  "id": 71038375,
  "user": {
    "login": "cpuguy83",
    "id": 799078,
    "avatar_url": "https://avatars.githubusercontent.com/u/799078?v=3",
    "gravatar_id": "",
    "url": "https://api.github.com/users/cpuguy83",
    "html_url": "https://github.com/cpuguy83",
    "followers_url": "https://api.github.com/users/cpuguy83/followers",
    "following_url": "https://api.github.com/users/cpuguy83/following{/other_user}",
    "gists_url": "https://api.github.com/users/cpuguy83/gists{/gist_id}",
    "starred_url": "https://api.github.com/users/cpuguy83/starred{/owner}{/repo}",
    "subscriptions_url": "https://api.github.com/users/cpuguy83/subscriptions",
    "organizations_url": "https://api.github.com/users/cpuguy83/orgs",
    "repos_url": "https://api.github.com/users/cpuguy83/repos",
    "events_url": "https://api.github.com/users/cpuguy83/events{/privacy}",
    "received_events_url": "https://api.github.com/users/cpuguy83/received_events",
    "type": "User",
    "site_admin": false
  },
  "created_at": "2015-01-22T15:32:42Z",
  "updated_at": "2015-01-22T15:32:42Z",
  "body": "@cwallervand This issue is specifically with your vagrant setup, not Docker.\r\n\r\nThe permissions for mounted in volumes are not modified at all, but since you are running through shared folders, vagrant is mounting those files from your VM host and mapping those to a different user on the guest OS (CoreOS here?).\r\n\r\nThe solution?  Tweak vagrant to give you the proper permissions on the shared folder.\r\n\r\nAlso, instead of doing \"npm install\", which installs modules locally, you should install the modules globally `npm install -g`.  This ensures the modules are available to your app inside the container without it writing new module files to your project dir which are compiled for Linux.\r\nThis has the added benefit in that you can do this in your Dockerfile without having to re-run it when you mount your code into the container.\r\n\r\nI'm going to close this since it's not really a Docker issue, although we are trying to help make these issues go away here #7249.  It looks rather dormant, but not entirely.\r\n\r\nIf you have any questions, please ping here... or preferably on #docker on freenode."
}
, {
  "url": "https://api.github.com/repos/docker/docker/issues/comments/94556075",
  "html_url": "https://github.com/docker/docker/issues/10274#issuecomment-94556075",
  "issue_url": "https://api.github.com/repos/docker/docker/issues/10274",
  "id": 94556075,
  "user": {
    "login": "CharlieC3",
    "id": 2747302,
    "avatar_url": "https://avatars.githubusercontent.com/u/2747302?v=3",
    "gravatar_id": "",
    "url": "https://api.github.com/users/CharlieC3",
    "html_url": "https://github.com/CharlieC3",
    "followers_url": "https://api.github.com/users/CharlieC3/followers",
    "following_url": "https://api.github.com/users/CharlieC3/following{/other_user}",
    "gists_url": "https://api.github.com/users/CharlieC3/gists{/gist_id}",
    "starred_url": "https://api.github.com/users/CharlieC3/starred{/owner}{/repo}",
    "subscriptions_url": "https://api.github.com/users/CharlieC3/subscriptions",
    "organizations_url": "https://api.github.com/users/CharlieC3/orgs",
    "repos_url": "https://api.github.com/users/CharlieC3/repos",
    "events_url": "https://api.github.com/users/CharlieC3/events{/privacy}",
    "received_events_url": "https://api.github.com/users/CharlieC3/received_events",
    "type": "User",
    "site_admin": false
  },
  "created_at": "2015-04-20T20:10:30Z",
  "updated_at": "2015-04-20T20:11:22Z",
  "body": "Hey @cpuguy83, I have a similar issue and thought it might be useful to post it here.\r\n\r\nI'm using Docker containers within a Vagrant VM to build and run my app with heroku build packs. It works well in an OSX/Linux environment, but doesn't seem to work in a Windows (7) environment and can't figure out why.\r\n\r\nEssentially, the directory I share into my Vagrant VM is completely open. 777 permissions across the board (I know this is not recommended, but it's just for demo purposes of this problem). I then share the directory into a Docker container with `-v`, and it has full read/write permissions in there as well.\r\n\r\nThe Docker container may download some files and place them in the shared directory. The downloaded files being placed in the shared folder SHOULD be read/write/executable, however it's only read/executable. So if I were to try and delete the files downloaded in the Docker container or Vagrant VM, I get permissions issues (since it's not writable).\r\n\r\nIn an OSX/Linux environment, I don't encounter this problem. It works as expected, and file permissions are the same across the board (even for the downloaded files).\r\n\r\nDo you know why this may be happening? Any ideas, suggestions? Nothing I've found online helped."
}
, {
  "url": "https://api.github.com/repos/docker/docker/issues/comments/94793689",
  "html_url": "https://github.com/docker/docker/issues/10274#issuecomment-94793689",
  "issue_url": "https://api.github.com/repos/docker/docker/issues/10274",
  "id": 94793689,
  "user": {
    "login": "cwallervand",
    "id": 5435982,
    "avatar_url": "https://avatars.githubusercontent.com/u/5435982?v=3",
    "gravatar_id": "",
    "url": "https://api.github.com/users/cwallervand",
    "html_url": "https://github.com/cwallervand",
    "followers_url": "https://api.github.com/users/cwallervand/followers",
    "following_url": "https://api.github.com/users/cwallervand/following{/other_user}",
    "gists_url": "https://api.github.com/users/cwallervand/gists{/gist_id}",
    "starred_url": "https://api.github.com/users/cwallervand/starred{/owner}{/repo}",
    "subscriptions_url": "https://api.github.com/users/cwallervand/subscriptions",
    "organizations_url": "https://api.github.com/users/cwallervand/orgs",
    "repos_url": "https://api.github.com/users/cwallervand/repos",
    "events_url": "https://api.github.com/users/cwallervand/events{/privacy}",
    "received_events_url": "https://api.github.com/users/cwallervand/received_events",
    "type": "User",
    "site_admin": false
  },
  "created_at": "2015-04-21T13:29:02Z",
  "updated_at": "2015-04-21T13:29:02Z",
  "body": "I managed to solve this by using ```mount_options``` for the synced folder configuration in Vagrant like so: \r\n\r\n```\r\nconfig.vm.synced_folder \".\", \"/nodeApplication\",mount_options: [\"dmode=777\",\"fmode=777\"]\r\n```\r\n\r\nNote that the VM OS must support this kind of syncing (don't remember the name right now, sorry). For instance, it did not work with CoreOS as a VM OS, so I changed it to CentOS 7.0:\r\n```\r\nconfig.vm.box = \"chef/centos-7.0\"\r\n```\r\n\r\nAs you mentioned the 777 mode isn't optimal, but I only used Vagrant for development, not in production. \r\n\r\nHere is a snippet from my Vagrantfile:\r\n\r\n```\r\n\r\nVagrant.configure(2) do |config|\r\n  #Set the Vagrant box\r\n  config.vm.box = \"chef/centos-7.0\"\r\n\r\n......\r\n\r\n  config.vm.synced_folder \".\", \"/nodeApplication\",mount_options: [\"dmode=777\",\"fmode=777\"]\r\n\r\n  config.vm.define \"CentOS\" do |cos|\r\n\r\n    # Only run on first vagrant up\r\n    cos.vm.provision \"bootstrapVM\", type: \"shell\" do |s|\r\n      s.path = \"bootstrapVM.sh\"\r\n    end\r\n\r\n    cos.vm.provision \"shell\", run: \"always\", inline: \"sudo service docker restart\"\r\n\r\n    cos.vm.provision \"docker\", run: \"always\" do |d|\r\n\r\n      d.run \"application_image\",\r\n        args: \"-it -p 8080:8080 -v /nodeApplication/app:/nodeApplication\",\r\n        cmd: \"/bin/bash -c 'npm install;grunt;'\"\r\n    end\r\n\r\n  end\r\n\r\nend\r\n```\r\n\r\nI hope this was helpful"
}
]
