[
{
  "url": "https://api.github.com/repos/docker/docker/issues/comments/47375472",
  "html_url": "https://github.com/docker/docker/pull/6720#issuecomment-47375472",
  "issue_url": "https://api.github.com/repos/docker/docker/issues/6720",
  "id": 47375472,
  "user": {
    "login": "crosbymichael",
    "id": 749551,
    "avatar_url": "https://avatars.githubusercontent.com/u/749551?v=3",
    "gravatar_id": "",
    "url": "https://api.github.com/users/crosbymichael",
    "html_url": "https://github.com/crosbymichael",
    "followers_url": "https://api.github.com/users/crosbymichael/followers",
    "following_url": "https://api.github.com/users/crosbymichael/following{/other_user}",
    "gists_url": "https://api.github.com/users/crosbymichael/gists{/gist_id}",
    "starred_url": "https://api.github.com/users/crosbymichael/starred{/owner}{/repo}",
    "subscriptions_url": "https://api.github.com/users/crosbymichael/subscriptions",
    "organizations_url": "https://api.github.com/users/crosbymichael/orgs",
    "repos_url": "https://api.github.com/users/crosbymichael/repos",
    "events_url": "https://api.github.com/users/crosbymichael/events{/privacy}",
    "received_events_url": "https://api.github.com/users/crosbymichael/received_events",
    "type": "User",
    "site_admin": false
  },
  "created_at": "2014-06-27T17:11:15Z",
  "updated_at": "2014-06-27T17:11:15Z",
  "body": "ping @danielnorberg  \r\n\r\nDo you think you could help with reviewing this PR since you implemented DNS search? "
}
, {
  "url": "https://api.github.com/repos/docker/docker/issues/comments/47601268",
  "html_url": "https://github.com/docker/docker/pull/6720#issuecomment-47601268",
  "issue_url": "https://api.github.com/repos/docker/docker/issues/6720",
  "id": 47601268,
  "user": {
    "login": "danielnorberg",
    "id": 393289,
    "avatar_url": "https://avatars.githubusercontent.com/u/393289?v=3",
    "gravatar_id": "",
    "url": "https://api.github.com/users/danielnorberg",
    "html_url": "https://github.com/danielnorberg",
    "followers_url": "https://api.github.com/users/danielnorberg/followers",
    "following_url": "https://api.github.com/users/danielnorberg/following{/other_user}",
    "gists_url": "https://api.github.com/users/danielnorberg/gists{/gist_id}",
    "starred_url": "https://api.github.com/users/danielnorberg/starred{/owner}{/repo}",
    "subscriptions_url": "https://api.github.com/users/danielnorberg/subscriptions",
    "organizations_url": "https://api.github.com/users/danielnorberg/orgs",
    "repos_url": "https://api.github.com/users/danielnorberg/repos",
    "events_url": "https://api.github.com/users/danielnorberg/events{/privacy}",
    "received_events_url": "https://api.github.com/users/danielnorberg/received_events",
    "type": "User",
    "site_admin": false
  },
  "created_at": "2014-06-30T23:41:38Z",
  "updated_at": "2014-06-30T23:41:38Z",
  "body": "From RFC 2181: \r\n\r\n> The zero length full name is defined as representing the root of the DNS tree, and is typically written and displayed as \".\".\r\n\r\nhttp://tools.ietf.org/html/rfc2181#page-13\r\n\r\nAs such, I wonder if it would be more correct to simply allow `--dns-search=.`. I might prefer that over the somewhat magical string with a single space."
}
, {
  "url": "https://api.github.com/repos/docker/docker/issues/comments/47843478",
  "html_url": "https://github.com/docker/docker/pull/6720#issuecomment-47843478",
  "issue_url": "https://api.github.com/repos/docker/docker/issues/6720",
  "id": 47843478,
  "user": {
    "login": "fabiofalci",
    "id": 6767,
    "avatar_url": "https://avatars.githubusercontent.com/u/6767?v=3",
    "gravatar_id": "",
    "url": "https://api.github.com/users/fabiofalci",
    "html_url": "https://github.com/fabiofalci",
    "followers_url": "https://api.github.com/users/fabiofalci/followers",
    "following_url": "https://api.github.com/users/fabiofalci/following{/other_user}",
    "gists_url": "https://api.github.com/users/fabiofalci/gists{/gist_id}",
    "starred_url": "https://api.github.com/users/fabiofalci/starred{/owner}{/repo}",
    "subscriptions_url": "https://api.github.com/users/fabiofalci/subscriptions",
    "organizations_url": "https://api.github.com/users/fabiofalci/orgs",
    "repos_url": "https://api.github.com/users/fabiofalci/repos",
    "events_url": "https://api.github.com/users/fabiofalci/events{/privacy}",
    "received_events_url": "https://api.github.com/users/fabiofalci/received_events",
    "type": "User",
    "site_admin": false
  },
  "created_at": "2014-07-02T22:07:41Z",
  "updated_at": "2014-07-02T22:07:41Z",
  "body": "@danielnorberg Agree, I'll amend the PR to support . instead."
}
, {
  "url": "https://api.github.com/repos/docker/docker/issues/comments/48022858",
  "html_url": "https://github.com/docker/docker/pull/6720#issuecomment-48022858",
  "issue_url": "https://api.github.com/repos/docker/docker/issues/6720",
  "id": 48022858,
  "user": {
    "login": "fabiofalci",
    "id": 6767,
    "avatar_url": "https://avatars.githubusercontent.com/u/6767?v=3",
    "gravatar_id": "",
    "url": "https://api.github.com/users/fabiofalci",
    "html_url": "https://github.com/fabiofalci",
    "followers_url": "https://api.github.com/users/fabiofalci/followers",
    "following_url": "https://api.github.com/users/fabiofalci/following{/other_user}",
    "gists_url": "https://api.github.com/users/fabiofalci/gists{/gist_id}",
    "starred_url": "https://api.github.com/users/fabiofalci/starred{/owner}{/repo}",
    "subscriptions_url": "https://api.github.com/users/fabiofalci/subscriptions",
    "organizations_url": "https://api.github.com/users/fabiofalci/orgs",
    "repos_url": "https://api.github.com/users/fabiofalci/repos",
    "events_url": "https://api.github.com/users/fabiofalci/events{/privacy}",
    "received_events_url": "https://api.github.com/users/fabiofalci/received_events",
    "type": "User",
    "site_admin": false
  },
  "created_at": "2014-07-04T09:05:32Z",
  "updated_at": "2014-07-04T09:05:32Z",
  "body": "@danielnorberg changed to `--dns-search=.` instead of single space."
}
, {
  "url": "https://api.github.com/repos/docker/docker/issues/comments/48223995",
  "html_url": "https://github.com/docker/docker/pull/6720#issuecomment-48223995",
  "issue_url": "https://api.github.com/repos/docker/docker/issues/6720",
  "id": 48223995,
  "user": {
    "login": "crosbymichael",
    "id": 749551,
    "avatar_url": "https://avatars.githubusercontent.com/u/749551?v=3",
    "gravatar_id": "",
    "url": "https://api.github.com/users/crosbymichael",
    "html_url": "https://github.com/crosbymichael",
    "followers_url": "https://api.github.com/users/crosbymichael/followers",
    "following_url": "https://api.github.com/users/crosbymichael/following{/other_user}",
    "gists_url": "https://api.github.com/users/crosbymichael/gists{/gist_id}",
    "starred_url": "https://api.github.com/users/crosbymichael/starred{/owner}{/repo}",
    "subscriptions_url": "https://api.github.com/users/crosbymichael/subscriptions",
    "organizations_url": "https://api.github.com/users/crosbymichael/orgs",
    "repos_url": "https://api.github.com/users/crosbymichael/repos",
    "events_url": "https://api.github.com/users/crosbymichael/events{/privacy}",
    "received_events_url": "https://api.github.com/users/crosbymichael/received_events",
    "type": "User",
    "site_admin": false
  },
  "created_at": "2014-07-07T18:55:47Z",
  "updated_at": "2014-07-07T18:55:47Z",
  "body": "LGTM"
}
, {
  "url": "https://api.github.com/repos/docker/docker/issues/comments/48248331",
  "html_url": "https://github.com/docker/docker/pull/6720#issuecomment-48248331",
  "issue_url": "https://api.github.com/repos/docker/docker/issues/6720",
  "id": 48248331,
  "user": {
    "login": "vieux",
    "id": 1032519,
    "avatar_url": "https://avatars.githubusercontent.com/u/1032519?v=3",
    "gravatar_id": "",
    "url": "https://api.github.com/users/vieux",
    "html_url": "https://github.com/vieux",
    "followers_url": "https://api.github.com/users/vieux/followers",
    "following_url": "https://api.github.com/users/vieux/following{/other_user}",
    "gists_url": "https://api.github.com/users/vieux/gists{/gist_id}",
    "starred_url": "https://api.github.com/users/vieux/starred{/owner}{/repo}",
    "subscriptions_url": "https://api.github.com/users/vieux/subscriptions",
    "organizations_url": "https://api.github.com/users/vieux/orgs",
    "repos_url": "https://api.github.com/users/vieux/repos",
    "events_url": "https://api.github.com/users/vieux/events{/privacy}",
    "received_events_url": "https://api.github.com/users/vieux/received_events",
    "type": "User",
    "site_admin": false
  },
  "created_at": "2014-07-07T22:12:33Z",
  "updated_at": "2014-07-07T22:12:33Z",
  "body": "LGTM"
}
]
