[
{
  "url": "https://api.github.com/repos/docker/docker/issues/comments/71601319",
  "html_url": "https://github.com/docker/docker/issues/10332#issuecomment-71601319",
  "issue_url": "https://api.github.com/repos/docker/docker/issues/10332",
  "id": 71601319,
  "user": {
    "login": "icecrime",
    "id": 1564054,
    "avatar_url": "https://avatars.githubusercontent.com/u/1564054?v=3",
    "gravatar_id": "",
    "url": "https://api.github.com/users/icecrime",
    "html_url": "https://github.com/icecrime",
    "followers_url": "https://api.github.com/users/icecrime/followers",
    "following_url": "https://api.github.com/users/icecrime/following{/other_user}",
    "gists_url": "https://api.github.com/users/icecrime/gists{/gist_id}",
    "starred_url": "https://api.github.com/users/icecrime/starred{/owner}{/repo}",
    "subscriptions_url": "https://api.github.com/users/icecrime/subscriptions",
    "organizations_url": "https://api.github.com/users/icecrime/orgs",
    "repos_url": "https://api.github.com/users/icecrime/repos",
    "events_url": "https://api.github.com/users/icecrime/events{/privacy}",
    "received_events_url": "https://api.github.com/users/icecrime/received_events",
    "type": "User",
    "site_admin": false
  },
  "created_at": "2015-01-27T07:33:40Z",
  "updated_at": "2015-01-27T07:33:40Z",
  "body": "Wrong repo? :-)"
}
, {
  "url": "https://api.github.com/repos/docker/docker/issues/comments/71635271",
  "html_url": "https://github.com/docker/docker/issues/10332#issuecomment-71635271",
  "issue_url": "https://api.github.com/repos/docker/docker/issues/10332",
  "id": 71635271,
  "user": {
    "login": "cpuguy83",
    "id": 799078,
    "avatar_url": "https://avatars.githubusercontent.com/u/799078?v=3",
    "gravatar_id": "",
    "url": "https://api.github.com/users/cpuguy83",
    "html_url": "https://github.com/cpuguy83",
    "followers_url": "https://api.github.com/users/cpuguy83/followers",
    "following_url": "https://api.github.com/users/cpuguy83/following{/other_user}",
    "gists_url": "https://api.github.com/users/cpuguy83/gists{/gist_id}",
    "starred_url": "https://api.github.com/users/cpuguy83/starred{/owner}{/repo}",
    "subscriptions_url": "https://api.github.com/users/cpuguy83/subscriptions",
    "organizations_url": "https://api.github.com/users/cpuguy83/orgs",
    "repos_url": "https://api.github.com/users/cpuguy83/repos",
    "events_url": "https://api.github.com/users/cpuguy83/events{/privacy}",
    "received_events_url": "https://api.github.com/users/cpuguy83/received_events",
    "type": "User",
    "site_admin": false
  },
  "created_at": "2015-01-27T11:53:41Z",
  "updated_at": "2015-01-27T11:53:41Z",
  "body": "Whoops!"
}
]
