[
{
  "login": "dcramer",
  "id": 23610,
  "avatar_url": "https://avatars.githubusercontent.com/u/23610?v=3",
  "gravatar_id": "",
  "url": "https://api.github.com/users/dcramer",
  "html_url": "https://github.com/dcramer",
  "followers_url": "https://api.github.com/users/dcramer/followers",
  "following_url": "https://api.github.com/users/dcramer/following{/other_user}",
  "gists_url": "https://api.github.com/users/dcramer/gists{/gist_id}",
  "starred_url": "https://api.github.com/users/dcramer/starred{/owner}{/repo}",
  "subscriptions_url": "https://api.github.com/users/dcramer/subscriptions",
  "organizations_url": "https://api.github.com/users/dcramer/orgs",
  "repos_url": "https://api.github.com/users/dcramer/repos",
  "events_url": "https://api.github.com/users/dcramer/events{/privacy}",
  "received_events_url": "https://api.github.com/users/dcramer/received_events",
  "type": "User",
  "site_admin": false
}
, {
  "login": "mikeclarke",
  "id": 245199,
  "avatar_url": "https://avatars.githubusercontent.com/u/245199?v=3",
  "gravatar_id": "",
  "url": "https://api.github.com/users/mikeclarke",
  "html_url": "https://github.com/mikeclarke",
  "followers_url": "https://api.github.com/users/mikeclarke/followers",
  "following_url": "https://api.github.com/users/mikeclarke/following{/other_user}",
  "gists_url": "https://api.github.com/users/mikeclarke/gists{/gist_id}",
  "starred_url": "https://api.github.com/users/mikeclarke/starred{/owner}{/repo}",
  "subscriptions_url": "https://api.github.com/users/mikeclarke/subscriptions",
  "organizations_url": "https://api.github.com/users/mikeclarke/orgs",
  "repos_url": "https://api.github.com/users/mikeclarke/repos",
  "events_url": "https://api.github.com/users/mikeclarke/events{/privacy}",
  "received_events_url": "https://api.github.com/users/mikeclarke/received_events",
  "type": "User",
  "site_admin": false
}
, {
  "login": "mattrobenolt",
  "id": 375744,
  "avatar_url": "https://avatars.githubusercontent.com/u/375744?v=3",
  "gravatar_id": "",
  "url": "https://api.github.com/users/mattrobenolt",
  "html_url": "https://github.com/mattrobenolt",
  "followers_url": "https://api.github.com/users/mattrobenolt/followers",
  "following_url": "https://api.github.com/users/mattrobenolt/following{/other_user}",
  "gists_url": "https://api.github.com/users/mattrobenolt/gists{/gist_id}",
  "starred_url": "https://api.github.com/users/mattrobenolt/starred{/owner}{/repo}",
  "subscriptions_url": "https://api.github.com/users/mattrobenolt/subscriptions",
  "organizations_url": "https://api.github.com/users/mattrobenolt/orgs",
  "repos_url": "https://api.github.com/users/mattrobenolt/repos",
  "events_url": "https://api.github.com/users/mattrobenolt/events{/privacy}",
  "received_events_url": "https://api.github.com/users/mattrobenolt/received_events",
  "type": "User",
  "site_admin": false
}
, {
  "login": "ehfeng",
  "id": 279398,
  "avatar_url": "https://avatars.githubusercontent.com/u/279398?v=3",
  "gravatar_id": "",
  "url": "https://api.github.com/users/ehfeng",
  "html_url": "https://github.com/ehfeng",
  "followers_url": "https://api.github.com/users/ehfeng/followers",
  "following_url": "https://api.github.com/users/ehfeng/following{/other_user}",
  "gists_url": "https://api.github.com/users/ehfeng/gists{/gist_id}",
  "starred_url": "https://api.github.com/users/ehfeng/starred{/owner}{/repo}",
  "subscriptions_url": "https://api.github.com/users/ehfeng/subscriptions",
  "organizations_url": "https://api.github.com/users/ehfeng/orgs",
  "repos_url": "https://api.github.com/users/ehfeng/repos",
  "events_url": "https://api.github.com/users/ehfeng/events{/privacy}",
  "received_events_url": "https://api.github.com/users/ehfeng/received_events",
  "type": "User",
  "site_admin": false
}
, {
  "login": "kstenerud",
  "id": 245857,
  "avatar_url": "https://avatars.githubusercontent.com/u/245857?v=3",
  "gravatar_id": "",
  "url": "https://api.github.com/users/kstenerud",
  "html_url": "https://github.com/kstenerud",
  "followers_url": "https://api.github.com/users/kstenerud/followers",
  "following_url": "https://api.github.com/users/kstenerud/following{/other_user}",
  "gists_url": "https://api.github.com/users/kstenerud/gists{/gist_id}",
  "starred_url": "https://api.github.com/users/kstenerud/starred{/owner}{/repo}",
  "subscriptions_url": "https://api.github.com/users/kstenerud/subscriptions",
  "organizations_url": "https://api.github.com/users/kstenerud/orgs",
  "repos_url": "https://api.github.com/users/kstenerud/repos",
  "events_url": "https://api.github.com/users/kstenerud/events{/privacy}",
  "received_events_url": "https://api.github.com/users/kstenerud/received_events",
  "type": "User",
  "site_admin": false
}
]
