[
{
  "url": "https://api.github.com/repos/Azure/azure-sdk-for-ruby/issues/comments/15988839",
  "html_url": "https://github.com/Azure/azure-sdk-for-ruby/issues/23#issuecomment-15988839",
  "issue_url": "https://api.github.com/repos/Azure/azure-sdk-for-ruby/issues/23",
  "id": 15988839,
  "user": {
    "login": "guangyang",
    "id": 2089145,
    "avatar_url": "https://avatars.githubusercontent.com/u/2089145?v=3",
    "gravatar_id": "",
    "url": "https://api.github.com/users/guangyang",
    "html_url": "https://github.com/guangyang",
    "followers_url": "https://api.github.com/users/guangyang/followers",
    "following_url": "https://api.github.com/users/guangyang/following{/other_user}",
    "gists_url": "https://api.github.com/users/guangyang/gists{/gist_id}",
    "starred_url": "https://api.github.com/users/guangyang/starred{/owner}{/repo}",
    "subscriptions_url": "https://api.github.com/users/guangyang/subscriptions",
    "organizations_url": "https://api.github.com/users/guangyang/orgs",
    "repos_url": "https://api.github.com/users/guangyang/repos",
    "events_url": "https://api.github.com/users/guangyang/events{/privacy}",
    "received_events_url": "https://api.github.com/users/guangyang/received_events",
    "type": "User",
    "site_admin": false
  },
  "created_at": "2013-04-06T01:35:36Z",
  "updated_at": "2013-04-06T01:35:36Z",
  "body": "I think this is fixed now. Can you verify? Or describe how you generated that output and I can check?"
}
, {
  "url": "https://api.github.com/repos/Azure/azure-sdk-for-ruby/issues/comments/57735251",
  "html_url": "https://github.com/Azure/azure-sdk-for-ruby/issues/23#issuecomment-57735251",
  "issue_url": "https://api.github.com/repos/Azure/azure-sdk-for-ruby/issues/23",
  "id": 57735251,
  "user": {
    "login": "andrerod",
    "id": 457481,
    "avatar_url": "https://avatars.githubusercontent.com/u/457481?v=3",
    "gravatar_id": "",
    "url": "https://api.github.com/users/andrerod",
    "html_url": "https://github.com/andrerod",
    "followers_url": "https://api.github.com/users/andrerod/followers",
    "following_url": "https://api.github.com/users/andrerod/following{/other_user}",
    "gists_url": "https://api.github.com/users/andrerod/gists{/gist_id}",
    "starred_url": "https://api.github.com/users/andrerod/starred{/owner}{/repo}",
    "subscriptions_url": "https://api.github.com/users/andrerod/subscriptions",
    "organizations_url": "https://api.github.com/users/andrerod/orgs",
    "repos_url": "https://api.github.com/users/andrerod/repos",
    "events_url": "https://api.github.com/users/andrerod/events{/privacy}",
    "received_events_url": "https://api.github.com/users/andrerod/received_events",
    "type": "User",
    "site_admin": false
  },
  "created_at": "2014-10-03T00:58:43Z",
  "updated_at": "2014-10-03T00:58:43Z",
  "body": "believe to be fixed"
}
]
