[
{
  "url": "https://api.github.com/repos/hashicorp/consul-template/issues/comments/154733335",
  "html_url": "https://github.com/hashicorp/consul-template/issues/457#issuecomment-154733335",
  "issue_url": "https://api.github.com/repos/hashicorp/consul-template/issues/457",
  "id": 154733335,
  "user": {
    "login": "sethvargo",
    "id": 408570,
    "avatar_url": "https://avatars.githubusercontent.com/u/408570?v=3",
    "gravatar_id": "",
    "url": "https://api.github.com/users/sethvargo",
    "html_url": "https://github.com/sethvargo",
    "followers_url": "https://api.github.com/users/sethvargo/followers",
    "following_url": "https://api.github.com/users/sethvargo/following{/other_user}",
    "gists_url": "https://api.github.com/users/sethvargo/gists{/gist_id}",
    "starred_url": "https://api.github.com/users/sethvargo/starred{/owner}{/repo}",
    "subscriptions_url": "https://api.github.com/users/sethvargo/subscriptions",
    "organizations_url": "https://api.github.com/users/sethvargo/orgs",
    "repos_url": "https://api.github.com/users/sethvargo/repos",
    "events_url": "https://api.github.com/users/sethvargo/events{/privacy}",
    "received_events_url": "https://api.github.com/users/sethvargo/received_events",
    "type": "User",
    "site_admin": false
  },
  "created_at": "2015-11-07T18:17:51Z",
  "updated_at": "2015-11-07T18:17:51Z",
  "body": "Hi @gionn \r\n\r\nWe are focusing on improving the functionality of the project instead of maintaining an image. Consul Template is a static go binary with 0 dependencies, so the benefits of running inside a docker container are quite minimal as far as isolation goes. I understand the desire to be consistent, but we do not have a desire to maintain official Docker images for our projects at this time :smile:."
}
, {
  "url": "https://api.github.com/repos/hashicorp/consul-template/issues/comments/154735297",
  "html_url": "https://github.com/hashicorp/consul-template/issues/457#issuecomment-154735297",
  "issue_url": "https://api.github.com/repos/hashicorp/consul-template/issues/457",
  "id": 154735297,
  "user": {
    "login": "gionn",
    "id": 71768,
    "avatar_url": "https://avatars.githubusercontent.com/u/71768?v=3",
    "gravatar_id": "",
    "url": "https://api.github.com/users/gionn",
    "html_url": "https://github.com/gionn",
    "followers_url": "https://api.github.com/users/gionn/followers",
    "following_url": "https://api.github.com/users/gionn/following{/other_user}",
    "gists_url": "https://api.github.com/users/gionn/gists{/gist_id}",
    "starred_url": "https://api.github.com/users/gionn/starred{/owner}{/repo}",
    "subscriptions_url": "https://api.github.com/users/gionn/subscriptions",
    "organizations_url": "https://api.github.com/users/gionn/orgs",
    "repos_url": "https://api.github.com/users/gionn/repos",
    "events_url": "https://api.github.com/users/gionn/events{/privacy}",
    "received_events_url": "https://api.github.com/users/gionn/received_events",
    "type": "User",
    "site_admin": false
  },
  "created_at": "2015-11-07T18:37:56Z",
  "updated_at": "2015-11-07T18:37:56Z",
  "body": "You are right, but I just find very useful to streamline deployments on dev and prod environments via docker:\r\n\r\ndocker run is the new curl && tar xf && make install :stuck_out_tongue_winking_eye: \r\n"
}
]
