[
{
  "url": "https://api.github.com/repos/elastic/beats/issues/comments/68839643",
  "html_url": "https://github.com/elastic/beats/issues/83#issuecomment-68839643",
  "issue_url": "https://api.github.com/repos/elastic/beats/issues/83",
  "id": 68839643,
  "user": {
    "login": "rickard-von-essen",
    "id": 557699,
    "avatar_url": "https://avatars.githubusercontent.com/u/557699?v=3",
    "gravatar_id": "",
    "url": "https://api.github.com/users/rickard-von-essen",
    "html_url": "https://github.com/rickard-von-essen",
    "followers_url": "https://api.github.com/users/rickard-von-essen/followers",
    "following_url": "https://api.github.com/users/rickard-von-essen/following{/other_user}",
    "gists_url": "https://api.github.com/users/rickard-von-essen/gists{/gist_id}",
    "starred_url": "https://api.github.com/users/rickard-von-essen/starred{/owner}{/repo}",
    "subscriptions_url": "https://api.github.com/users/rickard-von-essen/subscriptions",
    "organizations_url": "https://api.github.com/users/rickard-von-essen/orgs",
    "repos_url": "https://api.github.com/users/rickard-von-essen/repos",
    "events_url": "https://api.github.com/users/rickard-von-essen/events{/privacy}",
    "received_events_url": "https://api.github.com/users/rickard-von-essen/received_events",
    "type": "User",
    "site_admin": false
  },
  "created_at": "2015-01-06T08:42:16Z",
  "updated_at": "2015-01-06T08:42:16Z",
  "body": "Run packetbeat manually from the command line with verbose. It usually tells you what is wrong. Usually the is a error in the cfg. "
}
, {
  "url": "https://api.github.com/repos/elastic/beats/issues/comments/68842078",
  "html_url": "https://github.com/elastic/beats/issues/83#issuecomment-68842078",
  "issue_url": "https://api.github.com/repos/elastic/beats/issues/83",
  "id": 68842078,
  "user": {
    "login": "ghost",
    "id": 10137,
    "avatar_url": "https://avatars.githubusercontent.com/u/10137?v=3",
    "gravatar_id": "",
    "url": "https://api.github.com/users/ghost",
    "html_url": "https://github.com/ghost",
    "followers_url": "https://api.github.com/users/ghost/followers",
    "following_url": "https://api.github.com/users/ghost/following{/other_user}",
    "gists_url": "https://api.github.com/users/ghost/gists{/gist_id}",
    "starred_url": "https://api.github.com/users/ghost/starred{/owner}{/repo}",
    "subscriptions_url": "https://api.github.com/users/ghost/subscriptions",
    "organizations_url": "https://api.github.com/users/ghost/orgs",
    "repos_url": "https://api.github.com/users/ghost/repos",
    "events_url": "https://api.github.com/users/ghost/events{/privacy}",
    "received_events_url": "https://api.github.com/users/ghost/received_events",
    "type": "User",
    "site_admin": false
  },
  "created_at": "2015-01-06T09:12:52Z",
  "updated_at": "2015-01-06T09:12:52Z",
  "body": "Thanks rickard-von-essen . Started packetbeat agent after fixing my issue in elasticsearch.  "
}
]
