[
{
  "url": "https://api.github.com/repos/thoughtbot/guides/issues/comments/8145755",
  "html_url": "https://github.com/thoughtbot/guides/issues/2#issuecomment-8145755",
  "issue_url": "https://api.github.com/repos/thoughtbot/guides/issues/2",
  "id": 8145755,
  "user": {
    "login": "joshuaclayton",
    "id": 1574,
    "avatar_url": "https://avatars.githubusercontent.com/u/1574?v=3",
    "gravatar_id": "",
    "url": "https://api.github.com/users/joshuaclayton",
    "html_url": "https://github.com/joshuaclayton",
    "followers_url": "https://api.github.com/users/joshuaclayton/followers",
    "following_url": "https://api.github.com/users/joshuaclayton/following{/other_user}",
    "gists_url": "https://api.github.com/users/joshuaclayton/gists{/gist_id}",
    "starred_url": "https://api.github.com/users/joshuaclayton/starred{/owner}{/repo}",
    "subscriptions_url": "https://api.github.com/users/joshuaclayton/subscriptions",
    "organizations_url": "https://api.github.com/users/joshuaclayton/orgs",
    "repos_url": "https://api.github.com/users/joshuaclayton/repos",
    "events_url": "https://api.github.com/users/joshuaclayton/events{/privacy}",
    "received_events_url": "https://api.github.com/users/joshuaclayton/received_events",
    "type": "User",
    "site_admin": false
  },
  "created_at": "2012-08-30T00:23:47Z",
  "updated_at": "2012-08-30T00:23:47Z",
  "body": "Instance variables should be avoided except in very specific circumstances (LevelUp, while using Test::Unit + shoulda, had an explicit style which recommends instance variables, for example).\n\nThe only state that would possibly carry over in *RSpec* would be data structures created in the `before` block; with that in mind, I try to minimize the amount of code written in before blocks and instead build up state per test. This means a faster test suite (typically) because some tests may not need EVERY piece of data generated in the test setup. Additionally, it allows for more explicit data creation, many times through a DSL, making it a lot easier to read.\n\nIn the Intro to Test-Driven Rails workshop, I recommend against instance variables in steps for a number of reasons. First, steps which are already coupled to each other based on application state are additionally coupled when you start using instance variables. The steps I've seen using ivars end up doing something along the lines of `@ivar ||= something` or adding additional steps to set instance variables manually. Second, if your steps don't currently use ivars, adding them typically requires additional work to convert existing steps or set them when necessary. Third, it encourages better step writing (`Given I am signed in` when you don't care about the user's email vs `Given I am signed in as \"josh@thoughtbot.com\"` when email does matter in the scenario) by being explicit about the data that you care about. Most data can be referred to by a pseudo-PK (for a user, it's email; for a todo, it's title), so I tend to focus on creating data with that explicitly, but *only when I need to refer back to it*.\n\nI feel the same way about ivars in Cucumber steps as I do in RSpec integration tests - instance variables can be used there to set up state and write really sexy methods that refer to the variables, but I think that the issues I mentioned with Cucumber steps carry through here as well. Generally, I try to avoid mutation as much as possible in all aspects of my code, specs and features included."
}
, {
  "url": "https://api.github.com/repos/thoughtbot/guides/issues/comments/8159140",
  "html_url": "https://github.com/thoughtbot/guides/issues/2#issuecomment-8159140",
  "issue_url": "https://api.github.com/repos/thoughtbot/guides/issues/2",
  "id": 8159140,
  "user": {
    "login": "jferris",
    "id": 7591,
    "avatar_url": "https://avatars.githubusercontent.com/u/7591?v=3",
    "gravatar_id": "",
    "url": "https://api.github.com/users/jferris",
    "html_url": "https://github.com/jferris",
    "followers_url": "https://api.github.com/users/jferris/followers",
    "following_url": "https://api.github.com/users/jferris/following{/other_user}",
    "gists_url": "https://api.github.com/users/jferris/gists{/gist_id}",
    "starred_url": "https://api.github.com/users/jferris/starred{/owner}{/repo}",
    "subscriptions_url": "https://api.github.com/users/jferris/subscriptions",
    "organizations_url": "https://api.github.com/users/jferris/orgs",
    "repos_url": "https://api.github.com/users/jferris/repos",
    "events_url": "https://api.github.com/users/jferris/events{/privacy}",
    "received_events_url": "https://api.github.com/users/jferris/received_events",
    "type": "User",
    "site_admin": false
  },
  "created_at": "2012-08-30T13:25:18Z",
  "updated_at": "2012-08-30T13:25:18Z",
  "body": "The current style guide already advises against using `before` blocks. I'd also advise against using instance variables."
}
]
