[
{
  "url": "https://api.github.com/repos/facebook/PathPicker/issues/comments/101412152",
  "html_url": "https://github.com/facebook/PathPicker/pull/87#issuecomment-101412152",
  "issue_url": "https://api.github.com/repos/facebook/PathPicker/issues/87",
  "id": 101412152,
  "user": {
    "login": "pcottle",
    "id": 1135007,
    "avatar_url": "https://avatars.githubusercontent.com/u/1135007?v=3",
    "gravatar_id": "",
    "url": "https://api.github.com/users/pcottle",
    "html_url": "https://github.com/pcottle",
    "followers_url": "https://api.github.com/users/pcottle/followers",
    "following_url": "https://api.github.com/users/pcottle/following{/other_user}",
    "gists_url": "https://api.github.com/users/pcottle/gists{/gist_id}",
    "starred_url": "https://api.github.com/users/pcottle/starred{/owner}{/repo}",
    "subscriptions_url": "https://api.github.com/users/pcottle/subscriptions",
    "organizations_url": "https://api.github.com/users/pcottle/orgs",
    "repos_url": "https://api.github.com/users/pcottle/repos",
    "events_url": "https://api.github.com/users/pcottle/events{/privacy}",
    "received_events_url": "https://api.github.com/users/pcottle/received_events",
    "type": "User",
    "site_admin": false
  },
  "created_at": "2015-05-12T20:34:48Z",
  "updated_at": "2015-05-12T20:34:56Z",
  "body": "Do you mind if we chose #86 over this? My only hesitation with tox is that then we introduce a dependency and need setup.py, `pip`, etc etc. I kind of like how this project is a leaf node right now in the dependency graph, and since Travis CI provides the same functionality I think it's a lighter-weight solution\r\n\r\nBeen loving your other PR's though @zkanda, lemme know if you disagree on tox vs travis"
}
]
