[
{
  "url": "https://api.github.com/repos/openstack/glance/issues/6",
  "labels_url": "https://api.github.com/repos/openstack/glance/issues/6/labels{/name}",
  "comments_url": "https://api.github.com/repos/openstack/glance/issues/6/comments",
  "events_url": "https://api.github.com/repos/openstack/glance/issues/6/events",
  "html_url": "https://github.com/openstack/glance/pull/6",
  "id": 125146250,
  "number": 6,
  "title": "Missing whitespace",
  "user": {
    "login": "vincent-legoll",
    "id": 12657074,
    "avatar_url": "https://avatars.githubusercontent.com/u/12657074?v=3",
    "gravatar_id": "",
    "url": "https://api.github.com/users/vincent-legoll",
    "html_url": "https://github.com/vincent-legoll",
    "followers_url": "https://api.github.com/users/vincent-legoll/followers",
    "following_url": "https://api.github.com/users/vincent-legoll/following{/other_user}",
    "gists_url": "https://api.github.com/users/vincent-legoll/gists{/gist_id}",
    "starred_url": "https://api.github.com/users/vincent-legoll/starred{/owner}{/repo}",
    "subscriptions_url": "https://api.github.com/users/vincent-legoll/subscriptions",
    "organizations_url": "https://api.github.com/users/vincent-legoll/orgs",
    "repos_url": "https://api.github.com/users/vincent-legoll/repos",
    "events_url": "https://api.github.com/users/vincent-legoll/events{/privacy}",
    "received_events_url": "https://api.github.com/users/vincent-legoll/received_events",
    "type": "User",
    "site_admin": false
  },
  "labels": [],
  "state": "closed",
  "locked": false,
  "assignee": null,
  "milestone": null,
  "comments": 1,
  "created_at": "2016-01-06T10:06:21Z",
  "updated_at": "2016-01-06T10:09:03Z",
  "closed_at": "2016-01-06T10:09:03Z",
  "pull_request": {
    "url": "https://api.github.com/repos/openstack/glance/pulls/6",
    "html_url": "https://github.com/openstack/glance/pull/6",
    "diff_url": "https://github.com/openstack/glance/pull/6.diff",
    "patch_url": "https://github.com/openstack/glance/pull/6.patch"
  },
  "body": "Just a few missing whitespace in comments"
}
, {
  "url": "https://api.github.com/repos/openstack/glance/issues/5",
  "labels_url": "https://api.github.com/repos/openstack/glance/issues/5/labels{/name}",
  "comments_url": "https://api.github.com/repos/openstack/glance/issues/5/comments",
  "events_url": "https://api.github.com/repos/openstack/glance/issues/5/events",
  "html_url": "https://github.com/openstack/glance/pull/5",
  "id": 115148470,
  "number": 5,
  "title": "Stable/juno",
  "user": {
    "login": "poudelhari",
    "id": 15240952,
    "avatar_url": "https://avatars.githubusercontent.com/u/15240952?v=3",
    "gravatar_id": "",
    "url": "https://api.github.com/users/poudelhari",
    "html_url": "https://github.com/poudelhari",
    "followers_url": "https://api.github.com/users/poudelhari/followers",
    "following_url": "https://api.github.com/users/poudelhari/following{/other_user}",
    "gists_url": "https://api.github.com/users/poudelhari/gists{/gist_id}",
    "starred_url": "https://api.github.com/users/poudelhari/starred{/owner}{/repo}",
    "subscriptions_url": "https://api.github.com/users/poudelhari/subscriptions",
    "organizations_url": "https://api.github.com/users/poudelhari/orgs",
    "repos_url": "https://api.github.com/users/poudelhari/repos",
    "events_url": "https://api.github.com/users/poudelhari/events{/privacy}",
    "received_events_url": "https://api.github.com/users/poudelhari/received_events",
    "type": "User",
    "site_admin": false
  },
  "labels": [],
  "state": "closed",
  "locked": false,
  "assignee": null,
  "milestone": null,
  "comments": 1,
  "created_at": "2015-11-04T21:09:53Z",
  "updated_at": "2015-12-07T21:13:37Z",
  "closed_at": "2015-11-04T21:53:48Z",
  "pull_request": {
    "url": "https://api.github.com/repos/openstack/glance/pulls/5",
    "html_url": "https://github.com/openstack/glance/pull/5",
    "diff_url": "https://github.com/openstack/glance/pull/5.diff",
    "patch_url": "https://github.com/openstack/glance/pull/5.patch"
  },
  "body": "Global requirements clean up still required"
}
, {
  "url": "https://api.github.com/repos/openstack/glance/issues/4",
  "labels_url": "https://api.github.com/repos/openstack/glance/issues/4/labels{/name}",
  "comments_url": "https://api.github.com/repos/openstack/glance/issues/4/comments",
  "events_url": "https://api.github.com/repos/openstack/glance/issues/4/events",
  "html_url": "https://github.com/openstack/glance/pull/4",
  "id": 38346984,
  "number": 4,
  "title": "Started Parsing of OVF file, using a sample ovf",
  "user": {
    "login": "kfwang",
    "id": 8205241,
    "avatar_url": "https://avatars.githubusercontent.com/u/8205241?v=3",
    "gravatar_id": "",
    "url": "https://api.github.com/users/kfwang",
    "html_url": "https://github.com/kfwang",
    "followers_url": "https://api.github.com/users/kfwang/followers",
    "following_url": "https://api.github.com/users/kfwang/following{/other_user}",
    "gists_url": "https://api.github.com/users/kfwang/gists{/gist_id}",
    "starred_url": "https://api.github.com/users/kfwang/starred{/owner}{/repo}",
    "subscriptions_url": "https://api.github.com/users/kfwang/subscriptions",
    "organizations_url": "https://api.github.com/users/kfwang/orgs",
    "repos_url": "https://api.github.com/users/kfwang/repos",
    "events_url": "https://api.github.com/users/kfwang/events{/privacy}",
    "received_events_url": "https://api.github.com/users/kfwang/received_events",
    "type": "User",
    "site_admin": false
  },
  "labels": [],
  "state": "closed",
  "locked": false,
  "assignee": null,
  "milestone": null,
  "comments": 1,
  "created_at": "2014-07-21T21:30:03Z",
  "updated_at": "2014-07-21T21:37:01Z",
  "closed_at": "2014-07-21T21:37:01Z",
  "pull_request": {
    "url": "https://api.github.com/repos/openstack/glance/pulls/4",
    "html_url": "https://github.com/openstack/glance/pull/4",
    "diff_url": "https://github.com/openstack/glance/pull/4.diff",
    "patch_url": "https://github.com/openstack/glance/pull/4.patch"
  },
  "body": ""
}
, {
  "url": "https://api.github.com/repos/openstack/glance/issues/3",
  "labels_url": "https://api.github.com/repos/openstack/glance/issues/3/labels{/name}",
  "comments_url": "https://api.github.com/repos/openstack/glance/issues/3/comments",
  "events_url": "https://api.github.com/repos/openstack/glance/issues/3/events",
  "html_url": "https://github.com/openstack/glance/pull/3",
  "id": 25927368,
  "number": 3,
  "title": "Add InnoDB declaration for image_locations table",
  "user": {
    "login": "andronat",
    "id": 793408,
    "avatar_url": "https://avatars.githubusercontent.com/u/793408?v=3",
    "gravatar_id": "",
    "url": "https://api.github.com/users/andronat",
    "html_url": "https://github.com/andronat",
    "followers_url": "https://api.github.com/users/andronat/followers",
    "following_url": "https://api.github.com/users/andronat/following{/other_user}",
    "gists_url": "https://api.github.com/users/andronat/gists{/gist_id}",
    "starred_url": "https://api.github.com/users/andronat/starred{/owner}{/repo}",
    "subscriptions_url": "https://api.github.com/users/andronat/subscriptions",
    "organizations_url": "https://api.github.com/users/andronat/orgs",
    "repos_url": "https://api.github.com/users/andronat/repos",
    "events_url": "https://api.github.com/users/andronat/events{/privacy}",
    "received_events_url": "https://api.github.com/users/andronat/received_events",
    "type": "User",
    "site_admin": false
  },
  "labels": [],
  "state": "closed",
  "locked": false,
  "assignee": null,
  "milestone": null,
  "comments": 2,
  "created_at": "2014-01-20T15:49:26Z",
  "updated_at": "2014-08-06T05:54:17Z",
  "closed_at": "2014-01-22T09:23:32Z",
  "pull_request": {
    "url": "https://api.github.com/repos/openstack/glance/pulls/3",
    "html_url": "https://github.com/openstack/glance/pull/3",
    "diff_url": "https://github.com/openstack/glance/pull/3.diff",
    "patch_url": "https://github.com/openstack/glance/pull/3.patch"
  },
  "body": "Hello, there is a bug for this table. When a MySQL has as default table a different engine than InnoDB, (e.g. ndbcluster) glance-mananger db_sync is failing."
}
, {
  "url": "https://api.github.com/repos/openstack/glance/issues/2",
  "labels_url": "https://api.github.com/repos/openstack/glance/issues/2/labels{/name}",
  "comments_url": "https://api.github.com/repos/openstack/glance/issues/2/comments",
  "events_url": "https://api.github.com/repos/openstack/glance/issues/2/events",
  "html_url": "https://github.com/openstack/glance/pull/2",
  "id": 16291208,
  "number": 2,
  "title": "Clean up api.py",
  "user": {
    "login": "derekchiang",
    "id": 1535686,
    "avatar_url": "https://avatars.githubusercontent.com/u/1535686?v=3",
    "gravatar_id": "",
    "url": "https://api.github.com/users/derekchiang",
    "html_url": "https://github.com/derekchiang",
    "followers_url": "https://api.github.com/users/derekchiang/followers",
    "following_url": "https://api.github.com/users/derekchiang/following{/other_user}",
    "gists_url": "https://api.github.com/users/derekchiang/gists{/gist_id}",
    "starred_url": "https://api.github.com/users/derekchiang/starred{/owner}{/repo}",
    "subscriptions_url": "https://api.github.com/users/derekchiang/subscriptions",
    "organizations_url": "https://api.github.com/users/derekchiang/orgs",
    "repos_url": "https://api.github.com/users/derekchiang/repos",
    "events_url": "https://api.github.com/users/derekchiang/events{/privacy}",
    "received_events_url": "https://api.github.com/users/derekchiang/received_events",
    "type": "User",
    "site_admin": false
  },
  "labels": [],
  "state": "closed",
  "locked": false,
  "assignee": null,
  "milestone": null,
  "comments": 1,
  "created_at": "2013-07-02T22:11:20Z",
  "updated_at": "2013-07-02T22:11:50Z",
  "closed_at": "2013-07-02T22:11:50Z",
  "pull_request": {
    "url": "https://api.github.com/repos/openstack/glance/pulls/2",
    "html_url": "https://github.com/openstack/glance/pull/2",
    "diff_url": "https://github.com/openstack/glance/pull/2.diff",
    "patch_url": "https://github.com/openstack/glance/pull/2.patch"
  },
  "body": "Get rid of redundant code."
}
]
