[
{
  "url": "https://api.github.com/repos/Azure/azure-powershell/issues/comments/134379661",
  "html_url": "https://github.com/Azure/azure-powershell/issues/790#issuecomment-134379661",
  "issue_url": "https://api.github.com/repos/Azure/azure-powershell/issues/790",
  "id": 134379661,
  "user": {
    "login": "fabiendibot",
    "id": 3489856,
    "avatar_url": "https://avatars.githubusercontent.com/u/3489856?v=3",
    "gravatar_id": "",
    "url": "https://api.github.com/users/fabiendibot",
    "html_url": "https://github.com/fabiendibot",
    "followers_url": "https://api.github.com/users/fabiendibot/followers",
    "following_url": "https://api.github.com/users/fabiendibot/following{/other_user}",
    "gists_url": "https://api.github.com/users/fabiendibot/gists{/gist_id}",
    "starred_url": "https://api.github.com/users/fabiendibot/starred{/owner}{/repo}",
    "subscriptions_url": "https://api.github.com/users/fabiendibot/subscriptions",
    "organizations_url": "https://api.github.com/users/fabiendibot/orgs",
    "repos_url": "https://api.github.com/users/fabiendibot/repos",
    "events_url": "https://api.github.com/users/fabiendibot/events{/privacy}",
    "received_events_url": "https://api.github.com/users/fabiendibot/received_events",
    "type": "User",
    "site_admin": false
  },
  "created_at": "2015-08-24T21:04:18Z",
  "updated_at": "2015-08-24T21:04:18Z",
  "body": "My mistake.."
}
, {
  "url": "https://api.github.com/repos/Azure/azure-powershell/issues/comments/134381501",
  "html_url": "https://github.com/Azure/azure-powershell/issues/790#issuecomment-134381501",
  "issue_url": "https://api.github.com/repos/Azure/azure-powershell/issues/790",
  "id": 134381501,
  "user": {
    "login": "pcgeek86",
    "id": 466713,
    "avatar_url": "https://avatars.githubusercontent.com/u/466713?v=3",
    "gravatar_id": "",
    "url": "https://api.github.com/users/pcgeek86",
    "html_url": "https://github.com/pcgeek86",
    "followers_url": "https://api.github.com/users/pcgeek86/followers",
    "following_url": "https://api.github.com/users/pcgeek86/following{/other_user}",
    "gists_url": "https://api.github.com/users/pcgeek86/gists{/gist_id}",
    "starred_url": "https://api.github.com/users/pcgeek86/starred{/owner}{/repo}",
    "subscriptions_url": "https://api.github.com/users/pcgeek86/subscriptions",
    "organizations_url": "https://api.github.com/users/pcgeek86/orgs",
    "repos_url": "https://api.github.com/users/pcgeek86/repos",
    "events_url": "https://api.github.com/users/pcgeek86/events{/privacy}",
    "received_events_url": "https://api.github.com/users/pcgeek86/received_events",
    "type": "User",
    "site_admin": false
  },
  "created_at": "2015-08-24T21:11:56Z",
  "updated_at": "2015-08-24T21:11:56Z",
  "body": "Hello,\r\n\r\nTo provide some closure to this, Fabien was using the legacy \"PublishSettings\" file to authenticate to Azure. Since this mechanism doesn't support Azure Resource Manager (ARM), to the best of my knowledge, Fabien switched over to using Azure Active Directory (AAD) authentication via the `Add-AzureAccount` cmdlet, which successfully provided him a user token to authenticate to the ARM API.\r\n\r\nCheers,\r\n**Trevor Sullivan**\r\nMicrosoft MVP: PowerShell\r\nhttp://trevorsullivan.net\r\nhttp://twitter.com/pcgeek86"
}
]
