[
{
  "url": "https://api.github.com/repos/Azure/azure-powershell/issues/comments/83815868",
  "html_url": "https://github.com/Azure/azure-powershell/pull/281#issuecomment-83815868",
  "issue_url": "https://api.github.com/repos/Azure/azure-powershell/issues/281",
  "id": 83815868,
  "user": {
    "login": "azurecla",
    "id": 8030856,
    "avatar_url": "https://avatars.githubusercontent.com/u/8030856?v=3",
    "gravatar_id": "",
    "url": "https://api.github.com/users/azurecla",
    "html_url": "https://github.com/azurecla",
    "followers_url": "https://api.github.com/users/azurecla/followers",
    "following_url": "https://api.github.com/users/azurecla/following{/other_user}",
    "gists_url": "https://api.github.com/users/azurecla/gists{/gist_id}",
    "starred_url": "https://api.github.com/users/azurecla/starred{/owner}{/repo}",
    "subscriptions_url": "https://api.github.com/users/azurecla/subscriptions",
    "organizations_url": "https://api.github.com/users/azurecla/orgs",
    "repos_url": "https://api.github.com/users/azurecla/repos",
    "events_url": "https://api.github.com/users/azurecla/events{/privacy}",
    "received_events_url": "https://api.github.com/users/azurecla/received_events",
    "type": "User",
    "site_admin": false
  },
  "created_at": "2015-03-20T00:10:06Z",
  "updated_at": "2015-03-20T00:10:06Z",
  "body": "Hi __@yadavbdev__, I'm your friendly neighborhood Azure Pull Request Bot (You can call me AZPRBOT). Thanks for your contribution!\n    <p>\n        It looks like you're working at Microsoft (yadavb). If you're full-time, we DON'T require a contribution license agreement.\n    </p>\n    <p>\n        If you are a vendor, or work for Microsoft Open Technologies, DO please sign the electronic contribution license agreement. It will take 2 minutes and there's no faxing! https://cla.azure.com.\n    </p>\n\nTTYL, AZPRBOT;\n"
}
, {
  "url": "https://api.github.com/repos/Azure/azure-powershell/issues/comments/83816576",
  "html_url": "https://github.com/Azure/azure-powershell/pull/281#issuecomment-83816576",
  "issue_url": "https://api.github.com/repos/Azure/azure-powershell/issues/281",
  "id": 83816576,
  "user": {
    "login": "AzureRT",
    "id": 3448558,
    "avatar_url": "https://avatars.githubusercontent.com/u/3448558?v=3",
    "gravatar_id": "",
    "url": "https://api.github.com/users/AzureRT",
    "html_url": "https://github.com/AzureRT",
    "followers_url": "https://api.github.com/users/AzureRT/followers",
    "following_url": "https://api.github.com/users/AzureRT/following{/other_user}",
    "gists_url": "https://api.github.com/users/AzureRT/gists{/gist_id}",
    "starred_url": "https://api.github.com/users/AzureRT/starred{/owner}{/repo}",
    "subscriptions_url": "https://api.github.com/users/AzureRT/subscriptions",
    "organizations_url": "https://api.github.com/users/AzureRT/orgs",
    "repos_url": "https://api.github.com/users/AzureRT/repos",
    "events_url": "https://api.github.com/users/AzureRT/events{/privacy}",
    "received_events_url": "https://api.github.com/users/AzureRT/received_events",
    "type": "User",
    "site_admin": false
  },
  "created_at": "2015-03-20T00:13:24Z",
  "updated_at": "2015-03-20T00:13:24Z",
  "body": "Can one of the admins verify this patch?"
}
]
