[
{
  "url": "https://api.github.com/repos/mutualmobile/MMWormhole/issues/comments/118639440",
  "html_url": "https://github.com/mutualmobile/MMWormhole/issues/49#issuecomment-118639440",
  "issue_url": "https://api.github.com/repos/mutualmobile/MMWormhole/issues/49",
  "id": 118639440,
  "user": {
    "login": "HiddenJester",
    "id": 892119,
    "avatar_url": "https://avatars.githubusercontent.com/u/892119?v=3",
    "gravatar_id": "",
    "url": "https://api.github.com/users/HiddenJester",
    "html_url": "https://github.com/HiddenJester",
    "followers_url": "https://api.github.com/users/HiddenJester/followers",
    "following_url": "https://api.github.com/users/HiddenJester/following{/other_user}",
    "gists_url": "https://api.github.com/users/HiddenJester/gists{/gist_id}",
    "starred_url": "https://api.github.com/users/HiddenJester/starred{/owner}{/repo}",
    "subscriptions_url": "https://api.github.com/users/HiddenJester/subscriptions",
    "organizations_url": "https://api.github.com/users/HiddenJester/orgs",
    "repos_url": "https://api.github.com/users/HiddenJester/repos",
    "events_url": "https://api.github.com/users/HiddenJester/events{/privacy}",
    "received_events_url": "https://api.github.com/users/HiddenJester/received_events",
    "type": "User",
    "site_admin": false
  },
  "created_at": "2015-07-05T17:30:23Z",
  "updated_at": "2015-07-05T17:30:23Z",
  "body": "I just submitted a pull request that fixes this warning."
}
, {
  "url": "https://api.github.com/repos/mutualmobile/MMWormhole/issues/comments/140231298",
  "html_url": "https://github.com/mutualmobile/MMWormhole/issues/49#issuecomment-140231298",
  "issue_url": "https://api.github.com/repos/mutualmobile/MMWormhole/issues/49",
  "id": 140231298,
  "user": {
    "login": "cnstoll",
    "id": 1586401,
    "avatar_url": "https://avatars.githubusercontent.com/u/1586401?v=3",
    "gravatar_id": "",
    "url": "https://api.github.com/users/cnstoll",
    "html_url": "https://github.com/cnstoll",
    "followers_url": "https://api.github.com/users/cnstoll/followers",
    "following_url": "https://api.github.com/users/cnstoll/following{/other_user}",
    "gists_url": "https://api.github.com/users/cnstoll/gists{/gist_id}",
    "starred_url": "https://api.github.com/users/cnstoll/starred{/owner}{/repo}",
    "subscriptions_url": "https://api.github.com/users/cnstoll/subscriptions",
    "organizations_url": "https://api.github.com/users/cnstoll/orgs",
    "repos_url": "https://api.github.com/users/cnstoll/repos",
    "events_url": "https://api.github.com/users/cnstoll/events{/privacy}",
    "received_events_url": "https://api.github.com/users/cnstoll/received_events",
    "type": "User",
    "site_admin": false
  },
  "created_at": "2015-09-14T23:19:26Z",
  "updated_at": "2015-09-14T23:19:26Z",
  "body": "Pulled this in as part of the watchOS branch :)"
}
]
