[
{
  "login": "tmcw",
  "id": 32314,
  "avatar_url": "https://avatars.githubusercontent.com/u/32314?v=3",
  "gravatar_id": "",
  "url": "https://api.github.com/users/tmcw",
  "html_url": "https://github.com/tmcw",
  "followers_url": "https://api.github.com/users/tmcw/followers",
  "following_url": "https://api.github.com/users/tmcw/following{/other_user}",
  "gists_url": "https://api.github.com/users/tmcw/gists{/gist_id}",
  "starred_url": "https://api.github.com/users/tmcw/starred{/owner}{/repo}",
  "subscriptions_url": "https://api.github.com/users/tmcw/subscriptions",
  "organizations_url": "https://api.github.com/users/tmcw/orgs",
  "repos_url": "https://api.github.com/users/tmcw/repos",
  "events_url": "https://api.github.com/users/tmcw/events{/privacy}",
  "received_events_url": "https://api.github.com/users/tmcw/received_events",
  "type": "User",
  "site_admin": false,
  "contributions": 37
}
, {
  "login": "scothis",
  "id": 302992,
  "avatar_url": "https://avatars.githubusercontent.com/u/302992?v=3",
  "gravatar_id": "",
  "url": "https://api.github.com/users/scothis",
  "html_url": "https://github.com/scothis",
  "followers_url": "https://api.github.com/users/scothis/followers",
  "following_url": "https://api.github.com/users/scothis/following{/other_user}",
  "gists_url": "https://api.github.com/users/scothis/gists{/gist_id}",
  "starred_url": "https://api.github.com/users/scothis/starred{/owner}{/repo}",
  "subscriptions_url": "https://api.github.com/users/scothis/subscriptions",
  "organizations_url": "https://api.github.com/users/scothis/orgs",
  "repos_url": "https://api.github.com/users/scothis/repos",
  "events_url": "https://api.github.com/users/scothis/events{/privacy}",
  "received_events_url": "https://api.github.com/users/scothis/received_events",
  "type": "User",
  "site_admin": false,
  "contributions": 6
}
, {
  "login": "aristidesstaffieri",
  "id": 6886006,
  "avatar_url": "https://avatars.githubusercontent.com/u/6886006?v=3",
  "gravatar_id": "",
  "url": "https://api.github.com/users/aristidesstaffieri",
  "html_url": "https://github.com/aristidesstaffieri",
  "followers_url": "https://api.github.com/users/aristidesstaffieri/followers",
  "following_url": "https://api.github.com/users/aristidesstaffieri/following{/other_user}",
  "gists_url": "https://api.github.com/users/aristidesstaffieri/gists{/gist_id}",
  "starred_url": "https://api.github.com/users/aristidesstaffieri/starred{/owner}{/repo}",
  "subscriptions_url": "https://api.github.com/users/aristidesstaffieri/subscriptions",
  "organizations_url": "https://api.github.com/users/aristidesstaffieri/orgs",
  "repos_url": "https://api.github.com/users/aristidesstaffieri/repos",
  "events_url": "https://api.github.com/users/aristidesstaffieri/events{/privacy}",
  "received_events_url": "https://api.github.com/users/aristidesstaffieri/received_events",
  "type": "User",
  "site_admin": false,
  "contributions": 1
}
]
