[
{
  "login": "martymcguire",
  "id": 14772,
  "avatar_url": "https://avatars.githubusercontent.com/u/14772?v=3",
  "gravatar_id": "",
  "url": "https://api.github.com/users/martymcguire",
  "html_url": "https://github.com/martymcguire",
  "followers_url": "https://api.github.com/users/martymcguire/followers",
  "following_url": "https://api.github.com/users/martymcguire/following{/other_user}",
  "gists_url": "https://api.github.com/users/martymcguire/gists{/gist_id}",
  "starred_url": "https://api.github.com/users/martymcguire/starred{/owner}{/repo}",
  "subscriptions_url": "https://api.github.com/users/martymcguire/subscriptions",
  "organizations_url": "https://api.github.com/users/martymcguire/orgs",
  "repos_url": "https://api.github.com/users/martymcguire/repos",
  "events_url": "https://api.github.com/users/martymcguire/events{/privacy}",
  "received_events_url": "https://api.github.com/users/martymcguire/received_events",
  "type": "User",
  "site_admin": false
}
, {
  "login": "brennen",
  "id": 74990,
  "avatar_url": "https://avatars.githubusercontent.com/u/74990?v=3",
  "gravatar_id": "",
  "url": "https://api.github.com/users/brennen",
  "html_url": "https://github.com/brennen",
  "followers_url": "https://api.github.com/users/brennen/followers",
  "following_url": "https://api.github.com/users/brennen/following{/other_user}",
  "gists_url": "https://api.github.com/users/brennen/gists{/gist_id}",
  "starred_url": "https://api.github.com/users/brennen/starred{/owner}{/repo}",
  "subscriptions_url": "https://api.github.com/users/brennen/subscriptions",
  "organizations_url": "https://api.github.com/users/brennen/orgs",
  "repos_url": "https://api.github.com/users/brennen/repos",
  "events_url": "https://api.github.com/users/brennen/events{/privacy}",
  "received_events_url": "https://api.github.com/users/brennen/received_events",
  "type": "User",
  "site_admin": false
}
, {
  "login": "microbuilder",
  "id": 181073,
  "avatar_url": "https://avatars.githubusercontent.com/u/181073?v=3",
  "gravatar_id": "",
  "url": "https://api.github.com/users/microbuilder",
  "html_url": "https://github.com/microbuilder",
  "followers_url": "https://api.github.com/users/microbuilder/followers",
  "following_url": "https://api.github.com/users/microbuilder/following{/other_user}",
  "gists_url": "https://api.github.com/users/microbuilder/gists{/gist_id}",
  "starred_url": "https://api.github.com/users/microbuilder/starred{/owner}{/repo}",
  "subscriptions_url": "https://api.github.com/users/microbuilder/subscriptions",
  "organizations_url": "https://api.github.com/users/microbuilder/orgs",
  "repos_url": "https://api.github.com/users/microbuilder/repos",
  "events_url": "https://api.github.com/users/microbuilder/events{/privacy}",
  "received_events_url": "https://api.github.com/users/microbuilder/received_events",
  "type": "User",
  "site_admin": false
}
, {
  "login": "jwcooper",
  "id": 311256,
  "avatar_url": "https://avatars.githubusercontent.com/u/311256?v=3",
  "gravatar_id": "",
  "url": "https://api.github.com/users/jwcooper",
  "html_url": "https://github.com/jwcooper",
  "followers_url": "https://api.github.com/users/jwcooper/followers",
  "following_url": "https://api.github.com/users/jwcooper/following{/other_user}",
  "gists_url": "https://api.github.com/users/jwcooper/gists{/gist_id}",
  "starred_url": "https://api.github.com/users/jwcooper/starred{/owner}{/repo}",
  "subscriptions_url": "https://api.github.com/users/jwcooper/subscriptions",
  "organizations_url": "https://api.github.com/users/jwcooper/orgs",
  "repos_url": "https://api.github.com/users/jwcooper/repos",
  "events_url": "https://api.github.com/users/jwcooper/events{/privacy}",
  "received_events_url": "https://api.github.com/users/jwcooper/received_events",
  "type": "User",
  "site_admin": false
}
, {
  "login": "bekathwia",
  "id": 443264,
  "avatar_url": "https://avatars.githubusercontent.com/u/443264?v=3",
  "gravatar_id": "",
  "url": "https://api.github.com/users/bekathwia",
  "html_url": "https://github.com/bekathwia",
  "followers_url": "https://api.github.com/users/bekathwia/followers",
  "following_url": "https://api.github.com/users/bekathwia/following{/other_user}",
  "gists_url": "https://api.github.com/users/bekathwia/gists{/gist_id}",
  "starred_url": "https://api.github.com/users/bekathwia/starred{/owner}{/repo}",
  "subscriptions_url": "https://api.github.com/users/bekathwia/subscriptions",
  "organizations_url": "https://api.github.com/users/bekathwia/orgs",
  "repos_url": "https://api.github.com/users/bekathwia/repos",
  "events_url": "https://api.github.com/users/bekathwia/events{/privacy}",
  "received_events_url": "https://api.github.com/users/bekathwia/received_events",
  "type": "User",
  "site_admin": false
}
, {
  "login": "CupNoodles",
  "id": 865850,
  "avatar_url": "https://avatars.githubusercontent.com/u/865850?v=3",
  "gravatar_id": "",
  "url": "https://api.github.com/users/CupNoodles",
  "html_url": "https://github.com/CupNoodles",
  "followers_url": "https://api.github.com/users/CupNoodles/followers",
  "following_url": "https://api.github.com/users/CupNoodles/following{/other_user}",
  "gists_url": "https://api.github.com/users/CupNoodles/gists{/gist_id}",
  "starred_url": "https://api.github.com/users/CupNoodles/starred{/owner}{/repo}",
  "subscriptions_url": "https://api.github.com/users/CupNoodles/subscriptions",
  "organizations_url": "https://api.github.com/users/CupNoodles/orgs",
  "repos_url": "https://api.github.com/users/CupNoodles/repos",
  "events_url": "https://api.github.com/users/CupNoodles/events{/privacy}",
  "received_events_url": "https://api.github.com/users/CupNoodles/received_events",
  "type": "User",
  "site_admin": false
}
, {
  "login": "djecken",
  "id": 869133,
  "avatar_url": "https://avatars.githubusercontent.com/u/869133?v=3",
  "gravatar_id": "",
  "url": "https://api.github.com/users/djecken",
  "html_url": "https://github.com/djecken",
  "followers_url": "https://api.github.com/users/djecken/followers",
  "following_url": "https://api.github.com/users/djecken/following{/other_user}",
  "gists_url": "https://api.github.com/users/djecken/gists{/gist_id}",
  "starred_url": "https://api.github.com/users/djecken/starred{/owner}{/repo}",
  "subscriptions_url": "https://api.github.com/users/djecken/subscriptions",
  "organizations_url": "https://api.github.com/users/djecken/orgs",
  "repos_url": "https://api.github.com/users/djecken/repos",
  "events_url": "https://api.github.com/users/djecken/events{/privacy}",
  "received_events_url": "https://api.github.com/users/djecken/received_events",
  "type": "User",
  "site_admin": false
}
, {
  "login": "PaintYourDragon",
  "id": 887611,
  "avatar_url": "https://avatars.githubusercontent.com/u/887611?v=3",
  "gravatar_id": "",
  "url": "https://api.github.com/users/PaintYourDragon",
  "html_url": "https://github.com/PaintYourDragon",
  "followers_url": "https://api.github.com/users/PaintYourDragon/followers",
  "following_url": "https://api.github.com/users/PaintYourDragon/following{/other_user}",
  "gists_url": "https://api.github.com/users/PaintYourDragon/gists{/gist_id}",
  "starred_url": "https://api.github.com/users/PaintYourDragon/starred{/owner}{/repo}",
  "subscriptions_url": "https://api.github.com/users/PaintYourDragon/subscriptions",
  "organizations_url": "https://api.github.com/users/PaintYourDragon/orgs",
  "repos_url": "https://api.github.com/users/PaintYourDragon/repos",
  "events_url": "https://api.github.com/users/PaintYourDragon/events{/privacy}",
  "received_events_url": "https://api.github.com/users/PaintYourDragon/received_events",
  "type": "User",
  "site_admin": false
}
, {
  "login": "iworkinpixels",
  "id": 1134283,
  "avatar_url": "https://avatars.githubusercontent.com/u/1134283?v=3",
  "gravatar_id": "",
  "url": "https://api.github.com/users/iworkinpixels",
  "html_url": "https://github.com/iworkinpixels",
  "followers_url": "https://api.github.com/users/iworkinpixels/followers",
  "following_url": "https://api.github.com/users/iworkinpixels/following{/other_user}",
  "gists_url": "https://api.github.com/users/iworkinpixels/gists{/gist_id}",
  "starred_url": "https://api.github.com/users/iworkinpixels/starred{/owner}{/repo}",
  "subscriptions_url": "https://api.github.com/users/iworkinpixels/subscriptions",
  "organizations_url": "https://api.github.com/users/iworkinpixels/orgs",
  "repos_url": "https://api.github.com/users/iworkinpixels/repos",
  "events_url": "https://api.github.com/users/iworkinpixels/events{/privacy}",
  "received_events_url": "https://api.github.com/users/iworkinpixels/received_events",
  "type": "User",
  "site_admin": false
}
, {
  "login": "ladyada",
  "id": 1214161,
  "avatar_url": "https://avatars.githubusercontent.com/u/1214161?v=3",
  "gravatar_id": "",
  "url": "https://api.github.com/users/ladyada",
  "html_url": "https://github.com/ladyada",
  "followers_url": "https://api.github.com/users/ladyada/followers",
  "following_url": "https://api.github.com/users/ladyada/following{/other_user}",
  "gists_url": "https://api.github.com/users/ladyada/gists{/gist_id}",
  "starred_url": "https://api.github.com/users/ladyada/starred{/owner}{/repo}",
  "subscriptions_url": "https://api.github.com/users/ladyada/subscriptions",
  "organizations_url": "https://api.github.com/users/ladyada/orgs",
  "repos_url": "https://api.github.com/users/ladyada/repos",
  "events_url": "https://api.github.com/users/ladyada/events{/privacy}",
  "received_events_url": "https://api.github.com/users/ladyada/received_events",
  "type": "User",
  "site_admin": false
}
, {
  "login": "tdicola",
  "id": 1332183,
  "avatar_url": "https://avatars.githubusercontent.com/u/1332183?v=3",
  "gravatar_id": "",
  "url": "https://api.github.com/users/tdicola",
  "html_url": "https://github.com/tdicola",
  "followers_url": "https://api.github.com/users/tdicola/followers",
  "following_url": "https://api.github.com/users/tdicola/following{/other_user}",
  "gists_url": "https://api.github.com/users/tdicola/gists{/gist_id}",
  "starred_url": "https://api.github.com/users/tdicola/starred{/owner}{/repo}",
  "subscriptions_url": "https://api.github.com/users/tdicola/subscriptions",
  "organizations_url": "https://api.github.com/users/tdicola/orgs",
  "repos_url": "https://api.github.com/users/tdicola/repos",
  "events_url": "https://api.github.com/users/tdicola/events{/privacy}",
  "received_events_url": "https://api.github.com/users/tdicola/received_events",
  "type": "User",
  "site_admin": false
}
, {
  "login": "tylerdcooper",
  "id": 1672997,
  "avatar_url": "https://avatars.githubusercontent.com/u/1672997?v=3",
  "gravatar_id": "",
  "url": "https://api.github.com/users/tylerdcooper",
  "html_url": "https://github.com/tylerdcooper",
  "followers_url": "https://api.github.com/users/tylerdcooper/followers",
  "following_url": "https://api.github.com/users/tylerdcooper/following{/other_user}",
  "gists_url": "https://api.github.com/users/tylerdcooper/gists{/gist_id}",
  "starred_url": "https://api.github.com/users/tylerdcooper/starred{/owner}{/repo}",
  "subscriptions_url": "https://api.github.com/users/tylerdcooper/subscriptions",
  "organizations_url": "https://api.github.com/users/tylerdcooper/orgs",
  "repos_url": "https://api.github.com/users/tylerdcooper/repos",
  "events_url": "https://api.github.com/users/tylerdcooper/events{/privacy}",
  "received_events_url": "https://api.github.com/users/tylerdcooper/received_events",
  "type": "User",
  "site_admin": false
}
, {
  "login": "ptorrone",
  "id": 1685947,
  "avatar_url": "https://avatars.githubusercontent.com/u/1685947?v=3",
  "gravatar_id": "",
  "url": "https://api.github.com/users/ptorrone",
  "html_url": "https://github.com/ptorrone",
  "followers_url": "https://api.github.com/users/ptorrone/followers",
  "following_url": "https://api.github.com/users/ptorrone/following{/other_user}",
  "gists_url": "https://api.github.com/users/ptorrone/gists{/gist_id}",
  "starred_url": "https://api.github.com/users/ptorrone/starred{/owner}{/repo}",
  "subscriptions_url": "https://api.github.com/users/ptorrone/subscriptions",
  "organizations_url": "https://api.github.com/users/ptorrone/orgs",
  "repos_url": "https://api.github.com/users/ptorrone/repos",
  "events_url": "https://api.github.com/users/ptorrone/events{/privacy}",
  "received_events_url": "https://api.github.com/users/ptorrone/received_events",
  "type": "User",
  "site_admin": false
}
, {
  "login": "driverblock",
  "id": 1778691,
  "avatar_url": "https://avatars.githubusercontent.com/u/1778691?v=3",
  "gravatar_id": "",
  "url": "https://api.github.com/users/driverblock",
  "html_url": "https://github.com/driverblock",
  "followers_url": "https://api.github.com/users/driverblock/followers",
  "following_url": "https://api.github.com/users/driverblock/following{/other_user}",
  "gists_url": "https://api.github.com/users/driverblock/gists{/gist_id}",
  "starred_url": "https://api.github.com/users/driverblock/starred{/owner}{/repo}",
  "subscriptions_url": "https://api.github.com/users/driverblock/subscriptions",
  "organizations_url": "https://api.github.com/users/driverblock/orgs",
  "repos_url": "https://api.github.com/users/driverblock/repos",
  "events_url": "https://api.github.com/users/driverblock/events{/privacy}",
  "received_events_url": "https://api.github.com/users/driverblock/received_events",
  "type": "User",
  "site_admin": false
}
, {
  "login": "apolakipso",
  "id": 494674,
  "avatar_url": "https://avatars.githubusercontent.com/u/494674?v=3",
  "gravatar_id": "",
  "url": "https://api.github.com/users/apolakipso",
  "html_url": "https://github.com/apolakipso",
  "followers_url": "https://api.github.com/users/apolakipso/followers",
  "following_url": "https://api.github.com/users/apolakipso/following{/other_user}",
  "gists_url": "https://api.github.com/users/apolakipso/gists{/gist_id}",
  "starred_url": "https://api.github.com/users/apolakipso/starred{/owner}{/repo}",
  "subscriptions_url": "https://api.github.com/users/apolakipso/subscriptions",
  "organizations_url": "https://api.github.com/users/apolakipso/orgs",
  "repos_url": "https://api.github.com/users/apolakipso/repos",
  "events_url": "https://api.github.com/users/apolakipso/events{/privacy}",
  "received_events_url": "https://api.github.com/users/apolakipso/received_events",
  "type": "User",
  "site_admin": false
}
, {
  "login": "toddtreece",
  "id": 360020,
  "avatar_url": "https://avatars.githubusercontent.com/u/360020?v=3",
  "gravatar_id": "",
  "url": "https://api.github.com/users/toddtreece",
  "html_url": "https://github.com/toddtreece",
  "followers_url": "https://api.github.com/users/toddtreece/followers",
  "following_url": "https://api.github.com/users/toddtreece/following{/other_user}",
  "gists_url": "https://api.github.com/users/toddtreece/gists{/gist_id}",
  "starred_url": "https://api.github.com/users/toddtreece/starred{/owner}{/repo}",
  "subscriptions_url": "https://api.github.com/users/toddtreece/subscriptions",
  "organizations_url": "https://api.github.com/users/toddtreece/orgs",
  "repos_url": "https://api.github.com/users/toddtreece/repos",
  "events_url": "https://api.github.com/users/toddtreece/events{/privacy}",
  "received_events_url": "https://api.github.com/users/toddtreece/received_events",
  "type": "User",
  "site_admin": false
}
, {
  "login": "jmzjmzjmz",
  "id": 1585659,
  "avatar_url": "https://avatars.githubusercontent.com/u/1585659?v=3",
  "gravatar_id": "",
  "url": "https://api.github.com/users/jmzjmzjmz",
  "html_url": "https://github.com/jmzjmzjmz",
  "followers_url": "https://api.github.com/users/jmzjmzjmz/followers",
  "following_url": "https://api.github.com/users/jmzjmzjmz/following{/other_user}",
  "gists_url": "https://api.github.com/users/jmzjmzjmz/gists{/gist_id}",
  "starred_url": "https://api.github.com/users/jmzjmzjmz/starred{/owner}{/repo}",
  "subscriptions_url": "https://api.github.com/users/jmzjmzjmz/subscriptions",
  "organizations_url": "https://api.github.com/users/jmzjmzjmz/orgs",
  "repos_url": "https://api.github.com/users/jmzjmzjmz/repos",
  "events_url": "https://api.github.com/users/jmzjmzjmz/events{/privacy}",
  "received_events_url": "https://api.github.com/users/jmzjmzjmz/received_events",
  "type": "User",
  "site_admin": false
}
]
