[
{
  "url": "https://api.github.com/repos/google/shaka-player/issues/comments/172678237",
  "html_url": "https://github.com/google/shaka-player/issues/270#issuecomment-172678237",
  "issue_url": "https://api.github.com/repos/google/shaka-player/issues/270",
  "id": 172678237,
  "user": {
    "login": "joeyparrish",
    "id": 6843156,
    "avatar_url": "https://avatars.githubusercontent.com/u/6843156?v=3",
    "gravatar_id": "",
    "url": "https://api.github.com/users/joeyparrish",
    "html_url": "https://github.com/joeyparrish",
    "followers_url": "https://api.github.com/users/joeyparrish/followers",
    "following_url": "https://api.github.com/users/joeyparrish/following{/other_user}",
    "gists_url": "https://api.github.com/users/joeyparrish/gists{/gist_id}",
    "starred_url": "https://api.github.com/users/joeyparrish/starred{/owner}{/repo}",
    "subscriptions_url": "https://api.github.com/users/joeyparrish/subscriptions",
    "organizations_url": "https://api.github.com/users/joeyparrish/orgs",
    "repos_url": "https://api.github.com/users/joeyparrish/repos",
    "events_url": "https://api.github.com/users/joeyparrish/events{/privacy}",
    "received_events_url": "https://api.github.com/users/joeyparrish/received_events",
    "type": "User",
    "site_admin": false
  },
  "created_at": "2016-01-18T23:13:35Z",
  "updated_at": "2016-01-18T23:13:35Z",
  "body": "Shaka is codec-agnostic.  It supports whatever the browser supports.  Codec support is checked via MediaSource.isTypeSupported() for all media and navigator.requestMediaKeySystemAccess() for encrypted media.\r\n\r\nShaka treats Representations that the browser can't play as if they don't exist.  So your manifest can have multiple audio codecs, and Shaka will choose one that the browser supports.\r\n\r\nDoes that answer your question?"
}
, {
  "url": "https://api.github.com/repos/google/shaka-player/issues/comments/172820217",
  "html_url": "https://github.com/google/shaka-player/issues/270#issuecomment-172820217",
  "issue_url": "https://api.github.com/repos/google/shaka-player/issues/270",
  "id": 172820217,
  "user": {
    "login": "MegaLabs1",
    "id": 2102317,
    "avatar_url": "https://avatars.githubusercontent.com/u/2102317?v=3",
    "gravatar_id": "",
    "url": "https://api.github.com/users/MegaLabs1",
    "html_url": "https://github.com/MegaLabs1",
    "followers_url": "https://api.github.com/users/MegaLabs1/followers",
    "following_url": "https://api.github.com/users/MegaLabs1/following{/other_user}",
    "gists_url": "https://api.github.com/users/MegaLabs1/gists{/gist_id}",
    "starred_url": "https://api.github.com/users/MegaLabs1/starred{/owner}{/repo}",
    "subscriptions_url": "https://api.github.com/users/MegaLabs1/subscriptions",
    "organizations_url": "https://api.github.com/users/MegaLabs1/orgs",
    "repos_url": "https://api.github.com/users/MegaLabs1/repos",
    "events_url": "https://api.github.com/users/MegaLabs1/events{/privacy}",
    "received_events_url": "https://api.github.com/users/MegaLabs1/received_events",
    "type": "User",
    "site_admin": false
  },
  "created_at": "2016-01-19T11:13:15Z",
  "updated_at": "2016-01-19T11:13:15Z",
  "body": "Yes, i am satisfied with your answer, thanks."
}
, {
  "url": "https://api.github.com/repos/google/shaka-player/issues/comments/172887650",
  "html_url": "https://github.com/google/shaka-player/issues/270#issuecomment-172887650",
  "issue_url": "https://api.github.com/repos/google/shaka-player/issues/270",
  "id": 172887650,
  "user": {
    "login": "joeyparrish",
    "id": 6843156,
    "avatar_url": "https://avatars.githubusercontent.com/u/6843156?v=3",
    "gravatar_id": "",
    "url": "https://api.github.com/users/joeyparrish",
    "html_url": "https://github.com/joeyparrish",
    "followers_url": "https://api.github.com/users/joeyparrish/followers",
    "following_url": "https://api.github.com/users/joeyparrish/following{/other_user}",
    "gists_url": "https://api.github.com/users/joeyparrish/gists{/gist_id}",
    "starred_url": "https://api.github.com/users/joeyparrish/starred{/owner}{/repo}",
    "subscriptions_url": "https://api.github.com/users/joeyparrish/subscriptions",
    "organizations_url": "https://api.github.com/users/joeyparrish/orgs",
    "repos_url": "https://api.github.com/users/joeyparrish/repos",
    "events_url": "https://api.github.com/users/joeyparrish/events{/privacy}",
    "received_events_url": "https://api.github.com/users/joeyparrish/received_events",
    "type": "User",
    "site_admin": false
  },
  "created_at": "2016-01-19T15:26:01Z",
  "updated_at": "2016-01-19T15:26:01Z",
  "body": "No problem. Always happy to help."
}
]
