[
{
  "url": "https://api.github.com/repos/square/okhttp/issues/comments/168270120",
  "html_url": "https://github.com/square/okhttp/pull/2180#issuecomment-168270120",
  "issue_url": "https://api.github.com/repos/square/okhttp/issues/2180",
  "id": 168270120,
  "user": {
    "login": "swankjesse",
    "id": 133019,
    "avatar_url": "https://avatars.githubusercontent.com/u/133019?v=3",
    "gravatar_id": "",
    "url": "https://api.github.com/users/swankjesse",
    "html_url": "https://github.com/swankjesse",
    "followers_url": "https://api.github.com/users/swankjesse/followers",
    "following_url": "https://api.github.com/users/swankjesse/following{/other_user}",
    "gists_url": "https://api.github.com/users/swankjesse/gists{/gist_id}",
    "starred_url": "https://api.github.com/users/swankjesse/starred{/owner}{/repo}",
    "subscriptions_url": "https://api.github.com/users/swankjesse/subscriptions",
    "organizations_url": "https://api.github.com/users/swankjesse/orgs",
    "repos_url": "https://api.github.com/users/swankjesse/repos",
    "events_url": "https://api.github.com/users/swankjesse/events{/privacy}",
    "received_events_url": "https://api.github.com/users/swankjesse/received_events",
    "type": "User",
    "site_admin": false
  },
  "created_at": "2016-01-01T01:00:43Z",
  "updated_at": "2016-01-01T01:00:43Z",
  "body": "I’m going to just merge this cherry-pick! Original PR is https://github.com/square/okhttp/pull/2179"
}
, {
  "url": "https://api.github.com/repos/square/okhttp/issues/comments/168274044",
  "html_url": "https://github.com/square/okhttp/pull/2180#issuecomment-168274044",
  "issue_url": "https://api.github.com/repos/square/okhttp/issues/2180",
  "id": 168274044,
  "user": {
    "login": "JakeWharton",
    "id": 66577,
    "avatar_url": "https://avatars.githubusercontent.com/u/66577?v=3",
    "gravatar_id": "",
    "url": "https://api.github.com/users/JakeWharton",
    "html_url": "https://github.com/JakeWharton",
    "followers_url": "https://api.github.com/users/JakeWharton/followers",
    "following_url": "https://api.github.com/users/JakeWharton/following{/other_user}",
    "gists_url": "https://api.github.com/users/JakeWharton/gists{/gist_id}",
    "starred_url": "https://api.github.com/users/JakeWharton/starred{/owner}{/repo}",
    "subscriptions_url": "https://api.github.com/users/JakeWharton/subscriptions",
    "organizations_url": "https://api.github.com/users/JakeWharton/orgs",
    "repos_url": "https://api.github.com/users/JakeWharton/repos",
    "events_url": "https://api.github.com/users/JakeWharton/events{/privacy}",
    "received_events_url": "https://api.github.com/users/JakeWharton/received_events",
    "type": "User",
    "site_admin": false
  },
  "created_at": "2016-01-01T02:00:02Z",
  "updated_at": "2016-01-01T02:00:02Z",
  "body": "SGTM\n\nOn Thu, Dec 31, 2015, 8:00 PM Jesse Wilson <notifications@github.com> wrote:\n\n> I’m going to just merge this cherry-pick! Original PR is #2179\n> <https://github.com/square/okhttp/pull/2179>\n>\n> —\n> Reply to this email directly or view it on GitHub\n> <https://github.com/square/okhttp/pull/2180#issuecomment-168270120>.\n>\n"
}
]
