[
{
  "url": "https://api.github.com/repos/Netflix/falcor-datasource-chainer/issues/comments/156452374",
  "html_url": "https://github.com/Netflix/falcor-datasource-chainer/issues/3#issuecomment-156452374",
  "issue_url": "https://api.github.com/repos/Netflix/falcor-datasource-chainer/issues/3",
  "id": 156452374,
  "user": {
    "login": "michaelbpaulson",
    "id": 4458174,
    "avatar_url": "https://avatars.githubusercontent.com/u/4458174?v=3",
    "gravatar_id": "",
    "url": "https://api.github.com/users/michaelbpaulson",
    "html_url": "https://github.com/michaelbpaulson",
    "followers_url": "https://api.github.com/users/michaelbpaulson/followers",
    "following_url": "https://api.github.com/users/michaelbpaulson/following{/other_user}",
    "gists_url": "https://api.github.com/users/michaelbpaulson/gists{/gist_id}",
    "starred_url": "https://api.github.com/users/michaelbpaulson/starred{/owner}{/repo}",
    "subscriptions_url": "https://api.github.com/users/michaelbpaulson/subscriptions",
    "organizations_url": "https://api.github.com/users/michaelbpaulson/orgs",
    "repos_url": "https://api.github.com/users/michaelbpaulson/repos",
    "events_url": "https://api.github.com/users/michaelbpaulson/events{/privacy}",
    "received_events_url": "https://api.github.com/users/michaelbpaulson/received_events",
    "type": "User",
    "site_admin": false
  },
  "created_at": "2015-11-13T14:51:13Z",
  "updated_at": "2015-11-13T14:51:13Z",
  "body": "https://github.com/Netflix/falcor/issues/615"
}
]
