[
{
  "url": "https://api.github.com/repos/douban/code/issues/comments/35301545",
  "html_url": "https://github.com/douban/code/pull/18#issuecomment-35301545",
  "issue_url": "https://api.github.com/repos/douban/code/issues/18",
  "id": 35301545,
  "user": {
    "login": "qingfeng",
    "id": 18495,
    "avatar_url": "https://avatars.githubusercontent.com/u/18495?v=3",
    "gravatar_id": "",
    "url": "https://api.github.com/users/qingfeng",
    "html_url": "https://github.com/qingfeng",
    "followers_url": "https://api.github.com/users/qingfeng/followers",
    "following_url": "https://api.github.com/users/qingfeng/following{/other_user}",
    "gists_url": "https://api.github.com/users/qingfeng/gists{/gist_id}",
    "starred_url": "https://api.github.com/users/qingfeng/starred{/owner}{/repo}",
    "subscriptions_url": "https://api.github.com/users/qingfeng/subscriptions",
    "organizations_url": "https://api.github.com/users/qingfeng/orgs",
    "repos_url": "https://api.github.com/users/qingfeng/repos",
    "events_url": "https://api.github.com/users/qingfeng/events{/privacy}",
    "received_events_url": "https://api.github.com/users/qingfeng/received_events",
    "type": "User",
    "site_admin": false
  },
  "created_at": "2014-02-17T16:49:58Z",
  "updated_at": "2014-02-17T16:49:58Z",
  "body": "Cool~ :beer:"
}
, {
  "url": "https://api.github.com/repos/douban/code/issues/comments/35348142",
  "html_url": "https://github.com/douban/code/pull/18#issuecomment-35348142",
  "issue_url": "https://api.github.com/repos/douban/code/issues/18",
  "id": 35348142,
  "user": {
    "login": "GuoJing",
    "id": 363073,
    "avatar_url": "https://avatars.githubusercontent.com/u/363073?v=3",
    "gravatar_id": "",
    "url": "https://api.github.com/users/GuoJing",
    "html_url": "https://github.com/GuoJing",
    "followers_url": "https://api.github.com/users/GuoJing/followers",
    "following_url": "https://api.github.com/users/GuoJing/following{/other_user}",
    "gists_url": "https://api.github.com/users/GuoJing/gists{/gist_id}",
    "starred_url": "https://api.github.com/users/GuoJing/starred{/owner}{/repo}",
    "subscriptions_url": "https://api.github.com/users/GuoJing/subscriptions",
    "organizations_url": "https://api.github.com/users/GuoJing/orgs",
    "repos_url": "https://api.github.com/users/GuoJing/repos",
    "events_url": "https://api.github.com/users/GuoJing/events{/privacy}",
    "received_events_url": "https://api.github.com/users/GuoJing/received_events",
    "type": "User",
    "site_admin": false
  },
  "created_at": "2014-02-18T02:57:35Z",
  "updated_at": "2014-02-18T02:57:35Z",
  "body": ":beers: "
}
, {
  "url": "https://api.github.com/repos/douban/code/issues/comments/35348206",
  "html_url": "https://github.com/douban/code/pull/18#issuecomment-35348206",
  "issue_url": "https://api.github.com/repos/douban/code/issues/18",
  "id": 35348206,
  "user": {
    "login": "alexband",
    "id": 640578,
    "avatar_url": "https://avatars.githubusercontent.com/u/640578?v=3",
    "gravatar_id": "",
    "url": "https://api.github.com/users/alexband",
    "html_url": "https://github.com/alexband",
    "followers_url": "https://api.github.com/users/alexband/followers",
    "following_url": "https://api.github.com/users/alexband/following{/other_user}",
    "gists_url": "https://api.github.com/users/alexband/gists{/gist_id}",
    "starred_url": "https://api.github.com/users/alexband/starred{/owner}{/repo}",
    "subscriptions_url": "https://api.github.com/users/alexband/subscriptions",
    "organizations_url": "https://api.github.com/users/alexband/orgs",
    "repos_url": "https://api.github.com/users/alexband/repos",
    "events_url": "https://api.github.com/users/alexband/events{/privacy}",
    "received_events_url": "https://api.github.com/users/alexband/received_events",
    "type": "User",
    "site_admin": false
  },
  "created_at": "2014-02-18T02:59:38Z",
  "updated_at": "2014-02-18T02:59:38Z",
  "body": ":clap:"
}
]
