[
{
  "url": "https://api.github.com/repos/google/code-prettify/issues/comments/95295704",
  "html_url": "https://github.com/google/code-prettify/issues/350#issuecomment-95295704",
  "issue_url": "https://api.github.com/repos/google/code-prettify/issues/350",
  "id": 95295704,
  "user": {
    "login": "GoogleCodeExporter",
    "id": 9614759,
    "avatar_url": "https://avatars.githubusercontent.com/u/9614759?v=3",
    "gravatar_id": "",
    "url": "https://api.github.com/users/GoogleCodeExporter",
    "html_url": "https://github.com/GoogleCodeExporter",
    "followers_url": "https://api.github.com/users/GoogleCodeExporter/followers",
    "following_url": "https://api.github.com/users/GoogleCodeExporter/following{/other_user}",
    "gists_url": "https://api.github.com/users/GoogleCodeExporter/gists{/gist_id}",
    "starred_url": "https://api.github.com/users/GoogleCodeExporter/starred{/owner}{/repo}",
    "subscriptions_url": "https://api.github.com/users/GoogleCodeExporter/subscriptions",
    "organizations_url": "https://api.github.com/users/GoogleCodeExporter/orgs",
    "repos_url": "https://api.github.com/users/GoogleCodeExporter/repos",
    "events_url": "https://api.github.com/users/GoogleCodeExporter/events{/privacy}",
    "received_events_url": "https://api.github.com/users/GoogleCodeExporter/received_events",
    "type": "User",
    "site_admin": false
  },
  "created_at": "2015-04-22T18:37:52Z",
  "updated_at": "2015-04-22T18:37:52Z",
  "body": "```\nThere is no content in the <pre> tag, just a comment.  If what you want to \ndisplay is an HTML comment, then escape HTML special characters (like '<' and \n'&') using HTML entities (like '<' and '&').\n```\n\nOriginal comment by `mikesamuel@gmail.com` on 1 Sep 2014 at 7:55\n* Changed state: **Duplicate**"
}
, {
  "url": "https://api.github.com/repos/google/code-prettify/issues/comments/95295705",
  "html_url": "https://github.com/google/code-prettify/issues/350#issuecomment-95295705",
  "issue_url": "https://api.github.com/repos/google/code-prettify/issues/350",
  "id": 95295705,
  "user": {
    "login": "GoogleCodeExporter",
    "id": 9614759,
    "avatar_url": "https://avatars.githubusercontent.com/u/9614759?v=3",
    "gravatar_id": "",
    "url": "https://api.github.com/users/GoogleCodeExporter",
    "html_url": "https://github.com/GoogleCodeExporter",
    "followers_url": "https://api.github.com/users/GoogleCodeExporter/followers",
    "following_url": "https://api.github.com/users/GoogleCodeExporter/following{/other_user}",
    "gists_url": "https://api.github.com/users/GoogleCodeExporter/gists{/gist_id}",
    "starred_url": "https://api.github.com/users/GoogleCodeExporter/starred{/owner}{/repo}",
    "subscriptions_url": "https://api.github.com/users/GoogleCodeExporter/subscriptions",
    "organizations_url": "https://api.github.com/users/GoogleCodeExporter/orgs",
    "repos_url": "https://api.github.com/users/GoogleCodeExporter/repos",
    "events_url": "https://api.github.com/users/GoogleCodeExporter/events{/privacy}",
    "received_events_url": "https://api.github.com/users/GoogleCodeExporter/received_events",
    "type": "User",
    "site_admin": false
  },
  "created_at": "2015-04-22T18:37:52Z",
  "updated_at": "2015-04-22T18:37:52Z",
  "body": "```\nThanks, this worked \n```\n\nOriginal comment by `youssefs...@gmail.com` on 3 Sep 2014 at 9:02"
}
]
