[
{
  "url": "https://api.github.com/repos/square/kochiku/issues/comments/42374079",
  "html_url": "https://github.com/square/kochiku/pull/70#issuecomment-42374079",
  "issue_url": "https://api.github.com/repos/square/kochiku/issues/70",
  "id": 42374079,
  "user": {
    "login": "robolson",
    "id": 6896,
    "avatar_url": "https://avatars.githubusercontent.com/u/6896?v=3",
    "gravatar_id": "",
    "url": "https://api.github.com/users/robolson",
    "html_url": "https://github.com/robolson",
    "followers_url": "https://api.github.com/users/robolson/followers",
    "following_url": "https://api.github.com/users/robolson/following{/other_user}",
    "gists_url": "https://api.github.com/users/robolson/gists{/gist_id}",
    "starred_url": "https://api.github.com/users/robolson/starred{/owner}{/repo}",
    "subscriptions_url": "https://api.github.com/users/robolson/subscriptions",
    "organizations_url": "https://api.github.com/users/robolson/orgs",
    "repos_url": "https://api.github.com/users/robolson/repos",
    "events_url": "https://api.github.com/users/robolson/events{/privacy}",
    "received_events_url": "https://api.github.com/users/robolson/received_events",
    "type": "User",
    "site_admin": false
  },
  "created_at": "2014-05-06T23:52:05Z",
  "updated_at": "2014-05-06T23:52:05Z",
  "body": "@xaviershay @rudle I have updated the PR. It is now a joint index between `ref` and `project_id`.\r\n\r\nAs a side note. It's a tragedy that we named the 'ref' column on builds 'ref' instead of 'sha'. One day I will rename it."
}
, {
  "url": "https://api.github.com/repos/square/kochiku/issues/comments/42390142",
  "html_url": "https://github.com/square/kochiku/pull/70#issuecomment-42390142",
  "issue_url": "https://api.github.com/repos/square/kochiku/issues/70",
  "id": 42390142,
  "user": {
    "login": "jkingdon",
    "id": 16878,
    "avatar_url": "https://avatars.githubusercontent.com/u/16878?v=3",
    "gravatar_id": "",
    "url": "https://api.github.com/users/jkingdon",
    "html_url": "https://github.com/jkingdon",
    "followers_url": "https://api.github.com/users/jkingdon/followers",
    "following_url": "https://api.github.com/users/jkingdon/following{/other_user}",
    "gists_url": "https://api.github.com/users/jkingdon/gists{/gist_id}",
    "starred_url": "https://api.github.com/users/jkingdon/starred{/owner}{/repo}",
    "subscriptions_url": "https://api.github.com/users/jkingdon/subscriptions",
    "organizations_url": "https://api.github.com/users/jkingdon/orgs",
    "repos_url": "https://api.github.com/users/jkingdon/repos",
    "events_url": "https://api.github.com/users/jkingdon/events{/privacy}",
    "received_events_url": "https://api.github.com/users/jkingdon/received_events",
    "type": "User",
    "site_admin": false
  },
  "created_at": "2014-05-07T05:11:37Z",
  "updated_at": "2014-05-07T05:11:37Z",
  "body": "Cool, the index on those two columns looks good.\r\n\r\nI have never especially liked the word \"sha\" in this context; it seems like exposing an implementation detail. Or probably a better way to say it is that I want a more specific term, which says what the sha is being used for in the context of git (you wouldn't call it \"number\" even if it was just composed of 0-9). Agreed that \"ref\" is not the term, though, that means something else to git.\r\n\r\nDidn't see any other problems.\r\n"
}
]
