[
{
  "url": "https://api.github.com/repos/alibaba/fastjson/issues/comments/9917744",
  "html_url": "https://github.com/alibaba/fastjson/issues/16#issuecomment-9917744",
  "issue_url": "https://api.github.com/repos/alibaba/fastjson/issues/16",
  "id": 9917744,
  "user": {
    "login": "wuyexiong",
    "id": 1940316,
    "avatar_url": "https://avatars.githubusercontent.com/u/1940316?v=3",
    "gravatar_id": "",
    "url": "https://api.github.com/users/wuyexiong",
    "html_url": "https://github.com/wuyexiong",
    "followers_url": "https://api.github.com/users/wuyexiong/followers",
    "following_url": "https://api.github.com/users/wuyexiong/following{/other_user}",
    "gists_url": "https://api.github.com/users/wuyexiong/gists{/gist_id}",
    "starred_url": "https://api.github.com/users/wuyexiong/starred{/owner}{/repo}",
    "subscriptions_url": "https://api.github.com/users/wuyexiong/subscriptions",
    "organizations_url": "https://api.github.com/users/wuyexiong/orgs",
    "repos_url": "https://api.github.com/users/wuyexiong/repos",
    "events_url": "https://api.github.com/users/wuyexiong/events{/privacy}",
    "received_events_url": "https://api.github.com/users/wuyexiong/received_events",
    "type": "User",
    "site_admin": false
  },
  "created_at": "2012-10-30T18:37:24Z",
  "updated_at": "2012-10-30T18:37:24Z",
  "body": "package entity;\r\n\r\n\r\npublic class Track {\r\n\tpublic String name;\r\n    public String color;\r\n    public String _abstract;\r\n}\r\n\r\npublic class Tracks {\r\n\tTrack[] track;\r\n\r\n    public void setTrack(Track[] track) {\r\n\t\tthis.track = track;\r\n\t}\r\n\r\n\tpublic Track[] getTrack() {\r\n        return track;\r\n    }\r\n    \r\n    @Override\r\n    public String toString() {\r\n    \tStringBuilder sb = new StringBuilder();\r\n    \tfor(Track track : getTrack())\r\n    \t{\r\n    \t\tsb.append(\",name : \").append(track.name);\r\n    \t\tsb.append(\",color : \").append(track.color);\r\n    \t\tsb.append(\",abstract : \").append(track._abstract).append(\"\\n\");\r\n    \t}\r\n    \treturn sb.toString();\r\n    }\r\n}\r\n\r\n这样的实体的话, \"abstract\"节点无法解析出东西,麻烦看看"
}
, {
  "url": "https://api.github.com/repos/alibaba/fastjson/issues/comments/10152958",
  "html_url": "https://github.com/alibaba/fastjson/issues/16#issuecomment-10152958",
  "issue_url": "https://api.github.com/repos/alibaba/fastjson/issues/16",
  "id": 10152958,
  "user": {
    "login": "wenshao",
    "id": 1166785,
    "avatar_url": "https://avatars.githubusercontent.com/u/1166785?v=3",
    "gravatar_id": "",
    "url": "https://api.github.com/users/wenshao",
    "html_url": "https://github.com/wenshao",
    "followers_url": "https://api.github.com/users/wenshao/followers",
    "following_url": "https://api.github.com/users/wenshao/following{/other_user}",
    "gists_url": "https://api.github.com/users/wenshao/gists{/gist_id}",
    "starred_url": "https://api.github.com/users/wenshao/starred{/owner}{/repo}",
    "subscriptions_url": "https://api.github.com/users/wenshao/subscriptions",
    "organizations_url": "https://api.github.com/users/wenshao/orgs",
    "repos_url": "https://api.github.com/users/wenshao/repos",
    "events_url": "https://api.github.com/users/wenshao/events{/privacy}",
    "received_events_url": "https://api.github.com/users/wenshao/received_events",
    "type": "User",
    "site_admin": false
  },
  "created_at": "2012-11-07T15:49:32Z",
  "updated_at": "2012-11-07T15:49:32Z",
  "body": "我做过了测试，是因为你的Track对象字段命名问题。\r\n这样修改吧：\r\n\r\n    public class Track {\r\n        public String name;\r\n        public String color;\r\n        @JSONField(name=\"abstract\")\r\n        public String _abstract;\r\n    }\r\n"
}
, {
  "url": "https://api.github.com/repos/alibaba/fastjson/issues/comments/10173609",
  "html_url": "https://github.com/alibaba/fastjson/issues/16#issuecomment-10173609",
  "issue_url": "https://api.github.com/repos/alibaba/fastjson/issues/16",
  "id": 10173609,
  "user": {
    "login": "wuyexiong",
    "id": 1940316,
    "avatar_url": "https://avatars.githubusercontent.com/u/1940316?v=3",
    "gravatar_id": "",
    "url": "https://api.github.com/users/wuyexiong",
    "html_url": "https://github.com/wuyexiong",
    "followers_url": "https://api.github.com/users/wuyexiong/followers",
    "following_url": "https://api.github.com/users/wuyexiong/following{/other_user}",
    "gists_url": "https://api.github.com/users/wuyexiong/gists{/gist_id}",
    "starred_url": "https://api.github.com/users/wuyexiong/starred{/owner}{/repo}",
    "subscriptions_url": "https://api.github.com/users/wuyexiong/subscriptions",
    "organizations_url": "https://api.github.com/users/wuyexiong/orgs",
    "repos_url": "https://api.github.com/users/wuyexiong/repos",
    "events_url": "https://api.github.com/users/wuyexiong/events{/privacy}",
    "received_events_url": "https://api.github.com/users/wuyexiong/received_events",
    "type": "User",
    "site_admin": false
  },
  "created_at": "2012-11-08T02:21:38Z",
  "updated_at": "2012-11-08T02:21:38Z",
  "body": "明白。多谢了。"
}
]
