[
{
  "url": "https://api.github.com/repos/alibaba/fastjson/issues/comments/135666077",
  "html_url": "https://github.com/alibaba/fastjson/issues/409#issuecomment-135666077",
  "issue_url": "https://api.github.com/repos/alibaba/fastjson/issues/409",
  "id": 135666077,
  "user": {
    "login": "qifanyang",
    "id": 2858765,
    "avatar_url": "https://avatars.githubusercontent.com/u/2858765?v=3",
    "gravatar_id": "",
    "url": "https://api.github.com/users/qifanyang",
    "html_url": "https://github.com/qifanyang",
    "followers_url": "https://api.github.com/users/qifanyang/followers",
    "following_url": "https://api.github.com/users/qifanyang/following{/other_user}",
    "gists_url": "https://api.github.com/users/qifanyang/gists{/gist_id}",
    "starred_url": "https://api.github.com/users/qifanyang/starred{/owner}{/repo}",
    "subscriptions_url": "https://api.github.com/users/qifanyang/subscriptions",
    "organizations_url": "https://api.github.com/users/qifanyang/orgs",
    "repos_url": "https://api.github.com/users/qifanyang/repos",
    "events_url": "https://api.github.com/users/qifanyang/events{/privacy}",
    "received_events_url": "https://api.github.com/users/qifanyang/received_events",
    "type": "User",
    "site_admin": false
  },
  "created_at": "2015-08-28T08:00:35Z",
  "updated_at": "2015-08-28T08:04:03Z",
  "body": "新版本有, 你用的哪个版本?\r\n\r\n使用1.2.4_android吧\r\n\r\n1.1.42_android之前的版本没有\r\n```java\r\nif (value instanceof String) {\r\n            String strVal = (String) value;\r\n\r\n            if (strVal.length() == 0) {\r\n                return null;\r\n            }\r\n\r\n            if (\"true\".equalsIgnoreCase(strVal)) {\r\n                return Boolean.TRUE;\r\n            }\r\n            if (\"false\".equalsIgnoreCase(strVal)) {\r\n                return Boolean.FALSE;\r\n            }\r\n\r\n            if (\"1\".equals(strVal)) {\r\n                return Boolean.TRUE;\r\n            }\r\n            \r\n            if (\"0\".equals(strVal)) {\r\n                return Boolean.FALSE;\r\n            }\r\n            \r\n            if (\"null\".equals(strVal) || \"NULL\".equals(strVal)) {\r\n                return null;\r\n            }\r\n        }\r\n```"
}
, {
  "url": "https://api.github.com/repos/alibaba/fastjson/issues/comments/135736673",
  "html_url": "https://github.com/alibaba/fastjson/issues/409#issuecomment-135736673",
  "issue_url": "https://api.github.com/repos/alibaba/fastjson/issues/409",
  "id": 135736673,
  "user": {
    "login": "msdx",
    "id": 1903422,
    "avatar_url": "https://avatars.githubusercontent.com/u/1903422?v=3",
    "gravatar_id": "",
    "url": "https://api.github.com/users/msdx",
    "html_url": "https://github.com/msdx",
    "followers_url": "https://api.github.com/users/msdx/followers",
    "following_url": "https://api.github.com/users/msdx/following{/other_user}",
    "gists_url": "https://api.github.com/users/msdx/gists{/gist_id}",
    "starred_url": "https://api.github.com/users/msdx/starred{/owner}{/repo}",
    "subscriptions_url": "https://api.github.com/users/msdx/subscriptions",
    "organizations_url": "https://api.github.com/users/msdx/orgs",
    "repos_url": "https://api.github.com/users/msdx/repos",
    "events_url": "https://api.github.com/users/msdx/events{/privacy}",
    "received_events_url": "https://api.github.com/users/msdx/received_events",
    "type": "User",
    "site_admin": false
  },
  "created_at": "2015-08-28T10:47:37Z",
  "updated_at": "2015-08-28T10:47:37Z",
  "body": "Soga, thanks."
}
]
