[
{
  "url": "https://api.github.com/repos/thoughtbot/factory_girl_rails/issues/comments/329364",
  "html_url": "https://github.com/thoughtbot/factory_girl_rails/issues/3#issuecomment-329364",
  "issue_url": "https://api.github.com/repos/thoughtbot/factory_girl_rails/issues/3",
  "id": 329364,
  "user": {
    "login": "adriancuadros",
    "id": 51557,
    "avatar_url": "https://avatars.githubusercontent.com/u/51557?v=3",
    "gravatar_id": "",
    "url": "https://api.github.com/users/adriancuadros",
    "html_url": "https://github.com/adriancuadros",
    "followers_url": "https://api.github.com/users/adriancuadros/followers",
    "following_url": "https://api.github.com/users/adriancuadros/following{/other_user}",
    "gists_url": "https://api.github.com/users/adriancuadros/gists{/gist_id}",
    "starred_url": "https://api.github.com/users/adriancuadros/starred{/owner}{/repo}",
    "subscriptions_url": "https://api.github.com/users/adriancuadros/subscriptions",
    "organizations_url": "https://api.github.com/users/adriancuadros/orgs",
    "repos_url": "https://api.github.com/users/adriancuadros/repos",
    "events_url": "https://api.github.com/users/adriancuadros/events{/privacy}",
    "received_events_url": "https://api.github.com/users/adriancuadros/received_events",
    "type": "User",
    "site_admin": false
  },
  "created_at": "2010-07-27T17:36:00Z",
  "updated_at": "2010-07-27T17:36:00Z",
  "body": "was checking this out and see it was changed to:\n\nsanitize_for_mass_assignment(attributes).keys"
}
]
