[
{
  "login": "lmorchard",
  "id": 21687,
  "avatar_url": "https://avatars.githubusercontent.com/u/21687?v=3",
  "gravatar_id": "",
  "url": "https://api.github.com/users/lmorchard",
  "html_url": "https://github.com/lmorchard",
  "followers_url": "https://api.github.com/users/lmorchard/followers",
  "following_url": "https://api.github.com/users/lmorchard/following{/other_user}",
  "gists_url": "https://api.github.com/users/lmorchard/gists{/gist_id}",
  "starred_url": "https://api.github.com/users/lmorchard/starred{/owner}{/repo}",
  "subscriptions_url": "https://api.github.com/users/lmorchard/subscriptions",
  "organizations_url": "https://api.github.com/users/lmorchard/orgs",
  "repos_url": "https://api.github.com/users/lmorchard/repos",
  "events_url": "https://api.github.com/users/lmorchard/events{/privacy}",
  "received_events_url": "https://api.github.com/users/lmorchard/received_events",
  "type": "User",
  "site_admin": false,
  "contributions": 3
}
, {
  "login": "tofumatt",
  "id": 90871,
  "avatar_url": "https://avatars.githubusercontent.com/u/90871?v=3",
  "gravatar_id": "",
  "url": "https://api.github.com/users/tofumatt",
  "html_url": "https://github.com/tofumatt",
  "followers_url": "https://api.github.com/users/tofumatt/followers",
  "following_url": "https://api.github.com/users/tofumatt/following{/other_user}",
  "gists_url": "https://api.github.com/users/tofumatt/gists{/gist_id}",
  "starred_url": "https://api.github.com/users/tofumatt/starred{/owner}{/repo}",
  "subscriptions_url": "https://api.github.com/users/tofumatt/subscriptions",
  "organizations_url": "https://api.github.com/users/tofumatt/orgs",
  "repos_url": "https://api.github.com/users/tofumatt/repos",
  "events_url": "https://api.github.com/users/tofumatt/events{/privacy}",
  "received_events_url": "https://api.github.com/users/tofumatt/received_events",
  "type": "User",
  "site_admin": false,
  "contributions": 2
}
]
