[
{
  "url": "https://api.github.com/repos/owncloud/android/issues/comments/12984287",
  "html_url": "https://github.com/owncloud/android/issues/89#issuecomment-12984287",
  "issue_url": "https://api.github.com/repos/owncloud/android/issues/89",
  "id": 12984287,
  "user": {
    "login": "davivel",
    "id": 2225614,
    "avatar_url": "https://avatars.githubusercontent.com/u/2225614?v=3",
    "gravatar_id": "",
    "url": "https://api.github.com/users/davivel",
    "html_url": "https://github.com/davivel",
    "followers_url": "https://api.github.com/users/davivel/followers",
    "following_url": "https://api.github.com/users/davivel/following{/other_user}",
    "gists_url": "https://api.github.com/users/davivel/gists{/gist_id}",
    "starred_url": "https://api.github.com/users/davivel/starred{/owner}{/repo}",
    "subscriptions_url": "https://api.github.com/users/davivel/subscriptions",
    "organizations_url": "https://api.github.com/users/davivel/orgs",
    "repos_url": "https://api.github.com/users/davivel/repos",
    "events_url": "https://api.github.com/users/davivel/events{/privacy}",
    "received_events_url": "https://api.github.com/users/davivel/received_events",
    "type": "User",
    "site_admin": false
  },
  "created_at": "2013-02-01T08:01:34Z",
  "updated_at": "2013-02-01T08:01:34Z",
  "body": "How do you write the URL ? It should not include the \"remote.php/webdav\" suffix at the end.\r\n\r\nDoes your username or password include non-ASCII characters?\r\n\r\nVersion 1.3.20 was released yesterday in the Google Play Store. Could you try again with it?"
}
, {
  "url": "https://api.github.com/repos/owncloud/android/issues/comments/12987527",
  "html_url": "https://github.com/owncloud/android/issues/89#issuecomment-12987527",
  "issue_url": "https://api.github.com/repos/owncloud/android/issues/89",
  "id": 12987527,
  "user": {
    "login": "dpredster",
    "id": 3442375,
    "avatar_url": "https://avatars.githubusercontent.com/u/3442375?v=3",
    "gravatar_id": "",
    "url": "https://api.github.com/users/dpredster",
    "html_url": "https://github.com/dpredster",
    "followers_url": "https://api.github.com/users/dpredster/followers",
    "following_url": "https://api.github.com/users/dpredster/following{/other_user}",
    "gists_url": "https://api.github.com/users/dpredster/gists{/gist_id}",
    "starred_url": "https://api.github.com/users/dpredster/starred{/owner}{/repo}",
    "subscriptions_url": "https://api.github.com/users/dpredster/subscriptions",
    "organizations_url": "https://api.github.com/users/dpredster/orgs",
    "repos_url": "https://api.github.com/users/dpredster/repos",
    "events_url": "https://api.github.com/users/dpredster/events{/privacy}",
    "received_events_url": "https://api.github.com/users/dpredster/received_events",
    "type": "User",
    "site_admin": false
  },
  "created_at": "2013-02-01T09:54:20Z",
  "updated_at": "2013-02-01T09:55:14Z",
  "body": "I write the URL as http://cloud.myaddress.com and the username and password is all ASCII characters. \r\n\r\nJust reinstalled the app using the one from the play store and still having the same problem.\r\n\r\nI am using a Galaxy SIII with Android version 4.1.2."
}
, {
  "url": "https://api.github.com/repos/owncloud/android/issues/comments/12990681",
  "html_url": "https://github.com/owncloud/android/issues/89#issuecomment-12990681",
  "issue_url": "https://api.github.com/repos/owncloud/android/issues/89",
  "id": 12990681,
  "user": {
    "login": "davivel",
    "id": 2225614,
    "avatar_url": "https://avatars.githubusercontent.com/u/2225614?v=3",
    "gravatar_id": "",
    "url": "https://api.github.com/users/davivel",
    "html_url": "https://github.com/davivel",
    "followers_url": "https://api.github.com/users/davivel/followers",
    "following_url": "https://api.github.com/users/davivel/following{/other_user}",
    "gists_url": "https://api.github.com/users/davivel/gists{/gist_id}",
    "starred_url": "https://api.github.com/users/davivel/starred{/owner}{/repo}",
    "subscriptions_url": "https://api.github.com/users/davivel/subscriptions",
    "organizations_url": "https://api.github.com/users/davivel/orgs",
    "repos_url": "https://api.github.com/users/davivel/repos",
    "events_url": "https://api.github.com/users/davivel/events{/privacy}",
    "received_events_url": "https://api.github.com/users/davivel/received_events",
    "type": "User",
    "site_admin": false
  },
  "created_at": "2013-02-01T11:36:10Z",
  "updated_at": "2013-02-01T11:36:10Z",
  "body": "When you access your server from a web browser, is your base URL http://cloud.myaddress.com , or is it http://cloud.myaddress.com/owncloud?\r\n\r\nIn the second case, please, add the /owncloud path in the URL filed in the app.\r\n\r\nIn the former case, could you check this? : http://forum.owncloud.org/viewtopic.php?f=17&t=7536&p=17202&hilit=verbs#p17202\r\n"
}
, {
  "url": "https://api.github.com/repos/owncloud/android/issues/comments/12991758",
  "html_url": "https://github.com/owncloud/android/issues/89#issuecomment-12991758",
  "issue_url": "https://api.github.com/repos/owncloud/android/issues/89",
  "id": 12991758,
  "user": {
    "login": "untitaker",
    "id": 837573,
    "avatar_url": "https://avatars.githubusercontent.com/u/837573?v=3",
    "gravatar_id": "",
    "url": "https://api.github.com/users/untitaker",
    "html_url": "https://github.com/untitaker",
    "followers_url": "https://api.github.com/users/untitaker/followers",
    "following_url": "https://api.github.com/users/untitaker/following{/other_user}",
    "gists_url": "https://api.github.com/users/untitaker/gists{/gist_id}",
    "starred_url": "https://api.github.com/users/untitaker/starred{/owner}{/repo}",
    "subscriptions_url": "https://api.github.com/users/untitaker/subscriptions",
    "organizations_url": "https://api.github.com/users/untitaker/orgs",
    "repos_url": "https://api.github.com/users/untitaker/repos",
    "events_url": "https://api.github.com/users/untitaker/events{/privacy}",
    "received_events_url": "https://api.github.com/users/untitaker/received_events",
    "type": "User",
    "site_admin": false
  },
  "created_at": "2013-02-01T12:17:32Z",
  "updated_at": "2013-02-01T12:17:32Z",
  "body": "In short, you gotta put the same URL into the app you access ownCloud in the browser with."
}
, {
  "url": "https://api.github.com/repos/owncloud/android/issues/comments/12992580",
  "html_url": "https://github.com/owncloud/android/issues/89#issuecomment-12992580",
  "issue_url": "https://api.github.com/repos/owncloud/android/issues/89",
  "id": 12992580,
  "user": {
    "login": "dpredster",
    "id": 3442375,
    "avatar_url": "https://avatars.githubusercontent.com/u/3442375?v=3",
    "gravatar_id": "",
    "url": "https://api.github.com/users/dpredster",
    "html_url": "https://github.com/dpredster",
    "followers_url": "https://api.github.com/users/dpredster/followers",
    "following_url": "https://api.github.com/users/dpredster/following{/other_user}",
    "gists_url": "https://api.github.com/users/dpredster/gists{/gist_id}",
    "starred_url": "https://api.github.com/users/dpredster/starred{/owner}{/repo}",
    "subscriptions_url": "https://api.github.com/users/dpredster/subscriptions",
    "organizations_url": "https://api.github.com/users/dpredster/orgs",
    "repos_url": "https://api.github.com/users/dpredster/repos",
    "events_url": "https://api.github.com/users/dpredster/events{/privacy}",
    "received_events_url": "https://api.github.com/users/dpredster/received_events",
    "type": "User",
    "site_admin": false
  },
  "created_at": "2013-02-01T12:45:08Z",
  "updated_at": "2013-02-01T12:45:08Z",
  "body": "Thanks davivel for your help. I access my server from http://cloud.myaddress.com.\r\n\r\nThanks untitaker. I kinda know that but thanks anyway.\r\n\r\nIt seems that the problem was my hosting provider. I was able to solve the problem using this guide :http://forum.owncloud.org/viewtopic.php?f=8&t=7594&p=17529&hilit=No+input+file+specified.#p17529\r\n\r\nThanks again for all your help."
}
, {
  "url": "https://api.github.com/repos/owncloud/android/issues/comments/12994273",
  "html_url": "https://github.com/owncloud/android/issues/89#issuecomment-12994273",
  "issue_url": "https://api.github.com/repos/owncloud/android/issues/89",
  "id": 12994273,
  "user": {
    "login": "davivel",
    "id": 2225614,
    "avatar_url": "https://avatars.githubusercontent.com/u/2225614?v=3",
    "gravatar_id": "",
    "url": "https://api.github.com/users/davivel",
    "html_url": "https://github.com/davivel",
    "followers_url": "https://api.github.com/users/davivel/followers",
    "following_url": "https://api.github.com/users/davivel/following{/other_user}",
    "gists_url": "https://api.github.com/users/davivel/gists{/gist_id}",
    "starred_url": "https://api.github.com/users/davivel/starred{/owner}{/repo}",
    "subscriptions_url": "https://api.github.com/users/davivel/subscriptions",
    "organizations_url": "https://api.github.com/users/davivel/orgs",
    "repos_url": "https://api.github.com/users/davivel/repos",
    "events_url": "https://api.github.com/users/davivel/events{/privacy}",
    "received_events_url": "https://api.github.com/users/davivel/received_events",
    "type": "User",
    "site_admin": false
  },
  "created_at": "2013-02-01T13:37:41Z",
  "updated_at": "2013-02-01T13:37:41Z",
  "body": "@untitaker Yes, I have problems with 'in short's sometimes ;)\r\n\r\n@dpredster You're welcome. Nice to solve one of these quick :) "
}
, {
  "url": "https://api.github.com/repos/owncloud/android/issues/comments/14467412",
  "html_url": "https://github.com/owncloud/android/issues/89#issuecomment-14467412",
  "issue_url": "https://api.github.com/repos/owncloud/android/issues/89",
  "id": 14467412,
  "user": {
    "login": "kewball",
    "id": 13726,
    "avatar_url": "https://avatars.githubusercontent.com/u/13726?v=3",
    "gravatar_id": "",
    "url": "https://api.github.com/users/kewball",
    "html_url": "https://github.com/kewball",
    "followers_url": "https://api.github.com/users/kewball/followers",
    "following_url": "https://api.github.com/users/kewball/following{/other_user}",
    "gists_url": "https://api.github.com/users/kewball/gists{/gist_id}",
    "starred_url": "https://api.github.com/users/kewball/starred{/owner}{/repo}",
    "subscriptions_url": "https://api.github.com/users/kewball/subscriptions",
    "organizations_url": "https://api.github.com/users/kewball/orgs",
    "repos_url": "https://api.github.com/users/kewball/repos",
    "events_url": "https://api.github.com/users/kewball/events{/privacy}",
    "received_events_url": "https://api.github.com/users/kewball/received_events",
    "type": "User",
    "site_admin": false
  },
  "created_at": "2013-03-05T21:46:21Z",
  "updated_at": "2013-03-05T21:46:21Z",
  "body": "So the android client expects http://server/owncloud but the linux client wants http://server/owncloud/remote.php/webdav -- seriously? "
}
, {
  "url": "https://api.github.com/repos/owncloud/android/issues/comments/14506200",
  "html_url": "https://github.com/owncloud/android/issues/89#issuecomment-14506200",
  "issue_url": "https://api.github.com/repos/owncloud/android/issues/89",
  "id": 14506200,
  "user": {
    "login": "davivel",
    "id": 2225614,
    "avatar_url": "https://avatars.githubusercontent.com/u/2225614?v=3",
    "gravatar_id": "",
    "url": "https://api.github.com/users/davivel",
    "html_url": "https://github.com/davivel",
    "followers_url": "https://api.github.com/users/davivel/followers",
    "following_url": "https://api.github.com/users/davivel/following{/other_user}",
    "gists_url": "https://api.github.com/users/davivel/gists{/gist_id}",
    "starred_url": "https://api.github.com/users/davivel/starred{/owner}{/repo}",
    "subscriptions_url": "https://api.github.com/users/davivel/subscriptions",
    "organizations_url": "https://api.github.com/users/davivel/orgs",
    "repos_url": "https://api.github.com/users/davivel/repos",
    "events_url": "https://api.github.com/users/davivel/events{/privacy}",
    "received_events_url": "https://api.github.com/users/davivel/received_events",
    "type": "User",
    "site_admin": false
  },
  "created_at": "2013-03-06T15:48:29Z",
  "updated_at": "2013-03-06T15:48:29Z",
  "body": "At this moment, that is the way. It is probable that we make more flexible the input in the URL field, but we have to find the right time slot to do it.\r\n\r\nWe are sorry for the inconvenience. "
}
, {
  "url": "https://api.github.com/repos/owncloud/android/issues/comments/14599389",
  "html_url": "https://github.com/owncloud/android/issues/89#issuecomment-14599389",
  "issue_url": "https://api.github.com/repos/owncloud/android/issues/89",
  "id": 14599389,
  "user": {
    "login": "kewball",
    "id": 13726,
    "avatar_url": "https://avatars.githubusercontent.com/u/13726?v=3",
    "gravatar_id": "",
    "url": "https://api.github.com/users/kewball",
    "html_url": "https://github.com/kewball",
    "followers_url": "https://api.github.com/users/kewball/followers",
    "following_url": "https://api.github.com/users/kewball/following{/other_user}",
    "gists_url": "https://api.github.com/users/kewball/gists{/gist_id}",
    "starred_url": "https://api.github.com/users/kewball/starred{/owner}{/repo}",
    "subscriptions_url": "https://api.github.com/users/kewball/subscriptions",
    "organizations_url": "https://api.github.com/users/kewball/orgs",
    "repos_url": "https://api.github.com/users/kewball/repos",
    "events_url": "https://api.github.com/users/kewball/events{/privacy}",
    "received_events_url": "https://api.github.com/users/kewball/received_events",
    "type": "User",
    "site_admin": false
  },
  "created_at": "2013-03-08T02:24:20Z",
  "updated_at": "2013-03-08T02:24:41Z",
  "body": "I'm happy that it works at all! :) \r\nWhen I look at http://server/owncloud/settings/personal.php I see\r\n```\r\nWebDAV http://server/owncloud/remote.php/webdav/\r\nuse this address to connect to your ownCloud in your file manager\r\nMedia\r\nAmpache address: http://server/owncloud/remote.php/ampache/\r\n```\r\n...it would be helpful if the Android variant were listed here also, something like\r\n```\r\nAndroid address: http://server/owncloud\r\n```"
}
, {
  "url": "https://api.github.com/repos/owncloud/android/issues/comments/14608102",
  "html_url": "https://github.com/owncloud/android/issues/89#issuecomment-14608102",
  "issue_url": "https://api.github.com/repos/owncloud/android/issues/89",
  "id": 14608102,
  "user": {
    "login": "davivel",
    "id": 2225614,
    "avatar_url": "https://avatars.githubusercontent.com/u/2225614?v=3",
    "gravatar_id": "",
    "url": "https://api.github.com/users/davivel",
    "html_url": "https://github.com/davivel",
    "followers_url": "https://api.github.com/users/davivel/followers",
    "following_url": "https://api.github.com/users/davivel/following{/other_user}",
    "gists_url": "https://api.github.com/users/davivel/gists{/gist_id}",
    "starred_url": "https://api.github.com/users/davivel/starred{/owner}{/repo}",
    "subscriptions_url": "https://api.github.com/users/davivel/subscriptions",
    "organizations_url": "https://api.github.com/users/davivel/orgs",
    "repos_url": "https://api.github.com/users/davivel/repos",
    "events_url": "https://api.github.com/users/davivel/events{/privacy}",
    "received_events_url": "https://api.github.com/users/davivel/received_events",
    "type": "User",
    "site_admin": false
  },
  "created_at": "2013-03-08T07:47:40Z",
  "updated_at": "2013-03-08T07:47:40Z",
  "body": "Yes, good idea. I suggest you open a new issue about that here https://github.com/owncloud/core ."
}
]
