[
{
  "url": "https://api.github.com/repos/owncloud/android/issues/comments/30330138",
  "html_url": "https://github.com/owncloud/android/issues/329#issuecomment-30330138",
  "issue_url": "https://api.github.com/repos/owncloud/android/issues/329",
  "id": 30330138,
  "user": {
    "login": "jancborchardt",
    "id": 925062,
    "avatar_url": "https://avatars.githubusercontent.com/u/925062?v=3",
    "gravatar_id": "",
    "url": "https://api.github.com/users/jancborchardt",
    "html_url": "https://github.com/jancborchardt",
    "followers_url": "https://api.github.com/users/jancborchardt/followers",
    "following_url": "https://api.github.com/users/jancborchardt/following{/other_user}",
    "gists_url": "https://api.github.com/users/jancborchardt/gists{/gist_id}",
    "starred_url": "https://api.github.com/users/jancborchardt/starred{/owner}{/repo}",
    "subscriptions_url": "https://api.github.com/users/jancborchardt/subscriptions",
    "organizations_url": "https://api.github.com/users/jancborchardt/orgs",
    "repos_url": "https://api.github.com/users/jancborchardt/repos",
    "events_url": "https://api.github.com/users/jancborchardt/events{/privacy}",
    "received_events_url": "https://api.github.com/users/jancborchardt/received_events",
    "type": "User",
    "site_admin": false
  },
  "created_at": "2013-12-11T15:35:09Z",
  "updated_at": "2013-12-11T15:35:09Z",
  "body": "Yes, basic functionality. I think this is on the roadmap @davivel @rperezb right?"
}
, {
  "url": "https://api.github.com/repos/owncloud/android/issues/comments/30492851",
  "html_url": "https://github.com/owncloud/android/issues/329#issuecomment-30492851",
  "issue_url": "https://api.github.com/repos/owncloud/android/issues/329",
  "id": 30492851,
  "user": {
    "login": "davivel",
    "id": 2225614,
    "avatar_url": "https://avatars.githubusercontent.com/u/2225614?v=3",
    "gravatar_id": "",
    "url": "https://api.github.com/users/davivel",
    "html_url": "https://github.com/davivel",
    "followers_url": "https://api.github.com/users/davivel/followers",
    "following_url": "https://api.github.com/users/davivel/following{/other_user}",
    "gists_url": "https://api.github.com/users/davivel/gists{/gist_id}",
    "starred_url": "https://api.github.com/users/davivel/starred{/owner}{/repo}",
    "subscriptions_url": "https://api.github.com/users/davivel/subscriptions",
    "organizations_url": "https://api.github.com/users/davivel/orgs",
    "repos_url": "https://api.github.com/users/davivel/repos",
    "events_url": "https://api.github.com/users/davivel/events{/privacy}",
    "received_events_url": "https://api.github.com/users/davivel/received_events",
    "type": "User",
    "site_admin": false
  },
  "created_at": "2013-12-13T08:10:19Z",
  "updated_at": "2013-12-13T08:10:19Z",
  "body": "It is on the roadmap."
}
, {
  "url": "https://api.github.com/repos/owncloud/android/issues/comments/48213931",
  "html_url": "https://github.com/owncloud/android/issues/329#issuecomment-48213931",
  "issue_url": "https://api.github.com/repos/owncloud/android/issues/329",
  "id": 48213931,
  "user": {
    "login": "supportreq",
    "id": 4680404,
    "avatar_url": "https://avatars.githubusercontent.com/u/4680404?v=3",
    "gravatar_id": "",
    "url": "https://api.github.com/users/supportreq",
    "html_url": "https://github.com/supportreq",
    "followers_url": "https://api.github.com/users/supportreq/followers",
    "following_url": "https://api.github.com/users/supportreq/following{/other_user}",
    "gists_url": "https://api.github.com/users/supportreq/gists{/gist_id}",
    "starred_url": "https://api.github.com/users/supportreq/starred{/owner}{/repo}",
    "subscriptions_url": "https://api.github.com/users/supportreq/subscriptions",
    "organizations_url": "https://api.github.com/users/supportreq/orgs",
    "repos_url": "https://api.github.com/users/supportreq/repos",
    "events_url": "https://api.github.com/users/supportreq/events{/privacy}",
    "received_events_url": "https://api.github.com/users/supportreq/received_events",
    "type": "User",
    "site_admin": false
  },
  "created_at": "2014-07-07T17:56:27Z",
  "updated_at": "2014-07-07T17:56:27Z",
  "body": "Hey any update on when the feature is releasing??\r\n\r\nIs there a published roadmap for the android app?"
}
, {
  "url": "https://api.github.com/repos/owncloud/android/issues/comments/48279496",
  "html_url": "https://github.com/owncloud/android/issues/329#issuecomment-48279496",
  "issue_url": "https://api.github.com/repos/owncloud/android/issues/329",
  "id": 48279496,
  "user": {
    "login": "jancborchardt",
    "id": 925062,
    "avatar_url": "https://avatars.githubusercontent.com/u/925062?v=3",
    "gravatar_id": "",
    "url": "https://api.github.com/users/jancborchardt",
    "html_url": "https://github.com/jancborchardt",
    "followers_url": "https://api.github.com/users/jancborchardt/followers",
    "following_url": "https://api.github.com/users/jancborchardt/following{/other_user}",
    "gists_url": "https://api.github.com/users/jancborchardt/gists{/gist_id}",
    "starred_url": "https://api.github.com/users/jancborchardt/starred{/owner}{/repo}",
    "subscriptions_url": "https://api.github.com/users/jancborchardt/subscriptions",
    "organizations_url": "https://api.github.com/users/jancborchardt/orgs",
    "repos_url": "https://api.github.com/users/jancborchardt/repos",
    "events_url": "https://api.github.com/users/jancborchardt/events{/privacy}",
    "received_events_url": "https://api.github.com/users/jancborchardt/received_events",
    "type": "User",
    "site_admin": false
  },
  "created_at": "2014-07-08T07:16:16Z",
  "updated_at": "2014-07-08T07:16:16Z",
  "body": "@rperezb @MTRichards? ^"
}
, {
  "url": "https://api.github.com/repos/owncloud/android/issues/comments/48443510",
  "html_url": "https://github.com/owncloud/android/issues/329#issuecomment-48443510",
  "issue_url": "https://api.github.com/repos/owncloud/android/issues/329",
  "id": 48443510,
  "user": {
    "login": "rperezb",
    "id": 1846927,
    "avatar_url": "https://avatars.githubusercontent.com/u/1846927?v=3",
    "gravatar_id": "",
    "url": "https://api.github.com/users/rperezb",
    "html_url": "https://github.com/rperezb",
    "followers_url": "https://api.github.com/users/rperezb/followers",
    "following_url": "https://api.github.com/users/rperezb/following{/other_user}",
    "gists_url": "https://api.github.com/users/rperezb/gists{/gist_id}",
    "starred_url": "https://api.github.com/users/rperezb/starred{/owner}{/repo}",
    "subscriptions_url": "https://api.github.com/users/rperezb/subscriptions",
    "organizations_url": "https://api.github.com/users/rperezb/orgs",
    "repos_url": "https://api.github.com/users/rperezb/repos",
    "events_url": "https://api.github.com/users/rperezb/events{/privacy}",
    "received_events_url": "https://api.github.com/users/rperezb/received_events",
    "type": "User",
    "site_admin": false
  },
  "created_at": "2014-07-09T08:36:48Z",
  "updated_at": "2014-07-09T08:36:48Z",
  "body": "Yes, it is on the roadmap planned to be done in a near future  ^_^"
}
, {
  "url": "https://api.github.com/repos/owncloud/android/issues/comments/48632889",
  "html_url": "https://github.com/owncloud/android/issues/329#issuecomment-48632889",
  "issue_url": "https://api.github.com/repos/owncloud/android/issues/329",
  "id": 48632889,
  "user": {
    "login": "davivel",
    "id": 2225614,
    "avatar_url": "https://avatars.githubusercontent.com/u/2225614?v=3",
    "gravatar_id": "",
    "url": "https://api.github.com/users/davivel",
    "html_url": "https://github.com/davivel",
    "followers_url": "https://api.github.com/users/davivel/followers",
    "following_url": "https://api.github.com/users/davivel/following{/other_user}",
    "gists_url": "https://api.github.com/users/davivel/gists{/gist_id}",
    "starred_url": "https://api.github.com/users/davivel/starred{/owner}{/repo}",
    "subscriptions_url": "https://api.github.com/users/davivel/subscriptions",
    "organizations_url": "https://api.github.com/users/davivel/orgs",
    "repos_url": "https://api.github.com/users/davivel/repos",
    "events_url": "https://api.github.com/users/davivel/events{/privacy}",
    "received_events_url": "https://api.github.com/users/davivel/received_events",
    "type": "User",
    "site_admin": false
  },
  "created_at": "2014-07-10T16:59:40Z",
  "updated_at": "2014-07-10T16:59:40Z",
  "body": "\"Move is in the air\". \r\n\r\n:)\r\n\r\nComing soon."
}
, {
  "url": "https://api.github.com/repos/owncloud/android/issues/comments/48703347",
  "html_url": "https://github.com/owncloud/android/issues/329#issuecomment-48703347",
  "issue_url": "https://api.github.com/repos/owncloud/android/issues/329",
  "id": 48703347,
  "user": {
    "login": "jancborchardt",
    "id": 925062,
    "avatar_url": "https://avatars.githubusercontent.com/u/925062?v=3",
    "gravatar_id": "",
    "url": "https://api.github.com/users/jancborchardt",
    "html_url": "https://github.com/jancborchardt",
    "followers_url": "https://api.github.com/users/jancborchardt/followers",
    "following_url": "https://api.github.com/users/jancborchardt/following{/other_user}",
    "gists_url": "https://api.github.com/users/jancborchardt/gists{/gist_id}",
    "starred_url": "https://api.github.com/users/jancborchardt/starred{/owner}{/repo}",
    "subscriptions_url": "https://api.github.com/users/jancborchardt/subscriptions",
    "organizations_url": "https://api.github.com/users/jancborchardt/orgs",
    "repos_url": "https://api.github.com/users/jancborchardt/repos",
    "events_url": "https://api.github.com/users/jancborchardt/events{/privacy}",
    "received_events_url": "https://api.github.com/users/jancborchardt/received_events",
    "type": "User",
    "site_admin": false
  },
  "created_at": "2014-07-11T07:49:58Z",
  "updated_at": "2014-07-11T07:49:58Z",
  "body": "As written in the new [Android Gestures guidelines](http://www.google.com/design/spec/patterns/gestures.html#gestures-gestures)\r\n\r\n> **Long-press drag**\r\n> One-finger press, wait, move, lift\r\n> Example: Pick up and move, select multiple items\r\n\r\nSo long-press drag should be used to move files. Much like I described in the related iOS issue: https://github.com/owncloud/ios-issues/issues/39 … more than a year ago …"
}
, {
  "url": "https://api.github.com/repos/owncloud/android/issues/comments/48879331",
  "html_url": "https://github.com/owncloud/android/issues/329#issuecomment-48879331",
  "issue_url": "https://api.github.com/repos/owncloud/android/issues/329",
  "id": 48879331,
  "user": {
    "login": "davivel",
    "id": 2225614,
    "avatar_url": "https://avatars.githubusercontent.com/u/2225614?v=3",
    "gravatar_id": "",
    "url": "https://api.github.com/users/davivel",
    "html_url": "https://github.com/davivel",
    "followers_url": "https://api.github.com/users/davivel/followers",
    "following_url": "https://api.github.com/users/davivel/following{/other_user}",
    "gists_url": "https://api.github.com/users/davivel/gists{/gist_id}",
    "starred_url": "https://api.github.com/users/davivel/starred{/owner}{/repo}",
    "subscriptions_url": "https://api.github.com/users/davivel/subscriptions",
    "organizations_url": "https://api.github.com/users/davivel/orgs",
    "repos_url": "https://api.github.com/users/davivel/repos",
    "events_url": "https://api.github.com/users/davivel/events{/privacy}",
    "received_events_url": "https://api.github.com/users/davivel/received_events",
    "type": "User",
    "site_admin": false
  },
  "created_at": "2014-07-14T09:15:04Z",
  "updated_at": "2014-07-14T09:15:28Z",
  "body": "Well, as you quoted, that gesture may be used to pick and move... or to select multiple items. So the \"should\" is not so immediate."
}
, {
  "url": "https://api.github.com/repos/owncloud/android/issues/comments/48884923",
  "html_url": "https://github.com/owncloud/android/issues/329#issuecomment-48884923",
  "issue_url": "https://api.github.com/repos/owncloud/android/issues/329",
  "id": 48884923,
  "user": {
    "login": "jancborchardt",
    "id": 925062,
    "avatar_url": "https://avatars.githubusercontent.com/u/925062?v=3",
    "gravatar_id": "",
    "url": "https://api.github.com/users/jancborchardt",
    "html_url": "https://github.com/jancborchardt",
    "followers_url": "https://api.github.com/users/jancborchardt/followers",
    "following_url": "https://api.github.com/users/jancborchardt/following{/other_user}",
    "gists_url": "https://api.github.com/users/jancborchardt/gists{/gist_id}",
    "starred_url": "https://api.github.com/users/jancborchardt/starred{/owner}{/repo}",
    "subscriptions_url": "https://api.github.com/users/jancborchardt/subscriptions",
    "organizations_url": "https://api.github.com/users/jancborchardt/orgs",
    "repos_url": "https://api.github.com/users/jancborchardt/repos",
    "events_url": "https://api.github.com/users/jancborchardt/events{/privacy}",
    "received_events_url": "https://api.github.com/users/jancborchardt/received_events",
    "type": "User",
    "site_admin": false
  },
  "created_at": "2014-07-14T10:25:12Z",
  "updated_at": "2014-07-14T10:25:12Z",
  "body": "Ok, but currently we're doing neither."
}
, {
  "url": "https://api.github.com/repos/owncloud/android/issues/comments/48884932",
  "html_url": "https://github.com/owncloud/android/issues/329#issuecomment-48884932",
  "issue_url": "https://api.github.com/repos/owncloud/android/issues/329",
  "id": 48884932,
  "user": {
    "login": "jancborchardt",
    "id": 925062,
    "avatar_url": "https://avatars.githubusercontent.com/u/925062?v=3",
    "gravatar_id": "",
    "url": "https://api.github.com/users/jancborchardt",
    "html_url": "https://github.com/jancborchardt",
    "followers_url": "https://api.github.com/users/jancborchardt/followers",
    "following_url": "https://api.github.com/users/jancborchardt/following{/other_user}",
    "gists_url": "https://api.github.com/users/jancborchardt/gists{/gist_id}",
    "starred_url": "https://api.github.com/users/jancborchardt/starred{/owner}{/repo}",
    "subscriptions_url": "https://api.github.com/users/jancborchardt/subscriptions",
    "organizations_url": "https://api.github.com/users/jancborchardt/orgs",
    "repos_url": "https://api.github.com/users/jancborchardt/repos",
    "events_url": "https://api.github.com/users/jancborchardt/events{/privacy}",
    "received_events_url": "https://api.github.com/users/jancborchardt/received_events",
    "type": "User",
    "site_admin": false
  },
  "created_at": "2014-07-14T10:25:19Z",
  "updated_at": "2014-07-14T10:25:19Z",
  "body": "Ok, but cirrently we're doing neither."
}
, {
  "url": "https://api.github.com/repos/owncloud/android/issues/comments/58484639",
  "html_url": "https://github.com/owncloud/android/issues/329#issuecomment-58484639",
  "issue_url": "https://api.github.com/repos/owncloud/android/issues/329",
  "id": 58484639,
  "user": {
    "login": "rperezb",
    "id": 1846927,
    "avatar_url": "https://avatars.githubusercontent.com/u/1846927?v=3",
    "gravatar_id": "",
    "url": "https://api.github.com/users/rperezb",
    "html_url": "https://github.com/rperezb",
    "followers_url": "https://api.github.com/users/rperezb/followers",
    "following_url": "https://api.github.com/users/rperezb/following{/other_user}",
    "gists_url": "https://api.github.com/users/rperezb/gists{/gist_id}",
    "starred_url": "https://api.github.com/users/rperezb/starred{/owner}{/repo}",
    "subscriptions_url": "https://api.github.com/users/rperezb/subscriptions",
    "organizations_url": "https://api.github.com/users/rperezb/orgs",
    "repos_url": "https://api.github.com/users/rperezb/repos",
    "events_url": "https://api.github.com/users/rperezb/events{/privacy}",
    "received_events_url": "https://api.github.com/users/rperezb/received_events",
    "type": "User",
    "site_admin": false
  },
  "created_at": "2014-10-09T09:32:09Z",
  "updated_at": "2014-10-09T09:32:09Z",
  "body": "This is done and merged into develop, it will included within next Android version"
}
]
