[
{
  "url": "https://api.github.com/repos/elastic/kibana/issues/comments/117989347",
  "html_url": "https://github.com/elastic/kibana/pull/4373#issuecomment-117989347",
  "issue_url": "https://api.github.com/repos/elastic/kibana/issues/4373",
  "id": 117989347,
  "user": {
    "login": "elasticsearch-release",
    "id": 6044169,
    "avatar_url": "https://avatars.githubusercontent.com/u/6044169?v=3",
    "gravatar_id": "",
    "url": "https://api.github.com/users/elasticsearch-release",
    "html_url": "https://github.com/elasticsearch-release",
    "followers_url": "https://api.github.com/users/elasticsearch-release/followers",
    "following_url": "https://api.github.com/users/elasticsearch-release/following{/other_user}",
    "gists_url": "https://api.github.com/users/elasticsearch-release/gists{/gist_id}",
    "starred_url": "https://api.github.com/users/elasticsearch-release/starred{/owner}{/repo}",
    "subscriptions_url": "https://api.github.com/users/elasticsearch-release/subscriptions",
    "organizations_url": "https://api.github.com/users/elasticsearch-release/orgs",
    "repos_url": "https://api.github.com/users/elasticsearch-release/repos",
    "events_url": "https://api.github.com/users/elasticsearch-release/events{/privacy}",
    "received_events_url": "https://api.github.com/users/elasticsearch-release/received_events",
    "type": "User",
    "site_admin": false
  },
  "created_at": "2015-07-02T10:09:01Z",
  "updated_at": "2015-07-02T10:09:01Z",
  "body": "Jenkins standing by to test this. If you aren't a maintainer, you can ignore this comment. Someone with commit access, please review this and clear it for Jenkins to run; then  say 'jenkins, test it'. "
}
]
