[
{
  "url": "https://api.github.com/repos/elastic/kibana/issues/comments/75264588",
  "html_url": "https://github.com/elastic/kibana/issues/3116#issuecomment-75264588",
  "issue_url": "https://api.github.com/repos/elastic/kibana/issues/3116",
  "id": 75264588,
  "user": {
    "login": "rashidkpc",
    "id": 1250387,
    "avatar_url": "https://avatars.githubusercontent.com/u/1250387?v=3",
    "gravatar_id": "",
    "url": "https://api.github.com/users/rashidkpc",
    "html_url": "https://github.com/rashidkpc",
    "followers_url": "https://api.github.com/users/rashidkpc/followers",
    "following_url": "https://api.github.com/users/rashidkpc/following{/other_user}",
    "gists_url": "https://api.github.com/users/rashidkpc/gists{/gist_id}",
    "starred_url": "https://api.github.com/users/rashidkpc/starred{/owner}{/repo}",
    "subscriptions_url": "https://api.github.com/users/rashidkpc/subscriptions",
    "organizations_url": "https://api.github.com/users/rashidkpc/orgs",
    "repos_url": "https://api.github.com/users/rashidkpc/repos",
    "events_url": "https://api.github.com/users/rashidkpc/events{/privacy}",
    "received_events_url": "https://api.github.com/users/rashidkpc/received_events",
    "type": "User",
    "site_admin": false
  },
  "created_at": "2015-02-20T16:14:42Z",
  "updated_at": "2015-02-20T16:14:42Z",
  "body": ":-( Really it just needs to be added as a build target. Should be pretty simple."
}
, {
  "url": "https://api.github.com/repos/elastic/kibana/issues/comments/76438684",
  "html_url": "https://github.com/elastic/kibana/issues/3116#issuecomment-76438684",
  "issue_url": "https://api.github.com/repos/elastic/kibana/issues/3116",
  "id": 76438684,
  "user": {
    "login": "simianhacker",
    "id": 41702,
    "avatar_url": "https://avatars.githubusercontent.com/u/41702?v=3",
    "gravatar_id": "",
    "url": "https://api.github.com/users/simianhacker",
    "html_url": "https://github.com/simianhacker",
    "followers_url": "https://api.github.com/users/simianhacker/followers",
    "following_url": "https://api.github.com/users/simianhacker/following{/other_user}",
    "gists_url": "https://api.github.com/users/simianhacker/gists{/gist_id}",
    "starred_url": "https://api.github.com/users/simianhacker/starred{/owner}{/repo}",
    "subscriptions_url": "https://api.github.com/users/simianhacker/subscriptions",
    "organizations_url": "https://api.github.com/users/simianhacker/orgs",
    "repos_url": "https://api.github.com/users/simianhacker/repos",
    "events_url": "https://api.github.com/users/simianhacker/events{/privacy}",
    "received_events_url": "https://api.github.com/users/simianhacker/received_events",
    "type": "User",
    "site_admin": false
  },
  "created_at": "2015-02-27T17:44:50Z",
  "updated_at": "2015-02-27T17:44:50Z",
  "body": "I wish this was a simple as adding a build target, unfortunately Node.js doesn't distribute a build for FreeBSD. I think the solution for this is for the user to build Node.js for their platform and install Kibana as an NPM Module. \r\n\r\nWe have a ticket for publishing Kibana as an NPM module: #3034\r\n"
}
, {
  "url": "https://api.github.com/repos/elastic/kibana/issues/comments/84166838",
  "html_url": "https://github.com/elastic/kibana/issues/3116#issuecomment-84166838",
  "issue_url": "https://api.github.com/repos/elastic/kibana/issues/3116",
  "id": 84166838,
  "user": {
    "login": "msimerson",
    "id": 261635,
    "avatar_url": "https://avatars.githubusercontent.com/u/261635?v=3",
    "gravatar_id": "",
    "url": "https://api.github.com/users/msimerson",
    "html_url": "https://github.com/msimerson",
    "followers_url": "https://api.github.com/users/msimerson/followers",
    "following_url": "https://api.github.com/users/msimerson/following{/other_user}",
    "gists_url": "https://api.github.com/users/msimerson/gists{/gist_id}",
    "starred_url": "https://api.github.com/users/msimerson/starred{/owner}{/repo}",
    "subscriptions_url": "https://api.github.com/users/msimerson/subscriptions",
    "organizations_url": "https://api.github.com/users/msimerson/orgs",
    "repos_url": "https://api.github.com/users/msimerson/repos",
    "events_url": "https://api.github.com/users/msimerson/events{/privacy}",
    "received_events_url": "https://api.github.com/users/msimerson/received_events",
    "type": "User",
    "site_admin": false
  },
  "created_at": "2015-03-20T22:09:17Z",
  "updated_at": "2015-03-21T00:01:32Z",
  "body": "# Install node for Kibana 4 (on FreeBSD)\r\n\r\n## after Kibana supports node 0.12\r\n```sh\r\npkg install node\r\n```\r\n\r\n## until then\r\n```sh\r\npkg install node010\r\n\r\ngrep npm /etc/make.conf || cat << EO_NPM >> /etc/make.conf\r\nwww_npm_SET=NODE010\r\nwww_npm_UNSET=NODE NODE_DEVEL IOJS\r\nEO_NPM\r\nmake -C /usr/ports/www/npm clean build deinstall install clean\r\n```\r\n\r\n# install Kibana 4 from GitHub\r\npkg install -y git\r\ngit clone https://github.com/elastic/kibana.git\r\ncd kibana\r\nnpm install -g bower grunt-cli\r\nnpm install\r\nbower install\r\ngrunt\r\nnpm start\r\n\r\n# test\r\n\r\nPoint your browser at http://your.host.com:5601/"
}
, {
  "url": "https://api.github.com/repos/elastic/kibana/issues/comments/89575248",
  "html_url": "https://github.com/elastic/kibana/issues/3116#issuecomment-89575248",
  "issue_url": "https://api.github.com/repos/elastic/kibana/issues/3116",
  "id": 89575248,
  "user": {
    "login": "StefanSa",
    "id": 6105075,
    "avatar_url": "https://avatars.githubusercontent.com/u/6105075?v=3",
    "gravatar_id": "",
    "url": "https://api.github.com/users/StefanSa",
    "html_url": "https://github.com/StefanSa",
    "followers_url": "https://api.github.com/users/StefanSa/followers",
    "following_url": "https://api.github.com/users/StefanSa/following{/other_user}",
    "gists_url": "https://api.github.com/users/StefanSa/gists{/gist_id}",
    "starred_url": "https://api.github.com/users/StefanSa/starred{/owner}{/repo}",
    "subscriptions_url": "https://api.github.com/users/StefanSa/subscriptions",
    "organizations_url": "https://api.github.com/users/StefanSa/orgs",
    "repos_url": "https://api.github.com/users/StefanSa/repos",
    "events_url": "https://api.github.com/users/StefanSa/events{/privacy}",
    "received_events_url": "https://api.github.com/users/StefanSa/received_events",
    "type": "User",
    "site_admin": false
  },
  "created_at": "2015-04-04T13:14:39Z",
  "updated_at": "2015-04-04T13:44:05Z",
  "body": "Hi all,\r\nhave here an init script for FreeBSD, based on `node forever`.\r\nWith `forever` , kibana runs in the background as a service.\r\n\r\nAs a first step, install `node forever`.\r\nnpm install forever -g\r\n\r\nSecond step, a user create with the forever / kibana acts (no root rights for kibana), In my case this was \"node\".\r\n \r\n```\r\n#!/bin/sh\r\n\r\n# PROVIDE: forever\r\n# REQUIRE: NETWORKING SERVERS DAEMON\r\n# BEFORE: LOGIN\r\n# KEYWORD: shutdown\r\n\r\n. /etc/rc.subr\r\n\r\nname=\"kibana\"\r\nforever=\"/usr/local/bin/node /usr/local/bin/forever\"\r\n: ${kibana_workdir=\"/usr/local/kibana/src/server/bin\"}\r\n: ${kibana_script=\"kibana.js\"}\r\n: ${kibana_pidfile=/var/run/$name.pid}\r\n: ${kibana_logfile=/var/log/kibana/$name.log}\r\n: ${kibana_foreverdir=/var/run/forever}\r\n: ${kibana_minUptime:=1000}\r\n: ${kibana_spinSleepTime:=1000}\r\n: ${kibana_user:=node}\r\n: ${kibana_group:=node}\r\n\r\nrcvar=kibana_enable\r\nextra_commands=\"status\"\r\n\r\nstart_precmd=\"kibana_precmd\"\r\nstatus_cmd=\"kibana_status\"\r\nstart_cmd=\"kibana_start\"\r\nstop_cmd=\"kibana_stop\"\r\nrestart_cmd=\"kibana_restart\"\r\n\r\nload_rc_config $name\r\neval \"${rcvar}=\\${${rcvar}:-'NO'}\"\r\n\r\nHOME=/var/run/forever\r\n\r\nkibana_precmd() {\r\n        touch ${kibana_pidfile}\r\n        /usr/bin/install -d -o ${kibana_user} -g ${kibana_group} -m 750 /var/log/kibana\r\n        /usr/bin/install -d -o ${kibana_user} -g ${kibana_group} -m 750 /var/run/forever\r\n        chown ${kibana_user}:${kibana_group} ${kibana_pidfile}\r\n}\r\n\r\nkibana_start()\r\n{\r\n su -m ${kibana_user} -c \"exec ${forever} start --uid \"${name}\" -p ${kibana_foreverdir} \\\r\n  --minUptime ${kibana_minUptime} --spinSleepTime {kibana_spinSleepTime} \\\r\n  --pidFile ${kibana_pidfile} -l ${kibana_logfile} -o /dev/null -e ${kibana_logfile} \\\r\n  -a -d  ${kibana_workdir}/${kibana_script}\"\r\n}\r\n\r\nkibana_status()\r\n{\r\nsu -m ${kibana_user} -c \"${forever} list\"\r\n}\r\n\r\nkibana_stop()\r\n{\r\nsu -m ${kibana_user} -c \"${forever} stop ${name}\"\r\n}\r\n\r\nkibana_restart()\r\n{\r\nsu -m ${kibana_user} -c \"${forever} restart ${name}\"\r\n}\r\n\r\nrun_rc_command \"$1\"\r\n```\r\n"
}
, {
  "url": "https://api.github.com/repos/elastic/kibana/issues/comments/97715423",
  "html_url": "https://github.com/elastic/kibana/issues/3116#issuecomment-97715423",
  "issue_url": "https://api.github.com/repos/elastic/kibana/issues/3116",
  "id": 97715423,
  "user": {
    "login": "setjmp2013",
    "id": 10446644,
    "avatar_url": "https://avatars.githubusercontent.com/u/10446644?v=3",
    "gravatar_id": "",
    "url": "https://api.github.com/users/setjmp2013",
    "html_url": "https://github.com/setjmp2013",
    "followers_url": "https://api.github.com/users/setjmp2013/followers",
    "following_url": "https://api.github.com/users/setjmp2013/following{/other_user}",
    "gists_url": "https://api.github.com/users/setjmp2013/gists{/gist_id}",
    "starred_url": "https://api.github.com/users/setjmp2013/starred{/owner}{/repo}",
    "subscriptions_url": "https://api.github.com/users/setjmp2013/subscriptions",
    "organizations_url": "https://api.github.com/users/setjmp2013/orgs",
    "repos_url": "https://api.github.com/users/setjmp2013/repos",
    "events_url": "https://api.github.com/users/setjmp2013/events{/privacy}",
    "received_events_url": "https://api.github.com/users/setjmp2013/received_events",
    "type": "User",
    "site_admin": false
  },
  "created_at": "2015-04-30T09:12:59Z",
  "updated_at": "2015-04-30T09:14:06Z",
  "body": "I've had decent luck just installing node and npm 0.12.2 (usual packages) on FreeBSD\r\n\r\ngrunt build\r\ncd build/dist/kibana\r\n## edit bin/kibana like this:\r\n## NODE= \\`which node\\`\r\n./bin/kibana\r\nit runs fine, 5 or more times now. Though I'm looking to make it packagable more usefully soon :)\r\n"
}
, {
  "url": "https://api.github.com/repos/elastic/kibana/issues/comments/100982083",
  "html_url": "https://github.com/elastic/kibana/issues/3116#issuecomment-100982083",
  "issue_url": "https://api.github.com/repos/elastic/kibana/issues/3116",
  "id": 100982083,
  "user": {
    "login": "akisys",
    "id": 509634,
    "avatar_url": "https://avatars.githubusercontent.com/u/509634?v=3",
    "gravatar_id": "",
    "url": "https://api.github.com/users/akisys",
    "html_url": "https://github.com/akisys",
    "followers_url": "https://api.github.com/users/akisys/followers",
    "following_url": "https://api.github.com/users/akisys/following{/other_user}",
    "gists_url": "https://api.github.com/users/akisys/gists{/gist_id}",
    "starred_url": "https://api.github.com/users/akisys/starred{/owner}{/repo}",
    "subscriptions_url": "https://api.github.com/users/akisys/subscriptions",
    "organizations_url": "https://api.github.com/users/akisys/orgs",
    "repos_url": "https://api.github.com/users/akisys/repos",
    "events_url": "https://api.github.com/users/akisys/events{/privacy}",
    "received_events_url": "https://api.github.com/users/akisys/received_events",
    "type": "User",
    "site_admin": false
  },
  "created_at": "2015-05-11T17:15:49Z",
  "updated_at": "2015-05-11T17:15:49Z",
  "body": "I used the information of this thread to build a FreeBSD Port 'net-mgmt/kibana'.\r\nCheck it out here:\r\nhttps://github.com/akisys/freebsd-ports\r\n\r\nLet me know how it works. It's the first port I wrote, any advice is much appreciated."
}
, {
  "url": "https://api.github.com/repos/elastic/kibana/issues/comments/101382693",
  "html_url": "https://github.com/elastic/kibana/issues/3116#issuecomment-101382693",
  "issue_url": "https://api.github.com/repos/elastic/kibana/issues/3116",
  "id": 101382693,
  "user": {
    "login": "msimerson",
    "id": 261635,
    "avatar_url": "https://avatars.githubusercontent.com/u/261635?v=3",
    "gravatar_id": "",
    "url": "https://api.github.com/users/msimerson",
    "html_url": "https://github.com/msimerson",
    "followers_url": "https://api.github.com/users/msimerson/followers",
    "following_url": "https://api.github.com/users/msimerson/following{/other_user}",
    "gists_url": "https://api.github.com/users/msimerson/gists{/gist_id}",
    "starred_url": "https://api.github.com/users/msimerson/starred{/owner}{/repo}",
    "subscriptions_url": "https://api.github.com/users/msimerson/subscriptions",
    "organizations_url": "https://api.github.com/users/msimerson/orgs",
    "repos_url": "https://api.github.com/users/msimerson/repos",
    "events_url": "https://api.github.com/users/msimerson/events{/privacy}",
    "received_events_url": "https://api.github.com/users/msimerson/received_events",
    "type": "User",
    "site_admin": false
  },
  "created_at": "2015-05-12T18:44:59Z",
  "updated_at": "2015-05-12T18:44:59Z",
  "body": "@akisys , I like the idea and I have a few comments / suggestions. \r\n\r\n* I would remove the dependency on www/node, as www/npm already depends on node\r\n* www/npm has options to let me choose IOJS, node, node-devel, or node 0.10. That's a necessary choice (especially if node is already installed). There's no need to duplicate that work in your own port.\r\n* kibana still recommends node 0.10\r\n* while forever is the legacy favorite, pm2 is more popular now. In light of that, I'd consider:\r\n    * make separate ports for www/forever and www/pm2 that depend only on npm.\r\n    * let your kibana port depend on either forever or pm2\r\n\r\nIn the future, someone else will likely send you a PR that add support for their favorite \"forever\" replacement. When that happens, it will only make a tiny change to your kibana port. \r\n\r\nAlso, there's bound to be more future ports that want forever or pm2 running. Being able to depend on your www/forever port will be much nicer for them."
}
, {
  "url": "https://api.github.com/repos/elastic/kibana/issues/comments/102671436",
  "html_url": "https://github.com/elastic/kibana/issues/3116#issuecomment-102671436",
  "issue_url": "https://api.github.com/repos/elastic/kibana/issues/3116",
  "id": 102671436,
  "user": {
    "login": "akisys",
    "id": 509634,
    "avatar_url": "https://avatars.githubusercontent.com/u/509634?v=3",
    "gravatar_id": "",
    "url": "https://api.github.com/users/akisys",
    "html_url": "https://github.com/akisys",
    "followers_url": "https://api.github.com/users/akisys/followers",
    "following_url": "https://api.github.com/users/akisys/following{/other_user}",
    "gists_url": "https://api.github.com/users/akisys/gists{/gist_id}",
    "starred_url": "https://api.github.com/users/akisys/starred{/owner}{/repo}",
    "subscriptions_url": "https://api.github.com/users/akisys/subscriptions",
    "organizations_url": "https://api.github.com/users/akisys/orgs",
    "repos_url": "https://api.github.com/users/akisys/repos",
    "events_url": "https://api.github.com/users/akisys/events{/privacy}",
    "received_events_url": "https://api.github.com/users/akisys/received_events",
    "type": "User",
    "site_admin": false
  },
  "created_at": "2015-05-16T19:55:51Z",
  "updated_at": "2015-05-16T19:55:51Z",
  "body": "Thanks msimerson for the hints, I take that into consideration and keep on improving."
}
]
