[
{
  "url": "https://api.github.com/repos/elastic/kibana/issues/comments/81027175",
  "html_url": "https://github.com/elastic/kibana/issues/3349#issuecomment-81027175",
  "issue_url": "https://api.github.com/repos/elastic/kibana/issues/3349",
  "id": 81027175,
  "user": {
    "login": "rashidkpc",
    "id": 1250387,
    "avatar_url": "https://avatars.githubusercontent.com/u/1250387?v=3",
    "gravatar_id": "",
    "url": "https://api.github.com/users/rashidkpc",
    "html_url": "https://github.com/rashidkpc",
    "followers_url": "https://api.github.com/users/rashidkpc/followers",
    "following_url": "https://api.github.com/users/rashidkpc/following{/other_user}",
    "gists_url": "https://api.github.com/users/rashidkpc/gists{/gist_id}",
    "starred_url": "https://api.github.com/users/rashidkpc/starred{/owner}{/repo}",
    "subscriptions_url": "https://api.github.com/users/rashidkpc/subscriptions",
    "organizations_url": "https://api.github.com/users/rashidkpc/orgs",
    "repos_url": "https://api.github.com/users/rashidkpc/repos",
    "events_url": "https://api.github.com/users/rashidkpc/events{/privacy}",
    "received_events_url": "https://api.github.com/users/rashidkpc/received_events",
    "type": "User",
    "site_admin": false
  },
  "created_at": "2015-03-15T14:18:57Z",
  "updated_at": "2015-03-15T14:19:34Z",
  "body": "This is not currently implemented, but I like the idea. Currently there's no nice way to add this sort of thing, but I'd like to find a way to make it officially supported."
}
]
