[
{
  "url": "https://api.github.com/repos/elastic/kibana/issues/comments/169842120",
  "html_url": "https://github.com/elastic/kibana/issues/5848#issuecomment-169842120",
  "issue_url": "https://api.github.com/repos/elastic/kibana/issues/5848",
  "id": 169842120,
  "user": {
    "login": "LeeDr",
    "id": 13542669,
    "avatar_url": "https://avatars.githubusercontent.com/u/13542669?v=3",
    "gravatar_id": "",
    "url": "https://api.github.com/users/LeeDr",
    "html_url": "https://github.com/LeeDr",
    "followers_url": "https://api.github.com/users/LeeDr/followers",
    "following_url": "https://api.github.com/users/LeeDr/following{/other_user}",
    "gists_url": "https://api.github.com/users/LeeDr/gists{/gist_id}",
    "starred_url": "https://api.github.com/users/LeeDr/starred{/owner}{/repo}",
    "subscriptions_url": "https://api.github.com/users/LeeDr/subscriptions",
    "organizations_url": "https://api.github.com/users/LeeDr/orgs",
    "repos_url": "https://api.github.com/users/LeeDr/repos",
    "events_url": "https://api.github.com/users/LeeDr/events{/privacy}",
    "received_events_url": "https://api.github.com/users/LeeDr/received_events",
    "type": "User",
    "site_admin": false
  },
  "created_at": "2016-01-07T23:42:48Z",
  "updated_at": "2016-01-07T23:42:48Z",
  "body": "hmm, must be getting tired.  I think I made the change and didn't apply it.  Notice how bright green the Apply arrow looks.  Seems to be working now.  Closing."
}
]
