[
{
  "url": "https://api.github.com/repos/elastic/kibana/issues/comments/88932777",
  "html_url": "https://github.com/elastic/kibana/issues/3509#issuecomment-88932777",
  "issue_url": "https://api.github.com/repos/elastic/kibana/issues/3509",
  "id": 88932777,
  "user": {
    "login": "rashidkpc",
    "id": 1250387,
    "avatar_url": "https://avatars.githubusercontent.com/u/1250387?v=3",
    "gravatar_id": "",
    "url": "https://api.github.com/users/rashidkpc",
    "html_url": "https://github.com/rashidkpc",
    "followers_url": "https://api.github.com/users/rashidkpc/followers",
    "following_url": "https://api.github.com/users/rashidkpc/following{/other_user}",
    "gists_url": "https://api.github.com/users/rashidkpc/gists{/gist_id}",
    "starred_url": "https://api.github.com/users/rashidkpc/starred{/owner}{/repo}",
    "subscriptions_url": "https://api.github.com/users/rashidkpc/subscriptions",
    "organizations_url": "https://api.github.com/users/rashidkpc/orgs",
    "repos_url": "https://api.github.com/users/rashidkpc/repos",
    "events_url": "https://api.github.com/users/rashidkpc/events{/privacy}",
    "received_events_url": "https://api.github.com/users/rashidkpc/received_events",
    "type": "User",
    "site_admin": false
  },
  "created_at": "2015-04-02T14:44:13Z",
  "updated_at": "2015-04-02T14:44:13Z",
  "body": "++ Super cool\r\n"
}
, {
  "url": "https://api.github.com/repos/elastic/kibana/issues/comments/89013976",
  "html_url": "https://github.com/elastic/kibana/issues/3509#issuecomment-89013976",
  "issue_url": "https://api.github.com/repos/elastic/kibana/issues/3509",
  "id": 89013976,
  "user": {
    "login": "gthorsen",
    "id": 512273,
    "avatar_url": "https://avatars.githubusercontent.com/u/512273?v=3",
    "gravatar_id": "",
    "url": "https://api.github.com/users/gthorsen",
    "html_url": "https://github.com/gthorsen",
    "followers_url": "https://api.github.com/users/gthorsen/followers",
    "following_url": "https://api.github.com/users/gthorsen/following{/other_user}",
    "gists_url": "https://api.github.com/users/gthorsen/gists{/gist_id}",
    "starred_url": "https://api.github.com/users/gthorsen/starred{/owner}{/repo}",
    "subscriptions_url": "https://api.github.com/users/gthorsen/subscriptions",
    "organizations_url": "https://api.github.com/users/gthorsen/orgs",
    "repos_url": "https://api.github.com/users/gthorsen/repos",
    "events_url": "https://api.github.com/users/gthorsen/events{/privacy}",
    "received_events_url": "https://api.github.com/users/gthorsen/received_events",
    "type": "User",
    "site_admin": false
  },
  "created_at": "2015-04-02T19:13:40Z",
  "updated_at": "2015-04-02T19:13:40Z",
  "body": "+1"
}
, {
  "url": "https://api.github.com/repos/elastic/kibana/issues/comments/91661455",
  "html_url": "https://github.com/elastic/kibana/issues/3509#issuecomment-91661455",
  "issue_url": "https://api.github.com/repos/elastic/kibana/issues/3509",
  "id": 91661455,
  "user": {
    "login": "webmstr",
    "id": 4305995,
    "avatar_url": "https://avatars.githubusercontent.com/u/4305995?v=3",
    "gravatar_id": "",
    "url": "https://api.github.com/users/webmstr",
    "html_url": "https://github.com/webmstr",
    "followers_url": "https://api.github.com/users/webmstr/followers",
    "following_url": "https://api.github.com/users/webmstr/following{/other_user}",
    "gists_url": "https://api.github.com/users/webmstr/gists{/gist_id}",
    "starred_url": "https://api.github.com/users/webmstr/starred{/owner}{/repo}",
    "subscriptions_url": "https://api.github.com/users/webmstr/subscriptions",
    "organizations_url": "https://api.github.com/users/webmstr/orgs",
    "repos_url": "https://api.github.com/users/webmstr/repos",
    "events_url": "https://api.github.com/users/webmstr/events{/privacy}",
    "received_events_url": "https://api.github.com/users/webmstr/received_events",
    "type": "User",
    "site_admin": false
  },
  "created_at": "2015-04-10T19:38:55Z",
  "updated_at": "2015-04-10T19:38:55Z",
  "body": "+1"
}
]
