[
{
  "url": "https://api.github.com/repos/elastic/kibana/issues/comments/55751611",
  "html_url": "https://github.com/elastic/kibana/issues/1490#issuecomment-55751611",
  "issue_url": "https://api.github.com/repos/elastic/kibana/issues/1490",
  "id": 55751611,
  "user": {
    "login": "rashidkpc",
    "id": 1250387,
    "avatar_url": "https://avatars.githubusercontent.com/u/1250387?v=3",
    "gravatar_id": "",
    "url": "https://api.github.com/users/rashidkpc",
    "html_url": "https://github.com/rashidkpc",
    "followers_url": "https://api.github.com/users/rashidkpc/followers",
    "following_url": "https://api.github.com/users/rashidkpc/following{/other_user}",
    "gists_url": "https://api.github.com/users/rashidkpc/gists{/gist_id}",
    "starred_url": "https://api.github.com/users/rashidkpc/starred{/owner}{/repo}",
    "subscriptions_url": "https://api.github.com/users/rashidkpc/subscriptions",
    "organizations_url": "https://api.github.com/users/rashidkpc/orgs",
    "repos_url": "https://api.github.com/users/rashidkpc/repos",
    "events_url": "https://api.github.com/users/rashidkpc/events{/privacy}",
    "received_events_url": "https://api.github.com/users/rashidkpc/received_events",
    "type": "User",
    "site_admin": false
  },
  "created_at": "2014-09-16T14:32:21Z",
  "updated_at": "2014-09-16T14:32:21Z",
  "body": "Duplicate of https://github.com/elasticsearch/kibana/issues/1486. There is a video on using the histogram panel on the elasticsearch site here: http://www.elasticsearch.org/videos/timeseries-histogram-kibana/"
}
]
