[
{
  "url": "https://api.github.com/repos/elastic/kibana/issues/comments/77517378",
  "html_url": "https://github.com/elastic/kibana/issues/2516#issuecomment-77517378",
  "issue_url": "https://api.github.com/repos/elastic/kibana/issues/2516",
  "id": 77517378,
  "user": {
    "login": "luzili",
    "id": 5575438,
    "avatar_url": "https://avatars.githubusercontent.com/u/5575438?v=3",
    "gravatar_id": "",
    "url": "https://api.github.com/users/luzili",
    "html_url": "https://github.com/luzili",
    "followers_url": "https://api.github.com/users/luzili/followers",
    "following_url": "https://api.github.com/users/luzili/following{/other_user}",
    "gists_url": "https://api.github.com/users/luzili/gists{/gist_id}",
    "starred_url": "https://api.github.com/users/luzili/starred{/owner}{/repo}",
    "subscriptions_url": "https://api.github.com/users/luzili/subscriptions",
    "organizations_url": "https://api.github.com/users/luzili/orgs",
    "repos_url": "https://api.github.com/users/luzili/repos",
    "events_url": "https://api.github.com/users/luzili/events{/privacy}",
    "received_events_url": "https://api.github.com/users/luzili/received_events",
    "type": "User",
    "site_admin": false
  },
  "created_at": "2015-03-06T07:20:32Z",
  "updated_at": "2015-03-06T07:20:32Z",
  "body": "+1"
}
, {
  "url": "https://api.github.com/repos/elastic/kibana/issues/comments/131753998",
  "html_url": "https://github.com/elastic/kibana/issues/2516#issuecomment-131753998",
  "issue_url": "https://api.github.com/repos/elastic/kibana/issues/2516",
  "id": 131753998,
  "user": {
    "login": "yinchuan",
    "id": 2181835,
    "avatar_url": "https://avatars.githubusercontent.com/u/2181835?v=3",
    "gravatar_id": "",
    "url": "https://api.github.com/users/yinchuan",
    "html_url": "https://github.com/yinchuan",
    "followers_url": "https://api.github.com/users/yinchuan/followers",
    "following_url": "https://api.github.com/users/yinchuan/following{/other_user}",
    "gists_url": "https://api.github.com/users/yinchuan/gists{/gist_id}",
    "starred_url": "https://api.github.com/users/yinchuan/starred{/owner}{/repo}",
    "subscriptions_url": "https://api.github.com/users/yinchuan/subscriptions",
    "organizations_url": "https://api.github.com/users/yinchuan/orgs",
    "repos_url": "https://api.github.com/users/yinchuan/repos",
    "events_url": "https://api.github.com/users/yinchuan/events{/privacy}",
    "received_events_url": "https://api.github.com/users/yinchuan/received_events",
    "type": "User",
    "site_admin": false
  },
  "created_at": "2015-08-17T09:46:07Z",
  "updated_at": "2015-08-17T09:46:07Z",
  "body": "+1"
}
, {
  "url": "https://api.github.com/repos/elastic/kibana/issues/comments/163555974",
  "html_url": "https://github.com/elastic/kibana/issues/2516#issuecomment-163555974",
  "issue_url": "https://api.github.com/repos/elastic/kibana/issues/2516",
  "id": 163555974,
  "user": {
    "login": "zhihuiFan",
    "id": 3489747,
    "avatar_url": "https://avatars.githubusercontent.com/u/3489747?v=3",
    "gravatar_id": "",
    "url": "https://api.github.com/users/zhihuiFan",
    "html_url": "https://github.com/zhihuiFan",
    "followers_url": "https://api.github.com/users/zhihuiFan/followers",
    "following_url": "https://api.github.com/users/zhihuiFan/following{/other_user}",
    "gists_url": "https://api.github.com/users/zhihuiFan/gists{/gist_id}",
    "starred_url": "https://api.github.com/users/zhihuiFan/starred{/owner}{/repo}",
    "subscriptions_url": "https://api.github.com/users/zhihuiFan/subscriptions",
    "organizations_url": "https://api.github.com/users/zhihuiFan/orgs",
    "repos_url": "https://api.github.com/users/zhihuiFan/repos",
    "events_url": "https://api.github.com/users/zhihuiFan/events{/privacy}",
    "received_events_url": "https://api.github.com/users/zhihuiFan/received_events",
    "type": "User",
    "site_admin": false
  },
  "created_at": "2015-12-10T09:42:21Z",
  "updated_at": "2015-12-10T09:42:21Z",
  "body": "+1"
}
]
