[
{
  "url": "https://api.github.com/repos/elastic/kibana/issues/comments/71260430",
  "html_url": "https://github.com/elastic/kibana/issues/2023#issuecomment-71260430",
  "issue_url": "https://api.github.com/repos/elastic/kibana/issues/2023",
  "id": 71260430,
  "user": {
    "login": "tbragin",
    "id": 933397,
    "avatar_url": "https://avatars.githubusercontent.com/u/933397?v=3",
    "gravatar_id": "",
    "url": "https://api.github.com/users/tbragin",
    "html_url": "https://github.com/tbragin",
    "followers_url": "https://api.github.com/users/tbragin/followers",
    "following_url": "https://api.github.com/users/tbragin/following{/other_user}",
    "gists_url": "https://api.github.com/users/tbragin/gists{/gist_id}",
    "starred_url": "https://api.github.com/users/tbragin/starred{/owner}{/repo}",
    "subscriptions_url": "https://api.github.com/users/tbragin/subscriptions",
    "organizations_url": "https://api.github.com/users/tbragin/orgs",
    "repos_url": "https://api.github.com/users/tbragin/repos",
    "events_url": "https://api.github.com/users/tbragin/events{/privacy}",
    "received_events_url": "https://api.github.com/users/tbragin/received_events",
    "type": "User",
    "site_admin": false
  },
  "created_at": "2015-01-23T20:30:56Z",
  "updated_at": "2015-01-23T20:30:56Z",
  "body": "Slightly related - If you change \"Page Size\" to a large number, say 100, and there are less rows returned, a bunch of empty rows are shown. \"All\" does the right thing though by only showing as many as needed. As an aside - why do we call the setting \"Page Size\", isn't it more like \"Rows per Page\"?\r\n![screen shot 2015-01-23 at 12 29 56 pm](https://cloud.githubusercontent.com/assets/933397/5882135/99b733ba-a2fb-11e4-940a-3d14ffe74dc2.png)\r\n"
}
, {
  "url": "https://api.github.com/repos/elastic/kibana/issues/comments/72879741",
  "html_url": "https://github.com/elastic/kibana/issues/2023#issuecomment-72879741",
  "issue_url": "https://api.github.com/repos/elastic/kibana/issues/2023",
  "id": 72879741,
  "user": {
    "login": "sqpdln",
    "id": 1847928,
    "avatar_url": "https://avatars.githubusercontent.com/u/1847928?v=3",
    "gravatar_id": "",
    "url": "https://api.github.com/users/sqpdln",
    "html_url": "https://github.com/sqpdln",
    "followers_url": "https://api.github.com/users/sqpdln/followers",
    "following_url": "https://api.github.com/users/sqpdln/following{/other_user}",
    "gists_url": "https://api.github.com/users/sqpdln/gists{/gist_id}",
    "starred_url": "https://api.github.com/users/sqpdln/starred{/owner}{/repo}",
    "subscriptions_url": "https://api.github.com/users/sqpdln/subscriptions",
    "organizations_url": "https://api.github.com/users/sqpdln/orgs",
    "repos_url": "https://api.github.com/users/sqpdln/repos",
    "events_url": "https://api.github.com/users/sqpdln/events{/privacy}",
    "received_events_url": "https://api.github.com/users/sqpdln/received_events",
    "type": "User",
    "site_admin": false
  },
  "created_at": "2015-02-04T15:54:58Z",
  "updated_at": "2015-02-04T15:54:58Z",
  "body": "Yes, this would be a rather nice fix.\r\nI want to have a top 3 Terms as a table in a dashboard, and the table ends up with ten rows and a scrollbar (if I don't size it up to show all ten). \r\nMaybe this even should be considered a bug."
}
]
