[
{
  "url": "https://api.github.com/repos/elastic/kibana/issues/comments/36664808",
  "html_url": "https://github.com/elastic/kibana/issues/1016#issuecomment-36664808",
  "issue_url": "https://api.github.com/repos/elastic/kibana/issues/1016",
  "id": 36664808,
  "user": {
    "login": "untergeek",
    "id": 1020383,
    "avatar_url": "https://avatars.githubusercontent.com/u/1020383?v=3",
    "gravatar_id": "",
    "url": "https://api.github.com/users/untergeek",
    "html_url": "https://github.com/untergeek",
    "followers_url": "https://api.github.com/users/untergeek/followers",
    "following_url": "https://api.github.com/users/untergeek/following{/other_user}",
    "gists_url": "https://api.github.com/users/untergeek/gists{/gist_id}",
    "starred_url": "https://api.github.com/users/untergeek/starred{/owner}{/repo}",
    "subscriptions_url": "https://api.github.com/users/untergeek/subscriptions",
    "organizations_url": "https://api.github.com/users/untergeek/orgs",
    "repos_url": "https://api.github.com/users/untergeek/repos",
    "events_url": "https://api.github.com/users/untergeek/events{/privacy}",
    "received_events_url": "https://api.github.com/users/untergeek/received_events",
    "type": "User",
    "site_admin": false
  },
  "created_at": "2014-03-04T19:39:35Z",
  "updated_at": "2014-03-04T19:39:35Z",
  "body": ":+1: "
}
, {
  "url": "https://api.github.com/repos/elastic/kibana/issues/comments/36664875",
  "html_url": "https://github.com/elastic/kibana/issues/1016#issuecomment-36664875",
  "issue_url": "https://api.github.com/repos/elastic/kibana/issues/1016",
  "id": 36664875,
  "user": {
    "login": "coolacid",
    "id": 1091410,
    "avatar_url": "https://avatars.githubusercontent.com/u/1091410?v=3",
    "gravatar_id": "",
    "url": "https://api.github.com/users/coolacid",
    "html_url": "https://github.com/coolacid",
    "followers_url": "https://api.github.com/users/coolacid/followers",
    "following_url": "https://api.github.com/users/coolacid/following{/other_user}",
    "gists_url": "https://api.github.com/users/coolacid/gists{/gist_id}",
    "starred_url": "https://api.github.com/users/coolacid/starred{/owner}{/repo}",
    "subscriptions_url": "https://api.github.com/users/coolacid/subscriptions",
    "organizations_url": "https://api.github.com/users/coolacid/orgs",
    "repos_url": "https://api.github.com/users/coolacid/repos",
    "events_url": "https://api.github.com/users/coolacid/events{/privacy}",
    "received_events_url": "https://api.github.com/users/coolacid/received_events",
    "type": "User",
    "site_admin": false
  },
  "created_at": "2014-03-04T19:40:11Z",
  "updated_at": "2014-03-04T19:40:11Z",
  "body": "Maybe an alternative might be of value as well: IE: http://wiki.openstreetmap.org/wiki/Tiles \r\n\r\nThis would also mean, a group could keep a local mirror of the data instead. \r\n\r\nIn any case, some more config values needs to be implemented :)\r\n\r\n:+1: "
}
, {
  "url": "https://api.github.com/repos/elastic/kibana/issues/comments/36665522",
  "html_url": "https://github.com/elastic/kibana/issues/1016#issuecomment-36665522",
  "issue_url": "https://api.github.com/repos/elastic/kibana/issues/1016",
  "id": 36665522,
  "user": {
    "login": "coolacid",
    "id": 1091410,
    "avatar_url": "https://avatars.githubusercontent.com/u/1091410?v=3",
    "gravatar_id": "",
    "url": "https://api.github.com/users/coolacid",
    "html_url": "https://github.com/coolacid",
    "followers_url": "https://api.github.com/users/coolacid/followers",
    "following_url": "https://api.github.com/users/coolacid/following{/other_user}",
    "gists_url": "https://api.github.com/users/coolacid/gists{/gist_id}",
    "starred_url": "https://api.github.com/users/coolacid/starred{/owner}{/repo}",
    "subscriptions_url": "https://api.github.com/users/coolacid/subscriptions",
    "organizations_url": "https://api.github.com/users/coolacid/orgs",
    "repos_url": "https://api.github.com/users/coolacid/repos",
    "events_url": "https://api.github.com/users/coolacid/events{/privacy}",
    "received_events_url": "https://api.github.com/users/coolacid/received_events",
    "type": "User",
    "site_admin": false
  },
  "created_at": "2014-03-04T19:46:16Z",
  "updated_at": "2014-03-04T19:46:16Z",
  "body": "Cloudmade tile: https://ssl_tiles.cloudmade.com/8ee2a50541944fb9bcedded5165f09d9/22677/256/10/265/388.png\r\n\r\nOpenstreatmap tile: \r\nhttp://b.tile.openstreetmap.org/10/265/388.png\r\n\r\nSame tile, OSM is just more detailed. "
}
, {
  "url": "https://api.github.com/repos/elastic/kibana/issues/comments/36692295",
  "html_url": "https://github.com/elastic/kibana/issues/1016#issuecomment-36692295",
  "issue_url": "https://api.github.com/repos/elastic/kibana/issues/1016",
  "id": 36692295,
  "user": {
    "login": "ronnocol",
    "id": 5877013,
    "avatar_url": "https://avatars.githubusercontent.com/u/5877013?v=3",
    "gravatar_id": "",
    "url": "https://api.github.com/users/ronnocol",
    "html_url": "https://github.com/ronnocol",
    "followers_url": "https://api.github.com/users/ronnocol/followers",
    "following_url": "https://api.github.com/users/ronnocol/following{/other_user}",
    "gists_url": "https://api.github.com/users/ronnocol/gists{/gist_id}",
    "starred_url": "https://api.github.com/users/ronnocol/starred{/owner}{/repo}",
    "subscriptions_url": "https://api.github.com/users/ronnocol/subscriptions",
    "organizations_url": "https://api.github.com/users/ronnocol/orgs",
    "repos_url": "https://api.github.com/users/ronnocol/repos",
    "events_url": "https://api.github.com/users/ronnocol/events{/privacy}",
    "received_events_url": "https://api.github.com/users/ronnocol/received_events",
    "type": "User",
    "site_admin": false
  },
  "created_at": "2014-03-04T23:26:12Z",
  "updated_at": "2014-03-04T23:26:12Z",
  "body": "I have a change in my fork (that I'm getting ready to submit a pull request for) that will allow you to set the map tile base URL. The commit in my fork is: https://github.com/ronnocol/kibana/commit/f23f7abca5635f83c4aa7d6afae32aa671a6b5e6"
}
, {
  "url": "https://api.github.com/repos/elastic/kibana/issues/comments/36693752",
  "html_url": "https://github.com/elastic/kibana/issues/1016#issuecomment-36693752",
  "issue_url": "https://api.github.com/repos/elastic/kibana/issues/1016",
  "id": 36693752,
  "user": {
    "login": "cdeck",
    "id": 1613850,
    "avatar_url": "https://avatars.githubusercontent.com/u/1613850?v=3",
    "gravatar_id": "",
    "url": "https://api.github.com/users/cdeck",
    "html_url": "https://github.com/cdeck",
    "followers_url": "https://api.github.com/users/cdeck/followers",
    "following_url": "https://api.github.com/users/cdeck/following{/other_user}",
    "gists_url": "https://api.github.com/users/cdeck/gists{/gist_id}",
    "starred_url": "https://api.github.com/users/cdeck/starred{/owner}{/repo}",
    "subscriptions_url": "https://api.github.com/users/cdeck/subscriptions",
    "organizations_url": "https://api.github.com/users/cdeck/orgs",
    "repos_url": "https://api.github.com/users/cdeck/repos",
    "events_url": "https://api.github.com/users/cdeck/events{/privacy}",
    "received_events_url": "https://api.github.com/users/cdeck/received_events",
    "type": "User",
    "site_admin": false
  },
  "created_at": "2014-03-04T23:43:56Z",
  "updated_at": "2014-03-04T23:43:56Z",
  "body": "Thanks!\r\n\r\nFYI:\r\n\"We want to let you know about some changes we’re making to the CloudMade APIs. As of May 1st we’re switching to an enterprise model that supports the medium to large sized users of the CloudMade APIs. As part of this transition we’ll stop serving Map Tile, Geocoding, Routing and Vector Stream Server requests coming from your API keys below as of May 1st, unless you take action.\r\nYour active CloudMade API keys are: W,X,Y,Z\r\n\r\nIf you wish to continue using the CloudMade services after April 30th you’ll need to upgrade to an enterprise plan. Enterprise plans are available for customers with 10,000,000 or more transactions per month. The plans include dedicated hosting, custom SLAs, 24×7 support from a named customer support representative and custom data loading. You can find out more about upgrading and request more information on the Web Portals page.\r\n\r\nIf your monthly usage is less than 10,000,000 transactions, or you don’t wish to upgrade to an enterprise plan, you should take action to update the app or website that’s using the CloudMade API keys shown above to use an alternative provider. There are a number of alternative providers of Map Tiles, Geocoding and Routing services based on OpenStreetMap data, for example:\r\n\r\n- Mapquest (Map Tiles, Routing, Geocoding)\r\n\r\n- MapBox (Styled Map Tiles)\r\n\r\nThanks for using CloudMade’s APIs over the past months and years. If you don’t switch to an enterprise plan, we wish you a smooth transition to the new service provider you choose.\"\r\n\r\n\r\n> On Mar 4, 2014, at 6:26 PM, ronnocol <notifications@github.com> wrote:\r\n> \r\n> I have a change in my fork (that I'm getting ready to submit a pull request for) that will allow you to set the map tile base URL. The commit in my fork is: ronnocol@f23f7ab\r\n> \r\n> —\r\n> Reply to this email directly or view it on GitHub."
}
, {
  "url": "https://api.github.com/repos/elastic/kibana/issues/comments/36694301",
  "html_url": "https://github.com/elastic/kibana/issues/1016#issuecomment-36694301",
  "issue_url": "https://api.github.com/repos/elastic/kibana/issues/1016",
  "id": 36694301,
  "user": {
    "login": "ronnocol",
    "id": 5877013,
    "avatar_url": "https://avatars.githubusercontent.com/u/5877013?v=3",
    "gravatar_id": "",
    "url": "https://api.github.com/users/ronnocol",
    "html_url": "https://github.com/ronnocol",
    "followers_url": "https://api.github.com/users/ronnocol/followers",
    "following_url": "https://api.github.com/users/ronnocol/following{/other_user}",
    "gists_url": "https://api.github.com/users/ronnocol/gists{/gist_id}",
    "starred_url": "https://api.github.com/users/ronnocol/starred{/owner}{/repo}",
    "subscriptions_url": "https://api.github.com/users/ronnocol/subscriptions",
    "organizations_url": "https://api.github.com/users/ronnocol/orgs",
    "repos_url": "https://api.github.com/users/ronnocol/repos",
    "events_url": "https://api.github.com/users/ronnocol/events{/privacy}",
    "received_events_url": "https://api.github.com/users/ronnocol/received_events",
    "type": "User",
    "site_admin": false
  },
  "created_at": "2014-03-04T23:51:12Z",
  "updated_at": "2014-03-04T23:51:12Z",
  "body": "Ok, I tried to do a pull request just for the changes that allowed you to set your own map base url... but I failed. My git-foo is not strong. In the process of trying to figure this out, I have probably screwed up the commit in my previous comment, so the new commit is: https://github.com/ronnocol/kibana/commit/67d0e94a98a7f25f265d41137a6e1f68b3f479da"
}
, {
  "url": "https://api.github.com/repos/elastic/kibana/issues/comments/36694431",
  "html_url": "https://github.com/elastic/kibana/issues/1016#issuecomment-36694431",
  "issue_url": "https://api.github.com/repos/elastic/kibana/issues/1016",
  "id": 36694431,
  "user": {
    "login": "ronnocol",
    "id": 5877013,
    "avatar_url": "https://avatars.githubusercontent.com/u/5877013?v=3",
    "gravatar_id": "",
    "url": "https://api.github.com/users/ronnocol",
    "html_url": "https://github.com/ronnocol",
    "followers_url": "https://api.github.com/users/ronnocol/followers",
    "following_url": "https://api.github.com/users/ronnocol/following{/other_user}",
    "gists_url": "https://api.github.com/users/ronnocol/gists{/gist_id}",
    "starred_url": "https://api.github.com/users/ronnocol/starred{/owner}{/repo}",
    "subscriptions_url": "https://api.github.com/users/ronnocol/subscriptions",
    "organizations_url": "https://api.github.com/users/ronnocol/orgs",
    "repos_url": "https://api.github.com/users/ronnocol/repos",
    "events_url": "https://api.github.com/users/ronnocol/events{/privacy}",
    "received_events_url": "https://api.github.com/users/ronnocol/received_events",
    "type": "User",
    "site_admin": false
  },
  "created_at": "2014-03-04T23:52:49Z",
  "updated_at": "2014-03-04T23:52:49Z",
  "body": "By the way, if you set the map base URL to \"http://b.tile.openstreetmap.org/\", then you will get similar functionality to what we had with cloudmade, but with more detail... and it's a bit slower."
}
, {
  "url": "https://api.github.com/repos/elastic/kibana/issues/comments/36696586",
  "html_url": "https://github.com/elastic/kibana/issues/1016#issuecomment-36696586",
  "issue_url": "https://api.github.com/repos/elastic/kibana/issues/1016",
  "id": 36696586,
  "user": {
    "login": "coolacid",
    "id": 1091410,
    "avatar_url": "https://avatars.githubusercontent.com/u/1091410?v=3",
    "gravatar_id": "",
    "url": "https://api.github.com/users/coolacid",
    "html_url": "https://github.com/coolacid",
    "followers_url": "https://api.github.com/users/coolacid/followers",
    "following_url": "https://api.github.com/users/coolacid/following{/other_user}",
    "gists_url": "https://api.github.com/users/coolacid/gists{/gist_id}",
    "starred_url": "https://api.github.com/users/coolacid/starred{/owner}{/repo}",
    "subscriptions_url": "https://api.github.com/users/coolacid/subscriptions",
    "organizations_url": "https://api.github.com/users/coolacid/orgs",
    "repos_url": "https://api.github.com/users/coolacid/repos",
    "events_url": "https://api.github.com/users/coolacid/events{/privacy}",
    "received_events_url": "https://api.github.com/users/coolacid/received_events",
    "type": "User",
    "site_admin": false
  },
  "created_at": "2014-03-05T00:23:53Z",
  "updated_at": "2014-03-05T00:23:53Z",
  "body": "As much as 684a95fd1bb96cc53e4754d3c1ab92dd3c25c770 fixes the problem, I think it needs to be merged with @ronnocol 's fix - Default to this new URL, however, having the ability to point at any other source (including internal) should be available without hacking core code. "
}
, {
  "url": "https://api.github.com/repos/elastic/kibana/issues/comments/36698697",
  "html_url": "https://github.com/elastic/kibana/issues/1016#issuecomment-36698697",
  "issue_url": "https://api.github.com/repos/elastic/kibana/issues/1016",
  "id": 36698697,
  "user": {
    "login": "ronnocol",
    "id": 5877013,
    "avatar_url": "https://avatars.githubusercontent.com/u/5877013?v=3",
    "gravatar_id": "",
    "url": "https://api.github.com/users/ronnocol",
    "html_url": "https://github.com/ronnocol",
    "followers_url": "https://api.github.com/users/ronnocol/followers",
    "following_url": "https://api.github.com/users/ronnocol/following{/other_user}",
    "gists_url": "https://api.github.com/users/ronnocol/gists{/gist_id}",
    "starred_url": "https://api.github.com/users/ronnocol/starred{/owner}{/repo}",
    "subscriptions_url": "https://api.github.com/users/ronnocol/subscriptions",
    "organizations_url": "https://api.github.com/users/ronnocol/orgs",
    "repos_url": "https://api.github.com/users/ronnocol/repos",
    "events_url": "https://api.github.com/users/ronnocol/events{/privacy}",
    "received_events_url": "https://api.github.com/users/ronnocol/received_events",
    "type": "User",
    "site_admin": false
  },
  "created_at": "2014-03-05T00:57:04Z",
  "updated_at": "2014-03-05T00:57:04Z",
  "body": "Submitted PR to allow you to set your own map tile base URL, closes 1016-1018. PR:1020"
}
, {
  "url": "https://api.github.com/repos/elastic/kibana/issues/comments/36935091",
  "html_url": "https://github.com/elastic/kibana/issues/1016#issuecomment-36935091",
  "issue_url": "https://api.github.com/repos/elastic/kibana/issues/1016",
  "id": 36935091,
  "user": {
    "login": "tkuther",
    "id": 63717,
    "avatar_url": "https://avatars.githubusercontent.com/u/63717?v=3",
    "gravatar_id": "",
    "url": "https://api.github.com/users/tkuther",
    "html_url": "https://github.com/tkuther",
    "followers_url": "https://api.github.com/users/tkuther/followers",
    "following_url": "https://api.github.com/users/tkuther/following{/other_user}",
    "gists_url": "https://api.github.com/users/tkuther/gists{/gist_id}",
    "starred_url": "https://api.github.com/users/tkuther/starred{/owner}{/repo}",
    "subscriptions_url": "https://api.github.com/users/tkuther/subscriptions",
    "organizations_url": "https://api.github.com/users/tkuther/orgs",
    "repos_url": "https://api.github.com/users/tkuther/repos",
    "events_url": "https://api.github.com/users/tkuther/events{/privacy}",
    "received_events_url": "https://api.github.com/users/tkuther/received_events",
    "type": "User",
    "site_admin": false
  },
  "created_at": "2014-03-06T20:49:36Z",
  "updated_at": "2014-03-06T20:49:36Z",
  "body": "This should indeed be made configurable. The recent commit messes up SSL proxy setups (again) and basically brings back the issue from #735. Being able to configure a custom tile server would give the possibility to configure a local internal SSL proxy for any tile server, or use cloudmade enterprise or whatever."
}
, {
  "url": "https://api.github.com/repos/elastic/kibana/issues/comments/36935238",
  "html_url": "https://github.com/elastic/kibana/issues/1016#issuecomment-36935238",
  "issue_url": "https://api.github.com/repos/elastic/kibana/issues/1016",
  "id": 36935238,
  "user": {
    "login": "coolacid",
    "id": 1091410,
    "avatar_url": "https://avatars.githubusercontent.com/u/1091410?v=3",
    "gravatar_id": "",
    "url": "https://api.github.com/users/coolacid",
    "html_url": "https://github.com/coolacid",
    "followers_url": "https://api.github.com/users/coolacid/followers",
    "following_url": "https://api.github.com/users/coolacid/following{/other_user}",
    "gists_url": "https://api.github.com/users/coolacid/gists{/gist_id}",
    "starred_url": "https://api.github.com/users/coolacid/starred{/owner}{/repo}",
    "subscriptions_url": "https://api.github.com/users/coolacid/subscriptions",
    "organizations_url": "https://api.github.com/users/coolacid/orgs",
    "repos_url": "https://api.github.com/users/coolacid/repos",
    "events_url": "https://api.github.com/users/coolacid/events{/privacy}",
    "received_events_url": "https://api.github.com/users/coolacid/received_events",
    "type": "User",
    "site_admin": false
  },
  "created_at": "2014-03-06T20:50:50Z",
  "updated_at": "2014-03-06T20:50:50Z",
  "body": "@tkuther See https://github.com/elasticsearch/kibana/pull/1020\r\n"
}
]
