[
{
  "url": "https://api.github.com/repos/hashicorp/nomad/issues/comments/144447416",
  "html_url": "https://github.com/hashicorp/nomad/issues/175#issuecomment-144447416",
  "issue_url": "https://api.github.com/repos/hashicorp/nomad/issues/175",
  "id": 144447416,
  "user": {
    "login": "purehyperbole",
    "id": 4522385,
    "avatar_url": "https://avatars.githubusercontent.com/u/4522385?v=3",
    "gravatar_id": "",
    "url": "https://api.github.com/users/purehyperbole",
    "html_url": "https://github.com/purehyperbole",
    "followers_url": "https://api.github.com/users/purehyperbole/followers",
    "following_url": "https://api.github.com/users/purehyperbole/following{/other_user}",
    "gists_url": "https://api.github.com/users/purehyperbole/gists{/gist_id}",
    "starred_url": "https://api.github.com/users/purehyperbole/starred{/owner}{/repo}",
    "subscriptions_url": "https://api.github.com/users/purehyperbole/subscriptions",
    "organizations_url": "https://api.github.com/users/purehyperbole/orgs",
    "repos_url": "https://api.github.com/users/purehyperbole/repos",
    "events_url": "https://api.github.com/users/purehyperbole/events{/privacy}",
    "received_events_url": "https://api.github.com/users/purehyperbole/received_events",
    "type": "User",
    "site_admin": false
  },
  "created_at": "2015-09-30T15:31:43Z",
  "updated_at": "2015-09-30T15:31:43Z",
  "body": "+1, this would be super useful!"
}
, {
  "url": "https://api.github.com/repos/hashicorp/nomad/issues/comments/144508110",
  "html_url": "https://github.com/hashicorp/nomad/issues/175#issuecomment-144508110",
  "issue_url": "https://api.github.com/repos/hashicorp/nomad/issues/175",
  "id": 144508110,
  "user": {
    "login": "LordFPL",
    "id": 2177350,
    "avatar_url": "https://avatars.githubusercontent.com/u/2177350?v=3",
    "gravatar_id": "",
    "url": "https://api.github.com/users/LordFPL",
    "html_url": "https://github.com/LordFPL",
    "followers_url": "https://api.github.com/users/LordFPL/followers",
    "following_url": "https://api.github.com/users/LordFPL/following{/other_user}",
    "gists_url": "https://api.github.com/users/LordFPL/gists{/gist_id}",
    "starred_url": "https://api.github.com/users/LordFPL/starred{/owner}{/repo}",
    "subscriptions_url": "https://api.github.com/users/LordFPL/subscriptions",
    "organizations_url": "https://api.github.com/users/LordFPL/orgs",
    "repos_url": "https://api.github.com/users/LordFPL/repos",
    "events_url": "https://api.github.com/users/LordFPL/events{/privacy}",
    "received_events_url": "https://api.github.com/users/LordFPL/received_events",
    "type": "User",
    "site_admin": false
  },
  "created_at": "2015-09-30T19:02:30Z",
  "updated_at": "2015-09-30T19:02:30Z",
  "body": "+1 for me too... and for all other docker options :-) (env & volumes essentially in my case)"
}
]
