[
{
  "url": "https://api.github.com/repos/elastic/logstash-forwarder/issues/comments/9082902",
  "html_url": "https://github.com/elastic/logstash-forwarder/pull/6#issuecomment-9082902",
  "issue_url": "https://api.github.com/repos/elastic/logstash-forwarder/issues/6",
  "id": 9082902,
  "user": {
    "login": "jordansissel",
    "id": 131818,
    "avatar_url": "https://avatars.githubusercontent.com/u/131818?v=3",
    "gravatar_id": "",
    "url": "https://api.github.com/users/jordansissel",
    "html_url": "https://github.com/jordansissel",
    "followers_url": "https://api.github.com/users/jordansissel/followers",
    "following_url": "https://api.github.com/users/jordansissel/following{/other_user}",
    "gists_url": "https://api.github.com/users/jordansissel/gists{/gist_id}",
    "starred_url": "https://api.github.com/users/jordansissel/starred{/owner}{/repo}",
    "subscriptions_url": "https://api.github.com/users/jordansissel/subscriptions",
    "organizations_url": "https://api.github.com/users/jordansissel/orgs",
    "repos_url": "https://api.github.com/users/jordansissel/repos",
    "events_url": "https://api.github.com/users/jordansissel/events{/privacy}",
    "received_events_url": "https://api.github.com/users/jordansissel/received_events",
    "type": "User",
    "site_admin": false
  },
  "created_at": "2012-10-02T19:08:45Z",
  "updated_at": "2012-10-02T19:08:45Z",
  "body": "I've got tests passing on travis-ci now as well as my workstation. These both cover 32bit and 64bit environments.\r\n\r\nI with respect to a0636a2, these were fixed in master."
}
, {
  "url": "https://api.github.com/repos/elastic/logstash-forwarder/issues/comments/9082903",
  "html_url": "https://github.com/elastic/logstash-forwarder/pull/6#issuecomment-9082903",
  "issue_url": "https://api.github.com/repos/elastic/logstash-forwarder/issues/6",
  "id": 9082903,
  "user": {
    "login": "jordansissel",
    "id": 131818,
    "avatar_url": "https://avatars.githubusercontent.com/u/131818?v=3",
    "gravatar_id": "",
    "url": "https://api.github.com/users/jordansissel",
    "html_url": "https://github.com/jordansissel",
    "followers_url": "https://api.github.com/users/jordansissel/followers",
    "following_url": "https://api.github.com/users/jordansissel/following{/other_user}",
    "gists_url": "https://api.github.com/users/jordansissel/gists{/gist_id}",
    "starred_url": "https://api.github.com/users/jordansissel/starred{/owner}{/repo}",
    "subscriptions_url": "https://api.github.com/users/jordansissel/subscriptions",
    "organizations_url": "https://api.github.com/users/jordansissel/orgs",
    "repos_url": "https://api.github.com/users/jordansissel/repos",
    "events_url": "https://api.github.com/users/jordansissel/events{/privacy}",
    "received_events_url": "https://api.github.com/users/jordansissel/received_events",
    "type": "User",
    "site_admin": false
  },
  "created_at": "2012-10-02T19:08:45Z",
  "updated_at": "2012-10-02T19:08:45Z",
  "body": "I've got tests passing on travis-ci now as well as my workstation. These both cover 32bit and 64bit environments.\r\n\r\nI with respect to a0636a2, these were fixed in master."
}
, {
  "url": "https://api.github.com/repos/elastic/logstash-forwarder/issues/comments/9083003",
  "html_url": "https://github.com/elastic/logstash-forwarder/pull/6#issuecomment-9083003",
  "issue_url": "https://api.github.com/repos/elastic/logstash-forwarder/issues/6",
  "id": 9083003,
  "user": {
    "login": "jordansissel",
    "id": 131818,
    "avatar_url": "https://avatars.githubusercontent.com/u/131818?v=3",
    "gravatar_id": "",
    "url": "https://api.github.com/users/jordansissel",
    "html_url": "https://github.com/jordansissel",
    "followers_url": "https://api.github.com/users/jordansissel/followers",
    "following_url": "https://api.github.com/users/jordansissel/following{/other_user}",
    "gists_url": "https://api.github.com/users/jordansissel/gists{/gist_id}",
    "starred_url": "https://api.github.com/users/jordansissel/starred{/owner}{/repo}",
    "subscriptions_url": "https://api.github.com/users/jordansissel/subscriptions",
    "organizations_url": "https://api.github.com/users/jordansissel/orgs",
    "repos_url": "https://api.github.com/users/jordansissel/repos",
    "events_url": "https://api.github.com/users/jordansissel/events{/privacy}",
    "received_events_url": "https://api.github.com/users/jordansissel/received_events",
    "type": "User",
    "site_admin": false
  },
  "created_at": "2012-10-02T19:11:43Z",
  "updated_at": "2012-10-02T19:11:43Z",
  "body": "Regarding ignoring certificate failures: There is no point using SSL if you are not verifying certificates, imo - without trust, you cannot know who you are talking to, so the encryption you are using isn't protecting you from anything. For the \"ignore certificates\" situation, I think #5 covers this (make SSL optional).\r\n\r\nI am open to discussion and persuasion on the topic of \"don't verify certificates\"  but will need some arguments in favor of it ;)"
}
]
