[
{
  "url": "https://api.github.com/repos/elastic/logstash-forwarder/issues/comments/77069160",
  "html_url": "https://github.com/elastic/logstash-forwarder/issues/35#issuecomment-77069160",
  "issue_url": "https://api.github.com/repos/elastic/logstash-forwarder/issues/35",
  "id": 77069160,
  "user": {
    "login": "jordansissel",
    "id": 131818,
    "avatar_url": "https://avatars.githubusercontent.com/u/131818?v=3",
    "gravatar_id": "",
    "url": "https://api.github.com/users/jordansissel",
    "html_url": "https://github.com/jordansissel",
    "followers_url": "https://api.github.com/users/jordansissel/followers",
    "following_url": "https://api.github.com/users/jordansissel/following{/other_user}",
    "gists_url": "https://api.github.com/users/jordansissel/gists{/gist_id}",
    "starred_url": "https://api.github.com/users/jordansissel/starred{/owner}{/repo}",
    "subscriptions_url": "https://api.github.com/users/jordansissel/subscriptions",
    "organizations_url": "https://api.github.com/users/jordansissel/orgs",
    "repos_url": "https://api.github.com/users/jordansissel/repos",
    "events_url": "https://api.github.com/users/jordansissel/events{/privacy}",
    "received_events_url": "https://api.github.com/users/jordansissel/received_events",
    "type": "User",
    "site_admin": false
  },
  "created_at": "2015-03-04T00:11:05Z",
  "updated_at": "2015-03-04T00:11:05Z",
  "body": "For now, the lumberjack protocol is fine enough. It has some warts, but it does the job. I'll consider BEEP in the future if we need to revise or scrap the current protocol.\r\n\r\nThanks! :)"
}
]
