[
{
  "url": "https://api.github.com/repos/twitter/hraven/issues/comments/43655699",
  "html_url": "https://github.com/twitter/hraven/pull/88#issuecomment-43655699",
  "issue_url": "https://api.github.com/repos/twitter/hraven/issues/88",
  "id": 43655699,
  "user": {
    "login": "vrushalic",
    "id": 2754524,
    "avatar_url": "https://avatars.githubusercontent.com/u/2754524?v=3",
    "gravatar_id": "",
    "url": "https://api.github.com/users/vrushalic",
    "html_url": "https://github.com/vrushalic",
    "followers_url": "https://api.github.com/users/vrushalic/followers",
    "following_url": "https://api.github.com/users/vrushalic/following{/other_user}",
    "gists_url": "https://api.github.com/users/vrushalic/gists{/gist_id}",
    "starred_url": "https://api.github.com/users/vrushalic/starred{/owner}{/repo}",
    "subscriptions_url": "https://api.github.com/users/vrushalic/subscriptions",
    "organizations_url": "https://api.github.com/users/vrushalic/orgs",
    "repos_url": "https://api.github.com/users/vrushalic/repos",
    "events_url": "https://api.github.com/users/vrushalic/events{/privacy}",
    "received_events_url": "https://api.github.com/users/vrushalic/received_events",
    "type": "User",
    "site_admin": false
  },
  "created_at": "2014-05-20T17:12:44Z",
  "updated_at": "2014-05-20T17:12:54Z",
  "body": "Over all,  this pull request seems like a good idea"
}
, {
  "url": "https://api.github.com/repos/twitter/hraven/issues/comments/43656351",
  "html_url": "https://github.com/twitter/hraven/pull/88#issuecomment-43656351",
  "issue_url": "https://api.github.com/repos/twitter/hraven/issues/88",
  "id": 43656351,
  "user": {
    "login": "Yohan-Bismuth",
    "id": 6024581,
    "avatar_url": "https://avatars.githubusercontent.com/u/6024581?v=3",
    "gravatar_id": "",
    "url": "https://api.github.com/users/Yohan-Bismuth",
    "html_url": "https://github.com/Yohan-Bismuth",
    "followers_url": "https://api.github.com/users/Yohan-Bismuth/followers",
    "following_url": "https://api.github.com/users/Yohan-Bismuth/following{/other_user}",
    "gists_url": "https://api.github.com/users/Yohan-Bismuth/gists{/gist_id}",
    "starred_url": "https://api.github.com/users/Yohan-Bismuth/starred{/owner}{/repo}",
    "subscriptions_url": "https://api.github.com/users/Yohan-Bismuth/subscriptions",
    "organizations_url": "https://api.github.com/users/Yohan-Bismuth/orgs",
    "repos_url": "https://api.github.com/users/Yohan-Bismuth/repos",
    "events_url": "https://api.github.com/users/Yohan-Bismuth/events{/privacy}",
    "received_events_url": "https://api.github.com/users/Yohan-Bismuth/received_events",
    "type": "User",
    "site_admin": false
  },
  "created_at": "2014-05-20T17:18:31Z",
  "updated_at": "2014-05-20T17:19:00Z",
  "body": "Hi thanks for your feedback, i'll correct all of this as soon as possible (probably tomorrow) :)"
}
, {
  "url": "https://api.github.com/repos/twitter/hraven/issues/comments/43664321",
  "html_url": "https://github.com/twitter/hraven/pull/88#issuecomment-43664321",
  "issue_url": "https://api.github.com/repos/twitter/hraven/issues/88",
  "id": 43664321,
  "user": {
    "login": "vrushalic",
    "id": 2754524,
    "avatar_url": "https://avatars.githubusercontent.com/u/2754524?v=3",
    "gravatar_id": "",
    "url": "https://api.github.com/users/vrushalic",
    "html_url": "https://github.com/vrushalic",
    "followers_url": "https://api.github.com/users/vrushalic/followers",
    "following_url": "https://api.github.com/users/vrushalic/following{/other_user}",
    "gists_url": "https://api.github.com/users/vrushalic/gists{/gist_id}",
    "starred_url": "https://api.github.com/users/vrushalic/starred{/owner}{/repo}",
    "subscriptions_url": "https://api.github.com/users/vrushalic/subscriptions",
    "organizations_url": "https://api.github.com/users/vrushalic/orgs",
    "repos_url": "https://api.github.com/users/vrushalic/repos",
    "events_url": "https://api.github.com/users/vrushalic/events{/privacy}",
    "received_events_url": "https://api.github.com/users/vrushalic/received_events",
    "type": "User",
    "site_admin": false
  },
  "created_at": "2014-05-20T18:24:45Z",
  "updated_at": "2014-05-20T18:24:45Z",
  "body": "Hi Yohan I was curious to know if you are building/running on hadoop1 or hadoop2? "
}
, {
  "url": "https://api.github.com/repos/twitter/hraven/issues/comments/43724796",
  "html_url": "https://github.com/twitter/hraven/pull/88#issuecomment-43724796",
  "issue_url": "https://api.github.com/repos/twitter/hraven/issues/88",
  "id": 43724796,
  "user": {
    "login": "Yohan-Bismuth",
    "id": 6024581,
    "avatar_url": "https://avatars.githubusercontent.com/u/6024581?v=3",
    "gravatar_id": "",
    "url": "https://api.github.com/users/Yohan-Bismuth",
    "html_url": "https://github.com/Yohan-Bismuth",
    "followers_url": "https://api.github.com/users/Yohan-Bismuth/followers",
    "following_url": "https://api.github.com/users/Yohan-Bismuth/following{/other_user}",
    "gists_url": "https://api.github.com/users/Yohan-Bismuth/gists{/gist_id}",
    "starred_url": "https://api.github.com/users/Yohan-Bismuth/starred{/owner}{/repo}",
    "subscriptions_url": "https://api.github.com/users/Yohan-Bismuth/subscriptions",
    "organizations_url": "https://api.github.com/users/Yohan-Bismuth/orgs",
    "repos_url": "https://api.github.com/users/Yohan-Bismuth/repos",
    "events_url": "https://api.github.com/users/Yohan-Bismuth/events{/privacy}",
    "received_events_url": "https://api.github.com/users/Yohan-Bismuth/received_events",
    "type": "User",
    "site_admin": false
  },
  "created_at": "2014-05-21T08:03:49Z",
  "updated_at": "2014-05-21T08:03:49Z",
  "body": "I'm currently working on a local hadoop2"
}
, {
  "url": "https://api.github.com/repos/twitter/hraven/issues/comments/44473689",
  "html_url": "https://github.com/twitter/hraven/pull/88#issuecomment-44473689",
  "issue_url": "https://api.github.com/repos/twitter/hraven/issues/88",
  "id": 44473689,
  "user": {
    "login": "vrushalic",
    "id": 2754524,
    "avatar_url": "https://avatars.githubusercontent.com/u/2754524?v=3",
    "gravatar_id": "",
    "url": "https://api.github.com/users/vrushalic",
    "html_url": "https://github.com/vrushalic",
    "followers_url": "https://api.github.com/users/vrushalic/followers",
    "following_url": "https://api.github.com/users/vrushalic/following{/other_user}",
    "gists_url": "https://api.github.com/users/vrushalic/gists{/gist_id}",
    "starred_url": "https://api.github.com/users/vrushalic/starred{/owner}{/repo}",
    "subscriptions_url": "https://api.github.com/users/vrushalic/subscriptions",
    "organizations_url": "https://api.github.com/users/vrushalic/orgs",
    "repos_url": "https://api.github.com/users/vrushalic/repos",
    "events_url": "https://api.github.com/users/vrushalic/events{/privacy}",
    "received_events_url": "https://api.github.com/users/vrushalic/received_events",
    "type": "User",
    "site_admin": false
  },
  "created_at": "2014-05-28T22:36:37Z",
  "updated_at": "2014-05-28T22:36:37Z",
  "body": "Hi, Just wanted to say, do update a comment on the pull request once you've checked in the changes. I dont think we get checkin notifications on pull requests and hence could cause some delay in reviewing. Thanks! "
}
, {
  "url": "https://api.github.com/repos/twitter/hraven/issues/comments/44987769",
  "html_url": "https://github.com/twitter/hraven/pull/88#issuecomment-44987769",
  "issue_url": "https://api.github.com/repos/twitter/hraven/issues/88",
  "id": 44987769,
  "user": {
    "login": "vrushalic",
    "id": 2754524,
    "avatar_url": "https://avatars.githubusercontent.com/u/2754524?v=3",
    "gravatar_id": "",
    "url": "https://api.github.com/users/vrushalic",
    "html_url": "https://github.com/vrushalic",
    "followers_url": "https://api.github.com/users/vrushalic/followers",
    "following_url": "https://api.github.com/users/vrushalic/following{/other_user}",
    "gists_url": "https://api.github.com/users/vrushalic/gists{/gist_id}",
    "starred_url": "https://api.github.com/users/vrushalic/starred{/owner}{/repo}",
    "subscriptions_url": "https://api.github.com/users/vrushalic/subscriptions",
    "organizations_url": "https://api.github.com/users/vrushalic/orgs",
    "repos_url": "https://api.github.com/users/vrushalic/repos",
    "events_url": "https://api.github.com/users/vrushalic/events{/privacy}",
    "received_events_url": "https://api.github.com/users/vrushalic/received_events",
    "type": "User",
    "site_admin": false
  },
  "created_at": "2014-06-03T16:29:22Z",
  "updated_at": "2014-06-03T16:29:22Z",
  "body": "Hi Yohan,\r\nYes changes look good, except for one that could cause a NPE. Do let me know once you've updated it and I think I will merge it onto master.\r\nthanks! \r\nVrushali"
}
]
