[
{
  "url": "https://api.github.com/repos/twitter/hraven/issues/comments/20849728",
  "html_url": "https://github.com/twitter/hraven/issues/9#issuecomment-20849728",
  "issue_url": "https://api.github.com/repos/twitter/hraven/issues/9",
  "id": 20849728,
  "user": {
    "login": "ghelmling",
    "id": 88435,
    "avatar_url": "https://avatars.githubusercontent.com/u/88435?v=3",
    "gravatar_id": "",
    "url": "https://api.github.com/users/ghelmling",
    "html_url": "https://github.com/ghelmling",
    "followers_url": "https://api.github.com/users/ghelmling/followers",
    "following_url": "https://api.github.com/users/ghelmling/following{/other_user}",
    "gists_url": "https://api.github.com/users/ghelmling/gists{/gist_id}",
    "starred_url": "https://api.github.com/users/ghelmling/starred{/owner}{/repo}",
    "subscriptions_url": "https://api.github.com/users/ghelmling/subscriptions",
    "organizations_url": "https://api.github.com/users/ghelmling/orgs",
    "repos_url": "https://api.github.com/users/ghelmling/repos",
    "events_url": "https://api.github.com/users/ghelmling/events{/privacy}",
    "received_events_url": "https://api.github.com/users/ghelmling/received_events",
    "type": "User",
    "site_admin": false
  },
  "created_at": "2013-07-11T23:27:36Z",
  "updated_at": "2013-07-11T23:27:36Z",
  "body": "Fixed."
}
]
