[
{
  "url": "https://api.github.com/repos/mapbox/mapbox-gl-native/issues/comments/95547113",
  "html_url": "https://github.com/mapbox/mapbox-gl-native/pull/1270#issuecomment-95547113",
  "issue_url": "https://api.github.com/repos/mapbox/mapbox-gl-native/issues/1270",
  "id": 95547113,
  "user": {
    "login": "springmeyer",
    "id": 20300,
    "avatar_url": "https://avatars.githubusercontent.com/u/20300?v=3",
    "gravatar_id": "",
    "url": "https://api.github.com/users/springmeyer",
    "html_url": "https://github.com/springmeyer",
    "followers_url": "https://api.github.com/users/springmeyer/followers",
    "following_url": "https://api.github.com/users/springmeyer/following{/other_user}",
    "gists_url": "https://api.github.com/users/springmeyer/gists{/gist_id}",
    "starred_url": "https://api.github.com/users/springmeyer/starred{/owner}{/repo}",
    "subscriptions_url": "https://api.github.com/users/springmeyer/subscriptions",
    "organizations_url": "https://api.github.com/users/springmeyer/orgs",
    "repos_url": "https://api.github.com/users/springmeyer/repos",
    "events_url": "https://api.github.com/users/springmeyer/events{/privacy}",
    "received_events_url": "https://api.github.com/users/springmeyer/received_events",
    "type": "User",
    "site_admin": false
  },
  "created_at": "2015-04-23T11:24:58Z",
  "updated_at": "2015-04-23T11:24:58Z",
  "body": "Thanks for fixing this - this has been tripping me up locally too as I get back into mbgl dev. /cc @incanus - anything holding up merging this?"
}
, {
  "url": "https://api.github.com/repos/mapbox/mapbox-gl-native/issues/comments/95767468",
  "html_url": "https://github.com/mapbox/mapbox-gl-native/pull/1270#issuecomment-95767468",
  "issue_url": "https://api.github.com/repos/mapbox/mapbox-gl-native/issues/1270",
  "id": 95767468,
  "user": {
    "login": "friedbunny",
    "id": 1198851,
    "avatar_url": "https://avatars.githubusercontent.com/u/1198851?v=3",
    "gravatar_id": "",
    "url": "https://api.github.com/users/friedbunny",
    "html_url": "https://github.com/friedbunny",
    "followers_url": "https://api.github.com/users/friedbunny/followers",
    "following_url": "https://api.github.com/users/friedbunny/following{/other_user}",
    "gists_url": "https://api.github.com/users/friedbunny/gists{/gist_id}",
    "starred_url": "https://api.github.com/users/friedbunny/starred{/owner}{/repo}",
    "subscriptions_url": "https://api.github.com/users/friedbunny/subscriptions",
    "organizations_url": "https://api.github.com/users/friedbunny/orgs",
    "repos_url": "https://api.github.com/users/friedbunny/repos",
    "events_url": "https://api.github.com/users/friedbunny/events{/privacy}",
    "received_events_url": "https://api.github.com/users/friedbunny/received_events",
    "type": "User",
    "site_admin": false
  },
  "created_at": "2015-04-24T01:25:04Z",
  "updated_at": "2015-04-24T01:25:04Z",
  "body": "This should be fixed by the merging of the reinvigorated tests in #1168."
}
]
