[
{
  "url": "https://api.github.com/repos/mapbox/mapbox-gl-native/issues/comments/84710815",
  "html_url": "https://github.com/mapbox/mapbox-gl-native/pull/1061#issuecomment-84710815",
  "issue_url": "https://api.github.com/repos/mapbox/mapbox-gl-native/issues/1061",
  "id": 84710815,
  "user": {
    "login": "incanus",
    "id": 17722,
    "avatar_url": "https://avatars.githubusercontent.com/u/17722?v=3",
    "gravatar_id": "",
    "url": "https://api.github.com/users/incanus",
    "html_url": "https://github.com/incanus",
    "followers_url": "https://api.github.com/users/incanus/followers",
    "following_url": "https://api.github.com/users/incanus/following{/other_user}",
    "gists_url": "https://api.github.com/users/incanus/gists{/gist_id}",
    "starred_url": "https://api.github.com/users/incanus/starred{/owner}{/repo}",
    "subscriptions_url": "https://api.github.com/users/incanus/subscriptions",
    "organizations_url": "https://api.github.com/users/incanus/orgs",
    "repos_url": "https://api.github.com/users/incanus/repos",
    "events_url": "https://api.github.com/users/incanus/events{/privacy}",
    "received_events_url": "https://api.github.com/users/incanus/received_events",
    "type": "User",
    "site_admin": false
  },
  "created_at": "2015-03-22T21:53:20Z",
  "updated_at": "2015-03-22T21:53:20Z",
  "body": "Moving to `std::unordered_map` for `AnnotationManager::annotationTiles` and `Annotation::tileFeatures` doesn't appear to help with the perf problem on removing 10,000 annotations. \r\n\r\nHash used for `Tile::ID` map keys: \r\n\r\n```c++\r\nstruct Hash {\r\n    std::size_t operator()(ID const& i) const {\r\n        return std::hash<uint64_t>()(i.to_uint64());\r\n    }\r\n};\r\n```"
}
, {
  "url": "https://api.github.com/repos/mapbox/mapbox-gl-native/issues/comments/84712596",
  "html_url": "https://github.com/mapbox/mapbox-gl-native/pull/1061#issuecomment-84712596",
  "issue_url": "https://api.github.com/repos/mapbox/mapbox-gl-native/issues/1061",
  "id": 84712596,
  "user": {
    "login": "mb12",
    "id": 8890269,
    "avatar_url": "https://avatars.githubusercontent.com/u/8890269?v=3",
    "gravatar_id": "",
    "url": "https://api.github.com/users/mb12",
    "html_url": "https://github.com/mb12",
    "followers_url": "https://api.github.com/users/mb12/followers",
    "following_url": "https://api.github.com/users/mb12/following{/other_user}",
    "gists_url": "https://api.github.com/users/mb12/gists{/gist_id}",
    "starred_url": "https://api.github.com/users/mb12/starred{/owner}{/repo}",
    "subscriptions_url": "https://api.github.com/users/mb12/subscriptions",
    "organizations_url": "https://api.github.com/users/mb12/orgs",
    "repos_url": "https://api.github.com/users/mb12/repos",
    "events_url": "https://api.github.com/users/mb12/events{/privacy}",
    "received_events_url": "https://api.github.com/users/mb12/received_events",
    "type": "User",
    "site_admin": false
  },
  "created_at": "2015-03-22T22:04:08Z",
  "updated_at": "2015-03-22T22:05:14Z",
  "body": "You can use an intrusive list  and return the actual object pointer as annotation ID. Deletion is O (1) for intrusive lists. "
}
, {
  "url": "https://api.github.com/repos/mapbox/mapbox-gl-native/issues/comments/84712671",
  "html_url": "https://github.com/mapbox/mapbox-gl-native/pull/1061#issuecomment-84712671",
  "issue_url": "https://api.github.com/repos/mapbox/mapbox-gl-native/issues/1061",
  "id": 84712671,
  "user": {
    "login": "incanus",
    "id": 17722,
    "avatar_url": "https://avatars.githubusercontent.com/u/17722?v=3",
    "gravatar_id": "",
    "url": "https://api.github.com/users/incanus",
    "html_url": "https://github.com/incanus",
    "followers_url": "https://api.github.com/users/incanus/followers",
    "following_url": "https://api.github.com/users/incanus/following{/other_user}",
    "gists_url": "https://api.github.com/users/incanus/gists{/gist_id}",
    "starred_url": "https://api.github.com/users/incanus/starred{/owner}{/repo}",
    "subscriptions_url": "https://api.github.com/users/incanus/subscriptions",
    "organizations_url": "https://api.github.com/users/incanus/orgs",
    "repos_url": "https://api.github.com/users/incanus/repos",
    "events_url": "https://api.github.com/users/incanus/events{/privacy}",
    "received_events_url": "https://api.github.com/users/incanus/received_events",
    "type": "User",
    "site_admin": false
  },
  "created_at": "2015-03-22T22:05:46Z",
  "updated_at": "2015-03-22T22:05:46Z",
  "body": "Not sure I follow @mb12 — the bottleneck is on iteration of the `annotationTiles` map. "
}
, {
  "url": "https://api.github.com/repos/mapbox/mapbox-gl-native/issues/comments/84719995",
  "html_url": "https://github.com/mapbox/mapbox-gl-native/pull/1061#issuecomment-84719995",
  "issue_url": "https://api.github.com/repos/mapbox/mapbox-gl-native/issues/1061",
  "id": 84719995,
  "user": {
    "login": "mb12",
    "id": 8890269,
    "avatar_url": "https://avatars.githubusercontent.com/u/8890269?v=3",
    "gravatar_id": "",
    "url": "https://api.github.com/users/mb12",
    "html_url": "https://github.com/mb12",
    "followers_url": "https://api.github.com/users/mb12/followers",
    "following_url": "https://api.github.com/users/mb12/following{/other_user}",
    "gists_url": "https://api.github.com/users/mb12/gists{/gist_id}",
    "starred_url": "https://api.github.com/users/mb12/starred{/owner}{/repo}",
    "subscriptions_url": "https://api.github.com/users/mb12/subscriptions",
    "organizations_url": "https://api.github.com/users/mb12/orgs",
    "repos_url": "https://api.github.com/users/mb12/repos",
    "events_url": "https://api.github.com/users/mb12/events{/privacy}",
    "received_events_url": "https://api.github.com/users/mb12/received_events",
    "type": "User",
    "site_admin": false
  },
  "created_at": "2015-03-22T22:35:29Z",
  "updated_at": "2015-03-22T22:36:05Z",
  "body": "My mistake.  I was referring to annotations map in AnnotationManager. It could be safely converted to an intrusive list if it were a performance bottleneck."
}
, {
  "url": "https://api.github.com/repos/mapbox/mapbox-gl-native/issues/comments/84728999",
  "html_url": "https://github.com/mapbox/mapbox-gl-native/pull/1061#issuecomment-84728999",
  "issue_url": "https://api.github.com/repos/mapbox/mapbox-gl-native/issues/1061",
  "id": 84728999,
  "user": {
    "login": "mb12",
    "id": 8890269,
    "avatar_url": "https://avatars.githubusercontent.com/u/8890269?v=3",
    "gravatar_id": "",
    "url": "https://api.github.com/users/mb12",
    "html_url": "https://github.com/mb12",
    "followers_url": "https://api.github.com/users/mb12/followers",
    "following_url": "https://api.github.com/users/mb12/following{/other_user}",
    "gists_url": "https://api.github.com/users/mb12/gists{/gist_id}",
    "starred_url": "https://api.github.com/users/mb12/starred{/owner}{/repo}",
    "subscriptions_url": "https://api.github.com/users/mb12/subscriptions",
    "organizations_url": "https://api.github.com/users/mb12/orgs",
    "repos_url": "https://api.github.com/users/mb12/repos",
    "events_url": "https://api.github.com/users/mb12/events{/privacy}",
    "received_events_url": "https://api.github.com/users/mb12/received_events",
    "type": "User",
    "site_admin": false
  },
  "created_at": "2015-03-22T22:59:56Z",
  "updated_at": "2015-03-22T22:59:56Z",
  "body": "For point annotations you can skip the inner loop once it's annotation tile is found. A point annotation can lie on only one tile. This should help a bit.\r\n\r\nFull iteration through all tiles is needed only for lines and areas which get clipped into multiple tiles."
}
, {
  "url": "https://api.github.com/repos/mapbox/mapbox-gl-native/issues/comments/84730860",
  "html_url": "https://github.com/mapbox/mapbox-gl-native/pull/1061#issuecomment-84730860",
  "issue_url": "https://api.github.com/repos/mapbox/mapbox-gl-native/issues/1061",
  "id": 84730860,
  "user": {
    "login": "mb12",
    "id": 8890269,
    "avatar_url": "https://avatars.githubusercontent.com/u/8890269?v=3",
    "gravatar_id": "",
    "url": "https://api.github.com/users/mb12",
    "html_url": "https://github.com/mb12",
    "followers_url": "https://api.github.com/users/mb12/followers",
    "following_url": "https://api.github.com/users/mb12/following{/other_user}",
    "gists_url": "https://api.github.com/users/mb12/gists{/gist_id}",
    "starred_url": "https://api.github.com/users/mb12/starred{/owner}{/repo}",
    "subscriptions_url": "https://api.github.com/users/mb12/subscriptions",
    "organizations_url": "https://api.github.com/users/mb12/orgs",
    "repos_url": "https://api.github.com/users/mb12/repos",
    "events_url": "https://api.github.com/users/mb12/events{/privacy}",
    "received_events_url": "https://api.github.com/users/mb12/received_events",
    "type": "User",
    "site_admin": false
  },
  "created_at": "2015-03-22T23:13:38Z",
  "updated_at": "2015-03-22T23:13:38Z",
  "body": "We can also delete the annotation tile itself in the inner loop if all its annotations have been deleted. "
}
, {
  "url": "https://api.github.com/repos/mapbox/mapbox-gl-native/issues/comments/84732662",
  "html_url": "https://github.com/mapbox/mapbox-gl-native/pull/1061#issuecomment-84732662",
  "issue_url": "https://api.github.com/repos/mapbox/mapbox-gl-native/issues/1061",
  "id": 84732662,
  "user": {
    "login": "incanus",
    "id": 17722,
    "avatar_url": "https://avatars.githubusercontent.com/u/17722?v=3",
    "gravatar_id": "",
    "url": "https://api.github.com/users/incanus",
    "html_url": "https://github.com/incanus",
    "followers_url": "https://api.github.com/users/incanus/followers",
    "following_url": "https://api.github.com/users/incanus/following{/other_user}",
    "gists_url": "https://api.github.com/users/incanus/gists{/gist_id}",
    "starred_url": "https://api.github.com/users/incanus/starred{/owner}{/repo}",
    "subscriptions_url": "https://api.github.com/users/incanus/subscriptions",
    "organizations_url": "https://api.github.com/users/incanus/orgs",
    "repos_url": "https://api.github.com/users/incanus/repos",
    "events_url": "https://api.github.com/users/incanus/events{/privacy}",
    "received_events_url": "https://api.github.com/users/incanus/received_events",
    "type": "User",
    "site_admin": false
  },
  "created_at": "2015-03-22T23:29:17Z",
  "updated_at": "2015-03-22T23:29:17Z",
  "body": "Well, point annotations are in one tile per zoom level. But I could use that knowledge to maybe make things smarter. "
}
, {
  "url": "https://api.github.com/repos/mapbox/mapbox-gl-native/issues/comments/84733056",
  "html_url": "https://github.com/mapbox/mapbox-gl-native/pull/1061#issuecomment-84733056",
  "issue_url": "https://api.github.com/repos/mapbox/mapbox-gl-native/issues/1061",
  "id": 84733056,
  "user": {
    "login": "mb12",
    "id": 8890269,
    "avatar_url": "https://avatars.githubusercontent.com/u/8890269?v=3",
    "gravatar_id": "",
    "url": "https://api.github.com/users/mb12",
    "html_url": "https://github.com/mb12",
    "followers_url": "https://api.github.com/users/mb12/followers",
    "following_url": "https://api.github.com/users/mb12/following{/other_user}",
    "gists_url": "https://api.github.com/users/mb12/gists{/gist_id}",
    "starred_url": "https://api.github.com/users/mb12/starred{/owner}{/repo}",
    "subscriptions_url": "https://api.github.com/users/mb12/subscriptions",
    "organizations_url": "https://api.github.com/users/mb12/orgs",
    "repos_url": "https://api.github.com/users/mb12/repos",
    "events_url": "https://api.github.com/users/mb12/events{/privacy}",
    "received_events_url": "https://api.github.com/users/mb12/received_events",
    "type": "User",
    "site_admin": false
  },
  "created_at": "2015-03-22T23:38:11Z",
  "updated_at": "2015-03-22T23:38:11Z",
  "body": "We can also use the following approach for handling point annotations.\r\n\r\n1.) With every point annotation, save also the actual latitude, longitude during the add call (if not doing so already).\r\n2.) At time of deletion, convert the lat long to a list of Tile::IDs (one tile id for each zoom).\r\n3.) Instead of iterating through all annotationTiles, look for only these tile IDs  we just computed."
}
, {
  "url": "https://api.github.com/repos/mapbox/mapbox-gl-native/issues/comments/84734226",
  "html_url": "https://github.com/mapbox/mapbox-gl-native/pull/1061#issuecomment-84734226",
  "issue_url": "https://api.github.com/repos/mapbox/mapbox-gl-native/issues/1061",
  "id": 84734226,
  "user": {
    "login": "incanus",
    "id": 17722,
    "avatar_url": "https://avatars.githubusercontent.com/u/17722?v=3",
    "gravatar_id": "",
    "url": "https://api.github.com/users/incanus",
    "html_url": "https://github.com/incanus",
    "followers_url": "https://api.github.com/users/incanus/followers",
    "following_url": "https://api.github.com/users/incanus/following{/other_user}",
    "gists_url": "https://api.github.com/users/incanus/gists{/gist_id}",
    "starred_url": "https://api.github.com/users/incanus/starred{/owner}{/repo}",
    "subscriptions_url": "https://api.github.com/users/incanus/subscriptions",
    "organizations_url": "https://api.github.com/users/incanus/orgs",
    "repos_url": "https://api.github.com/users/incanus/repos",
    "events_url": "https://api.github.com/users/incanus/events{/privacy}",
    "received_events_url": "https://api.github.com/users/incanus/received_events",
    "type": "User",
    "site_admin": false
  },
  "created_at": "2015-03-22T23:53:27Z",
  "updated_at": "2015-03-23T03:21:37Z",
  "body": "Great idea. The `getPoint()` call will work perfectly for this. \r\n"
}
, {
  "url": "https://api.github.com/repos/mapbox/mapbox-gl-native/issues/comments/84822874",
  "html_url": "https://github.com/mapbox/mapbox-gl-native/pull/1061#issuecomment-84822874",
  "issue_url": "https://api.github.com/repos/mapbox/mapbox-gl-native/issues/1061",
  "id": 84822874,
  "user": {
    "login": "incanus",
    "id": 17722,
    "avatar_url": "https://avatars.githubusercontent.com/u/17722?v=3",
    "gravatar_id": "",
    "url": "https://api.github.com/users/incanus",
    "html_url": "https://github.com/incanus",
    "followers_url": "https://api.github.com/users/incanus/followers",
    "following_url": "https://api.github.com/users/incanus/following{/other_user}",
    "gists_url": "https://api.github.com/users/incanus/gists{/gist_id}",
    "starred_url": "https://api.github.com/users/incanus/starred{/owner}{/repo}",
    "subscriptions_url": "https://api.github.com/users/incanus/subscriptions",
    "organizations_url": "https://api.github.com/users/incanus/orgs",
    "repos_url": "https://api.github.com/users/incanus/repos",
    "events_url": "https://api.github.com/users/incanus/events{/privacy}",
    "received_events_url": "https://api.github.com/users/incanus/received_events",
    "type": "User",
    "site_admin": false
  },
  "created_at": "2015-03-23T05:57:55Z",
  "updated_at": "2015-03-23T05:57:55Z",
  "body": "Ok, I was able to restructure things a bit in the way we store live tile features so that removal is **much** faster at annotation delete time. \r\n\r\nFirst improvement in https://github.com/mapbox/mapbox-gl-native/commit/48d70c471e638514fe6f7c9ade791773637fc3cc avoids a high-overhead iteration of all of the annotation manager's tiles for each annotation by calculating an annotation's intersected tile in each zoom upfront, since this is predictable. It uses the same projection math done at annotation creation time, but the overhead is low. Based on @mb12's recommendation in https://github.com/mapbox/mapbox-gl-native/pull/1061#issuecomment-84733056. \r\n\r\nSecond improvement in https://github.com/mapbox/mapbox-gl-native/commit/b4daad5452deff64357c8d1bb3e5f8af6bc695a9 avoids a simple assignment operator penalty, which was the new bottleneck. \r\n\r\nThat still left an unacceptable time (~10s) for removal of 10,000 annotations on an iPhone 5s. The third improvement in https://github.com/mapbox/mapbox-gl-native/commit/ee2e32fe71691987750bca9fa7d5c14b7cf457be moves from a vector of live tile features in a layer to an unordered map keying on a unique `std::size_t`. This number is stored in the annotation object instead of a weak pointer to the feature itself, meaning deletion lookups later are trivial because they are by key instead of by iteration of all tile features until the desired one. \r\n\r\nOther thing I'm a little fuzzy on is the adaption of the interface method `getFeature()` which is called with a vector index during parsing. To return the appropriate value from the new map I advance an iterator the appropriate distance: \r\n\r\n```c++\r\nutil::ptr<const GeometryTileFeature> LiveTileLayer::getFeature(std::size_t i) const {\r\n    auto it = features.begin();\r\n    std::advance(it, i);\r\n    return it->second;\r\n}\r\n```\r\n\r\nReview is welcome, particularly by @jfirebaugh since he made `getFeature()` originally. \r\n\r\nI saw, and still see, near-instant adds of 100, 1000, or 10000 annotations, and the noticeable delay for removal of the 10,000 went from over 13 seconds in the original ticket to less than 2 seconds. Considering the 10,000 annotations is meant to be a stress test and not a common use case, I think we're good here perf-wise with a speedup of **6.5x**. \r\n\r\n![screen shot 2015-03-22 at 10 39 07 pm](https://cloud.githubusercontent.com/assets/17722/6774938/4bf58208-d0e6-11e4-87bd-0538f81b9b89.png)"
}
, {
  "url": "https://api.github.com/repos/mapbox/mapbox-gl-native/issues/comments/84823544",
  "html_url": "https://github.com/mapbox/mapbox-gl-native/pull/1061#issuecomment-84823544",
  "issue_url": "https://api.github.com/repos/mapbox/mapbox-gl-native/issues/1061",
  "id": 84823544,
  "user": {
    "login": "incanus",
    "id": 17722,
    "avatar_url": "https://avatars.githubusercontent.com/u/17722?v=3",
    "gravatar_id": "",
    "url": "https://api.github.com/users/incanus",
    "html_url": "https://github.com/incanus",
    "followers_url": "https://api.github.com/users/incanus/followers",
    "following_url": "https://api.github.com/users/incanus/following{/other_user}",
    "gists_url": "https://api.github.com/users/incanus/gists{/gist_id}",
    "starred_url": "https://api.github.com/users/incanus/starred{/owner}{/repo}",
    "subscriptions_url": "https://api.github.com/users/incanus/subscriptions",
    "organizations_url": "https://api.github.com/users/incanus/orgs",
    "repos_url": "https://api.github.com/users/incanus/repos",
    "events_url": "https://api.github.com/users/incanus/events{/privacy}",
    "received_events_url": "https://api.github.com/users/incanus/received_events",
    "type": "User",
    "site_admin": false
  },
  "created_at": "2015-03-23T06:00:53Z",
  "updated_at": "2015-03-23T06:00:53Z",
  "body": "BTW the biggest delay here for adds is actually the GeoJSON parsing of 10,000 features, not the addition & rendering in GL. "
}
, {
  "url": "https://api.github.com/repos/mapbox/mapbox-gl-native/issues/comments/85057106",
  "html_url": "https://github.com/mapbox/mapbox-gl-native/pull/1061#issuecomment-85057106",
  "issue_url": "https://api.github.com/repos/mapbox/mapbox-gl-native/issues/1061",
  "id": 85057106,
  "user": {
    "login": "incanus",
    "id": 17722,
    "avatar_url": "https://avatars.githubusercontent.com/u/17722?v=3",
    "gravatar_id": "",
    "url": "https://api.github.com/users/incanus",
    "html_url": "https://github.com/incanus",
    "followers_url": "https://api.github.com/users/incanus/followers",
    "following_url": "https://api.github.com/users/incanus/following{/other_user}",
    "gists_url": "https://api.github.com/users/incanus/gists{/gist_id}",
    "starred_url": "https://api.github.com/users/incanus/starred{/owner}{/repo}",
    "subscriptions_url": "https://api.github.com/users/incanus/subscriptions",
    "organizations_url": "https://api.github.com/users/incanus/orgs",
    "repos_url": "https://api.github.com/users/incanus/repos",
    "events_url": "https://api.github.com/users/incanus/events{/privacy}",
    "received_events_url": "https://api.github.com/users/incanus/received_events",
    "type": "User",
    "site_admin": false
  },
  "created_at": "2015-03-23T15:48:08Z",
  "updated_at": "2015-03-23T15:48:08Z",
  "body": "Eh, I'm not super happy with the rendering tradeoffs here. The 10,000 annotations are now visibly tiling when before they weren't. I suspect it's the move to `std::unordered_map` and the `getFeature()` atop it since unordered maps are generally slower at iterated subranges, but I'll be profiling soon to figure out for sure. \r\n\r\nI would want to wait on landing these perf improvements until we get @kkaefer's general API improvements from https://github.com/mapbox/mapbox-gl-native/pull/1022 landed, even if we don't yet fix the threading problem there. See my latest comment in https://github.com/mapbox/mapbox-gl-native/pull/1022#issuecomment-84673032. "
}
, {
  "url": "https://api.github.com/repos/mapbox/mapbox-gl-native/issues/comments/85151155",
  "html_url": "https://github.com/mapbox/mapbox-gl-native/pull/1061#issuecomment-85151155",
  "issue_url": "https://api.github.com/repos/mapbox/mapbox-gl-native/issues/1061",
  "id": 85151155,
  "user": {
    "login": "incanus",
    "id": 17722,
    "avatar_url": "https://avatars.githubusercontent.com/u/17722?v=3",
    "gravatar_id": "",
    "url": "https://api.github.com/users/incanus",
    "html_url": "https://github.com/incanus",
    "followers_url": "https://api.github.com/users/incanus/followers",
    "following_url": "https://api.github.com/users/incanus/following{/other_user}",
    "gists_url": "https://api.github.com/users/incanus/gists{/gist_id}",
    "starred_url": "https://api.github.com/users/incanus/starred{/owner}{/repo}",
    "subscriptions_url": "https://api.github.com/users/incanus/subscriptions",
    "organizations_url": "https://api.github.com/users/incanus/orgs",
    "repos_url": "https://api.github.com/users/incanus/repos",
    "events_url": "https://api.github.com/users/incanus/events{/privacy}",
    "received_events_url": "https://api.github.com/users/incanus/received_events",
    "type": "User",
    "site_admin": false
  },
  "created_at": "2015-03-23T19:07:00Z",
  "updated_at": "2015-03-23T19:07:00Z",
  "body": ">  I suspect it's the move to `std::unordered_map` and the `getFeature()` atop it since unordered maps are generally slower at iterated subranges\r\n\r\nAyup. \r\n\r\n![screen shot 2015-03-23 at 12 06 20 pm](https://cloud.githubusercontent.com/assets/17722/6788188/1afef9d0-d155-11e4-8086-386133f1ff47.png)\r\n"
}
, {
  "url": "https://api.github.com/repos/mapbox/mapbox-gl-native/issues/comments/85155108",
  "html_url": "https://github.com/mapbox/mapbox-gl-native/pull/1061#issuecomment-85155108",
  "issue_url": "https://api.github.com/repos/mapbox/mapbox-gl-native/issues/1061",
  "id": 85155108,
  "user": {
    "login": "incanus",
    "id": 17722,
    "avatar_url": "https://avatars.githubusercontent.com/u/17722?v=3",
    "gravatar_id": "",
    "url": "https://api.github.com/users/incanus",
    "html_url": "https://github.com/incanus",
    "followers_url": "https://api.github.com/users/incanus/followers",
    "following_url": "https://api.github.com/users/incanus/following{/other_user}",
    "gists_url": "https://api.github.com/users/incanus/gists{/gist_id}",
    "starred_url": "https://api.github.com/users/incanus/starred{/owner}{/repo}",
    "subscriptions_url": "https://api.github.com/users/incanus/subscriptions",
    "organizations_url": "https://api.github.com/users/incanus/orgs",
    "repos_url": "https://api.github.com/users/incanus/repos",
    "events_url": "https://api.github.com/users/incanus/events{/privacy}",
    "received_events_url": "https://api.github.com/users/incanus/received_events",
    "type": "User",
    "site_admin": false
  },
  "created_at": "2015-03-23T19:18:37Z",
  "updated_at": "2015-03-23T19:18:37Z",
  "body": "A `map` isn't any better. "
}
, {
  "url": "https://api.github.com/repos/mapbox/mapbox-gl-native/issues/comments/85161802",
  "html_url": "https://github.com/mapbox/mapbox-gl-native/pull/1061#issuecomment-85161802",
  "issue_url": "https://api.github.com/repos/mapbox/mapbox-gl-native/issues/1061",
  "id": 85161802,
  "user": {
    "login": "incanus",
    "id": 17722,
    "avatar_url": "https://avatars.githubusercontent.com/u/17722?v=3",
    "gravatar_id": "",
    "url": "https://api.github.com/users/incanus",
    "html_url": "https://github.com/incanus",
    "followers_url": "https://api.github.com/users/incanus/followers",
    "following_url": "https://api.github.com/users/incanus/following{/other_user}",
    "gists_url": "https://api.github.com/users/incanus/gists{/gist_id}",
    "starred_url": "https://api.github.com/users/incanus/starred{/owner}{/repo}",
    "subscriptions_url": "https://api.github.com/users/incanus/subscriptions",
    "organizations_url": "https://api.github.com/users/incanus/orgs",
    "repos_url": "https://api.github.com/users/incanus/repos",
    "events_url": "https://api.github.com/users/incanus/events{/privacy}",
    "received_events_url": "https://api.github.com/users/incanus/received_events",
    "type": "User",
    "site_admin": false
  },
  "created_at": "2015-03-23T19:38:33Z",
  "updated_at": "2015-03-23T19:38:38Z",
  "body": "Ahhh, but `map` or `unordered_map`, this is a **much** faster way to access a feature by index: \r\n\r\n```c++\r\nutil::ptr<const GeometryTileFeature> LiveTileLayer::getFeature(std::size_t i) const {\r\n    return features.find(i)->second;\r\n}\r\n```"
}
, {
  "url": "https://api.github.com/repos/mapbox/mapbox-gl-native/issues/comments/85222350",
  "html_url": "https://github.com/mapbox/mapbox-gl-native/pull/1061#issuecomment-85222350",
  "issue_url": "https://api.github.com/repos/mapbox/mapbox-gl-native/issues/1061",
  "id": 85222350,
  "user": {
    "login": "incanus",
    "id": 17722,
    "avatar_url": "https://avatars.githubusercontent.com/u/17722?v=3",
    "gravatar_id": "",
    "url": "https://api.github.com/users/incanus",
    "html_url": "https://github.com/incanus",
    "followers_url": "https://api.github.com/users/incanus/followers",
    "following_url": "https://api.github.com/users/incanus/following{/other_user}",
    "gists_url": "https://api.github.com/users/incanus/gists{/gist_id}",
    "starred_url": "https://api.github.com/users/incanus/starred{/owner}{/repo}",
    "subscriptions_url": "https://api.github.com/users/incanus/subscriptions",
    "organizations_url": "https://api.github.com/users/incanus/orgs",
    "repos_url": "https://api.github.com/users/incanus/repos",
    "events_url": "https://api.github.com/users/incanus/events{/privacy}",
    "received_events_url": "https://api.github.com/users/incanus/received_events",
    "type": "User",
    "site_admin": false
  },
  "created_at": "2015-03-23T22:00:46Z",
  "updated_at": "2015-03-23T22:00:46Z",
  "body": "I don't think moving from a `vector` to a `map` of any variety for a `LiveTileLayer`'s features is a good move since we have to iterate through them by index. I looked into _not_ doing this, but it doesn't make sense to have the interface e.g. grab all features upfront when they are serially packed a `pbf` over in our parent `VectorTileLayer`. And there's no getting around the complications of iterating a `map` by index when also trying to remain `const` since we can't maintain state with a class member iterator. \r\n\r\nCurrently trying going back to a `vector`, then looking into building a map of features to delete (and what tiles) when iterating annotations, then deleting them _en masse_ once done iterating on a per-tile basis. "
}
, {
  "url": "https://api.github.com/repos/mapbox/mapbox-gl-native/issues/comments/85230354",
  "html_url": "https://github.com/mapbox/mapbox-gl-native/pull/1061#issuecomment-85230354",
  "issue_url": "https://api.github.com/repos/mapbox/mapbox-gl-native/issues/1061",
  "id": 85230354,
  "user": {
    "login": "mb12",
    "id": 8890269,
    "avatar_url": "https://avatars.githubusercontent.com/u/8890269?v=3",
    "gravatar_id": "",
    "url": "https://api.github.com/users/mb12",
    "html_url": "https://github.com/mb12",
    "followers_url": "https://api.github.com/users/mb12/followers",
    "following_url": "https://api.github.com/users/mb12/following{/other_user}",
    "gists_url": "https://api.github.com/users/mb12/gists{/gist_id}",
    "starred_url": "https://api.github.com/users/mb12/starred{/owner}{/repo}",
    "subscriptions_url": "https://api.github.com/users/mb12/subscriptions",
    "organizations_url": "https://api.github.com/users/mb12/orgs",
    "repos_url": "https://api.github.com/users/mb12/repos",
    "events_url": "https://api.github.com/users/mb12/events{/privacy}",
    "received_events_url": "https://api.github.com/users/mb12/received_events",
    "type": "User",
    "site_admin": false
  },
  "created_at": "2015-03-23T22:24:32Z",
  "updated_at": "2015-03-23T22:24:32Z",
  "body": "Was the switch from std::vector to std::map to improve deletion performance of specific annotationId in tileAnnotations container? "
}
, {
  "url": "https://api.github.com/repos/mapbox/mapbox-gl-native/issues/comments/85233261",
  "html_url": "https://github.com/mapbox/mapbox-gl-native/pull/1061#issuecomment-85233261",
  "issue_url": "https://api.github.com/repos/mapbox/mapbox-gl-native/issues/1061",
  "id": 85233261,
  "user": {
    "login": "incanus",
    "id": 17722,
    "avatar_url": "https://avatars.githubusercontent.com/u/17722?v=3",
    "gravatar_id": "",
    "url": "https://api.github.com/users/incanus",
    "html_url": "https://github.com/incanus",
    "followers_url": "https://api.github.com/users/incanus/followers",
    "following_url": "https://api.github.com/users/incanus/following{/other_user}",
    "gists_url": "https://api.github.com/users/incanus/gists{/gist_id}",
    "starred_url": "https://api.github.com/users/incanus/starred{/owner}{/repo}",
    "subscriptions_url": "https://api.github.com/users/incanus/subscriptions",
    "organizations_url": "https://api.github.com/users/incanus/orgs",
    "repos_url": "https://api.github.com/users/incanus/repos",
    "events_url": "https://api.github.com/users/incanus/events{/privacy}",
    "received_events_url": "https://api.github.com/users/incanus/received_events",
    "type": "User",
    "site_admin": false
  },
  "created_at": "2015-03-23T22:34:11Z",
  "updated_at": "2015-03-23T22:34:11Z",
  "body": "> Was the switch from std::vector to std::map to improve deletion performance of specific annotationId in tileAnnotations container?\r\n\r\nNo, to improve deletion performance of specific features from a `LiveTileLayer`. Doing this by iterating every feature every time you need to delete one was taking too long. If you store a map mapping the annotation to a feature _key_ instead, this is much faster to delete by key later. "
}
, {
  "url": "https://api.github.com/repos/mapbox/mapbox-gl-native/issues/comments/85235159",
  "html_url": "https://github.com/mapbox/mapbox-gl-native/pull/1061#issuecomment-85235159",
  "issue_url": "https://api.github.com/repos/mapbox/mapbox-gl-native/issues/1061",
  "id": 85235159,
  "user": {
    "login": "mb12",
    "id": 8890269,
    "avatar_url": "https://avatars.githubusercontent.com/u/8890269?v=3",
    "gravatar_id": "",
    "url": "https://api.github.com/users/mb12",
    "html_url": "https://github.com/mb12",
    "followers_url": "https://api.github.com/users/mb12/followers",
    "following_url": "https://api.github.com/users/mb12/following{/other_user}",
    "gists_url": "https://api.github.com/users/mb12/gists{/gist_id}",
    "starred_url": "https://api.github.com/users/mb12/starred{/owner}{/repo}",
    "subscriptions_url": "https://api.github.com/users/mb12/subscriptions",
    "organizations_url": "https://api.github.com/users/mb12/orgs",
    "repos_url": "https://api.github.com/users/mb12/repos",
    "events_url": "https://api.github.com/users/mb12/events{/privacy}",
    "received_events_url": "https://api.github.com/users/mb12/received_events",
    "type": "User",
    "site_admin": false
  },
  "created_at": "2015-03-23T22:39:32Z",
  "updated_at": "2015-03-23T22:39:32Z",
  "body": "Can you convert LiveTileLayer::features to an intrusive list? Basically the next and prev pointer will be come part of LiveTileFeature making deletion and insertion an O(1) operation."
}
, {
  "url": "https://api.github.com/repos/mapbox/mapbox-gl-native/issues/comments/85235380",
  "html_url": "https://github.com/mapbox/mapbox-gl-native/pull/1061#issuecomment-85235380",
  "issue_url": "https://api.github.com/repos/mapbox/mapbox-gl-native/issues/1061",
  "id": 85235380,
  "user": {
    "login": "incanus",
    "id": 17722,
    "avatar_url": "https://avatars.githubusercontent.com/u/17722?v=3",
    "gravatar_id": "",
    "url": "https://api.github.com/users/incanus",
    "html_url": "https://github.com/incanus",
    "followers_url": "https://api.github.com/users/incanus/followers",
    "following_url": "https://api.github.com/users/incanus/following{/other_user}",
    "gists_url": "https://api.github.com/users/incanus/gists{/gist_id}",
    "starred_url": "https://api.github.com/users/incanus/starred{/owner}{/repo}",
    "subscriptions_url": "https://api.github.com/users/incanus/subscriptions",
    "organizations_url": "https://api.github.com/users/incanus/orgs",
    "repos_url": "https://api.github.com/users/incanus/repos",
    "events_url": "https://api.github.com/users/incanus/events{/privacy}",
    "received_events_url": "https://api.github.com/users/incanus/received_events",
    "type": "User",
    "site_admin": false
  },
  "created_at": "2015-03-23T22:40:39Z",
  "updated_at": "2015-03-23T22:40:39Z",
  "body": "If I'm understanding right, this runs into problems similar to those described in https://github.com/mapbox/mapbox-gl-native/pull/1061#issuecomment-85222350 (\"complications\") because feature getting should be `const`. "
}
, {
  "url": "https://api.github.com/repos/mapbox/mapbox-gl-native/issues/comments/85235874",
  "html_url": "https://github.com/mapbox/mapbox-gl-native/pull/1061#issuecomment-85235874",
  "issue_url": "https://api.github.com/repos/mapbox/mapbox-gl-native/issues/1061",
  "id": 85235874,
  "user": {
    "login": "mb12",
    "id": 8890269,
    "avatar_url": "https://avatars.githubusercontent.com/u/8890269?v=3",
    "gravatar_id": "",
    "url": "https://api.github.com/users/mb12",
    "html_url": "https://github.com/mb12",
    "followers_url": "https://api.github.com/users/mb12/followers",
    "following_url": "https://api.github.com/users/mb12/following{/other_user}",
    "gists_url": "https://api.github.com/users/mb12/gists{/gist_id}",
    "starred_url": "https://api.github.com/users/mb12/starred{/owner}{/repo}",
    "subscriptions_url": "https://api.github.com/users/mb12/subscriptions",
    "organizations_url": "https://api.github.com/users/mb12/orgs",
    "repos_url": "https://api.github.com/users/mb12/repos",
    "events_url": "https://api.github.com/users/mb12/events{/privacy}",
    "received_events_url": "https://api.github.com/users/mb12/received_events",
    "type": "User",
    "site_admin": false
  },
  "created_at": "2015-03-23T22:43:19Z",
  "updated_at": "2015-03-23T22:43:19Z",
  "body": "Iteration by index is not really needed. Its just a sequential iteration of all objects in the container both in TileParser and SymbolBucket."
}
, {
  "url": "https://api.github.com/repos/mapbox/mapbox-gl-native/issues/comments/85235991",
  "html_url": "https://github.com/mapbox/mapbox-gl-native/pull/1061#issuecomment-85235991",
  "issue_url": "https://api.github.com/repos/mapbox/mapbox-gl-native/issues/1061",
  "id": 85235991,
  "user": {
    "login": "incanus",
    "id": 17722,
    "avatar_url": "https://avatars.githubusercontent.com/u/17722?v=3",
    "gravatar_id": "",
    "url": "https://api.github.com/users/incanus",
    "html_url": "https://github.com/incanus",
    "followers_url": "https://api.github.com/users/incanus/followers",
    "following_url": "https://api.github.com/users/incanus/following{/other_user}",
    "gists_url": "https://api.github.com/users/incanus/gists{/gist_id}",
    "starred_url": "https://api.github.com/users/incanus/starred{/owner}{/repo}",
    "subscriptions_url": "https://api.github.com/users/incanus/subscriptions",
    "organizations_url": "https://api.github.com/users/incanus/orgs",
    "repos_url": "https://api.github.com/users/incanus/repos",
    "events_url": "https://api.github.com/users/incanus/events{/privacy}",
    "received_events_url": "https://api.github.com/users/incanus/received_events",
    "type": "User",
    "site_admin": false
  },
  "created_at": "2015-03-23T22:43:59Z",
  "updated_at": "2015-03-23T22:43:59Z",
  "body": "> Iteration by index is not really needed. Its just a sequential iteration of all objects in the container both in TileParser and SymbolBucket.\r\n\r\nRight. But what is a good way to do this? "
}
, {
  "url": "https://api.github.com/repos/mapbox/mapbox-gl-native/issues/comments/85239088",
  "html_url": "https://github.com/mapbox/mapbox-gl-native/pull/1061#issuecomment-85239088",
  "issue_url": "https://api.github.com/repos/mapbox/mapbox-gl-native/issues/1061",
  "id": 85239088,
  "user": {
    "login": "jfirebaugh",
    "id": 98601,
    "avatar_url": "https://avatars.githubusercontent.com/u/98601?v=3",
    "gravatar_id": "",
    "url": "https://api.github.com/users/jfirebaugh",
    "html_url": "https://github.com/jfirebaugh",
    "followers_url": "https://api.github.com/users/jfirebaugh/followers",
    "following_url": "https://api.github.com/users/jfirebaugh/following{/other_user}",
    "gists_url": "https://api.github.com/users/jfirebaugh/gists{/gist_id}",
    "starred_url": "https://api.github.com/users/jfirebaugh/starred{/owner}{/repo}",
    "subscriptions_url": "https://api.github.com/users/jfirebaugh/subscriptions",
    "organizations_url": "https://api.github.com/users/jfirebaugh/orgs",
    "repos_url": "https://api.github.com/users/jfirebaugh/repos",
    "events_url": "https://api.github.com/users/jfirebaugh/events{/privacy}",
    "received_events_url": "https://api.github.com/users/jfirebaugh/received_events",
    "type": "User",
    "site_admin": false
  },
  "created_at": "2015-03-23T22:56:10Z",
  "updated_at": "2015-03-23T22:56:53Z",
  "body": "For `AnnotationManager::tiles`, replace `std::vector<uint32_t>` with `std::unordered_set<uint32_t>`, so that [removal](https://github.com/mapbox/mapbox-gl-native/blob/77c386251e3c3a361fe8d145b4f3b15208ab9d47/src/mbgl/map/annotation.cpp#L195-L197) can be done with `erase` rather than `std::erase_if`.\r\n\r\nWhy is the `mapped_type` of `Annotation::tileFeatures` a vector? Isn't there always exactly one `LiveTileFeature` per `Annotation` per `Tile::ID`? If that's the case, then `tileFeatures` can be `std::unordered_map<Tile::ID, std::size_t>`, where the `std::size_t` is an index into the `LiveTileLayer::features` vector.\r\n\r\nBeyond these two things, the more fundamental issue is that the APIs of `AnnotationManager::removeAnnotations` and `LiveTileLayer::getFeature` can't simultaneously be efficient. The `removeAnnotations` supports removal of an arbitrary set of annotation IDs, while `getFeature` assumes an vector-based implementation for features. So `removeAnnotations` of _n_ annotations requires _n_ deletions from the features vector, which is quadratic. We need to either change the annotation API or change the GeometryTileLayer API. My preference is the former: I think the annotations API is too flexible for its own good. A more layer-oriented API, where you add a batch of annotations as a layer, and can remove the entire layer (or reset its data wholesale), but not change individual elements, would be simpler in implementation and more convenient for developers in most cases."
}
, {
  "url": "https://api.github.com/repos/mapbox/mapbox-gl-native/issues/comments/85239666",
  "html_url": "https://github.com/mapbox/mapbox-gl-native/pull/1061#issuecomment-85239666",
  "issue_url": "https://api.github.com/repos/mapbox/mapbox-gl-native/issues/1061",
  "id": 85239666,
  "user": {
    "login": "mb12",
    "id": 8890269,
    "avatar_url": "https://avatars.githubusercontent.com/u/8890269?v=3",
    "gravatar_id": "",
    "url": "https://api.github.com/users/mb12",
    "html_url": "https://github.com/mb12",
    "followers_url": "https://api.github.com/users/mb12/followers",
    "following_url": "https://api.github.com/users/mb12/following{/other_user}",
    "gists_url": "https://api.github.com/users/mb12/gists{/gist_id}",
    "starred_url": "https://api.github.com/users/mb12/starred{/owner}{/repo}",
    "subscriptions_url": "https://api.github.com/users/mb12/subscriptions",
    "organizations_url": "https://api.github.com/users/mb12/orgs",
    "repos_url": "https://api.github.com/users/mb12/repos",
    "events_url": "https://api.github.com/users/mb12/events{/privacy}",
    "received_events_url": "https://api.github.com/users/mb12/received_events",
    "type": "User",
    "site_admin": false
  },
  "created_at": "2015-03-23T22:57:47Z",
  "updated_at": "2015-03-23T22:57:47Z",
  "body": "Instead of getFeature, provide an iterator that iterates through all Features in the TileLayer. "
}
, {
  "url": "https://api.github.com/repos/mapbox/mapbox-gl-native/issues/comments/85240498",
  "html_url": "https://github.com/mapbox/mapbox-gl-native/pull/1061#issuecomment-85240498",
  "issue_url": "https://api.github.com/repos/mapbox/mapbox-gl-native/issues/1061",
  "id": 85240498,
  "user": {
    "login": "incanus",
    "id": 17722,
    "avatar_url": "https://avatars.githubusercontent.com/u/17722?v=3",
    "gravatar_id": "",
    "url": "https://api.github.com/users/incanus",
    "html_url": "https://github.com/incanus",
    "followers_url": "https://api.github.com/users/incanus/followers",
    "following_url": "https://api.github.com/users/incanus/following{/other_user}",
    "gists_url": "https://api.github.com/users/incanus/gists{/gist_id}",
    "starred_url": "https://api.github.com/users/incanus/starred{/owner}{/repo}",
    "subscriptions_url": "https://api.github.com/users/incanus/subscriptions",
    "organizations_url": "https://api.github.com/users/incanus/orgs",
    "repos_url": "https://api.github.com/users/incanus/repos",
    "events_url": "https://api.github.com/users/incanus/events{/privacy}",
    "received_events_url": "https://api.github.com/users/incanus/received_events",
    "type": "User",
    "site_admin": false
  },
  "created_at": "2015-03-23T23:01:59Z",
  "updated_at": "2015-03-23T23:02:21Z",
  "body": "> Instead of getFeature, provide an iterator that iterates through all Features in the TileLayer.\r\n\r\n@mb12 Right, tried this per above. The problem is `getFeature()` needs to be `const` because a reference to a `const` layer is passed to the parsing step that gets those features. \r\n\r\n> Why is the `mapped_type` of `Annotation::tileFeatures` a vector? Isn't there always exactly one `LiveTileFeature` per `Annotation` per `Tile::ID`?\r\n\r\n@jfirebaugh Sure, for points. We'll be doing shapes, too. \r\n\r\n>  A more layer-oriented API, where you add a batch of annotations as a layer, and can remove the entire layer (or reset its data wholesale), but not change individual elements, would be simpler in implementation and more convenient for developers in most cases.\r\n\r\nI've kept everything layered this way because shapes will eventually need their own layer each for per-annotation styling (so, filter expressions). Points _can_ all go into a single layer, but I suppose they don't have to. Was just trying to keep things simple organizationally. \r\n\r\nI think splitting point annotations into multiple layers will get complicated when it comes to selection/picking, as well as with rendering when z-ordering issues come into play. I'm not too worried about gestures on shape annotations; even Apple doesn't have this. "
}
, {
  "url": "https://api.github.com/repos/mapbox/mapbox-gl-native/issues/comments/85240995",
  "html_url": "https://github.com/mapbox/mapbox-gl-native/pull/1061#issuecomment-85240995",
  "issue_url": "https://api.github.com/repos/mapbox/mapbox-gl-native/issues/1061",
  "id": 85240995,
  "user": {
    "login": "incanus",
    "id": 17722,
    "avatar_url": "https://avatars.githubusercontent.com/u/17722?v=3",
    "gravatar_id": "",
    "url": "https://api.github.com/users/incanus",
    "html_url": "https://github.com/incanus",
    "followers_url": "https://api.github.com/users/incanus/followers",
    "following_url": "https://api.github.com/users/incanus/following{/other_user}",
    "gists_url": "https://api.github.com/users/incanus/gists{/gist_id}",
    "starred_url": "https://api.github.com/users/incanus/starred{/owner}{/repo}",
    "subscriptions_url": "https://api.github.com/users/incanus/subscriptions",
    "organizations_url": "https://api.github.com/users/incanus/orgs",
    "repos_url": "https://api.github.com/users/incanus/repos",
    "events_url": "https://api.github.com/users/incanus/events{/privacy}",
    "received_events_url": "https://api.github.com/users/incanus/received_events",
    "type": "User",
    "site_admin": false
  },
  "created_at": "2015-03-23T23:04:55Z",
  "updated_at": "2015-03-23T23:04:55Z",
  "body": "> For `AnnotationManager::tiles`, replace `std::vector<uint32_t>` with `std::unordered_set<uint32_t>`, so that removal can be done with `erase` rather than `std::erase_if`.\r\n\r\nNice, I like it. This is my inexperience with `unordered_set` talking. "
}
, {
  "url": "https://api.github.com/repos/mapbox/mapbox-gl-native/issues/comments/85243141",
  "html_url": "https://github.com/mapbox/mapbox-gl-native/pull/1061#issuecomment-85243141",
  "issue_url": "https://api.github.com/repos/mapbox/mapbox-gl-native/issues/1061",
  "id": 85243141,
  "user": {
    "login": "incanus",
    "id": 17722,
    "avatar_url": "https://avatars.githubusercontent.com/u/17722?v=3",
    "gravatar_id": "",
    "url": "https://api.github.com/users/incanus",
    "html_url": "https://github.com/incanus",
    "followers_url": "https://api.github.com/users/incanus/followers",
    "following_url": "https://api.github.com/users/incanus/following{/other_user}",
    "gists_url": "https://api.github.com/users/incanus/gists{/gist_id}",
    "starred_url": "https://api.github.com/users/incanus/starred{/owner}{/repo}",
    "subscriptions_url": "https://api.github.com/users/incanus/subscriptions",
    "organizations_url": "https://api.github.com/users/incanus/orgs",
    "repos_url": "https://api.github.com/users/incanus/repos",
    "events_url": "https://api.github.com/users/incanus/events{/privacy}",
    "received_events_url": "https://api.github.com/users/incanus/received_events",
    "type": "User",
    "site_admin": false
  },
  "created_at": "2015-03-23T23:12:29Z",
  "updated_at": "2015-03-23T23:12:29Z",
  "body": "Use of `unordered_set` gives me an idea for using this internally for `LiveTileLayer` features since order doesn't matter. "
}
, {
  "url": "https://api.github.com/repos/mapbox/mapbox-gl-native/issues/comments/85243187",
  "html_url": "https://github.com/mapbox/mapbox-gl-native/pull/1061#issuecomment-85243187",
  "issue_url": "https://api.github.com/repos/mapbox/mapbox-gl-native/issues/1061",
  "id": 85243187,
  "user": {
    "login": "mb12",
    "id": 8890269,
    "avatar_url": "https://avatars.githubusercontent.com/u/8890269?v=3",
    "gravatar_id": "",
    "url": "https://api.github.com/users/mb12",
    "html_url": "https://github.com/mb12",
    "followers_url": "https://api.github.com/users/mb12/followers",
    "following_url": "https://api.github.com/users/mb12/following{/other_user}",
    "gists_url": "https://api.github.com/users/mb12/gists{/gist_id}",
    "starred_url": "https://api.github.com/users/mb12/starred{/owner}{/repo}",
    "subscriptions_url": "https://api.github.com/users/mb12/subscriptions",
    "organizations_url": "https://api.github.com/users/mb12/orgs",
    "repos_url": "https://api.github.com/users/mb12/repos",
    "events_url": "https://api.github.com/users/mb12/events{/privacy}",
    "received_events_url": "https://api.github.com/users/mb12/received_events",
    "type": "User",
    "site_admin": false
  },
  "created_at": "2015-03-23T23:12:52Z",
  "updated_at": "2015-03-23T23:12:52Z",
  "body": " If the returns value of getFeatures is a const_iterator wouldn't that ensure that doing *iter or iter() return a const T*."
}
, {
  "url": "https://api.github.com/repos/mapbox/mapbox-gl-native/issues/comments/85244037",
  "html_url": "https://github.com/mapbox/mapbox-gl-native/pull/1061#issuecomment-85244037",
  "issue_url": "https://api.github.com/repos/mapbox/mapbox-gl-native/issues/1061",
  "id": 85244037,
  "user": {
    "login": "incanus",
    "id": 17722,
    "avatar_url": "https://avatars.githubusercontent.com/u/17722?v=3",
    "gravatar_id": "",
    "url": "https://api.github.com/users/incanus",
    "html_url": "https://github.com/incanus",
    "followers_url": "https://api.github.com/users/incanus/followers",
    "following_url": "https://api.github.com/users/incanus/following{/other_user}",
    "gists_url": "https://api.github.com/users/incanus/gists{/gist_id}",
    "starred_url": "https://api.github.com/users/incanus/starred{/owner}{/repo}",
    "subscriptions_url": "https://api.github.com/users/incanus/subscriptions",
    "organizations_url": "https://api.github.com/users/incanus/orgs",
    "repos_url": "https://api.github.com/users/incanus/repos",
    "events_url": "https://api.github.com/users/incanus/events{/privacy}",
    "received_events_url": "https://api.github.com/users/incanus/received_events",
    "type": "User",
    "site_admin": false
  },
  "created_at": "2015-03-23T23:17:35Z",
  "updated_at": "2015-03-23T23:17:35Z",
  "body": "> Use of `unordered_set` gives me an idea for using this internally for `LiveTileLayer` features since order doesn't matter.\r\n\r\nEh, hashing a `util::ptr<const LiveTileFeature>` is kind of a pain. \r\n\r\n> If the returns value of getFeatures is a const_iterator wouldn't that ensure that doing iter or iter() return a const T.\r\n\r\n@mb12 Lemme check it out. "
}
, {
  "url": "https://api.github.com/repos/mapbox/mapbox-gl-native/issues/comments/85246767",
  "html_url": "https://github.com/mapbox/mapbox-gl-native/pull/1061#issuecomment-85246767",
  "issue_url": "https://api.github.com/repos/mapbox/mapbox-gl-native/issues/1061",
  "id": 85246767,
  "user": {
    "login": "incanus",
    "id": 17722,
    "avatar_url": "https://avatars.githubusercontent.com/u/17722?v=3",
    "gravatar_id": "",
    "url": "https://api.github.com/users/incanus",
    "html_url": "https://github.com/incanus",
    "followers_url": "https://api.github.com/users/incanus/followers",
    "following_url": "https://api.github.com/users/incanus/following{/other_user}",
    "gists_url": "https://api.github.com/users/incanus/gists{/gist_id}",
    "starred_url": "https://api.github.com/users/incanus/starred{/owner}{/repo}",
    "subscriptions_url": "https://api.github.com/users/incanus/subscriptions",
    "organizations_url": "https://api.github.com/users/incanus/orgs",
    "repos_url": "https://api.github.com/users/incanus/repos",
    "events_url": "https://api.github.com/users/incanus/events{/privacy}",
    "received_events_url": "https://api.github.com/users/incanus/received_events",
    "type": "User",
    "site_admin": false
  },
  "created_at": "2015-03-23T23:35:17Z",
  "updated_at": "2015-03-23T23:35:17Z",
  "body": "We're currently at about 3 seconds to remove 10,000 annotations from an iPhone 5s. I think we've made enough improvements here, actually. Lots of little stuff, and although the paradox that @jfirebaugh outlines may still hold, it's not worth focusing on so much right now, especially given that the annotations model may change when we move to shapes. I'm cool to squash the improvements here and merge soon. "
}
, {
  "url": "https://api.github.com/repos/mapbox/mapbox-gl-native/issues/comments/85249428",
  "html_url": "https://github.com/mapbox/mapbox-gl-native/pull/1061#issuecomment-85249428",
  "issue_url": "https://api.github.com/repos/mapbox/mapbox-gl-native/issues/1061",
  "id": 85249428,
  "user": {
    "login": "jfirebaugh",
    "id": 98601,
    "avatar_url": "https://avatars.githubusercontent.com/u/98601?v=3",
    "gravatar_id": "",
    "url": "https://api.github.com/users/jfirebaugh",
    "html_url": "https://github.com/jfirebaugh",
    "followers_url": "https://api.github.com/users/jfirebaugh/followers",
    "following_url": "https://api.github.com/users/jfirebaugh/following{/other_user}",
    "gists_url": "https://api.github.com/users/jfirebaugh/gists{/gist_id}",
    "starred_url": "https://api.github.com/users/jfirebaugh/starred{/owner}{/repo}",
    "subscriptions_url": "https://api.github.com/users/jfirebaugh/subscriptions",
    "organizations_url": "https://api.github.com/users/jfirebaugh/orgs",
    "repos_url": "https://api.github.com/users/jfirebaugh/repos",
    "events_url": "https://api.github.com/users/jfirebaugh/events{/privacy}",
    "received_events_url": "https://api.github.com/users/jfirebaugh/received_events",
    "type": "User",
    "site_admin": false
  },
  "created_at": "2015-03-23T23:49:16Z",
  "updated_at": "2015-03-23T23:49:16Z",
  "body": "@mb12 `getFeatures` can't return a `const_iterator` because that would tie the abstract `GeometryTileLayer` interface to a specific implementation and concrete `GeometryTileFeature` derived class."
}
, {
  "url": "https://api.github.com/repos/mapbox/mapbox-gl-native/issues/comments/85250767",
  "html_url": "https://github.com/mapbox/mapbox-gl-native/pull/1061#issuecomment-85250767",
  "issue_url": "https://api.github.com/repos/mapbox/mapbox-gl-native/issues/1061",
  "id": 85250767,
  "user": {
    "login": "jfirebaugh",
    "id": 98601,
    "avatar_url": "https://avatars.githubusercontent.com/u/98601?v=3",
    "gravatar_id": "",
    "url": "https://api.github.com/users/jfirebaugh",
    "html_url": "https://github.com/jfirebaugh",
    "followers_url": "https://api.github.com/users/jfirebaugh/followers",
    "following_url": "https://api.github.com/users/jfirebaugh/following{/other_user}",
    "gists_url": "https://api.github.com/users/jfirebaugh/gists{/gist_id}",
    "starred_url": "https://api.github.com/users/jfirebaugh/starred{/owner}{/repo}",
    "subscriptions_url": "https://api.github.com/users/jfirebaugh/subscriptions",
    "organizations_url": "https://api.github.com/users/jfirebaugh/orgs",
    "repos_url": "https://api.github.com/users/jfirebaugh/repos",
    "events_url": "https://api.github.com/users/jfirebaugh/events{/privacy}",
    "received_events_url": "https://api.github.com/users/jfirebaugh/received_events",
    "type": "User",
    "site_admin": false
  },
  "created_at": "2015-03-23T23:53:26Z",
  "updated_at": "2015-03-23T23:53:26Z",
  "body": "> > Why is the mapped_type of Annotation::tileFeatures a vector? Isn't there always exactly one LiveTileFeature per Annotation per Tile::ID?\r\n\r\n> @jfirebaugh Sure, for points. We'll be doing shapes, too.\r\n\r\nSeems like it should be true for shapes too."
}
, {
  "url": "https://api.github.com/repos/mapbox/mapbox-gl-native/issues/comments/85254813",
  "html_url": "https://github.com/mapbox/mapbox-gl-native/pull/1061#issuecomment-85254813",
  "issue_url": "https://api.github.com/repos/mapbox/mapbox-gl-native/issues/1061",
  "id": 85254813,
  "user": {
    "login": "incanus",
    "id": 17722,
    "avatar_url": "https://avatars.githubusercontent.com/u/17722?v=3",
    "gravatar_id": "",
    "url": "https://api.github.com/users/incanus",
    "html_url": "https://github.com/incanus",
    "followers_url": "https://api.github.com/users/incanus/followers",
    "following_url": "https://api.github.com/users/incanus/following{/other_user}",
    "gists_url": "https://api.github.com/users/incanus/gists{/gist_id}",
    "starred_url": "https://api.github.com/users/incanus/starred{/owner}{/repo}",
    "subscriptions_url": "https://api.github.com/users/incanus/subscriptions",
    "organizations_url": "https://api.github.com/users/incanus/orgs",
    "repos_url": "https://api.github.com/users/incanus/repos",
    "events_url": "https://api.github.com/users/incanus/events{/privacy}",
    "received_events_url": "https://api.github.com/users/incanus/received_events",
    "type": "User",
    "site_admin": false
  },
  "created_at": "2015-03-24T00:06:30Z",
  "updated_at": "2015-03-24T00:06:30Z",
  "body": "> Seems like it should be true for shapes too.\r\n\r\nRight, I was forgetting that `LiveTileFeature`'s `geometries` is a collection, so this covers holes or whatnot. Will remedy. "
}
, {
  "url": "https://api.github.com/repos/mapbox/mapbox-gl-native/issues/comments/85256730",
  "html_url": "https://github.com/mapbox/mapbox-gl-native/pull/1061#issuecomment-85256730",
  "issue_url": "https://api.github.com/repos/mapbox/mapbox-gl-native/issues/1061",
  "id": 85256730,
  "user": {
    "login": "mb12",
    "id": 8890269,
    "avatar_url": "https://avatars.githubusercontent.com/u/8890269?v=3",
    "gravatar_id": "",
    "url": "https://api.github.com/users/mb12",
    "html_url": "https://github.com/mb12",
    "followers_url": "https://api.github.com/users/mb12/followers",
    "following_url": "https://api.github.com/users/mb12/following{/other_user}",
    "gists_url": "https://api.github.com/users/mb12/gists{/gist_id}",
    "starred_url": "https://api.github.com/users/mb12/starred{/owner}{/repo}",
    "subscriptions_url": "https://api.github.com/users/mb12/subscriptions",
    "organizations_url": "https://api.github.com/users/mb12/orgs",
    "repos_url": "https://api.github.com/users/mb12/repos",
    "events_url": "https://api.github.com/users/mb12/events{/privacy}",
    "received_events_url": "https://api.github.com/users/mb12/received_events",
    "type": "User",
    "site_admin": false
  },
  "created_at": "2015-03-24T00:18:46Z",
  "updated_at": "2015-03-24T00:18:46Z",
  "body": "@jfirebaugh  Yes, we would have to create an iterator that wraps around the underlying container (vector, map, intrusive list, unordered_map) iterator and return it instead of vector.begin()."
}
, {
  "url": "https://api.github.com/repos/mapbox/mapbox-gl-native/issues/comments/85268880",
  "html_url": "https://github.com/mapbox/mapbox-gl-native/pull/1061#issuecomment-85268880",
  "issue_url": "https://api.github.com/repos/mapbox/mapbox-gl-native/issues/1061",
  "id": 85268880,
  "user": {
    "login": "incanus",
    "id": 17722,
    "avatar_url": "https://avatars.githubusercontent.com/u/17722?v=3",
    "gravatar_id": "",
    "url": "https://api.github.com/users/incanus",
    "html_url": "https://github.com/incanus",
    "followers_url": "https://api.github.com/users/incanus/followers",
    "following_url": "https://api.github.com/users/incanus/following{/other_user}",
    "gists_url": "https://api.github.com/users/incanus/gists{/gist_id}",
    "starred_url": "https://api.github.com/users/incanus/starred{/owner}{/repo}",
    "subscriptions_url": "https://api.github.com/users/incanus/subscriptions",
    "organizations_url": "https://api.github.com/users/incanus/orgs",
    "repos_url": "https://api.github.com/users/incanus/repos",
    "events_url": "https://api.github.com/users/incanus/events{/privacy}",
    "received_events_url": "https://api.github.com/users/incanus/received_events",
    "type": "User",
    "site_admin": false
  },
  "created_at": "2015-03-24T00:55:40Z",
  "updated_at": "2015-03-24T00:55:40Z",
  "body": "Looking like this: \r\n\r\nhttps://dl.dropboxusercontent.com/u/575564/100%2C%201000%2C%2010000.mp4"
}
, {
  "url": "https://api.github.com/repos/mapbox/mapbox-gl-native/issues/comments/85269372",
  "html_url": "https://github.com/mapbox/mapbox-gl-native/pull/1061#issuecomment-85269372",
  "issue_url": "https://api.github.com/repos/mapbox/mapbox-gl-native/issues/1061",
  "id": 85269372,
  "user": {
    "login": "incanus",
    "id": 17722,
    "avatar_url": "https://avatars.githubusercontent.com/u/17722?v=3",
    "gravatar_id": "",
    "url": "https://api.github.com/users/incanus",
    "html_url": "https://github.com/incanus",
    "followers_url": "https://api.github.com/users/incanus/followers",
    "following_url": "https://api.github.com/users/incanus/following{/other_user}",
    "gists_url": "https://api.github.com/users/incanus/gists{/gist_id}",
    "starred_url": "https://api.github.com/users/incanus/starred{/owner}{/repo}",
    "subscriptions_url": "https://api.github.com/users/incanus/subscriptions",
    "organizations_url": "https://api.github.com/users/incanus/orgs",
    "repos_url": "https://api.github.com/users/incanus/repos",
    "events_url": "https://api.github.com/users/incanus/events{/privacy}",
    "received_events_url": "https://api.github.com/users/incanus/received_events",
    "type": "User",
    "site_admin": false
  },
  "created_at": "2015-03-24T00:57:22Z",
  "updated_at": "2015-03-24T00:57:22Z",
  "body": "Going to wait for tests to pass here, then merge this and leave perf alone for a while. "
}
, {
  "url": "https://api.github.com/repos/mapbox/mapbox-gl-native/issues/comments/85273596",
  "html_url": "https://github.com/mapbox/mapbox-gl-native/pull/1061#issuecomment-85273596",
  "issue_url": "https://api.github.com/repos/mapbox/mapbox-gl-native/issues/1061",
  "id": 85273596,
  "user": {
    "login": "incanus",
    "id": 17722,
    "avatar_url": "https://avatars.githubusercontent.com/u/17722?v=3",
    "gravatar_id": "",
    "url": "https://api.github.com/users/incanus",
    "html_url": "https://github.com/incanus",
    "followers_url": "https://api.github.com/users/incanus/followers",
    "following_url": "https://api.github.com/users/incanus/following{/other_user}",
    "gists_url": "https://api.github.com/users/incanus/gists{/gist_id}",
    "starred_url": "https://api.github.com/users/incanus/starred{/owner}{/repo}",
    "subscriptions_url": "https://api.github.com/users/incanus/subscriptions",
    "organizations_url": "https://api.github.com/users/incanus/orgs",
    "repos_url": "https://api.github.com/users/incanus/repos",
    "events_url": "https://api.github.com/users/incanus/events{/privacy}",
    "received_events_url": "https://api.github.com/users/incanus/received_events",
    "type": "User",
    "site_admin": false
  },
  "created_at": "2015-03-24T01:09:41Z",
  "updated_at": "2015-03-24T01:09:41Z",
  "body": "Oh, gotta merge `master`. "
}
, {
  "url": "https://api.github.com/repos/mapbox/mapbox-gl-native/issues/comments/85329999",
  "html_url": "https://github.com/mapbox/mapbox-gl-native/pull/1061#issuecomment-85329999",
  "issue_url": "https://api.github.com/repos/mapbox/mapbox-gl-native/issues/1061",
  "id": 85329999,
  "user": {
    "login": "incanus",
    "id": 17722,
    "avatar_url": "https://avatars.githubusercontent.com/u/17722?v=3",
    "gravatar_id": "",
    "url": "https://api.github.com/users/incanus",
    "html_url": "https://github.com/incanus",
    "followers_url": "https://api.github.com/users/incanus/followers",
    "following_url": "https://api.github.com/users/incanus/following{/other_user}",
    "gists_url": "https://api.github.com/users/incanus/gists{/gist_id}",
    "starred_url": "https://api.github.com/users/incanus/starred{/owner}{/repo}",
    "subscriptions_url": "https://api.github.com/users/incanus/subscriptions",
    "organizations_url": "https://api.github.com/users/incanus/orgs",
    "repos_url": "https://api.github.com/users/incanus/repos",
    "events_url": "https://api.github.com/users/incanus/events{/privacy}",
    "received_events_url": "https://api.github.com/users/incanus/received_events",
    "type": "User",
    "site_admin": false
  },
  "created_at": "2015-03-24T03:53:43Z",
  "updated_at": "2015-03-24T03:53:43Z",
  "body": "Squashed over in https://github.com/mapbox/mapbox-gl-native/pull/1076. "
}
]
