[
{
  "url": "https://api.github.com/repos/mapbox/mapbox-gl-native/issues/comments/165899839",
  "html_url": "https://github.com/mapbox/mapbox-gl-native/issues/3347#issuecomment-165899839",
  "issue_url": "https://api.github.com/repos/mapbox/mapbox-gl-native/issues/3347",
  "id": 165899839,
  "user": {
    "login": "jfirebaugh",
    "id": 98601,
    "avatar_url": "https://avatars.githubusercontent.com/u/98601?v=3",
    "gravatar_id": "",
    "url": "https://api.github.com/users/jfirebaugh",
    "html_url": "https://github.com/jfirebaugh",
    "followers_url": "https://api.github.com/users/jfirebaugh/followers",
    "following_url": "https://api.github.com/users/jfirebaugh/following{/other_user}",
    "gists_url": "https://api.github.com/users/jfirebaugh/gists{/gist_id}",
    "starred_url": "https://api.github.com/users/jfirebaugh/starred{/owner}{/repo}",
    "subscriptions_url": "https://api.github.com/users/jfirebaugh/subscriptions",
    "organizations_url": "https://api.github.com/users/jfirebaugh/orgs",
    "repos_url": "https://api.github.com/users/jfirebaugh/repos",
    "events_url": "https://api.github.com/users/jfirebaugh/events{/privacy}",
    "received_events_url": "https://api.github.com/users/jfirebaugh/received_events",
    "type": "User",
    "site_admin": false
  },
  "created_at": "2015-12-18T21:18:24Z",
  "updated_at": "2015-12-18T21:18:24Z",
  "body": "No -- with the camera tilted, you get a perspective projection. We don't currently have plans to add an isometric option."
}
, {
  "url": "https://api.github.com/repos/mapbox/mapbox-gl-native/issues/comments/165916039",
  "html_url": "https://github.com/mapbox/mapbox-gl-native/issues/3347#issuecomment-165916039",
  "issue_url": "https://api.github.com/repos/mapbox/mapbox-gl-native/issues/3347",
  "id": 165916039,
  "user": {
    "login": "mb12",
    "id": 8890269,
    "avatar_url": "https://avatars.githubusercontent.com/u/8890269?v=3",
    "gravatar_id": "",
    "url": "https://api.github.com/users/mb12",
    "html_url": "https://github.com/mb12",
    "followers_url": "https://api.github.com/users/mb12/followers",
    "following_url": "https://api.github.com/users/mb12/following{/other_user}",
    "gists_url": "https://api.github.com/users/mb12/gists{/gist_id}",
    "starred_url": "https://api.github.com/users/mb12/starred{/owner}{/repo}",
    "subscriptions_url": "https://api.github.com/users/mb12/subscriptions",
    "organizations_url": "https://api.github.com/users/mb12/orgs",
    "repos_url": "https://api.github.com/users/mb12/repos",
    "events_url": "https://api.github.com/users/mb12/events{/privacy}",
    "received_events_url": "https://api.github.com/users/mb12/received_events",
    "type": "User",
    "site_admin": false
  },
  "created_at": "2015-12-18T22:58:36Z",
  "updated_at": "2015-12-18T22:59:33Z",
  "body": "@dagatsoin  You can add MGLMapView to a container UIView and apply any transformations to it (incl. perspective or isometric etc).  It would be nice if you could explain why you need it (screenshots etc.) and if there are any other  mapping SDKs that provide it. AFAIK neither Google, Apple, Nokia etc provide it."
}
]
