[
{
  "url": "https://api.github.com/repos/mapbox/mapbox-gl-native/issues/comments/93110892",
  "html_url": "https://github.com/mapbox/mapbox-gl-native/issues/1268#issuecomment-93110892",
  "issue_url": "https://api.github.com/repos/mapbox/mapbox-gl-native/issues/1268",
  "id": 93110892,
  "user": {
    "login": "bleege",
    "id": 989928,
    "avatar_url": "https://avatars.githubusercontent.com/u/989928?v=3",
    "gravatar_id": "",
    "url": "https://api.github.com/users/bleege",
    "html_url": "https://github.com/bleege",
    "followers_url": "https://api.github.com/users/bleege/followers",
    "following_url": "https://api.github.com/users/bleege/following{/other_user}",
    "gists_url": "https://api.github.com/users/bleege/gists{/gist_id}",
    "starred_url": "https://api.github.com/users/bleege/starred{/owner}{/repo}",
    "subscriptions_url": "https://api.github.com/users/bleege/subscriptions",
    "organizations_url": "https://api.github.com/users/bleege/orgs",
    "repos_url": "https://api.github.com/users/bleege/repos",
    "events_url": "https://api.github.com/users/bleege/events{/privacy}",
    "received_events_url": "https://api.github.com/users/bleege/received_events",
    "type": "User",
    "site_admin": false
  },
  "created_at": "2015-04-14T23:31:22Z",
  "updated_at": "2015-04-14T23:31:22Z",
  "body": "Travis tested and merged!\r\n\r\n/cc @camilleanne @edenh "
}
]
