[
{
  "url": "https://api.github.com/repos/mapbox/mapbox-gl-native/issues/comments/78722322",
  "html_url": "https://github.com/mapbox/mapbox-gl-native/issues/996#issuecomment-78722322",
  "issue_url": "https://api.github.com/repos/mapbox/mapbox-gl-native/issues/996",
  "id": 78722322,
  "user": {
    "login": "jfirebaugh",
    "id": 98601,
    "avatar_url": "https://avatars.githubusercontent.com/u/98601?v=3",
    "gravatar_id": "",
    "url": "https://api.github.com/users/jfirebaugh",
    "html_url": "https://github.com/jfirebaugh",
    "followers_url": "https://api.github.com/users/jfirebaugh/followers",
    "following_url": "https://api.github.com/users/jfirebaugh/following{/other_user}",
    "gists_url": "https://api.github.com/users/jfirebaugh/gists{/gist_id}",
    "starred_url": "https://api.github.com/users/jfirebaugh/starred{/owner}{/repo}",
    "subscriptions_url": "https://api.github.com/users/jfirebaugh/subscriptions",
    "organizations_url": "https://api.github.com/users/jfirebaugh/orgs",
    "repos_url": "https://api.github.com/users/jfirebaugh/repos",
    "events_url": "https://api.github.com/users/jfirebaugh/events{/privacy}",
    "received_events_url": "https://api.github.com/users/jfirebaugh/received_events",
    "type": "User",
    "site_admin": false
  },
  "created_at": "2015-03-13T00:52:24Z",
  "updated_at": "2015-03-13T00:52:24Z",
  "body": "Sound fine, but we don't need to do this right now."
}
, {
  "url": "https://api.github.com/repos/mapbox/mapbox-gl-native/issues/comments/78890715",
  "html_url": "https://github.com/mapbox/mapbox-gl-native/issues/996#issuecomment-78890715",
  "issue_url": "https://api.github.com/repos/mapbox/mapbox-gl-native/issues/996",
  "id": 78890715,
  "user": {
    "login": "kkaefer",
    "id": 52399,
    "avatar_url": "https://avatars.githubusercontent.com/u/52399?v=3",
    "gravatar_id": "",
    "url": "https://api.github.com/users/kkaefer",
    "html_url": "https://github.com/kkaefer",
    "followers_url": "https://api.github.com/users/kkaefer/followers",
    "following_url": "https://api.github.com/users/kkaefer/following{/other_user}",
    "gists_url": "https://api.github.com/users/kkaefer/gists{/gist_id}",
    "starred_url": "https://api.github.com/users/kkaefer/starred{/owner}{/repo}",
    "subscriptions_url": "https://api.github.com/users/kkaefer/subscriptions",
    "organizations_url": "https://api.github.com/users/kkaefer/orgs",
    "repos_url": "https://api.github.com/users/kkaefer/repos",
    "events_url": "https://api.github.com/users/kkaefer/events{/privacy}",
    "received_events_url": "https://api.github.com/users/kkaefer/received_events",
    "type": "User",
    "site_admin": false
  },
  "created_at": "2015-03-13T09:43:28Z",
  "updated_at": "2015-03-13T09:43:28Z",
  "body": "Agree with @jfirebaugh"
}
]
