[
{
  "url": "https://api.github.com/repos/mapbox/mapbox-gl-native/issues/comments/78232239",
  "html_url": "https://github.com/mapbox/mapbox-gl-native/issues/952#issuecomment-78232239",
  "issue_url": "https://api.github.com/repos/mapbox/mapbox-gl-native/issues/952",
  "id": 78232239,
  "user": {
    "login": "ljbade",
    "id": 1215089,
    "avatar_url": "https://avatars.githubusercontent.com/u/1215089?v=3",
    "gravatar_id": "",
    "url": "https://api.github.com/users/ljbade",
    "html_url": "https://github.com/ljbade",
    "followers_url": "https://api.github.com/users/ljbade/followers",
    "following_url": "https://api.github.com/users/ljbade/following{/other_user}",
    "gists_url": "https://api.github.com/users/ljbade/gists{/gist_id}",
    "starred_url": "https://api.github.com/users/ljbade/starred{/owner}{/repo}",
    "subscriptions_url": "https://api.github.com/users/ljbade/subscriptions",
    "organizations_url": "https://api.github.com/users/ljbade/orgs",
    "repos_url": "https://api.github.com/users/ljbade/repos",
    "events_url": "https://api.github.com/users/ljbade/events{/privacy}",
    "received_events_url": "https://api.github.com/users/ljbade/received_events",
    "type": "User",
    "site_admin": false
  },
  "created_at": "2015-03-11T09:44:41Z",
  "updated_at": "2015-03-11T09:44:41Z",
  "body": "I assume you mean they show up as black boxes like https://github.com/mapbox/mapbox-gl-native/issues/843?"
}
, {
  "url": "https://api.github.com/repos/mapbox/mapbox-gl-native/issues/comments/110415706",
  "html_url": "https://github.com/mapbox/mapbox-gl-native/issues/952#issuecomment-110415706",
  "issue_url": "https://api.github.com/repos/mapbox/mapbox-gl-native/issues/952",
  "id": 110415706,
  "user": {
    "login": "ljbade",
    "id": 1215089,
    "avatar_url": "https://avatars.githubusercontent.com/u/1215089?v=3",
    "gravatar_id": "",
    "url": "https://api.github.com/users/ljbade",
    "html_url": "https://github.com/ljbade",
    "followers_url": "https://api.github.com/users/ljbade/followers",
    "following_url": "https://api.github.com/users/ljbade/following{/other_user}",
    "gists_url": "https://api.github.com/users/ljbade/gists{/gist_id}",
    "starred_url": "https://api.github.com/users/ljbade/starred{/owner}{/repo}",
    "subscriptions_url": "https://api.github.com/users/ljbade/subscriptions",
    "organizations_url": "https://api.github.com/users/ljbade/orgs",
    "repos_url": "https://api.github.com/users/ljbade/repos",
    "events_url": "https://api.github.com/users/ljbade/events{/privacy}",
    "received_events_url": "https://api.github.com/users/ljbade/received_events",
    "type": "User",
    "site_admin": false
  },
  "created_at": "2015-06-09T16:01:52Z",
  "updated_at": "2015-06-09T16:01:52Z",
  "body": "Hmm is this the same as https://github.com/mapbox/mapbox-gl-native/issues/1649"
}
, {
  "url": "https://api.github.com/repos/mapbox/mapbox-gl-native/issues/comments/110539942",
  "html_url": "https://github.com/mapbox/mapbox-gl-native/issues/952#issuecomment-110539942",
  "issue_url": "https://api.github.com/repos/mapbox/mapbox-gl-native/issues/952",
  "id": 110539942,
  "user": {
    "login": "kkaefer",
    "id": 52399,
    "avatar_url": "https://avatars.githubusercontent.com/u/52399?v=3",
    "gravatar_id": "",
    "url": "https://api.github.com/users/kkaefer",
    "html_url": "https://github.com/kkaefer",
    "followers_url": "https://api.github.com/users/kkaefer/followers",
    "following_url": "https://api.github.com/users/kkaefer/following{/other_user}",
    "gists_url": "https://api.github.com/users/kkaefer/gists{/gist_id}",
    "starred_url": "https://api.github.com/users/kkaefer/starred{/owner}{/repo}",
    "subscriptions_url": "https://api.github.com/users/kkaefer/subscriptions",
    "organizations_url": "https://api.github.com/users/kkaefer/orgs",
    "repos_url": "https://api.github.com/users/kkaefer/repos",
    "events_url": "https://api.github.com/users/kkaefer/events{/privacy}",
    "received_events_url": "https://api.github.com/users/kkaefer/received_events",
    "type": "User",
    "site_admin": false
  },
  "created_at": "2015-06-10T00:10:02Z",
  "updated_at": "2015-06-10T00:10:02Z",
  "body": "Not sure, but this ticket is way too generic anyway."
}
]
