[
{
  "url": "https://api.github.com/repos/mapbox/mapbox-gl-native/issues/comments/87134282",
  "html_url": "https://github.com/mapbox/mapbox-gl-native/pull/1150#issuecomment-87134282",
  "issue_url": "https://api.github.com/repos/mapbox/mapbox-gl-native/issues/1150",
  "id": 87134282,
  "user": {
    "login": "bleege",
    "id": 989928,
    "avatar_url": "https://avatars.githubusercontent.com/u/989928?v=3",
    "gravatar_id": "",
    "url": "https://api.github.com/users/bleege",
    "html_url": "https://github.com/bleege",
    "followers_url": "https://api.github.com/users/bleege/followers",
    "following_url": "https://api.github.com/users/bleege/following{/other_user}",
    "gists_url": "https://api.github.com/users/bleege/gists{/gist_id}",
    "starred_url": "https://api.github.com/users/bleege/starred{/owner}{/repo}",
    "subscriptions_url": "https://api.github.com/users/bleege/subscriptions",
    "organizations_url": "https://api.github.com/users/bleege/orgs",
    "repos_url": "https://api.github.com/users/bleege/repos",
    "events_url": "https://api.github.com/users/bleege/events{/privacy}",
    "received_events_url": "https://api.github.com/users/bleege/received_events",
    "type": "User",
    "site_admin": false
  },
  "created_at": "2015-03-28T00:54:05Z",
  "updated_at": "2015-03-28T00:54:05Z",
  "body": "Build failed 3 of 11 sub builds, but they were all related to Android and not the iOS changes."
}
, {
  "url": "https://api.github.com/repos/mapbox/mapbox-gl-native/issues/comments/88429154",
  "html_url": "https://github.com/mapbox/mapbox-gl-native/pull/1150#issuecomment-88429154",
  "issue_url": "https://api.github.com/repos/mapbox/mapbox-gl-native/issues/1150",
  "id": 88429154,
  "user": {
    "login": "kkaefer",
    "id": 52399,
    "avatar_url": "https://avatars.githubusercontent.com/u/52399?v=3",
    "gravatar_id": "",
    "url": "https://api.github.com/users/kkaefer",
    "html_url": "https://github.com/kkaefer",
    "followers_url": "https://api.github.com/users/kkaefer/followers",
    "following_url": "https://api.github.com/users/kkaefer/following{/other_user}",
    "gists_url": "https://api.github.com/users/kkaefer/gists{/gist_id}",
    "starred_url": "https://api.github.com/users/kkaefer/starred{/owner}{/repo}",
    "subscriptions_url": "https://api.github.com/users/kkaefer/subscriptions",
    "organizations_url": "https://api.github.com/users/kkaefer/orgs",
    "repos_url": "https://api.github.com/users/kkaefer/repos",
    "events_url": "https://api.github.com/users/kkaefer/events{/privacy}",
    "received_events_url": "https://api.github.com/users/kkaefer/received_events",
    "type": "User",
    "site_admin": false
  },
  "created_at": "2015-04-01T10:23:03Z",
  "updated_at": "2015-04-01T10:23:03Z",
  "body": "> Build failed 3 of 11 sub builds, but they were all related to Android and not the iOS changes.\r\n\r\nIn this case, they were all build system/network failures, but please make sure Android passes to; otherwise we can just as well ignore build failures altogether."
}
]
