[
{
  "url": "https://api.github.com/repos/Automattic/mongoose/issues/comments/170635802",
  "html_url": "https://github.com/Automattic/mongoose/pull/3751#issuecomment-170635802",
  "issue_url": "https://api.github.com/repos/Automattic/mongoose/issues/3751",
  "id": 170635802,
  "user": {
    "login": "ChristianMurphy",
    "id": 3107513,
    "avatar_url": "https://avatars.githubusercontent.com/u/3107513?v=3",
    "gravatar_id": "",
    "url": "https://api.github.com/users/ChristianMurphy",
    "html_url": "https://github.com/ChristianMurphy",
    "followers_url": "https://api.github.com/users/ChristianMurphy/followers",
    "following_url": "https://api.github.com/users/ChristianMurphy/following{/other_user}",
    "gists_url": "https://api.github.com/users/ChristianMurphy/gists{/gist_id}",
    "starred_url": "https://api.github.com/users/ChristianMurphy/starred{/owner}{/repo}",
    "subscriptions_url": "https://api.github.com/users/ChristianMurphy/subscriptions",
    "organizations_url": "https://api.github.com/users/ChristianMurphy/orgs",
    "repos_url": "https://api.github.com/users/ChristianMurphy/repos",
    "events_url": "https://api.github.com/users/ChristianMurphy/events{/privacy}",
    "received_events_url": "https://api.github.com/users/ChristianMurphy/received_events",
    "type": "User",
    "site_admin": false
  },
  "created_at": "2016-01-11T18:02:53Z",
  "updated_at": "2016-01-11T18:02:53Z",
  "body": "@vkarpov15 [Node 5 is reporting some errors](https://travis-ci.org/Automattic/mongoose/jobs/101641861) that seem to originate from\r\n``` shell\r\nUnhandled rejection MongoError: You cannot currently mix including and excluding fields. Contact us if this is an issue.\r\n    at Function.MongoError.create (/home/travis/build/Automattic/mongoose/node_modules/mongodb-core/lib/error.js:31:11)\r\n    at queryCallback (/home/travis/build/Automattic/mongoose/node_modules/mongodb-core/lib/cursor.js:266:34)\r\n    at Callbacks.emit (/home/travis/build/Automattic/mongoose/node_modules/mongodb-core/lib/topologies/server.js:95:3)\r\n    at null.messageHandler (/home/travis/build/Automattic/mongoose/node_modules/mongodb-core/lib/topologies/server.js:249:23)\r\n    at Socket.<anonymous> (/home/travis/build/Automattic/mongoose/node_modules/mongodb-core/lib/connection/connection.js:265:22)\r\n    at emitOne (events.js:77:13)\r\n    at Socket.emit (events.js:169:7)\r\n    at readableAddChunk (_stream_readable.js:146:16)\r\n    at Socket.Readable.push (_stream_readable.js:110:10)\r\n    at TCP.onread (net.js:523:20)\r\n```\r\n\r\nIs this the tests being flakey?\r\nor could it be related to the change in `model.update.test.js`?\r\n``` diff\r\n-        schema.path('arr').validate(function(v) {\r\n+        schema.path('arr').validate(function() {\r\n```"
}
, {
  "url": "https://api.github.com/repos/Automattic/mongoose/issues/comments/170649327",
  "html_url": "https://github.com/Automattic/mongoose/pull/3751#issuecomment-170649327",
  "issue_url": "https://api.github.com/repos/Automattic/mongoose/issues/3751",
  "id": 170649327,
  "user": {
    "login": "vkarpov15",
    "id": 1620265,
    "avatar_url": "https://avatars.githubusercontent.com/u/1620265?v=3",
    "gravatar_id": "",
    "url": "https://api.github.com/users/vkarpov15",
    "html_url": "https://github.com/vkarpov15",
    "followers_url": "https://api.github.com/users/vkarpov15/followers",
    "following_url": "https://api.github.com/users/vkarpov15/following{/other_user}",
    "gists_url": "https://api.github.com/users/vkarpov15/gists{/gist_id}",
    "starred_url": "https://api.github.com/users/vkarpov15/starred{/owner}{/repo}",
    "subscriptions_url": "https://api.github.com/users/vkarpov15/subscriptions",
    "organizations_url": "https://api.github.com/users/vkarpov15/orgs",
    "repos_url": "https://api.github.com/users/vkarpov15/repos",
    "events_url": "https://api.github.com/users/vkarpov15/events{/privacy}",
    "received_events_url": "https://api.github.com/users/vkarpov15/received_events",
    "type": "User",
    "site_admin": false
  },
  "created_at": "2016-01-11T18:45:31Z",
  "updated_at": "2016-01-11T18:45:31Z",
  "body": "Re-ran the tests on travis and looks like it was a flake. Thanks :beers:"
}
]
