[
{
  "url": "https://api.github.com/repos/collectiveidea/awesome_nested_set/issues/comments/54309228",
  "html_url": "https://github.com/collectiveidea/awesome_nested_set/pull/279#issuecomment-54309228",
  "issue_url": "https://api.github.com/repos/collectiveidea/awesome_nested_set/issues/279",
  "id": 54309228,
  "user": {
    "login": "kuldeepaggarwal",
    "id": 1930730,
    "avatar_url": "https://avatars.githubusercontent.com/u/1930730?v=3",
    "gravatar_id": "",
    "url": "https://api.github.com/users/kuldeepaggarwal",
    "html_url": "https://github.com/kuldeepaggarwal",
    "followers_url": "https://api.github.com/users/kuldeepaggarwal/followers",
    "following_url": "https://api.github.com/users/kuldeepaggarwal/following{/other_user}",
    "gists_url": "https://api.github.com/users/kuldeepaggarwal/gists{/gist_id}",
    "starred_url": "https://api.github.com/users/kuldeepaggarwal/starred{/owner}{/repo}",
    "subscriptions_url": "https://api.github.com/users/kuldeepaggarwal/subscriptions",
    "organizations_url": "https://api.github.com/users/kuldeepaggarwal/orgs",
    "repos_url": "https://api.github.com/users/kuldeepaggarwal/repos",
    "events_url": "https://api.github.com/users/kuldeepaggarwal/events{/privacy}",
    "received_events_url": "https://api.github.com/users/kuldeepaggarwal/received_events",
    "type": "User",
    "site_admin": false
  },
  "created_at": "2014-09-03T14:54:07Z",
  "updated_at": "2014-09-03T14:54:07Z",
  "body": "Thanks :thumbsup: "
}
, {
  "url": "https://api.github.com/repos/collectiveidea/awesome_nested_set/issues/comments/68649628",
  "html_url": "https://github.com/collectiveidea/awesome_nested_set/pull/279#issuecomment-68649628",
  "issue_url": "https://api.github.com/repos/collectiveidea/awesome_nested_set/issues/279",
  "id": 68649628,
  "user": {
    "login": "jaredbeck",
    "id": 380809,
    "avatar_url": "https://avatars.githubusercontent.com/u/380809?v=3",
    "gravatar_id": "",
    "url": "https://api.github.com/users/jaredbeck",
    "html_url": "https://github.com/jaredbeck",
    "followers_url": "https://api.github.com/users/jaredbeck/followers",
    "following_url": "https://api.github.com/users/jaredbeck/following{/other_user}",
    "gists_url": "https://api.github.com/users/jaredbeck/gists{/gist_id}",
    "starred_url": "https://api.github.com/users/jaredbeck/starred{/owner}{/repo}",
    "subscriptions_url": "https://api.github.com/users/jaredbeck/subscriptions",
    "organizations_url": "https://api.github.com/users/jaredbeck/orgs",
    "repos_url": "https://api.github.com/users/jaredbeck/repos",
    "events_url": "https://api.github.com/users/jaredbeck/events{/privacy}",
    "received_events_url": "https://api.github.com/users/jaredbeck/received_events",
    "type": "User",
    "site_admin": false
  },
  "created_at": "2015-01-04T21:23:36Z",
  "updated_at": "2015-01-04T21:23:36Z",
  "body": "@parndt I've rebased, and changed the compare link."
}
]
