[
{
  "url": "https://api.github.com/repos/mongodb/mongoid/issues/comments/9304677",
  "html_url": "https://github.com/mongodb/mongoid/pull/2444#issuecomment-9304677",
  "issue_url": "https://api.github.com/repos/mongodb/mongoid/issues/2444",
  "id": 9304677,
  "user": {
    "login": "durran",
    "id": 9030,
    "avatar_url": "https://avatars.githubusercontent.com/u/9030?v=3",
    "gravatar_id": "",
    "url": "https://api.github.com/users/durran",
    "html_url": "https://github.com/durran",
    "followers_url": "https://api.github.com/users/durran/followers",
    "following_url": "https://api.github.com/users/durran/following{/other_user}",
    "gists_url": "https://api.github.com/users/durran/gists{/gist_id}",
    "starred_url": "https://api.github.com/users/durran/starred{/owner}{/repo}",
    "subscriptions_url": "https://api.github.com/users/durran/subscriptions",
    "organizations_url": "https://api.github.com/users/durran/orgs",
    "repos_url": "https://api.github.com/users/durran/repos",
    "events_url": "https://api.github.com/users/durran/events{/privacy}",
    "received_events_url": "https://api.github.com/users/durran/received_events",
    "type": "User",
    "site_admin": false
  },
  "created_at": "2012-10-10T14:23:50Z",
  "updated_at": "2012-10-10T14:23:50Z",
  "body": "Pulled in, thanks again."
}
]
