[
{
  "url": "https://api.github.com/repos/Automattic/jetpack/issues/comments/55197654",
  "html_url": "https://github.com/Automattic/jetpack/pull/989#issuecomment-55197654",
  "issue_url": "https://api.github.com/repos/Automattic/jetpack/issues/989",
  "id": 55197654,
  "user": {
    "login": "enejb",
    "id": 115071,
    "avatar_url": "https://avatars.githubusercontent.com/u/115071?v=3",
    "gravatar_id": "",
    "url": "https://api.github.com/users/enejb",
    "html_url": "https://github.com/enejb",
    "followers_url": "https://api.github.com/users/enejb/followers",
    "following_url": "https://api.github.com/users/enejb/following{/other_user}",
    "gists_url": "https://api.github.com/users/enejb/gists{/gist_id}",
    "starred_url": "https://api.github.com/users/enejb/starred{/owner}{/repo}",
    "subscriptions_url": "https://api.github.com/users/enejb/subscriptions",
    "organizations_url": "https://api.github.com/users/enejb/orgs",
    "repos_url": "https://api.github.com/users/enejb/repos",
    "events_url": "https://api.github.com/users/enejb/events{/privacy}",
    "received_events_url": "https://api.github.com/users/enejb/received_events",
    "type": "User",
    "site_admin": false
  },
  "created_at": "2014-09-10T23:07:25Z",
  "updated_at": "2014-09-10T23:07:25Z",
  "body": "I like what they are doing to include the styles and css. I think we should so some tests to see how this affects page loading. In terms of php performance. \r\nMight be a good way to do this across more of the shortcodes. \r\n\r\n@georgestephanis Should this be included in Jetpack? Where else do we need to make changes so that we make users aware of this shortcode? Even if we add it if users are not able to discover it what is the point then. @jeherve Are users asking of this shortcode by trying to use it since it is available on WP.com? \r\n"
}
, {
  "url": "https://api.github.com/repos/Automattic/jetpack/issues/comments/55203874",
  "html_url": "https://github.com/Automattic/jetpack/pull/989#issuecomment-55203874",
  "issue_url": "https://api.github.com/repos/Automattic/jetpack/issues/989",
  "id": 55203874,
  "user": {
    "login": "kraftbj",
    "id": 88897,
    "avatar_url": "https://avatars.githubusercontent.com/u/88897?v=3",
    "gravatar_id": "",
    "url": "https://api.github.com/users/kraftbj",
    "html_url": "https://github.com/kraftbj",
    "followers_url": "https://api.github.com/users/kraftbj/followers",
    "following_url": "https://api.github.com/users/kraftbj/following{/other_user}",
    "gists_url": "https://api.github.com/users/kraftbj/gists{/gist_id}",
    "starred_url": "https://api.github.com/users/kraftbj/starred{/owner}{/repo}",
    "subscriptions_url": "https://api.github.com/users/kraftbj/subscriptions",
    "organizations_url": "https://api.github.com/users/kraftbj/orgs",
    "repos_url": "https://api.github.com/users/kraftbj/repos",
    "events_url": "https://api.github.com/users/kraftbj/events{/privacy}",
    "received_events_url": "https://api.github.com/users/kraftbj/received_events",
    "type": "User",
    "site_admin": false
  },
  "created_at": "2014-09-11T00:25:28Z",
  "updated_at": "2014-09-11T00:25:28Z",
  "body": "One area is Guided Transfers from WP.com to .org are having to band-aid\r\nsites using this since it isn't in JP yet.\r\nOn Sep 10, 2014 6:07 PM, \"enejb\" <notifications@github.com> wrote:\r\n\r\n> I like what they are doing to include the styles and css. I think we\r\n> should so some tests to see how this affects page loading. In terms of php\r\n> performance.\r\n> Might be a good way to do this across more of the shortcodes.\r\n>\r\n> @georgestephanis <https://github.com/georgestephanis> Should this be\r\n> included in Jetpack? Where else do we need to make changes so that we make\r\n> users aware of this shortcode? Even if we add it if users are not able to\r\n> discover it what is the point then. @jeherve <https://github.com/jeherve>\r\n> Are users asking of this shortcode by trying to use it since it is\r\n> available on WP.com?\r\n>\r\n> —\r\n> Reply to this email directly or view it on GitHub\r\n> <https://github.com/Automattic/jetpack/pull/989#issuecomment-55197654>.\r\n>"
}
, {
  "url": "https://api.github.com/repos/Automattic/jetpack/issues/comments/55208094",
  "html_url": "https://github.com/Automattic/jetpack/pull/989#issuecomment-55208094",
  "issue_url": "https://api.github.com/repos/Automattic/jetpack/issues/989",
  "id": 55208094,
  "user": {
    "login": "georgestephanis",
    "id": 941023,
    "avatar_url": "https://avatars.githubusercontent.com/u/941023?v=3",
    "gravatar_id": "",
    "url": "https://api.github.com/users/georgestephanis",
    "html_url": "https://github.com/georgestephanis",
    "followers_url": "https://api.github.com/users/georgestephanis/followers",
    "following_url": "https://api.github.com/users/georgestephanis/following{/other_user}",
    "gists_url": "https://api.github.com/users/georgestephanis/gists{/gist_id}",
    "starred_url": "https://api.github.com/users/georgestephanis/starred{/owner}{/repo}",
    "subscriptions_url": "https://api.github.com/users/georgestephanis/subscriptions",
    "organizations_url": "https://api.github.com/users/georgestephanis/orgs",
    "repos_url": "https://api.github.com/users/georgestephanis/repos",
    "events_url": "https://api.github.com/users/georgestephanis/events{/privacy}",
    "received_events_url": "https://api.github.com/users/georgestephanis/received_events",
    "type": "User",
    "site_admin": false
  },
  "created_at": "2014-09-11T01:30:34Z",
  "updated_at": "2014-09-11T01:30:34Z",
  "body": "Yes, it should be in Jetpack.  Let's get it tested and merged."
}
, {
  "url": "https://api.github.com/repos/Automattic/jetpack/issues/comments/171410307",
  "html_url": "https://github.com/Automattic/jetpack/pull/989#issuecomment-171410307",
  "issue_url": "https://api.github.com/repos/Automattic/jetpack/issues/989",
  "id": 171410307,
  "user": {
    "login": "jasonday",
    "id": 748011,
    "avatar_url": "https://avatars.githubusercontent.com/u/748011?v=3",
    "gravatar_id": "",
    "url": "https://api.github.com/users/jasonday",
    "html_url": "https://github.com/jasonday",
    "followers_url": "https://api.github.com/users/jasonday/followers",
    "following_url": "https://api.github.com/users/jasonday/following{/other_user}",
    "gists_url": "https://api.github.com/users/jasonday/gists{/gist_id}",
    "starred_url": "https://api.github.com/users/jasonday/starred{/owner}{/repo}",
    "subscriptions_url": "https://api.github.com/users/jasonday/subscriptions",
    "organizations_url": "https://api.github.com/users/jasonday/orgs",
    "repos_url": "https://api.github.com/users/jasonday/repos",
    "events_url": "https://api.github.com/users/jasonday/events{/privacy}",
    "received_events_url": "https://api.github.com/users/jasonday/received_events",
    "type": "User",
    "site_admin": false
  },
  "created_at": "2016-01-13T19:40:27Z",
  "updated_at": "2016-01-13T19:40:27Z",
  "body": "Let me know if I can offer any assistance, or if you need WP specific considerations for printThis. I have been looking to refactor printThis, and am interested in any feedback/issues you have received from users. "
}
, {
  "url": "https://api.github.com/repos/Automattic/jetpack/issues/comments/171418393",
  "html_url": "https://github.com/Automattic/jetpack/pull/989#issuecomment-171418393",
  "issue_url": "https://api.github.com/repos/Automattic/jetpack/issues/989",
  "id": 171418393,
  "user": {
    "login": "jeherve",
    "id": 426388,
    "avatar_url": "https://avatars.githubusercontent.com/u/426388?v=3",
    "gravatar_id": "",
    "url": "https://api.github.com/users/jeherve",
    "html_url": "https://github.com/jeherve",
    "followers_url": "https://api.github.com/users/jeherve/followers",
    "following_url": "https://api.github.com/users/jeherve/following{/other_user}",
    "gists_url": "https://api.github.com/users/jeherve/gists{/gist_id}",
    "starred_url": "https://api.github.com/users/jeherve/starred{/owner}{/repo}",
    "subscriptions_url": "https://api.github.com/users/jeherve/subscriptions",
    "organizations_url": "https://api.github.com/users/jeherve/orgs",
    "repos_url": "https://api.github.com/users/jeherve/repos",
    "events_url": "https://api.github.com/users/jeherve/events{/privacy}",
    "received_events_url": "https://api.github.com/users/jeherve/received_events",
    "type": "User",
    "site_admin": false
  },
  "created_at": "2016-01-13T20:09:30Z",
  "updated_at": "2016-01-13T20:09:30Z",
  "body": "@jasonday Thanks for your work with printThis! :)\r\n\r\nWe didn't get reports of issues but if you're looking refactor printThis, i might be worth taking a look at the small changes I had done when we first introduced it to Jetpack:\r\nhttps://github.com/Automattic/jetpack/blob/master/modules%2Fshortcodes%2Fjs%2Frecipes-printthis.js"
}
, {
  "url": "https://api.github.com/repos/Automattic/jetpack/issues/comments/171480976",
  "html_url": "https://github.com/Automattic/jetpack/pull/989#issuecomment-171480976",
  "issue_url": "https://api.github.com/repos/Automattic/jetpack/issues/989",
  "id": 171480976,
  "user": {
    "login": "jasonday",
    "id": 748011,
    "avatar_url": "https://avatars.githubusercontent.com/u/748011?v=3",
    "gravatar_id": "",
    "url": "https://api.github.com/users/jasonday",
    "html_url": "https://github.com/jasonday",
    "followers_url": "https://api.github.com/users/jasonday/followers",
    "following_url": "https://api.github.com/users/jasonday/following{/other_user}",
    "gists_url": "https://api.github.com/users/jasonday/gists{/gist_id}",
    "starred_url": "https://api.github.com/users/jasonday/starred{/owner}{/repo}",
    "subscriptions_url": "https://api.github.com/users/jasonday/subscriptions",
    "organizations_url": "https://api.github.com/users/jasonday/orgs",
    "repos_url": "https://api.github.com/users/jasonday/repos",
    "events_url": "https://api.github.com/users/jasonday/events{/privacy}",
    "received_events_url": "https://api.github.com/users/jasonday/received_events",
    "type": "User",
    "site_admin": false
  },
  "created_at": "2016-01-14T00:18:10Z",
  "updated_at": "2016-01-14T00:18:10Z",
  "body": "@rase & @jeherve - do you remember any background on the IE change mentioned above:\r\n\r\n > @rase- had to jump in and help me with the IE hack on line 42\r\n\r\nYour version:\r\n```javascript\r\nvar iframeContents = '<head><script>document.domain=\\\\\\'' + document.domain + '\\\\\\';</script></head><body></body>';\r\nvar iframeSrc = 'data:text/html;charset=utf-8,' + encodeURI(iframeContents);\r\n```\r\n\r\nprintThis current version:\r\n```javascript\r\n var iframeSrc = \"javascript:document.write(\\\"<head><script>document.domain=\\\\\\\"\" + document.domain + \"\\\\\\\";</script></head><body></body>\\\")\";\r\n```\r\n\r\n\r\nThanks!"
}
, {
  "url": "https://api.github.com/repos/Automattic/jetpack/issues/comments/171760502",
  "html_url": "https://github.com/Automattic/jetpack/pull/989#issuecomment-171760502",
  "issue_url": "https://api.github.com/repos/Automattic/jetpack/issues/989",
  "id": 171760502,
  "user": {
    "login": "jeherve",
    "id": 426388,
    "avatar_url": "https://avatars.githubusercontent.com/u/426388?v=3",
    "gravatar_id": "",
    "url": "https://api.github.com/users/jeherve",
    "html_url": "https://github.com/jeherve",
    "followers_url": "https://api.github.com/users/jeherve/followers",
    "following_url": "https://api.github.com/users/jeherve/following{/other_user}",
    "gists_url": "https://api.github.com/users/jeherve/gists{/gist_id}",
    "starred_url": "https://api.github.com/users/jeherve/starred{/owner}{/repo}",
    "subscriptions_url": "https://api.github.com/users/jeherve/subscriptions",
    "organizations_url": "https://api.github.com/users/jeherve/orgs",
    "repos_url": "https://api.github.com/users/jeherve/repos",
    "events_url": "https://api.github.com/users/jeherve/events{/privacy}",
    "received_events_url": "https://api.github.com/users/jeherve/received_events",
    "type": "User",
    "site_admin": false
  },
  "created_at": "2016-01-14T19:52:28Z",
  "updated_at": "2016-01-14T19:52:28Z",
  "body": "@jasonday I'm afraid I don't remember, sorry. :/"
}
]
