[
{
  "url": "https://api.github.com/repos/Automattic/jetpack/issues/comments/151188988",
  "html_url": "https://github.com/Automattic/jetpack/issues/2892#issuecomment-151188988",
  "issue_url": "https://api.github.com/repos/Automattic/jetpack/issues/2892",
  "id": 151188988,
  "user": {
    "login": "jeherve",
    "id": 426388,
    "avatar_url": "https://avatars.githubusercontent.com/u/426388?v=3",
    "gravatar_id": "",
    "url": "https://api.github.com/users/jeherve",
    "html_url": "https://github.com/jeherve",
    "followers_url": "https://api.github.com/users/jeherve/followers",
    "following_url": "https://api.github.com/users/jeherve/following{/other_user}",
    "gists_url": "https://api.github.com/users/jeherve/gists{/gist_id}",
    "starred_url": "https://api.github.com/users/jeherve/starred{/owner}{/repo}",
    "subscriptions_url": "https://api.github.com/users/jeherve/subscriptions",
    "organizations_url": "https://api.github.com/users/jeherve/orgs",
    "repos_url": "https://api.github.com/users/jeherve/repos",
    "events_url": "https://api.github.com/users/jeherve/events{/privacy}",
    "received_events_url": "https://api.github.com/users/jeherve/received_events",
    "type": "User",
    "site_admin": false
  },
  "created_at": "2015-10-26T16:06:54Z",
  "updated_at": "2015-10-26T16:07:04Z",
  "body": "It's currently not possible to change that text. We'll make sure it's consistent, though, and will see about updating the Facebook sharing message to match the other Sharing services.\r\n\r\nThanks for the report!"
}
, {
  "url": "https://api.github.com/repos/Automattic/jetpack/issues/comments/151727143",
  "html_url": "https://github.com/Automattic/jetpack/issues/2892#issuecomment-151727143",
  "issue_url": "https://api.github.com/repos/Automattic/jetpack/issues/2892",
  "id": 151727143,
  "user": {
    "login": "misfist",
    "id": 709248,
    "avatar_url": "https://avatars.githubusercontent.com/u/709248?v=3",
    "gravatar_id": "",
    "url": "https://api.github.com/users/misfist",
    "html_url": "https://github.com/misfist",
    "followers_url": "https://api.github.com/users/misfist/followers",
    "following_url": "https://api.github.com/users/misfist/following{/other_user}",
    "gists_url": "https://api.github.com/users/misfist/gists{/gist_id}",
    "starred_url": "https://api.github.com/users/misfist/starred{/owner}{/repo}",
    "subscriptions_url": "https://api.github.com/users/misfist/subscriptions",
    "organizations_url": "https://api.github.com/users/misfist/orgs",
    "repos_url": "https://api.github.com/users/misfist/repos",
    "events_url": "https://api.github.com/users/misfist/events{/privacy}",
    "received_events_url": "https://api.github.com/users/misfist/received_events",
    "type": "User",
    "site_admin": false
  },
  "created_at": "2015-10-28T05:14:27Z",
  "updated_at": "2015-10-28T05:14:27Z",
  "body": "Thanks for the response. It would be nice to have a hook that could be used to change the text. :)"
}
, {
  "url": "https://api.github.com/repos/Automattic/jetpack/issues/comments/151825675",
  "html_url": "https://github.com/Automattic/jetpack/issues/2892#issuecomment-151825675",
  "issue_url": "https://api.github.com/repos/Automattic/jetpack/issues/2892",
  "id": 151825675,
  "user": {
    "login": "jeherve",
    "id": 426388,
    "avatar_url": "https://avatars.githubusercontent.com/u/426388?v=3",
    "gravatar_id": "",
    "url": "https://api.github.com/users/jeherve",
    "html_url": "https://github.com/jeherve",
    "followers_url": "https://api.github.com/users/jeherve/followers",
    "following_url": "https://api.github.com/users/jeherve/following{/other_user}",
    "gists_url": "https://api.github.com/users/jeherve/gists{/gist_id}",
    "starred_url": "https://api.github.com/users/jeherve/starred{/owner}{/repo}",
    "subscriptions_url": "https://api.github.com/users/jeherve/subscriptions",
    "organizations_url": "https://api.github.com/users/jeherve/orgs",
    "repos_url": "https://api.github.com/users/jeherve/repos",
    "events_url": "https://api.github.com/users/jeherve/events{/privacy}",
    "received_events_url": "https://api.github.com/users/jeherve/received_events",
    "type": "User",
    "site_admin": false
  },
  "created_at": "2015-10-28T12:11:54Z",
  "updated_at": "2015-10-28T12:11:54Z",
  "body": "You can already use the `jetpack_sharing_display_text` to do just that! I'd also recommend using the `jetpack_sharing_display_title` filter as well, to change the `title` parameter of the link, like so:\r\n\r\n```php\r\nfunction jetpack_developer_custom_sharing_text( $title, $this, $id, $args ) {\r\n        return 'Spread the word!';\r\n}\r\nadd_filter( 'jetpack_sharing_display_title', 'jetpack_developer_custom_sharing_text', 20, 4 );\r\nadd_filter( 'jetpack_sharing_display_text', 'jetpack_developer_custom_sharing_text', 20, 4 );\r\n```"
}
, {
  "url": "https://api.github.com/repos/Automattic/jetpack/issues/comments/151962874",
  "html_url": "https://github.com/Automattic/jetpack/issues/2892#issuecomment-151962874",
  "issue_url": "https://api.github.com/repos/Automattic/jetpack/issues/2892",
  "id": 151962874,
  "user": {
    "login": "misfist",
    "id": 709248,
    "avatar_url": "https://avatars.githubusercontent.com/u/709248?v=3",
    "gravatar_id": "",
    "url": "https://api.github.com/users/misfist",
    "html_url": "https://github.com/misfist",
    "followers_url": "https://api.github.com/users/misfist/followers",
    "following_url": "https://api.github.com/users/misfist/following{/other_user}",
    "gists_url": "https://api.github.com/users/misfist/gists{/gist_id}",
    "starred_url": "https://api.github.com/users/misfist/starred{/owner}{/repo}",
    "subscriptions_url": "https://api.github.com/users/misfist/subscriptions",
    "organizations_url": "https://api.github.com/users/misfist/orgs",
    "repos_url": "https://api.github.com/users/misfist/repos",
    "events_url": "https://api.github.com/users/misfist/events{/privacy}",
    "received_events_url": "https://api.github.com/users/misfist/received_events",
    "type": "User",
    "site_admin": false
  },
  "created_at": "2015-10-28T19:21:51Z",
  "updated_at": "2015-10-28T19:21:51Z",
  "body": "Great!\r\n\r\nI implemented it with the following:\r\n\r\n```php\r\nfunction jetpack_developer_custom_sharing_text( $text, $this, $id, $args ) {\r\n\r\n  switch ( true ) {\r\n    case ( 'sharing-twitter-650' == $id ):\r\n      $text = 'Share on Twitter';\r\n      break;\r\n    case ( 'sharing-facebook-650' == $id ):\r\n      $text = 'Share on Facebook';\r\n      break;\r\n    default:\r\n      $text = $text;\r\n  }\r\n  return $text;\r\n}\r\nadd_filter( 'jetpack_sharing_display_text', 'jetpack_developer_custom_sharing_text', 20, 4 );\r\n```"
}
]
