[
{
  "url": "https://api.github.com/repos/adafruit/Adafruit_MMA8451_Library/issues/comments/85473619",
  "html_url": "https://github.com/adafruit/Adafruit_MMA8451_Library/issues/5#issuecomment-85473619",
  "issue_url": "https://api.github.com/repos/adafruit/Adafruit_MMA8451_Library/issues/5",
  "id": 85473619,
  "user": {
    "login": "microbuilder",
    "id": 181073,
    "avatar_url": "https://avatars.githubusercontent.com/u/181073?v=3",
    "gravatar_id": "",
    "url": "https://api.github.com/users/microbuilder",
    "html_url": "https://github.com/microbuilder",
    "followers_url": "https://api.github.com/users/microbuilder/followers",
    "following_url": "https://api.github.com/users/microbuilder/following{/other_user}",
    "gists_url": "https://api.github.com/users/microbuilder/gists{/gist_id}",
    "starred_url": "https://api.github.com/users/microbuilder/starred{/owner}{/repo}",
    "subscriptions_url": "https://api.github.com/users/microbuilder/subscriptions",
    "organizations_url": "https://api.github.com/users/microbuilder/orgs",
    "repos_url": "https://api.github.com/users/microbuilder/repos",
    "events_url": "https://api.github.com/users/microbuilder/events{/privacy}",
    "received_events_url": "https://api.github.com/users/microbuilder/received_events",
    "type": "User",
    "site_admin": false
  },
  "created_at": "2015-03-24T12:15:36Z",
  "updated_at": "2015-03-24T12:15:36Z",
  "body": "See this issue for details: https://github.com/adafruit/Adafruit_MMA8451_Library/issues/4"
}
, {
  "url": "https://api.github.com/repos/adafruit/Adafruit_MMA8451_Library/issues/comments/85540338",
  "html_url": "https://github.com/adafruit/Adafruit_MMA8451_Library/issues/5#issuecomment-85540338",
  "issue_url": "https://api.github.com/repos/adafruit/Adafruit_MMA8451_Library/issues/5",
  "id": 85540338,
  "user": {
    "login": "WillyKirsch",
    "id": 9601026,
    "avatar_url": "https://avatars.githubusercontent.com/u/9601026?v=3",
    "gravatar_id": "",
    "url": "https://api.github.com/users/WillyKirsch",
    "html_url": "https://github.com/WillyKirsch",
    "followers_url": "https://api.github.com/users/WillyKirsch/followers",
    "following_url": "https://api.github.com/users/WillyKirsch/following{/other_user}",
    "gists_url": "https://api.github.com/users/WillyKirsch/gists{/gist_id}",
    "starred_url": "https://api.github.com/users/WillyKirsch/starred{/owner}{/repo}",
    "subscriptions_url": "https://api.github.com/users/WillyKirsch/subscriptions",
    "organizations_url": "https://api.github.com/users/WillyKirsch/orgs",
    "repos_url": "https://api.github.com/users/WillyKirsch/repos",
    "events_url": "https://api.github.com/users/WillyKirsch/events{/privacy}",
    "received_events_url": "https://api.github.com/users/WillyKirsch/received_events",
    "type": "User",
    "site_admin": false
  },
  "created_at": "2015-03-24T14:57:02Z",
  "updated_at": "2015-03-24T14:57:02Z",
  "body": "Thank you!! I missed to update adafruit sensor library... :P"
}
]
