[
{
  "url": "https://api.github.com/repos/thoughtbot/clearance/issues/comments/35752211",
  "html_url": "https://github.com/thoughtbot/clearance/pull/401#issuecomment-35752211",
  "issue_url": "https://api.github.com/repos/thoughtbot/clearance/issues/401",
  "id": 35752211,
  "user": {
    "login": "croaky",
    "id": 198,
    "avatar_url": "https://avatars.githubusercontent.com/u/198?v=3",
    "gravatar_id": "",
    "url": "https://api.github.com/users/croaky",
    "html_url": "https://github.com/croaky",
    "followers_url": "https://api.github.com/users/croaky/followers",
    "following_url": "https://api.github.com/users/croaky/following{/other_user}",
    "gists_url": "https://api.github.com/users/croaky/gists{/gist_id}",
    "starred_url": "https://api.github.com/users/croaky/starred{/owner}{/repo}",
    "subscriptions_url": "https://api.github.com/users/croaky/subscriptions",
    "organizations_url": "https://api.github.com/users/croaky/orgs",
    "repos_url": "https://api.github.com/users/croaky/repos",
    "events_url": "https://api.github.com/users/croaky/events{/privacy}",
    "received_events_url": "https://api.github.com/users/croaky/received_events",
    "type": "User",
    "site_admin": false
  },
  "created_at": "2014-02-21T17:22:35Z",
  "updated_at": "2014-02-21T17:22:35Z",
  "body": "Nice. Is there any spec coverage we can add?"
}
, {
  "url": "https://api.github.com/repos/thoughtbot/clearance/issues/comments/35765361",
  "html_url": "https://github.com/thoughtbot/clearance/pull/401#issuecomment-35765361",
  "issue_url": "https://api.github.com/repos/thoughtbot/clearance/issues/401",
  "id": 35765361,
  "user": {
    "login": "gylaz",
    "id": 116327,
    "avatar_url": "https://avatars.githubusercontent.com/u/116327?v=3",
    "gravatar_id": "",
    "url": "https://api.github.com/users/gylaz",
    "html_url": "https://github.com/gylaz",
    "followers_url": "https://api.github.com/users/gylaz/followers",
    "following_url": "https://api.github.com/users/gylaz/following{/other_user}",
    "gists_url": "https://api.github.com/users/gylaz/gists{/gist_id}",
    "starred_url": "https://api.github.com/users/gylaz/starred{/owner}{/repo}",
    "subscriptions_url": "https://api.github.com/users/gylaz/subscriptions",
    "organizations_url": "https://api.github.com/users/gylaz/orgs",
    "repos_url": "https://api.github.com/users/gylaz/repos",
    "events_url": "https://api.github.com/users/gylaz/events{/privacy}",
    "received_events_url": "https://api.github.com/users/gylaz/received_events",
    "type": "User",
    "site_admin": false
  },
  "created_at": "2014-02-21T19:38:46Z",
  "updated_at": "2014-02-21T19:38:46Z",
  "body": "Any idea why TravisCI is failing?"
}
, {
  "url": "https://api.github.com/repos/thoughtbot/clearance/issues/comments/35766558",
  "html_url": "https://github.com/thoughtbot/clearance/pull/401#issuecomment-35766558",
  "issue_url": "https://api.github.com/repos/thoughtbot/clearance/issues/401",
  "id": 35766558,
  "user": {
    "login": "derekprior",
    "id": 152152,
    "avatar_url": "https://avatars.githubusercontent.com/u/152152?v=3",
    "gravatar_id": "",
    "url": "https://api.github.com/users/derekprior",
    "html_url": "https://github.com/derekprior",
    "followers_url": "https://api.github.com/users/derekprior/followers",
    "following_url": "https://api.github.com/users/derekprior/following{/other_user}",
    "gists_url": "https://api.github.com/users/derekprior/gists{/gist_id}",
    "starred_url": "https://api.github.com/users/derekprior/starred{/owner}{/repo}",
    "subscriptions_url": "https://api.github.com/users/derekprior/subscriptions",
    "organizations_url": "https://api.github.com/users/derekprior/orgs",
    "repos_url": "https://api.github.com/users/derekprior/repos",
    "events_url": "https://api.github.com/users/derekprior/events{/privacy}",
    "received_events_url": "https://api.github.com/users/derekprior/received_events",
    "type": "User",
    "site_admin": false
  },
  "created_at": "2014-02-21T19:51:18Z",
  "updated_at": "2014-02-21T19:51:18Z",
  "body": "@croaky - It looks like there's no explicit coverage for the flash message when the default sign in guard fails. I can try to add that, but I don't think I'd bother testing it with sign up disabled since the guard itself no longer cares.\r\n\r\n@gylaz - nope. Works fine locally. Something about the features not being able to find jbuilder. Really odd..."
}
, {
  "url": "https://api.github.com/repos/thoughtbot/clearance/issues/comments/35771914",
  "html_url": "https://github.com/thoughtbot/clearance/pull/401#issuecomment-35771914",
  "issue_url": "https://api.github.com/repos/thoughtbot/clearance/issues/401",
  "id": 35771914,
  "user": {
    "login": "derekprior",
    "id": 152152,
    "avatar_url": "https://avatars.githubusercontent.com/u/152152?v=3",
    "gravatar_id": "",
    "url": "https://api.github.com/users/derekprior",
    "html_url": "https://github.com/derekprior",
    "followers_url": "https://api.github.com/users/derekprior/followers",
    "following_url": "https://api.github.com/users/derekprior/following{/other_user}",
    "gists_url": "https://api.github.com/users/derekprior/gists{/gist_id}",
    "starred_url": "https://api.github.com/users/derekprior/starred{/owner}{/repo}",
    "subscriptions_url": "https://api.github.com/users/derekprior/subscriptions",
    "organizations_url": "https://api.github.com/users/derekprior/orgs",
    "repos_url": "https://api.github.com/users/derekprior/repos",
    "events_url": "https://api.github.com/users/derekprior/events{/privacy}",
    "received_events_url": "https://api.github.com/users/derekprior/received_events",
    "type": "User",
    "site_admin": false
  },
  "created_at": "2014-02-21T20:48:21Z",
  "updated_at": "2014-02-21T20:48:21Z",
  "body": "@croaky I added test coverage to DefaultSignInGaurd.\r\n@gylaz I sorted and formatted the i18n yaml file.\r\n\r\nLooking into why travis is failing. Perhaps it won't this time..."
}
, {
  "url": "https://api.github.com/repos/thoughtbot/clearance/issues/comments/35772631",
  "html_url": "https://github.com/thoughtbot/clearance/pull/401#issuecomment-35772631",
  "issue_url": "https://api.github.com/repos/thoughtbot/clearance/issues/401",
  "id": 35772631,
  "user": {
    "login": "calebthompson",
    "id": 711717,
    "avatar_url": "https://avatars.githubusercontent.com/u/711717?v=3",
    "gravatar_id": "",
    "url": "https://api.github.com/users/calebthompson",
    "html_url": "https://github.com/calebthompson",
    "followers_url": "https://api.github.com/users/calebthompson/followers",
    "following_url": "https://api.github.com/users/calebthompson/following{/other_user}",
    "gists_url": "https://api.github.com/users/calebthompson/gists{/gist_id}",
    "starred_url": "https://api.github.com/users/calebthompson/starred{/owner}{/repo}",
    "subscriptions_url": "https://api.github.com/users/calebthompson/subscriptions",
    "organizations_url": "https://api.github.com/users/calebthompson/orgs",
    "repos_url": "https://api.github.com/users/calebthompson/repos",
    "events_url": "https://api.github.com/users/calebthompson/events{/privacy}",
    "received_events_url": "https://api.github.com/users/calebthompson/received_events",
    "type": "User",
    "site_admin": false
  },
  "created_at": "2014-02-21T20:56:06Z",
  "updated_at": "2014-02-21T20:56:06Z",
  "body": "lgtm once you can make Travis pass."
}
, {
  "url": "https://api.github.com/repos/thoughtbot/clearance/issues/comments/35791158",
  "html_url": "https://github.com/thoughtbot/clearance/pull/401#issuecomment-35791158",
  "issue_url": "https://api.github.com/repos/thoughtbot/clearance/issues/401",
  "id": 35791158,
  "user": {
    "login": "croaky",
    "id": 198,
    "avatar_url": "https://avatars.githubusercontent.com/u/198?v=3",
    "gravatar_id": "",
    "url": "https://api.github.com/users/croaky",
    "html_url": "https://github.com/croaky",
    "followers_url": "https://api.github.com/users/croaky/followers",
    "following_url": "https://api.github.com/users/croaky/following{/other_user}",
    "gists_url": "https://api.github.com/users/croaky/gists{/gist_id}",
    "starred_url": "https://api.github.com/users/croaky/starred{/owner}{/repo}",
    "subscriptions_url": "https://api.github.com/users/croaky/subscriptions",
    "organizations_url": "https://api.github.com/users/croaky/orgs",
    "repos_url": "https://api.github.com/users/croaky/repos",
    "events_url": "https://api.github.com/users/croaky/events{/privacy}",
    "received_events_url": "https://api.github.com/users/croaky/received_events",
    "type": "User",
    "site_admin": false
  },
  "created_at": "2014-02-22T01:47:21Z",
  "updated_at": "2014-02-22T01:47:21Z",
  "body": "lgtm\r\n\r\nThe g is for \"great.\""
}
]
