[
{
  "url": "https://api.github.com/repos/owncloud/client/issues/comments/17434973",
  "html_url": "https://github.com/owncloud/client/issues/601#issuecomment-17434973",
  "issue_url": "https://api.github.com/repos/owncloud/client/issues/601",
  "id": 17434973,
  "user": {
    "login": "danimo",
    "id": 1315934,
    "avatar_url": "https://avatars.githubusercontent.com/u/1315934?v=3",
    "gravatar_id": "",
    "url": "https://api.github.com/users/danimo",
    "html_url": "https://github.com/danimo",
    "followers_url": "https://api.github.com/users/danimo/followers",
    "following_url": "https://api.github.com/users/danimo/following{/other_user}",
    "gists_url": "https://api.github.com/users/danimo/gists{/gist_id}",
    "starred_url": "https://api.github.com/users/danimo/starred{/owner}{/repo}",
    "subscriptions_url": "https://api.github.com/users/danimo/subscriptions",
    "organizations_url": "https://api.github.com/users/danimo/orgs",
    "repos_url": "https://api.github.com/users/danimo/repos",
    "events_url": "https://api.github.com/users/danimo/events{/privacy}",
    "received_events_url": "https://api.github.com/users/danimo/received_events",
    "type": "User",
    "site_admin": false
  },
  "created_at": "2013-05-04T15:21:23Z",
  "updated_at": "2013-05-04T15:21:23Z",
  "body": "Is that flickering icon the sync icon? If that is so, then it actually tries to sync, but fails because something went wrong. Can you run with `--logwindow` and check for suspicious output?"
}
, {
  "url": "https://api.github.com/repos/owncloud/client/issues/comments/17435747",
  "html_url": "https://github.com/owncloud/client/issues/601#issuecomment-17435747",
  "issue_url": "https://api.github.com/repos/owncloud/client/issues/601",
  "id": 17435747,
  "user": {
    "login": "allo-",
    "id": 1482341,
    "avatar_url": "https://avatars.githubusercontent.com/u/1482341?v=3",
    "gravatar_id": "",
    "url": "https://api.github.com/users/allo-",
    "html_url": "https://github.com/allo-",
    "followers_url": "https://api.github.com/users/allo-/followers",
    "following_url": "https://api.github.com/users/allo-/following{/other_user}",
    "gists_url": "https://api.github.com/users/allo-/gists{/gist_id}",
    "starred_url": "https://api.github.com/users/allo-/starred{/owner}{/repo}",
    "subscriptions_url": "https://api.github.com/users/allo-/subscriptions",
    "organizations_url": "https://api.github.com/users/allo-/orgs",
    "repos_url": "https://api.github.com/users/allo-/repos",
    "events_url": "https://api.github.com/users/allo-/events{/privacy}",
    "received_events_url": "https://api.github.com/users/allo-/received_events",
    "type": "User",
    "site_admin": false
  },
  "created_at": "2013-05-04T15:33:32Z",
  "updated_at": "2013-05-04T15:33:32Z",
  "body": "the cloud with a checkmark flickers for a moment, but displays then a cloud with a checkmark again. So i assumed there is no error, but it just re-displays the icon instead of leaving it unchanged or something like this.\r\n\r\nlog seems to show no error. what should i look for? log from one sync is a lot of stuff with many private paths/urls in it, so i would like to avoid posting the full log.\r\n\r\nThe flickering itself is more a quick fading out and in again. Maybe its even intended, but i think its too distracting."
}
, {
  "url": "https://api.github.com/repos/owncloud/client/issues/comments/19165223",
  "html_url": "https://github.com/owncloud/client/issues/601#issuecomment-19165223",
  "issue_url": "https://api.github.com/repos/owncloud/client/issues/601",
  "id": 19165223,
  "user": {
    "login": "allo-",
    "id": 1482341,
    "avatar_url": "https://avatars.githubusercontent.com/u/1482341?v=3",
    "gravatar_id": "",
    "url": "https://api.github.com/users/allo-",
    "html_url": "https://github.com/allo-",
    "followers_url": "https://api.github.com/users/allo-/followers",
    "following_url": "https://api.github.com/users/allo-/following{/other_user}",
    "gists_url": "https://api.github.com/users/allo-/gists{/gist_id}",
    "starred_url": "https://api.github.com/users/allo-/starred{/owner}{/repo}",
    "subscriptions_url": "https://api.github.com/users/allo-/subscriptions",
    "organizations_url": "https://api.github.com/users/allo-/orgs",
    "repos_url": "https://api.github.com/users/allo-/repos",
    "events_url": "https://api.github.com/users/allo-/events{/privacy}",
    "received_events_url": "https://api.github.com/users/allo-/received_events",
    "type": "User",
    "site_admin": false
  },
  "created_at": "2013-06-09T12:20:45Z",
  "updated_at": "2013-06-09T12:20:45Z",
  "body": "some more details: KDE 4.10 Plasma-Panel displays the tray icon, and its a vertical panel (dunno if this impacts the display of tray icons). The Icons are one vertical line in there."
}
, {
  "url": "https://api.github.com/repos/owncloud/client/issues/comments/19309963",
  "html_url": "https://github.com/owncloud/client/issues/601#issuecomment-19309963",
  "issue_url": "https://api.github.com/repos/owncloud/client/issues/601",
  "id": 19309963,
  "user": {
    "login": "danimo",
    "id": 1315934,
    "avatar_url": "https://avatars.githubusercontent.com/u/1315934?v=3",
    "gravatar_id": "",
    "url": "https://api.github.com/users/danimo",
    "html_url": "https://github.com/danimo",
    "followers_url": "https://api.github.com/users/danimo/followers",
    "following_url": "https://api.github.com/users/danimo/following{/other_user}",
    "gists_url": "https://api.github.com/users/danimo/gists{/gist_id}",
    "starred_url": "https://api.github.com/users/danimo/starred{/owner}{/repo}",
    "subscriptions_url": "https://api.github.com/users/danimo/subscriptions",
    "organizations_url": "https://api.github.com/users/danimo/orgs",
    "repos_url": "https://api.github.com/users/danimo/repos",
    "events_url": "https://api.github.com/users/danimo/events{/privacy}",
    "received_events_url": "https://api.github.com/users/danimo/received_events",
    "type": "User",
    "site_admin": false
  },
  "created_at": "2013-06-12T07:11:28Z",
  "updated_at": "2013-06-12T07:11:28Z",
  "body": "The flickering can happen because of two reasons:\r\n\r\n- You have shared read-only folders where you have modified/new files. At the moment, the client always tries to sync those up, but will fail. To fix this, I have filed a server feature. So the flickering is not the bug here, but the attempt to reupload. A ticket already exists for this issue.\r\n- You have configured more than one sync directory (I need to check if I can fix this)"
}
, {
  "url": "https://api.github.com/repos/owncloud/client/issues/comments/19330735",
  "html_url": "https://github.com/owncloud/client/issues/601#issuecomment-19330735",
  "issue_url": "https://api.github.com/repos/owncloud/client/issues/601",
  "id": 19330735,
  "user": {
    "login": "allo-",
    "id": 1482341,
    "avatar_url": "https://avatars.githubusercontent.com/u/1482341?v=3",
    "gravatar_id": "",
    "url": "https://api.github.com/users/allo-",
    "html_url": "https://github.com/allo-",
    "followers_url": "https://api.github.com/users/allo-/followers",
    "following_url": "https://api.github.com/users/allo-/following{/other_user}",
    "gists_url": "https://api.github.com/users/allo-/gists{/gist_id}",
    "starred_url": "https://api.github.com/users/allo-/starred{/owner}{/repo}",
    "subscriptions_url": "https://api.github.com/users/allo-/subscriptions",
    "organizations_url": "https://api.github.com/users/allo-/orgs",
    "repos_url": "https://api.github.com/users/allo-/repos",
    "events_url": "https://api.github.com/users/allo-/events{/privacy}",
    "received_events_url": "https://api.github.com/users/allo-/received_events",
    "type": "User",
    "site_admin": false
  },
  "created_at": "2013-06-12T14:49:19Z",
  "updated_at": "2013-06-12T14:49:19Z",
  "body": "I am syncing two folders, indeed. "
}
, {
  "url": "https://api.github.com/repos/owncloud/client/issues/comments/22820327",
  "html_url": "https://github.com/owncloud/client/issues/601#issuecomment-22820327",
  "issue_url": "https://api.github.com/repos/owncloud/client/issues/601",
  "id": 22820327,
  "user": {
    "login": "jancborchardt",
    "id": 925062,
    "avatar_url": "https://avatars.githubusercontent.com/u/925062?v=3",
    "gravatar_id": "",
    "url": "https://api.github.com/users/jancborchardt",
    "html_url": "https://github.com/jancborchardt",
    "followers_url": "https://api.github.com/users/jancborchardt/followers",
    "following_url": "https://api.github.com/users/jancborchardt/following{/other_user}",
    "gists_url": "https://api.github.com/users/jancborchardt/gists{/gist_id}",
    "starred_url": "https://api.github.com/users/jancborchardt/starred{/owner}{/repo}",
    "subscriptions_url": "https://api.github.com/users/jancborchardt/subscriptions",
    "organizations_url": "https://api.github.com/users/jancborchardt/orgs",
    "repos_url": "https://api.github.com/users/jancborchardt/repos",
    "events_url": "https://api.github.com/users/jancborchardt/events{/privacy}",
    "received_events_url": "https://api.github.com/users/jancborchardt/received_events",
    "type": "User",
    "site_admin": false
  },
  "created_at": "2013-08-17T21:52:38Z",
  "updated_at": "2013-08-17T21:52:38Z",
  "body": "I’m closing this issue because it has been inactive for a few months. This probably means that the issue is not reproducible or it has been fixed in a newer version.\r\n\r\nPlease reopen if you still encounter this issue with the [latest stable version](http://owncloud.org/install/) and then please use the [issue template](https://raw.github.com/owncloud/core/master/issue_template.md). You an also contribute directly by providing a patch – see the [developer manual](http://doc.owncloud.org/server/5.0/developer_manual/). :)\r\n\r\nThank you!"
}
, {
  "url": "https://api.github.com/repos/owncloud/client/issues/comments/22820386",
  "html_url": "https://github.com/owncloud/client/issues/601#issuecomment-22820386",
  "issue_url": "https://api.github.com/repos/owncloud/client/issues/601",
  "id": 22820386,
  "user": {
    "login": "allo-",
    "id": 1482341,
    "avatar_url": "https://avatars.githubusercontent.com/u/1482341?v=3",
    "gravatar_id": "",
    "url": "https://api.github.com/users/allo-",
    "html_url": "https://github.com/allo-",
    "followers_url": "https://api.github.com/users/allo-/followers",
    "following_url": "https://api.github.com/users/allo-/following{/other_user}",
    "gists_url": "https://api.github.com/users/allo-/gists{/gist_id}",
    "starred_url": "https://api.github.com/users/allo-/starred{/owner}{/repo}",
    "subscriptions_url": "https://api.github.com/users/allo-/subscriptions",
    "organizations_url": "https://api.github.com/users/allo-/orgs",
    "repos_url": "https://api.github.com/users/allo-/repos",
    "events_url": "https://api.github.com/users/allo-/events{/privacy}",
    "received_events_url": "https://api.github.com/users/allo-/received_events",
    "type": "User",
    "site_admin": false
  },
  "created_at": "2013-08-17T21:56:37Z",
  "updated_at": "2013-08-17T21:56:37Z",
  "body": "The issue is still present, and you should stop closing inactive issues. Just because there is no new information, this does not mean the problem is fixed."
}
, {
  "url": "https://api.github.com/repos/owncloud/client/issues/comments/22820618",
  "html_url": "https://github.com/owncloud/client/issues/601#issuecomment-22820618",
  "issue_url": "https://api.github.com/repos/owncloud/client/issues/601",
  "id": 22820618,
  "user": {
    "login": "allo-",
    "id": 1482341,
    "avatar_url": "https://avatars.githubusercontent.com/u/1482341?v=3",
    "gravatar_id": "",
    "url": "https://api.github.com/users/allo-",
    "html_url": "https://github.com/allo-",
    "followers_url": "https://api.github.com/users/allo-/followers",
    "following_url": "https://api.github.com/users/allo-/following{/other_user}",
    "gists_url": "https://api.github.com/users/allo-/gists{/gist_id}",
    "starred_url": "https://api.github.com/users/allo-/starred{/owner}{/repo}",
    "subscriptions_url": "https://api.github.com/users/allo-/subscriptions",
    "organizations_url": "https://api.github.com/users/allo-/orgs",
    "repos_url": "https://api.github.com/users/allo-/repos",
    "events_url": "https://api.github.com/users/allo-/events{/privacy}",
    "received_events_url": "https://api.github.com/users/allo-/received_events",
    "type": "User",
    "site_admin": false
  },
  "created_at": "2013-08-17T22:14:12Z",
  "updated_at": "2013-08-17T22:14:12Z",
  "body": "Okay, tested now with the current version, just to be sure. It still happens, that the Icon flickrs when syncing with two configured folders, with kde 4.10 and owncloud version 1.3.0:\r\n\r\nErstellt aus Git revision 7cd2f3 vom Jul 31 2013, 22:21:36\r\nmit OCsync 0.80.0 und Qt 4.8.5.\r\n\r\nI do not see how to reopen this bug, maybe you need to do it."
}
, {
  "url": "https://api.github.com/repos/owncloud/client/issues/comments/22822336",
  "html_url": "https://github.com/owncloud/client/issues/601#issuecomment-22822336",
  "issue_url": "https://api.github.com/repos/owncloud/client/issues/601",
  "id": 22822336,
  "user": {
    "login": "jancborchardt",
    "id": 925062,
    "avatar_url": "https://avatars.githubusercontent.com/u/925062?v=3",
    "gravatar_id": "",
    "url": "https://api.github.com/users/jancborchardt",
    "html_url": "https://github.com/jancborchardt",
    "followers_url": "https://api.github.com/users/jancborchardt/followers",
    "following_url": "https://api.github.com/users/jancborchardt/following{/other_user}",
    "gists_url": "https://api.github.com/users/jancborchardt/gists{/gist_id}",
    "starred_url": "https://api.github.com/users/jancborchardt/starred{/owner}{/repo}",
    "subscriptions_url": "https://api.github.com/users/jancborchardt/subscriptions",
    "organizations_url": "https://api.github.com/users/jancborchardt/orgs",
    "repos_url": "https://api.github.com/users/jancborchardt/repos",
    "events_url": "https://api.github.com/users/jancborchardt/events{/privacy}",
    "received_events_url": "https://api.github.com/users/jancborchardt/received_events",
    "type": "User",
    "site_admin": false
  },
  "created_at": "2013-08-18T00:21:04Z",
  "updated_at": "2013-08-18T00:21:18Z",
  "body": "@allo- I can just reopen it, no problem. Thank you for retesting!\r\n\r\nAnd I will not stop closing inactive issues – in the last days I closed over 300 inactive ones and only about 10 of them were still valid. We just need to clean up our issue tracker."
}
, {
  "url": "https://api.github.com/repos/owncloud/client/issues/comments/22828115",
  "html_url": "https://github.com/owncloud/client/issues/601#issuecomment-22828115",
  "issue_url": "https://api.github.com/repos/owncloud/client/issues/601",
  "id": 22828115,
  "user": {
    "login": "allo-",
    "id": 1482341,
    "avatar_url": "https://avatars.githubusercontent.com/u/1482341?v=3",
    "gravatar_id": "",
    "url": "https://api.github.com/users/allo-",
    "html_url": "https://github.com/allo-",
    "followers_url": "https://api.github.com/users/allo-/followers",
    "following_url": "https://api.github.com/users/allo-/following{/other_user}",
    "gists_url": "https://api.github.com/users/allo-/gists{/gist_id}",
    "starred_url": "https://api.github.com/users/allo-/starred{/owner}{/repo}",
    "subscriptions_url": "https://api.github.com/users/allo-/subscriptions",
    "organizations_url": "https://api.github.com/users/allo-/orgs",
    "repos_url": "https://api.github.com/users/allo-/repos",
    "events_url": "https://api.github.com/users/allo-/events{/privacy}",
    "received_events_url": "https://api.github.com/users/allo-/received_events",
    "type": "User",
    "site_admin": false
  },
  "created_at": "2013-08-18T10:20:44Z",
  "updated_at": "2013-08-18T10:20:44Z",
  "body": "Yeah, for me this is a blocker. I keep the client closed and only open it on demand, because its so annoying."
}
, {
  "url": "https://api.github.com/repos/owncloud/client/issues/comments/22881519",
  "html_url": "https://github.com/owncloud/client/issues/601#issuecomment-22881519",
  "issue_url": "https://api.github.com/repos/owncloud/client/issues/601",
  "id": 22881519,
  "user": {
    "login": "jancborchardt",
    "id": 925062,
    "avatar_url": "https://avatars.githubusercontent.com/u/925062?v=3",
    "gravatar_id": "",
    "url": "https://api.github.com/users/jancborchardt",
    "html_url": "https://github.com/jancborchardt",
    "followers_url": "https://api.github.com/users/jancborchardt/followers",
    "following_url": "https://api.github.com/users/jancborchardt/following{/other_user}",
    "gists_url": "https://api.github.com/users/jancborchardt/gists{/gist_id}",
    "starred_url": "https://api.github.com/users/jancborchardt/starred{/owner}{/repo}",
    "subscriptions_url": "https://api.github.com/users/jancborchardt/subscriptions",
    "organizations_url": "https://api.github.com/users/jancborchardt/orgs",
    "repos_url": "https://api.github.com/users/jancborchardt/repos",
    "events_url": "https://api.github.com/users/jancborchardt/events{/privacy}",
    "received_events_url": "https://api.github.com/users/jancborchardt/received_events",
    "type": "User",
    "site_admin": false
  },
  "created_at": "2013-08-19T15:44:34Z",
  "updated_at": "2013-08-19T15:44:34Z",
  "body": "@allo- can you test if it happens with 1.4.0 beta? Go to http://owncloud.org/sync-clients/ and scroll down to »Test version«."
}
, {
  "url": "https://api.github.com/repos/owncloud/client/issues/comments/22882246",
  "html_url": "https://github.com/owncloud/client/issues/601#issuecomment-22882246",
  "issue_url": "https://api.github.com/repos/owncloud/client/issues/601",
  "id": 22882246,
  "user": {
    "login": "ogoffart",
    "id": 959326,
    "avatar_url": "https://avatars.githubusercontent.com/u/959326?v=3",
    "gravatar_id": "",
    "url": "https://api.github.com/users/ogoffart",
    "html_url": "https://github.com/ogoffart",
    "followers_url": "https://api.github.com/users/ogoffart/followers",
    "following_url": "https://api.github.com/users/ogoffart/following{/other_user}",
    "gists_url": "https://api.github.com/users/ogoffart/gists{/gist_id}",
    "starred_url": "https://api.github.com/users/ogoffart/starred{/owner}{/repo}",
    "subscriptions_url": "https://api.github.com/users/ogoffart/subscriptions",
    "organizations_url": "https://api.github.com/users/ogoffart/orgs",
    "repos_url": "https://api.github.com/users/ogoffart/repos",
    "events_url": "https://api.github.com/users/ogoffart/events{/privacy}",
    "received_events_url": "https://api.github.com/users/ogoffart/received_events",
    "type": "User",
    "site_admin": false
  },
  "created_at": "2013-08-19T15:54:21Z",
  "updated_at": "2013-08-19T15:54:21Z",
  "body": "(I cannot reproduce the flicker. I'm using 1.4 beta.  It only flicker when something is actually synced)"
}
, {
  "url": "https://api.github.com/repos/owncloud/client/issues/comments/22883539",
  "html_url": "https://github.com/owncloud/client/issues/601#issuecomment-22883539",
  "issue_url": "https://api.github.com/repos/owncloud/client/issues/601",
  "id": 22883539,
  "user": {
    "login": "allo-",
    "id": 1482341,
    "avatar_url": "https://avatars.githubusercontent.com/u/1482341?v=3",
    "gravatar_id": "",
    "url": "https://api.github.com/users/allo-",
    "html_url": "https://github.com/allo-",
    "followers_url": "https://api.github.com/users/allo-/followers",
    "following_url": "https://api.github.com/users/allo-/following{/other_user}",
    "gists_url": "https://api.github.com/users/allo-/gists{/gist_id}",
    "starred_url": "https://api.github.com/users/allo-/starred{/owner}{/repo}",
    "subscriptions_url": "https://api.github.com/users/allo-/subscriptions",
    "organizations_url": "https://api.github.com/users/allo-/orgs",
    "repos_url": "https://api.github.com/users/allo-/repos",
    "events_url": "https://api.github.com/users/allo-/events{/privacy}",
    "received_events_url": "https://api.github.com/users/allo-/received_events",
    "type": "User",
    "site_admin": false
  },
  "created_at": "2013-08-19T16:11:51Z",
  "updated_at": "2013-08-19T16:11:51Z",
  "body": "I can test with 1.4 later. \n\nWhen it only flickers when actually syncing: What do you mean? Icon changing to some \"syncing\" animation (okay) or still flickering (icon disappearing for a short time)?"
}
, {
  "url": "https://api.github.com/repos/owncloud/client/issues/comments/22893491",
  "html_url": "https://github.com/owncloud/client/issues/601#issuecomment-22893491",
  "issue_url": "https://api.github.com/repos/owncloud/client/issues/601",
  "id": 22893491,
  "user": {
    "login": "allo-",
    "id": 1482341,
    "avatar_url": "https://avatars.githubusercontent.com/u/1482341?v=3",
    "gravatar_id": "",
    "url": "https://api.github.com/users/allo-",
    "html_url": "https://github.com/allo-",
    "followers_url": "https://api.github.com/users/allo-/followers",
    "following_url": "https://api.github.com/users/allo-/following{/other_user}",
    "gists_url": "https://api.github.com/users/allo-/gists{/gist_id}",
    "starred_url": "https://api.github.com/users/allo-/starred{/owner}{/repo}",
    "subscriptions_url": "https://api.github.com/users/allo-/subscriptions",
    "organizations_url": "https://api.github.com/users/allo-/orgs",
    "repos_url": "https://api.github.com/users/allo-/repos",
    "events_url": "https://api.github.com/users/allo-/events{/privacy}",
    "received_events_url": "https://api.github.com/users/allo-/received_events",
    "type": "User",
    "site_admin": false
  },
  "created_at": "2013-08-19T18:29:44Z",
  "updated_at": "2013-08-19T18:35:13Z",
  "body": "I just built current git HEAD\r\nmirall: a19a960b5e08d76a9675cc9303e8a63002f43447\r\nocsync: e0d121d370b63f8a5a9340287755d015e7189ac8\r\n\r\nfor better debugging: is there a way to trigger a sync? Or to set the sync-interval?"
}
, {
  "url": "https://api.github.com/repos/owncloud/client/issues/comments/22894761",
  "html_url": "https://github.com/owncloud/client/issues/601#issuecomment-22894761",
  "issue_url": "https://api.github.com/repos/owncloud/client/issues/601",
  "id": 22894761,
  "user": {
    "login": "danimo",
    "id": 1315934,
    "avatar_url": "https://avatars.githubusercontent.com/u/1315934?v=3",
    "gravatar_id": "",
    "url": "https://api.github.com/users/danimo",
    "html_url": "https://github.com/danimo",
    "followers_url": "https://api.github.com/users/danimo/followers",
    "following_url": "https://api.github.com/users/danimo/following{/other_user}",
    "gists_url": "https://api.github.com/users/danimo/gists{/gist_id}",
    "starred_url": "https://api.github.com/users/danimo/starred{/owner}{/repo}",
    "subscriptions_url": "https://api.github.com/users/danimo/subscriptions",
    "organizations_url": "https://api.github.com/users/danimo/orgs",
    "repos_url": "https://api.github.com/users/danimo/repos",
    "events_url": "https://api.github.com/users/danimo/events{/privacy}",
    "received_events_url": "https://api.github.com/users/danimo/received_events",
    "type": "User",
    "site_admin": false
  },
  "created_at": "2013-08-19T18:44:35Z",
  "updated_at": "2013-08-19T18:44:35Z",
  "body": "@allo- Just touch a file in (one of the) the local sync dir"
}
, {
  "url": "https://api.github.com/repos/owncloud/client/issues/comments/22895112",
  "html_url": "https://github.com/owncloud/client/issues/601#issuecomment-22895112",
  "issue_url": "https://api.github.com/repos/owncloud/client/issues/601",
  "id": 22895112,
  "user": {
    "login": "allo-",
    "id": 1482341,
    "avatar_url": "https://avatars.githubusercontent.com/u/1482341?v=3",
    "gravatar_id": "",
    "url": "https://api.github.com/users/allo-",
    "html_url": "https://github.com/allo-",
    "followers_url": "https://api.github.com/users/allo-/followers",
    "following_url": "https://api.github.com/users/allo-/following{/other_user}",
    "gists_url": "https://api.github.com/users/allo-/gists{/gist_id}",
    "starred_url": "https://api.github.com/users/allo-/starred{/owner}{/repo}",
    "subscriptions_url": "https://api.github.com/users/allo-/subscriptions",
    "organizations_url": "https://api.github.com/users/allo-/orgs",
    "repos_url": "https://api.github.com/users/allo-/repos",
    "events_url": "https://api.github.com/users/allo-/events{/privacy}",
    "received_events_url": "https://api.github.com/users/allo-/received_events",
    "type": "User",
    "site_admin": false
  },
  "created_at": "2013-08-19T18:48:57Z",
  "updated_at": "2013-08-19T18:48:57Z",
  "body": "I would like the regular sync, because the bug is triggered, when two folders sync at exactly the same time."
}
, {
  "url": "https://api.github.com/repos/owncloud/client/issues/comments/22895251",
  "html_url": "https://github.com/owncloud/client/issues/601#issuecomment-22895251",
  "issue_url": "https://api.github.com/repos/owncloud/client/issues/601",
  "id": 22895251,
  "user": {
    "login": "danimo",
    "id": 1315934,
    "avatar_url": "https://avatars.githubusercontent.com/u/1315934?v=3",
    "gravatar_id": "",
    "url": "https://api.github.com/users/danimo",
    "html_url": "https://github.com/danimo",
    "followers_url": "https://api.github.com/users/danimo/followers",
    "following_url": "https://api.github.com/users/danimo/following{/other_user}",
    "gists_url": "https://api.github.com/users/danimo/gists{/gist_id}",
    "starred_url": "https://api.github.com/users/danimo/starred{/owner}{/repo}",
    "subscriptions_url": "https://api.github.com/users/danimo/subscriptions",
    "organizations_url": "https://api.github.com/users/danimo/orgs",
    "repos_url": "https://api.github.com/users/danimo/repos",
    "events_url": "https://api.github.com/users/danimo/events{/privacy}",
    "received_events_url": "https://api.github.com/users/danimo/received_events",
    "type": "User",
    "site_admin": false
  },
  "created_at": "2013-08-19T18:50:58Z",
  "updated_at": "2013-08-19T18:50:58Z",
  "body": "@allo- they you need to wait 5 minutes. and they were never syncing at the same time, only scheduled at the same time."
}
, {
  "url": "https://api.github.com/repos/owncloud/client/issues/comments/22895565",
  "html_url": "https://github.com/owncloud/client/issues/601#issuecomment-22895565",
  "issue_url": "https://api.github.com/repos/owncloud/client/issues/601",
  "id": 22895565,
  "user": {
    "login": "allo-",
    "id": 1482341,
    "avatar_url": "https://avatars.githubusercontent.com/u/1482341?v=3",
    "gravatar_id": "",
    "url": "https://api.github.com/users/allo-",
    "html_url": "https://github.com/allo-",
    "followers_url": "https://api.github.com/users/allo-/followers",
    "following_url": "https://api.github.com/users/allo-/following{/other_user}",
    "gists_url": "https://api.github.com/users/allo-/gists{/gist_id}",
    "starred_url": "https://api.github.com/users/allo-/starred{/owner}{/repo}",
    "subscriptions_url": "https://api.github.com/users/allo-/subscriptions",
    "organizations_url": "https://api.github.com/users/allo-/orgs",
    "repos_url": "https://api.github.com/users/allo-/repos",
    "events_url": "https://api.github.com/users/allo-/events{/privacy}",
    "received_events_url": "https://api.github.com/users/allo-/received_events",
    "type": "User",
    "site_admin": false
  },
  "created_at": "2013-08-19T18:54:57Z",
  "updated_at": "2013-08-19T18:54:57Z",
  "body": "Okay, i just thought i could trigger it a few times, to see if it still flickrs."
}
, {
  "url": "https://api.github.com/repos/owncloud/client/issues/comments/22904385",
  "html_url": "https://github.com/owncloud/client/issues/601#issuecomment-22904385",
  "issue_url": "https://api.github.com/repos/owncloud/client/issues/601",
  "id": 22904385,
  "user": {
    "login": "ogoffart",
    "id": 959326,
    "avatar_url": "https://avatars.githubusercontent.com/u/959326?v=3",
    "gravatar_id": "",
    "url": "https://api.github.com/users/ogoffart",
    "html_url": "https://github.com/ogoffart",
    "followers_url": "https://api.github.com/users/ogoffart/followers",
    "following_url": "https://api.github.com/users/ogoffart/following{/other_user}",
    "gists_url": "https://api.github.com/users/ogoffart/gists{/gist_id}",
    "starred_url": "https://api.github.com/users/ogoffart/starred{/owner}{/repo}",
    "subscriptions_url": "https://api.github.com/users/ogoffart/subscriptions",
    "organizations_url": "https://api.github.com/users/ogoffart/orgs",
    "repos_url": "https://api.github.com/users/ogoffart/repos",
    "events_url": "https://api.github.com/users/ogoffart/events{/privacy}",
    "received_events_url": "https://api.github.com/users/ogoffart/received_events",
    "type": "User",
    "site_admin": false
  },
  "created_at": "2013-08-19T21:08:51Z",
  "updated_at": "2013-08-19T21:08:51Z",
  "body": "I meant the icon is changed to syncing for a very short time.  I did not see it disapear.\r\n\r\nYou can touch a file in each folder at the same time."
}
, {
  "url": "https://api.github.com/repos/owncloud/client/issues/comments/22904803",
  "html_url": "https://github.com/owncloud/client/issues/601#issuecomment-22904803",
  "issue_url": "https://api.github.com/repos/owncloud/client/issues/601",
  "id": 22904803,
  "user": {
    "login": "allo-",
    "id": 1482341,
    "avatar_url": "https://avatars.githubusercontent.com/u/1482341?v=3",
    "gravatar_id": "",
    "url": "https://api.github.com/users/allo-",
    "html_url": "https://github.com/allo-",
    "followers_url": "https://api.github.com/users/allo-/followers",
    "following_url": "https://api.github.com/users/allo-/following{/other_user}",
    "gists_url": "https://api.github.com/users/allo-/gists{/gist_id}",
    "starred_url": "https://api.github.com/users/allo-/starred{/owner}{/repo}",
    "subscriptions_url": "https://api.github.com/users/allo-/subscriptions",
    "organizations_url": "https://api.github.com/users/allo-/orgs",
    "repos_url": "https://api.github.com/users/allo-/repos",
    "events_url": "https://api.github.com/users/allo-/events{/privacy}",
    "received_events_url": "https://api.github.com/users/allo-/received_events",
    "type": "User",
    "site_admin": false
  },
  "created_at": "2013-08-19T21:14:46Z",
  "updated_at": "2013-08-19T21:14:46Z",
  "body": "It seems to work. \r\nPlease leave the bug open, i keep running the client and check if there still is an issue.\r\nWhen it keeps running without this problem, i will close the bug, okay?"
}
, {
  "url": "https://api.github.com/repos/owncloud/client/issues/comments/23045079",
  "html_url": "https://github.com/owncloud/client/issues/601#issuecomment-23045079",
  "issue_url": "https://api.github.com/repos/owncloud/client/issues/601",
  "id": 23045079,
  "user": {
    "login": "allo-",
    "id": 1482341,
    "avatar_url": "https://avatars.githubusercontent.com/u/1482341?v=3",
    "gravatar_id": "",
    "url": "https://api.github.com/users/allo-",
    "html_url": "https://github.com/allo-",
    "followers_url": "https://api.github.com/users/allo-/followers",
    "following_url": "https://api.github.com/users/allo-/following{/other_user}",
    "gists_url": "https://api.github.com/users/allo-/gists{/gist_id}",
    "starred_url": "https://api.github.com/users/allo-/starred{/owner}{/repo}",
    "subscriptions_url": "https://api.github.com/users/allo-/subscriptions",
    "organizations_url": "https://api.github.com/users/allo-/orgs",
    "repos_url": "https://api.github.com/users/allo-/repos",
    "events_url": "https://api.github.com/users/allo-/events{/privacy}",
    "received_events_url": "https://api.github.com/users/allo-/received_events",
    "type": "User",
    "site_admin": false
  },
  "created_at": "2013-08-21T19:54:58Z",
  "updated_at": "2013-08-21T19:54:58Z",
  "body": "okay, seems to be fixed in the git version mentioned. Thanks."
}
]
