[
{
  "url": "https://api.github.com/repos/owncloud/client/issues/comments/171373376",
  "html_url": "https://github.com/owncloud/client/issues/4355#issuecomment-171373376",
  "issue_url": "https://api.github.com/repos/owncloud/client/issues/4355",
  "id": 171373376,
  "user": {
    "login": "LukasReschke",
    "id": 878997,
    "avatar_url": "https://avatars.githubusercontent.com/u/878997?v=3",
    "gravatar_id": "",
    "url": "https://api.github.com/users/LukasReschke",
    "html_url": "https://github.com/LukasReschke",
    "followers_url": "https://api.github.com/users/LukasReschke/followers",
    "following_url": "https://api.github.com/users/LukasReschke/following{/other_user}",
    "gists_url": "https://api.github.com/users/LukasReschke/gists{/gist_id}",
    "starred_url": "https://api.github.com/users/LukasReschke/starred{/owner}{/repo}",
    "subscriptions_url": "https://api.github.com/users/LukasReschke/subscriptions",
    "organizations_url": "https://api.github.com/users/LukasReschke/orgs",
    "repos_url": "https://api.github.com/users/LukasReschke/repos",
    "events_url": "https://api.github.com/users/LukasReschke/events{/privacy}",
    "received_events_url": "https://api.github.com/users/LukasReschke/received_events",
    "type": "User",
    "site_admin": false
  },
  "created_at": "2016-01-13T17:33:24Z",
  "updated_at": "2016-01-13T17:33:24Z",
  "body": "Please post the results of https://www.ssllabs.com/ssltest/"
}
, {
  "url": "https://api.github.com/repos/owncloud/client/issues/comments/171378668",
  "html_url": "https://github.com/owncloud/client/issues/4355#issuecomment-171378668",
  "issue_url": "https://api.github.com/repos/owncloud/client/issues/4355",
  "id": 171378668,
  "user": {
    "login": "dolfim",
    "id": 2662934,
    "avatar_url": "https://avatars.githubusercontent.com/u/2662934?v=3",
    "gravatar_id": "",
    "url": "https://api.github.com/users/dolfim",
    "html_url": "https://github.com/dolfim",
    "followers_url": "https://api.github.com/users/dolfim/followers",
    "following_url": "https://api.github.com/users/dolfim/following{/other_user}",
    "gists_url": "https://api.github.com/users/dolfim/gists{/gist_id}",
    "starred_url": "https://api.github.com/users/dolfim/starred{/owner}{/repo}",
    "subscriptions_url": "https://api.github.com/users/dolfim/subscriptions",
    "organizations_url": "https://api.github.com/users/dolfim/orgs",
    "repos_url": "https://api.github.com/users/dolfim/repos",
    "events_url": "https://api.github.com/users/dolfim/events{/privacy}",
    "received_events_url": "https://api.github.com/users/dolfim/received_events",
    "type": "User",
    "site_admin": false
  },
  "created_at": "2016-01-13T17:53:12Z",
  "updated_at": "2016-01-13T17:53:12Z",
  "body": "Thanks for pointing me to the ssl test. I found out I was using the wrong certificate missing the chain forward.\r\n\r\nNow it works!"
}
]
