[
{
  "url": "https://api.github.com/repos/owncloud/client/issues/comments/159231763",
  "html_url": "https://github.com/owncloud/client/issues/4168#issuecomment-159231763",
  "issue_url": "https://api.github.com/repos/owncloud/client/issues/4168",
  "id": 159231763,
  "user": {
    "login": "dragotin",
    "id": 1070214,
    "avatar_url": "https://avatars.githubusercontent.com/u/1070214?v=3",
    "gravatar_id": "",
    "url": "https://api.github.com/users/dragotin",
    "html_url": "https://github.com/dragotin",
    "followers_url": "https://api.github.com/users/dragotin/followers",
    "following_url": "https://api.github.com/users/dragotin/following{/other_user}",
    "gists_url": "https://api.github.com/users/dragotin/gists{/gist_id}",
    "starred_url": "https://api.github.com/users/dragotin/starred{/owner}{/repo}",
    "subscriptions_url": "https://api.github.com/users/dragotin/subscriptions",
    "organizations_url": "https://api.github.com/users/dragotin/orgs",
    "repos_url": "https://api.github.com/users/dragotin/repos",
    "events_url": "https://api.github.com/users/dragotin/events{/privacy}",
    "received_events_url": "https://api.github.com/users/dragotin/received_events",
    "type": "User",
    "site_admin": false
  },
  "created_at": "2015-11-24T11:08:41Z",
  "updated_at": "2015-11-24T11:08:41Z",
  "body": "It does that actually on single click, that is how we do it with the sync protocol as well.\r\n\r\nHowever, note that it happens more often with the **activities** that the file is not synced to local. I try to detect that. Please double check."
}
, {
  "url": "https://api.github.com/repos/owncloud/client/issues/comments/159237666",
  "html_url": "https://github.com/owncloud/client/issues/4168#issuecomment-159237666",
  "issue_url": "https://api.github.com/repos/owncloud/client/issues/4168",
  "id": 159237666,
  "user": {
    "login": "ckamm",
    "id": 833306,
    "avatar_url": "https://avatars.githubusercontent.com/u/833306?v=3",
    "gravatar_id": "",
    "url": "https://api.github.com/users/ckamm",
    "html_url": "https://github.com/ckamm",
    "followers_url": "https://api.github.com/users/ckamm/followers",
    "following_url": "https://api.github.com/users/ckamm/following{/other_user}",
    "gists_url": "https://api.github.com/users/ckamm/gists{/gist_id}",
    "starred_url": "https://api.github.com/users/ckamm/starred{/owner}{/repo}",
    "subscriptions_url": "https://api.github.com/users/ckamm/subscriptions",
    "organizations_url": "https://api.github.com/users/ckamm/orgs",
    "repos_url": "https://api.github.com/users/ckamm/repos",
    "events_url": "https://api.github.com/users/ckamm/events{/privacy}",
    "received_events_url": "https://api.github.com/users/ckamm/received_events",
    "type": "User",
    "site_admin": false
  },
  "created_at": "2015-11-24T11:33:53Z",
  "updated_at": "2015-11-24T11:33:53Z",
  "body": "@guruz This also works for me. Where did you see this not working?"
}
, {
  "url": "https://api.github.com/repos/owncloud/client/issues/comments/159258938",
  "html_url": "https://github.com/owncloud/client/issues/4168#issuecomment-159258938",
  "issue_url": "https://api.github.com/repos/owncloud/client/issues/4168",
  "id": 159258938,
  "user": {
    "login": "guruz",
    "id": 959327,
    "avatar_url": "https://avatars.githubusercontent.com/u/959327?v=3",
    "gravatar_id": "",
    "url": "https://api.github.com/users/guruz",
    "html_url": "https://github.com/guruz",
    "followers_url": "https://api.github.com/users/guruz/followers",
    "following_url": "https://api.github.com/users/guruz/following{/other_user}",
    "gists_url": "https://api.github.com/users/guruz/gists{/gist_id}",
    "starred_url": "https://api.github.com/users/guruz/starred{/owner}{/repo}",
    "subscriptions_url": "https://api.github.com/users/guruz/subscriptions",
    "organizations_url": "https://api.github.com/users/guruz/orgs",
    "repos_url": "https://api.github.com/users/guruz/repos",
    "events_url": "https://api.github.com/users/guruz/events{/privacy}",
    "received_events_url": "https://api.github.com/users/guruz/received_events",
    "type": "User",
    "site_admin": false
  },
  "created_at": "2015-11-24T12:54:20Z",
  "updated_at": "2015-11-24T12:54:20Z",
  "body": "Works for me neither on Windows nor OS X with a file that is \"You created ..\"\r\n\r\nAlso why should it be on single-click, single click should just select the table row? (and does that for me)\r\n\r\nFor hilighting the file in Finder on OS X see also: https://github.com/owncloud/client/blob/master/admin/osx/post_install.sh.cmake#L7\r\n\r\n@Dianafg76 what about you?"
}
, {
  "url": "https://api.github.com/repos/owncloud/client/issues/comments/159261102",
  "html_url": "https://github.com/owncloud/client/issues/4168#issuecomment-159261102",
  "issue_url": "https://api.github.com/repos/owncloud/client/issues/4168",
  "id": 159261102,
  "user": {
    "login": "Dianafg76",
    "id": 12032058,
    "avatar_url": "https://avatars.githubusercontent.com/u/12032058?v=3",
    "gravatar_id": "",
    "url": "https://api.github.com/users/Dianafg76",
    "html_url": "https://github.com/Dianafg76",
    "followers_url": "https://api.github.com/users/Dianafg76/followers",
    "following_url": "https://api.github.com/users/Dianafg76/following{/other_user}",
    "gists_url": "https://api.github.com/users/Dianafg76/gists{/gist_id}",
    "starred_url": "https://api.github.com/users/Dianafg76/starred{/owner}{/repo}",
    "subscriptions_url": "https://api.github.com/users/Dianafg76/subscriptions",
    "organizations_url": "https://api.github.com/users/Dianafg76/orgs",
    "repos_url": "https://api.github.com/users/Dianafg76/repos",
    "events_url": "https://api.github.com/users/Dianafg76/events{/privacy}",
    "received_events_url": "https://api.github.com/users/Dianafg76/received_events",
    "type": "User",
    "site_admin": false
  },
  "created_at": "2015-11-24T13:04:41Z",
  "updated_at": "2015-11-24T13:04:41Z",
  "body": "@guruz This also works for me, on Mac and Windows"
}
, {
  "url": "https://api.github.com/repos/owncloud/client/issues/comments/159266612",
  "html_url": "https://github.com/owncloud/client/issues/4168#issuecomment-159266612",
  "issue_url": "https://api.github.com/repos/owncloud/client/issues/4168",
  "id": 159266612,
  "user": {
    "login": "guruz",
    "id": 959327,
    "avatar_url": "https://avatars.githubusercontent.com/u/959327?v=3",
    "gravatar_id": "",
    "url": "https://api.github.com/users/guruz",
    "html_url": "https://github.com/guruz",
    "followers_url": "https://api.github.com/users/guruz/followers",
    "following_url": "https://api.github.com/users/guruz/following{/other_user}",
    "gists_url": "https://api.github.com/users/guruz/gists{/gist_id}",
    "starred_url": "https://api.github.com/users/guruz/starred{/owner}{/repo}",
    "subscriptions_url": "https://api.github.com/users/guruz/subscriptions",
    "organizations_url": "https://api.github.com/users/guruz/orgs",
    "repos_url": "https://api.github.com/users/guruz/repos",
    "events_url": "https://api.github.com/users/guruz/events{/privacy}",
    "received_events_url": "https://api.github.com/users/guruz/received_events",
    "type": "User",
    "site_admin": false
  },
  "created_at": "2015-11-24T13:25:42Z",
  "updated_at": "2015-11-24T13:25:42Z",
  "body": "^^ FYI"
}
, {
  "url": "https://api.github.com/repos/owncloud/client/issues/comments/159527632",
  "html_url": "https://github.com/owncloud/client/issues/4168#issuecomment-159527632",
  "issue_url": "https://api.github.com/repos/owncloud/client/issues/4168",
  "id": 159527632,
  "user": {
    "login": "Dianafg76",
    "id": 12032058,
    "avatar_url": "https://avatars.githubusercontent.com/u/12032058?v=3",
    "gravatar_id": "",
    "url": "https://api.github.com/users/Dianafg76",
    "html_url": "https://github.com/Dianafg76",
    "followers_url": "https://api.github.com/users/Dianafg76/followers",
    "following_url": "https://api.github.com/users/Dianafg76/following{/other_user}",
    "gists_url": "https://api.github.com/users/Dianafg76/gists{/gist_id}",
    "starred_url": "https://api.github.com/users/Dianafg76/starred{/owner}{/repo}",
    "subscriptions_url": "https://api.github.com/users/Dianafg76/subscriptions",
    "organizations_url": "https://api.github.com/users/Dianafg76/orgs",
    "repos_url": "https://api.github.com/users/Dianafg76/repos",
    "events_url": "https://api.github.com/users/Dianafg76/events{/privacy}",
    "received_events_url": "https://api.github.com/users/Dianafg76/received_events",
    "type": "User",
    "site_admin": false
  },
  "created_at": "2015-11-25T07:52:38Z",
  "updated_at": "2015-11-25T07:52:38Z",
  "body": "I tested this issue, and is working OK\r\nDesktop v ownCloud-2.1.0.2907-nightly20151125.pkg\r\nServer v {\"installed\":true,\"maintenance\":false,\"version\":\"8.2.1.4\",\"versionstring\":\"8.2.1\",\"edition\":\"Enterprise\"}\r\n\r\nClosed"
}
]
