[
{
  "url": "https://api.github.com/repos/owncloud/client/issues/comments/70694800",
  "html_url": "https://github.com/owncloud/client/issues/2726#issuecomment-70694800",
  "issue_url": "https://api.github.com/repos/owncloud/client/issues/2726",
  "id": 70694800,
  "user": {
    "login": "rullzer",
    "id": 45821,
    "avatar_url": "https://avatars.githubusercontent.com/u/45821?v=3",
    "gravatar_id": "",
    "url": "https://api.github.com/users/rullzer",
    "html_url": "https://github.com/rullzer",
    "followers_url": "https://api.github.com/users/rullzer/followers",
    "following_url": "https://api.github.com/users/rullzer/following{/other_user}",
    "gists_url": "https://api.github.com/users/rullzer/gists{/gist_id}",
    "starred_url": "https://api.github.com/users/rullzer/starred{/owner}{/repo}",
    "subscriptions_url": "https://api.github.com/users/rullzer/subscriptions",
    "organizations_url": "https://api.github.com/users/rullzer/orgs",
    "repos_url": "https://api.github.com/users/rullzer/repos",
    "events_url": "https://api.github.com/users/rullzer/events{/privacy}",
    "received_events_url": "https://api.github.com/users/rullzer/received_events",
    "type": "User",
    "site_admin": false
  },
  "created_at": "2015-01-20T17:26:12Z",
  "updated_at": "2015-01-20T17:26:12Z",
  "body": "Ah that was the API I was looking for! I'll try to pick this up shortly."
}
, {
  "url": "https://api.github.com/repos/owncloud/client/issues/comments/70831841",
  "html_url": "https://github.com/owncloud/client/issues/2726#issuecomment-70831841",
  "issue_url": "https://api.github.com/repos/owncloud/client/issues/2726",
  "id": 70831841,
  "user": {
    "login": "rullzer",
    "id": 45821,
    "avatar_url": "https://avatars.githubusercontent.com/u/45821?v=3",
    "gravatar_id": "",
    "url": "https://api.github.com/users/rullzer",
    "html_url": "https://github.com/rullzer",
    "followers_url": "https://api.github.com/users/rullzer/followers",
    "following_url": "https://api.github.com/users/rullzer/following{/other_user}",
    "gists_url": "https://api.github.com/users/rullzer/gists{/gist_id}",
    "starred_url": "https://api.github.com/users/rullzer/starred{/owner}{/repo}",
    "subscriptions_url": "https://api.github.com/users/rullzer/subscriptions",
    "organizations_url": "https://api.github.com/users/rullzer/orgs",
    "repos_url": "https://api.github.com/users/rullzer/repos",
    "events_url": "https://api.github.com/users/rullzer/events{/privacy}",
    "received_events_url": "https://api.github.com/users/rullzer/received_events",
    "type": "User",
    "site_admin": false
  },
  "created_at": "2015-01-21T12:56:05Z",
  "updated_at": "2015-01-21T12:56:05Z",
  "body": "Initial commit is available. More checking needs to be done but it is working pretty well for now. But no rush since it only makes sense to create a pull request when owncloud 8 is out."
}
, {
  "url": "https://api.github.com/repos/owncloud/client/issues/comments/73522020",
  "html_url": "https://github.com/owncloud/client/issues/2726#issuecomment-73522020",
  "issue_url": "https://api.github.com/repos/owncloud/client/issues/2726",
  "id": 73522020,
  "user": {
    "login": "DeepDiver1975",
    "id": 1005065,
    "avatar_url": "https://avatars.githubusercontent.com/u/1005065?v=3",
    "gravatar_id": "",
    "url": "https://api.github.com/users/DeepDiver1975",
    "html_url": "https://github.com/DeepDiver1975",
    "followers_url": "https://api.github.com/users/DeepDiver1975/followers",
    "following_url": "https://api.github.com/users/DeepDiver1975/following{/other_user}",
    "gists_url": "https://api.github.com/users/DeepDiver1975/gists{/gist_id}",
    "starred_url": "https://api.github.com/users/DeepDiver1975/starred{/owner}{/repo}",
    "subscriptions_url": "https://api.github.com/users/DeepDiver1975/subscriptions",
    "organizations_url": "https://api.github.com/users/DeepDiver1975/orgs",
    "repos_url": "https://api.github.com/users/DeepDiver1975/repos",
    "events_url": "https://api.github.com/users/DeepDiver1975/events{/privacy}",
    "received_events_url": "https://api.github.com/users/DeepDiver1975/received_events",
    "type": "User",
    "site_admin": false
  },
  "created_at": "2015-02-09T14:59:19Z",
  "updated_at": "2015-02-09T14:59:19Z",
  "body": "@dragotin please get in touch with me to find proper solutions before using some crazy api existing somewhere . we are currently navigating into an api nightmare  because a hell of different apis are used - this will soon remain unmaintainable for us. THX"
}
, {
  "url": "https://api.github.com/repos/owncloud/client/issues/comments/73522513",
  "html_url": "https://github.com/owncloud/client/issues/2726#issuecomment-73522513",
  "issue_url": "https://api.github.com/repos/owncloud/client/issues/2726",
  "id": 73522513,
  "user": {
    "login": "DeepDiver1975",
    "id": 1005065,
    "avatar_url": "https://avatars.githubusercontent.com/u/1005065?v=3",
    "gravatar_id": "",
    "url": "https://api.github.com/users/DeepDiver1975",
    "html_url": "https://github.com/DeepDiver1975",
    "followers_url": "https://api.github.com/users/DeepDiver1975/followers",
    "following_url": "https://api.github.com/users/DeepDiver1975/following{/other_user}",
    "gists_url": "https://api.github.com/users/DeepDiver1975/gists{/gist_id}",
    "starred_url": "https://api.github.com/users/DeepDiver1975/starred{/owner}{/repo}",
    "subscriptions_url": "https://api.github.com/users/DeepDiver1975/subscriptions",
    "organizations_url": "https://api.github.com/users/DeepDiver1975/orgs",
    "repos_url": "https://api.github.com/users/DeepDiver1975/repos",
    "events_url": "https://api.github.com/users/DeepDiver1975/events{/privacy}",
    "received_events_url": "https://api.github.com/users/DeepDiver1975/received_events",
    "type": "User",
    "site_admin": false
  },
  "created_at": "2015-02-09T15:01:59Z",
  "updated_at": "2015-02-09T15:01:59Z",
  "body": "> The share dialog would look even more cool if it had a thumbnail of the file to share. It can be retrieved from the server using this api:\r\n\r\nThe file is existing on the client as well - right?\r\nIs there any possibility to generate the thumbnail local on the client?\r\n\r\nGetting the thumbnail from the server will put additional load to the server.\r\n\r\nTHX"
}
, {
  "url": "https://api.github.com/repos/owncloud/client/issues/comments/73522736",
  "html_url": "https://github.com/owncloud/client/issues/2726#issuecomment-73522736",
  "issue_url": "https://api.github.com/repos/owncloud/client/issues/2726",
  "id": 73522736,
  "user": {
    "login": "DeepDiver1975",
    "id": 1005065,
    "avatar_url": "https://avatars.githubusercontent.com/u/1005065?v=3",
    "gravatar_id": "",
    "url": "https://api.github.com/users/DeepDiver1975",
    "html_url": "https://github.com/DeepDiver1975",
    "followers_url": "https://api.github.com/users/DeepDiver1975/followers",
    "following_url": "https://api.github.com/users/DeepDiver1975/following{/other_user}",
    "gists_url": "https://api.github.com/users/DeepDiver1975/gists{/gist_id}",
    "starred_url": "https://api.github.com/users/DeepDiver1975/starred{/owner}{/repo}",
    "subscriptions_url": "https://api.github.com/users/DeepDiver1975/subscriptions",
    "organizations_url": "https://api.github.com/users/DeepDiver1975/orgs",
    "repos_url": "https://api.github.com/users/DeepDiver1975/repos",
    "events_url": "https://api.github.com/users/DeepDiver1975/events{/privacy}",
    "received_events_url": "https://api.github.com/users/DeepDiver1975/received_events",
    "type": "User",
    "site_admin": false
  },
  "created_at": "2015-02-09T15:03:11Z",
  "updated_at": "2015-02-09T15:03:11Z",
  "body": "In case you really want to grab it from the server we don't need no capabilites api.\r\n\r\nIn case thumbnails are disabled the api route simply will not exist and a request to it will return 404"
}
, {
  "url": "https://api.github.com/repos/owncloud/client/issues/comments/73523834",
  "html_url": "https://github.com/owncloud/client/issues/2726#issuecomment-73523834",
  "issue_url": "https://api.github.com/repos/owncloud/client/issues/2726",
  "id": 73523834,
  "user": {
    "login": "dragotin",
    "id": 1070214,
    "avatar_url": "https://avatars.githubusercontent.com/u/1070214?v=3",
    "gravatar_id": "",
    "url": "https://api.github.com/users/dragotin",
    "html_url": "https://github.com/dragotin",
    "followers_url": "https://api.github.com/users/dragotin/followers",
    "following_url": "https://api.github.com/users/dragotin/following{/other_user}",
    "gists_url": "https://api.github.com/users/dragotin/gists{/gist_id}",
    "starred_url": "https://api.github.com/users/dragotin/starred{/owner}{/repo}",
    "subscriptions_url": "https://api.github.com/users/dragotin/subscriptions",
    "organizations_url": "https://api.github.com/users/dragotin/orgs",
    "repos_url": "https://api.github.com/users/dragotin/repos",
    "events_url": "https://api.github.com/users/dragotin/events{/privacy}",
    "received_events_url": "https://api.github.com/users/dragotin/received_events",
    "type": "User",
    "site_admin": false
  },
  "created_at": "2015-02-09T15:09:05Z",
  "updated_at": "2015-02-09T15:09:05Z",
  "body": "There is no easy way of creating thumbnails on the client at least for Linux, also no *easy* one on Win. And for the sake of consistency, it would be better to get it from server.\r\n\r\nHowever, no rush here, that is very low priority IMO."
}
, {
  "url": "https://api.github.com/repos/owncloud/client/issues/comments/73524201",
  "html_url": "https://github.com/owncloud/client/issues/2726#issuecomment-73524201",
  "issue_url": "https://api.github.com/repos/owncloud/client/issues/2726",
  "id": 73524201,
  "user": {
    "login": "rullzer",
    "id": 45821,
    "avatar_url": "https://avatars.githubusercontent.com/u/45821?v=3",
    "gravatar_id": "",
    "url": "https://api.github.com/users/rullzer",
    "html_url": "https://github.com/rullzer",
    "followers_url": "https://api.github.com/users/rullzer/followers",
    "following_url": "https://api.github.com/users/rullzer/following{/other_user}",
    "gists_url": "https://api.github.com/users/rullzer/gists{/gist_id}",
    "starred_url": "https://api.github.com/users/rullzer/starred{/owner}{/repo}",
    "subscriptions_url": "https://api.github.com/users/rullzer/subscriptions",
    "organizations_url": "https://api.github.com/users/rullzer/orgs",
    "repos_url": "https://api.github.com/users/rullzer/repos",
    "events_url": "https://api.github.com/users/rullzer/events{/privacy}",
    "received_events_url": "https://api.github.com/users/rullzer/received_events",
    "type": "User",
    "site_admin": false
  },
  "created_at": "2015-02-09T15:11:14Z",
  "updated_at": "2015-02-09T15:11:14Z",
  "body": "@DeepDiver1975 yes that is true and it is how it is implented currently (well actually I check for 200). I'll create a PR for the client later tonight (it is pretty straight forward). We could just leave it like that for now and use the capabilities later when (if) that gets sorted out."
}
, {
  "url": "https://api.github.com/repos/owncloud/client/issues/comments/73524451",
  "html_url": "https://github.com/owncloud/client/issues/2726#issuecomment-73524451",
  "issue_url": "https://api.github.com/repos/owncloud/client/issues/2726",
  "id": 73524451,
  "user": {
    "login": "DeepDiver1975",
    "id": 1005065,
    "avatar_url": "https://avatars.githubusercontent.com/u/1005065?v=3",
    "gravatar_id": "",
    "url": "https://api.github.com/users/DeepDiver1975",
    "html_url": "https://github.com/DeepDiver1975",
    "followers_url": "https://api.github.com/users/DeepDiver1975/followers",
    "following_url": "https://api.github.com/users/DeepDiver1975/following{/other_user}",
    "gists_url": "https://api.github.com/users/DeepDiver1975/gists{/gist_id}",
    "starred_url": "https://api.github.com/users/DeepDiver1975/starred{/owner}{/repo}",
    "subscriptions_url": "https://api.github.com/users/DeepDiver1975/subscriptions",
    "organizations_url": "https://api.github.com/users/DeepDiver1975/orgs",
    "repos_url": "https://api.github.com/users/DeepDiver1975/repos",
    "events_url": "https://api.github.com/users/DeepDiver1975/events{/privacy}",
    "received_events_url": "https://api.github.com/users/DeepDiver1975/received_events",
    "type": "User",
    "site_admin": false
  },
  "created_at": "2015-02-09T15:12:35Z",
  "updated_at": "2015-02-09T15:12:35Z",
  "body": "> There is no easy way of creating thumbnails on the client at least for Linux, also no easy one on Win. And for the sake of consistency, it would be better to get it from server.\r\n\r\nokay - understood - THX. "
}
, {
  "url": "https://api.github.com/repos/owncloud/client/issues/comments/73524681",
  "html_url": "https://github.com/owncloud/client/issues/2726#issuecomment-73524681",
  "issue_url": "https://api.github.com/repos/owncloud/client/issues/2726",
  "id": 73524681,
  "user": {
    "login": "DeepDiver1975",
    "id": 1005065,
    "avatar_url": "https://avatars.githubusercontent.com/u/1005065?v=3",
    "gravatar_id": "",
    "url": "https://api.github.com/users/DeepDiver1975",
    "html_url": "https://github.com/DeepDiver1975",
    "followers_url": "https://api.github.com/users/DeepDiver1975/followers",
    "following_url": "https://api.github.com/users/DeepDiver1975/following{/other_user}",
    "gists_url": "https://api.github.com/users/DeepDiver1975/gists{/gist_id}",
    "starred_url": "https://api.github.com/users/DeepDiver1975/starred{/owner}{/repo}",
    "subscriptions_url": "https://api.github.com/users/DeepDiver1975/subscriptions",
    "organizations_url": "https://api.github.com/users/DeepDiver1975/orgs",
    "repos_url": "https://api.github.com/users/DeepDiver1975/repos",
    "events_url": "https://api.github.com/users/DeepDiver1975/events{/privacy}",
    "received_events_url": "https://api.github.com/users/DeepDiver1975/received_events",
    "type": "User",
    "site_admin": false
  },
  "created_at": "2015-02-09T15:13:50Z",
  "updated_at": "2015-02-09T15:13:50Z",
  "body": "> @DeepDiver1975 yes that is true and it is how it is implented currently (well actually I check for 200). I'll create a PR for the client later tonight (it is pretty straight forward). We could just leave it like that for now and use the capabilities later when (if) that gets sorted out.\r\n\r\n@rullzer awesome - this is the way to got from my understanding - THX a lot\r\n\r\nPlease be aware that I need to review the server api - index.php/apps/files/api/v1/thumbnail/{x}/{y}/{filename}\r\n\r\nI'm not truly happy with it ..."
}
, {
  "url": "https://api.github.com/repos/owncloud/client/issues/comments/73652344",
  "html_url": "https://github.com/owncloud/client/issues/2726#issuecomment-73652344",
  "issue_url": "https://api.github.com/repos/owncloud/client/issues/2726",
  "id": 73652344,
  "user": {
    "login": "rullzer",
    "id": 45821,
    "avatar_url": "https://avatars.githubusercontent.com/u/45821?v=3",
    "gravatar_id": "",
    "url": "https://api.github.com/users/rullzer",
    "html_url": "https://github.com/rullzer",
    "followers_url": "https://api.github.com/users/rullzer/followers",
    "following_url": "https://api.github.com/users/rullzer/following{/other_user}",
    "gists_url": "https://api.github.com/users/rullzer/gists{/gist_id}",
    "starred_url": "https://api.github.com/users/rullzer/starred{/owner}{/repo}",
    "subscriptions_url": "https://api.github.com/users/rullzer/subscriptions",
    "organizations_url": "https://api.github.com/users/rullzer/orgs",
    "repos_url": "https://api.github.com/users/rullzer/repos",
    "events_url": "https://api.github.com/users/rullzer/events{/privacy}",
    "received_events_url": "https://api.github.com/users/rullzer/received_events",
    "type": "User",
    "site_admin": false
  },
  "created_at": "2015-02-10T06:45:24Z",
  "updated_at": "2015-02-10T06:45:24Z",
  "body": "See #2805 for a patch to retrieve the thumbnails."
}
, {
  "url": "https://api.github.com/repos/owncloud/client/issues/comments/114906970",
  "html_url": "https://github.com/owncloud/client/issues/2726#issuecomment-114906970",
  "issue_url": "https://api.github.com/repos/owncloud/client/issues/2726",
  "id": 114906970,
  "user": {
    "login": "guruz",
    "id": 959327,
    "avatar_url": "https://avatars.githubusercontent.com/u/959327?v=3",
    "gravatar_id": "",
    "url": "https://api.github.com/users/guruz",
    "html_url": "https://github.com/guruz",
    "followers_url": "https://api.github.com/users/guruz/followers",
    "following_url": "https://api.github.com/users/guruz/following{/other_user}",
    "gists_url": "https://api.github.com/users/guruz/gists{/gist_id}",
    "starred_url": "https://api.github.com/users/guruz/starred{/owner}{/repo}",
    "subscriptions_url": "https://api.github.com/users/guruz/subscriptions",
    "organizations_url": "https://api.github.com/users/guruz/orgs",
    "repos_url": "https://api.github.com/users/guruz/repos",
    "events_url": "https://api.github.com/users/guruz/events{/privacy}",
    "received_events_url": "https://api.github.com/users/guruz/received_events",
    "type": "User",
    "site_admin": false
  },
  "created_at": "2015-06-24T15:20:42Z",
  "updated_at": "2015-06-24T15:20:42Z",
  "body": "Can this be closed or is there still work to be done?\r\n\r\nthanks for the patch btw @rullzer "
}
, {
  "url": "https://api.github.com/repos/owncloud/client/issues/comments/115547093",
  "html_url": "https://github.com/owncloud/client/issues/2726#issuecomment-115547093",
  "issue_url": "https://api.github.com/repos/owncloud/client/issues/2726",
  "id": 115547093,
  "user": {
    "login": "rullzer",
    "id": 45821,
    "avatar_url": "https://avatars.githubusercontent.com/u/45821?v=3",
    "gravatar_id": "",
    "url": "https://api.github.com/users/rullzer",
    "html_url": "https://github.com/rullzer",
    "followers_url": "https://api.github.com/users/rullzer/followers",
    "following_url": "https://api.github.com/users/rullzer/following{/other_user}",
    "gists_url": "https://api.github.com/users/rullzer/gists{/gist_id}",
    "starred_url": "https://api.github.com/users/rullzer/starred{/owner}{/repo}",
    "subscriptions_url": "https://api.github.com/users/rullzer/subscriptions",
    "organizations_url": "https://api.github.com/users/rullzer/orgs",
    "repos_url": "https://api.github.com/users/rullzer/repos",
    "events_url": "https://api.github.com/users/rullzer/events{/privacy}",
    "received_events_url": "https://api.github.com/users/rullzer/received_events",
    "type": "User",
    "site_admin": false
  },
  "created_at": "2015-06-26T06:48:06Z",
  "updated_at": "2015-06-26T06:48:06Z",
  "body": "@guruz If i'm not mistaken the patch was removed again since the API was/is not yet 100% stable.. "
}
, {
  "url": "https://api.github.com/repos/owncloud/client/issues/comments/124215732",
  "html_url": "https://github.com/owncloud/client/issues/2726#issuecomment-124215732",
  "issue_url": "https://api.github.com/repos/owncloud/client/issues/2726",
  "id": 124215732,
  "user": {
    "login": "rullzer",
    "id": 45821,
    "avatar_url": "https://avatars.githubusercontent.com/u/45821?v=3",
    "gravatar_id": "",
    "url": "https://api.github.com/users/rullzer",
    "html_url": "https://github.com/rullzer",
    "followers_url": "https://api.github.com/users/rullzer/followers",
    "following_url": "https://api.github.com/users/rullzer/following{/other_user}",
    "gists_url": "https://api.github.com/users/rullzer/gists{/gist_id}",
    "starred_url": "https://api.github.com/users/rullzer/starred{/owner}{/repo}",
    "subscriptions_url": "https://api.github.com/users/rullzer/subscriptions",
    "organizations_url": "https://api.github.com/users/rullzer/orgs",
    "repos_url": "https://api.github.com/users/rullzer/repos",
    "events_url": "https://api.github.com/users/rullzer/events{/privacy}",
    "received_events_url": "https://api.github.com/users/rullzer/received_events",
    "type": "User",
    "site_admin": false
  },
  "created_at": "2015-07-23T19:17:19Z",
  "updated_at": "2015-07-23T19:17:19Z",
  "body": "Merged in #3426 "
}
]
