[
{
  "url": "https://api.github.com/repos/owncloud/client/issues/comments/170605699",
  "html_url": "https://github.com/owncloud/client/issues/4345#issuecomment-170605699",
  "issue_url": "https://api.github.com/repos/owncloud/client/issues/4345",
  "id": 170605699,
  "user": {
    "login": "ogoffart",
    "id": 959326,
    "avatar_url": "https://avatars.githubusercontent.com/u/959326?v=3",
    "gravatar_id": "",
    "url": "https://api.github.com/users/ogoffart",
    "html_url": "https://github.com/ogoffart",
    "followers_url": "https://api.github.com/users/ogoffart/followers",
    "following_url": "https://api.github.com/users/ogoffart/following{/other_user}",
    "gists_url": "https://api.github.com/users/ogoffart/gists{/gist_id}",
    "starred_url": "https://api.github.com/users/ogoffart/starred{/owner}{/repo}",
    "subscriptions_url": "https://api.github.com/users/ogoffart/subscriptions",
    "organizations_url": "https://api.github.com/users/ogoffart/orgs",
    "repos_url": "https://api.github.com/users/ogoffart/repos",
    "events_url": "https://api.github.com/users/ogoffart/events{/privacy}",
    "received_events_url": "https://api.github.com/users/ogoffart/received_events",
    "type": "User",
    "site_admin": false
  },
  "created_at": "2016-01-11T16:29:02Z",
  "updated_at": "2016-01-11T16:29:02Z",
  "body": "This was changed in 2.1 for #3940\r\n The current string for the client when the quota is unknown or unlimited is:\r\n\r\n> 176MB in use\r\n\r\nIs this issue a request to change the string to mention that the quota is unlimited when it is unlimited?   \r\n\r\nand what does the `(client side)`  means?  Because the value that is shown is the used space on the server."
}
, {
  "url": "https://api.github.com/repos/owncloud/client/issues/comments/172554815",
  "html_url": "https://github.com/owncloud/client/issues/4345#issuecomment-172554815",
  "issue_url": "https://api.github.com/repos/owncloud/client/issues/4345",
  "id": 172554815,
  "user": {
    "login": "ogoffart",
    "id": 959326,
    "avatar_url": "https://avatars.githubusercontent.com/u/959326?v=3",
    "gravatar_id": "",
    "url": "https://api.github.com/users/ogoffart",
    "html_url": "https://github.com/ogoffart",
    "followers_url": "https://api.github.com/users/ogoffart/followers",
    "following_url": "https://api.github.com/users/ogoffart/following{/other_user}",
    "gists_url": "https://api.github.com/users/ogoffart/gists{/gist_id}",
    "starred_url": "https://api.github.com/users/ogoffart/starred{/owner}{/repo}",
    "subscriptions_url": "https://api.github.com/users/ogoffart/subscriptions",
    "organizations_url": "https://api.github.com/users/ogoffart/orgs",
    "repos_url": "https://api.github.com/users/ogoffart/repos",
    "events_url": "https://api.github.com/users/ogoffart/events{/privacy}",
    "received_events_url": "https://api.github.com/users/ogoffart/received_events",
    "type": "User",
    "site_admin": false
  },
  "created_at": "2016-01-18T15:08:53Z",
  "updated_at": "2016-01-18T15:08:53Z",
  "body": "@MTRichards  ?"
}
, {
  "url": "https://api.github.com/repos/owncloud/client/issues/comments/172568779",
  "html_url": "https://github.com/owncloud/client/issues/4345#issuecomment-172568779",
  "issue_url": "https://api.github.com/repos/owncloud/client/issues/4345",
  "id": 172568779,
  "user": {
    "login": "MTRichards",
    "id": 1818977,
    "avatar_url": "https://avatars.githubusercontent.com/u/1818977?v=3",
    "gravatar_id": "",
    "url": "https://api.github.com/users/MTRichards",
    "html_url": "https://github.com/MTRichards",
    "followers_url": "https://api.github.com/users/MTRichards/followers",
    "following_url": "https://api.github.com/users/MTRichards/following{/other_user}",
    "gists_url": "https://api.github.com/users/MTRichards/gists{/gist_id}",
    "starred_url": "https://api.github.com/users/MTRichards/starred{/owner}{/repo}",
    "subscriptions_url": "https://api.github.com/users/MTRichards/subscriptions",
    "organizations_url": "https://api.github.com/users/MTRichards/orgs",
    "repos_url": "https://api.github.com/users/MTRichards/repos",
    "events_url": "https://api.github.com/users/MTRichards/events{/privacy}",
    "received_events_url": "https://api.github.com/users/MTRichards/received_events",
    "type": "User",
    "site_admin": false
  },
  "created_at": "2016-01-18T15:55:57Z",
  "updated_at": "2016-01-18T15:55:57Z",
  "body": "Ok, good that it was partly changed for 2.1 though not quite as the customer had asked. Regardless, this is close enough for now, no need to change it.\r\n\r\nWhat I was going for was an implementation of #19988 above in the desktop sync client quota part, but I think you simplified it. "
}
, {
  "url": "https://api.github.com/repos/owncloud/client/issues/comments/172806813",
  "html_url": "https://github.com/owncloud/client/issues/4345#issuecomment-172806813",
  "issue_url": "https://api.github.com/repos/owncloud/client/issues/4345",
  "id": 172806813,
  "user": {
    "login": "ogoffart",
    "id": 959326,
    "avatar_url": "https://avatars.githubusercontent.com/u/959326?v=3",
    "gravatar_id": "",
    "url": "https://api.github.com/users/ogoffart",
    "html_url": "https://github.com/ogoffart",
    "followers_url": "https://api.github.com/users/ogoffart/followers",
    "following_url": "https://api.github.com/users/ogoffart/following{/other_user}",
    "gists_url": "https://api.github.com/users/ogoffart/gists{/gist_id}",
    "starred_url": "https://api.github.com/users/ogoffart/starred{/owner}{/repo}",
    "subscriptions_url": "https://api.github.com/users/ogoffart/subscriptions",
    "organizations_url": "https://api.github.com/users/ogoffart/orgs",
    "repos_url": "https://api.github.com/users/ogoffart/repos",
    "events_url": "https://api.github.com/users/ogoffart/events{/privacy}",
    "received_events_url": "https://api.github.com/users/ogoffart/received_events",
    "type": "User",
    "site_admin": false
  },
  "created_at": "2016-01-19T10:21:22Z",
  "updated_at": "2016-01-19T10:21:22Z",
  "body": "So I assume i can close this bug then :-)"
}
]
