[
{
  "url": "https://api.github.com/repos/owncloud/client/issues/comments/43663535",
  "html_url": "https://github.com/owncloud/client/issues/1787#issuecomment-43663535",
  "issue_url": "https://api.github.com/repos/owncloud/client/issues/1787",
  "id": 43663535,
  "user": {
    "login": "ser72",
    "id": 5174383,
    "avatar_url": "https://avatars.githubusercontent.com/u/5174383?v=3",
    "gravatar_id": "",
    "url": "https://api.github.com/users/ser72",
    "html_url": "https://github.com/ser72",
    "followers_url": "https://api.github.com/users/ser72/followers",
    "following_url": "https://api.github.com/users/ser72/following{/other_user}",
    "gists_url": "https://api.github.com/users/ser72/gists{/gist_id}",
    "starred_url": "https://api.github.com/users/ser72/starred{/owner}{/repo}",
    "subscriptions_url": "https://api.github.com/users/ser72/subscriptions",
    "organizations_url": "https://api.github.com/users/ser72/orgs",
    "repos_url": "https://api.github.com/users/ser72/repos",
    "events_url": "https://api.github.com/users/ser72/events{/privacy}",
    "received_events_url": "https://api.github.com/users/ser72/received_events",
    "type": "User",
    "site_admin": false
  },
  "created_at": "2014-05-20T18:18:12Z",
  "updated_at": "2014-05-20T18:18:12Z",
  "body": "Only noted difference is:\r\n\r\nThe working setup has WINDOWS 2012 Server as the back end storage server\r\nThe NON-Working setup has WINDOWS 2008R2 server as the back end storage server"
}
, {
  "url": "https://api.github.com/repos/owncloud/client/issues/comments/43666362",
  "html_url": "https://github.com/owncloud/client/issues/1787#issuecomment-43666362",
  "issue_url": "https://api.github.com/repos/owncloud/client/issues/1787",
  "id": 43666362,
  "user": {
    "login": "danimo",
    "id": 1315934,
    "avatar_url": "https://avatars.githubusercontent.com/u/1315934?v=3",
    "gravatar_id": "",
    "url": "https://api.github.com/users/danimo",
    "html_url": "https://github.com/danimo",
    "followers_url": "https://api.github.com/users/danimo/followers",
    "following_url": "https://api.github.com/users/danimo/following{/other_user}",
    "gists_url": "https://api.github.com/users/danimo/gists{/gist_id}",
    "starred_url": "https://api.github.com/users/danimo/starred{/owner}{/repo}",
    "subscriptions_url": "https://api.github.com/users/danimo/subscriptions",
    "organizations_url": "https://api.github.com/users/danimo/orgs",
    "repos_url": "https://api.github.com/users/danimo/repos",
    "events_url": "https://api.github.com/users/danimo/events{/privacy}",
    "received_events_url": "https://api.github.com/users/danimo/received_events",
    "type": "User",
    "site_admin": false
  },
  "created_at": "2014-05-20T18:40:38Z",
  "updated_at": "2014-05-20T18:40:38Z",
  "body": "@ser72 Can you file bugs involving Windows on the server side in core?"
}
, {
  "url": "https://api.github.com/repos/owncloud/client/issues/comments/43666536",
  "html_url": "https://github.com/owncloud/client/issues/1787#issuecomment-43666536",
  "issue_url": "https://api.github.com/repos/owncloud/client/issues/1787",
  "id": 43666536,
  "user": {
    "login": "ser72",
    "id": 5174383,
    "avatar_url": "https://avatars.githubusercontent.com/u/5174383?v=3",
    "gravatar_id": "",
    "url": "https://api.github.com/users/ser72",
    "html_url": "https://github.com/ser72",
    "followers_url": "https://api.github.com/users/ser72/followers",
    "following_url": "https://api.github.com/users/ser72/following{/other_user}",
    "gists_url": "https://api.github.com/users/ser72/gists{/gist_id}",
    "starred_url": "https://api.github.com/users/ser72/starred{/owner}{/repo}",
    "subscriptions_url": "https://api.github.com/users/ser72/subscriptions",
    "organizations_url": "https://api.github.com/users/ser72/orgs",
    "repos_url": "https://api.github.com/users/ser72/repos",
    "events_url": "https://api.github.com/users/ser72/events{/privacy}",
    "received_events_url": "https://api.github.com/users/ser72/received_events",
    "type": "User",
    "site_admin": false
  },
  "created_at": "2014-05-20T18:42:18Z",
  "updated_at": "2014-05-20T18:42:18Z",
  "body": "@danimo  I can gladly do so -- just did under Mirall as the oC o/s not the WINDOWS -- it is Ubuntu.\r\n\r\nThe External storage is Windows.\r\n\r\nIt is the client that isn't syncing the file, so I thought it may be a client issue.?"
}
, {
  "url": "https://api.github.com/repos/owncloud/client/issues/comments/43771012",
  "html_url": "https://github.com/owncloud/client/issues/1787#issuecomment-43771012",
  "issue_url": "https://api.github.com/repos/owncloud/client/issues/1787",
  "id": 43771012,
  "user": {
    "login": "ser72",
    "id": 5174383,
    "avatar_url": "https://avatars.githubusercontent.com/u/5174383?v=3",
    "gravatar_id": "",
    "url": "https://api.github.com/users/ser72",
    "html_url": "https://github.com/ser72",
    "followers_url": "https://api.github.com/users/ser72/followers",
    "following_url": "https://api.github.com/users/ser72/following{/other_user}",
    "gists_url": "https://api.github.com/users/ser72/gists{/gist_id}",
    "starred_url": "https://api.github.com/users/ser72/starred{/owner}{/repo}",
    "subscriptions_url": "https://api.github.com/users/ser72/subscriptions",
    "organizations_url": "https://api.github.com/users/ser72/orgs",
    "repos_url": "https://api.github.com/users/ser72/repos",
    "events_url": "https://api.github.com/users/ser72/events{/privacy}",
    "received_events_url": "https://api.github.com/users/ser72/received_events",
    "type": "User",
    "site_admin": false
  },
  "created_at": "2014-05-21T15:30:29Z",
  "updated_at": "2014-05-21T15:30:29Z",
  "body": "@danimo \r\n\r\n\r\nAnother thing to note is when the user goes to the WebUI, the file is renamed there without issue.\r\n\r\nThe issue only has to do with the lack of sync via the desktop client"
}
, {
  "url": "https://api.github.com/repos/owncloud/client/issues/comments/44260404",
  "html_url": "https://github.com/owncloud/client/issues/1787#issuecomment-44260404",
  "issue_url": "https://api.github.com/repos/owncloud/client/issues/1787",
  "id": 44260404,
  "user": {
    "login": "dragotin",
    "id": 1070214,
    "avatar_url": "https://avatars.githubusercontent.com/u/1070214?v=3",
    "gravatar_id": "",
    "url": "https://api.github.com/users/dragotin",
    "html_url": "https://github.com/dragotin",
    "followers_url": "https://api.github.com/users/dragotin/followers",
    "following_url": "https://api.github.com/users/dragotin/following{/other_user}",
    "gists_url": "https://api.github.com/users/dragotin/gists{/gist_id}",
    "starred_url": "https://api.github.com/users/dragotin/starred{/owner}{/repo}",
    "subscriptions_url": "https://api.github.com/users/dragotin/subscriptions",
    "organizations_url": "https://api.github.com/users/dragotin/orgs",
    "repos_url": "https://api.github.com/users/dragotin/repos",
    "events_url": "https://api.github.com/users/dragotin/events{/privacy}",
    "received_events_url": "https://api.github.com/users/dragotin/received_events",
    "type": "User",
    "site_admin": false
  },
  "created_at": "2014-05-27T10:55:46Z",
  "updated_at": "2014-05-27T10:55:46Z",
  "body": "Does the scan-files utility rewrite all the ETags, @PVince81 ? If yes, than the client will resync everything and probably also download the file again. If not, the client will not know that there is a new file in the dir, because the etag did not change. Test: Put another file in there and than it will catch up with all."
}
, {
  "url": "https://api.github.com/repos/owncloud/client/issues/comments/44266056",
  "html_url": "https://github.com/owncloud/client/issues/1787#issuecomment-44266056",
  "issue_url": "https://api.github.com/repos/owncloud/client/issues/1787",
  "id": 44266056,
  "user": {
    "login": "danimo",
    "id": 1315934,
    "avatar_url": "https://avatars.githubusercontent.com/u/1315934?v=3",
    "gravatar_id": "",
    "url": "https://api.github.com/users/danimo",
    "html_url": "https://github.com/danimo",
    "followers_url": "https://api.github.com/users/danimo/followers",
    "following_url": "https://api.github.com/users/danimo/following{/other_user}",
    "gists_url": "https://api.github.com/users/danimo/gists{/gist_id}",
    "starred_url": "https://api.github.com/users/danimo/starred{/owner}{/repo}",
    "subscriptions_url": "https://api.github.com/users/danimo/subscriptions",
    "organizations_url": "https://api.github.com/users/danimo/orgs",
    "repos_url": "https://api.github.com/users/danimo/repos",
    "events_url": "https://api.github.com/users/danimo/events{/privacy}",
    "received_events_url": "https://api.github.com/users/danimo/received_events",
    "type": "User",
    "site_admin": false
  },
  "created_at": "2014-05-27T11:57:48Z",
  "updated_at": "2014-05-27T11:57:48Z",
  "body": "Windows 2008R2 and 2012 have different SMB implementations in use. Depending on the SMB versions understood by the server that runs owncloud, this can result in different behaviors. Same might be true for NTFS behavior changes, but I have not verified that.\r\n\r\nhttp://blogs.technet.com/b/josebda/archive/2012/06/06/windows-server-2012-which-version-of-the-smb-protocol-smb-1-0-smb-2-0-smb-2-1-or-smb-3-0-you-are-using-on-your-file-server.aspx"
}
, {
  "url": "https://api.github.com/repos/owncloud/client/issues/comments/44266147",
  "html_url": "https://github.com/owncloud/client/issues/1787#issuecomment-44266147",
  "issue_url": "https://api.github.com/repos/owncloud/client/issues/1787",
  "id": 44266147,
  "user": {
    "login": "PVince81",
    "id": 277525,
    "avatar_url": "https://avatars.githubusercontent.com/u/277525?v=3",
    "gravatar_id": "",
    "url": "https://api.github.com/users/PVince81",
    "html_url": "https://github.com/PVince81",
    "followers_url": "https://api.github.com/users/PVince81/followers",
    "following_url": "https://api.github.com/users/PVince81/following{/other_user}",
    "gists_url": "https://api.github.com/users/PVince81/gists{/gist_id}",
    "starred_url": "https://api.github.com/users/PVince81/starred{/owner}{/repo}",
    "subscriptions_url": "https://api.github.com/users/PVince81/subscriptions",
    "organizations_url": "https://api.github.com/users/PVince81/orgs",
    "repos_url": "https://api.github.com/users/PVince81/repos",
    "events_url": "https://api.github.com/users/PVince81/events{/privacy}",
    "received_events_url": "https://api.github.com/users/PVince81/received_events",
    "type": "User",
    "site_admin": false
  },
  "created_at": "2014-05-27T11:58:44Z",
  "updated_at": "2014-05-27T11:58:44Z",
  "body": "@dragotin not sure whether the CLI scan command rescans all or just updates. @icewind1991 ?"
}
, {
  "url": "https://api.github.com/repos/owncloud/client/issues/comments/44266612",
  "html_url": "https://github.com/owncloud/client/issues/1787#issuecomment-44266612",
  "issue_url": "https://api.github.com/repos/owncloud/client/issues/1787",
  "id": 44266612,
  "user": {
    "login": "PVince81",
    "id": 277525,
    "avatar_url": "https://avatars.githubusercontent.com/u/277525?v=3",
    "gravatar_id": "",
    "url": "https://api.github.com/users/PVince81",
    "html_url": "https://github.com/PVince81",
    "followers_url": "https://api.github.com/users/PVince81/followers",
    "following_url": "https://api.github.com/users/PVince81/following{/other_user}",
    "gists_url": "https://api.github.com/users/PVince81/gists{/gist_id}",
    "starred_url": "https://api.github.com/users/PVince81/starred{/owner}{/repo}",
    "subscriptions_url": "https://api.github.com/users/PVince81/subscriptions",
    "organizations_url": "https://api.github.com/users/PVince81/orgs",
    "repos_url": "https://api.github.com/users/PVince81/repos",
    "events_url": "https://api.github.com/users/PVince81/events{/privacy}",
    "received_events_url": "https://api.github.com/users/PVince81/received_events",
    "type": "User",
    "site_admin": false
  },
  "created_at": "2014-05-27T12:04:35Z",
  "updated_at": "2014-05-27T12:04:35Z",
  "body": "I have the feeling this is once again the \"detect updates that were made on ext storage\" issue: https://github.com/owncloud/core/issues/5036\r\n\r\n@ser72 what happens if you create another file in the same dir as the renamed file, but this time through the OC interface ? I guess it will trigger a cache update for that folder, and then the sync client will find out about the change."
}
, {
  "url": "https://api.github.com/repos/owncloud/client/issues/comments/44270477",
  "html_url": "https://github.com/owncloud/client/issues/1787#issuecomment-44270477",
  "issue_url": "https://api.github.com/repos/owncloud/client/issues/1787",
  "id": 44270477,
  "user": {
    "login": "ser72",
    "id": 5174383,
    "avatar_url": "https://avatars.githubusercontent.com/u/5174383?v=3",
    "gravatar_id": "",
    "url": "https://api.github.com/users/ser72",
    "html_url": "https://github.com/ser72",
    "followers_url": "https://api.github.com/users/ser72/followers",
    "following_url": "https://api.github.com/users/ser72/following{/other_user}",
    "gists_url": "https://api.github.com/users/ser72/gists{/gist_id}",
    "starred_url": "https://api.github.com/users/ser72/starred{/owner}{/repo}",
    "subscriptions_url": "https://api.github.com/users/ser72/subscriptions",
    "organizations_url": "https://api.github.com/users/ser72/orgs",
    "repos_url": "https://api.github.com/users/ser72/repos",
    "events_url": "https://api.github.com/users/ser72/events{/privacy}",
    "received_events_url": "https://api.github.com/users/ser72/received_events",
    "type": "User",
    "site_admin": false
  },
  "created_at": "2014-05-27T12:47:14Z",
  "updated_at": "2014-05-27T12:47:14Z",
  "body": "@PVince81 \r\n\r\nIf I recall we did do that and yes it did finally take the rename. (However cannot 100% remember)\r\n\r\nEntering the browser itself without creating a file/renaming something didn't cause a resync"
}
, {
  "url": "https://api.github.com/repos/owncloud/client/issues/comments/44270988",
  "html_url": "https://github.com/owncloud/client/issues/1787#issuecomment-44270988",
  "issue_url": "https://api.github.com/repos/owncloud/client/issues/1787",
  "id": 44270988,
  "user": {
    "login": "ser72",
    "id": 5174383,
    "avatar_url": "https://avatars.githubusercontent.com/u/5174383?v=3",
    "gravatar_id": "",
    "url": "https://api.github.com/users/ser72",
    "html_url": "https://github.com/ser72",
    "followers_url": "https://api.github.com/users/ser72/followers",
    "following_url": "https://api.github.com/users/ser72/following{/other_user}",
    "gists_url": "https://api.github.com/users/ser72/gists{/gist_id}",
    "starred_url": "https://api.github.com/users/ser72/starred{/owner}{/repo}",
    "subscriptions_url": "https://api.github.com/users/ser72/subscriptions",
    "organizations_url": "https://api.github.com/users/ser72/orgs",
    "repos_url": "https://api.github.com/users/ser72/repos",
    "events_url": "https://api.github.com/users/ser72/events{/privacy}",
    "received_events_url": "https://api.github.com/users/ser72/received_events",
    "type": "User",
    "site_admin": false
  },
  "created_at": "2014-05-27T12:52:14Z",
  "updated_at": "2014-05-27T12:52:14Z",
  "body": "Had this user mount a 2012 Windows server on the non-working oC instance to see if the issue is related to 2008 v 2012...\r\n\r\nThe results\r\n\r\n----\r\n\r\nCreated a new shared on our 2012 server, then mounted that with the server in question.\r\n \r\nInitial sync downloaded everything without issue.\r\nCreated a new file locally (my Win8 computer), uploaded fine.\r\nRenamed the file on the 2012 server, sync’ed the name change fine.\r\nAdded text in the file on the 2012 server – 20 minutes so far and the change is not reflected in my remote folder.\r\n \r\nLooks like the back end storage doesn’t make a difference."
}
, {
  "url": "https://api.github.com/repos/owncloud/client/issues/comments/44290441",
  "html_url": "https://github.com/owncloud/client/issues/1787#issuecomment-44290441",
  "issue_url": "https://api.github.com/repos/owncloud/client/issues/1787",
  "id": 44290441,
  "user": {
    "login": "ser72",
    "id": 5174383,
    "avatar_url": "https://avatars.githubusercontent.com/u/5174383?v=3",
    "gravatar_id": "",
    "url": "https://api.github.com/users/ser72",
    "html_url": "https://github.com/ser72",
    "followers_url": "https://api.github.com/users/ser72/followers",
    "following_url": "https://api.github.com/users/ser72/following{/other_user}",
    "gists_url": "https://api.github.com/users/ser72/gists{/gist_id}",
    "starred_url": "https://api.github.com/users/ser72/starred{/owner}{/repo}",
    "subscriptions_url": "https://api.github.com/users/ser72/subscriptions",
    "organizations_url": "https://api.github.com/users/ser72/orgs",
    "repos_url": "https://api.github.com/users/ser72/repos",
    "events_url": "https://api.github.com/users/ser72/events{/privacy}",
    "received_events_url": "https://api.github.com/users/ser72/received_events",
    "type": "User",
    "site_admin": false
  },
  "created_at": "2014-05-27T15:18:36Z",
  "updated_at": "2014-05-27T15:18:36Z",
  "body": "From the user:\r\n\r\n---\r\n\r\nIt seems a sync FROM the remote to the cloud triggers the download from the cloud storage.  A new or changed file (when created or changed in the cloud) does not automatically download on the next scan cycle. "
}
, {
  "url": "https://api.github.com/repos/owncloud/client/issues/comments/44291121",
  "html_url": "https://github.com/owncloud/client/issues/1787#issuecomment-44291121",
  "issue_url": "https://api.github.com/repos/owncloud/client/issues/1787",
  "id": 44291121,
  "user": {
    "login": "danimo",
    "id": 1315934,
    "avatar_url": "https://avatars.githubusercontent.com/u/1315934?v=3",
    "gravatar_id": "",
    "url": "https://api.github.com/users/danimo",
    "html_url": "https://github.com/danimo",
    "followers_url": "https://api.github.com/users/danimo/followers",
    "following_url": "https://api.github.com/users/danimo/following{/other_user}",
    "gists_url": "https://api.github.com/users/danimo/gists{/gist_id}",
    "starred_url": "https://api.github.com/users/danimo/starred{/owner}{/repo}",
    "subscriptions_url": "https://api.github.com/users/danimo/subscriptions",
    "organizations_url": "https://api.github.com/users/danimo/orgs",
    "repos_url": "https://api.github.com/users/danimo/repos",
    "events_url": "https://api.github.com/users/danimo/events{/privacy}",
    "received_events_url": "https://api.github.com/users/danimo/received_events",
    "type": "User",
    "site_admin": false
  },
  "created_at": "2014-05-27T15:23:35Z",
  "updated_at": "2014-05-27T15:23:43Z",
  "body": "> It seems a sync FROM the remote to the cloud triggers the download from the cloud storage.\r\n\r\nYes, once triggered for whatever reason, it will sync both ways.\r\n\r\n> A new or changed file (when created or changed in the cloud) does not automatically download on the next scan cycle.\r\n\r\nPlease use a WebDAV client to see if the ETags of the files in question actually change. If not, the client has no means to detect a change has happened."
}
, {
  "url": "https://api.github.com/repos/owncloud/client/issues/comments/44295759",
  "html_url": "https://github.com/owncloud/client/issues/1787#issuecomment-44295759",
  "issue_url": "https://api.github.com/repos/owncloud/client/issues/1787",
  "id": 44295759,
  "user": {
    "login": "ser72",
    "id": 5174383,
    "avatar_url": "https://avatars.githubusercontent.com/u/5174383?v=3",
    "gravatar_id": "",
    "url": "https://api.github.com/users/ser72",
    "html_url": "https://github.com/ser72",
    "followers_url": "https://api.github.com/users/ser72/followers",
    "following_url": "https://api.github.com/users/ser72/following{/other_user}",
    "gists_url": "https://api.github.com/users/ser72/gists{/gist_id}",
    "starred_url": "https://api.github.com/users/ser72/starred{/owner}{/repo}",
    "subscriptions_url": "https://api.github.com/users/ser72/subscriptions",
    "organizations_url": "https://api.github.com/users/ser72/orgs",
    "repos_url": "https://api.github.com/users/ser72/repos",
    "events_url": "https://api.github.com/users/ser72/events{/privacy}",
    "received_events_url": "https://api.github.com/users/ser72/received_events",
    "type": "User",
    "site_admin": false
  },
  "created_at": "2014-05-27T15:56:41Z",
  "updated_at": "2014-05-27T15:56:41Z",
  "body": "@danimo \r\n\r\nCall me crazy, I looked at 2 wevDAV clients (netdrive and native MAC) and couldn't figure out how to find the ETags of a file???  Any ideas?"
}
, {
  "url": "https://api.github.com/repos/owncloud/client/issues/comments/44297110",
  "html_url": "https://github.com/owncloud/client/issues/1787#issuecomment-44297110",
  "issue_url": "https://api.github.com/repos/owncloud/client/issues/1787",
  "id": 44297110,
  "user": {
    "login": "danimo",
    "id": 1315934,
    "avatar_url": "https://avatars.githubusercontent.com/u/1315934?v=3",
    "gravatar_id": "",
    "url": "https://api.github.com/users/danimo",
    "html_url": "https://github.com/danimo",
    "followers_url": "https://api.github.com/users/danimo/followers",
    "following_url": "https://api.github.com/users/danimo/following{/other_user}",
    "gists_url": "https://api.github.com/users/danimo/gists{/gist_id}",
    "starred_url": "https://api.github.com/users/danimo/starred{/owner}{/repo}",
    "subscriptions_url": "https://api.github.com/users/danimo/subscriptions",
    "organizations_url": "https://api.github.com/users/danimo/orgs",
    "repos_url": "https://api.github.com/users/danimo/repos",
    "events_url": "https://api.github.com/users/danimo/events{/privacy}",
    "received_events_url": "https://api.github.com/users/danimo/received_events",
    "type": "User",
    "site_admin": false
  },
  "created_at": "2014-05-27T16:06:38Z",
  "updated_at": "2014-05-27T16:06:38Z",
  "body": "@ser72 I usually resort to the command line and use http://www.webdav.org/cadaver/ for these kind of things. Part of most linux distros."
}
, {
  "url": "https://api.github.com/repos/owncloud/client/issues/comments/44298214",
  "html_url": "https://github.com/owncloud/client/issues/1787#issuecomment-44298214",
  "issue_url": "https://api.github.com/repos/owncloud/client/issues/1787",
  "id": 44298214,
  "user": {
    "login": "dragotin",
    "id": 1070214,
    "avatar_url": "https://avatars.githubusercontent.com/u/1070214?v=3",
    "gravatar_id": "",
    "url": "https://api.github.com/users/dragotin",
    "html_url": "https://github.com/dragotin",
    "followers_url": "https://api.github.com/users/dragotin/followers",
    "following_url": "https://api.github.com/users/dragotin/following{/other_user}",
    "gists_url": "https://api.github.com/users/dragotin/gists{/gist_id}",
    "starred_url": "https://api.github.com/users/dragotin/starred{/owner}{/repo}",
    "subscriptions_url": "https://api.github.com/users/dragotin/subscriptions",
    "organizations_url": "https://api.github.com/users/dragotin/orgs",
    "repos_url": "https://api.github.com/users/dragotin/repos",
    "events_url": "https://api.github.com/users/dragotin/events{/privacy}",
    "received_events_url": "https://api.github.com/users/dragotin/received_events",
    "type": "User",
    "site_admin": false
  },
  "created_at": "2014-05-27T16:15:10Z",
  "updated_at": "2014-05-27T16:15:10Z",
  "body": "@ser72 you have to do a PROPFIND through the WebDAV client and than examine the XML result."
}
, {
  "url": "https://api.github.com/repos/owncloud/client/issues/comments/44526863",
  "html_url": "https://github.com/owncloud/client/issues/1787#issuecomment-44526863",
  "issue_url": "https://api.github.com/repos/owncloud/client/issues/1787",
  "id": 44526863,
  "user": {
    "login": "ser72",
    "id": 5174383,
    "avatar_url": "https://avatars.githubusercontent.com/u/5174383?v=3",
    "gravatar_id": "",
    "url": "https://api.github.com/users/ser72",
    "html_url": "https://github.com/ser72",
    "followers_url": "https://api.github.com/users/ser72/followers",
    "following_url": "https://api.github.com/users/ser72/following{/other_user}",
    "gists_url": "https://api.github.com/users/ser72/gists{/gist_id}",
    "starred_url": "https://api.github.com/users/ser72/starred{/owner}{/repo}",
    "subscriptions_url": "https://api.github.com/users/ser72/subscriptions",
    "organizations_url": "https://api.github.com/users/ser72/orgs",
    "repos_url": "https://api.github.com/users/ser72/repos",
    "events_url": "https://api.github.com/users/ser72/events{/privacy}",
    "received_events_url": "https://api.github.com/users/ser72/received_events",
    "type": "User",
    "site_admin": false
  },
  "created_at": "2014-05-29T12:36:25Z",
  "updated_at": "2014-05-29T12:36:25Z",
  "body": "@danimo @dragotin \r\n\r\nThe ETags do change...\r\n\r\n\r\ndav:/owncloud/remote.php/webdav/my Folder/> propget 'gen16 vlan list.txt'\r\nFetching properties for `gen16 vlan list.txt':\r\nhttp://owncloud.org/ns id = 00296237oce07d5deacb\r\nDAV: getetag = \"537f6a5503ae5\"\r\nDAV: getlastmodified = Fri, 24 Jan 2014 15:52:53 GMT\r\nDAV: getcontentlength = 414\r\nDAV: resourcetype =\r\nDAV: getcontenttype = text/plain\r\n\r\ndav:/owncloud/remote.php/webdav/my Folder/> propget 'gen16 vlan list.txt'\r\nFetching properties for `gen16 vlan list.txt':\r\nhttp://owncloud.org/ns id = 00296237oce07d5deacb\r\nDAV: getetag = \"538726d87e0f9\"\r\nDAV: getlastmodified = Thu, 29 May 2014 12:23:56 GMT\r\nDAV: getcontentlength = 432\r\nDAV: resourcetype =\r\nDAV: getcontenttype = text/plain\r\n"
}
, {
  "url": "https://api.github.com/repos/owncloud/client/issues/comments/44569639",
  "html_url": "https://github.com/owncloud/client/issues/1787#issuecomment-44569639",
  "issue_url": "https://api.github.com/repos/owncloud/client/issues/1787",
  "id": 44569639,
  "user": {
    "login": "dragotin",
    "id": 1070214,
    "avatar_url": "https://avatars.githubusercontent.com/u/1070214?v=3",
    "gravatar_id": "",
    "url": "https://api.github.com/users/dragotin",
    "html_url": "https://github.com/dragotin",
    "followers_url": "https://api.github.com/users/dragotin/followers",
    "following_url": "https://api.github.com/users/dragotin/following{/other_user}",
    "gists_url": "https://api.github.com/users/dragotin/gists{/gist_id}",
    "starred_url": "https://api.github.com/users/dragotin/starred{/owner}{/repo}",
    "subscriptions_url": "https://api.github.com/users/dragotin/subscriptions",
    "organizations_url": "https://api.github.com/users/dragotin/orgs",
    "repos_url": "https://api.github.com/users/dragotin/repos",
    "events_url": "https://api.github.com/users/dragotin/events{/privacy}",
    "received_events_url": "https://api.github.com/users/dragotin/received_events",
    "type": "User",
    "site_admin": false
  },
  "created_at": "2014-05-29T18:52:22Z",
  "updated_at": "2014-05-29T18:52:22Z",
  "body": "Do they also change for the directory and all parent directories, like ```my Folder``` in this example? That is needed to be able to detect the change in the dir."
}
, {
  "url": "https://api.github.com/repos/owncloud/client/issues/comments/44570995",
  "html_url": "https://github.com/owncloud/client/issues/1787#issuecomment-44570995",
  "issue_url": "https://api.github.com/repos/owncloud/client/issues/1787",
  "id": 44570995,
  "user": {
    "login": "ser72",
    "id": 5174383,
    "avatar_url": "https://avatars.githubusercontent.com/u/5174383?v=3",
    "gravatar_id": "",
    "url": "https://api.github.com/users/ser72",
    "html_url": "https://github.com/ser72",
    "followers_url": "https://api.github.com/users/ser72/followers",
    "following_url": "https://api.github.com/users/ser72/following{/other_user}",
    "gists_url": "https://api.github.com/users/ser72/gists{/gist_id}",
    "starred_url": "https://api.github.com/users/ser72/starred{/owner}{/repo}",
    "subscriptions_url": "https://api.github.com/users/ser72/subscriptions",
    "organizations_url": "https://api.github.com/users/ser72/orgs",
    "repos_url": "https://api.github.com/users/ser72/repos",
    "events_url": "https://api.github.com/users/ser72/events{/privacy}",
    "received_events_url": "https://api.github.com/users/ser72/received_events",
    "type": "User",
    "site_admin": false
  },
  "created_at": "2014-05-29T19:03:28Z",
  "updated_at": "2014-05-29T19:03:28Z",
  "body": "Requesting information"
}
, {
  "url": "https://api.github.com/repos/owncloud/client/issues/comments/44579668",
  "html_url": "https://github.com/owncloud/client/issues/1787#issuecomment-44579668",
  "issue_url": "https://api.github.com/repos/owncloud/client/issues/1787",
  "id": 44579668,
  "user": {
    "login": "ser72",
    "id": 5174383,
    "avatar_url": "https://avatars.githubusercontent.com/u/5174383?v=3",
    "gravatar_id": "",
    "url": "https://api.github.com/users/ser72",
    "html_url": "https://github.com/ser72",
    "followers_url": "https://api.github.com/users/ser72/followers",
    "following_url": "https://api.github.com/users/ser72/following{/other_user}",
    "gists_url": "https://api.github.com/users/ser72/gists{/gist_id}",
    "starred_url": "https://api.github.com/users/ser72/starred{/owner}{/repo}",
    "subscriptions_url": "https://api.github.com/users/ser72/subscriptions",
    "organizations_url": "https://api.github.com/users/ser72/orgs",
    "repos_url": "https://api.github.com/users/ser72/repos",
    "events_url": "https://api.github.com/users/ser72/events{/privacy}",
    "received_events_url": "https://api.github.com/users/ser72/received_events",
    "type": "User",
    "site_admin": false
  },
  "created_at": "2014-05-29T20:17:50Z",
  "updated_at": "2014-05-29T20:17:50Z",
  "body": "@dragotin @danimo \r\n\r\nSeems the ETags on the folders don't change.\r\n\r\n\r\ndav:/owncloud/remote.php/webdav/> cd cla-XXX \r\ndav:/owncloud/remote.php/webdav/XXX/> propget CL./\r\nFetching properties for `./':\r\nhttp://owncloud.org/ns id = 00000005oce07d5deacb\r\n\r\nDAV: getetag = \"5387679e3205f\"\r\n\r\ndav:/owncloud/remote.php/webdav/XXX/> cd 'my Folder\r\ndav:/owncloud/remote.php/webdav/XXX/my Folder/> propget ./\r\n\r\nDAV: getetag = \"538767c88d6de\"\r\nDAV: getlastmodified = Thu, 29 May 2014 17:00:24 GMT\r\n\r\ndav:/owncloud/remote.php/webdav/XXX/my Folder/> propget 'gen16 vlan list.txt \r\n\r\nDAV: getetag = \"53878f15554b6\"\r\nDAV: getlastmodified = Thu, 29 May 2014 19:48:37 GMT\r\n\r\ndav:/owncloud/remote.php/webdav/XXX/my Folder/> propget ./\r\n\r\nDAV: getetag = \"538767c88d6de\"\r\nDAV: getlastmodified = Thu, 29 May 2014 17:00:24 GMT\r\n\r\n\r\ndav:/owncloud/remote.php/webdav/XXX/my Folder/> cd ..\r\ndav:/owncloud/remote.php/webdav/XXX/> propget ./\r\n\r\nDAV: getetag = \"5387679e3205f\"\r\nDAV: getlastmodified = Wed, 28 May 2014 16:53:54 GMT\r\n\r\n\r\n\r\n\r\n\r\n\r\n\r\n\r\n\r\n"
}
, {
  "url": "https://api.github.com/repos/owncloud/client/issues/comments/44589364",
  "html_url": "https://github.com/owncloud/client/issues/1787#issuecomment-44589364",
  "issue_url": "https://api.github.com/repos/owncloud/client/issues/1787",
  "id": 44589364,
  "user": {
    "login": "dragotin",
    "id": 1070214,
    "avatar_url": "https://avatars.githubusercontent.com/u/1070214?v=3",
    "gravatar_id": "",
    "url": "https://api.github.com/users/dragotin",
    "html_url": "https://github.com/dragotin",
    "followers_url": "https://api.github.com/users/dragotin/followers",
    "following_url": "https://api.github.com/users/dragotin/following{/other_user}",
    "gists_url": "https://api.github.com/users/dragotin/gists{/gist_id}",
    "starred_url": "https://api.github.com/users/dragotin/starred{/owner}{/repo}",
    "subscriptions_url": "https://api.github.com/users/dragotin/subscriptions",
    "organizations_url": "https://api.github.com/users/dragotin/orgs",
    "repos_url": "https://api.github.com/users/dragotin/repos",
    "events_url": "https://api.github.com/users/dragotin/events{/privacy}",
    "received_events_url": "https://api.github.com/users/dragotin/received_events",
    "type": "User",
    "site_admin": false
  },
  "created_at": "2014-05-29T21:44:00Z",
  "updated_at": "2014-05-29T21:44:00Z",
  "body": "Yes, that's what I thought. @PVince81 can you jump in?"
}
, {
  "url": "https://api.github.com/repos/owncloud/client/issues/comments/44630270",
  "html_url": "https://github.com/owncloud/client/issues/1787#issuecomment-44630270",
  "issue_url": "https://api.github.com/repos/owncloud/client/issues/1787",
  "id": 44630270,
  "user": {
    "login": "PVince81",
    "id": 277525,
    "avatar_url": "https://avatars.githubusercontent.com/u/277525?v=3",
    "gravatar_id": "",
    "url": "https://api.github.com/users/PVince81",
    "html_url": "https://github.com/PVince81",
    "followers_url": "https://api.github.com/users/PVince81/followers",
    "following_url": "https://api.github.com/users/PVince81/following{/other_user}",
    "gists_url": "https://api.github.com/users/PVince81/gists{/gist_id}",
    "starred_url": "https://api.github.com/users/PVince81/starred{/owner}{/repo}",
    "subscriptions_url": "https://api.github.com/users/PVince81/subscriptions",
    "organizations_url": "https://api.github.com/users/PVince81/orgs",
    "repos_url": "https://api.github.com/users/PVince81/repos",
    "events_url": "https://api.github.com/users/PVince81/events{/privacy}",
    "received_events_url": "https://api.github.com/users/PVince81/received_events",
    "type": "User",
    "site_admin": false
  },
  "created_at": "2014-05-30T09:20:23Z",
  "updated_at": "2014-05-30T09:20:23Z",
  "body": "I think renaming files works, it's editing that doesn't:\r\n\r\nHere are my steps:\r\n1) Set up OC 6.0.3\r\n2) Enable ext storage\r\n3) Mount SMB ext storage as \"/smb\"\r\n4) Use dav client to connect to the server\r\n5) On the remote SMB server: create subfolders \"a/b\"\r\n6) With dav client: `cd /smb`; `cd a`; `cd b` (need step by step because it will rescan for each step it seems)\r\n7) DAV client: `propget .`: etag is 53884bb95480b\r\n8) On the remote SMB server: create a file \"test.txt\" with contents\r\n9) DAV client: `propget .`: etag is 53884c0a87aea\r\n10) DAV client: `ls`: file \"test.txt\" is visible\r\n11) On the remote SMB server: rename the file \"test.txt\" to \"test renamed.txt\"\r\n12) DAV client: `propget .`: 53884c3c2d55d\r\n13) DAV client: `ls`: file \"test rename.txt\" is visible\r\n\r\nSo far so good, the etag changes when renaming the file.\r\n\r\n14) Write down the size of \"test renamed.txt\": mine is 14 bytes\r\n15) On the remote SMB server: edit \"test renamed.txt\" and add many bytes, mine now has 63 bytes\r\n16) DAV client: `propget .`: 53884c3c2d55d\r\n\r\nThe etag doesn't change because the remote folder \"a/b\" still has the same mtime as before.\r\nThe folder's mtime only changes when files are renamed, which kind of makes sense.\r\n\r\nThe file scanner only explores deeper whenever the mtime doesn't match the cached one. CC @icewind1991 \r\n\r\nNot sure yet what strategy can be used to detect such changes.\r\nNeeds further research.\r\n"
}
, {
  "url": "https://api.github.com/repos/owncloud/client/issues/comments/44631292",
  "html_url": "https://github.com/owncloud/client/issues/1787#issuecomment-44631292",
  "issue_url": "https://api.github.com/repos/owncloud/client/issues/1787",
  "id": 44631292,
  "user": {
    "login": "PVince81",
    "id": 277525,
    "avatar_url": "https://avatars.githubusercontent.com/u/277525?v=3",
    "gravatar_id": "",
    "url": "https://api.github.com/users/PVince81",
    "html_url": "https://github.com/PVince81",
    "followers_url": "https://api.github.com/users/PVince81/followers",
    "following_url": "https://api.github.com/users/PVince81/following{/other_user}",
    "gists_url": "https://api.github.com/users/PVince81/gists{/gist_id}",
    "starred_url": "https://api.github.com/users/PVince81/starred{/owner}{/repo}",
    "subscriptions_url": "https://api.github.com/users/PVince81/subscriptions",
    "organizations_url": "https://api.github.com/users/PVince81/orgs",
    "repos_url": "https://api.github.com/users/PVince81/repos",
    "events_url": "https://api.github.com/users/PVince81/events{/privacy}",
    "received_events_url": "https://api.github.com/users/PVince81/received_events",
    "type": "User",
    "site_admin": false
  },
  "created_at": "2014-05-30T09:33:20Z",
  "updated_at": "2014-05-30T09:33:20Z",
  "body": "I suspect that the parent folder etag also won't be updated, even when renaming the file:\r\n\r\n1) DAV client: `cd /smb`, `propget .`: 53884bafe86d1\r\n2) DAV client: `propget a`: 53884bb008b23\r\n3) DAV client `propget a/b`: 53884eb3138e5\r\n4) SMB server: rename \"test renamed.txt\" to \"test abc.txt\"\r\n5) DAV client: `propget .`: 53884bafe86d1 (same, mtime didn't change)\r\n6) DAV client: `propget a`: 53884bb008b23 (same, mtime didn't change)\r\n7) DAV client `propget a/b`: 53884ef28fea6 (changed, due to mtime change)\r\n8) DAV client: `propget .`: 53884bafe86d1 (same, no propagation ?)\r\n9) DAV client: `propget a`: 53884bb008b23 (same, no propagation ?)\r\n\r\nAt step 7 the scanner will find the modified mtime and update the etag, which is correct.\r\nBut the strange thing is that starting from step 7 the etag isn't propagated to the parent directories, which is probably yet another issue.\r\n\r\nTo sum up the issues:\r\na) file content changes cannot be detected because containing folder's mtime doesn't change\r\nb) folder changes when renaming files only change the mtime of the containing folder, so the scanner cannot detect the change when scanning the parent's parent folder\r\nc) possible bug: even when the scanner eventually find out about the change, it somehow doesn't propagate it\r\n\r\nI guess we should at least be able to fix c).\r\n"
}
, {
  "url": "https://api.github.com/repos/owncloud/client/issues/comments/44631555",
  "html_url": "https://github.com/owncloud/client/issues/1787#issuecomment-44631555",
  "issue_url": "https://api.github.com/repos/owncloud/client/issues/1787",
  "id": 44631555,
  "user": {
    "login": "PVince81",
    "id": 277525,
    "avatar_url": "https://avatars.githubusercontent.com/u/277525?v=3",
    "gravatar_id": "",
    "url": "https://api.github.com/users/PVince81",
    "html_url": "https://github.com/PVince81",
    "followers_url": "https://api.github.com/users/PVince81/followers",
    "following_url": "https://api.github.com/users/PVince81/following{/other_user}",
    "gists_url": "https://api.github.com/users/PVince81/gists{/gist_id}",
    "starred_url": "https://api.github.com/users/PVince81/starred{/owner}{/repo}",
    "subscriptions_url": "https://api.github.com/users/PVince81/subscriptions",
    "organizations_url": "https://api.github.com/users/PVince81/orgs",
    "repos_url": "https://api.github.com/users/PVince81/repos",
    "events_url": "https://api.github.com/users/PVince81/events{/privacy}",
    "received_events_url": "https://api.github.com/users/PVince81/received_events",
    "type": "User",
    "site_admin": false
  },
  "created_at": "2014-05-30T09:37:32Z",
  "updated_at": "2014-05-30T09:37:32Z",
  "body": "After running the file scanner with `./occ files:scan --all`, the output tells me that it scans all subfolders.\r\nBut running a `propget` shows me that the etags still didn't change."
}
, {
  "url": "https://api.github.com/repos/owncloud/client/issues/comments/44633707",
  "html_url": "https://github.com/owncloud/client/issues/1787#issuecomment-44633707",
  "issue_url": "https://api.github.com/repos/owncloud/client/issues/1787",
  "id": 44633707,
  "user": {
    "login": "PVince81",
    "id": 277525,
    "avatar_url": "https://avatars.githubusercontent.com/u/277525?v=3",
    "gravatar_id": "",
    "url": "https://api.github.com/users/PVince81",
    "html_url": "https://github.com/PVince81",
    "followers_url": "https://api.github.com/users/PVince81/followers",
    "following_url": "https://api.github.com/users/PVince81/following{/other_user}",
    "gists_url": "https://api.github.com/users/PVince81/gists{/gist_id}",
    "starred_url": "https://api.github.com/users/PVince81/starred{/owner}{/repo}",
    "subscriptions_url": "https://api.github.com/users/PVince81/subscriptions",
    "organizations_url": "https://api.github.com/users/PVince81/orgs",
    "repos_url": "https://api.github.com/users/PVince81/repos",
    "events_url": "https://api.github.com/users/PVince81/events{/privacy}",
    "received_events_url": "https://api.github.com/users/PVince81/received_events",
    "type": "User",
    "site_admin": false
  },
  "created_at": "2014-05-30T09:44:37Z",
  "updated_at": "2014-05-30T09:44:37Z",
  "body": "I believe this is for the same reasons as c): the etag of the parent of the renamed file will be changed, but not propagated to the parents.\r\n\r\nSo I believe that if we manage to fix c), the command line scan command should at least be able to refresh the etags of the parents (in case the user hasn't navigated into those changed folders already).\r\n"
}
, {
  "url": "https://api.github.com/repos/owncloud/client/issues/comments/44636133",
  "html_url": "https://github.com/owncloud/client/issues/1787#issuecomment-44636133",
  "issue_url": "https://api.github.com/repos/owncloud/client/issues/1787",
  "id": 44636133,
  "user": {
    "login": "PVince81",
    "id": 277525,
    "avatar_url": "https://avatars.githubusercontent.com/u/277525?v=3",
    "gravatar_id": "",
    "url": "https://api.github.com/users/PVince81",
    "html_url": "https://github.com/PVince81",
    "followers_url": "https://api.github.com/users/PVince81/followers",
    "following_url": "https://api.github.com/users/PVince81/following{/other_user}",
    "gists_url": "https://api.github.com/users/PVince81/gists{/gist_id}",
    "starred_url": "https://api.github.com/users/PVince81/starred{/owner}{/repo}",
    "subscriptions_url": "https://api.github.com/users/PVince81/subscriptions",
    "organizations_url": "https://api.github.com/users/PVince81/orgs",
    "repos_url": "https://api.github.com/users/PVince81/repos",
    "events_url": "https://api.github.com/users/PVince81/events{/privacy}",
    "received_events_url": "https://api.github.com/users/PVince81/received_events",
    "type": "User",
    "site_admin": false
  },
  "created_at": "2014-05-30T10:18:04Z",
  "updated_at": "2014-05-30T10:18:04Z",
  "body": "I've found code in the `Scanner` class that will propagate the etag to parents, but that one is only activated whenever the cached etag was empty (probably for the initial scan).\r\n\r\nI'm not sure whether forcing the propagation for every change is a good idea, because it means that for every file it will change the parent folder's etags during scan. One idea would be to first finish scanning while gathering the list of changed folders, and only then do the propagation to prevent changing the parent etags multiple times.\r\n\r\n@icewind1991 let's discuss this next week "
}
, {
  "url": "https://api.github.com/repos/owncloud/client/issues/comments/44860873",
  "html_url": "https://github.com/owncloud/client/issues/1787#issuecomment-44860873",
  "issue_url": "https://api.github.com/repos/owncloud/client/issues/1787",
  "id": 44860873,
  "user": {
    "login": "PVince81",
    "id": 277525,
    "avatar_url": "https://avatars.githubusercontent.com/u/277525?v=3",
    "gravatar_id": "",
    "url": "https://api.github.com/users/PVince81",
    "html_url": "https://github.com/PVince81",
    "followers_url": "https://api.github.com/users/PVince81/followers",
    "following_url": "https://api.github.com/users/PVince81/following{/other_user}",
    "gists_url": "https://api.github.com/users/PVince81/gists{/gist_id}",
    "starred_url": "https://api.github.com/users/PVince81/starred{/owner}{/repo}",
    "subscriptions_url": "https://api.github.com/users/PVince81/subscriptions",
    "organizations_url": "https://api.github.com/users/PVince81/orgs",
    "repos_url": "https://api.github.com/users/PVince81/repos",
    "events_url": "https://api.github.com/users/PVince81/events{/privacy}",
    "received_events_url": "https://api.github.com/users/PVince81/received_events",
    "type": "User",
    "site_admin": false
  },
  "created_at": "2014-06-02T16:40:22Z",
  "updated_at": "2014-06-02T16:40:22Z",
  "body": "@icewind1991 prepared a PR for issue c) here: https://github.com/owncloud/core/pull/8822"
}
, {
  "url": "https://api.github.com/repos/owncloud/client/issues/comments/44860889",
  "html_url": "https://github.com/owncloud/client/issues/1787#issuecomment-44860889",
  "issue_url": "https://api.github.com/repos/owncloud/client/issues/1787",
  "id": 44860889,
  "user": {
    "login": "PVince81",
    "id": 277525,
    "avatar_url": "https://avatars.githubusercontent.com/u/277525?v=3",
    "gravatar_id": "",
    "url": "https://api.github.com/users/PVince81",
    "html_url": "https://github.com/PVince81",
    "followers_url": "https://api.github.com/users/PVince81/followers",
    "following_url": "https://api.github.com/users/PVince81/following{/other_user}",
    "gists_url": "https://api.github.com/users/PVince81/gists{/gist_id}",
    "starred_url": "https://api.github.com/users/PVince81/starred{/owner}{/repo}",
    "subscriptions_url": "https://api.github.com/users/PVince81/subscriptions",
    "organizations_url": "https://api.github.com/users/PVince81/orgs",
    "repos_url": "https://api.github.com/users/PVince81/repos",
    "events_url": "https://api.github.com/users/PVince81/events{/privacy}",
    "received_events_url": "https://api.github.com/users/PVince81/received_events",
    "type": "User",
    "site_admin": false
  },
  "created_at": "2014-06-02T16:40:29Z",
  "updated_at": "2014-06-02T16:40:29Z",
  "body": "@ser72 you might want to have a try with that one."
}
, {
  "url": "https://api.github.com/repos/owncloud/client/issues/comments/45198869",
  "html_url": "https://github.com/owncloud/client/issues/1787#issuecomment-45198869",
  "issue_url": "https://api.github.com/repos/owncloud/client/issues/1787",
  "id": 45198869,
  "user": {
    "login": "ogoffart",
    "id": 959326,
    "avatar_url": "https://avatars.githubusercontent.com/u/959326?v=3",
    "gravatar_id": "",
    "url": "https://api.github.com/users/ogoffart",
    "html_url": "https://github.com/ogoffart",
    "followers_url": "https://api.github.com/users/ogoffart/followers",
    "following_url": "https://api.github.com/users/ogoffart/following{/other_user}",
    "gists_url": "https://api.github.com/users/ogoffart/gists{/gist_id}",
    "starred_url": "https://api.github.com/users/ogoffart/starred{/owner}{/repo}",
    "subscriptions_url": "https://api.github.com/users/ogoffart/subscriptions",
    "organizations_url": "https://api.github.com/users/ogoffart/orgs",
    "repos_url": "https://api.github.com/users/ogoffart/repos",
    "events_url": "https://api.github.com/users/ogoffart/events{/privacy}",
    "received_events_url": "https://api.github.com/users/ogoffart/received_events",
    "type": "User",
    "site_admin": false
  },
  "created_at": "2014-06-05T09:28:56Z",
  "updated_at": "2014-06-05T09:28:56Z",
  "body": "This is not a bug on the client.  Let's track this error on the server."
}
, {
  "url": "https://api.github.com/repos/owncloud/client/issues/comments/45199226",
  "html_url": "https://github.com/owncloud/client/issues/1787#issuecomment-45199226",
  "issue_url": "https://api.github.com/repos/owncloud/client/issues/1787",
  "id": 45199226,
  "user": {
    "login": "PVince81",
    "id": 277525,
    "avatar_url": "https://avatars.githubusercontent.com/u/277525?v=3",
    "gravatar_id": "",
    "url": "https://api.github.com/users/PVince81",
    "html_url": "https://github.com/PVince81",
    "followers_url": "https://api.github.com/users/PVince81/followers",
    "following_url": "https://api.github.com/users/PVince81/following{/other_user}",
    "gists_url": "https://api.github.com/users/PVince81/gists{/gist_id}",
    "starred_url": "https://api.github.com/users/PVince81/starred{/owner}{/repo}",
    "subscriptions_url": "https://api.github.com/users/PVince81/subscriptions",
    "organizations_url": "https://api.github.com/users/PVince81/orgs",
    "repos_url": "https://api.github.com/users/PVince81/repos",
    "events_url": "https://api.github.com/users/PVince81/events{/privacy}",
    "received_events_url": "https://api.github.com/users/PVince81/received_events",
    "type": "User",
    "site_admin": false
  },
  "created_at": "2014-06-05T09:33:10Z",
  "updated_at": "2014-06-05T09:33:10Z",
  "body": "Let's continue in https://github.com/owncloud/core/issues/5036 which is about general updating issues with ext storage."
}
]
