[
{
  "url": "https://api.github.com/repos/owncloud/client/issues/comments/97113378",
  "html_url": "https://github.com/owncloud/client/issues/3171#issuecomment-97113378",
  "issue_url": "https://api.github.com/repos/owncloud/client/issues/3171",
  "id": 97113378,
  "user": {
    "login": "jturcotte",
    "id": 839935,
    "avatar_url": "https://avatars.githubusercontent.com/u/839935?v=3",
    "gravatar_id": "",
    "url": "https://api.github.com/users/jturcotte",
    "html_url": "https://github.com/jturcotte",
    "followers_url": "https://api.github.com/users/jturcotte/followers",
    "following_url": "https://api.github.com/users/jturcotte/following{/other_user}",
    "gists_url": "https://api.github.com/users/jturcotte/gists{/gist_id}",
    "starred_url": "https://api.github.com/users/jturcotte/starred{/owner}{/repo}",
    "subscriptions_url": "https://api.github.com/users/jturcotte/subscriptions",
    "organizations_url": "https://api.github.com/users/jturcotte/orgs",
    "repos_url": "https://api.github.com/users/jturcotte/repos",
    "events_url": "https://api.github.com/users/jturcotte/events{/privacy}",
    "received_events_url": "https://api.github.com/users/jturcotte/received_events",
    "type": "User",
    "site_admin": false
  },
  "created_at": "2015-04-28T15:52:16Z",
  "updated_at": "2015-04-28T15:52:16Z",
  "body": "cc @ogoffart @jancborchardt\r\n\r\nWhat do you think, would it help or would it be more confusing?"
}
, {
  "url": "https://api.github.com/repos/owncloud/client/issues/comments/169631816",
  "html_url": "https://github.com/owncloud/client/issues/3171#issuecomment-169631816",
  "issue_url": "https://api.github.com/repos/owncloud/client/issues/3171",
  "id": 169631816,
  "user": {
    "login": "jturcotte",
    "id": 839935,
    "avatar_url": "https://avatars.githubusercontent.com/u/839935?v=3",
    "gravatar_id": "",
    "url": "https://api.github.com/users/jturcotte",
    "html_url": "https://github.com/jturcotte",
    "followers_url": "https://api.github.com/users/jturcotte/followers",
    "following_url": "https://api.github.com/users/jturcotte/following{/other_user}",
    "gists_url": "https://api.github.com/users/jturcotte/gists{/gist_id}",
    "starred_url": "https://api.github.com/users/jturcotte/starred{/owner}{/repo}",
    "subscriptions_url": "https://api.github.com/users/jturcotte/subscriptions",
    "organizations_url": "https://api.github.com/users/jturcotte/orgs",
    "repos_url": "https://api.github.com/users/jturcotte/repos",
    "events_url": "https://api.github.com/users/jturcotte/events{/privacy}",
    "received_events_url": "https://api.github.com/users/jturcotte/received_events",
    "type": "User",
    "site_admin": false
  },
  "created_at": "2016-01-07T11:06:29Z",
  "updated_at": "2016-01-07T11:06:29Z",
  "body": "I think that the current state is much better already, many error messages are still confusing, but it's at least possible for the user to find out if anything is still wrong."
}
, {
  "url": "https://api.github.com/repos/owncloud/client/issues/comments/169940216",
  "html_url": "https://github.com/owncloud/client/issues/3171#issuecomment-169940216",
  "issue_url": "https://api.github.com/repos/owncloud/client/issues/3171",
  "id": 169940216,
  "user": {
    "login": "Dianafg76",
    "id": 12032058,
    "avatar_url": "https://avatars.githubusercontent.com/u/12032058?v=3",
    "gravatar_id": "",
    "url": "https://api.github.com/users/Dianafg76",
    "html_url": "https://github.com/Dianafg76",
    "followers_url": "https://api.github.com/users/Dianafg76/followers",
    "following_url": "https://api.github.com/users/Dianafg76/following{/other_user}",
    "gists_url": "https://api.github.com/users/Dianafg76/gists{/gist_id}",
    "starred_url": "https://api.github.com/users/Dianafg76/starred{/owner}{/repo}",
    "subscriptions_url": "https://api.github.com/users/Dianafg76/subscriptions",
    "organizations_url": "https://api.github.com/users/Dianafg76/orgs",
    "repos_url": "https://api.github.com/users/Dianafg76/repos",
    "events_url": "https://api.github.com/users/Dianafg76/events{/privacy}",
    "received_events_url": "https://api.github.com/users/Dianafg76/received_events",
    "type": "User",
    "site_admin": false
  },
  "created_at": "2016-01-08T09:06:04Z",
  "updated_at": "2016-01-08T09:06:04Z",
  "body": "I tested this issue\r\nDesktop v ownCloud-2.1.1.3016-nightly20160108.pkg\r\nServer v {\"installed\":true,\"maintenance\":false,\"version\":\"8.2.2.2\",\"versionstring\":\"8.2.2\",\"edition\":\"Enterprise\"}\r\nClosed"
}
]
