[
{
  "url": "https://api.github.com/repos/owncloud/client/issues/comments/130605087",
  "html_url": "https://github.com/owncloud/client/issues/3615#issuecomment-130605087",
  "issue_url": "https://api.github.com/repos/owncloud/client/issues/3615",
  "id": 130605087,
  "user": {
    "login": "guruz",
    "id": 959327,
    "avatar_url": "https://avatars.githubusercontent.com/u/959327?v=3",
    "gravatar_id": "",
    "url": "https://api.github.com/users/guruz",
    "html_url": "https://github.com/guruz",
    "followers_url": "https://api.github.com/users/guruz/followers",
    "following_url": "https://api.github.com/users/guruz/following{/other_user}",
    "gists_url": "https://api.github.com/users/guruz/gists{/gist_id}",
    "starred_url": "https://api.github.com/users/guruz/starred{/owner}{/repo}",
    "subscriptions_url": "https://api.github.com/users/guruz/subscriptions",
    "organizations_url": "https://api.github.com/users/guruz/orgs",
    "repos_url": "https://api.github.com/users/guruz/repos",
    "events_url": "https://api.github.com/users/guruz/events{/privacy}",
    "received_events_url": "https://api.github.com/users/guruz/received_events",
    "type": "User",
    "site_admin": false
  },
  "created_at": "2015-08-13T10:26:38Z",
  "updated_at": "2015-08-13T10:26:38Z",
  "body": "@pascalBokBok Your report does not contain any version information."
}
, {
  "url": "https://api.github.com/repos/owncloud/client/issues/comments/130605605",
  "html_url": "https://github.com/owncloud/client/issues/3615#issuecomment-130605605",
  "issue_url": "https://api.github.com/repos/owncloud/client/issues/3615",
  "id": 130605605,
  "user": {
    "login": "pascalBokBok",
    "id": 639487,
    "avatar_url": "https://avatars.githubusercontent.com/u/639487?v=3",
    "gravatar_id": "",
    "url": "https://api.github.com/users/pascalBokBok",
    "html_url": "https://github.com/pascalBokBok",
    "followers_url": "https://api.github.com/users/pascalBokBok/followers",
    "following_url": "https://api.github.com/users/pascalBokBok/following{/other_user}",
    "gists_url": "https://api.github.com/users/pascalBokBok/gists{/gist_id}",
    "starred_url": "https://api.github.com/users/pascalBokBok/starred{/owner}{/repo}",
    "subscriptions_url": "https://api.github.com/users/pascalBokBok/subscriptions",
    "organizations_url": "https://api.github.com/users/pascalBokBok/orgs",
    "repos_url": "https://api.github.com/users/pascalBokBok/repos",
    "events_url": "https://api.github.com/users/pascalBokBok/events{/privacy}",
    "received_events_url": "https://api.github.com/users/pascalBokBok/received_events",
    "type": "User",
    "site_admin": false
  },
  "created_at": "2015-08-13T10:30:07Z",
  "updated_at": "2015-08-13T10:30:07Z",
  "body": "Using client 1.8.4 against owncloud 8.1.1\r\nI'm using Kubuntu 14.04 with KDE 4.13\r\n\r\nAs can be seen in #3613, @phil-davis has the same experience with 2.0.0.5393 Windows 10"
}
, {
  "url": "https://api.github.com/repos/owncloud/client/issues/comments/131275766",
  "html_url": "https://github.com/owncloud/client/issues/3615#issuecomment-131275766",
  "issue_url": "https://api.github.com/repos/owncloud/client/issues/3615",
  "id": 131275766,
  "user": {
    "login": "danimo",
    "id": 1315934,
    "avatar_url": "https://avatars.githubusercontent.com/u/1315934?v=3",
    "gravatar_id": "",
    "url": "https://api.github.com/users/danimo",
    "html_url": "https://github.com/danimo",
    "followers_url": "https://api.github.com/users/danimo/followers",
    "following_url": "https://api.github.com/users/danimo/following{/other_user}",
    "gists_url": "https://api.github.com/users/danimo/gists{/gist_id}",
    "starred_url": "https://api.github.com/users/danimo/starred{/owner}{/repo}",
    "subscriptions_url": "https://api.github.com/users/danimo/subscriptions",
    "organizations_url": "https://api.github.com/users/danimo/orgs",
    "repos_url": "https://api.github.com/users/danimo/repos",
    "events_url": "https://api.github.com/users/danimo/events{/privacy}",
    "received_events_url": "https://api.github.com/users/danimo/received_events",
    "type": "User",
    "site_admin": false
  },
  "created_at": "2015-08-15T01:08:03Z",
  "updated_at": "2015-08-15T01:08:03Z",
  "body": ">When the file test.txt is updated in my ClientSync folder on a different computer I get a notification:\r\n>\"ClientSync and 1 other files have been updated\"\r\n>A better notification would be:\r\n>\"Updated ClientSync/test.txt\"\r\n>When multiple files:\r\n>\"Updated 7 files in ClientSync\"\r\n\r\nNo. That's not the same meaning! The real bug is that ownCloud at this point is not aware of whether it is dealing with files or directories. The idea behind that display was that it would show \"File1 and n other files have been updated\", but File1 is almost certainly a directory these days. So the correct fix is to make the code aware of the differences between files and directories, instead of considering both as 'synched items'."
}
, {
  "url": "https://api.github.com/repos/owncloud/client/issues/comments/131339255",
  "html_url": "https://github.com/owncloud/client/issues/3615#issuecomment-131339255",
  "issue_url": "https://api.github.com/repos/owncloud/client/issues/3615",
  "id": 131339255,
  "user": {
    "login": "pascalBokBok",
    "id": 639487,
    "avatar_url": "https://avatars.githubusercontent.com/u/639487?v=3",
    "gravatar_id": "",
    "url": "https://api.github.com/users/pascalBokBok",
    "html_url": "https://github.com/pascalBokBok",
    "followers_url": "https://api.github.com/users/pascalBokBok/followers",
    "following_url": "https://api.github.com/users/pascalBokBok/following{/other_user}",
    "gists_url": "https://api.github.com/users/pascalBokBok/gists{/gist_id}",
    "starred_url": "https://api.github.com/users/pascalBokBok/starred{/owner}{/repo}",
    "subscriptions_url": "https://api.github.com/users/pascalBokBok/subscriptions",
    "organizations_url": "https://api.github.com/users/pascalBokBok/orgs",
    "repos_url": "https://api.github.com/users/pascalBokBok/repos",
    "events_url": "https://api.github.com/users/pascalBokBok/events{/privacy}",
    "received_events_url": "https://api.github.com/users/pascalBokBok/received_events",
    "type": "User",
    "site_admin": false
  },
  "created_at": "2015-08-15T10:53:19Z",
  "updated_at": "2015-08-15T10:53:19Z",
  "body": "@danimo The sync acivity log seems to be able to make the distinction. Can't you just use the same event filter in notifications?"
}
, {
  "url": "https://api.github.com/repos/owncloud/client/issues/comments/135070813",
  "html_url": "https://github.com/owncloud/client/issues/3615#issuecomment-135070813",
  "issue_url": "https://api.github.com/repos/owncloud/client/issues/3615",
  "id": 135070813,
  "user": {
    "login": "pascalBokBok",
    "id": 639487,
    "avatar_url": "https://avatars.githubusercontent.com/u/639487?v=3",
    "gravatar_id": "",
    "url": "https://api.github.com/users/pascalBokBok",
    "html_url": "https://github.com/pascalBokBok",
    "followers_url": "https://api.github.com/users/pascalBokBok/followers",
    "following_url": "https://api.github.com/users/pascalBokBok/following{/other_user}",
    "gists_url": "https://api.github.com/users/pascalBokBok/gists{/gist_id}",
    "starred_url": "https://api.github.com/users/pascalBokBok/starred{/owner}{/repo}",
    "subscriptions_url": "https://api.github.com/users/pascalBokBok/subscriptions",
    "organizations_url": "https://api.github.com/users/pascalBokBok/orgs",
    "repos_url": "https://api.github.com/users/pascalBokBok/repos",
    "events_url": "https://api.github.com/users/pascalBokBok/events{/privacy}",
    "received_events_url": "https://api.github.com/users/pascalBokBok/received_events",
    "type": "User",
    "site_admin": false
  },
  "created_at": "2015-08-26T15:40:48Z",
  "updated_at": "2015-08-26T15:40:48Z",
  "body": "I just wanted to say that the message is the same in client 2.0.0 as described in the issue."
}
, {
  "url": "https://api.github.com/repos/owncloud/client/issues/comments/151468340",
  "html_url": "https://github.com/owncloud/client/issues/3615#issuecomment-151468340",
  "issue_url": "https://api.github.com/repos/owncloud/client/issues/3615",
  "id": 151468340,
  "user": {
    "login": "ogoffart",
    "id": 959326,
    "avatar_url": "https://avatars.githubusercontent.com/u/959326?v=3",
    "gravatar_id": "",
    "url": "https://api.github.com/users/ogoffart",
    "html_url": "https://github.com/ogoffart",
    "followers_url": "https://api.github.com/users/ogoffart/followers",
    "following_url": "https://api.github.com/users/ogoffart/following{/other_user}",
    "gists_url": "https://api.github.com/users/ogoffart/gists{/gist_id}",
    "starred_url": "https://api.github.com/users/ogoffart/starred{/owner}{/repo}",
    "subscriptions_url": "https://api.github.com/users/ogoffart/subscriptions",
    "organizations_url": "https://api.github.com/users/ogoffart/orgs",
    "repos_url": "https://api.github.com/users/ogoffart/repos",
    "events_url": "https://api.github.com/users/ogoffart/events{/privacy}",
    "received_events_url": "https://api.github.com/users/ogoffart/received_events",
    "type": "User",
    "site_admin": false
  },
  "created_at": "2015-10-27T11:57:52Z",
  "updated_at": "2015-10-27T11:57:52Z",
  "body": "It should be fixed in 2.0.2 by commit db8f958"
}
, {
  "url": "https://api.github.com/repos/owncloud/client/issues/comments/151754472",
  "html_url": "https://github.com/owncloud/client/issues/3615#issuecomment-151754472",
  "issue_url": "https://api.github.com/repos/owncloud/client/issues/3615",
  "id": 151754472,
  "user": {
    "login": "Dianafg76",
    "id": 12032058,
    "avatar_url": "https://avatars.githubusercontent.com/u/12032058?v=3",
    "gravatar_id": "",
    "url": "https://api.github.com/users/Dianafg76",
    "html_url": "https://github.com/Dianafg76",
    "followers_url": "https://api.github.com/users/Dianafg76/followers",
    "following_url": "https://api.github.com/users/Dianafg76/following{/other_user}",
    "gists_url": "https://api.github.com/users/Dianafg76/gists{/gist_id}",
    "starred_url": "https://api.github.com/users/Dianafg76/starred{/owner}{/repo}",
    "subscriptions_url": "https://api.github.com/users/Dianafg76/subscriptions",
    "organizations_url": "https://api.github.com/users/Dianafg76/orgs",
    "repos_url": "https://api.github.com/users/Dianafg76/repos",
    "events_url": "https://api.github.com/users/Dianafg76/events{/privacy}",
    "received_events_url": "https://api.github.com/users/Dianafg76/received_events",
    "type": "User",
    "site_admin": false
  },
  "created_at": "2015-10-28T07:47:39Z",
  "updated_at": "2015-10-28T07:47:39Z",
  "body": "I tested this issue, and for my is working OK\r\nDesktop v ownCloud-2.1.0.2833-nightly20151028.pkg \r\nServer v {\"installed\":true,\"maintenance\":false,\"version\":\"8.1.4.0\",\"versionstring\":\"8.1.4 RC1\",\"edition\":\"\"}\r\n\r\nClosed"
}
]
