[
{
  "url": "https://api.github.com/repos/facebook/componentkit/issues/comments/90631205",
  "html_url": "https://github.com/facebook/componentkit/issues/64#issuecomment-90631205",
  "issue_url": "https://api.github.com/repos/facebook/componentkit/issues/64",
  "id": 90631205,
  "user": {
    "login": "benlodotcom",
    "id": 313959,
    "avatar_url": "https://avatars.githubusercontent.com/u/313959?v=3",
    "gravatar_id": "",
    "url": "https://api.github.com/users/benlodotcom",
    "html_url": "https://github.com/benlodotcom",
    "followers_url": "https://api.github.com/users/benlodotcom/followers",
    "following_url": "https://api.github.com/users/benlodotcom/following{/other_user}",
    "gists_url": "https://api.github.com/users/benlodotcom/gists{/gist_id}",
    "starred_url": "https://api.github.com/users/benlodotcom/starred{/owner}{/repo}",
    "subscriptions_url": "https://api.github.com/users/benlodotcom/subscriptions",
    "organizations_url": "https://api.github.com/users/benlodotcom/orgs",
    "repos_url": "https://api.github.com/users/benlodotcom/repos",
    "events_url": "https://api.github.com/users/benlodotcom/events{/privacy}",
    "received_events_url": "https://api.github.com/users/benlodotcom/received_events",
    "type": "User",
    "site_admin": false
  },
  "created_at": "2015-04-07T16:23:36Z",
  "updated_at": "2015-04-07T16:23:36Z",
  "body": "These pieces of state are always in sync with the collectionView and they are exposed on `CKComponentDataSource` because it is needed to implement the `UICollectionViewDataSource` protocol. \r\n\r\nI'm not sure we should expose it at the `CKCollectionViewDataSource` layer as it would leak some implementation details, is there something preventing you to query it from the collectionView ?"
}
, {
  "url": "https://api.github.com/repos/facebook/componentkit/issues/comments/90711941",
  "html_url": "https://github.com/facebook/componentkit/issues/64#issuecomment-90711941",
  "issue_url": "https://api.github.com/repos/facebook/componentkit/issues/64",
  "id": 90711941,
  "user": {
    "login": "MarcoSero",
    "id": 867996,
    "avatar_url": "https://avatars.githubusercontent.com/u/867996?v=3",
    "gravatar_id": "",
    "url": "https://api.github.com/users/MarcoSero",
    "html_url": "https://github.com/MarcoSero",
    "followers_url": "https://api.github.com/users/MarcoSero/followers",
    "following_url": "https://api.github.com/users/MarcoSero/following{/other_user}",
    "gists_url": "https://api.github.com/users/MarcoSero/gists{/gist_id}",
    "starred_url": "https://api.github.com/users/MarcoSero/starred{/owner}{/repo}",
    "subscriptions_url": "https://api.github.com/users/MarcoSero/subscriptions",
    "organizations_url": "https://api.github.com/users/MarcoSero/orgs",
    "repos_url": "https://api.github.com/users/MarcoSero/repos",
    "events_url": "https://api.github.com/users/MarcoSero/events{/privacy}",
    "received_events_url": "https://api.github.com/users/MarcoSero/received_events",
    "type": "User",
    "site_admin": false
  },
  "created_at": "2015-04-07T19:49:54Z",
  "updated_at": "2015-04-07T19:49:54Z",
  "body": "That makes perfectly sense :+1: \r\nWill query the collection view."
}
]
