[
{
  "login": "pabelanger",
  "id": 722923,
  "avatar_url": "https://avatars.githubusercontent.com/u/722923?v=3",
  "gravatar_id": "",
  "url": "https://api.github.com/users/pabelanger",
  "html_url": "https://github.com/pabelanger",
  "followers_url": "https://api.github.com/users/pabelanger/followers",
  "following_url": "https://api.github.com/users/pabelanger/following{/other_user}",
  "gists_url": "https://api.github.com/users/pabelanger/gists{/gist_id}",
  "starred_url": "https://api.github.com/users/pabelanger/starred{/owner}{/repo}",
  "subscriptions_url": "https://api.github.com/users/pabelanger/subscriptions",
  "organizations_url": "https://api.github.com/users/pabelanger/orgs",
  "repos_url": "https://api.github.com/users/pabelanger/repos",
  "events_url": "https://api.github.com/users/pabelanger/events{/privacy}",
  "received_events_url": "https://api.github.com/users/pabelanger/received_events",
  "type": "User",
  "site_admin": false,
  "contributions": 15
}
]
