{
  "id": 21555474,
  "name": "VENSeparatorView",
  "full_name": "venmo/VENSeparatorView",
  "owner": {
    "login": "venmo",
    "id": 256998,
    "avatar_url": "https://avatars.githubusercontent.com/u/256998?v=3",
    "gravatar_id": "",
    "url": "https://api.github.com/users/venmo",
    "html_url": "https://github.com/venmo",
    "followers_url": "https://api.github.com/users/venmo/followers",
    "following_url": "https://api.github.com/users/venmo/following{/other_user}",
    "gists_url": "https://api.github.com/users/venmo/gists{/gist_id}",
    "starred_url": "https://api.github.com/users/venmo/starred{/owner}{/repo}",
    "subscriptions_url": "https://api.github.com/users/venmo/subscriptions",
    "organizations_url": "https://api.github.com/users/venmo/orgs",
    "repos_url": "https://api.github.com/users/venmo/repos",
    "events_url": "https://api.github.com/users/venmo/events{/privacy}",
    "received_events_url": "https://api.github.com/users/venmo/received_events",
    "type": "Organization",
    "site_admin": false
  },
  "private": false,
  "html_url": "https://github.com/venmo/VENSeparatorView",
  "description": "Jagged border separators on UIViews used in the Venmo app.",
  "fork": false,
  "url": "https://api.github.com/repos/venmo/VENSeparatorView",
  "forks_url": "https://api.github.com/repos/venmo/VENSeparatorView/forks",
  "keys_url": "https://api.github.com/repos/venmo/VENSeparatorView/keys{/key_id}",
  "collaborators_url": "https://api.github.com/repos/venmo/VENSeparatorView/collaborators{/collaborator}",
  "teams_url": "https://api.github.com/repos/venmo/VENSeparatorView/teams",
  "hooks_url": "https://api.github.com/repos/venmo/VENSeparatorView/hooks",
  "issue_events_url": "https://api.github.com/repos/venmo/VENSeparatorView/issues/events{/number}",
  "events_url": "https://api.github.com/repos/venmo/VENSeparatorView/events",
  "assignees_url": "https://api.github.com/repos/venmo/VENSeparatorView/assignees{/user}",
  "branches_url": "https://api.github.com/repos/venmo/VENSeparatorView/branches{/branch}",
  "tags_url": "https://api.github.com/repos/venmo/VENSeparatorView/tags",
  "blobs_url": "https://api.github.com/repos/venmo/VENSeparatorView/git/blobs{/sha}",
  "git_tags_url": "https://api.github.com/repos/venmo/VENSeparatorView/git/tags{/sha}",
  "git_refs_url": "https://api.github.com/repos/venmo/VENSeparatorView/git/refs{/sha}",
  "trees_url": "https://api.github.com/repos/venmo/VENSeparatorView/git/trees{/sha}",
  "statuses_url": "https://api.github.com/repos/venmo/VENSeparatorView/statuses/{sha}",
  "languages_url": "https://api.github.com/repos/venmo/VENSeparatorView/languages",
  "stargazers_url": "https://api.github.com/repos/venmo/VENSeparatorView/stargazers",
  "contributors_url": "https://api.github.com/repos/venmo/VENSeparatorView/contributors",
  "subscribers_url": "https://api.github.com/repos/venmo/VENSeparatorView/subscribers",
  "subscription_url": "https://api.github.com/repos/venmo/VENSeparatorView/subscription",
  "commits_url": "https://api.github.com/repos/venmo/VENSeparatorView/commits{/sha}",
  "git_commits_url": "https://api.github.com/repos/venmo/VENSeparatorView/git/commits{/sha}",
  "comments_url": "https://api.github.com/repos/venmo/VENSeparatorView/comments{/number}",
  "issue_comment_url": "https://api.github.com/repos/venmo/VENSeparatorView/issues/comments{/number}",
  "contents_url": "https://api.github.com/repos/venmo/VENSeparatorView/contents/{+path}",
  "compare_url": "https://api.github.com/repos/venmo/VENSeparatorView/compare/{base}...{head}",
  "merges_url": "https://api.github.com/repos/venmo/VENSeparatorView/merges",
  "archive_url": "https://api.github.com/repos/venmo/VENSeparatorView/{archive_format}{/ref}",
  "downloads_url": "https://api.github.com/repos/venmo/VENSeparatorView/downloads",
  "issues_url": "https://api.github.com/repos/venmo/VENSeparatorView/issues{/number}",
  "pulls_url": "https://api.github.com/repos/venmo/VENSeparatorView/pulls{/number}",
  "milestones_url": "https://api.github.com/repos/venmo/VENSeparatorView/milestones{/number}",
  "notifications_url": "https://api.github.com/repos/venmo/VENSeparatorView/notifications{?since,all,participating}",
  "labels_url": "https://api.github.com/repos/venmo/VENSeparatorView/labels{/name}",
  "releases_url": "https://api.github.com/repos/venmo/VENSeparatorView/releases{/id}",
  "deployments_url": "https://api.github.com/repos/venmo/VENSeparatorView/deployments",
  "created_at": "2014-07-07T03:33:50Z",
  "updated_at": "2016-01-19T07:02:24Z",
  "pushed_at": "2015-06-04T21:59:43Z",
  "git_url": "git://github.com/venmo/VENSeparatorView.git",
  "ssh_url": "git@github.com:venmo/VENSeparatorView.git",
  "clone_url": "https://github.com/venmo/VENSeparatorView.git",
  "svn_url": "https://github.com/venmo/VENSeparatorView",
  "homepage": null,
  "size": 310,
  "stargazers_count": 377,
  "watchers_count": 377,
  "language": "Objective-C",
  "has_issues": true,
  "has_downloads": true,
  "has_wiki": true,
  "has_pages": false,
  "forks_count": 37,
  "mirror_url": null,
  "open_issues_count": 3,
  "forks": 37,
  "open_issues": 3,
  "watchers": 377,
  "default_branch": "master",
  "master_branch": "master",
  "permissions": {
    "admin": false,
    "push": false,
    "pull": true
  },
  "license": {
    "key": "mit",
    "name": "MIT License",
    "url": "https://api.github.com/licenses/mit",
    "featured": true
  },
  "organization": {
    "login": "venmo",
    "id": 256998,
    "avatar_url": "https://avatars.githubusercontent.com/u/256998?v=3",
    "gravatar_id": "",
    "url": "https://api.github.com/users/venmo",
    "html_url": "https://github.com/venmo",
    "followers_url": "https://api.github.com/users/venmo/followers",
    "following_url": "https://api.github.com/users/venmo/following{/other_user}",
    "gists_url": "https://api.github.com/users/venmo/gists{/gist_id}",
    "starred_url": "https://api.github.com/users/venmo/starred{/owner}{/repo}",
    "subscriptions_url": "https://api.github.com/users/venmo/subscriptions",
    "organizations_url": "https://api.github.com/users/venmo/orgs",
    "repos_url": "https://api.github.com/users/venmo/repos",
    "events_url": "https://api.github.com/users/venmo/events{/privacy}",
    "received_events_url": "https://api.github.com/users/venmo/received_events",
    "type": "Organization",
    "site_admin": false
  },
  "network_count": 37,
  "subscribers_count": 55
}
