[
{
  "url": "https://api.github.com/repos/mapbox/mapbox-studio-classic/issues/comments/104697143",
  "html_url": "https://github.com/mapbox/mapbox-studio-classic/issues/1361#issuecomment-104697143",
  "issue_url": "https://api.github.com/repos/mapbox/mapbox-studio-classic/issues/1361",
  "id": 104697143,
  "user": {
    "login": "BergWerkGIS",
    "id": 4549888,
    "avatar_url": "https://avatars.githubusercontent.com/u/4549888?v=3",
    "gravatar_id": "",
    "url": "https://api.github.com/users/BergWerkGIS",
    "html_url": "https://github.com/BergWerkGIS",
    "followers_url": "https://api.github.com/users/BergWerkGIS/followers",
    "following_url": "https://api.github.com/users/BergWerkGIS/following{/other_user}",
    "gists_url": "https://api.github.com/users/BergWerkGIS/gists{/gist_id}",
    "starred_url": "https://api.github.com/users/BergWerkGIS/starred{/owner}{/repo}",
    "subscriptions_url": "https://api.github.com/users/BergWerkGIS/subscriptions",
    "organizations_url": "https://api.github.com/users/BergWerkGIS/orgs",
    "repos_url": "https://api.github.com/users/BergWerkGIS/repos",
    "events_url": "https://api.github.com/users/BergWerkGIS/events{/privacy}",
    "received_events_url": "https://api.github.com/users/BergWerkGIS/received_events",
    "type": "User",
    "site_admin": false
  },
  "created_at": "2015-05-22T15:55:15Z",
  "updated_at": "2015-05-22T15:55:15Z",
  "body": "@MarkWS \r\n\r\nCould you post your `app.log`?\r\nAnd [start Mapbox Studio from the commandline](https://github.com/mapbox/mapbox-studio/wiki/Windows-Troubleshooting#start-mapbox-studio-from-the-commandline) (both ways) to see, if we can get more information about what's failing?\r\n"
}
, {
  "url": "https://api.github.com/repos/mapbox/mapbox-studio-classic/issues/comments/104700075",
  "html_url": "https://github.com/mapbox/mapbox-studio-classic/issues/1361#issuecomment-104700075",
  "issue_url": "https://api.github.com/repos/mapbox/mapbox-studio-classic/issues/1361",
  "id": 104700075,
  "user": {
    "login": "MarkWS",
    "id": 8440284,
    "avatar_url": "https://avatars.githubusercontent.com/u/8440284?v=3",
    "gravatar_id": "",
    "url": "https://api.github.com/users/MarkWS",
    "html_url": "https://github.com/MarkWS",
    "followers_url": "https://api.github.com/users/MarkWS/followers",
    "following_url": "https://api.github.com/users/MarkWS/following{/other_user}",
    "gists_url": "https://api.github.com/users/MarkWS/gists{/gist_id}",
    "starred_url": "https://api.github.com/users/MarkWS/starred{/owner}{/repo}",
    "subscriptions_url": "https://api.github.com/users/MarkWS/subscriptions",
    "organizations_url": "https://api.github.com/users/MarkWS/orgs",
    "repos_url": "https://api.github.com/users/MarkWS/repos",
    "events_url": "https://api.github.com/users/MarkWS/events{/privacy}",
    "received_events_url": "https://api.github.com/users/MarkWS/received_events",
    "type": "User",
    "site_admin": false
  },
  "created_at": "2015-05-22T16:08:09Z",
  "updated_at": "2015-05-22T16:08:09Z",
  "body": "did not work from the command line either.\r\nwhats the best way to send the app.log, it's rather long.\r\n\r\n\r\n\r\n"
}
, {
  "url": "https://api.github.com/repos/mapbox/mapbox-studio-classic/issues/comments/104703201",
  "html_url": "https://github.com/mapbox/mapbox-studio-classic/issues/1361#issuecomment-104703201",
  "issue_url": "https://api.github.com/repos/mapbox/mapbox-studio-classic/issues/1361",
  "id": 104703201,
  "user": {
    "login": "BergWerkGIS",
    "id": 4549888,
    "avatar_url": "https://avatars.githubusercontent.com/u/4549888?v=3",
    "gravatar_id": "",
    "url": "https://api.github.com/users/BergWerkGIS",
    "html_url": "https://github.com/BergWerkGIS",
    "followers_url": "https://api.github.com/users/BergWerkGIS/followers",
    "following_url": "https://api.github.com/users/BergWerkGIS/following{/other_user}",
    "gists_url": "https://api.github.com/users/BergWerkGIS/gists{/gist_id}",
    "starred_url": "https://api.github.com/users/BergWerkGIS/starred{/owner}{/repo}",
    "subscriptions_url": "https://api.github.com/users/BergWerkGIS/subscriptions",
    "organizations_url": "https://api.github.com/users/BergWerkGIS/orgs",
    "repos_url": "https://api.github.com/users/BergWerkGIS/repos",
    "events_url": "https://api.github.com/users/BergWerkGIS/events{/privacy}",
    "received_events_url": "https://api.github.com/users/BergWerkGIS/received_events",
    "type": "User",
    "site_admin": false
  },
  "created_at": "2015-05-22T16:19:44Z",
  "updated_at": "2015-05-22T16:19:44Z",
  "body": "> did not work from the command line either.\r\n\r\nYes, this is expected, but did you see any additional information on the command line?\r\nAny difference in using \r\n* `mapbox-studio.exe` and the program coming up, or\r\n* `vendor\\node index` and then going to http://localhost:3000 in your browser?\r\n\r\n> whats the best way to send the app.log, it's rather long.\r\n\r\nEvery line should have time stamp.\r\nYou can remove old entries from before it started to fail and post only the ones that are current."
}
, {
  "url": "https://api.github.com/repos/mapbox/mapbox-studio-classic/issues/comments/104705222",
  "html_url": "https://github.com/mapbox/mapbox-studio-classic/issues/1361#issuecomment-104705222",
  "issue_url": "https://api.github.com/repos/mapbox/mapbox-studio-classic/issues/1361",
  "id": 104705222,
  "user": {
    "login": "MarkWS",
    "id": 8440284,
    "avatar_url": "https://avatars.githubusercontent.com/u/8440284?v=3",
    "gravatar_id": "",
    "url": "https://api.github.com/users/MarkWS",
    "html_url": "https://github.com/MarkWS",
    "followers_url": "https://api.github.com/users/MarkWS/followers",
    "following_url": "https://api.github.com/users/MarkWS/following{/other_user}",
    "gists_url": "https://api.github.com/users/MarkWS/gists{/gist_id}",
    "starred_url": "https://api.github.com/users/MarkWS/starred{/owner}{/repo}",
    "subscriptions_url": "https://api.github.com/users/MarkWS/subscriptions",
    "organizations_url": "https://api.github.com/users/MarkWS/orgs",
    "repos_url": "https://api.github.com/users/MarkWS/repos",
    "events_url": "https://api.github.com/users/MarkWS/events{/privacy}",
    "received_events_url": "https://api.github.com/users/MarkWS/received_events",
    "type": "User",
    "site_admin": false
  },
  "created_at": "2015-05-22T16:31:10Z",
  "updated_at": "2015-05-22T16:31:10Z",
  "body": "thanks Wilhelm,\r\nthis is what I'm getting from the command line;\r\n![cmd](https://cloud.githubusercontent.com/assets/8440284/7775132/a4d69e82-006d-11e5-8eff-59b295297851.JPG)\r\n"
}
, {
  "url": "https://api.github.com/repos/mapbox/mapbox-studio-classic/issues/comments/104705563",
  "html_url": "https://github.com/mapbox/mapbox-studio-classic/issues/1361#issuecomment-104705563",
  "issue_url": "https://api.github.com/repos/mapbox/mapbox-studio-classic/issues/1361",
  "id": 104705563,
  "user": {
    "login": "MarkWS",
    "id": 8440284,
    "avatar_url": "https://avatars.githubusercontent.com/u/8440284?v=3",
    "gravatar_id": "",
    "url": "https://api.github.com/users/MarkWS",
    "html_url": "https://github.com/MarkWS",
    "followers_url": "https://api.github.com/users/MarkWS/followers",
    "following_url": "https://api.github.com/users/MarkWS/following{/other_user}",
    "gists_url": "https://api.github.com/users/MarkWS/gists{/gist_id}",
    "starred_url": "https://api.github.com/users/MarkWS/starred{/owner}{/repo}",
    "subscriptions_url": "https://api.github.com/users/MarkWS/subscriptions",
    "organizations_url": "https://api.github.com/users/MarkWS/orgs",
    "repos_url": "https://api.github.com/users/MarkWS/repos",
    "events_url": "https://api.github.com/users/MarkWS/events{/privacy}",
    "received_events_url": "https://api.github.com/users/MarkWS/received_events",
    "type": "User",
    "site_admin": false
  },
  "created_at": "2015-05-22T16:32:47Z",
  "updated_at": "2015-05-22T16:32:47Z",
  "body": "as for the app.log, the last entry is from yesterday when MBS worked and before we updated, which was this morning:\r\n<Thu, 21 May 2015 16:54:55 GMT> Mapbox Studio @ http://localhost:3000/\r\n"
}
, {
  "url": "https://api.github.com/repos/mapbox/mapbox-studio-classic/issues/comments/104705875",
  "html_url": "https://github.com/mapbox/mapbox-studio-classic/issues/1361#issuecomment-104705875",
  "issue_url": "https://api.github.com/repos/mapbox/mapbox-studio-classic/issues/1361",
  "id": 104705875,
  "user": {
    "login": "MarkWS",
    "id": 8440284,
    "avatar_url": "https://avatars.githubusercontent.com/u/8440284?v=3",
    "gravatar_id": "",
    "url": "https://api.github.com/users/MarkWS",
    "html_url": "https://github.com/MarkWS",
    "followers_url": "https://api.github.com/users/MarkWS/followers",
    "following_url": "https://api.github.com/users/MarkWS/following{/other_user}",
    "gists_url": "https://api.github.com/users/MarkWS/gists{/gist_id}",
    "starred_url": "https://api.github.com/users/MarkWS/starred{/owner}{/repo}",
    "subscriptions_url": "https://api.github.com/users/MarkWS/subscriptions",
    "organizations_url": "https://api.github.com/users/MarkWS/orgs",
    "repos_url": "https://api.github.com/users/MarkWS/repos",
    "events_url": "https://api.github.com/users/MarkWS/events{/privacy}",
    "received_events_url": "https://api.github.com/users/MarkWS/received_events",
    "type": "User",
    "site_admin": false
  },
  "created_at": "2015-05-22T16:33:44Z",
  "updated_at": "2015-05-22T16:33:44Z",
  "body": "sorry, here it is un-formated:\r\nThu, 21 May 2015 16:54:55 GMT> Mapbox Studio @ http://localhost:3000/\r\n"
}
, {
  "url": "https://api.github.com/repos/mapbox/mapbox-studio-classic/issues/comments/104747378",
  "html_url": "https://github.com/mapbox/mapbox-studio-classic/issues/1361#issuecomment-104747378",
  "issue_url": "https://api.github.com/repos/mapbox/mapbox-studio-classic/issues/1361",
  "id": 104747378,
  "user": {
    "login": "MarkWS",
    "id": 8440284,
    "avatar_url": "https://avatars.githubusercontent.com/u/8440284?v=3",
    "gravatar_id": "",
    "url": "https://api.github.com/users/MarkWS",
    "html_url": "https://github.com/MarkWS",
    "followers_url": "https://api.github.com/users/MarkWS/followers",
    "following_url": "https://api.github.com/users/MarkWS/following{/other_user}",
    "gists_url": "https://api.github.com/users/MarkWS/gists{/gist_id}",
    "starred_url": "https://api.github.com/users/MarkWS/starred{/owner}{/repo}",
    "subscriptions_url": "https://api.github.com/users/MarkWS/subscriptions",
    "organizations_url": "https://api.github.com/users/MarkWS/orgs",
    "repos_url": "https://api.github.com/users/MarkWS/repos",
    "events_url": "https://api.github.com/users/MarkWS/events{/privacy}",
    "received_events_url": "https://api.github.com/users/MarkWS/received_events",
    "type": "User",
    "site_admin": false
  },
  "created_at": "2015-05-22T19:19:55Z",
  "updated_at": "2015-05-22T19:21:59Z",
  "body": "have removed 2.7 and re-loaded 2.6 and we are still having the same problem.\r\nThere is no entry in the app.log so it's not even running through the start-up process enough to write to the app.log\r\n"
}
, {
  "url": "https://api.github.com/repos/mapbox/mapbox-studio-classic/issues/comments/104873130",
  "html_url": "https://github.com/mapbox/mapbox-studio-classic/issues/1361#issuecomment-104873130",
  "issue_url": "https://api.github.com/repos/mapbox/mapbox-studio-classic/issues/1361",
  "id": 104873130,
  "user": {
    "login": "BergWerkGIS",
    "id": 4549888,
    "avatar_url": "https://avatars.githubusercontent.com/u/4549888?v=3",
    "gravatar_id": "",
    "url": "https://api.github.com/users/BergWerkGIS",
    "html_url": "https://github.com/BergWerkGIS",
    "followers_url": "https://api.github.com/users/BergWerkGIS/followers",
    "following_url": "https://api.github.com/users/BergWerkGIS/following{/other_user}",
    "gists_url": "https://api.github.com/users/BergWerkGIS/gists{/gist_id}",
    "starred_url": "https://api.github.com/users/BergWerkGIS/starred{/owner}{/repo}",
    "subscriptions_url": "https://api.github.com/users/BergWerkGIS/subscriptions",
    "organizations_url": "https://api.github.com/users/BergWerkGIS/orgs",
    "repos_url": "https://api.github.com/users/BergWerkGIS/repos",
    "events_url": "https://api.github.com/users/BergWerkGIS/events{/privacy}",
    "received_events_url": "https://api.github.com/users/BergWerkGIS/received_events",
    "type": "User",
    "site_admin": false
  },
  "created_at": "2015-05-23T09:28:55Z",
  "updated_at": "2015-05-23T09:28:55Z",
  "body": "Please verify, that no `mapbox-studio.exe` or `node.exe` processes are running.\r\n\r\nThen, via command line:\r\n\r\n* `cd \"C:\\Program Files\\mapbox-studio\\resources\\app\"`\r\n* `vendor\\node index.js`\r\n\r\nWait a few seconds.\r\n\r\nDo you see `Mapbox Studio @ http://localhost:3000/`?\r\n\r\n**If yes:**\r\n* open your browser\r\n* go to `http://localhost:3000/`\r\n* does it work?\r\n\r\n**If no:**\r\n* share the console output\r\n* then go to `Control Panel -> Add/Remove Programs` and share a screenshot where I can see all **`Microsoft Visual C++ <VERSION> Redistributable`s**\r\n\r\n"
}
, {
  "url": "https://api.github.com/repos/mapbox/mapbox-studio-classic/issues/comments/104923600",
  "html_url": "https://github.com/mapbox/mapbox-studio-classic/issues/1361#issuecomment-104923600",
  "issue_url": "https://api.github.com/repos/mapbox/mapbox-studio-classic/issues/1361",
  "id": 104923600,
  "user": {
    "login": "MarkWS",
    "id": 8440284,
    "avatar_url": "https://avatars.githubusercontent.com/u/8440284?v=3",
    "gravatar_id": "",
    "url": "https://api.github.com/users/MarkWS",
    "html_url": "https://github.com/MarkWS",
    "followers_url": "https://api.github.com/users/MarkWS/followers",
    "following_url": "https://api.github.com/users/MarkWS/following{/other_user}",
    "gists_url": "https://api.github.com/users/MarkWS/gists{/gist_id}",
    "starred_url": "https://api.github.com/users/MarkWS/starred{/owner}{/repo}",
    "subscriptions_url": "https://api.github.com/users/MarkWS/subscriptions",
    "organizations_url": "https://api.github.com/users/MarkWS/orgs",
    "repos_url": "https://api.github.com/users/MarkWS/repos",
    "events_url": "https://api.github.com/users/MarkWS/events{/privacy}",
    "received_events_url": "https://api.github.com/users/MarkWS/received_events",
    "type": "User",
    "site_admin": false
  },
  "created_at": "2015-05-23T16:43:08Z",
  "updated_at": "2015-05-23T16:43:08Z",
  "body": "Thanks Wilhelm.\r\nit did not work so here is a screen shot of the command prompt:\r\n![capture](https://cloud.githubusercontent.com/assets/8440284/7784973/32213d36-0138-11e5-87ff-5267e0641758.JPG)\r\n\r\nand a screen shot of Visual C++ we have loaded:\r\n![capture](https://cloud.githubusercontent.com/assets/8440284/7784976/5e0dbc9e-0138-11e5-9dca-2964022b538f.JPG)\r\n\r\nThanks for your help.\r\nMark\r\n"
}
, {
  "url": "https://api.github.com/repos/mapbox/mapbox-studio-classic/issues/comments/105840260",
  "html_url": "https://github.com/mapbox/mapbox-studio-classic/issues/1361#issuecomment-105840260",
  "issue_url": "https://api.github.com/repos/mapbox/mapbox-studio-classic/issues/1361",
  "id": 105840260,
  "user": {
    "login": "BergWerkGIS",
    "id": 4549888,
    "avatar_url": "https://avatars.githubusercontent.com/u/4549888?v=3",
    "gravatar_id": "",
    "url": "https://api.github.com/users/BergWerkGIS",
    "html_url": "https://github.com/BergWerkGIS",
    "followers_url": "https://api.github.com/users/BergWerkGIS/followers",
    "following_url": "https://api.github.com/users/BergWerkGIS/following{/other_user}",
    "gists_url": "https://api.github.com/users/BergWerkGIS/gists{/gist_id}",
    "starred_url": "https://api.github.com/users/BergWerkGIS/starred{/owner}{/repo}",
    "subscriptions_url": "https://api.github.com/users/BergWerkGIS/subscriptions",
    "organizations_url": "https://api.github.com/users/BergWerkGIS/orgs",
    "repos_url": "https://api.github.com/users/BergWerkGIS/repos",
    "events_url": "https://api.github.com/users/BergWerkGIS/events{/privacy}",
    "received_events_url": "https://api.github.com/users/BergWerkGIS/received_events",
    "type": "User",
    "site_admin": false
  },
  "created_at": "2015-05-27T09:39:20Z",
  "updated_at": "2015-05-27T09:40:03Z",
  "body": "@MarkWS \r\nHm, that's strange, everything looks fine (except the error of course).\r\n\r\nThere are only two things left I can think of at the moment:\r\n\r\n1.)\r\n\r\n* as always, make sure, that Mapbox Studio or a part of it is not running in the background (either reboot or check for mapbox-studio.exe and node.exe processes and terminate them).\r\n* download https://mapbox.s3.amazonaws.com/windows-builds/try-bundled-vcredist/extracted-x64-mini.7z\r\n* extract the files and copy them into\r\n    * `C:\\Program Files\\mapbox-studio\\resources\\app\\vendor\\` **and**\r\n    * `C:\\Program Files\\mapbox-studio\\resources\\app\\node_modules\\mapnik\\lib\\binding\\node-v11-win32-x64\\`\r\n* try to start Mapbox Studio from the commandline (both ways [`mapbox-studio.exe` and `vendor\\node index`]). Does it work?\r\n\r\n2.)\r\n\r\nThis one is a bit time consuming, but if you are interested in finding the cause, I could provide you with a special debug version of Mapbox Studio and then guide you through the steps outlined here:\r\nhttps://gist.github.com/BergWerkGIS/6385afd9f6e240eeb074\r\nhttps://gist.github.com/BergWerkGIS/534a5e74301c5607af5c\r\n\r\n"
}
, {
  "url": "https://api.github.com/repos/mapbox/mapbox-studio-classic/issues/comments/106334536",
  "html_url": "https://github.com/mapbox/mapbox-studio-classic/issues/1361#issuecomment-106334536",
  "issue_url": "https://api.github.com/repos/mapbox/mapbox-studio-classic/issues/1361",
  "id": 106334536,
  "user": {
    "login": "MarkWS",
    "id": 8440284,
    "avatar_url": "https://avatars.githubusercontent.com/u/8440284?v=3",
    "gravatar_id": "",
    "url": "https://api.github.com/users/MarkWS",
    "html_url": "https://github.com/MarkWS",
    "followers_url": "https://api.github.com/users/MarkWS/followers",
    "following_url": "https://api.github.com/users/MarkWS/following{/other_user}",
    "gists_url": "https://api.github.com/users/MarkWS/gists{/gist_id}",
    "starred_url": "https://api.github.com/users/MarkWS/starred{/owner}{/repo}",
    "subscriptions_url": "https://api.github.com/users/MarkWS/subscriptions",
    "organizations_url": "https://api.github.com/users/MarkWS/orgs",
    "repos_url": "https://api.github.com/users/MarkWS/repos",
    "events_url": "https://api.github.com/users/MarkWS/events{/privacy}",
    "received_events_url": "https://api.github.com/users/MarkWS/received_events",
    "type": "User",
    "site_admin": false
  },
  "created_at": "2015-05-28T14:09:26Z",
  "updated_at": "2015-05-28T14:09:26Z",
  "body": "What if we just remove the .mapbox-studio located in the \\users folder, I think that worked last time this happened.\n\nThen just need to re-login to the Mapbox site and reload our maps, but that’s not that big a problem.\n\n \n\nFrom: Wilhelm Berg [mailto:notifications@github.com] \nSent: Wednesday, May 27, 2015 3:39 AM\nTo: mapbox/mapbox-studio\nCc: MarkWS\nSubject: Re: [mapbox-studio] after updating to 2.7 MBS fails to start (#1361)\n\n \n\n@MarkWS <https://github.com/MarkWS>  \nHm, that's strange, everything looks fine (except the error of course).\n\nThere are only two things left I can think of at the moment:\n\n1.)\n\n*\tas always, make sure, that Mapbox Studio or a part of it is not running in the background (either reboot or check for mapbox-studio.exe and node.exe processes and terminate them).\n*\tdownload https://mapbox.s3.amazonaws.com/windows-builds/try-bundled-vcredist/extracted-x64-mini.7z \n*\textract the files and copy them into C:\\Program Files\\mapbox-studio\\resources\\app\\vendor\\ and C:\\Program Files\\mapbox-studio\\resources\\app\\node_modules\\mapnik\\lib\\binding\\node-v11-win32-x64\\ \n*\ttry to start Mapbox Studio from the commandline (both ways [mapbox-studio.exe and vendor\\node index]). Does it work?\n\n2.)\n\nThis one is a bit time consuming, but if you are interested in finding the cause, I could provide you with a special debug version of Mapbox Studio and then guide you through the steps outlined here:\nhttps://gist.github.com/BergWerkGIS/6385afd9f6e240eeb074\nhttps://gist.github.com/BergWerkGIS/534a5e74301c5607af5c\n\n—\nReply to this email directly or view it on GitHub <https://github.com/mapbox/mapbox-studio/issues/1361#issuecomment-105840260> .  <https://github.com/notifications/beacon/AIDJ3LLvPkrWnytKJolD08f7WEivc-ioks5oNYhPgaJpZM4ElItH.gif> \n\n"
}
, {
  "url": "https://api.github.com/repos/mapbox/mapbox-studio-classic/issues/comments/106372352",
  "html_url": "https://github.com/mapbox/mapbox-studio-classic/issues/1361#issuecomment-106372352",
  "issue_url": "https://api.github.com/repos/mapbox/mapbox-studio-classic/issues/1361",
  "id": 106372352,
  "user": {
    "login": "BergWerkGIS",
    "id": 4549888,
    "avatar_url": "https://avatars.githubusercontent.com/u/4549888?v=3",
    "gravatar_id": "",
    "url": "https://api.github.com/users/BergWerkGIS",
    "html_url": "https://github.com/BergWerkGIS",
    "followers_url": "https://api.github.com/users/BergWerkGIS/followers",
    "following_url": "https://api.github.com/users/BergWerkGIS/following{/other_user}",
    "gists_url": "https://api.github.com/users/BergWerkGIS/gists{/gist_id}",
    "starred_url": "https://api.github.com/users/BergWerkGIS/starred{/owner}{/repo}",
    "subscriptions_url": "https://api.github.com/users/BergWerkGIS/subscriptions",
    "organizations_url": "https://api.github.com/users/BergWerkGIS/orgs",
    "repos_url": "https://api.github.com/users/BergWerkGIS/repos",
    "events_url": "https://api.github.com/users/BergWerkGIS/events{/privacy}",
    "received_events_url": "https://api.github.com/users/BergWerkGIS/received_events",
    "type": "User",
    "site_admin": false
  },
  "created_at": "2015-05-28T14:54:06Z",
  "updated_at": "2015-05-28T14:54:06Z",
  "body": "> What if we just remove the .mapbox-studio located in the \\users folder, I think that worked last time this happened.\r\n\r\nOf course, that's worth a try.\r\nLet me know, if it helped."
}
, {
  "url": "https://api.github.com/repos/mapbox/mapbox-studio-classic/issues/comments/106404808",
  "html_url": "https://github.com/mapbox/mapbox-studio-classic/issues/1361#issuecomment-106404808",
  "issue_url": "https://api.github.com/repos/mapbox/mapbox-studio-classic/issues/1361",
  "id": 106404808,
  "user": {
    "login": "MarkWS",
    "id": 8440284,
    "avatar_url": "https://avatars.githubusercontent.com/u/8440284?v=3",
    "gravatar_id": "",
    "url": "https://api.github.com/users/MarkWS",
    "html_url": "https://github.com/MarkWS",
    "followers_url": "https://api.github.com/users/MarkWS/followers",
    "following_url": "https://api.github.com/users/MarkWS/following{/other_user}",
    "gists_url": "https://api.github.com/users/MarkWS/gists{/gist_id}",
    "starred_url": "https://api.github.com/users/MarkWS/starred{/owner}{/repo}",
    "subscriptions_url": "https://api.github.com/users/MarkWS/subscriptions",
    "organizations_url": "https://api.github.com/users/MarkWS/orgs",
    "repos_url": "https://api.github.com/users/MarkWS/repos",
    "events_url": "https://api.github.com/users/MarkWS/events{/privacy}",
    "received_events_url": "https://api.github.com/users/MarkWS/received_events",
    "type": "User",
    "site_admin": false
  },
  "created_at": "2015-05-28T15:23:16Z",
  "updated_at": "2015-05-28T15:23:16Z",
  "body": "this worked.\r\nso I copied out (just in case) the .mapbox-studio folder out of the \\users dir.\r\nthen restarted MBS and accepted the log-in credentials. Then I had to go and re-load the projects once MBS started, not a big deal as we only have 8 active map projects."
}
, {
  "url": "https://api.github.com/repos/mapbox/mapbox-studio-classic/issues/comments/106428147",
  "html_url": "https://github.com/mapbox/mapbox-studio-classic/issues/1361#issuecomment-106428147",
  "issue_url": "https://api.github.com/repos/mapbox/mapbox-studio-classic/issues/1361",
  "id": 106428147,
  "user": {
    "login": "BergWerkGIS",
    "id": 4549888,
    "avatar_url": "https://avatars.githubusercontent.com/u/4549888?v=3",
    "gravatar_id": "",
    "url": "https://api.github.com/users/BergWerkGIS",
    "html_url": "https://github.com/BergWerkGIS",
    "followers_url": "https://api.github.com/users/BergWerkGIS/followers",
    "following_url": "https://api.github.com/users/BergWerkGIS/following{/other_user}",
    "gists_url": "https://api.github.com/users/BergWerkGIS/gists{/gist_id}",
    "starred_url": "https://api.github.com/users/BergWerkGIS/starred{/owner}{/repo}",
    "subscriptions_url": "https://api.github.com/users/BergWerkGIS/subscriptions",
    "organizations_url": "https://api.github.com/users/BergWerkGIS/orgs",
    "repos_url": "https://api.github.com/users/BergWerkGIS/repos",
    "events_url": "https://api.github.com/users/BergWerkGIS/events{/privacy}",
    "received_events_url": "https://api.github.com/users/BergWerkGIS/received_events",
    "type": "User",
    "site_admin": false
  },
  "created_at": "2015-05-28T15:45:53Z",
  "updated_at": "2015-05-28T15:45:53Z",
  "body": "Very strange. Can't image why upgrading would destroy `.mapbox-studio` folder.\r\n\r\nCould you share the faulty `.mapbox-studio` folder, that I can replicate and pinpoint the cause?\r\nwilhelm@mapbox.com"
}
, {
  "url": "https://api.github.com/repos/mapbox/mapbox-studio-classic/issues/comments/106428960",
  "html_url": "https://github.com/mapbox/mapbox-studio-classic/issues/1361#issuecomment-106428960",
  "issue_url": "https://api.github.com/repos/mapbox/mapbox-studio-classic/issues/1361",
  "id": 106428960,
  "user": {
    "login": "BergWerkGIS",
    "id": 4549888,
    "avatar_url": "https://avatars.githubusercontent.com/u/4549888?v=3",
    "gravatar_id": "",
    "url": "https://api.github.com/users/BergWerkGIS",
    "html_url": "https://github.com/BergWerkGIS",
    "followers_url": "https://api.github.com/users/BergWerkGIS/followers",
    "following_url": "https://api.github.com/users/BergWerkGIS/following{/other_user}",
    "gists_url": "https://api.github.com/users/BergWerkGIS/gists{/gist_id}",
    "starred_url": "https://api.github.com/users/BergWerkGIS/starred{/owner}{/repo}",
    "subscriptions_url": "https://api.github.com/users/BergWerkGIS/subscriptions",
    "organizations_url": "https://api.github.com/users/BergWerkGIS/orgs",
    "repos_url": "https://api.github.com/users/BergWerkGIS/repos",
    "events_url": "https://api.github.com/users/BergWerkGIS/events{/privacy}",
    "received_events_url": "https://api.github.com/users/BergWerkGIS/received_events",
    "type": "User",
    "site_admin": false
  },
  "created_at": "2015-05-28T15:46:46Z",
  "updated_at": "2015-05-28T15:46:46Z",
  "body": "Great, that this worked!"
}
, {
  "url": "https://api.github.com/repos/mapbox/mapbox-studio-classic/issues/comments/106433825",
  "html_url": "https://github.com/mapbox/mapbox-studio-classic/issues/1361#issuecomment-106433825",
  "issue_url": "https://api.github.com/repos/mapbox/mapbox-studio-classic/issues/1361",
  "id": 106433825,
  "user": {
    "login": "MarkWS",
    "id": 8440284,
    "avatar_url": "https://avatars.githubusercontent.com/u/8440284?v=3",
    "gravatar_id": "",
    "url": "https://api.github.com/users/MarkWS",
    "html_url": "https://github.com/MarkWS",
    "followers_url": "https://api.github.com/users/MarkWS/followers",
    "following_url": "https://api.github.com/users/MarkWS/following{/other_user}",
    "gists_url": "https://api.github.com/users/MarkWS/gists{/gist_id}",
    "starred_url": "https://api.github.com/users/MarkWS/starred{/owner}{/repo}",
    "subscriptions_url": "https://api.github.com/users/MarkWS/subscriptions",
    "organizations_url": "https://api.github.com/users/MarkWS/orgs",
    "repos_url": "https://api.github.com/users/MarkWS/repos",
    "events_url": "https://api.github.com/users/MarkWS/events{/privacy}",
    "received_events_url": "https://api.github.com/users/MarkWS/received_events",
    "type": "User",
    "site_admin": false
  },
  "created_at": "2015-05-28T15:50:25Z",
  "updated_at": "2015-05-28T17:29:58Z",
  "body": "I sure can, how should I share it? Do you have an e-mail I can just zip and send it over.\r\n"
}
, {
  "url": "https://api.github.com/repos/mapbox/mapbox-studio-classic/issues/comments/106496518",
  "html_url": "https://github.com/mapbox/mapbox-studio-classic/issues/1361#issuecomment-106496518",
  "issue_url": "https://api.github.com/repos/mapbox/mapbox-studio-classic/issues/1361",
  "id": 106496518,
  "user": {
    "login": "BergWerkGIS",
    "id": 4549888,
    "avatar_url": "https://avatars.githubusercontent.com/u/4549888?v=3",
    "gravatar_id": "",
    "url": "https://api.github.com/users/BergWerkGIS",
    "html_url": "https://github.com/BergWerkGIS",
    "followers_url": "https://api.github.com/users/BergWerkGIS/followers",
    "following_url": "https://api.github.com/users/BergWerkGIS/following{/other_user}",
    "gists_url": "https://api.github.com/users/BergWerkGIS/gists{/gist_id}",
    "starred_url": "https://api.github.com/users/BergWerkGIS/starred{/owner}{/repo}",
    "subscriptions_url": "https://api.github.com/users/BergWerkGIS/subscriptions",
    "organizations_url": "https://api.github.com/users/BergWerkGIS/orgs",
    "repos_url": "https://api.github.com/users/BergWerkGIS/repos",
    "events_url": "https://api.github.com/users/BergWerkGIS/events{/privacy}",
    "received_events_url": "https://api.github.com/users/BergWerkGIS/received_events",
    "type": "User",
    "site_admin": false
  },
  "created_at": "2015-05-28T17:11:38Z",
  "updated_at": "2015-05-28T17:11:38Z",
  "body": "Yes, I do have an email. See above :smile: "
}
, {
  "url": "https://api.github.com/repos/mapbox/mapbox-studio-classic/issues/comments/106769063",
  "html_url": "https://github.com/mapbox/mapbox-studio-classic/issues/1361#issuecomment-106769063",
  "issue_url": "https://api.github.com/repos/mapbox/mapbox-studio-classic/issues/1361",
  "id": 106769063,
  "user": {
    "login": "BergWerkGIS",
    "id": 4549888,
    "avatar_url": "https://avatars.githubusercontent.com/u/4549888?v=3",
    "gravatar_id": "",
    "url": "https://api.github.com/users/BergWerkGIS",
    "html_url": "https://github.com/BergWerkGIS",
    "followers_url": "https://api.github.com/users/BergWerkGIS/followers",
    "following_url": "https://api.github.com/users/BergWerkGIS/following{/other_user}",
    "gists_url": "https://api.github.com/users/BergWerkGIS/gists{/gist_id}",
    "starred_url": "https://api.github.com/users/BergWerkGIS/starred{/owner}{/repo}",
    "subscriptions_url": "https://api.github.com/users/BergWerkGIS/subscriptions",
    "organizations_url": "https://api.github.com/users/BergWerkGIS/orgs",
    "repos_url": "https://api.github.com/users/BergWerkGIS/repos",
    "events_url": "https://api.github.com/users/BergWerkGIS/events{/privacy}",
    "received_events_url": "https://api.github.com/users/BergWerkGIS/received_events",
    "type": "User",
    "site_admin": false
  },
  "created_at": "2015-05-29T10:37:38Z",
  "updated_at": "2015-05-29T10:37:38Z",
  "body": "@MarkWS you obviously started two instances of Mapbox Studio at the same time.\r\nSometimes they interfere and leave a `app.db.compacted` behind in `.mapbox-studio` folder.\r\n\r\nAfter deleting `app.db.compacted` I could start without problems."
}
, {
  "url": "https://api.github.com/repos/mapbox/mapbox-studio-classic/issues/comments/106858544",
  "html_url": "https://github.com/mapbox/mapbox-studio-classic/issues/1361#issuecomment-106858544",
  "issue_url": "https://api.github.com/repos/mapbox/mapbox-studio-classic/issues/1361",
  "id": 106858544,
  "user": {
    "login": "MarkWS",
    "id": 8440284,
    "avatar_url": "https://avatars.githubusercontent.com/u/8440284?v=3",
    "gravatar_id": "",
    "url": "https://api.github.com/users/MarkWS",
    "html_url": "https://github.com/MarkWS",
    "followers_url": "https://api.github.com/users/MarkWS/followers",
    "following_url": "https://api.github.com/users/MarkWS/following{/other_user}",
    "gists_url": "https://api.github.com/users/MarkWS/gists{/gist_id}",
    "starred_url": "https://api.github.com/users/MarkWS/starred{/owner}{/repo}",
    "subscriptions_url": "https://api.github.com/users/MarkWS/subscriptions",
    "organizations_url": "https://api.github.com/users/MarkWS/orgs",
    "repos_url": "https://api.github.com/users/MarkWS/repos",
    "events_url": "https://api.github.com/users/MarkWS/events{/privacy}",
    "received_events_url": "https://api.github.com/users/MarkWS/received_events",
    "type": "User",
    "site_admin": false
  },
  "created_at": "2015-05-29T16:06:25Z",
  "updated_at": "2015-05-29T16:06:25Z",
  "body": "so if this happens again just removing the app.db.compacted would do the trick?\n\nIf so that’s great, thanks Wilhelm.\n\nMark\n\n \n\nFrom: Wilhelm Berg [mailto:notifications@github.com] \nSent: Friday, May 29, 2015 4:38 AM\nTo: mapbox/mapbox-studio\nCc: MarkWS\nSubject: Re: [mapbox-studio] after updating to 2.7 MBS fails to start (#1361)\n\n \n\n@MarkWS <https://github.com/MarkWS>  you obviously started two instances of Mapbox Studio at the same time.\nSometimes they interfere and leave a app.db.compacted behind in .mapbox-studio folder.\n\nAfter deleting app.db.compacted I could start without problems.\n\n—\nReply to this email directly or view it on GitHub <https://github.com/mapbox/mapbox-studio/issues/1361#issuecomment-106769063> .  <https://github.com/notifications/beacon/AIDJ3NsX5UiP8C36Roi3dKn3iMWMUSw8ks5oODj4gaJpZM4ElItH.gif> \n\n"
}
, {
  "url": "https://api.github.com/repos/mapbox/mapbox-studio-classic/issues/comments/106866926",
  "html_url": "https://github.com/mapbox/mapbox-studio-classic/issues/1361#issuecomment-106866926",
  "issue_url": "https://api.github.com/repos/mapbox/mapbox-studio-classic/issues/1361",
  "id": 106866926,
  "user": {
    "login": "BergWerkGIS",
    "id": 4549888,
    "avatar_url": "https://avatars.githubusercontent.com/u/4549888?v=3",
    "gravatar_id": "",
    "url": "https://api.github.com/users/BergWerkGIS",
    "html_url": "https://github.com/BergWerkGIS",
    "followers_url": "https://api.github.com/users/BergWerkGIS/followers",
    "following_url": "https://api.github.com/users/BergWerkGIS/following{/other_user}",
    "gists_url": "https://api.github.com/users/BergWerkGIS/gists{/gist_id}",
    "starred_url": "https://api.github.com/users/BergWerkGIS/starred{/owner}{/repo}",
    "subscriptions_url": "https://api.github.com/users/BergWerkGIS/subscriptions",
    "organizations_url": "https://api.github.com/users/BergWerkGIS/orgs",
    "repos_url": "https://api.github.com/users/BergWerkGIS/repos",
    "events_url": "https://api.github.com/users/BergWerkGIS/events{/privacy}",
    "received_events_url": "https://api.github.com/users/BergWerkGIS/received_events",
    "type": "User",
    "site_admin": false
  },
  "created_at": "2015-05-29T16:40:12Z",
  "updated_at": "2015-05-29T16:40:12Z",
  "body": "> so if this happens again just removing the app.db.compacted would do the trick?\r\n\r\nYes, this is one of the first things to check.\r\nSorry, that I missed it, but somehow I thought, I already had suggested that, but rereading this issue proves me wrong."
}
]
