[
{
  "url": "https://api.github.com/repos/mapbox/mapbox-studio-classic/issues/comments/84222346",
  "html_url": "https://github.com/mapbox/mapbox-studio-classic/issues/1272#issuecomment-84222346",
  "issue_url": "https://api.github.com/repos/mapbox/mapbox-studio-classic/issues/1272",
  "id": 84222346,
  "user": {
    "login": "springmeyer",
    "id": 20300,
    "avatar_url": "https://avatars.githubusercontent.com/u/20300?v=3",
    "gravatar_id": "",
    "url": "https://api.github.com/users/springmeyer",
    "html_url": "https://github.com/springmeyer",
    "followers_url": "https://api.github.com/users/springmeyer/followers",
    "following_url": "https://api.github.com/users/springmeyer/following{/other_user}",
    "gists_url": "https://api.github.com/users/springmeyer/gists{/gist_id}",
    "starred_url": "https://api.github.com/users/springmeyer/starred{/owner}{/repo}",
    "subscriptions_url": "https://api.github.com/users/springmeyer/subscriptions",
    "organizations_url": "https://api.github.com/users/springmeyer/orgs",
    "repos_url": "https://api.github.com/users/springmeyer/repos",
    "events_url": "https://api.github.com/users/springmeyer/events{/privacy}",
    "received_events_url": "https://api.github.com/users/springmeyer/received_events",
    "type": "User",
    "site_admin": false
  },
  "created_at": "2015-03-21T02:39:43Z",
  "updated_at": "2015-03-21T02:39:43Z",
  "body": "Looks like atom-shell supports custom uncaught error handlers that we could potentially hook into: https://github.com/atom/atom-shell/commit/fe78c17ea6a2a37f8a9f74eca9b82e89dd290ec8. This raises the question: why is atom's default one not being invoked in this case?"
}
, {
  "url": "https://api.github.com/repos/mapbox/mapbox-studio-classic/issues/comments/84278072",
  "html_url": "https://github.com/mapbox/mapbox-studio-classic/issues/1272#issuecomment-84278072",
  "issue_url": "https://api.github.com/repos/mapbox/mapbox-studio-classic/issues/1272",
  "id": 84278072,
  "user": {
    "login": "BergWerkGIS",
    "id": 4549888,
    "avatar_url": "https://avatars.githubusercontent.com/u/4549888?v=3",
    "gravatar_id": "",
    "url": "https://api.github.com/users/BergWerkGIS",
    "html_url": "https://github.com/BergWerkGIS",
    "followers_url": "https://api.github.com/users/BergWerkGIS/followers",
    "following_url": "https://api.github.com/users/BergWerkGIS/following{/other_user}",
    "gists_url": "https://api.github.com/users/BergWerkGIS/gists{/gist_id}",
    "starred_url": "https://api.github.com/users/BergWerkGIS/starred{/owner}{/repo}",
    "subscriptions_url": "https://api.github.com/users/BergWerkGIS/subscriptions",
    "organizations_url": "https://api.github.com/users/BergWerkGIS/orgs",
    "repos_url": "https://api.github.com/users/BergWerkGIS/repos",
    "events_url": "https://api.github.com/users/BergWerkGIS/events{/privacy}",
    "received_events_url": "https://api.github.com/users/BergWerkGIS/received_events",
    "type": "User",
    "site_admin": false
  },
  "created_at": "2015-03-21T08:08:44Z",
  "updated_at": "2015-03-21T08:08:44Z",
  "body": "I think, because:\r\n* there are several processes and the exception doesn't get passed around as it should\r\n* error gets swallowed in [`renderer/lib/init.js`](https://github.com/atom/atom-shell/blob/master/atom/renderer/lib/init.coffee#L81), because no `uncaughtException` listener is attached to `global.process` for the renderer:\r\n```coffee\r\n  # Redirect window.onerror to uncaughtException.\r\n  window.onerror = (error) ->\r\n    if global.process.listeners('uncaughtException').length > 0\r\n      global.process.emit 'uncaughtException', error\r\n      true\r\n    else\r\n      false\r\n```\r\n\r\nDoing `global.process.emit 'uncaughtException', error` independently of number of attached listeners doesn't produce dialog.\r\n\r\n![image](https://cloud.githubusercontent.com/assets/4549888/6764251/4ab5dfc6-cfa8-11e4-8b56-e8482a0a3d42.png)\r\n\r\n![image](https://cloud.githubusercontent.com/assets/4549888/6764276/600dadbc-cfa9-11e4-974c-c4fe7f6ae736.png)\r\n"
}
]
