[
{
  "login": "karlitschek",
  "id": 867445,
  "avatar_url": "https://avatars.githubusercontent.com/u/867445?v=3",
  "gravatar_id": "",
  "url": "https://api.github.com/users/karlitschek",
  "html_url": "https://github.com/karlitschek",
  "followers_url": "https://api.github.com/users/karlitschek/followers",
  "following_url": "https://api.github.com/users/karlitschek/following{/other_user}",
  "gists_url": "https://api.github.com/users/karlitschek/gists{/gist_id}",
  "starred_url": "https://api.github.com/users/karlitschek/starred{/owner}{/repo}",
  "subscriptions_url": "https://api.github.com/users/karlitschek/subscriptions",
  "organizations_url": "https://api.github.com/users/karlitschek/orgs",
  "repos_url": "https://api.github.com/users/karlitschek/repos",
  "events_url": "https://api.github.com/users/karlitschek/events{/privacy}",
  "received_events_url": "https://api.github.com/users/karlitschek/received_events",
  "type": "User",
  "site_admin": false
}
, {
  "login": "DeepDiver1975",
  "id": 1005065,
  "avatar_url": "https://avatars.githubusercontent.com/u/1005065?v=3",
  "gravatar_id": "",
  "url": "https://api.github.com/users/DeepDiver1975",
  "html_url": "https://github.com/DeepDiver1975",
  "followers_url": "https://api.github.com/users/DeepDiver1975/followers",
  "following_url": "https://api.github.com/users/DeepDiver1975/following{/other_user}",
  "gists_url": "https://api.github.com/users/DeepDiver1975/gists{/gist_id}",
  "starred_url": "https://api.github.com/users/DeepDiver1975/starred{/owner}{/repo}",
  "subscriptions_url": "https://api.github.com/users/DeepDiver1975/subscriptions",
  "organizations_url": "https://api.github.com/users/DeepDiver1975/orgs",
  "repos_url": "https://api.github.com/users/DeepDiver1975/repos",
  "events_url": "https://api.github.com/users/DeepDiver1975/events{/privacy}",
  "received_events_url": "https://api.github.com/users/DeepDiver1975/received_events",
  "type": "User",
  "site_admin": false
}
, {
  "login": "scolebrook",
  "id": 6951720,
  "avatar_url": "https://avatars.githubusercontent.com/u/6951720?v=3",
  "gravatar_id": "",
  "url": "https://api.github.com/users/scolebrook",
  "html_url": "https://github.com/scolebrook",
  "followers_url": "https://api.github.com/users/scolebrook/followers",
  "following_url": "https://api.github.com/users/scolebrook/following{/other_user}",
  "gists_url": "https://api.github.com/users/scolebrook/gists{/gist_id}",
  "starred_url": "https://api.github.com/users/scolebrook/starred{/owner}{/repo}",
  "subscriptions_url": "https://api.github.com/users/scolebrook/subscriptions",
  "organizations_url": "https://api.github.com/users/scolebrook/orgs",
  "repos_url": "https://api.github.com/users/scolebrook/repos",
  "events_url": "https://api.github.com/users/scolebrook/events{/privacy}",
  "received_events_url": "https://api.github.com/users/scolebrook/received_events",
  "type": "User",
  "site_admin": false
}
]
