[
{
  "url": "https://api.github.com/repos/twitter/scala_school/issues/comments/16942712",
  "html_url": "https://github.com/twitter/scala_school/issues/87#issuecomment-16942712",
  "issue_url": "https://api.github.com/repos/twitter/scala_school/issues/87",
  "id": 16942712,
  "user": {
    "login": "lahosken",
    "id": 371906,
    "avatar_url": "https://avatars.githubusercontent.com/u/371906?v=3",
    "gravatar_id": "",
    "url": "https://api.github.com/users/lahosken",
    "html_url": "https://github.com/lahosken",
    "followers_url": "https://api.github.com/users/lahosken/followers",
    "following_url": "https://api.github.com/users/lahosken/following{/other_user}",
    "gists_url": "https://api.github.com/users/lahosken/gists{/gist_id}",
    "starred_url": "https://api.github.com/users/lahosken/starred{/owner}{/repo}",
    "subscriptions_url": "https://api.github.com/users/lahosken/subscriptions",
    "organizations_url": "https://api.github.com/users/lahosken/orgs",
    "repos_url": "https://api.github.com/users/lahosken/repos",
    "events_url": "https://api.github.com/users/lahosken/events{/privacy}",
    "received_events_url": "https://api.github.com/users/lahosken/received_events",
    "type": "User",
    "site_admin": false
  },
  "created_at": "2013-04-24T15:54:17Z",
  "updated_at": "2013-04-24T15:54:17Z",
  "body": "@oxcarh , Sweet :-) As an example of how a scala_school translation can work, notice the https://github.com/twitter/scala_school/tree/master/web directory (which contains the English version) has a subdirectory https://github.com/twitter/scala_school/tree/master/web/ru containing Russian. If there was a web/es/ directory, that would fit nicely."
}
, {
  "url": "https://api.github.com/repos/twitter/scala_school/issues/comments/16944668",
  "html_url": "https://github.com/twitter/scala_school/issues/87#issuecomment-16944668",
  "issue_url": "https://api.github.com/repos/twitter/scala_school/issues/87",
  "id": 16944668,
  "user": {
    "login": "oxcarh",
    "id": 2067516,
    "avatar_url": "https://avatars.githubusercontent.com/u/2067516?v=3",
    "gravatar_id": "",
    "url": "https://api.github.com/users/oxcarh",
    "html_url": "https://github.com/oxcarh",
    "followers_url": "https://api.github.com/users/oxcarh/followers",
    "following_url": "https://api.github.com/users/oxcarh/following{/other_user}",
    "gists_url": "https://api.github.com/users/oxcarh/gists{/gist_id}",
    "starred_url": "https://api.github.com/users/oxcarh/starred{/owner}{/repo}",
    "subscriptions_url": "https://api.github.com/users/oxcarh/subscriptions",
    "organizations_url": "https://api.github.com/users/oxcarh/orgs",
    "repos_url": "https://api.github.com/users/oxcarh/repos",
    "events_url": "https://api.github.com/users/oxcarh/events{/privacy}",
    "received_events_url": "https://api.github.com/users/oxcarh/received_events",
    "type": "User",
    "site_admin": false
  },
  "created_at": "2013-04-24T16:15:32Z",
  "updated_at": "2013-04-24T16:15:32Z",
  "body": "I've already cloned the repo on my local HD.\r\n\r\nAny suggested tools?"
}
, {
  "url": "https://api.github.com/repos/twitter/scala_school/issues/comments/16946034",
  "html_url": "https://github.com/twitter/scala_school/issues/87#issuecomment-16946034",
  "issue_url": "https://api.github.com/repos/twitter/scala_school/issues/87",
  "id": 16946034,
  "user": {
    "login": "lahosken",
    "id": 371906,
    "avatar_url": "https://avatars.githubusercontent.com/u/371906?v=3",
    "gravatar_id": "",
    "url": "https://api.github.com/users/lahosken",
    "html_url": "https://github.com/lahosken",
    "followers_url": "https://api.github.com/users/lahosken/followers",
    "following_url": "https://api.github.com/users/lahosken/following{/other_user}",
    "gists_url": "https://api.github.com/users/lahosken/gists{/gist_id}",
    "starred_url": "https://api.github.com/users/lahosken/starred{/owner}{/repo}",
    "subscriptions_url": "https://api.github.com/users/lahosken/subscriptions",
    "organizations_url": "https://api.github.com/users/lahosken/orgs",
    "repos_url": "https://api.github.com/users/lahosken/repos",
    "events_url": "https://api.github.com/users/lahosken/events{/privacy}",
    "received_events_url": "https://api.github.com/users/lahosken/received_events",
    "type": "User",
    "site_admin": false
  },
  "created_at": "2013-04-24T16:35:24Z",
  "updated_at": "2013-04-24T16:35:24Z",
  "body": "Notice there's a Makefile in the top directory. It invokes jekyll to convert the markdown to html. So you want jekyll. Then you can 'make all'.\r\n\r\nTo edit the markdown files, I use my favorite text editor. To view the html, I use my favorite browser. "
}
, {
  "url": "https://api.github.com/repos/twitter/scala_school/issues/comments/16948624",
  "html_url": "https://github.com/twitter/scala_school/issues/87#issuecomment-16948624",
  "issue_url": "https://api.github.com/repos/twitter/scala_school/issues/87",
  "id": 16948624,
  "user": {
    "login": "oxcarh",
    "id": 2067516,
    "avatar_url": "https://avatars.githubusercontent.com/u/2067516?v=3",
    "gravatar_id": "",
    "url": "https://api.github.com/users/oxcarh",
    "html_url": "https://github.com/oxcarh",
    "followers_url": "https://api.github.com/users/oxcarh/followers",
    "following_url": "https://api.github.com/users/oxcarh/following{/other_user}",
    "gists_url": "https://api.github.com/users/oxcarh/gists{/gist_id}",
    "starred_url": "https://api.github.com/users/oxcarh/starred{/owner}{/repo}",
    "subscriptions_url": "https://api.github.com/users/oxcarh/subscriptions",
    "organizations_url": "https://api.github.com/users/oxcarh/orgs",
    "repos_url": "https://api.github.com/users/oxcarh/repos",
    "events_url": "https://api.github.com/users/oxcarh/events{/privacy}",
    "received_events_url": "https://api.github.com/users/oxcarh/received_events",
    "type": "User",
    "site_admin": false
  },
  "created_at": "2013-04-24T17:04:45Z",
  "updated_at": "2013-04-24T17:04:45Z",
  "body": "Ok. I've got it. Thanks."
}
, {
  "url": "https://api.github.com/repos/twitter/scala_school/issues/comments/22966989",
  "html_url": "https://github.com/twitter/scala_school/issues/87#issuecomment-22966989",
  "issue_url": "https://api.github.com/repos/twitter/scala_school/issues/87",
  "id": 22966989,
  "user": {
    "login": "elmer-garduno",
    "id": 1205280,
    "avatar_url": "https://avatars.githubusercontent.com/u/1205280?v=3",
    "gravatar_id": "",
    "url": "https://api.github.com/users/elmer-garduno",
    "html_url": "https://github.com/elmer-garduno",
    "followers_url": "https://api.github.com/users/elmer-garduno/followers",
    "following_url": "https://api.github.com/users/elmer-garduno/following{/other_user}",
    "gists_url": "https://api.github.com/users/elmer-garduno/gists{/gist_id}",
    "starred_url": "https://api.github.com/users/elmer-garduno/starred{/owner}{/repo}",
    "subscriptions_url": "https://api.github.com/users/elmer-garduno/subscriptions",
    "organizations_url": "https://api.github.com/users/elmer-garduno/orgs",
    "repos_url": "https://api.github.com/users/elmer-garduno/repos",
    "events_url": "https://api.github.com/users/elmer-garduno/events{/privacy}",
    "received_events_url": "https://api.github.com/users/elmer-garduno/received_events",
    "type": "User",
    "site_admin": false
  },
  "created_at": "2013-08-20T18:33:28Z",
  "updated_at": "2013-08-20T18:33:28Z",
  "body": "Hi @oxcarh how far have you gone with the spanish translation? I couldn't find any fork available on your repo.\r\nI have already forked the repo and started to work on the es/ directory (https://github.com/elmer-garduno/scala_school/tree/spanish_translation). \r\n\r\nIn case you already have more material translated, I can collaborate to your repo and work on whatever is missing.\r\n\r\n"
}
, {
  "url": "https://api.github.com/repos/twitter/scala_school/issues/comments/49528989",
  "html_url": "https://github.com/twitter/scala_school/issues/87#issuecomment-49528989",
  "issue_url": "https://api.github.com/repos/twitter/scala_school/issues/87",
  "id": 49528989,
  "user": {
    "login": "raviolicode",
    "id": 389480,
    "avatar_url": "https://avatars.githubusercontent.com/u/389480?v=3",
    "gravatar_id": "",
    "url": "https://api.github.com/users/raviolicode",
    "html_url": "https://github.com/raviolicode",
    "followers_url": "https://api.github.com/users/raviolicode/followers",
    "following_url": "https://api.github.com/users/raviolicode/following{/other_user}",
    "gists_url": "https://api.github.com/users/raviolicode/gists{/gist_id}",
    "starred_url": "https://api.github.com/users/raviolicode/starred{/owner}{/repo}",
    "subscriptions_url": "https://api.github.com/users/raviolicode/subscriptions",
    "organizations_url": "https://api.github.com/users/raviolicode/orgs",
    "repos_url": "https://api.github.com/users/raviolicode/repos",
    "events_url": "https://api.github.com/users/raviolicode/events{/privacy}",
    "received_events_url": "https://api.github.com/users/raviolicode/received_events",
    "type": "User",
    "site_admin": true
  },
  "created_at": "2014-07-19T20:37:47Z",
  "updated_at": "2014-07-19T20:37:47Z",
  "body": "Hey! @elmer-garduno @oxcarh  I'd like to help too :) \r\nCan you make a pull request of the translations, so we can work together?"
}
, {
  "url": "https://api.github.com/repos/twitter/scala_school/issues/comments/49536926",
  "html_url": "https://github.com/twitter/scala_school/issues/87#issuecomment-49536926",
  "issue_url": "https://api.github.com/repos/twitter/scala_school/issues/87",
  "id": 49536926,
  "user": {
    "login": "elmer-garduno",
    "id": 1205280,
    "avatar_url": "https://avatars.githubusercontent.com/u/1205280?v=3",
    "gravatar_id": "",
    "url": "https://api.github.com/users/elmer-garduno",
    "html_url": "https://github.com/elmer-garduno",
    "followers_url": "https://api.github.com/users/elmer-garduno/followers",
    "following_url": "https://api.github.com/users/elmer-garduno/following{/other_user}",
    "gists_url": "https://api.github.com/users/elmer-garduno/gists{/gist_id}",
    "starred_url": "https://api.github.com/users/elmer-garduno/starred{/owner}{/repo}",
    "subscriptions_url": "https://api.github.com/users/elmer-garduno/subscriptions",
    "organizations_url": "https://api.github.com/users/elmer-garduno/orgs",
    "repos_url": "https://api.github.com/users/elmer-garduno/repos",
    "events_url": "https://api.github.com/users/elmer-garduno/events{/privacy}",
    "received_events_url": "https://api.github.com/users/elmer-garduno/received_events",
    "type": "User",
    "site_admin": false
  },
  "created_at": "2014-07-20T04:34:02Z",
  "updated_at": "2014-07-20T04:34:02Z",
  "body": "Hi, the content of the following branch is what I was able to translate up to half a year ago.\r\nhttps://github.com/elmer-garduno/scala_school/tree/spanish_translation\r\n\r\nPlease feel free to fork from there and keep up with the task."
}
, {
  "url": "https://api.github.com/repos/twitter/scala_school/issues/comments/75189573",
  "html_url": "https://github.com/twitter/scala_school/issues/87#issuecomment-75189573",
  "issue_url": "https://api.github.com/repos/twitter/scala_school/issues/87",
  "id": 75189573,
  "user": {
    "login": "poguez",
    "id": 732015,
    "avatar_url": "https://avatars.githubusercontent.com/u/732015?v=3",
    "gravatar_id": "",
    "url": "https://api.github.com/users/poguez",
    "html_url": "https://github.com/poguez",
    "followers_url": "https://api.github.com/users/poguez/followers",
    "following_url": "https://api.github.com/users/poguez/following{/other_user}",
    "gists_url": "https://api.github.com/users/poguez/gists{/gist_id}",
    "starred_url": "https://api.github.com/users/poguez/starred{/owner}{/repo}",
    "subscriptions_url": "https://api.github.com/users/poguez/subscriptions",
    "organizations_url": "https://api.github.com/users/poguez/orgs",
    "repos_url": "https://api.github.com/users/poguez/repos",
    "events_url": "https://api.github.com/users/poguez/events{/privacy}",
    "received_events_url": "https://api.github.com/users/poguez/received_events",
    "type": "User",
    "site_admin": false
  },
  "created_at": "2015-02-20T04:53:25Z",
  "updated_at": "2015-02-20T04:53:25Z",
  "body": "We area a group of Scala users in Mexico. We will be doing it at https://github.com/scalamx/scala_school."
}
, {
  "url": "https://api.github.com/repos/twitter/scala_school/issues/comments/140940011",
  "html_url": "https://github.com/twitter/scala_school/issues/87#issuecomment-140940011",
  "issue_url": "https://api.github.com/repos/twitter/scala_school/issues/87",
  "id": 140940011,
  "user": {
    "login": "benpence",
    "id": 736903,
    "avatar_url": "https://avatars.githubusercontent.com/u/736903?v=3",
    "gravatar_id": "",
    "url": "https://api.github.com/users/benpence",
    "html_url": "https://github.com/benpence",
    "followers_url": "https://api.github.com/users/benpence/followers",
    "following_url": "https://api.github.com/users/benpence/following{/other_user}",
    "gists_url": "https://api.github.com/users/benpence/gists{/gist_id}",
    "starred_url": "https://api.github.com/users/benpence/starred{/owner}{/repo}",
    "subscriptions_url": "https://api.github.com/users/benpence/subscriptions",
    "organizations_url": "https://api.github.com/users/benpence/orgs",
    "repos_url": "https://api.github.com/users/benpence/repos",
    "events_url": "https://api.github.com/users/benpence/events{/privacy}",
    "received_events_url": "https://api.github.com/users/benpence/received_events",
    "type": "User",
    "site_admin": false
  },
  "created_at": "2015-09-17T01:33:30Z",
  "updated_at": "2015-09-17T01:33:30Z",
  "body": "Hey, let us know when you finish your translation via a pull request and we can see if it needs any changes."
}
]
