[
{
  "url": "https://api.github.com/repos/facebook/jest/issues/comments/43427479",
  "html_url": "https://github.com/facebook/jest/pull/30#issuecomment-43427479",
  "issue_url": "https://api.github.com/repos/facebook/jest/issues/30",
  "id": 43427479,
  "user": {
    "login": "facebook-github-bot",
    "id": 6422482,
    "avatar_url": "https://avatars.githubusercontent.com/u/6422482?v=3",
    "gravatar_id": "",
    "url": "https://api.github.com/users/facebook-github-bot",
    "html_url": "https://github.com/facebook-github-bot",
    "followers_url": "https://api.github.com/users/facebook-github-bot/followers",
    "following_url": "https://api.github.com/users/facebook-github-bot/following{/other_user}",
    "gists_url": "https://api.github.com/users/facebook-github-bot/gists{/gist_id}",
    "starred_url": "https://api.github.com/users/facebook-github-bot/starred{/owner}{/repo}",
    "subscriptions_url": "https://api.github.com/users/facebook-github-bot/subscriptions",
    "organizations_url": "https://api.github.com/users/facebook-github-bot/orgs",
    "repos_url": "https://api.github.com/users/facebook-github-bot/repos",
    "events_url": "https://api.github.com/users/facebook-github-bot/events{/privacy}",
    "received_events_url": "https://api.github.com/users/facebook-github-bot/received_events",
    "type": "User",
    "site_admin": false
  },
  "created_at": "2014-05-17T23:56:20Z",
  "updated_at": "2014-05-17T23:56:20Z",
  "body": "Thank you for signing our Contributor License Agreement. We can now accept your code for this (and any) Facebook open source project. Thanks!"
}
]
