[
{
  "url": "https://api.github.com/repos/spring-projects/spring-roo-wrapping/issues/5",
  "labels_url": "https://api.github.com/repos/spring-projects/spring-roo-wrapping/issues/5/labels{/name}",
  "comments_url": "https://api.github.com/repos/spring-projects/spring-roo-wrapping/issues/5/comments",
  "events_url": "https://api.github.com/repos/spring-projects/spring-roo-wrapping/issues/5/events",
  "html_url": "https://github.com/spring-projects/spring-roo-wrapping/pull/5",
  "id": 41306487,
  "number": 5,
  "title": "ROO-3505: Upgraded to support Java 8",
  "user": {
    "login": "mikedehaan",
    "id": 1839244,
    "avatar_url": "https://avatars.githubusercontent.com/u/1839244?v=3",
    "gravatar_id": "",
    "url": "https://api.github.com/users/mikedehaan",
    "html_url": "https://github.com/mikedehaan",
    "followers_url": "https://api.github.com/users/mikedehaan/followers",
    "following_url": "https://api.github.com/users/mikedehaan/following{/other_user}",
    "gists_url": "https://api.github.com/users/mikedehaan/gists{/gist_id}",
    "starred_url": "https://api.github.com/users/mikedehaan/starred{/owner}{/repo}",
    "subscriptions_url": "https://api.github.com/users/mikedehaan/subscriptions",
    "organizations_url": "https://api.github.com/users/mikedehaan/orgs",
    "repos_url": "https://api.github.com/users/mikedehaan/repos",
    "events_url": "https://api.github.com/users/mikedehaan/events{/privacy}",
    "received_events_url": "https://api.github.com/users/mikedehaan/received_events",
    "type": "User",
    "site_admin": false
  },
  "labels": [],
  "state": "closed",
  "locked": false,
  "assignee": null,
  "milestone": null,
  "comments": 4,
  "created_at": "2014-08-27T17:02:42Z",
  "updated_at": "2014-09-17T14:06:15Z",
  "closed_at": "2014-08-27T17:20:48Z",
  "pull_request": {
    "url": "https://api.github.com/repos/spring-projects/spring-roo-wrapping/pulls/5",
    "html_url": "https://github.com/spring-projects/spring-roo-wrapping/pull/5",
    "diff_url": "https://github.com/spring-projects/spring-roo-wrapping/pull/5.diff",
    "patch_url": "https://github.com/spring-projects/spring-roo-wrapping/pull/5.patch"
  },
  "body": "Upgraded Antlr version to latest."
}
, {
  "url": "https://api.github.com/repos/spring-projects/spring-roo-wrapping/issues/4",
  "labels_url": "https://api.github.com/repos/spring-projects/spring-roo-wrapping/issues/4/labels{/name}",
  "comments_url": "https://api.github.com/repos/spring-projects/spring-roo-wrapping/issues/4/comments",
  "events_url": "https://api.github.com/repos/spring-projects/spring-roo-wrapping/issues/4/events",
  "html_url": "https://github.com/spring-projects/spring-roo-wrapping/pull/4",
  "id": 14855632,
  "number": 4,
  "title": "ROO-3106: Spring Roo doesn't support new Java 7 language features",
  "user": {
    "login": "mikedehaan",
    "id": 1839244,
    "avatar_url": "https://avatars.githubusercontent.com/u/1839244?v=3",
    "gravatar_id": "",
    "url": "https://api.github.com/users/mikedehaan",
    "html_url": "https://github.com/mikedehaan",
    "followers_url": "https://api.github.com/users/mikedehaan/followers",
    "following_url": "https://api.github.com/users/mikedehaan/following{/other_user}",
    "gists_url": "https://api.github.com/users/mikedehaan/gists{/gist_id}",
    "starred_url": "https://api.github.com/users/mikedehaan/starred{/owner}{/repo}",
    "subscriptions_url": "https://api.github.com/users/mikedehaan/subscriptions",
    "organizations_url": "https://api.github.com/users/mikedehaan/orgs",
    "repos_url": "https://api.github.com/users/mikedehaan/repos",
    "events_url": "https://api.github.com/users/mikedehaan/events{/privacy}",
    "received_events_url": "https://api.github.com/users/mikedehaan/received_events",
    "type": "User",
    "site_admin": false
  },
  "labels": [],
  "state": "closed",
  "locked": false,
  "assignee": null,
  "milestone": null,
  "comments": 0,
  "created_at": "2013-05-28T19:03:01Z",
  "updated_at": "2014-08-07T23:50:39Z",
  "closed_at": "2013-06-02T05:05:31Z",
  "pull_request": {
    "url": "https://api.github.com/repos/spring-projects/spring-roo-wrapping/pulls/4",
    "html_url": "https://github.com/spring-projects/spring-roo-wrapping/pull/4",
    "diff_url": "https://github.com/spring-projects/spring-roo-wrapping/pull/4.diff",
    "patch_url": "https://github.com/spring-projects/spring-roo-wrapping/pull/4.patch"
  },
  "body": "Added antlr4-runtime project as a dependency of antlr-java-parser.\r\n\r\nI had removed this project previously, but looking back I'm not sure why.  antlr-java-parser is OSGi compliant, but antlr4-runtime is not."
}
, {
  "url": "https://api.github.com/repos/spring-projects/spring-roo-wrapping/issues/3",
  "labels_url": "https://api.github.com/repos/spring-projects/spring-roo-wrapping/issues/3/labels{/name}",
  "comments_url": "https://api.github.com/repos/spring-projects/spring-roo-wrapping/issues/3/comments",
  "events_url": "https://api.github.com/repos/spring-projects/spring-roo-wrapping/issues/3/events",
  "html_url": "https://github.com/spring-projects/spring-roo-wrapping/pull/3",
  "id": 10230636,
  "number": 3,
  "title": "ROO-3335: Roo creates a new Compilation Unit when entity changes",
  "user": {
    "login": "jmvivo",
    "id": 1597878,
    "avatar_url": "https://avatars.githubusercontent.com/u/1597878?v=3",
    "gravatar_id": "",
    "url": "https://api.github.com/users/jmvivo",
    "html_url": "https://github.com/jmvivo",
    "followers_url": "https://api.github.com/users/jmvivo/followers",
    "following_url": "https://api.github.com/users/jmvivo/following{/other_user}",
    "gists_url": "https://api.github.com/users/jmvivo/gists{/gist_id}",
    "starred_url": "https://api.github.com/users/jmvivo/starred{/owner}{/repo}",
    "subscriptions_url": "https://api.github.com/users/jmvivo/subscriptions",
    "organizations_url": "https://api.github.com/users/jmvivo/orgs",
    "repos_url": "https://api.github.com/users/jmvivo/repos",
    "events_url": "https://api.github.com/users/jmvivo/events{/privacy}",
    "received_events_url": "https://api.github.com/users/jmvivo/received_events",
    "type": "User",
    "site_admin": false
  },
  "labels": [],
  "state": "closed",
  "locked": false,
  "assignee": null,
  "milestone": null,
  "comments": 1,
  "created_at": "2013-01-23T12:37:02Z",
  "updated_at": "2014-07-09T23:55:33Z",
  "closed_at": "2013-01-28T23:37:26Z",
  "pull_request": {
    "url": "https://api.github.com/repos/spring-projects/spring-roo-wrapping/pulls/3",
    "html_url": "https://github.com/spring-projects/spring-roo-wrapping/pull/3",
    "diff_url": "https://github.com/spring-projects/spring-roo-wrapping/pull/3.diff",
    "patch_url": "https://github.com/spring-projects/spring-roo-wrapping/pull/3.patch"
  },
  "body": "New wrapper of JavaParser library from https://github.com/matozoid/javaparser which solve (almost all) comments and JavaDoc problems."
}
, {
  "url": "https://api.github.com/repos/spring-projects/spring-roo-wrapping/issues/2",
  "labels_url": "https://api.github.com/repos/spring-projects/spring-roo-wrapping/issues/2/labels{/name}",
  "comments_url": "https://api.github.com/repos/spring-projects/spring-roo-wrapping/issues/2/comments",
  "events_url": "https://api.github.com/repos/spring-projects/spring-roo-wrapping/issues/2/events",
  "html_url": "https://github.com/spring-projects/spring-roo-wrapping/pull/2",
  "id": 10201364,
  "number": 2,
  "title": "ROO-3106: Spring Roo doesn't support new Java 7 language features",
  "user": {
    "login": "mikedehaan",
    "id": 1839244,
    "avatar_url": "https://avatars.githubusercontent.com/u/1839244?v=3",
    "gravatar_id": "",
    "url": "https://api.github.com/users/mikedehaan",
    "html_url": "https://github.com/mikedehaan",
    "followers_url": "https://api.github.com/users/mikedehaan/followers",
    "following_url": "https://api.github.com/users/mikedehaan/following{/other_user}",
    "gists_url": "https://api.github.com/users/mikedehaan/gists{/gist_id}",
    "starred_url": "https://api.github.com/users/mikedehaan/starred{/owner}{/repo}",
    "subscriptions_url": "https://api.github.com/users/mikedehaan/subscriptions",
    "organizations_url": "https://api.github.com/users/mikedehaan/orgs",
    "repos_url": "https://api.github.com/users/mikedehaan/repos",
    "events_url": "https://api.github.com/users/mikedehaan/events{/privacy}",
    "received_events_url": "https://api.github.com/users/mikedehaan/received_events",
    "type": "User",
    "site_admin": false
  },
  "labels": [],
  "state": "closed",
  "locked": false,
  "assignee": null,
  "milestone": null,
  "comments": 0,
  "created_at": "2013-01-22T17:35:17Z",
  "updated_at": "2013-01-22T22:29:30Z",
  "closed_at": "2013-01-22T22:29:30Z",
  "pull_request": {
    "url": "https://api.github.com/repos/spring-projects/spring-roo-wrapping/pulls/2",
    "html_url": "https://github.com/spring-projects/spring-roo-wrapping/pull/2",
    "diff_url": "https://github.com/spring-projects/spring-roo-wrapping/pull/2.diff",
    "patch_url": "https://github.com/spring-projects/spring-roo-wrapping/pull/2.patch"
  },
  "body": "Updated version of antlrjavaparser to 1.0.5 which fixed problems with\r\nLong literals, array creation, and constructors with parameters."
}
, {
  "url": "https://api.github.com/repos/spring-projects/spring-roo-wrapping/issues/1",
  "labels_url": "https://api.github.com/repos/spring-projects/spring-roo-wrapping/issues/1/labels{/name}",
  "comments_url": "https://api.github.com/repos/spring-projects/spring-roo-wrapping/issues/1/comments",
  "events_url": "https://api.github.com/repos/spring-projects/spring-roo-wrapping/issues/1/events",
  "html_url": "https://github.com/spring-projects/spring-roo-wrapping/pull/1",
  "id": 9710496,
  "number": 1,
  "title": "ROO-3106: Spring Roo doesn't support new Java 7 language features",
  "user": {
    "login": "mikedehaan",
    "id": 1839244,
    "avatar_url": "https://avatars.githubusercontent.com/u/1839244?v=3",
    "gravatar_id": "",
    "url": "https://api.github.com/users/mikedehaan",
    "html_url": "https://github.com/mikedehaan",
    "followers_url": "https://api.github.com/users/mikedehaan/followers",
    "following_url": "https://api.github.com/users/mikedehaan/following{/other_user}",
    "gists_url": "https://api.github.com/users/mikedehaan/gists{/gist_id}",
    "starred_url": "https://api.github.com/users/mikedehaan/starred{/owner}{/repo}",
    "subscriptions_url": "https://api.github.com/users/mikedehaan/subscriptions",
    "organizations_url": "https://api.github.com/users/mikedehaan/orgs",
    "repos_url": "https://api.github.com/users/mikedehaan/repos",
    "events_url": "https://api.github.com/users/mikedehaan/events{/privacy}",
    "received_events_url": "https://api.github.com/users/mikedehaan/received_events",
    "type": "User",
    "site_admin": false
  },
  "labels": [],
  "state": "closed",
  "locked": false,
  "assignee": null,
  "milestone": null,
  "comments": 0,
  "created_at": "2013-01-05T22:29:02Z",
  "updated_at": "2014-06-19T23:50:05Z",
  "closed_at": "2013-01-06T05:06:52Z",
  "pull_request": {
    "url": "https://api.github.com/repos/spring-projects/spring-roo-wrapping/pulls/1",
    "html_url": "https://github.com/spring-projects/spring-roo-wrapping/pull/1",
    "diff_url": "https://github.com/spring-projects/spring-roo-wrapping/pull/1.diff",
    "patch_url": "https://github.com/spring-projects/spring-roo-wrapping/pull/1.patch"
  },
  "body": "Added new dependencies to eventually replace javaparser:\r\n    antlr-java-parser\r\n    antlr4-runtime\r\n\r\nThis is the first step toward replacing the javaparser dependency.  This must be deployed before the code changes to the main roo project can be submitted for pull request."
}
]
