[
{
  "url": "https://api.github.com/repos/owncloud/documents/issues/comments/29890109",
  "html_url": "https://github.com/owncloud/documents/issues/156#issuecomment-29890109",
  "issue_url": "https://api.github.com/repos/owncloud/documents/issues/156",
  "id": 29890109,
  "user": {
    "login": "karlitschek",
    "id": 867445,
    "avatar_url": "https://avatars.githubusercontent.com/u/867445?v=3",
    "gravatar_id": "",
    "url": "https://api.github.com/users/karlitschek",
    "html_url": "https://github.com/karlitschek",
    "followers_url": "https://api.github.com/users/karlitschek/followers",
    "following_url": "https://api.github.com/users/karlitschek/following{/other_user}",
    "gists_url": "https://api.github.com/users/karlitschek/gists{/gist_id}",
    "starred_url": "https://api.github.com/users/karlitschek/starred{/owner}{/repo}",
    "subscriptions_url": "https://api.github.com/users/karlitschek/subscriptions",
    "organizations_url": "https://api.github.com/users/karlitschek/orgs",
    "repos_url": "https://api.github.com/users/karlitschek/repos",
    "events_url": "https://api.github.com/users/karlitschek/events{/privacy}",
    "received_events_url": "https://api.github.com/users/karlitschek/received_events",
    "type": "User",
    "site_admin": false
  },
  "created_at": "2013-12-05T11:25:06Z",
  "updated_at": "2013-12-05T11:25:06Z",
  "body": "The example files are here: https://github.com/owncloud/example-files\r\nSeems to be a problem with WebODF. @kossebau @VicDeo What do you think? "
}
, {
  "url": "https://api.github.com/repos/owncloud/documents/issues/comments/29902552",
  "html_url": "https://github.com/owncloud/documents/issues/156#issuecomment-29902552",
  "issue_url": "https://api.github.com/repos/owncloud/documents/issues/156",
  "id": 29902552,
  "user": {
    "login": "kossebau",
    "id": 4068037,
    "avatar_url": "https://avatars.githubusercontent.com/u/4068037?v=3",
    "gravatar_id": "",
    "url": "https://api.github.com/users/kossebau",
    "html_url": "https://github.com/kossebau",
    "followers_url": "https://api.github.com/users/kossebau/followers",
    "following_url": "https://api.github.com/users/kossebau/following{/other_user}",
    "gists_url": "https://api.github.com/users/kossebau/gists{/gist_id}",
    "starred_url": "https://api.github.com/users/kossebau/starred{/owner}{/repo}",
    "subscriptions_url": "https://api.github.com/users/kossebau/subscriptions",
    "organizations_url": "https://api.github.com/users/kossebau/orgs",
    "repos_url": "https://api.github.com/users/kossebau/repos",
    "events_url": "https://api.github.com/users/kossebau/events{/privacy}",
    "received_events_url": "https://api.github.com/users/kossebau/received_events",
    "type": "User",
    "site_admin": false
  },
  "created_at": "2013-12-05T14:43:19Z",
  "updated_at": "2013-12-05T14:43:19Z",
  "body": "Hm, that example.odt renders fine in in the standalone webodf editor and viewer.\r\n\r\nPossibly some problems with CSS when webodf is used as viewer in OwnCloud. No clue, never looked at how the viewer is used in owncloud. @VicDeo Check what rules are overwritten in case of the viewer are what div ids are provided."
}
, {
  "url": "https://api.github.com/repos/owncloud/documents/issues/comments/29906610",
  "html_url": "https://github.com/owncloud/documents/issues/156#issuecomment-29906610",
  "issue_url": "https://api.github.com/repos/owncloud/documents/issues/156",
  "id": 29906610,
  "user": {
    "login": "VicDeo",
    "id": 991300,
    "avatar_url": "https://avatars.githubusercontent.com/u/991300?v=3",
    "gravatar_id": "",
    "url": "https://api.github.com/users/VicDeo",
    "html_url": "https://github.com/VicDeo",
    "followers_url": "https://api.github.com/users/VicDeo/followers",
    "following_url": "https://api.github.com/users/VicDeo/following{/other_user}",
    "gists_url": "https://api.github.com/users/VicDeo/gists{/gist_id}",
    "starred_url": "https://api.github.com/users/VicDeo/starred{/owner}{/repo}",
    "subscriptions_url": "https://api.github.com/users/VicDeo/subscriptions",
    "organizations_url": "https://api.github.com/users/VicDeo/orgs",
    "repos_url": "https://api.github.com/users/VicDeo/repos",
    "events_url": "https://api.github.com/users/VicDeo/events{/privacy}",
    "received_events_url": "https://api.github.com/users/VicDeo/received_events",
    "type": "User",
    "site_admin": false
  },
  "created_at": "2013-12-05T15:25:57Z",
  "updated_at": "2013-12-05T15:25:57Z",
  "body": "@kossebau @kabum it was an outdated WebODF stylesheet that I borrowed from odf_viewer app.\r\nRemoved."
}
, {
  "url": "https://api.github.com/repos/owncloud/documents/issues/comments/29907180",
  "html_url": "https://github.com/owncloud/documents/issues/156#issuecomment-29907180",
  "issue_url": "https://api.github.com/repos/owncloud/documents/issues/156",
  "id": 29907180,
  "user": {
    "login": "karlitschek",
    "id": 867445,
    "avatar_url": "https://avatars.githubusercontent.com/u/867445?v=3",
    "gravatar_id": "",
    "url": "https://api.github.com/users/karlitschek",
    "html_url": "https://github.com/karlitschek",
    "followers_url": "https://api.github.com/users/karlitschek/followers",
    "following_url": "https://api.github.com/users/karlitschek/following{/other_user}",
    "gists_url": "https://api.github.com/users/karlitschek/gists{/gist_id}",
    "starred_url": "https://api.github.com/users/karlitschek/starred{/owner}{/repo}",
    "subscriptions_url": "https://api.github.com/users/karlitschek/subscriptions",
    "organizations_url": "https://api.github.com/users/karlitschek/orgs",
    "repos_url": "https://api.github.com/users/karlitschek/repos",
    "events_url": "https://api.github.com/users/karlitschek/events{/privacy}",
    "received_events_url": "https://api.github.com/users/karlitschek/received_events",
    "type": "User",
    "site_admin": false
  },
  "created_at": "2013-12-05T15:31:56Z",
  "updated_at": "2013-12-05T15:31:56Z",
  "body": "Great!!!!!  \r\nPlease always backport to stable6 :-) "
}
, {
  "url": "https://api.github.com/repos/owncloud/documents/issues/comments/29907918",
  "html_url": "https://github.com/owncloud/documents/issues/156#issuecomment-29907918",
  "issue_url": "https://api.github.com/repos/owncloud/documents/issues/156",
  "id": 29907918,
  "user": {
    "login": "VicDeo",
    "id": 991300,
    "avatar_url": "https://avatars.githubusercontent.com/u/991300?v=3",
    "gravatar_id": "",
    "url": "https://api.github.com/users/VicDeo",
    "html_url": "https://github.com/VicDeo",
    "followers_url": "https://api.github.com/users/VicDeo/followers",
    "following_url": "https://api.github.com/users/VicDeo/following{/other_user}",
    "gists_url": "https://api.github.com/users/VicDeo/gists{/gist_id}",
    "starred_url": "https://api.github.com/users/VicDeo/starred{/owner}{/repo}",
    "subscriptions_url": "https://api.github.com/users/VicDeo/subscriptions",
    "organizations_url": "https://api.github.com/users/VicDeo/orgs",
    "repos_url": "https://api.github.com/users/VicDeo/repos",
    "events_url": "https://api.github.com/users/VicDeo/events{/privacy}",
    "received_events_url": "https://api.github.com/users/VicDeo/received_events",
    "type": "User",
    "site_admin": false
  },
  "created_at": "2013-12-05T15:39:35Z",
  "updated_at": "2013-12-05T15:39:35Z",
  "body": "@karlitschek sure, I will fix some more and do a batch later tonight"
}
]
