[
{
  "url": "https://api.github.com/repos/owncloud/documents/issues/comments/41040743",
  "html_url": "https://github.com/owncloud/documents/issues/240#issuecomment-41040743",
  "issue_url": "https://api.github.com/repos/owncloud/documents/issues/240",
  "id": 41040743,
  "user": {
    "login": "VicDeo",
    "id": 991300,
    "avatar_url": "https://avatars.githubusercontent.com/u/991300?v=3",
    "gravatar_id": "",
    "url": "https://api.github.com/users/VicDeo",
    "html_url": "https://github.com/VicDeo",
    "followers_url": "https://api.github.com/users/VicDeo/followers",
    "following_url": "https://api.github.com/users/VicDeo/following{/other_user}",
    "gists_url": "https://api.github.com/users/VicDeo/gists{/gist_id}",
    "starred_url": "https://api.github.com/users/VicDeo/starred{/owner}{/repo}",
    "subscriptions_url": "https://api.github.com/users/VicDeo/subscriptions",
    "organizations_url": "https://api.github.com/users/VicDeo/orgs",
    "repos_url": "https://api.github.com/users/VicDeo/repos",
    "events_url": "https://api.github.com/users/VicDeo/events{/privacy}",
    "received_events_url": "https://api.github.com/users/VicDeo/received_events",
    "type": "User",
    "site_admin": false
  },
  "created_at": "2014-04-22T13:44:05Z",
  "updated_at": "2014-04-22T13:44:05Z",
  "body": "Dulpicate of https://github.com/owncloud/documents/issues/185\r\nWill be fixed with upcoming 6.0.3"
}
, {
  "url": "https://api.github.com/repos/owncloud/documents/issues/comments/41040981",
  "html_url": "https://github.com/owncloud/documents/issues/240#issuecomment-41040981",
  "issue_url": "https://api.github.com/repos/owncloud/documents/issues/240",
  "id": 41040981,
  "user": {
    "login": "bispawel",
    "id": 7370069,
    "avatar_url": "https://avatars.githubusercontent.com/u/7370069?v=3",
    "gravatar_id": "",
    "url": "https://api.github.com/users/bispawel",
    "html_url": "https://github.com/bispawel",
    "followers_url": "https://api.github.com/users/bispawel/followers",
    "following_url": "https://api.github.com/users/bispawel/following{/other_user}",
    "gists_url": "https://api.github.com/users/bispawel/gists{/gist_id}",
    "starred_url": "https://api.github.com/users/bispawel/starred{/owner}{/repo}",
    "subscriptions_url": "https://api.github.com/users/bispawel/subscriptions",
    "organizations_url": "https://api.github.com/users/bispawel/orgs",
    "repos_url": "https://api.github.com/users/bispawel/repos",
    "events_url": "https://api.github.com/users/bispawel/events{/privacy}",
    "received_events_url": "https://api.github.com/users/bispawel/received_events",
    "type": "User",
    "site_admin": false
  },
  "created_at": "2014-04-22T13:46:06Z",
  "updated_at": "2014-04-22T13:46:06Z",
  "body": "ok thx"
}
, {
  "url": "https://api.github.com/repos/owncloud/documents/issues/comments/41697046",
  "html_url": "https://github.com/owncloud/documents/issues/240#issuecomment-41697046",
  "issue_url": "https://api.github.com/repos/owncloud/documents/issues/240",
  "id": 41697046,
  "user": {
    "login": "VicDeo",
    "id": 991300,
    "avatar_url": "https://avatars.githubusercontent.com/u/991300?v=3",
    "gravatar_id": "",
    "url": "https://api.github.com/users/VicDeo",
    "html_url": "https://github.com/VicDeo",
    "followers_url": "https://api.github.com/users/VicDeo/followers",
    "following_url": "https://api.github.com/users/VicDeo/following{/other_user}",
    "gists_url": "https://api.github.com/users/VicDeo/gists{/gist_id}",
    "starred_url": "https://api.github.com/users/VicDeo/starred{/owner}{/repo}",
    "subscriptions_url": "https://api.github.com/users/VicDeo/subscriptions",
    "organizations_url": "https://api.github.com/users/VicDeo/orgs",
    "repos_url": "https://api.github.com/users/VicDeo/repos",
    "events_url": "https://api.github.com/users/VicDeo/events{/privacy}",
    "received_events_url": "https://api.github.com/users/VicDeo/received_events",
    "type": "User",
    "site_admin": false
  },
  "created_at": "2014-04-29T16:14:31Z",
  "updated_at": "2014-04-29T16:14:31Z",
  "body": "@bispawel please do not hesitate to write me back if this is fixed with upgrade.\r\n 6.0.3 has been just released."
}
, {
  "url": "https://api.github.com/repos/owncloud/documents/issues/comments/41763959",
  "html_url": "https://github.com/owncloud/documents/issues/240#issuecomment-41763959",
  "issue_url": "https://api.github.com/repos/owncloud/documents/issues/240",
  "id": 41763959,
  "user": {
    "login": "bispawel",
    "id": 7370069,
    "avatar_url": "https://avatars.githubusercontent.com/u/7370069?v=3",
    "gravatar_id": "",
    "url": "https://api.github.com/users/bispawel",
    "html_url": "https://github.com/bispawel",
    "followers_url": "https://api.github.com/users/bispawel/followers",
    "following_url": "https://api.github.com/users/bispawel/following{/other_user}",
    "gists_url": "https://api.github.com/users/bispawel/gists{/gist_id}",
    "starred_url": "https://api.github.com/users/bispawel/starred{/owner}{/repo}",
    "subscriptions_url": "https://api.github.com/users/bispawel/subscriptions",
    "organizations_url": "https://api.github.com/users/bispawel/orgs",
    "repos_url": "https://api.github.com/users/bispawel/repos",
    "events_url": "https://api.github.com/users/bispawel/events{/privacy}",
    "received_events_url": "https://api.github.com/users/bispawel/received_events",
    "type": "User",
    "site_admin": false
  },
  "created_at": "2014-04-30T06:11:16Z",
  "updated_at": "2014-04-30T06:11:16Z",
  "body": "Thanks for Your information. With the last update (in oc 6.0.3) the documents app showing list of files (odt) but click-in on them I had loading and files didn't open. I don't know why?\r\n\r\nWhen I copied old version (6.0.2) of \"Documents\" app in \"/apps/document\" fils (odt) are opening but accents still don't work... :( \r\n\r\n "
}
, {
  "url": "https://api.github.com/repos/owncloud/documents/issues/comments/41769661",
  "html_url": "https://github.com/owncloud/documents/issues/240#issuecomment-41769661",
  "issue_url": "https://api.github.com/repos/owncloud/documents/issues/240",
  "id": 41769661,
  "user": {
    "login": "VicDeo",
    "id": 991300,
    "avatar_url": "https://avatars.githubusercontent.com/u/991300?v=3",
    "gravatar_id": "",
    "url": "https://api.github.com/users/VicDeo",
    "html_url": "https://github.com/VicDeo",
    "followers_url": "https://api.github.com/users/VicDeo/followers",
    "following_url": "https://api.github.com/users/VicDeo/following{/other_user}",
    "gists_url": "https://api.github.com/users/VicDeo/gists{/gist_id}",
    "starred_url": "https://api.github.com/users/VicDeo/starred{/owner}{/repo}",
    "subscriptions_url": "https://api.github.com/users/VicDeo/subscriptions",
    "organizations_url": "https://api.github.com/users/VicDeo/orgs",
    "repos_url": "https://api.github.com/users/VicDeo/repos",
    "events_url": "https://api.github.com/users/VicDeo/events{/privacy}",
    "received_events_url": "https://api.github.com/users/VicDeo/received_events",
    "type": "User",
    "site_admin": false
  },
  "created_at": "2014-04-30T07:53:53Z",
  "updated_at": "2014-04-30T07:53:53Z",
  "body": "@bispawel strange. Can you check whether your owncloud.log contains messages from the Documents app?"
}
, {
  "url": "https://api.github.com/repos/owncloud/documents/issues/comments/41771863",
  "html_url": "https://github.com/owncloud/documents/issues/240#issuecomment-41771863",
  "issue_url": "https://api.github.com/repos/owncloud/documents/issues/240",
  "id": 41771863,
  "user": {
    "login": "bispawel",
    "id": 7370069,
    "avatar_url": "https://avatars.githubusercontent.com/u/7370069?v=3",
    "gravatar_id": "",
    "url": "https://api.github.com/users/bispawel",
    "html_url": "https://github.com/bispawel",
    "followers_url": "https://api.github.com/users/bispawel/followers",
    "following_url": "https://api.github.com/users/bispawel/following{/other_user}",
    "gists_url": "https://api.github.com/users/bispawel/gists{/gist_id}",
    "starred_url": "https://api.github.com/users/bispawel/starred{/owner}{/repo}",
    "subscriptions_url": "https://api.github.com/users/bispawel/subscriptions",
    "organizations_url": "https://api.github.com/users/bispawel/orgs",
    "repos_url": "https://api.github.com/users/bispawel/repos",
    "events_url": "https://api.github.com/users/bispawel/events{/privacy}",
    "received_events_url": "https://api.github.com/users/bispawel/received_events",
    "type": "User",
    "site_admin": false
  },
  "created_at": "2014-04-30T08:24:31Z",
  "updated_at": "2014-04-30T08:24:31Z",
  "body": "from \"documents\" is only:\r\n{\"app\":\"documents\",\"message\":\"starting app upgrade from 0.7.2 to 0.8.1\",\"level\":0,\"time\":\"2014-04-22T07:25:35+00:00\"}\r\n\r\nmy owncloud is hosted on ispcp (http://isp-control.net/) maybe this is the reason ?"
}
, {
  "url": "https://api.github.com/repos/owncloud/documents/issues/comments/47155309",
  "html_url": "https://github.com/owncloud/documents/issues/240#issuecomment-47155309",
  "issue_url": "https://api.github.com/repos/owncloud/documents/issues/240",
  "id": 47155309,
  "user": {
    "login": "VicDeo",
    "id": 991300,
    "avatar_url": "https://avatars.githubusercontent.com/u/991300?v=3",
    "gravatar_id": "",
    "url": "https://api.github.com/users/VicDeo",
    "html_url": "https://github.com/VicDeo",
    "followers_url": "https://api.github.com/users/VicDeo/followers",
    "following_url": "https://api.github.com/users/VicDeo/following{/other_user}",
    "gists_url": "https://api.github.com/users/VicDeo/gists{/gist_id}",
    "starred_url": "https://api.github.com/users/VicDeo/starred{/owner}{/repo}",
    "subscriptions_url": "https://api.github.com/users/VicDeo/subscriptions",
    "organizations_url": "https://api.github.com/users/VicDeo/orgs",
    "repos_url": "https://api.github.com/users/VicDeo/repos",
    "events_url": "https://api.github.com/users/VicDeo/events{/privacy}",
    "received_events_url": "https://api.github.com/users/VicDeo/received_events",
    "type": "User",
    "site_admin": false
  },
  "created_at": "2014-06-25T20:37:48Z",
  "updated_at": "2014-06-25T20:37:48Z",
  "body": "@bispawel it's more like a browser cache issue."
}
, {
  "url": "https://api.github.com/repos/owncloud/documents/issues/comments/57697608",
  "html_url": "https://github.com/owncloud/documents/issues/240#issuecomment-57697608",
  "issue_url": "https://api.github.com/repos/owncloud/documents/issues/240",
  "id": 57697608,
  "user": {
    "login": "VicDeo",
    "id": 991300,
    "avatar_url": "https://avatars.githubusercontent.com/u/991300?v=3",
    "gravatar_id": "",
    "url": "https://api.github.com/users/VicDeo",
    "html_url": "https://github.com/VicDeo",
    "followers_url": "https://api.github.com/users/VicDeo/followers",
    "following_url": "https://api.github.com/users/VicDeo/following{/other_user}",
    "gists_url": "https://api.github.com/users/VicDeo/gists{/gist_id}",
    "starred_url": "https://api.github.com/users/VicDeo/starred{/owner}{/repo}",
    "subscriptions_url": "https://api.github.com/users/VicDeo/subscriptions",
    "organizations_url": "https://api.github.com/users/VicDeo/orgs",
    "repos_url": "https://api.github.com/users/VicDeo/repos",
    "events_url": "https://api.github.com/users/VicDeo/events{/privacy}",
    "received_events_url": "https://api.github.com/users/VicDeo/received_events",
    "type": "User",
    "site_admin": false
  },
  "created_at": "2014-10-02T20:11:46Z",
  "updated_at": "2014-10-02T20:11:46Z",
  "body": "@bispawel I'm closing this issue as outdated. Feel free to reopen if it is still reproducible with OC 6.0.5 or later"
}
]
