[
{
  "url": "https://api.github.com/repos/paypal/react-engine/issues/comments/120465603",
  "html_url": "https://github.com/paypal/react-engine/issues/52#issuecomment-120465603",
  "issue_url": "https://api.github.com/repos/paypal/react-engine/issues/52",
  "id": 120465603,
  "user": {
    "login": "reggi",
    "id": 296798,
    "avatar_url": "https://avatars.githubusercontent.com/u/296798?v=3",
    "gravatar_id": "",
    "url": "https://api.github.com/users/reggi",
    "html_url": "https://github.com/reggi",
    "followers_url": "https://api.github.com/users/reggi/followers",
    "following_url": "https://api.github.com/users/reggi/following{/other_user}",
    "gists_url": "https://api.github.com/users/reggi/gists{/gist_id}",
    "starred_url": "https://api.github.com/users/reggi/starred{/owner}{/repo}",
    "subscriptions_url": "https://api.github.com/users/reggi/subscriptions",
    "organizations_url": "https://api.github.com/users/reggi/orgs",
    "repos_url": "https://api.github.com/users/reggi/repos",
    "events_url": "https://api.github.com/users/reggi/events{/privacy}",
    "received_events_url": "https://api.github.com/users/reggi/received_events",
    "type": "User",
    "site_admin": false
  },
  "created_at": "2015-07-10T17:25:59Z",
  "updated_at": "2015-07-10T17:26:35Z",
  "body": "The [`expressView`](https://github.com/paypal/react-engine/blob/master/lib/expressView.js) function uses [`express/lib/view`](https://github.com/strongloop/express/blob/master/lib/view.js).\r\n\r\nIt seems like express view accepts a string path for its first parameter. It tries to parse out the extension of that path and load its templating engine (ex. `index.ejs`, `index.jade`). When I pass it something like `/index.html` it thinks it's looking for the `html` template. When I pass it something like `/index?url=google.com` it thinks that `com` is the template engine.\r\n\r\nIs there a reason `react-engine` doesn't support periods? If not shouldn't the examples be something like:\r\n\r\n```\r\nres.render(req.path.replace(/\\./g, \"\"), data)\r\n```"
}
, {
  "url": "https://api.github.com/repos/paypal/react-engine/issues/comments/120487095",
  "html_url": "https://github.com/paypal/react-engine/issues/52#issuecomment-120487095",
  "issue_url": "https://api.github.com/repos/paypal/react-engine/issues/52",
  "id": 120487095,
  "user": {
    "login": "reggi",
    "id": 296798,
    "avatar_url": "https://avatars.githubusercontent.com/u/296798?v=3",
    "gravatar_id": "",
    "url": "https://api.github.com/users/reggi",
    "html_url": "https://github.com/reggi",
    "followers_url": "https://api.github.com/users/reggi/followers",
    "following_url": "https://api.github.com/users/reggi/following{/other_user}",
    "gists_url": "https://api.github.com/users/reggi/gists{/gist_id}",
    "starred_url": "https://api.github.com/users/reggi/starred{/owner}{/repo}",
    "subscriptions_url": "https://api.github.com/users/reggi/subscriptions",
    "organizations_url": "https://api.github.com/users/reggi/orgs",
    "repos_url": "https://api.github.com/users/reggi/repos",
    "events_url": "https://api.github.com/users/reggi/events{/privacy}",
    "received_events_url": "https://api.github.com/users/reggi/received_events",
    "type": "User",
    "site_admin": false
  },
  "created_at": "2015-07-10T18:24:21Z",
  "updated_at": "2015-07-10T18:25:47Z",
  "body": "I replaced the `view` with in [`expressView`](https://github.com/paypal/react-engine/blob/master/lib/expressView.js) and I got periods working\r\n\r\n```\r\nvar ExpressView = util.safeRequire('express/lib/view');\r\n\r\nfunction View(name, options) {\r\n  options = options || {};\r\n  this.name = name;\r\n  this.root = options.root;\r\n  var engines = options.engines;\r\n  this.defaultEngine = options.defaultEngine;\r\n  //var ext = this.ext = extname(name);\r\n  var ext = this.ext = \".\" + this.defaultEngine //.jsx\r\n  //if (!ext && !this.defaultEngine) throw new Error('No default engine was specified and no extension was provided.');\r\n  //if (!ext) name += (ext = this.ext = ('.' != this.defaultEngine[0] ? '.' : '') + this.defaultEngine);\r\n  this.engine = engines[ext] || (engines[ext] = require(ext.slice(1)).__express);\r\n  this.path = this.lookup(name);\r\n}\r\n\r\nView.prototype = Object.create(ExpressView.prototype)\r\n```\r\n\r\nThis uses the `.jsx` rendering engine for everything, regardless if there is a period in the name."
}
, {
  "url": "https://api.github.com/repos/paypal/react-engine/issues/comments/120487869",
  "html_url": "https://github.com/paypal/react-engine/issues/52#issuecomment-120487869",
  "issue_url": "https://api.github.com/repos/paypal/react-engine/issues/52",
  "id": 120487869,
  "user": {
    "login": "reggi",
    "id": 296798,
    "avatar_url": "https://avatars.githubusercontent.com/u/296798?v=3",
    "gravatar_id": "",
    "url": "https://api.github.com/users/reggi",
    "html_url": "https://github.com/reggi",
    "followers_url": "https://api.github.com/users/reggi/followers",
    "following_url": "https://api.github.com/users/reggi/following{/other_user}",
    "gists_url": "https://api.github.com/users/reggi/gists{/gist_id}",
    "starred_url": "https://api.github.com/users/reggi/starred{/owner}{/repo}",
    "subscriptions_url": "https://api.github.com/users/reggi/subscriptions",
    "organizations_url": "https://api.github.com/users/reggi/orgs",
    "repos_url": "https://api.github.com/users/reggi/repos",
    "events_url": "https://api.github.com/users/reggi/events{/privacy}",
    "received_events_url": "https://api.github.com/users/reggi/received_events",
    "type": "User",
    "site_admin": false
  },
  "created_at": "2015-07-10T18:28:23Z",
  "updated_at": "2015-07-10T18:29:12Z",
  "body": "React router takes routes with periods! YAY! \r\n\r\n```\r\n<Router.Route name='hello.world' handler={Index} />\r\n```\r\n\r\n![screen shot 2015-07-10 at 2 27 53 pm](https://cloud.githubusercontent.com/assets/296798/8625971/e72602aa-270f-11e5-8ddd-9b7a0c822b79.png)\r\n"
}
, {
  "url": "https://api.github.com/repos/paypal/react-engine/issues/comments/121082175",
  "html_url": "https://github.com/paypal/react-engine/issues/52#issuecomment-121082175",
  "issue_url": "https://api.github.com/repos/paypal/react-engine/issues/52",
  "id": 121082175,
  "user": {
    "login": "samsel",
    "id": 760062,
    "avatar_url": "https://avatars.githubusercontent.com/u/760062?v=3",
    "gravatar_id": "",
    "url": "https://api.github.com/users/samsel",
    "html_url": "https://github.com/samsel",
    "followers_url": "https://api.github.com/users/samsel/followers",
    "following_url": "https://api.github.com/users/samsel/following{/other_user}",
    "gists_url": "https://api.github.com/users/samsel/gists{/gist_id}",
    "starred_url": "https://api.github.com/users/samsel/starred{/owner}{/repo}",
    "subscriptions_url": "https://api.github.com/users/samsel/subscriptions",
    "organizations_url": "https://api.github.com/users/samsel/orgs",
    "repos_url": "https://api.github.com/users/samsel/repos",
    "events_url": "https://api.github.com/users/samsel/events{/privacy}",
    "received_events_url": "https://api.github.com/users/samsel/received_events",
    "type": "User",
    "site_admin": false
  },
  "created_at": "2015-07-13T22:41:41Z",
  "updated_at": "2015-07-13T22:41:41Z",
  "body": "@reggi is this already taken care of? do you need help with anything?"
}
, {
  "url": "https://api.github.com/repos/paypal/react-engine/issues/comments/121127867",
  "html_url": "https://github.com/paypal/react-engine/issues/52#issuecomment-121127867",
  "issue_url": "https://api.github.com/repos/paypal/react-engine/issues/52",
  "id": 121127867,
  "user": {
    "login": "reggi",
    "id": 296798,
    "avatar_url": "https://avatars.githubusercontent.com/u/296798?v=3",
    "gravatar_id": "",
    "url": "https://api.github.com/users/reggi",
    "html_url": "https://github.com/reggi",
    "followers_url": "https://api.github.com/users/reggi/followers",
    "following_url": "https://api.github.com/users/reggi/following{/other_user}",
    "gists_url": "https://api.github.com/users/reggi/gists{/gist_id}",
    "starred_url": "https://api.github.com/users/reggi/starred{/owner}{/repo}",
    "subscriptions_url": "https://api.github.com/users/reggi/subscriptions",
    "organizations_url": "https://api.github.com/users/reggi/orgs",
    "repos_url": "https://api.github.com/users/reggi/repos",
    "events_url": "https://api.github.com/users/reggi/events{/privacy}",
    "received_events_url": "https://api.github.com/users/reggi/received_events",
    "type": "User",
    "site_admin": false
  },
  "created_at": "2015-07-14T04:12:22Z",
  "updated_at": "2015-07-14T04:12:22Z",
  "body": "@samsel I had some problems with running tests on the code above. I couldn't get it to work so I never put a pull request."
}
, {
  "url": "https://api.github.com/repos/paypal/react-engine/issues/comments/121129467",
  "html_url": "https://github.com/paypal/react-engine/issues/52#issuecomment-121129467",
  "issue_url": "https://api.github.com/repos/paypal/react-engine/issues/52",
  "id": 121129467,
  "user": {
    "login": "samsel",
    "id": 760062,
    "avatar_url": "https://avatars.githubusercontent.com/u/760062?v=3",
    "gravatar_id": "",
    "url": "https://api.github.com/users/samsel",
    "html_url": "https://github.com/samsel",
    "followers_url": "https://api.github.com/users/samsel/followers",
    "following_url": "https://api.github.com/users/samsel/following{/other_user}",
    "gists_url": "https://api.github.com/users/samsel/gists{/gist_id}",
    "starred_url": "https://api.github.com/users/samsel/starred{/owner}{/repo}",
    "subscriptions_url": "https://api.github.com/users/samsel/subscriptions",
    "organizations_url": "https://api.github.com/users/samsel/orgs",
    "repos_url": "https://api.github.com/users/samsel/repos",
    "events_url": "https://api.github.com/users/samsel/events{/privacy}",
    "received_events_url": "https://api.github.com/users/samsel/received_events",
    "type": "User",
    "site_admin": false
  },
  "created_at": "2015-07-14T04:21:55Z",
  "updated_at": "2015-07-14T04:21:55Z",
  "body": "@reggi you can send a PR to the develop branch. I can help fix tests."
}
, {
  "url": "https://api.github.com/repos/paypal/react-engine/issues/comments/121643737",
  "html_url": "https://github.com/paypal/react-engine/issues/52#issuecomment-121643737",
  "issue_url": "https://api.github.com/repos/paypal/react-engine/issues/52",
  "id": 121643737,
  "user": {
    "login": "reggi",
    "id": 296798,
    "avatar_url": "https://avatars.githubusercontent.com/u/296798?v=3",
    "gravatar_id": "",
    "url": "https://api.github.com/users/reggi",
    "html_url": "https://github.com/reggi",
    "followers_url": "https://api.github.com/users/reggi/followers",
    "following_url": "https://api.github.com/users/reggi/following{/other_user}",
    "gists_url": "https://api.github.com/users/reggi/gists{/gist_id}",
    "starred_url": "https://api.github.com/users/reggi/starred{/owner}{/repo}",
    "subscriptions_url": "https://api.github.com/users/reggi/subscriptions",
    "organizations_url": "https://api.github.com/users/reggi/orgs",
    "repos_url": "https://api.github.com/users/reggi/repos",
    "events_url": "https://api.github.com/users/reggi/events{/privacy}",
    "received_events_url": "https://api.github.com/users/reggi/received_events",
    "type": "User",
    "site_admin": false
  },
  "created_at": "2015-07-15T14:59:01Z",
  "updated_at": "2015-07-15T14:59:14Z",
  "body": "Please forgive the mess! The last referenced issue is my fork on the `develop` branch. Here's the PR https://github.com/paypal/react-engine/pull/58."
}
, {
  "url": "https://api.github.com/repos/paypal/react-engine/issues/comments/122020951",
  "html_url": "https://github.com/paypal/react-engine/issues/52#issuecomment-122020951",
  "issue_url": "https://api.github.com/repos/paypal/react-engine/issues/52",
  "id": 122020951,
  "user": {
    "login": "reggi",
    "id": 296798,
    "avatar_url": "https://avatars.githubusercontent.com/u/296798?v=3",
    "gravatar_id": "",
    "url": "https://api.github.com/users/reggi",
    "html_url": "https://github.com/reggi",
    "followers_url": "https://api.github.com/users/reggi/followers",
    "following_url": "https://api.github.com/users/reggi/following{/other_user}",
    "gists_url": "https://api.github.com/users/reggi/gists{/gist_id}",
    "starred_url": "https://api.github.com/users/reggi/starred{/owner}{/repo}",
    "subscriptions_url": "https://api.github.com/users/reggi/subscriptions",
    "organizations_url": "https://api.github.com/users/reggi/orgs",
    "repos_url": "https://api.github.com/users/reggi/repos",
    "events_url": "https://api.github.com/users/reggi/events{/privacy}",
    "received_events_url": "https://api.github.com/users/reggi/received_events",
    "type": "User",
    "site_admin": false
  },
  "created_at": "2015-07-16T16:54:40Z",
  "updated_at": "2015-07-16T16:54:40Z",
  "body": "Hey @samsel I put in a new pull request I copied the latest express view and commented out one line of code. Here's my issue / request in express: https://github.com/strongloop/express/issues/2708#issuecomment-122002655\r\n\r\nAlternatively periods can be stripped out and matched to the corresponding route. \r\n\r\n```\r\napp.use(function(req, res){\r\n  var theUrl = url.parse(req.url).pathname.replace(/\\.+/g, \"\")\r\n  return res.render(theUrl)\r\n})\r\n```\r\n\r\nIn the case above `/app`, `/a.p.p`, `/ap.p` should all render the react route `/app`."
}
, {
  "url": "https://api.github.com/repos/paypal/react-engine/issues/comments/122021234",
  "html_url": "https://github.com/paypal/react-engine/issues/52#issuecomment-122021234",
  "issue_url": "https://api.github.com/repos/paypal/react-engine/issues/52",
  "id": 122021234,
  "user": {
    "login": "reggi",
    "id": 296798,
    "avatar_url": "https://avatars.githubusercontent.com/u/296798?v=3",
    "gravatar_id": "",
    "url": "https://api.github.com/users/reggi",
    "html_url": "https://github.com/reggi",
    "followers_url": "https://api.github.com/users/reggi/followers",
    "following_url": "https://api.github.com/users/reggi/following{/other_user}",
    "gists_url": "https://api.github.com/users/reggi/gists{/gist_id}",
    "starred_url": "https://api.github.com/users/reggi/starred{/owner}{/repo}",
    "subscriptions_url": "https://api.github.com/users/reggi/subscriptions",
    "organizations_url": "https://api.github.com/users/reggi/orgs",
    "repos_url": "https://api.github.com/users/reggi/repos",
    "events_url": "https://api.github.com/users/reggi/events{/privacy}",
    "received_events_url": "https://api.github.com/users/reggi/received_events",
    "type": "User",
    "site_admin": false
  },
  "created_at": "2015-07-16T16:55:24Z",
  "updated_at": "2015-07-16T16:55:46Z",
  "body": "@samsel just to confirm react route doesn't change what's rendered based on the url query does it? "
}
, {
  "url": "https://api.github.com/repos/paypal/react-engine/issues/comments/145727158",
  "html_url": "https://github.com/paypal/react-engine/issues/52#issuecomment-145727158",
  "issue_url": "https://api.github.com/repos/paypal/react-engine/issues/52",
  "id": 145727158,
  "user": {
    "login": "dglozic",
    "id": 6361410,
    "avatar_url": "https://avatars.githubusercontent.com/u/6361410?v=3",
    "gravatar_id": "",
    "url": "https://api.github.com/users/dglozic",
    "html_url": "https://github.com/dglozic",
    "followers_url": "https://api.github.com/users/dglozic/followers",
    "following_url": "https://api.github.com/users/dglozic/following{/other_user}",
    "gists_url": "https://api.github.com/users/dglozic/gists{/gist_id}",
    "starred_url": "https://api.github.com/users/dglozic/starred{/owner}{/repo}",
    "subscriptions_url": "https://api.github.com/users/dglozic/subscriptions",
    "organizations_url": "https://api.github.com/users/dglozic/orgs",
    "repos_url": "https://api.github.com/users/dglozic/repos",
    "events_url": "https://api.github.com/users/dglozic/events{/privacy}",
    "received_events_url": "https://api.github.com/users/dglozic/received_events",
    "type": "User",
    "site_admin": false
  },
  "created_at": "2015-10-06T02:35:25Z",
  "updated_at": "2015-10-06T02:35:25Z",
  "body": "We just hit this as well with a valid URL containing identifiers that have dots:\r\n\r\n/a/path/to/resources/aaa.bbb.ccc.ddd\r\n\r\nWe have not control over the shape of the ID and it looks like a valid path segment anyway. Is the fix on the way?"
}
, {
  "url": "https://api.github.com/repos/paypal/react-engine/issues/comments/145727798",
  "html_url": "https://github.com/paypal/react-engine/issues/52#issuecomment-145727798",
  "issue_url": "https://api.github.com/repos/paypal/react-engine/issues/52",
  "id": 145727798,
  "user": {
    "login": "reggi",
    "id": 296798,
    "avatar_url": "https://avatars.githubusercontent.com/u/296798?v=3",
    "gravatar_id": "",
    "url": "https://api.github.com/users/reggi",
    "html_url": "https://github.com/reggi",
    "followers_url": "https://api.github.com/users/reggi/followers",
    "following_url": "https://api.github.com/users/reggi/following{/other_user}",
    "gists_url": "https://api.github.com/users/reggi/gists{/gist_id}",
    "starred_url": "https://api.github.com/users/reggi/starred{/owner}{/repo}",
    "subscriptions_url": "https://api.github.com/users/reggi/subscriptions",
    "organizations_url": "https://api.github.com/users/reggi/orgs",
    "repos_url": "https://api.github.com/users/reggi/repos",
    "events_url": "https://api.github.com/users/reggi/events{/privacy}",
    "received_events_url": "https://api.github.com/users/reggi/received_events",
    "type": "User",
    "site_admin": false
  },
  "created_at": "2015-10-06T02:42:09Z",
  "updated_at": "2015-10-06T02:42:09Z",
  "body": "I put a pull request that fixes this and it was never accepted. It augments\nthe native express view to compensate for the periods. Express 5 may help\nthe issue I opened an issue with express a while back.\n\nNote: the main reason this issue happens is because express views / render\ntakes a file name with extension and when it sees a period it tries to look\nfor the corresponding view. When we pass a path into res.render instead of\na file express thinks it's a file template not a URL path.\n\nOn Monday, October 5, 2015, dglozic <notifications@github.com> wrote:\n\n> We just hit this as well with a valid URL containing identifiers that have\n> dots:\n>\n> /a/path/to/resources/aaa.bbb.ccc.ddd\n>\n> We have not control over the shape of the ID and it looks like a valid\n> path segment anyway. Is the fix on the way?\n>\n> —\n> Reply to this email directly or view it on GitHub\n> <https://github.com/paypal/react-engine/issues/52#issuecomment-145727158>.\n>\n"
}
, {
  "url": "https://api.github.com/repos/paypal/react-engine/issues/comments/145728225",
  "html_url": "https://github.com/paypal/react-engine/issues/52#issuecomment-145728225",
  "issue_url": "https://api.github.com/repos/paypal/react-engine/issues/52",
  "id": 145728225,
  "user": {
    "login": "dglozic",
    "id": 6361410,
    "avatar_url": "https://avatars.githubusercontent.com/u/6361410?v=3",
    "gravatar_id": "",
    "url": "https://api.github.com/users/dglozic",
    "html_url": "https://github.com/dglozic",
    "followers_url": "https://api.github.com/users/dglozic/followers",
    "following_url": "https://api.github.com/users/dglozic/following{/other_user}",
    "gists_url": "https://api.github.com/users/dglozic/gists{/gist_id}",
    "starred_url": "https://api.github.com/users/dglozic/starred{/owner}{/repo}",
    "subscriptions_url": "https://api.github.com/users/dglozic/subscriptions",
    "organizations_url": "https://api.github.com/users/dglozic/orgs",
    "repos_url": "https://api.github.com/users/dglozic/repos",
    "events_url": "https://api.github.com/users/dglozic/events{/privacy}",
    "received_events_url": "https://api.github.com/users/dglozic/received_events",
    "type": "User",
    "site_admin": false
  },
  "created_at": "2015-10-06T02:47:06Z",
  "updated_at": "2015-10-06T02:50:42Z",
  "body": "Yes, I crawled through the code and saw where it happens. Meanwhile, can react-engine at least catch the error and pass it up to express so that we can get it in this form:\r\n\r\nres.render(path, settings, function(err, html) {\r\n...\r\n\r\nRight now, our code blows up because error is thrown in the view, not in the engine.\r\n\r\nIf we try/catch res.render, do you see something wrong with it? The code seems syncronous, so old school try/catch seems appropriate here. We would at least like to report an error rather than crash the app."
}
, {
  "url": "https://api.github.com/repos/paypal/react-engine/issues/comments/145729385",
  "html_url": "https://github.com/paypal/react-engine/issues/52#issuecomment-145729385",
  "issue_url": "https://api.github.com/repos/paypal/react-engine/issues/52",
  "id": 145729385,
  "user": {
    "login": "reggi",
    "id": 296798,
    "avatar_url": "https://avatars.githubusercontent.com/u/296798?v=3",
    "gravatar_id": "",
    "url": "https://api.github.com/users/reggi",
    "html_url": "https://github.com/reggi",
    "followers_url": "https://api.github.com/users/reggi/followers",
    "following_url": "https://api.github.com/users/reggi/following{/other_user}",
    "gists_url": "https://api.github.com/users/reggi/gists{/gist_id}",
    "starred_url": "https://api.github.com/users/reggi/starred{/owner}{/repo}",
    "subscriptions_url": "https://api.github.com/users/reggi/subscriptions",
    "organizations_url": "https://api.github.com/users/reggi/orgs",
    "repos_url": "https://api.github.com/users/reggi/repos",
    "events_url": "https://api.github.com/users/reggi/events{/privacy}",
    "received_events_url": "https://api.github.com/users/reggi/received_events",
    "type": "User",
    "site_admin": false
  },
  "created_at": "2015-10-06T02:59:53Z",
  "updated_at": "2015-10-06T02:59:53Z",
  "body": "@dglozic Not sure about how to catch the error. The simple thing here is to check the `path` for periods.\r\n\r\nI'm thinking of a piece of middleware that adds a new method to `res` that's a appropriate wrapper for `res.render()`."
}
]
