[
{
  "url": "https://api.github.com/repos/paypal/react-engine/issues/comments/124293768",
  "html_url": "https://github.com/paypal/react-engine/pull/63#issuecomment-124293768",
  "issue_url": "https://api.github.com/repos/paypal/react-engine/issues/63",
  "id": 124293768,
  "user": {
    "login": "samsel",
    "id": 760062,
    "avatar_url": "https://avatars.githubusercontent.com/u/760062?v=3",
    "gravatar_id": "",
    "url": "https://api.github.com/users/samsel",
    "html_url": "https://github.com/samsel",
    "followers_url": "https://api.github.com/users/samsel/followers",
    "following_url": "https://api.github.com/users/samsel/following{/other_user}",
    "gists_url": "https://api.github.com/users/samsel/gists{/gist_id}",
    "starred_url": "https://api.github.com/users/samsel/starred{/owner}{/repo}",
    "subscriptions_url": "https://api.github.com/users/samsel/subscriptions",
    "organizations_url": "https://api.github.com/users/samsel/orgs",
    "repos_url": "https://api.github.com/users/samsel/repos",
    "events_url": "https://api.github.com/users/samsel/events{/privacy}",
    "received_events_url": "https://api.github.com/users/samsel/received_events",
    "type": "User",
    "site_admin": false
  },
  "created_at": "2015-07-24T02:18:59Z",
  "updated_at": "2015-07-24T02:18:59Z",
  "body": "@asadm Why do we need the params and path from the `state` object to be injected as props? wont the same thing be available on the client side?"
}
, {
  "url": "https://api.github.com/repos/paypal/react-engine/issues/comments/145742443",
  "html_url": "https://github.com/paypal/react-engine/pull/63#issuecomment-145742443",
  "issue_url": "https://api.github.com/repos/paypal/react-engine/issues/63",
  "id": 145742443,
  "user": {
    "login": "samsel",
    "id": 760062,
    "avatar_url": "https://avatars.githubusercontent.com/u/760062?v=3",
    "gravatar_id": "",
    "url": "https://api.github.com/users/samsel",
    "html_url": "https://github.com/samsel",
    "followers_url": "https://api.github.com/users/samsel/followers",
    "following_url": "https://api.github.com/users/samsel/following{/other_user}",
    "gists_url": "https://api.github.com/users/samsel/gists{/gist_id}",
    "starred_url": "https://api.github.com/users/samsel/starred{/owner}{/repo}",
    "subscriptions_url": "https://api.github.com/users/samsel/subscriptions",
    "organizations_url": "https://api.github.com/users/samsel/orgs",
    "repos_url": "https://api.github.com/users/samsel/repos",
    "events_url": "https://api.github.com/users/samsel/events{/privacy}",
    "received_events_url": "https://api.github.com/users/samsel/received_events",
    "type": "User",
    "site_admin": false
  },
  "created_at": "2015-10-06T05:00:19Z",
  "updated_at": "2015-10-06T05:00:19Z",
  "body": "@asadm  closing this. please reopen if you still want to pursue this. thanks."
}
]
