[
{
  "url": "https://api.github.com/repos/google/fonts/issues/comments/120515805",
  "html_url": "https://github.com/google/fonts/issues/61#issuecomment-120515805",
  "issue_url": "https://api.github.com/repos/google/fonts/issues/61",
  "id": 120515805,
  "user": {
    "login": "adrientetar",
    "id": 1250894,
    "avatar_url": "https://avatars.githubusercontent.com/u/1250894?v=3",
    "gravatar_id": "",
    "url": "https://api.github.com/users/adrientetar",
    "html_url": "https://github.com/adrientetar",
    "followers_url": "https://api.github.com/users/adrientetar/followers",
    "following_url": "https://api.github.com/users/adrientetar/following{/other_user}",
    "gists_url": "https://api.github.com/users/adrientetar/gists{/gist_id}",
    "starred_url": "https://api.github.com/users/adrientetar/starred{/owner}{/repo}",
    "subscriptions_url": "https://api.github.com/users/adrientetar/subscriptions",
    "organizations_url": "https://api.github.com/users/adrientetar/orgs",
    "repos_url": "https://api.github.com/users/adrientetar/repos",
    "events_url": "https://api.github.com/users/adrientetar/events{/privacy}",
    "received_events_url": "https://api.github.com/users/adrientetar/received_events",
    "type": "User",
    "site_admin": false
  },
  "created_at": "2015-07-10T20:37:00Z",
  "updated_at": "2015-07-10T20:37:00Z",
  "body": "A link in the original issue was taken down by DMCA. What is the license for these fonts?"
}
, {
  "url": "https://api.github.com/repos/google/fonts/issues/comments/120555312",
  "html_url": "https://github.com/google/fonts/issues/61#issuecomment-120555312",
  "issue_url": "https://api.github.com/repos/google/fonts/issues/61",
  "id": 120555312,
  "user": {
    "login": "davelab6",
    "id": 261579,
    "avatar_url": "https://avatars.githubusercontent.com/u/261579?v=3",
    "gravatar_id": "",
    "url": "https://api.github.com/users/davelab6",
    "html_url": "https://github.com/davelab6",
    "followers_url": "https://api.github.com/users/davelab6/followers",
    "following_url": "https://api.github.com/users/davelab6/following{/other_user}",
    "gists_url": "https://api.github.com/users/davelab6/gists{/gist_id}",
    "starred_url": "https://api.github.com/users/davelab6/starred{/owner}{/repo}",
    "subscriptions_url": "https://api.github.com/users/davelab6/subscriptions",
    "organizations_url": "https://api.github.com/users/davelab6/orgs",
    "repos_url": "https://api.github.com/users/davelab6/repos",
    "events_url": "https://api.github.com/users/davelab6/events{/privacy}",
    "received_events_url": "https://api.github.com/users/davelab6/received_events",
    "type": "User",
    "site_admin": false
  },
  "created_at": "2015-07-11T00:21:49Z",
  "updated_at": "2015-07-11T00:21:49Z",
  "body": "Its proprietary freeware"
}
]
