[
{
  "url": "https://api.github.com/repos/Automattic/Edit-Flow/issues/comments/5581353",
  "html_url": "https://github.com/Automattic/Edit-Flow/pull/87#issuecomment-5581353",
  "issue_url": "https://api.github.com/repos/Automattic/Edit-Flow/issues/87",
  "id": 5581353,
  "user": {
    "login": "danielbachhuber",
    "id": 36432,
    "avatar_url": "https://avatars.githubusercontent.com/u/36432?v=3",
    "gravatar_id": "",
    "url": "https://api.github.com/users/danielbachhuber",
    "html_url": "https://github.com/danielbachhuber",
    "followers_url": "https://api.github.com/users/danielbachhuber/followers",
    "following_url": "https://api.github.com/users/danielbachhuber/following{/other_user}",
    "gists_url": "https://api.github.com/users/danielbachhuber/gists{/gist_id}",
    "starred_url": "https://api.github.com/users/danielbachhuber/starred{/owner}{/repo}",
    "subscriptions_url": "https://api.github.com/users/danielbachhuber/subscriptions",
    "organizations_url": "https://api.github.com/users/danielbachhuber/orgs",
    "repos_url": "https://api.github.com/users/danielbachhuber/repos",
    "events_url": "https://api.github.com/users/danielbachhuber/events{/privacy}",
    "received_events_url": "https://api.github.com/users/danielbachhuber/received_events",
    "type": "User",
    "site_admin": false
  },
  "created_at": "2012-05-08T17:46:18Z",
  "updated_at": "2012-05-08T17:46:18Z",
  "body": "Perfect! Thanks for the contribution — it will be out in v0.7.2.\r\n\r\nIf you'd like, feel free to follow our development blog: http://dev.editflow.org/ We'll be starting work on v0.8 soon..."
}
]
