[
{
  "url": "https://api.github.com/repos/adafruit/Adafruit_Python_DHT/issues/comments/135301962",
  "html_url": "https://github.com/adafruit/Adafruit_Python_DHT/pull/29#issuecomment-135301962",
  "issue_url": "https://api.github.com/repos/adafruit/Adafruit_Python_DHT/issues/29",
  "id": 135301962,
  "user": {
    "login": "tdicola",
    "id": 1332183,
    "avatar_url": "https://avatars.githubusercontent.com/u/1332183?v=3",
    "gravatar_id": "",
    "url": "https://api.github.com/users/tdicola",
    "html_url": "https://github.com/tdicola",
    "followers_url": "https://api.github.com/users/tdicola/followers",
    "following_url": "https://api.github.com/users/tdicola/following{/other_user}",
    "gists_url": "https://api.github.com/users/tdicola/gists{/gist_id}",
    "starred_url": "https://api.github.com/users/tdicola/starred{/owner}{/repo}",
    "subscriptions_url": "https://api.github.com/users/tdicola/subscriptions",
    "organizations_url": "https://api.github.com/users/tdicola/orgs",
    "repos_url": "https://api.github.com/users/tdicola/repos",
    "events_url": "https://api.github.com/users/tdicola/events{/privacy}",
    "received_events_url": "https://api.github.com/users/tdicola/received_events",
    "type": "User",
    "site_admin": false
  },
  "created_at": "2015-08-27T05:49:23Z",
  "updated_at": "2015-08-27T05:49:23Z",
  "body": "Oh nice thanks for contributing, that's a handy conversion that should be useful to more people.  Will merge it in now, thanks!"
}
]
