[
{
  "url": "https://api.github.com/repos/Azure/azure-storage-net/issues/comments/143570848",
  "html_url": "https://github.com/Azure/azure-storage-net/issues/180#issuecomment-143570848",
  "issue_url": "https://api.github.com/repos/Azure/azure-storage-net/issues/180",
  "id": 143570848,
  "user": {
    "login": "Cheesebaron",
    "id": 249719,
    "avatar_url": "https://avatars.githubusercontent.com/u/249719?v=3",
    "gravatar_id": "",
    "url": "https://api.github.com/users/Cheesebaron",
    "html_url": "https://github.com/Cheesebaron",
    "followers_url": "https://api.github.com/users/Cheesebaron/followers",
    "following_url": "https://api.github.com/users/Cheesebaron/following{/other_user}",
    "gists_url": "https://api.github.com/users/Cheesebaron/gists{/gist_id}",
    "starred_url": "https://api.github.com/users/Cheesebaron/starred{/owner}{/repo}",
    "subscriptions_url": "https://api.github.com/users/Cheesebaron/subscriptions",
    "organizations_url": "https://api.github.com/users/Cheesebaron/orgs",
    "repos_url": "https://api.github.com/users/Cheesebaron/repos",
    "events_url": "https://api.github.com/users/Cheesebaron/events{/privacy}",
    "received_events_url": "https://api.github.com/users/Cheesebaron/received_events",
    "type": "User",
    "site_admin": false
  },
  "created_at": "2015-09-27T15:54:14Z",
  "updated_at": "2015-09-27T15:54:14Z",
  "body": "Copy it and remove the old file?"
}
, {
  "url": "https://api.github.com/repos/Azure/azure-storage-net/issues/comments/143615382",
  "html_url": "https://github.com/Azure/azure-storage-net/issues/180#issuecomment-143615382",
  "issue_url": "https://api.github.com/repos/Azure/azure-storage-net/issues/180",
  "id": 143615382,
  "user": {
    "login": "flipchart",
    "id": 1951912,
    "avatar_url": "https://avatars.githubusercontent.com/u/1951912?v=3",
    "gravatar_id": "",
    "url": "https://api.github.com/users/flipchart",
    "html_url": "https://github.com/flipchart",
    "followers_url": "https://api.github.com/users/flipchart/followers",
    "following_url": "https://api.github.com/users/flipchart/following{/other_user}",
    "gists_url": "https://api.github.com/users/flipchart/gists{/gist_id}",
    "starred_url": "https://api.github.com/users/flipchart/starred{/owner}{/repo}",
    "subscriptions_url": "https://api.github.com/users/flipchart/subscriptions",
    "organizations_url": "https://api.github.com/users/flipchart/orgs",
    "repos_url": "https://api.github.com/users/flipchart/repos",
    "events_url": "https://api.github.com/users/flipchart/events{/privacy}",
    "received_events_url": "https://api.github.com/users/flipchart/received_events",
    "type": "User",
    "site_admin": false
  },
  "created_at": "2015-09-28T01:39:24Z",
  "updated_at": "2015-09-28T01:39:24Z",
  "body": "@Cheesebaron That was my first thought, but you have to suffer the time to copy (for larger files) and you lose the atomicity that a move operation gives you."
}
, {
  "url": "https://api.github.com/repos/Azure/azure-storage-net/issues/comments/144147123",
  "html_url": "https://github.com/Azure/azure-storage-net/issues/180#issuecomment-144147123",
  "issue_url": "https://api.github.com/repos/Azure/azure-storage-net/issues/180",
  "id": 144147123,
  "user": {
    "login": "pemari-msft",
    "id": 6854498,
    "avatar_url": "https://avatars.githubusercontent.com/u/6854498?v=3",
    "gravatar_id": "",
    "url": "https://api.github.com/users/pemari-msft",
    "html_url": "https://github.com/pemari-msft",
    "followers_url": "https://api.github.com/users/pemari-msft/followers",
    "following_url": "https://api.github.com/users/pemari-msft/following{/other_user}",
    "gists_url": "https://api.github.com/users/pemari-msft/gists{/gist_id}",
    "starred_url": "https://api.github.com/users/pemari-msft/starred{/owner}{/repo}",
    "subscriptions_url": "https://api.github.com/users/pemari-msft/subscriptions",
    "organizations_url": "https://api.github.com/users/pemari-msft/orgs",
    "repos_url": "https://api.github.com/users/pemari-msft/repos",
    "events_url": "https://api.github.com/users/pemari-msft/events{/privacy}",
    "received_events_url": "https://api.github.com/users/pemari-msft/received_events",
    "type": "User",
    "site_admin": false
  },
  "created_at": "2015-09-29T18:27:47Z",
  "updated_at": "2015-09-29T18:27:47Z",
  "body": "Yes, as you mentioned, unfortunately this is not yet supported by the service. I will forward your request to the relevant team and add it to our feature request list. Thanks!"
}
, {
  "url": "https://api.github.com/repos/Azure/azure-storage-net/issues/comments/144231151",
  "html_url": "https://github.com/Azure/azure-storage-net/issues/180#issuecomment-144231151",
  "issue_url": "https://api.github.com/repos/Azure/azure-storage-net/issues/180",
  "id": 144231151,
  "user": {
    "login": "pemari-msft",
    "id": 6854498,
    "avatar_url": "https://avatars.githubusercontent.com/u/6854498?v=3",
    "gravatar_id": "",
    "url": "https://api.github.com/users/pemari-msft",
    "html_url": "https://github.com/pemari-msft",
    "followers_url": "https://api.github.com/users/pemari-msft/followers",
    "following_url": "https://api.github.com/users/pemari-msft/following{/other_user}",
    "gists_url": "https://api.github.com/users/pemari-msft/gists{/gist_id}",
    "starred_url": "https://api.github.com/users/pemari-msft/starred{/owner}{/repo}",
    "subscriptions_url": "https://api.github.com/users/pemari-msft/subscriptions",
    "organizations_url": "https://api.github.com/users/pemari-msft/orgs",
    "repos_url": "https://api.github.com/users/pemari-msft/repos",
    "events_url": "https://api.github.com/users/pemari-msft/events{/privacy}",
    "received_events_url": "https://api.github.com/users/pemari-msft/received_events",
    "type": "User",
    "site_admin": false
  },
  "created_at": "2015-09-30T00:56:06Z",
  "updated_at": "2015-09-30T00:56:06Z",
  "body": "For now, the copy and remove method is the best bet. I'm going to close this issue for now as it's been added to the relevant backlog. Thanks!"
}
]
