[
{
  "url": "https://api.github.com/repos/linkedin/hopscotch/issues/comments/152339848",
  "html_url": "https://github.com/linkedin/hopscotch/issues/222#issuecomment-152339848",
  "issue_url": "https://api.github.com/repos/linkedin/hopscotch/issues/222",
  "id": 152339848,
  "user": {
    "login": "kate2753",
    "id": 3639923,
    "avatar_url": "https://avatars.githubusercontent.com/u/3639923?v=3",
    "gravatar_id": "",
    "url": "https://api.github.com/users/kate2753",
    "html_url": "https://github.com/kate2753",
    "followers_url": "https://api.github.com/users/kate2753/followers",
    "following_url": "https://api.github.com/users/kate2753/following{/other_user}",
    "gists_url": "https://api.github.com/users/kate2753/gists{/gist_id}",
    "starred_url": "https://api.github.com/users/kate2753/starred{/owner}{/repo}",
    "subscriptions_url": "https://api.github.com/users/kate2753/subscriptions",
    "organizations_url": "https://api.github.com/users/kate2753/orgs",
    "repos_url": "https://api.github.com/users/kate2753/repos",
    "events_url": "https://api.github.com/users/kate2753/events{/privacy}",
    "received_events_url": "https://api.github.com/users/kate2753/received_events",
    "type": "User",
    "site_admin": false
  },
  "created_at": "2015-10-29T21:57:25Z",
  "updated_at": "2015-10-29T21:57:25Z",
  "body": "Resolved via #240 "
}
]
