[
{
  "url": "https://api.github.com/repos/linkedin/hopscotch/issues/comments/42140836",
  "html_url": "https://github.com/linkedin/hopscotch/issues/88#issuecomment-42140836",
  "issue_url": "https://api.github.com/repos/linkedin/hopscotch/issues/88",
  "id": 42140836,
  "user": {
    "login": "k10world",
    "id": 3020172,
    "avatar_url": "https://avatars.githubusercontent.com/u/3020172?v=3",
    "gravatar_id": "",
    "url": "https://api.github.com/users/k10world",
    "html_url": "https://github.com/k10world",
    "followers_url": "https://api.github.com/users/k10world/followers",
    "following_url": "https://api.github.com/users/k10world/following{/other_user}",
    "gists_url": "https://api.github.com/users/k10world/gists{/gist_id}",
    "starred_url": "https://api.github.com/users/k10world/starred{/owner}{/repo}",
    "subscriptions_url": "https://api.github.com/users/k10world/subscriptions",
    "organizations_url": "https://api.github.com/users/k10world/orgs",
    "repos_url": "https://api.github.com/users/k10world/repos",
    "events_url": "https://api.github.com/users/k10world/events{/privacy}",
    "received_events_url": "https://api.github.com/users/k10world/received_events",
    "type": "User",
    "site_admin": false
  },
  "created_at": "2014-05-04T18:41:52Z",
  "updated_at": "2014-05-04T18:41:52Z",
  "body": "Create the tour json object and keep it ready on page load.\r\nCheck the flag from the database if the user has logged in for the first time. If it is first time, only then do hopscotch.startTour('tourId') thats the trigger. Otherwise dont."
}
, {
  "url": "https://api.github.com/repos/linkedin/hopscotch/issues/comments/42161561",
  "html_url": "https://github.com/linkedin/hopscotch/issues/88#issuecomment-42161561",
  "issue_url": "https://api.github.com/repos/linkedin/hopscotch/issues/88",
  "id": 42161561,
  "user": {
    "login": "anupamapanchal",
    "id": 1618152,
    "avatar_url": "https://avatars.githubusercontent.com/u/1618152?v=3",
    "gravatar_id": "",
    "url": "https://api.github.com/users/anupamapanchal",
    "html_url": "https://github.com/anupamapanchal",
    "followers_url": "https://api.github.com/users/anupamapanchal/followers",
    "following_url": "https://api.github.com/users/anupamapanchal/following{/other_user}",
    "gists_url": "https://api.github.com/users/anupamapanchal/gists{/gist_id}",
    "starred_url": "https://api.github.com/users/anupamapanchal/starred{/owner}{/repo}",
    "subscriptions_url": "https://api.github.com/users/anupamapanchal/subscriptions",
    "organizations_url": "https://api.github.com/users/anupamapanchal/orgs",
    "repos_url": "https://api.github.com/users/anupamapanchal/repos",
    "events_url": "https://api.github.com/users/anupamapanchal/events{/privacy}",
    "received_events_url": "https://api.github.com/users/anupamapanchal/received_events",
    "type": "User",
    "site_admin": false
  },
  "created_at": "2014-05-05T06:16:46Z",
  "updated_at": "2014-05-05T06:16:46Z",
  "body": "@k10world : Thanks ketan. One more question, is there any other way possible to do the same without involving database in scene ? I don't find it comfortable to add a column in the database table which is going to be used only once and then dead."
}
, {
  "url": "https://api.github.com/repos/linkedin/hopscotch/issues/comments/42161978",
  "html_url": "https://github.com/linkedin/hopscotch/issues/88#issuecomment-42161978",
  "issue_url": "https://api.github.com/repos/linkedin/hopscotch/issues/88",
  "id": 42161978,
  "user": {
    "login": "k10world",
    "id": 3020172,
    "avatar_url": "https://avatars.githubusercontent.com/u/3020172?v=3",
    "gravatar_id": "",
    "url": "https://api.github.com/users/k10world",
    "html_url": "https://github.com/k10world",
    "followers_url": "https://api.github.com/users/k10world/followers",
    "following_url": "https://api.github.com/users/k10world/following{/other_user}",
    "gists_url": "https://api.github.com/users/k10world/gists{/gist_id}",
    "starred_url": "https://api.github.com/users/k10world/starred{/owner}{/repo}",
    "subscriptions_url": "https://api.github.com/users/k10world/subscriptions",
    "organizations_url": "https://api.github.com/users/k10world/orgs",
    "repos_url": "https://api.github.com/users/k10world/repos",
    "events_url": "https://api.github.com/users/k10world/events{/privacy}",
    "received_events_url": "https://api.github.com/users/k10world/received_events",
    "type": "User",
    "site_admin": false
  },
  "created_at": "2014-05-05T06:28:50Z",
  "updated_at": "2014-05-05T06:28:50Z",
  "body": "Any non-trivial application will store it in UserPreference store table, because you cannot store it on server. If you do, it needs to be in a file and on a shared file server, across different web front ends. Assuming your website will be scaled across multiple servers.\r\n\r\nAnother option is to store it in cookie (or HTML5 local/sessionStorage), but if the user uses a different browser or clears cookies, they'll see it again. And cookie is not a cross device solution.\r\n\r\nEvery solution comes with a pain point. :-)"
}
, {
  "url": "https://api.github.com/repos/linkedin/hopscotch/issues/comments/42171005",
  "html_url": "https://github.com/linkedin/hopscotch/issues/88#issuecomment-42171005",
  "issue_url": "https://api.github.com/repos/linkedin/hopscotch/issues/88",
  "id": 42171005,
  "user": {
    "login": "anupamapanchal",
    "id": 1618152,
    "avatar_url": "https://avatars.githubusercontent.com/u/1618152?v=3",
    "gravatar_id": "",
    "url": "https://api.github.com/users/anupamapanchal",
    "html_url": "https://github.com/anupamapanchal",
    "followers_url": "https://api.github.com/users/anupamapanchal/followers",
    "following_url": "https://api.github.com/users/anupamapanchal/following{/other_user}",
    "gists_url": "https://api.github.com/users/anupamapanchal/gists{/gist_id}",
    "starred_url": "https://api.github.com/users/anupamapanchal/starred{/owner}{/repo}",
    "subscriptions_url": "https://api.github.com/users/anupamapanchal/subscriptions",
    "organizations_url": "https://api.github.com/users/anupamapanchal/orgs",
    "repos_url": "https://api.github.com/users/anupamapanchal/repos",
    "events_url": "https://api.github.com/users/anupamapanchal/events{/privacy}",
    "received_events_url": "https://api.github.com/users/anupamapanchal/received_events",
    "type": "User",
    "site_admin": false
  },
  "created_at": "2014-05-05T09:17:25Z",
  "updated_at": "2014-05-05T09:17:25Z",
  "body": "@k10world : Thanks Ketan agian. I got the answer, database is the solution for us. :)"
}
, {
  "url": "https://api.github.com/repos/linkedin/hopscotch/issues/comments/42260027",
  "html_url": "https://github.com/linkedin/hopscotch/issues/88#issuecomment-42260027",
  "issue_url": "https://api.github.com/repos/linkedin/hopscotch/issues/88",
  "id": 42260027,
  "user": {
    "login": "zimmi88",
    "id": 3336359,
    "avatar_url": "https://avatars.githubusercontent.com/u/3336359?v=3",
    "gravatar_id": "",
    "url": "https://api.github.com/users/zimmi88",
    "html_url": "https://github.com/zimmi88",
    "followers_url": "https://api.github.com/users/zimmi88/followers",
    "following_url": "https://api.github.com/users/zimmi88/following{/other_user}",
    "gists_url": "https://api.github.com/users/zimmi88/gists{/gist_id}",
    "starred_url": "https://api.github.com/users/zimmi88/starred{/owner}{/repo}",
    "subscriptions_url": "https://api.github.com/users/zimmi88/subscriptions",
    "organizations_url": "https://api.github.com/users/zimmi88/orgs",
    "repos_url": "https://api.github.com/users/zimmi88/repos",
    "events_url": "https://api.github.com/users/zimmi88/events{/privacy}",
    "received_events_url": "https://api.github.com/users/zimmi88/received_events",
    "type": "User",
    "site_admin": false
  },
  "created_at": "2014-05-06T01:44:22Z",
  "updated_at": "2014-05-06T01:44:22Z",
  "body": "+1 to @k10world's comment above. In general, Hopscotch will handle running tours for you, but as for actually determining whether to run a tour or not, your application will need to make that call and eventually call `hopscotch.startTour()` to tell Hopscotch to kick things off.\r\n\r\nSounds like everything's resolved here, so I'm going to go ahead and close this thread. Thanks!"
}
]
