[
{
  "url": "https://api.github.com/repos/google/flatbuffers/issues/comments/96836379",
  "html_url": "https://github.com/google/flatbuffers/issues/177#issuecomment-96836379",
  "issue_url": "https://api.github.com/repos/google/flatbuffers/issues/177",
  "id": 96836379,
  "user": {
    "login": "gwvo",
    "id": 6145400,
    "avatar_url": "https://avatars.githubusercontent.com/u/6145400?v=3",
    "gravatar_id": "",
    "url": "https://api.github.com/users/gwvo",
    "html_url": "https://github.com/gwvo",
    "followers_url": "https://api.github.com/users/gwvo/followers",
    "following_url": "https://api.github.com/users/gwvo/following{/other_user}",
    "gists_url": "https://api.github.com/users/gwvo/gists{/gist_id}",
    "starred_url": "https://api.github.com/users/gwvo/starred{/owner}{/repo}",
    "subscriptions_url": "https://api.github.com/users/gwvo/subscriptions",
    "organizations_url": "https://api.github.com/users/gwvo/orgs",
    "repos_url": "https://api.github.com/users/gwvo/repos",
    "events_url": "https://api.github.com/users/gwvo/events{/privacy}",
    "received_events_url": "https://api.github.com/users/gwvo/received_events",
    "type": "User",
    "site_admin": false
  },
  "created_at": "2015-04-27T22:11:56Z",
  "updated_at": "2015-04-27T22:11:56Z",
  "body": "The `1` is because Go doesn't have enums, though I agree we should look into some workaround."
}
, {
  "url": "https://api.github.com/repos/google/flatbuffers/issues/comments/96837445",
  "html_url": "https://github.com/google/flatbuffers/issues/177#issuecomment-96837445",
  "issue_url": "https://api.github.com/repos/google/flatbuffers/issues/177",
  "id": 96837445,
  "user": {
    "login": "rw",
    "id": 21367,
    "avatar_url": "https://avatars.githubusercontent.com/u/21367?v=3",
    "gravatar_id": "",
    "url": "https://api.github.com/users/rw",
    "html_url": "https://github.com/rw",
    "followers_url": "https://api.github.com/users/rw/followers",
    "following_url": "https://api.github.com/users/rw/following{/other_user}",
    "gists_url": "https://api.github.com/users/rw/gists{/gist_id}",
    "starred_url": "https://api.github.com/users/rw/starred{/owner}{/repo}",
    "subscriptions_url": "https://api.github.com/users/rw/subscriptions",
    "organizations_url": "https://api.github.com/users/rw/orgs",
    "repos_url": "https://api.github.com/users/rw/repos",
    "events_url": "https://api.github.com/users/rw/events{/privacy}",
    "received_events_url": "https://api.github.com/users/rw/received_events",
    "type": "User",
    "site_admin": false
  },
  "created_at": "2015-04-27T22:19:24Z",
  "updated_at": "2015-04-27T22:19:24Z",
  "body": "We should change the code generator to make a new type for the enum, and declare const values for it. For example:\r\n\r\n``` go\r\ntype TestType byte\r\n\r\nconst (\r\n    Red TestType = 0\r\n    Green TestType = 1\r\n    Blue TestType = 2\r\n)\r\n```"
}
, {
  "url": "https://api.github.com/repos/google/flatbuffers/issues/comments/96837599",
  "html_url": "https://github.com/google/flatbuffers/issues/177#issuecomment-96837599",
  "issue_url": "https://api.github.com/repos/google/flatbuffers/issues/177",
  "id": 96837599,
  "user": {
    "login": "gwvo",
    "id": 6145400,
    "avatar_url": "https://avatars.githubusercontent.com/u/6145400?v=3",
    "gravatar_id": "",
    "url": "https://api.github.com/users/gwvo",
    "html_url": "https://github.com/gwvo",
    "followers_url": "https://api.github.com/users/gwvo/followers",
    "following_url": "https://api.github.com/users/gwvo/following{/other_user}",
    "gists_url": "https://api.github.com/users/gwvo/gists{/gist_id}",
    "starred_url": "https://api.github.com/users/gwvo/starred{/owner}{/repo}",
    "subscriptions_url": "https://api.github.com/users/gwvo/subscriptions",
    "organizations_url": "https://api.github.com/users/gwvo/orgs",
    "repos_url": "https://api.github.com/users/gwvo/repos",
    "events_url": "https://api.github.com/users/gwvo/events{/privacy}",
    "received_events_url": "https://api.github.com/users/gwvo/received_events",
    "type": "User",
    "site_admin": false
  },
  "created_at": "2015-04-27T22:20:30Z",
  "updated_at": "2015-04-27T22:20:30Z",
  "body": "That sounds good!"
}
, {
  "url": "https://api.github.com/repos/google/flatbuffers/issues/comments/96967250",
  "html_url": "https://github.com/google/flatbuffers/issues/177#issuecomment-96967250",
  "issue_url": "https://api.github.com/repos/google/flatbuffers/issues/177",
  "id": 96967250,
  "user": {
    "login": "eproxus",
    "id": 112878,
    "avatar_url": "https://avatars.githubusercontent.com/u/112878?v=3",
    "gravatar_id": "",
    "url": "https://api.github.com/users/eproxus",
    "html_url": "https://github.com/eproxus",
    "followers_url": "https://api.github.com/users/eproxus/followers",
    "following_url": "https://api.github.com/users/eproxus/following{/other_user}",
    "gists_url": "https://api.github.com/users/eproxus/gists{/gist_id}",
    "starred_url": "https://api.github.com/users/eproxus/starred{/owner}{/repo}",
    "subscriptions_url": "https://api.github.com/users/eproxus/subscriptions",
    "organizations_url": "https://api.github.com/users/eproxus/orgs",
    "repos_url": "https://api.github.com/users/eproxus/repos",
    "events_url": "https://api.github.com/users/eproxus/events{/privacy}",
    "received_events_url": "https://api.github.com/users/eproxus/received_events",
    "type": "User",
    "site_admin": false
  },
  "created_at": "2015-04-28T08:03:18Z",
  "updated_at": "2015-04-28T08:03:18Z",
  "body": "That would change the code to `example.MonsterAddTestType(builder, TestType.Red)`, right?"
}
, {
  "url": "https://api.github.com/repos/google/flatbuffers/issues/comments/96972168",
  "html_url": "https://github.com/google/flatbuffers/issues/177#issuecomment-96972168",
  "issue_url": "https://api.github.com/repos/google/flatbuffers/issues/177",
  "id": 96972168,
  "user": {
    "login": "rw",
    "id": 21367,
    "avatar_url": "https://avatars.githubusercontent.com/u/21367?v=3",
    "gravatar_id": "",
    "url": "https://api.github.com/users/rw",
    "html_url": "https://github.com/rw",
    "followers_url": "https://api.github.com/users/rw/followers",
    "following_url": "https://api.github.com/users/rw/following{/other_user}",
    "gists_url": "https://api.github.com/users/rw/gists{/gist_id}",
    "starred_url": "https://api.github.com/users/rw/starred{/owner}{/repo}",
    "subscriptions_url": "https://api.github.com/users/rw/subscriptions",
    "organizations_url": "https://api.github.com/users/rw/orgs",
    "repos_url": "https://api.github.com/users/rw/repos",
    "events_url": "https://api.github.com/users/rw/events{/privacy}",
    "received_events_url": "https://api.github.com/users/rw/received_events",
    "type": "User",
    "site_admin": false
  },
  "created_at": "2015-04-28T08:28:24Z",
  "updated_at": "2015-04-28T08:28:24Z",
  "body": "I suppose it would be `TestTypeRed`, actually."
}
, {
  "url": "https://api.github.com/repos/google/flatbuffers/issues/comments/141169691",
  "html_url": "https://github.com/google/flatbuffers/issues/177#issuecomment-141169691",
  "issue_url": "https://api.github.com/repos/google/flatbuffers/issues/177",
  "id": 141169691,
  "user": {
    "login": "rw",
    "id": 21367,
    "avatar_url": "https://avatars.githubusercontent.com/u/21367?v=3",
    "gravatar_id": "",
    "url": "https://api.github.com/users/rw",
    "html_url": "https://github.com/rw",
    "followers_url": "https://api.github.com/users/rw/followers",
    "following_url": "https://api.github.com/users/rw/following{/other_user}",
    "gists_url": "https://api.github.com/users/rw/gists{/gist_id}",
    "starred_url": "https://api.github.com/users/rw/starred{/owner}{/repo}",
    "subscriptions_url": "https://api.github.com/users/rw/subscriptions",
    "organizations_url": "https://api.github.com/users/rw/orgs",
    "repos_url": "https://api.github.com/users/rw/repos",
    "events_url": "https://api.github.com/users/rw/events{/privacy}",
    "received_events_url": "https://api.github.com/users/rw/received_events",
    "type": "User",
    "site_admin": false
  },
  "created_at": "2015-09-17T18:09:15Z",
  "updated_at": "2015-09-17T18:09:15Z",
  "body": "See #197 "
}
]
