[
{
  "url": "https://api.github.com/repos/elastic/logstash/issues/comments/117355440",
  "html_url": "https://github.com/elastic/logstash/pull/3539#issuecomment-117355440",
  "issue_url": "https://api.github.com/repos/elastic/logstash/issues/3539",
  "id": 117355440,
  "user": {
    "login": "talevy",
    "id": 388837,
    "avatar_url": "https://avatars.githubusercontent.com/u/388837?v=3",
    "gravatar_id": "",
    "url": "https://api.github.com/users/talevy",
    "html_url": "https://github.com/talevy",
    "followers_url": "https://api.github.com/users/talevy/followers",
    "following_url": "https://api.github.com/users/talevy/following{/other_user}",
    "gists_url": "https://api.github.com/users/talevy/gists{/gist_id}",
    "starred_url": "https://api.github.com/users/talevy/starred{/owner}{/repo}",
    "subscriptions_url": "https://api.github.com/users/talevy/subscriptions",
    "organizations_url": "https://api.github.com/users/talevy/orgs",
    "repos_url": "https://api.github.com/users/talevy/repos",
    "events_url": "https://api.github.com/users/talevy/events{/privacy}",
    "received_events_url": "https://api.github.com/users/talevy/received_events",
    "type": "User",
    "site_admin": false
  },
  "created_at": "2015-06-30T21:52:51Z",
  "updated_at": "2015-06-30T21:52:51Z",
  "body": "LGTM"
}
, {
  "url": "https://api.github.com/repos/elastic/logstash/issues/comments/117355460",
  "html_url": "https://github.com/elastic/logstash/pull/3539#issuecomment-117355460",
  "issue_url": "https://api.github.com/repos/elastic/logstash/issues/3539",
  "id": 117355460,
  "user": {
    "login": "talevy",
    "id": 388837,
    "avatar_url": "https://avatars.githubusercontent.com/u/388837?v=3",
    "gravatar_id": "",
    "url": "https://api.github.com/users/talevy",
    "html_url": "https://github.com/talevy",
    "followers_url": "https://api.github.com/users/talevy/followers",
    "following_url": "https://api.github.com/users/talevy/following{/other_user}",
    "gists_url": "https://api.github.com/users/talevy/gists{/gist_id}",
    "starred_url": "https://api.github.com/users/talevy/starred{/owner}{/repo}",
    "subscriptions_url": "https://api.github.com/users/talevy/subscriptions",
    "organizations_url": "https://api.github.com/users/talevy/orgs",
    "repos_url": "https://api.github.com/users/talevy/repos",
    "events_url": "https://api.github.com/users/talevy/events{/privacy}",
    "received_events_url": "https://api.github.com/users/talevy/received_events",
    "type": "User",
    "site_admin": false
  },
  "created_at": "2015-06-30T21:52:55Z",
  "updated_at": "2015-06-30T21:52:55Z",
  "body": ":)"
}
, {
  "url": "https://api.github.com/repos/elastic/logstash/issues/comments/117355659",
  "html_url": "https://github.com/elastic/logstash/pull/3539#issuecomment-117355659",
  "issue_url": "https://api.github.com/repos/elastic/logstash/issues/3539",
  "id": 117355659,
  "user": {
    "login": "elasticsearch-bot",
    "id": 9386276,
    "avatar_url": "https://avatars.githubusercontent.com/u/9386276?v=3",
    "gravatar_id": "",
    "url": "https://api.github.com/users/elasticsearch-bot",
    "html_url": "https://github.com/elasticsearch-bot",
    "followers_url": "https://api.github.com/users/elasticsearch-bot/followers",
    "following_url": "https://api.github.com/users/elasticsearch-bot/following{/other_user}",
    "gists_url": "https://api.github.com/users/elasticsearch-bot/gists{/gist_id}",
    "starred_url": "https://api.github.com/users/elasticsearch-bot/starred{/owner}{/repo}",
    "subscriptions_url": "https://api.github.com/users/elasticsearch-bot/subscriptions",
    "organizations_url": "https://api.github.com/users/elasticsearch-bot/orgs",
    "repos_url": "https://api.github.com/users/elasticsearch-bot/repos",
    "events_url": "https://api.github.com/users/elasticsearch-bot/events{/privacy}",
    "received_events_url": "https://api.github.com/users/elasticsearch-bot/received_events",
    "type": "User",
    "site_admin": false
  },
  "created_at": "2015-06-30T21:53:59Z",
  "updated_at": "2015-06-30T21:53:59Z",
  "body": "Merged sucessfully into 1.5!"
}
]
