[
{
  "url": "https://api.github.com/repos/elastic/logstash/issues/comments/107403579",
  "html_url": "https://github.com/elastic/logstash/issues/3354#issuecomment-107403579",
  "issue_url": "https://api.github.com/repos/elastic/logstash/issues/3354",
  "id": 107403579,
  "user": {
    "login": "purbon",
    "id": 68540,
    "avatar_url": "https://avatars.githubusercontent.com/u/68540?v=3",
    "gravatar_id": "",
    "url": "https://api.github.com/users/purbon",
    "html_url": "https://github.com/purbon",
    "followers_url": "https://api.github.com/users/purbon/followers",
    "following_url": "https://api.github.com/users/purbon/following{/other_user}",
    "gists_url": "https://api.github.com/users/purbon/gists{/gist_id}",
    "starred_url": "https://api.github.com/users/purbon/starred{/owner}{/repo}",
    "subscriptions_url": "https://api.github.com/users/purbon/subscriptions",
    "organizations_url": "https://api.github.com/users/purbon/orgs",
    "repos_url": "https://api.github.com/users/purbon/repos",
    "events_url": "https://api.github.com/users/purbon/events{/privacy}",
    "received_events_url": "https://api.github.com/users/purbon/received_events",
    "type": "User",
    "site_admin": false
  },
  "created_at": "2015-06-01T11:17:08Z",
  "updated_at": "2015-06-01T11:17:08Z",
  "body": "Reported by @johntdyer:\r\n\r\non a whim I just tried JDK 1.8 and it seems to not be an issue there.  I have no idea why this became an issue all of a sudden for JDK 1.7\r\n\r\n```\r\n[root@ls-auto-index ~]# DEBUG=1 /opt/logstash/bin/plugin install logstash-input-stomp\r\nDEBUG: exec /opt/logstash/vendor/jruby/bin/jruby --1.9 -J-XX:+UseParNewGC -J-XX:+UseConcMarkSweepGC -J-Djava.awt.headless=true -J-XX:CMSInitiatingOccupancyFraction=75 -J-XX:+UseCMSInitiatingOccupancyOnly -J-Xmx500m /opt/logstash/lib/pluginmanager/main.rb install logstash-input-stomp\r\nValidating logstash-input-stomp\r\nInstalling logstash-input-stomp\r\nInstallation successful\r\nBundler output\r\nDon't run Bundler as root. Bundler can ask for sudo if it is needed, and\r\ninstalling your bundle as root will break this application for all non-root\r\nusers on this machine.\r\nUsing addressable 2.3.8\r\n0:  addressable (2.3.8) from /opt/logstash/vendor/bundle/jruby/1.9/specifications/addressable-2.3.8.gemspec\r\nUsing cabin 0.7.1\r\n0:  cabin (0.7.1) from /opt/logstash/vendor/bundle/jruby/1.9/specifications/cabin-0.7.1.gemspec\r\nUsing arr-pm 0.0.10\r\n0:  arr-pm (0.0.10) from /opt/logstash/vendor/bundle/jruby/1.9/specifications/arr-pm-0.0.10.gemspec\r\nUsing atomic 1.1.99\r\n0:  atomic (1.1.99) from /opt/logstash/vendor/bundle/jruby/1.9/specifications/atomic-1.1.99-java.gemspec\r\nUsing avl_tree 1.2.1\r\n0:  avl_tree (1.2.1) from /opt/logstash/vendor/bundle/jruby/1.9/specifications/avl_tree-1.2.1.gemspec\r\nUsing awesome_print 1.6.1\r\n0:  awesome_print (1.6.1) from /opt/logstash/vendor/bundle/jruby/1.9/specifications/awesome_print-1.6.1.gemspec\r\nUsing json 1.8.2\r\n0:  json (1.8.2) from /opt/logstash/vendor/bundle/jruby/1.9/specifications/json-1.8.2-java.gemspec\r\nUsing nokogiri 1.6.6.2\r\n0:  nokogiri (1.6.6.2) from /opt/logstash/vendor/bundle/jruby/1.9/specifications/nokogiri-1.6.6.2-java.gemspec\r\nUsing aws-sdk-v1 1.61.0\r\n0:  aws-sdk-v1 (1.61.0) from /opt/logstash/vendor/bundle/jruby/1.9/specifications/aws-sdk-v1-1.61.0.gemspec\r\nUsing aws-sdk 1.61.0\r\n0:  aws-sdk (1.61.0) from /opt/logstash/vendor/bundle/jruby/1.9/specifications/aws-sdk-1.61.0.gemspec\r\nUsing thread_safe 0.3.5\r\n0:  thread_safe (0.3.5) from /opt/logstash/vendor/bundle/jruby/1.9/specifications/thread_safe-0.3.5-java.gemspec\r\nUsing descendants_tracker 0.0.4\r\n0:  descendants_tracker (0.0.4) from /opt/logstash/vendor/bundle/jruby/1.9/specifications/descendants_tracker-0.0.4.gemspec\r\nUsing ice_nine 0.11.1\r\n0:  ice_nine (0.11.1) from /opt/logstash/vendor/bundle/jruby/1.9/specifications/ice_nine-0.11.1.gemspec\r\nUsing axiom-types 0.1.1\r\n0:  axiom-types (0.1.1) from /opt/logstash/vendor/bundle/jruby/1.9/specifications/axiom-types-0.1.1.gemspec\r\nUsing backports 3.6.4\r\n0:  backports (3.6.4) from /opt/logstash/vendor/bundle/jruby/1.9/specifications/backports-3.6.4.gemspec\r\nUsing bindata 2.1.0\r\n0:  bindata (2.1.0) from /opt/logstash/vendor/bundle/jruby/1.9/specifications/bindata-2.1.0.gemspec\r\nUsing buftok 0.2.0\r\n0:  buftok (0.2.0) from /opt/logstash/vendor/bundle/jruby/1.9/specifications/buftok-0.2.0.gemspec\r\nUsing ffi 1.9.8\r\n0:  ffi (1.9.8) from /opt/logstash/vendor/bundle/jruby/1.9/specifications/ffi-1.9.8-java.gemspec\r\nUsing childprocess 0.5.6\r\n0:  childprocess (0.5.6) from /opt/logstash/vendor/bundle/jruby/1.9/specifications/childprocess-0.5.6.gemspec\r\nUsing cinch 2.2.5\r\n0:  cinch (2.2.5) from /opt/logstash/vendor/bundle/jruby/1.9/specifications/cinch-2.2.5.gemspec\r\nUsing clamp 0.6.5\r\n0:  clamp (0.6.5) from /opt/logstash/vendor/bundle/jruby/1.9/specifications/clamp-0.6.5.gemspec\r\nUsing coderay 1.1.0\r\n0:  coderay (1.1.0) from /opt/logstash/vendor/bundle/jruby/1.9/specifications/coderay-1.1.0.gemspec\r\nUsing coercible 1.0.0\r\n0:  coercible (1.0.0) from /opt/logstash/vendor/bundle/jruby/1.9/specifications/coercible-1.0.0.gemspec\r\nUsing concurrent-ruby 0.8.0\r\n0:  concurrent-ruby (0.8.0) from /opt/logstash/vendor/bundle/jruby/1.9/specifications/concurrent-ruby-0.8.0-java.gemspec\r\nUsing edn 1.0.6\r\n0:  edn (1.0.6) from /opt/logstash/vendor/bundle/jruby/1.9/specifications/edn-1.0.6.gemspec\r\nUsing multi_json 1.11.0\r\n0:  multi_json (1.11.0) from /opt/logstash/vendor/bundle/jruby/1.9/specifications/multi_json-1.11.0.gemspec\r\nUsing elasticsearch-api 1.0.7\r\n0:  elasticsearch-api (1.0.7) from /opt/logstash/vendor/bundle/jruby/1.9/specifications/elasticsearch-api-1.0.7.gemspec\r\nUsing multipart-post 2.0.0\r\n0:  multipart-post (2.0.0) from /opt/logstash/vendor/bundle/jruby/1.9/specifications/multipart-post-2.0.0.gemspec\r\nUsing faraday 0.9.1\r\n0:  faraday (0.9.1) from /opt/logstash/vendor/bundle/jruby/1.9/specifications/faraday-0.9.1.gemspec\r\nUsing elasticsearch-transport 1.0.7\r\n0:  elasticsearch-transport (1.0.7) from /opt/logstash/vendor/bundle/jruby/1.9/specifications/elasticsearch-transport-1.0.7.gemspec\r\nUsing elasticsearch 1.0.8\r\n0:  elasticsearch (1.0.8) from /opt/logstash/vendor/bundle/jruby/1.9/specifications/elasticsearch-1.0.8.gemspec\r\nUsing equalizer 0.0.11\r\n0:  equalizer (0.0.11) from /opt/logstash/vendor/bundle/jruby/1.9/specifications/equalizer-0.0.11.gemspec\r\nUsing ffi-rzmq-core 1.0.3\r\n0:  ffi-rzmq-core (1.0.3) from /opt/logstash/vendor/bundle/jruby/1.9/specifications/ffi-rzmq-core-1.0.3.gemspec\r\nUsing ffi-rzmq 2.0.4\r\n0:  ffi-rzmq (2.0.4) from /opt/logstash/vendor/bundle/jruby/1.9/specifications/ffi-rzmq-2.0.4.gemspec\r\nUsing minitar 0.5.4\r\n0:  minitar (0.5.4) from /opt/logstash/vendor/bundle/jruby/1.9/specifications/minitar-0.5.4.gemspec\r\nUsing file-dependencies 0.1.6\r\n0:  file-dependencies (0.1.6) from /opt/logstash/vendor/bundle/jruby/1.9/specifications/file-dependencies-0.1.6.gemspec\r\nUsing filesize 0.0.4\r\n0:  filesize (0.0.4) from /opt/logstash/vendor/bundle/jruby/1.9/specifications/filesize-0.0.4.gemspec\r\nUsing filewatch 0.6.2\r\n0:  filewatch (0.6.2) from /opt/logstash/vendor/bundle/jruby/1.9/specifications/filewatch-0.6.2.gemspec\r\nUsing fpm 1.3.3\r\n0:  fpm (1.3.3) from /opt/logstash/vendor/bundle/jruby/1.9/specifications/fpm-1.3.3.gemspec\r\nUsing http_parser.rb 0.6.0\r\n0:  http_parser.rb (0.6.0) from /opt/logstash/vendor/bundle/jruby/1.9/specifications/http_parser.rb-0.6.0-java.gemspec\r\nUsing ftw 0.0.42\r\n0:  ftw (0.0.42) from /opt/logstash/vendor/bundle/jruby/1.9/specifications/ftw-0.0.42.gemspec\r\nUsing gelf 1.3.2\r\n0:  gelf (1.3.2) from /opt/logstash/vendor/bundle/jruby/1.9/specifications/gelf-1.3.2.gemspec\r\nUsing gelfd 0.2.0\r\n0:  gelfd (0.2.0) from /opt/logstash/vendor/bundle/jruby/1.9/specifications/gelfd-0.2.0.gemspec\r\nUsing gems 0.8.3\r\n0:  gems (0.8.3) from /opt/logstash/vendor/bundle/jruby/1.9/specifications/gems-0.8.3.gemspec\r\nUsing geoip 1.5.0\r\n0:  geoip (1.5.0) from /opt/logstash/vendor/bundle/jruby/1.9/specifications/geoip-1.5.0.gemspec\r\nUsing gmetric 0.1.3\r\n0:  gmetric (0.1.3) from /opt/logstash/vendor/bundle/jruby/1.9/specifications/gmetric-0.1.3.gemspec\r\nUsing hitimes 1.2.2\r\n0:  hitimes (1.2.2) from /opt/logstash/vendor/bundle/jruby/1.9/specifications/hitimes-1.2.2-java.gemspec\r\nUsing http 0.6.4\r\n0:  http (0.6.4) from /opt/logstash/vendor/bundle/jruby/1.9/specifications/http-0.6.4.gemspec\r\nUsing i18n 0.6.9\r\n0:  i18n (0.6.9) from /opt/logstash/vendor/bundle/jruby/1.9/specifications/i18n-0.6.9.gemspec\r\nUsing jar-dependencies 0.1.14\r\n0:  jar-dependencies (0.1.14) from /opt/logstash/vendor/bundle/jruby/1.9/specifications/jar-dependencies-0.1.14.gemspec\r\nUsing jls-grok 0.11.2\r\n0:  jls-grok (0.11.2) from /opt/logstash/vendor/bundle/jruby/1.9/specifications/jls-grok-0.11.2.gemspec\r\nUsing jls-lumberjack 0.0.22\r\n0:  jls-lumberjack (0.0.22) from /opt/logstash/vendor/bundle/jruby/1.9/specifications/jls-lumberjack-0.0.22.gemspec\r\nUsing jrjackson 0.2.8\r\n0:  jrjackson (0.2.8) from /opt/logstash/vendor/bundle/jruby/1.9/specifications/jrjackson-0.2.8.gemspec\r\nUsing virtus 1.0.5\r\n0:  virtus (1.0.5) from /opt/logstash/vendor/bundle/jruby/1.9/specifications/virtus-1.0.5.gemspec\r\nUsing maven-tools 1.0.9\r\n0:  maven-tools (1.0.9) from /opt/logstash/vendor/bundle/jruby/1.9/specifications/maven-tools-1.0.9.gemspec\r\nUsing ruby-maven-libs 3.1.1\r\n0:  ruby-maven-libs (3.1.1) from /opt/logstash/vendor/bundle/jruby/1.9/specifications/ruby-maven-libs-3.1.1.gemspec\r\nUsing ruby-maven 3.1.1.0.11\r\n0:  ruby-maven (3.1.1.0.11) from /opt/logstash/vendor/bundle/jruby/1.9/specifications/ruby-maven-3.1.1.0.11.gemspec\r\nUsing jruby-kafka 1.4.0\r\n0:  jruby-kafka (1.4.0) from /opt/logstash/vendor/bundle/jruby/1.9/specifications/jruby-kafka-1.4.0-java.gemspec\r\nUsing jruby-win32ole 0.8.5\r\n0:  jruby-win32ole (0.8.5) from /opt/logstash/vendor/bundle/jruby/1.9/specifications/jruby-win32ole-0.8.5.gemspec\r\nUsing method_source 0.8.2\r\n0:  method_source (0.8.2) from /opt/logstash/vendor/bundle/jruby/1.9/specifications/method_source-0.8.2.gemspec\r\nUsing slop 3.6.0\r\n0:  slop (3.6.0) from /opt/logstash/vendor/bundle/jruby/1.9/specifications/slop-3.6.0.gemspec\r\nUsing spoon 0.0.4\r\n0:  spoon (0.0.4) from /opt/logstash/vendor/bundle/jruby/1.9/specifications/spoon-0.0.4.gemspec\r\nUsing pry 0.10.1\r\n0:  pry (0.10.1) from /opt/logstash/vendor/bundle/jruby/1.9/specifications/pry-0.10.1-java.gemspec\r\nUsing stud 0.0.19\r\n0:  stud (0.0.19) from /opt/logstash/vendor/bundle/jruby/1.9/specifications/stud-0.0.19.gemspec\r\nUsing polyglot 0.3.5\r\n0:  polyglot (0.3.5) from /opt/logstash/vendor/bundle/jruby/1.9/specifications/polyglot-0.3.5.gemspec\r\nUsing treetop 1.4.15\r\n0:  treetop (1.4.15) from /opt/logstash/vendor/bundle/jruby/1.9/specifications/treetop-1.4.15.gemspec\r\nUsing logstash-core 1.5.0\r\n0:  logstash-core (1.5.0) from /opt/logstash/vendor/bundle/jruby/1.9/specifications/logstash-core-1.5.0-java.gemspec\r\nUsing logstash-codec-collectd 0.1.9\r\n0:  logstash-codec-collectd (0.1.9) from /opt/logstash/vendor/bundle/jruby/1.9/specifications/logstash-codec-collectd-0.1.9.gemspec\r\nUsing logstash-codec-dots 0.1.6\r\n0:  logstash-codec-dots (0.1.6) from /opt/logstash/vendor/bundle/jruby/1.9/specifications/logstash-codec-dots-0.1.6.gemspec\r\nUsing logstash-codec-edn 0.1.6\r\n0:  logstash-codec-edn (0.1.6) from /opt/logstash/vendor/bundle/jruby/1.9/specifications/logstash-codec-edn-0.1.6.gemspec\r\nUsing logstash-codec-line 0.1.6\r\n0:  logstash-codec-line (0.1.6) from /opt/logstash/vendor/bundle/jruby/1.9/specifications/logstash-codec-line-0.1.6.gemspec\r\nUsing logstash-codec-edn_lines 0.1.7\r\n0:  logstash-codec-edn_lines (0.1.7) from /opt/logstash/vendor/bundle/jruby/1.9/specifications/logstash-codec-edn_lines-0.1.7.gemspec\r\nUsing logstash-codec-es_bulk 0.1.6\r\n0:  logstash-codec-es_bulk (0.1.6) from /opt/logstash/vendor/bundle/jruby/1.9/specifications/logstash-codec-es_bulk-0.1.6.gemspec\r\nUsing msgpack-jruby 1.4.1\r\n0:  msgpack-jruby (1.4.1) from /opt/logstash/vendor/bundle/jruby/1.9/specifications/msgpack-jruby-1.4.1-java.gemspec\r\nUsing logstash-codec-fluent 0.1.6\r\n0:  logstash-codec-fluent (0.1.6) from /opt/logstash/vendor/bundle/jruby/1.9/specifications/logstash-codec-fluent-0.1.6-java.gemspec\r\nUsing logstash-codec-graphite 0.1.6\r\n0:  logstash-codec-graphite (0.1.6) from /opt/logstash/vendor/bundle/jruby/1.9/specifications/logstash-codec-graphite-0.1.6.gemspec\r\nUsing logstash-codec-json 0.1.7\r\n0:  logstash-codec-json (0.1.7) from /opt/logstash/vendor/bundle/jruby/1.9/specifications/logstash-codec-json-0.1.7.gemspec\r\nUsing logstash-codec-json_lines 0.1.8\r\n0:  logstash-codec-json_lines (0.1.8) from /opt/logstash/vendor/bundle/jruby/1.9/specifications/logstash-codec-json_lines-0.1.8.gemspec\r\nUsing logstash-codec-msgpack 0.1.7\r\n0:  logstash-codec-msgpack (0.1.7) from /opt/logstash/vendor/bundle/jruby/1.9/specifications/logstash-codec-msgpack-0.1.7-java.gemspec\r\nUsing logstash-patterns-core 0.1.10\r\n0:  logstash-patterns-core (0.1.10) from /opt/logstash/vendor/bundle/jruby/1.9/specifications/logstash-patterns-core-0.1.10.gemspec\r\nUsing logstash-codec-multiline 0.1.9\r\n0:  logstash-codec-multiline (0.1.9) from /opt/logstash/vendor/bundle/jruby/1.9/specifications/logstash-codec-multiline-0.1.9.gemspec\r\nUsing logstash-codec-netflow 0.1.6\r\n0:  logstash-codec-netflow (0.1.6) from /opt/logstash/vendor/bundle/jruby/1.9/specifications/logstash-codec-netflow-0.1.6.gemspec\r\nUsing logstash-codec-oldlogstashjson 0.1.6\r\n0:  logstash-codec-oldlogstashjson (0.1.6) from /opt/logstash/vendor/bundle/jruby/1.9/specifications/logstash-codec-oldlogstashjson-0.1.6.gemspec\r\nUsing logstash-codec-plain 0.1.6\r\n0:  logstash-codec-plain (0.1.6) from /opt/logstash/vendor/bundle/jruby/1.9/specifications/logstash-codec-plain-0.1.6.gemspec\r\nUsing logstash-codec-rubydebug 0.1.7\r\n0:  logstash-codec-rubydebug (0.1.7) from /opt/logstash/vendor/bundle/jruby/1.9/specifications/logstash-codec-rubydebug-0.1.7.gemspec\r\nUsing murmurhash3 0.1.6\r\n0:  murmurhash3 (0.1.6) from /opt/logstash/vendor/bundle/jruby/1.9/specifications/murmurhash3-0.1.6-java.gemspec\r\nUsing logstash-filter-anonymize 0.1.5\r\n0:  logstash-filter-anonymize (0.1.5) from /opt/logstash/vendor/bundle/jruby/1.9/specifications/logstash-filter-anonymize-0.1.5.gemspec\r\nUsing logstash-filter-checksum 0.1.6\r\n0:  logstash-filter-checksum (0.1.6) from /opt/logstash/vendor/bundle/jruby/1.9/specifications/logstash-filter-checksum-0.1.6.gemspec\r\nUsing logstash-filter-clone 0.1.5\r\n0:  logstash-filter-clone (0.1.5) from /opt/logstash/vendor/bundle/jruby/1.9/specifications/logstash-filter-clone-0.1.5.gemspec\r\nUsing logstash-filter-csv 0.1.5\r\n0:  logstash-filter-csv (0.1.5) from /opt/logstash/vendor/bundle/jruby/1.9/specifications/logstash-filter-csv-0.1.5.gemspec\r\nUsing logstash-input-generator 0.1.5\r\n0:  logstash-input-generator (0.1.5) from /opt/logstash/vendor/bundle/jruby/1.9/specifications/logstash-input-generator-0.1.5.gemspec\r\nUsing logstash-output-null 0.1.4\r\n0:  logstash-output-null (0.1.4) from /opt/logstash/vendor/bundle/jruby/1.9/specifications/logstash-output-null-0.1.4.gemspec\r\nUsing logstash-filter-date 0.1.6\r\n0:  logstash-filter-date (0.1.6) from /opt/logstash/vendor/bundle/jruby/1.9/specifications/logstash-filter-date-0.1.6.gemspec\r\nUsing logstash-filter-dns 0.1.5\r\n0:  logstash-filter-dns (0.1.5) from /opt/logstash/vendor/bundle/jruby/1.9/specifications/logstash-filter-dns-0.1.5.gemspec\r\nUsing logstash-filter-drop 0.1.5\r\n0:  logstash-filter-drop (0.1.5) from /opt/logstash/vendor/bundle/jruby/1.9/specifications/logstash-filter-drop-0.1.5.gemspec\r\nUsing logstash-filter-fingerprint 0.1.5\r\n0:  logstash-filter-fingerprint (0.1.5) from /opt/logstash/vendor/bundle/jruby/1.9/specifications/logstash-filter-fingerprint-0.1.5.gemspec\r\nUsing logstash-filter-geoip 0.1.9\r\n0:  logstash-filter-geoip (0.1.9) from /opt/logstash/vendor/bundle/jruby/1.9/specifications/logstash-filter-geoip-0.1.9.gemspec\r\nUsing logstash-filter-grok 0.1.10\r\n0:  logstash-filter-grok (0.1.10) from /opt/logstash/vendor/bundle/jruby/1.9/specifications/logstash-filter-grok-0.1.10.gemspec\r\nUsing logstash-filter-json 0.1.6\r\n0:  logstash-filter-json (0.1.6) from /opt/logstash/vendor/bundle/jruby/1.9/specifications/logstash-filter-json-0.1.6.gemspec\r\nUsing logstash-filter-kv 0.1.6\r\n0:  logstash-filter-kv (0.1.6) from /opt/logstash/vendor/bundle/jruby/1.9/specifications/logstash-filter-kv-0.1.6.gemspec\r\nUsing metriks 0.9.9.7\r\n0:  metriks (0.9.9.7) from /opt/logstash/vendor/bundle/jruby/1.9/specifications/metriks-0.9.9.7.gemspec\r\nUsing logstash-filter-metrics 0.1.8\r\n0:  logstash-filter-metrics (0.1.8) from /opt/logstash/vendor/bundle/jruby/1.9/specifications/logstash-filter-metrics-0.1.8.gemspec\r\nUsing logstash-filter-mutate 0.1.8\r\n0:  logstash-filter-mutate (0.1.8) from /opt/logstash/vendor/bundle/jruby/1.9/specifications/logstash-filter-mutate-0.1.8.gemspec\r\nUsing logstash-filter-multiline 0.1.6\r\n0:  logstash-filter-multiline (0.1.6) from /opt/logstash/vendor/bundle/jruby/1.9/specifications/logstash-filter-multiline-0.1.6.gemspec\r\nUsing logstash-filter-ruby 0.1.5\r\n0:  logstash-filter-ruby (0.1.5) from /opt/logstash/vendor/bundle/jruby/1.9/specifications/logstash-filter-ruby-0.1.5.gemspec\r\nUsing logstash-filter-sleep 0.1.5\r\n0:  logstash-filter-sleep (0.1.5) from /opt/logstash/vendor/bundle/jruby/1.9/specifications/logstash-filter-sleep-0.1.5.gemspec\r\nUsing logstash-filter-split 0.1.6\r\n0:  logstash-filter-split (0.1.6) from /opt/logstash/vendor/bundle/jruby/1.9/specifications/logstash-filter-split-0.1.6.gemspec\r\nUsing logstash-filter-syslog_pri 0.1.5\r\n0:  logstash-filter-syslog_pri (0.1.5) from /opt/logstash/vendor/bundle/jruby/1.9/specifications/logstash-filter-syslog_pri-0.1.5.gemspec\r\nUsing logstash-filter-throttle 0.1.5\r\n0:  logstash-filter-throttle (0.1.5) from /opt/logstash/vendor/bundle/jruby/1.9/specifications/logstash-filter-throttle-0.1.5.gemspec\r\nUsing logstash-filter-urldecode 0.1.5\r\n0:  logstash-filter-urldecode (0.1.5) from /opt/logstash/vendor/bundle/jruby/1.9/specifications/logstash-filter-urldecode-0.1.5.gemspec\r\nUsing user_agent_parser 2.2.0\r\n0:  user_agent_parser (2.2.0) from /opt/logstash/vendor/bundle/jruby/1.9/specifications/user_agent_parser-2.2.0.gemspec\r\nUsing logstash-filter-useragent 0.1.8\r\n0:  logstash-filter-useragent (0.1.8) from /opt/logstash/vendor/bundle/jruby/1.9/specifications/logstash-filter-useragent-0.1.8.gemspec\r\nUsing logstash-filter-uuid 0.1.5\r\n0:  logstash-filter-uuid (0.1.5) from /opt/logstash/vendor/bundle/jruby/1.9/specifications/logstash-filter-uuid-0.1.5.gemspec\r\nUsing xml-simple 1.1.5\r\n0:  xml-simple (1.1.5) from /opt/logstash/vendor/bundle/jruby/1.9/specifications/xml-simple-1.1.5.gemspec\r\nUsing logstash-filter-xml 0.1.5\r\n0:  logstash-filter-xml (0.1.5) from /opt/logstash/vendor/bundle/jruby/1.9/specifications/logstash-filter-xml-0.1.5.gemspec\r\nUsing logstash-input-couchdb_changes 0.1.5\r\n0:  logstash-input-couchdb_changes (0.1.5) from /opt/logstash/vendor/bundle/jruby/1.9/specifications/logstash-input-couchdb_changes-0.1.5.gemspec\r\nUsing logstash-input-elasticsearch 0.1.5\r\n0:  logstash-input-elasticsearch (0.1.5) from /opt/logstash/vendor/bundle/jruby/1.9/specifications/logstash-input-elasticsearch-0.1.5.gemspec\r\nUsing logstash-input-eventlog 0.1.5\r\n0:  logstash-input-eventlog (0.1.5) from /opt/logstash/vendor/bundle/jruby/1.9/specifications/logstash-input-eventlog-0.1.5-java.gemspec\r\nUsing logstash-input-exec 0.1.4\r\n0:  logstash-input-exec (0.1.4) from /opt/logstash/vendor/bundle/jruby/1.9/specifications/logstash-input-exec-0.1.4.gemspec\r\nUsing logstash-input-file 0.1.10\r\n0:  logstash-input-file (0.1.10) from /opt/logstash/vendor/bundle/jruby/1.9/specifications/logstash-input-file-0.1.10.gemspec\r\nUsing logstash-input-ganglia 0.1.4\r\n0:  logstash-input-ganglia (0.1.4) from /opt/logstash/vendor/bundle/jruby/1.9/specifications/logstash-input-ganglia-0.1.4.gemspec\r\nUsing logstash-input-gelf 0.1.5\r\n0:  logstash-input-gelf (0.1.5) from /opt/logstash/vendor/bundle/jruby/1.9/specifications/logstash-input-gelf-0.1.5.gemspec\r\nUsing logstash-input-tcp 0.1.5\r\n0:  logstash-input-tcp (0.1.5) from /opt/logstash/vendor/bundle/jruby/1.9/specifications/logstash-input-tcp-0.1.5.gemspec\r\nUsing logstash-input-graphite 0.1.4\r\n0:  logstash-input-graphite (0.1.4) from /opt/logstash/vendor/bundle/jruby/1.9/specifications/logstash-input-graphite-0.1.4.gemspec\r\nUsing logstash-input-heartbeat 0.1.6\r\n0:  logstash-input-heartbeat (0.1.6) from /opt/logstash/vendor/bundle/jruby/1.9/specifications/logstash-input-heartbeat-0.1.6.gemspec\r\nUsing mime-types 2.5\r\n0:  mime-types (2.5) from /opt/logstash/vendor/bundle/jruby/1.9/specifications/mime-types-2.5.gemspec\r\nUsing mail 2.6.3\r\n0:  mail (2.6.3) from /opt/logstash/vendor/bundle/jruby/1.9/specifications/mail-2.6.3.gemspec\r\nUsing logstash-input-imap 0.1.4\r\n0:  logstash-input-imap (0.1.4) from /opt/logstash/vendor/bundle/jruby/1.9/specifications/logstash-input-imap-0.1.4.gemspec\r\nUsing logstash-input-irc 0.1.5\r\n0:  logstash-input-irc (0.1.5) from /opt/logstash/vendor/bundle/jruby/1.9/specifications/logstash-input-irc-0.1.5.gemspec\r\nUsing logstash-input-kafka 0.1.14\r\n0:  logstash-input-kafka (0.1.14) from /opt/logstash/vendor/bundle/jruby/1.9/specifications/logstash-input-kafka-0.1.14.gemspec\r\nUsing logstash-input-log4j 0.1.7\r\n0:  logstash-input-log4j (0.1.7) from /opt/logstash/vendor/bundle/jruby/1.9/specifications/logstash-input-log4j-0.1.7-java.gemspec\r\nUsing logstash-input-lumberjack 0.1.7\r\n0:  logstash-input-lumberjack (0.1.7) from /opt/logstash/vendor/bundle/jruby/1.9/specifications/logstash-input-lumberjack-0.1.7.gemspec\r\nUsing logstash-input-pipe 0.1.6\r\n0:  logstash-input-pipe (0.1.6) from /opt/logstash/vendor/bundle/jruby/1.9/specifications/logstash-input-pipe-0.1.6.gemspec\r\nUsing march_hare 2.5.1\r\n0:  march_hare (2.5.1) from /opt/logstash/vendor/bundle/jruby/1.9/specifications/march_hare-2.5.1-java.gemspec\r\nUsing logstash-input-rabbitmq 0.1.4\r\n0:  logstash-input-rabbitmq (0.1.4) from /opt/logstash/vendor/bundle/jruby/1.9/specifications/logstash-input-rabbitmq-0.1.4-java.gemspec\r\nUsing redis 3.2.1\r\n0:  redis (3.2.1) from /opt/logstash/vendor/bundle/jruby/1.9/specifications/redis-3.2.1.gemspec\r\nUsing logstash-input-redis 0.1.5\r\n0:  logstash-input-redis (0.1.5) from /opt/logstash/vendor/bundle/jruby/1.9/specifications/logstash-input-redis-0.1.5.gemspec\r\nUsing logstash-mixin-aws 0.1.10\r\n0:  logstash-mixin-aws (0.1.10) from /opt/logstash/vendor/bundle/jruby/1.9/specifications/logstash-mixin-aws-0.1.10.gemspec\r\nUsing logstash-input-s3 0.1.10\r\n0:  logstash-input-s3 (0.1.10) from /opt/logstash/vendor/bundle/jruby/1.9/specifications/logstash-input-s3-0.1.10.gemspec\r\nUsing snmp 1.2.0\r\n0:  snmp (1.2.0) from /opt/logstash/vendor/bundle/jruby/1.9/specifications/snmp-1.2.0.gemspec\r\nUsing logstash-input-snmptrap 0.1.5\r\n0:  logstash-input-snmptrap (0.1.5) from /opt/logstash/vendor/bundle/jruby/1.9/specifications/logstash-input-snmptrap-0.1.5.gemspec\r\nUsing logstash-input-sqs 0.1.4\r\n0:  logstash-input-sqs (0.1.4) from /opt/logstash/vendor/bundle/jruby/1.9/specifications/logstash-input-sqs-0.1.4.gemspec\r\nUsing logstash-input-stdin 0.1.6\r\n0:  logstash-input-stdin (0.1.6) from /opt/logstash/vendor/bundle/jruby/1.9/specifications/logstash-input-stdin-0.1.6.gemspec\r\nUsing onstomp 1.0.8\r\n0:  onstomp (1.0.8) from /opt/logstash/vendor/bundle/jruby/1.9/specifications/onstomp-1.0.8.gemspec\r\nUsing logstash-input-stomp 0.1.4\r\n0:  logstash-input-stomp (0.1.4) from /opt/logstash/vendor/bundle/jruby/1.9/specifications/logstash-input-stomp-0.1.4.gemspec\r\nUsing logstash-input-syslog 0.1.6\r\n0:  logstash-input-syslog (0.1.6) from /opt/logstash/vendor/bundle/jruby/1.9/specifications/logstash-input-syslog-0.1.6.gemspec\r\nUsing memoizable 0.4.2\r\n0:  memoizable (0.4.2) from /opt/logstash/vendor/bundle/jruby/1.9/specifications/memoizable-0.4.2.gemspec\r\nUsing naught 1.0.0\r\n0:  naught (1.0.0) from /opt/logstash/vendor/bundle/jruby/1.9/specifications/naught-1.0.0.gemspec\r\nUsing simple_oauth 0.3.1\r\n0:  simple_oauth (0.3.1) from /opt/logstash/vendor/bundle/jruby/1.9/specifications/simple_oauth-0.3.1.gemspec\r\nUsing twitter 5.12.0\r\n0:  twitter (5.12.0) from /opt/logstash/vendor/bundle/jruby/1.9/specifications/twitter-5.12.0.gemspec\r\nUsing logstash-input-twitter 0.1.6\r\n0:  logstash-input-twitter (0.1.6) from /opt/logstash/vendor/bundle/jruby/1.9/specifications/logstash-input-twitter-0.1.6.gemspec\r\nUsing logstash-input-udp 0.1.4\r\n0:  logstash-input-udp (0.1.4) from /opt/logstash/vendor/bundle/jruby/1.9/specifications/logstash-input-udp-0.1.4.gemspec\r\nUsing logstash-input-unix 0.1.4\r\n0:  logstash-input-unix (0.1.4) from /opt/logstash/vendor/bundle/jruby/1.9/specifications/logstash-input-unix-0.1.4.gemspec\r\nUsing xmpp4r 0.5\r\n0:  xmpp4r (0.5) from /opt/logstash/vendor/bundle/jruby/1.9/specifications/xmpp4r-0.5.gemspec\r\nUsing logstash-input-xmpp 0.1.4\r\n0:  logstash-input-xmpp (0.1.4) from /opt/logstash/vendor/bundle/jruby/1.9/specifications/logstash-input-xmpp-0.1.4.gemspec\r\nUsing logstash-input-zeromq 0.1.5\r\n0:  logstash-input-zeromq (0.1.5) from /opt/logstash/vendor/bundle/jruby/1.9/specifications/logstash-input-zeromq-0.1.5.gemspec\r\nUsing tzinfo 1.2.2\r\n0:  tzinfo (1.2.2) from /opt/logstash/vendor/bundle/jruby/1.9/specifications/tzinfo-1.2.2.gemspec\r\nUsing rufus-scheduler 3.0.9\r\n0:  rufus-scheduler (3.0.9) from /opt/logstash/vendor/bundle/jruby/1.9/specifications/rufus-scheduler-3.0.9.gemspec\r\nUsing logstash-output-cloudwatch 0.1.5\r\n0:  logstash-output-cloudwatch (0.1.5) from /opt/logstash/vendor/bundle/jruby/1.9/specifications/logstash-output-cloudwatch-0.1.5.gemspec\r\nUsing logstash-output-file 0.1.6\r\n0:  logstash-output-file (0.1.6) from /opt/logstash/vendor/bundle/jruby/1.9/specifications/logstash-output-file-0.1.6.gemspec\r\nUsing logstash-output-csv 0.1.4\r\n0:  logstash-output-csv (0.1.4) from /opt/logstash/vendor/bundle/jruby/1.9/specifications/logstash-output-csv-0.1.4.gemspec\r\nUsing manticore 0.4.1\r\n0:  manticore (0.4.1) from /opt/logstash/vendor/bundle/jruby/1.9/specifications/manticore-0.4.1-java.gemspec\r\nUsing logstash-output-elasticsearch 0.2.4\r\n0:  logstash-output-elasticsearch (0.2.4) from /opt/logstash/vendor/bundle/jruby/1.9/specifications/logstash-output-elasticsearch-0.2.4-java.gemspec\r\nUsing logstash-output-elasticsearch_http 0.0.2\r\n0:  logstash-output-elasticsearch_http (0.0.2) from /opt/logstash/vendor/bundle/jruby/1.9/specifications/logstash-output-elasticsearch_http-0.0.2.gemspec\r\nUsing logstash-output-email 0.1.8\r\n0:  logstash-output-email (0.1.8) from /opt/logstash/vendor/bundle/jruby/1.9/specifications/logstash-output-email-0.1.8.gemspec\r\nUsing logstash-output-exec 0.1.4\r\n0:  logstash-output-exec (0.1.4) from /opt/logstash/vendor/bundle/jruby/1.9/specifications/logstash-output-exec-0.1.4.gemspec\r\nUsing logstash-output-ganglia 0.1.4\r\n0:  logstash-output-ganglia (0.1.4) from /opt/logstash/vendor/bundle/jruby/1.9/specifications/logstash-output-ganglia-0.1.4.gemspec\r\nUsing logstash-output-gelf 0.1.4\r\n0:  logstash-output-gelf (0.1.4) from /opt/logstash/vendor/bundle/jruby/1.9/specifications/logstash-output-gelf-0.1.4.gemspec\r\nUsing logstash-output-graphite 0.1.8\r\n0:  logstash-output-graphite (0.1.8) from /opt/logstash/vendor/bundle/jruby/1.9/specifications/logstash-output-graphite-0.1.8.gemspec\r\nUsing logstash-output-hipchat 0.1.4\r\n0:  logstash-output-hipchat (0.1.4) from /opt/logstash/vendor/bundle/jruby/1.9/specifications/logstash-output-hipchat-0.1.4.gemspec\r\nUsing logstash-output-http 0.1.4\r\n0:  logstash-output-http (0.1.4) from /opt/logstash/vendor/bundle/jruby/1.9/specifications/logstash-output-http-0.1.4.gemspec\r\nUsing logstash-output-irc 0.1.4\r\n0:  logstash-output-irc (0.1.4) from /opt/logstash/vendor/bundle/jruby/1.9/specifications/logstash-output-irc-0.1.4.gemspec\r\nUsing logstash-output-juggernaut 0.1.4\r\n0:  logstash-output-juggernaut (0.1.4) from /opt/logstash/vendor/bundle/jruby/1.9/specifications/logstash-output-juggernaut-0.1.4.gemspec\r\nUsing logstash-output-kafka 0.1.11\r\n0:  logstash-output-kafka (0.1.11) from /opt/logstash/vendor/bundle/jruby/1.9/specifications/logstash-output-kafka-0.1.11.gemspec\r\nUsing logstash-output-lumberjack 0.1.5\r\n0:  logstash-output-lumberjack (0.1.5) from /opt/logstash/vendor/bundle/jruby/1.9/specifications/logstash-output-lumberjack-0.1.5.gemspec\r\nUsing logstash-output-nagios 0.1.4\r\n0:  logstash-output-nagios (0.1.4) from /opt/logstash/vendor/bundle/jruby/1.9/specifications/logstash-output-nagios-0.1.4.gemspec\r\nUsing logstash-output-nagios_nsca 0.1.4\r\n0:  logstash-output-nagios_nsca (0.1.4) from /opt/logstash/vendor/bundle/jruby/1.9/specifications/logstash-output-nagios_nsca-0.1.4.gemspec\r\nUsing logstash-output-opentsdb 0.1.4\r\n0:  logstash-output-opentsdb (0.1.4) from /opt/logstash/vendor/bundle/jruby/1.9/specifications/logstash-output-opentsdb-0.1.4.gemspec\r\nUsing logstash-output-pagerduty 0.1.4\r\n0:  logstash-output-pagerduty (0.1.4) from /opt/logstash/vendor/bundle/jruby/1.9/specifications/logstash-output-pagerduty-0.1.4.gemspec\r\nUsing logstash-output-pipe 0.1.4\r\n0:  logstash-output-pipe (0.1.4) from /opt/logstash/vendor/bundle/jruby/1.9/specifications/logstash-output-pipe-0.1.4.gemspec\r\nUsing logstash-output-rabbitmq 0.1.5\r\n0:  logstash-output-rabbitmq (0.1.5) from /opt/logstash/vendor/bundle/jruby/1.9/specifications/logstash-output-rabbitmq-0.1.5-java.gemspec\r\nUsing logstash-output-redis 0.1.4\r\n0:  logstash-output-redis (0.1.4) from /opt/logstash/vendor/bundle/jruby/1.9/specifications/logstash-output-redis-0.1.4.gemspec\r\nUsing logstash-output-s3 0.1.7\r\n0:  logstash-output-s3 (0.1.7) from /opt/logstash/vendor/bundle/jruby/1.9/specifications/logstash-output-s3-0.1.7.gemspec\r\nUsing logstash-output-sns 0.1.4\r\n0:  logstash-output-sns (0.1.4) from /opt/logstash/vendor/bundle/jruby/1.9/specifications/logstash-output-sns-0.1.4.gemspec\r\nUsing logstash-output-sqs 0.1.4\r\n0:  logstash-output-sqs (0.1.4) from /opt/logstash/vendor/bundle/jruby/1.9/specifications/logstash-output-sqs-0.1.4.gemspec\r\nUsing statsd-ruby 1.2.0\r\n0:  statsd-ruby (1.2.0) from /opt/logstash/vendor/bundle/jruby/1.9/specifications/statsd-ruby-1.2.0.gemspec\r\nUsing logstash-output-statsd 0.1.6\r\n0:  logstash-output-statsd (0.1.6) from /opt/logstash/vendor/bundle/jruby/1.9/specifications/logstash-output-statsd-0.1.6.gemspec\r\nUsing logstash-output-stdout 0.1.5\r\n0:  logstash-output-stdout (0.1.5) from /opt/logstash/vendor/bundle/jruby/1.9/specifications/logstash-output-stdout-0.1.5.gemspec\r\nUsing logstash-output-tcp 0.1.5\r\n0:  logstash-output-tcp (0.1.5) from /opt/logstash/vendor/bundle/jruby/1.9/specifications/logstash-output-tcp-0.1.5.gemspec\r\nUsing logstash-output-udp 0.1.5\r\n0:  logstash-output-udp (0.1.5) from /opt/logstash/vendor/bundle/jruby/1.9/specifications/logstash-output-udp-0.1.5.gemspec\r\nUsing logstash-output-xmpp 0.1.4\r\n0:  logstash-output-xmpp (0.1.4) from /opt/logstash/vendor/bundle/jruby/1.9/specifications/logstash-output-xmpp-0.1.4.gemspec\r\nUsing logstash-output-zeromq 0.1.6\r\n0:  logstash-output-zeromq (0.1.6) from /opt/logstash/vendor/bundle/jruby/1.9/specifications/logstash-output-zeromq-0.1.6.gemspec\r\nUsing sawyer 0.6.0\r\n0:  sawyer (0.6.0) from /opt/logstash/vendor/bundle/jruby/1.9/specifications/sawyer-0.6.0.gemspec\r\nUsing octokit 3.8.0\r\n0:  octokit (3.8.0) from /opt/logstash/vendor/bundle/jruby/1.9/specifications/octokit-3.8.0.gemspec\r\nUsing rubyzip 1.1.7\r\n0:  rubyzip (1.1.7) from /opt/logstash/vendor/bundle/jruby/1.9/specifications/rubyzip-1.1.7.gemspec\r\nUsing bundler 1.9.8\r\n0:  bundler (1.9.8) from /opt/logstash/vendor/bundle/jruby/1.9/specifications/bundler-1.9.8.gemspec\r\nBundle complete! 115 Gemfile dependencies, 196 gems now installed.\r\nGems in the group development were not installed.\r\nBundled gems are installed into /opt/logstash/vendor/bundle.\r\n[root@ls-auto-index ~]#\r\n```"
}
, {
  "url": "https://api.github.com/repos/elastic/logstash/issues/comments/107405093",
  "html_url": "https://github.com/elastic/logstash/issues/3354#issuecomment-107405093",
  "issue_url": "https://api.github.com/repos/elastic/logstash/issues/3354",
  "id": 107405093,
  "user": {
    "login": "purbon",
    "id": 68540,
    "avatar_url": "https://avatars.githubusercontent.com/u/68540?v=3",
    "gravatar_id": "",
    "url": "https://api.github.com/users/purbon",
    "html_url": "https://github.com/purbon",
    "followers_url": "https://api.github.com/users/purbon/followers",
    "following_url": "https://api.github.com/users/purbon/following{/other_user}",
    "gists_url": "https://api.github.com/users/purbon/gists{/gist_id}",
    "starred_url": "https://api.github.com/users/purbon/starred{/owner}{/repo}",
    "subscriptions_url": "https://api.github.com/users/purbon/subscriptions",
    "organizations_url": "https://api.github.com/users/purbon/orgs",
    "repos_url": "https://api.github.com/users/purbon/repos",
    "events_url": "https://api.github.com/users/purbon/events{/privacy}",
    "received_events_url": "https://api.github.com/users/purbon/received_events",
    "type": "User",
    "site_admin": false
  },
  "created_at": "2015-06-01T11:21:31Z",
  "updated_at": "2015-06-01T11:22:09Z",
  "body": "I did some digging on this issue and the error looks to me like some ssh handshake error, are you seeing this error always and still? with JVM are you using? @johntdyer"
}
, {
  "url": "https://api.github.com/repos/elastic/logstash/issues/comments/107405833",
  "html_url": "https://github.com/elastic/logstash/issues/3354#issuecomment-107405833",
  "issue_url": "https://api.github.com/repos/elastic/logstash/issues/3354",
  "id": 107405833,
  "user": {
    "login": "johntdyer",
    "id": 58234,
    "avatar_url": "https://avatars.githubusercontent.com/u/58234?v=3",
    "gravatar_id": "",
    "url": "https://api.github.com/users/johntdyer",
    "html_url": "https://github.com/johntdyer",
    "followers_url": "https://api.github.com/users/johntdyer/followers",
    "following_url": "https://api.github.com/users/johntdyer/following{/other_user}",
    "gists_url": "https://api.github.com/users/johntdyer/gists{/gist_id}",
    "starred_url": "https://api.github.com/users/johntdyer/starred{/owner}{/repo}",
    "subscriptions_url": "https://api.github.com/users/johntdyer/subscriptions",
    "organizations_url": "https://api.github.com/users/johntdyer/orgs",
    "repos_url": "https://api.github.com/users/johntdyer/repos",
    "events_url": "https://api.github.com/users/johntdyer/events{/privacy}",
    "received_events_url": "https://api.github.com/users/johntdyer/received_events",
    "type": "User",
    "site_admin": false
  },
  "created_at": "2015-06-01T11:24:48Z",
  "updated_at": "2015-06-01T11:24:48Z",
  "body": "I am using 1.7u60 in production.  I haven't tried to reproduce this today, however Saturday it was failing 100% of the time.  I'll try to reproduce this today as soon as I get to the airport. \n\n\n\n—\nSent from Mailbox\n\nOn Mon, Jun 1, 2015 at 7:21 AM, Pere Urbón <notifications@github.com>\nwrote:\n\n> I did some digging on this issue and the error looks to me like some ssh handshake error, are you seing this error always and still? with JVM are you using?\n> ---\n> Reply to this email directly or view it on GitHub:\n> https://github.com/elastic/logstash/issues/3354#issuecomment-107405093"
}
, {
  "url": "https://api.github.com/repos/elastic/logstash/issues/comments/107490468",
  "html_url": "https://github.com/elastic/logstash/issues/3354#issuecomment-107490468",
  "issue_url": "https://api.github.com/repos/elastic/logstash/issues/3354",
  "id": 107490468,
  "user": {
    "login": "purbon",
    "id": 68540,
    "avatar_url": "https://avatars.githubusercontent.com/u/68540?v=3",
    "gravatar_id": "",
    "url": "https://api.github.com/users/purbon",
    "html_url": "https://github.com/purbon",
    "followers_url": "https://api.github.com/users/purbon/followers",
    "following_url": "https://api.github.com/users/purbon/following{/other_user}",
    "gists_url": "https://api.github.com/users/purbon/gists{/gist_id}",
    "starred_url": "https://api.github.com/users/purbon/starred{/owner}{/repo}",
    "subscriptions_url": "https://api.github.com/users/purbon/subscriptions",
    "organizations_url": "https://api.github.com/users/purbon/orgs",
    "repos_url": "https://api.github.com/users/purbon/repos",
    "events_url": "https://api.github.com/users/purbon/events{/privacy}",
    "received_events_url": "https://api.github.com/users/purbon/received_events",
    "type": "User",
    "site_admin": false
  },
  "created_at": "2015-06-01T13:51:48Z",
  "updated_at": "2015-06-01T13:51:48Z",
  "body": "@johntdyer This looks to me like a known SSL problem [1], you should probably update your java7 version to use the last build and see if it works for you. Let me know your findings. \r\n\r\n[1] http://bugs.java.com/bugdatabase/view_bug.do?bug_id=7044060"
}
, {
  "url": "https://api.github.com/repos/elastic/logstash/issues/comments/113783459",
  "html_url": "https://github.com/elastic/logstash/issues/3354#issuecomment-113783459",
  "issue_url": "https://api.github.com/repos/elastic/logstash/issues/3354",
  "id": 113783459,
  "user": {
    "login": "johntdyer",
    "id": 58234,
    "avatar_url": "https://avatars.githubusercontent.com/u/58234?v=3",
    "gravatar_id": "",
    "url": "https://api.github.com/users/johntdyer",
    "html_url": "https://github.com/johntdyer",
    "followers_url": "https://api.github.com/users/johntdyer/followers",
    "following_url": "https://api.github.com/users/johntdyer/following{/other_user}",
    "gists_url": "https://api.github.com/users/johntdyer/gists{/gist_id}",
    "starred_url": "https://api.github.com/users/johntdyer/starred{/owner}{/repo}",
    "subscriptions_url": "https://api.github.com/users/johntdyer/subscriptions",
    "organizations_url": "https://api.github.com/users/johntdyer/orgs",
    "repos_url": "https://api.github.com/users/johntdyer/repos",
    "events_url": "https://api.github.com/users/johntdyer/events{/privacy}",
    "received_events_url": "https://api.github.com/users/johntdyer/received_events",
    "type": "User",
    "site_admin": false
  },
  "created_at": "2015-06-20T15:39:30Z",
  "updated_at": "2015-06-20T15:39:30Z",
  "body": "Hello,\r\n\r\n   I upgraded to JRE 1.8 and havn't seen the issue since.  \r\n\r\n-John"
}
, {
  "url": "https://api.github.com/repos/elastic/logstash/issues/comments/113792064",
  "html_url": "https://github.com/elastic/logstash/issues/3354#issuecomment-113792064",
  "issue_url": "https://api.github.com/repos/elastic/logstash/issues/3354",
  "id": 113792064,
  "user": {
    "login": "purbon",
    "id": 68540,
    "avatar_url": "https://avatars.githubusercontent.com/u/68540?v=3",
    "gravatar_id": "",
    "url": "https://api.github.com/users/purbon",
    "html_url": "https://github.com/purbon",
    "followers_url": "https://api.github.com/users/purbon/followers",
    "following_url": "https://api.github.com/users/purbon/following{/other_user}",
    "gists_url": "https://api.github.com/users/purbon/gists{/gist_id}",
    "starred_url": "https://api.github.com/users/purbon/starred{/owner}{/repo}",
    "subscriptions_url": "https://api.github.com/users/purbon/subscriptions",
    "organizations_url": "https://api.github.com/users/purbon/orgs",
    "repos_url": "https://api.github.com/users/purbon/repos",
    "events_url": "https://api.github.com/users/purbon/events{/privacy}",
    "received_events_url": "https://api.github.com/users/purbon/received_events",
    "type": "User",
    "site_admin": false
  },
  "created_at": "2015-06-20T17:30:14Z",
  "updated_at": "2015-06-20T17:30:14Z",
  "body": "@johntdyer makes sense,  I guess best way to get this arranged is people should use an updated version of the jvm. So I will proceed to close this issue. Thanks for reporting back."
}
]
