[
{
  "url": "https://api.github.com/repos/elastic/logstash/issues/comments/127774318",
  "html_url": "https://github.com/elastic/logstash/issues/3698#issuecomment-127774318",
  "issue_url": "https://api.github.com/repos/elastic/logstash/issues/3698",
  "id": 127774318,
  "user": {
    "login": "andrewvc",
    "id": 131427,
    "avatar_url": "https://avatars.githubusercontent.com/u/131427?v=3",
    "gravatar_id": "",
    "url": "https://api.github.com/users/andrewvc",
    "html_url": "https://github.com/andrewvc",
    "followers_url": "https://api.github.com/users/andrewvc/followers",
    "following_url": "https://api.github.com/users/andrewvc/following{/other_user}",
    "gists_url": "https://api.github.com/users/andrewvc/gists{/gist_id}",
    "starred_url": "https://api.github.com/users/andrewvc/starred{/owner}{/repo}",
    "subscriptions_url": "https://api.github.com/users/andrewvc/subscriptions",
    "organizations_url": "https://api.github.com/users/andrewvc/orgs",
    "repos_url": "https://api.github.com/users/andrewvc/repos",
    "events_url": "https://api.github.com/users/andrewvc/events{/privacy}",
    "received_events_url": "https://api.github.com/users/andrewvc/received_events",
    "type": "User",
    "site_admin": false
  },
  "created_at": "2015-08-04T21:58:38Z",
  "updated_at": "2015-08-04T21:58:38Z",
  "body": "Fixed in #3699"
}
]
