[
{
  "url": "https://api.github.com/repos/elastic/logstash/issues/comments/95470538",
  "html_url": "https://github.com/elastic/logstash/pull/3093#issuecomment-95470538",
  "issue_url": "https://api.github.com/repos/elastic/logstash/issues/3093",
  "id": 95470538,
  "user": {
    "login": "elasticsearch-release",
    "id": 6044169,
    "avatar_url": "https://avatars.githubusercontent.com/u/6044169?v=3",
    "gravatar_id": "",
    "url": "https://api.github.com/users/elasticsearch-release",
    "html_url": "https://github.com/elasticsearch-release",
    "followers_url": "https://api.github.com/users/elasticsearch-release/followers",
    "following_url": "https://api.github.com/users/elasticsearch-release/following{/other_user}",
    "gists_url": "https://api.github.com/users/elasticsearch-release/gists{/gist_id}",
    "starred_url": "https://api.github.com/users/elasticsearch-release/starred{/owner}{/repo}",
    "subscriptions_url": "https://api.github.com/users/elasticsearch-release/subscriptions",
    "organizations_url": "https://api.github.com/users/elasticsearch-release/orgs",
    "repos_url": "https://api.github.com/users/elasticsearch-release/repos",
    "events_url": "https://api.github.com/users/elasticsearch-release/events{/privacy}",
    "received_events_url": "https://api.github.com/users/elasticsearch-release/received_events",
    "type": "User",
    "site_admin": false
  },
  "created_at": "2015-04-23T07:10:36Z",
  "updated_at": "2015-04-23T07:10:36Z",
  "body": "Jenkins standing by to test this. If you aren't a maintainer, you can ignore this comment. Someone with commit access, please review this and clear it for Jenkins to run; then  say 'jenkins, test it'. "
}
, {
  "url": "https://api.github.com/repos/elastic/logstash/issues/comments/97585139",
  "html_url": "https://github.com/elastic/logstash/pull/3093#issuecomment-97585139",
  "issue_url": "https://api.github.com/repos/elastic/logstash/issues/3093",
  "id": 97585139,
  "user": {
    "login": "manavkataria",
    "id": 2206789,
    "avatar_url": "https://avatars.githubusercontent.com/u/2206789?v=3",
    "gravatar_id": "",
    "url": "https://api.github.com/users/manavkataria",
    "html_url": "https://github.com/manavkataria",
    "followers_url": "https://api.github.com/users/manavkataria/followers",
    "following_url": "https://api.github.com/users/manavkataria/following{/other_user}",
    "gists_url": "https://api.github.com/users/manavkataria/gists{/gist_id}",
    "starred_url": "https://api.github.com/users/manavkataria/starred{/owner}{/repo}",
    "subscriptions_url": "https://api.github.com/users/manavkataria/subscriptions",
    "organizations_url": "https://api.github.com/users/manavkataria/orgs",
    "repos_url": "https://api.github.com/users/manavkataria/repos",
    "events_url": "https://api.github.com/users/manavkataria/events{/privacy}",
    "received_events_url": "https://api.github.com/users/manavkataria/received_events",
    "type": "User",
    "site_admin": false
  },
  "created_at": "2015-04-29T21:03:48Z",
  "updated_at": "2015-04-29T21:05:48Z",
  "body": "@elasticsearch-release  I've signed the CLA now. Trying to figure out how to refresh this pull-request."
}
, {
  "url": "https://api.github.com/repos/elastic/logstash/issues/comments/110962071",
  "html_url": "https://github.com/elastic/logstash/pull/3093#issuecomment-110962071",
  "issue_url": "https://api.github.com/repos/elastic/logstash/issues/3093",
  "id": 110962071,
  "user": {
    "login": "suyograo",
    "id": 1595958,
    "avatar_url": "https://avatars.githubusercontent.com/u/1595958?v=3",
    "gravatar_id": "",
    "url": "https://api.github.com/users/suyograo",
    "html_url": "https://github.com/suyograo",
    "followers_url": "https://api.github.com/users/suyograo/followers",
    "following_url": "https://api.github.com/users/suyograo/following{/other_user}",
    "gists_url": "https://api.github.com/users/suyograo/gists{/gist_id}",
    "starred_url": "https://api.github.com/users/suyograo/starred{/owner}{/repo}",
    "subscriptions_url": "https://api.github.com/users/suyograo/subscriptions",
    "organizations_url": "https://api.github.com/users/suyograo/orgs",
    "repos_url": "https://api.github.com/users/suyograo/repos",
    "events_url": "https://api.github.com/users/suyograo/events{/privacy}",
    "received_events_url": "https://api.github.com/users/suyograo/received_events",
    "type": "User",
    "site_admin": false
  },
  "created_at": "2015-06-11T01:24:16Z",
  "updated_at": "2015-06-11T01:24:16Z",
  "body": "@manavkataria you can force push an update using `git push origin -f <branch_name>`"
}
, {
  "url": "https://api.github.com/repos/elastic/logstash/issues/comments/121070219",
  "html_url": "https://github.com/elastic/logstash/pull/3093#issuecomment-121070219",
  "issue_url": "https://api.github.com/repos/elastic/logstash/issues/3093",
  "id": 121070219,
  "user": {
    "login": "jordansissel",
    "id": 131818,
    "avatar_url": "https://avatars.githubusercontent.com/u/131818?v=3",
    "gravatar_id": "",
    "url": "https://api.github.com/users/jordansissel",
    "html_url": "https://github.com/jordansissel",
    "followers_url": "https://api.github.com/users/jordansissel/followers",
    "following_url": "https://api.github.com/users/jordansissel/following{/other_user}",
    "gists_url": "https://api.github.com/users/jordansissel/gists{/gist_id}",
    "starred_url": "https://api.github.com/users/jordansissel/starred{/owner}{/repo}",
    "subscriptions_url": "https://api.github.com/users/jordansissel/subscriptions",
    "organizations_url": "https://api.github.com/users/jordansissel/orgs",
    "repos_url": "https://api.github.com/users/jordansissel/repos",
    "events_url": "https://api.github.com/users/jordansissel/events{/privacy}",
    "received_events_url": "https://api.github.com/users/jordansissel/received_events",
    "type": "User",
    "site_admin": false
  },
  "created_at": "2015-07-13T21:46:11Z",
  "updated_at": "2015-07-13T21:46:11Z",
  "body": "I think this file only is used in 1.4 branch, 1.5+ uses asciidoc only and this tutorial was merged into others."
}
, {
  "url": "https://api.github.com/repos/elastic/logstash/issues/comments/121071667",
  "html_url": "https://github.com/elastic/logstash/pull/3093#issuecomment-121071667",
  "issue_url": "https://api.github.com/repos/elastic/logstash/issues/3093",
  "id": 121071667,
  "user": {
    "login": "elasticsearch-bot",
    "id": 9386276,
    "avatar_url": "https://avatars.githubusercontent.com/u/9386276?v=3",
    "gravatar_id": "",
    "url": "https://api.github.com/users/elasticsearch-bot",
    "html_url": "https://github.com/elasticsearch-bot",
    "followers_url": "https://api.github.com/users/elasticsearch-bot/followers",
    "following_url": "https://api.github.com/users/elasticsearch-bot/following{/other_user}",
    "gists_url": "https://api.github.com/users/elasticsearch-bot/gists{/gist_id}",
    "starred_url": "https://api.github.com/users/elasticsearch-bot/starred{/owner}{/repo}",
    "subscriptions_url": "https://api.github.com/users/elasticsearch-bot/subscriptions",
    "organizations_url": "https://api.github.com/users/elasticsearch-bot/orgs",
    "repos_url": "https://api.github.com/users/elasticsearch-bot/repos",
    "events_url": "https://api.github.com/users/elasticsearch-bot/events{/privacy}",
    "received_events_url": "https://api.github.com/users/elasticsearch-bot/received_events",
    "type": "User",
    "site_admin": false
  },
  "created_at": "2015-07-13T21:49:22Z",
  "updated_at": "2015-07-13T21:49:22Z",
  "body": "Merged sucessfully into 1.4!"
}
, {
  "url": "https://api.github.com/repos/elastic/logstash/issues/comments/121826375",
  "html_url": "https://github.com/elastic/logstash/pull/3093#issuecomment-121826375",
  "issue_url": "https://api.github.com/repos/elastic/logstash/issues/3093",
  "id": 121826375,
  "user": {
    "login": "manavkataria",
    "id": 2206789,
    "avatar_url": "https://avatars.githubusercontent.com/u/2206789?v=3",
    "gravatar_id": "",
    "url": "https://api.github.com/users/manavkataria",
    "html_url": "https://github.com/manavkataria",
    "followers_url": "https://api.github.com/users/manavkataria/followers",
    "following_url": "https://api.github.com/users/manavkataria/following{/other_user}",
    "gists_url": "https://api.github.com/users/manavkataria/gists{/gist_id}",
    "starred_url": "https://api.github.com/users/manavkataria/starred{/owner}{/repo}",
    "subscriptions_url": "https://api.github.com/users/manavkataria/subscriptions",
    "organizations_url": "https://api.github.com/users/manavkataria/orgs",
    "repos_url": "https://api.github.com/users/manavkataria/repos",
    "events_url": "https://api.github.com/users/manavkataria/events{/privacy}",
    "received_events_url": "https://api.github.com/users/manavkataria/received_events",
    "type": "User",
    "site_admin": false
  },
  "created_at": "2015-07-16T04:34:50Z",
  "updated_at": "2015-07-16T04:36:51Z",
  "body": "@jordansissel I see hello-search.conf in 1.5 tree - Is this update required in 1.5 as well?"
}
, {
  "url": "https://api.github.com/repos/elastic/logstash/issues/comments/121864922",
  "html_url": "https://github.com/elastic/logstash/pull/3093#issuecomment-121864922",
  "issue_url": "https://api.github.com/repos/elastic/logstash/issues/3093",
  "id": 121864922,
  "user": {
    "login": "jordansissel",
    "id": 131818,
    "avatar_url": "https://avatars.githubusercontent.com/u/131818?v=3",
    "gravatar_id": "",
    "url": "https://api.github.com/users/jordansissel",
    "html_url": "https://github.com/jordansissel",
    "followers_url": "https://api.github.com/users/jordansissel/followers",
    "following_url": "https://api.github.com/users/jordansissel/following{/other_user}",
    "gists_url": "https://api.github.com/users/jordansissel/gists{/gist_id}",
    "starred_url": "https://api.github.com/users/jordansissel/starred{/owner}{/repo}",
    "subscriptions_url": "https://api.github.com/users/jordansissel/subscriptions",
    "organizations_url": "https://api.github.com/users/jordansissel/orgs",
    "repos_url": "https://api.github.com/users/jordansissel/repos",
    "events_url": "https://api.github.com/users/jordansissel/events{/privacy}",
    "received_events_url": "https://api.github.com/users/jordansissel/received_events",
    "type": "User",
    "site_admin": false
  },
  "created_at": "2015-07-16T07:40:58Z",
  "updated_at": "2015-07-16T07:40:58Z",
  "body": "@manavkataria the documentation doesn't refer to that anymore. In 1.5 and master we should probably just delete the old content."
}
, {
  "url": "https://api.github.com/repos/elastic/logstash/issues/comments/122024893",
  "html_url": "https://github.com/elastic/logstash/pull/3093#issuecomment-122024893",
  "issue_url": "https://api.github.com/repos/elastic/logstash/issues/3093",
  "id": 122024893,
  "user": {
    "login": "manavkataria",
    "id": 2206789,
    "avatar_url": "https://avatars.githubusercontent.com/u/2206789?v=3",
    "gravatar_id": "",
    "url": "https://api.github.com/users/manavkataria",
    "html_url": "https://github.com/manavkataria",
    "followers_url": "https://api.github.com/users/manavkataria/followers",
    "following_url": "https://api.github.com/users/manavkataria/following{/other_user}",
    "gists_url": "https://api.github.com/users/manavkataria/gists{/gist_id}",
    "starred_url": "https://api.github.com/users/manavkataria/starred{/owner}{/repo}",
    "subscriptions_url": "https://api.github.com/users/manavkataria/subscriptions",
    "organizations_url": "https://api.github.com/users/manavkataria/orgs",
    "repos_url": "https://api.github.com/users/manavkataria/repos",
    "events_url": "https://api.github.com/users/manavkataria/events{/privacy}",
    "received_events_url": "https://api.github.com/users/manavkataria/received_events",
    "type": "User",
    "site_admin": false
  },
  "created_at": "2015-07-16T17:12:17Z",
  "updated_at": "2015-07-16T17:12:17Z",
  "body": "@jordansissel Agreed, that should avoid any confusion."
}
]
