[
{
  "url": "https://api.github.com/repos/elastic/logstash/issues/comments/71201289",
  "html_url": "https://github.com/elastic/logstash/issues/1269#issuecomment-71201289",
  "issue_url": "https://api.github.com/repos/elastic/logstash/issues/1269",
  "id": 71201289,
  "user": {
    "login": "jsvd",
    "id": 31809,
    "avatar_url": "https://avatars.githubusercontent.com/u/31809?v=3",
    "gravatar_id": "",
    "url": "https://api.github.com/users/jsvd",
    "html_url": "https://github.com/jsvd",
    "followers_url": "https://api.github.com/users/jsvd/followers",
    "following_url": "https://api.github.com/users/jsvd/following{/other_user}",
    "gists_url": "https://api.github.com/users/jsvd/gists{/gist_id}",
    "starred_url": "https://api.github.com/users/jsvd/starred{/owner}{/repo}",
    "subscriptions_url": "https://api.github.com/users/jsvd/subscriptions",
    "organizations_url": "https://api.github.com/users/jsvd/orgs",
    "repos_url": "https://api.github.com/users/jsvd/repos",
    "events_url": "https://api.github.com/users/jsvd/events{/privacy}",
    "received_events_url": "https://api.github.com/users/jsvd/received_events",
    "type": "User",
    "site_admin": false
  },
  "created_at": "2015-01-23T14:35:30Z",
  "updated_at": "2015-01-23T14:35:30Z",
  "body": "I don't really see a benefit in this case of using the file input plugin. You'd probably be better off having your scripts do:\r\n\r\n```\r\n# download files\r\ncurl ...\r\n# process logstash batch of files\r\ncat logs/* | bin/logstash -f logstash.conf\r\n```\r\n\r\nIf this is insufficient please reopen the issue :)"
}
]
