[
{
  "url": "https://api.github.com/repos/elastic/logstash/issues/comments/43162593",
  "html_url": "https://github.com/elastic/logstash/pull/1377#issuecomment-43162593",
  "issue_url": "https://api.github.com/repos/elastic/logstash/issues/1377",
  "id": 43162593,
  "user": {
    "login": "colinsurprenant",
    "id": 2010,
    "avatar_url": "https://avatars.githubusercontent.com/u/2010?v=3",
    "gravatar_id": "",
    "url": "https://api.github.com/users/colinsurprenant",
    "html_url": "https://github.com/colinsurprenant",
    "followers_url": "https://api.github.com/users/colinsurprenant/followers",
    "following_url": "https://api.github.com/users/colinsurprenant/following{/other_user}",
    "gists_url": "https://api.github.com/users/colinsurprenant/gists{/gist_id}",
    "starred_url": "https://api.github.com/users/colinsurprenant/starred{/owner}{/repo}",
    "subscriptions_url": "https://api.github.com/users/colinsurprenant/subscriptions",
    "organizations_url": "https://api.github.com/users/colinsurprenant/orgs",
    "repos_url": "https://api.github.com/users/colinsurprenant/repos",
    "events_url": "https://api.github.com/users/colinsurprenant/events{/privacy}",
    "received_events_url": "https://api.github.com/users/colinsurprenant/received_events",
    "type": "User",
    "site_admin": false
  },
  "created_at": "2014-05-15T02:26:18Z",
  "updated_at": "2014-05-15T02:26:18Z",
  "body": "yes, excellent, let's get rid of those hardcoded paths.\r\n\r\nsuggestion: wouldn't `home_path` be more descriptive than `relative_path`? also, I think I would add `plugin_path` to end up with something like\r\n```ruby\r\nLogStash::Environment.plugins_path(\"codecs/netflow/netflow.yaml\")\r\n```\r\n\r\nand maybe also add `patterns_path` for \r\n```ruby\r\nLogStash::Environment.patterns_path(\"*\")\r\n```\r\n\r\nthis idea is to remove as much as possible hard-coded paths so that if we ever want to refactor the directory structure there is only one place to change. "
}
, {
  "url": "https://api.github.com/repos/elastic/logstash/issues/comments/43207787",
  "html_url": "https://github.com/elastic/logstash/pull/1377#issuecomment-43207787",
  "issue_url": "https://api.github.com/repos/elastic/logstash/issues/1377",
  "id": 43207787,
  "user": {
    "login": "untergeek",
    "id": 1020383,
    "avatar_url": "https://avatars.githubusercontent.com/u/1020383?v=3",
    "gravatar_id": "",
    "url": "https://api.github.com/users/untergeek",
    "html_url": "https://github.com/untergeek",
    "followers_url": "https://api.github.com/users/untergeek/followers",
    "following_url": "https://api.github.com/users/untergeek/following{/other_user}",
    "gists_url": "https://api.github.com/users/untergeek/gists{/gist_id}",
    "starred_url": "https://api.github.com/users/untergeek/starred{/owner}{/repo}",
    "subscriptions_url": "https://api.github.com/users/untergeek/subscriptions",
    "organizations_url": "https://api.github.com/users/untergeek/orgs",
    "repos_url": "https://api.github.com/users/untergeek/repos",
    "events_url": "https://api.github.com/users/untergeek/events{/privacy}",
    "received_events_url": "https://api.github.com/users/untergeek/received_events",
    "type": "User",
    "site_admin": false
  },
  "created_at": "2014-05-15T13:19:31Z",
  "updated_at": "2014-05-15T13:19:31Z",
  "body": "I like the idea.  The methods are certainly simple enough to warrant multiples for these cases (patterns & plugins)"
}
, {
  "url": "https://api.github.com/repos/elastic/logstash/issues/comments/43290869",
  "html_url": "https://github.com/elastic/logstash/pull/1377#issuecomment-43290869",
  "issue_url": "https://api.github.com/repos/elastic/logstash/issues/1377",
  "id": 43290869,
  "user": {
    "login": "colinsurprenant",
    "id": 2010,
    "avatar_url": "https://avatars.githubusercontent.com/u/2010?v=3",
    "gravatar_id": "",
    "url": "https://api.github.com/users/colinsurprenant",
    "html_url": "https://github.com/colinsurprenant",
    "followers_url": "https://api.github.com/users/colinsurprenant/followers",
    "following_url": "https://api.github.com/users/colinsurprenant/following{/other_user}",
    "gists_url": "https://api.github.com/users/colinsurprenant/gists{/gist_id}",
    "starred_url": "https://api.github.com/users/colinsurprenant/starred{/owner}{/repo}",
    "subscriptions_url": "https://api.github.com/users/colinsurprenant/subscriptions",
    "organizations_url": "https://api.github.com/users/colinsurprenant/orgs",
    "repos_url": "https://api.github.com/users/colinsurprenant/repos",
    "events_url": "https://api.github.com/users/colinsurprenant/events{/privacy}",
    "received_events_url": "https://api.github.com/users/colinsurprenant/received_events",
    "type": "User",
    "site_admin": false
  },
  "created_at": "2014-05-16T03:00:59Z",
  "updated_at": "2014-05-16T03:00:59Z",
  "body": "LGTM!"
}
]
