[
{
  "url": "https://api.github.com/repos/elastic/logstash/issues/comments/68341027",
  "html_url": "https://github.com/elastic/logstash/pull/2294#issuecomment-68341027",
  "issue_url": "https://api.github.com/repos/elastic/logstash/issues/2294",
  "id": 68341027,
  "user": {
    "login": "purbon",
    "id": 68540,
    "avatar_url": "https://avatars.githubusercontent.com/u/68540?v=3",
    "gravatar_id": "",
    "url": "https://api.github.com/users/purbon",
    "html_url": "https://github.com/purbon",
    "followers_url": "https://api.github.com/users/purbon/followers",
    "following_url": "https://api.github.com/users/purbon/following{/other_user}",
    "gists_url": "https://api.github.com/users/purbon/gists{/gist_id}",
    "starred_url": "https://api.github.com/users/purbon/starred{/owner}{/repo}",
    "subscriptions_url": "https://api.github.com/users/purbon/subscriptions",
    "organizations_url": "https://api.github.com/users/purbon/orgs",
    "repos_url": "https://api.github.com/users/purbon/repos",
    "events_url": "https://api.github.com/users/purbon/events{/privacy}",
    "received_events_url": "https://api.github.com/users/purbon/received_events",
    "type": "User",
    "site_admin": false
  },
  "created_at": "2014-12-30T09:16:09Z",
  "updated_at": "2014-12-30T09:16:09Z",
  "body": "LGTM"
}
, {
  "url": "https://api.github.com/repos/elastic/logstash/issues/comments/68341411",
  "html_url": "https://github.com/elastic/logstash/pull/2294#issuecomment-68341411",
  "issue_url": "https://api.github.com/repos/elastic/logstash/issues/2294",
  "id": 68341411,
  "user": {
    "login": "elasticsearch-release",
    "id": 6044169,
    "avatar_url": "https://avatars.githubusercontent.com/u/6044169?v=3",
    "gravatar_id": "",
    "url": "https://api.github.com/users/elasticsearch-release",
    "html_url": "https://github.com/elasticsearch-release",
    "followers_url": "https://api.github.com/users/elasticsearch-release/followers",
    "following_url": "https://api.github.com/users/elasticsearch-release/following{/other_user}",
    "gists_url": "https://api.github.com/users/elasticsearch-release/gists{/gist_id}",
    "starred_url": "https://api.github.com/users/elasticsearch-release/starred{/owner}{/repo}",
    "subscriptions_url": "https://api.github.com/users/elasticsearch-release/subscriptions",
    "organizations_url": "https://api.github.com/users/elasticsearch-release/orgs",
    "repos_url": "https://api.github.com/users/elasticsearch-release/repos",
    "events_url": "https://api.github.com/users/elasticsearch-release/events{/privacy}",
    "received_events_url": "https://api.github.com/users/elasticsearch-release/received_events",
    "type": "User",
    "site_admin": false
  },
  "created_at": "2014-12-30T09:24:57Z",
  "updated_at": "2014-12-30T09:24:57Z",
  "body": "Test PASSed.\nRefer to this link for build results (access rights to CI server needed): \nhttp://build-eu-00.elasticsearch.org//job/Logstash_PR/379/\nTest PASSed."
}
, {
  "url": "https://api.github.com/repos/elastic/logstash/issues/comments/68341579",
  "html_url": "https://github.com/elastic/logstash/pull/2294#issuecomment-68341579",
  "issue_url": "https://api.github.com/repos/elastic/logstash/issues/2294",
  "id": 68341579,
  "user": {
    "login": "elasticsearch-bot",
    "id": 9386276,
    "avatar_url": "https://avatars.githubusercontent.com/u/9386276?v=3",
    "gravatar_id": "",
    "url": "https://api.github.com/users/elasticsearch-bot",
    "html_url": "https://github.com/elasticsearch-bot",
    "followers_url": "https://api.github.com/users/elasticsearch-bot/followers",
    "following_url": "https://api.github.com/users/elasticsearch-bot/following{/other_user}",
    "gists_url": "https://api.github.com/users/elasticsearch-bot/gists{/gist_id}",
    "starred_url": "https://api.github.com/users/elasticsearch-bot/starred{/owner}{/repo}",
    "subscriptions_url": "https://api.github.com/users/elasticsearch-bot/subscriptions",
    "organizations_url": "https://api.github.com/users/elasticsearch-bot/orgs",
    "repos_url": "https://api.github.com/users/elasticsearch-bot/repos",
    "events_url": "https://api.github.com/users/elasticsearch-bot/events{/privacy}",
    "received_events_url": "https://api.github.com/users/elasticsearch-bot/received_events",
    "type": "User",
    "site_admin": false
  },
  "created_at": "2014-12-30T09:28:10Z",
  "updated_at": "2014-12-30T09:28:10Z",
  "body": "Merged sucessfully into master 1.5!"
}
]
