[
{
  "url": "https://api.github.com/repos/elastic/logstash/issues/comments/38258965",
  "html_url": "https://github.com/elastic/logstash/pull/1190#issuecomment-38258965",
  "issue_url": "https://api.github.com/repos/elastic/logstash/issues/1190",
  "id": 38258965,
  "user": {
    "login": "electrical",
    "id": 271677,
    "avatar_url": "https://avatars.githubusercontent.com/u/271677?v=3",
    "gravatar_id": "",
    "url": "https://api.github.com/users/electrical",
    "html_url": "https://github.com/electrical",
    "followers_url": "https://api.github.com/users/electrical/followers",
    "following_url": "https://api.github.com/users/electrical/following{/other_user}",
    "gists_url": "https://api.github.com/users/electrical/gists{/gist_id}",
    "starred_url": "https://api.github.com/users/electrical/starred{/owner}{/repo}",
    "subscriptions_url": "https://api.github.com/users/electrical/subscriptions",
    "organizations_url": "https://api.github.com/users/electrical/orgs",
    "repos_url": "https://api.github.com/users/electrical/repos",
    "events_url": "https://api.github.com/users/electrical/events{/privacy}",
    "received_events_url": "https://api.github.com/users/electrical/received_events",
    "type": "User",
    "site_admin": false
  },
  "created_at": "2014-03-21T09:12:46Z",
  "updated_at": "2014-03-21T09:12:46Z",
  "body": "Oh that is very nice improvements indeed! :-)"
}
, {
  "url": "https://api.github.com/repos/elastic/logstash/issues/comments/38258993",
  "html_url": "https://github.com/elastic/logstash/pull/1190#issuecomment-38258993",
  "issue_url": "https://api.github.com/repos/elastic/logstash/issues/1190",
  "id": 38258993,
  "user": {
    "login": "electrical",
    "id": 271677,
    "avatar_url": "https://avatars.githubusercontent.com/u/271677?v=3",
    "gravatar_id": "",
    "url": "https://api.github.com/users/electrical",
    "html_url": "https://github.com/electrical",
    "followers_url": "https://api.github.com/users/electrical/followers",
    "following_url": "https://api.github.com/users/electrical/following{/other_user}",
    "gists_url": "https://api.github.com/users/electrical/gists{/gist_id}",
    "starred_url": "https://api.github.com/users/electrical/starred{/owner}{/repo}",
    "subscriptions_url": "https://api.github.com/users/electrical/subscriptions",
    "organizations_url": "https://api.github.com/users/electrical/orgs",
    "repos_url": "https://api.github.com/users/electrical/repos",
    "events_url": "https://api.github.com/users/electrical/events{/privacy}",
    "received_events_url": "https://api.github.com/users/electrical/received_events",
    "type": "User",
    "site_admin": false
  },
  "created_at": "2014-03-21T09:13:10Z",
  "updated_at": "2014-03-21T09:13:10Z",
  "body": "Think we will have this in for LS 1.4.1"
}
]
