[
{
  "url": "https://api.github.com/repos/Netflix/asgard/issues/comments/42374315",
  "html_url": "https://github.com/Netflix/asgard/issues/551#issuecomment-42374315",
  "issue_url": "https://api.github.com/repos/Netflix/asgard/issues/551",
  "id": 42374315,
  "user": {
    "login": "rayrod2030",
    "id": 719334,
    "avatar_url": "https://avatars.githubusercontent.com/u/719334?v=3",
    "gravatar_id": "",
    "url": "https://api.github.com/users/rayrod2030",
    "html_url": "https://github.com/rayrod2030",
    "followers_url": "https://api.github.com/users/rayrod2030/followers",
    "following_url": "https://api.github.com/users/rayrod2030/following{/other_user}",
    "gists_url": "https://api.github.com/users/rayrod2030/gists{/gist_id}",
    "starred_url": "https://api.github.com/users/rayrod2030/starred{/owner}{/repo}",
    "subscriptions_url": "https://api.github.com/users/rayrod2030/subscriptions",
    "organizations_url": "https://api.github.com/users/rayrod2030/orgs",
    "repos_url": "https://api.github.com/users/rayrod2030/repos",
    "events_url": "https://api.github.com/users/rayrod2030/events{/privacy}",
    "received_events_url": "https://api.github.com/users/rayrod2030/received_events",
    "type": "User",
    "site_admin": false
  },
  "created_at": "2014-05-06T23:56:09Z",
  "updated_at": "2014-05-06T23:56:09Z",
  "body": "+1"
}
, {
  "url": "https://api.github.com/repos/Netflix/asgard/issues/comments/44944733",
  "html_url": "https://github.com/Netflix/asgard/issues/551#issuecomment-44944733",
  "issue_url": "https://api.github.com/repos/Netflix/asgard/issues/551",
  "id": 44944733,
  "user": {
    "login": "amohrhard",
    "id": 572513,
    "avatar_url": "https://avatars.githubusercontent.com/u/572513?v=3",
    "gravatar_id": "",
    "url": "https://api.github.com/users/amohrhard",
    "html_url": "https://github.com/amohrhard",
    "followers_url": "https://api.github.com/users/amohrhard/followers",
    "following_url": "https://api.github.com/users/amohrhard/following{/other_user}",
    "gists_url": "https://api.github.com/users/amohrhard/gists{/gist_id}",
    "starred_url": "https://api.github.com/users/amohrhard/starred{/owner}{/repo}",
    "subscriptions_url": "https://api.github.com/users/amohrhard/subscriptions",
    "organizations_url": "https://api.github.com/users/amohrhard/orgs",
    "repos_url": "https://api.github.com/users/amohrhard/repos",
    "events_url": "https://api.github.com/users/amohrhard/events{/privacy}",
    "received_events_url": "https://api.github.com/users/amohrhard/received_events",
    "type": "User",
    "site_admin": false
  },
  "created_at": "2014-06-03T09:52:41Z",
  "updated_at": "2014-06-03T09:52:41Z",
  "body": "+1, we are doing some heavy duty processing that requires direct access to S3 - without going through a nat instance."
}
, {
  "url": "https://api.github.com/repos/Netflix/asgard/issues/comments/55380579",
  "html_url": "https://github.com/Netflix/asgard/issues/551#issuecomment-55380579",
  "issue_url": "https://api.github.com/repos/Netflix/asgard/issues/551",
  "id": 55380579,
  "user": {
    "login": "teu",
    "id": 589133,
    "avatar_url": "https://avatars.githubusercontent.com/u/589133?v=3",
    "gravatar_id": "",
    "url": "https://api.github.com/users/teu",
    "html_url": "https://github.com/teu",
    "followers_url": "https://api.github.com/users/teu/followers",
    "following_url": "https://api.github.com/users/teu/following{/other_user}",
    "gists_url": "https://api.github.com/users/teu/gists{/gist_id}",
    "starred_url": "https://api.github.com/users/teu/starred{/owner}{/repo}",
    "subscriptions_url": "https://api.github.com/users/teu/subscriptions",
    "organizations_url": "https://api.github.com/users/teu/orgs",
    "repos_url": "https://api.github.com/users/teu/repos",
    "events_url": "https://api.github.com/users/teu/events{/privacy}",
    "received_events_url": "https://api.github.com/users/teu/received_events",
    "type": "User",
    "site_admin": false
  },
  "created_at": "2014-09-12T09:32:32Z",
  "updated_at": "2014-09-12T09:32:32Z",
  "body": "Hi @sommestad,\r\n\r\nI was working on this a while back but had difficulties receiving help, not an grails expert, https://github.com/teu/asgard/tree/vpc_public_ips\r\nPerhaps you can persuade someone to fix the tests.\r\nThanks"
}
, {
  "url": "https://api.github.com/repos/Netflix/asgard/issues/comments/55556875",
  "html_url": "https://github.com/Netflix/asgard/issues/551#issuecomment-55556875",
  "issue_url": "https://api.github.com/repos/Netflix/asgard/issues/551",
  "id": 55556875,
  "user": {
    "login": "sommestad",
    "id": 61638,
    "avatar_url": "https://avatars.githubusercontent.com/u/61638?v=3",
    "gravatar_id": "",
    "url": "https://api.github.com/users/sommestad",
    "html_url": "https://github.com/sommestad",
    "followers_url": "https://api.github.com/users/sommestad/followers",
    "following_url": "https://api.github.com/users/sommestad/following{/other_user}",
    "gists_url": "https://api.github.com/users/sommestad/gists{/gist_id}",
    "starred_url": "https://api.github.com/users/sommestad/starred{/owner}{/repo}",
    "subscriptions_url": "https://api.github.com/users/sommestad/subscriptions",
    "organizations_url": "https://api.github.com/users/sommestad/orgs",
    "repos_url": "https://api.github.com/users/sommestad/repos",
    "events_url": "https://api.github.com/users/sommestad/events{/privacy}",
    "received_events_url": "https://api.github.com/users/sommestad/received_events",
    "type": "User",
    "site_admin": false
  },
  "created_at": "2014-09-15T06:39:58Z",
  "updated_at": "2014-09-15T06:39:58Z",
  "body": "Nice, @teu. Not a Grails man myself either, but might be able to dig into it."
}
]
