[
{
  "url": "https://api.github.com/repos/alibaba/AndFix/issues/comments/173505135",
  "html_url": "https://github.com/alibaba/AndFix/issues/123#issuecomment-173505135",
  "issue_url": "https://api.github.com/repos/alibaba/AndFix/issues/123",
  "id": 173505135,
  "user": {
    "login": "happycodinggirl",
    "id": 6166079,
    "avatar_url": "https://avatars.githubusercontent.com/u/6166079?v=3",
    "gravatar_id": "",
    "url": "https://api.github.com/users/happycodinggirl",
    "html_url": "https://github.com/happycodinggirl",
    "followers_url": "https://api.github.com/users/happycodinggirl/followers",
    "following_url": "https://api.github.com/users/happycodinggirl/following{/other_user}",
    "gists_url": "https://api.github.com/users/happycodinggirl/gists{/gist_id}",
    "starred_url": "https://api.github.com/users/happycodinggirl/starred{/owner}{/repo}",
    "subscriptions_url": "https://api.github.com/users/happycodinggirl/subscriptions",
    "organizations_url": "https://api.github.com/users/happycodinggirl/orgs",
    "repos_url": "https://api.github.com/users/happycodinggirl/repos",
    "events_url": "https://api.github.com/users/happycodinggirl/events{/privacy}",
    "received_events_url": "https://api.github.com/users/happycodinggirl/received_events",
    "type": "User",
    "site_admin": false
  },
  "created_at": "2016-01-21T09:01:52Z",
  "updated_at": "2016-01-21T09:01:52Z",
  "body": "该动的地方时MainActivity 的onCreate 里面的方法"
}
]
