{
  "id": 24609729,
  "name": "livegrep",
  "full_name": "dropbox/livegrep",
  "owner": {
    "login": "dropbox",
    "id": 559357,
    "avatar_url": "https://avatars.githubusercontent.com/u/559357?v=3",
    "gravatar_id": "",
    "url": "https://api.github.com/users/dropbox",
    "html_url": "https://github.com/dropbox",
    "followers_url": "https://api.github.com/users/dropbox/followers",
    "following_url": "https://api.github.com/users/dropbox/following{/other_user}",
    "gists_url": "https://api.github.com/users/dropbox/gists{/gist_id}",
    "starred_url": "https://api.github.com/users/dropbox/starred{/owner}{/repo}",
    "subscriptions_url": "https://api.github.com/users/dropbox/subscriptions",
    "organizations_url": "https://api.github.com/users/dropbox/orgs",
    "repos_url": "https://api.github.com/users/dropbox/repos",
    "events_url": "https://api.github.com/users/dropbox/events{/privacy}",
    "received_events_url": "https://api.github.com/users/dropbox/received_events",
    "type": "Organization",
    "site_admin": false
  },
  "private": false,
  "html_url": "https://github.com/dropbox/livegrep",
  "description": "Interactively grep source code. Source for http://livegrep.com/",
  "fork": true,
  "url": "https://api.github.com/repos/dropbox/livegrep",
  "forks_url": "https://api.github.com/repos/dropbox/livegrep/forks",
  "keys_url": "https://api.github.com/repos/dropbox/livegrep/keys{/key_id}",
  "collaborators_url": "https://api.github.com/repos/dropbox/livegrep/collaborators{/collaborator}",
  "teams_url": "https://api.github.com/repos/dropbox/livegrep/teams",
  "hooks_url": "https://api.github.com/repos/dropbox/livegrep/hooks",
  "issue_events_url": "https://api.github.com/repos/dropbox/livegrep/issues/events{/number}",
  "events_url": "https://api.github.com/repos/dropbox/livegrep/events",
  "assignees_url": "https://api.github.com/repos/dropbox/livegrep/assignees{/user}",
  "branches_url": "https://api.github.com/repos/dropbox/livegrep/branches{/branch}",
  "tags_url": "https://api.github.com/repos/dropbox/livegrep/tags",
  "blobs_url": "https://api.github.com/repos/dropbox/livegrep/git/blobs{/sha}",
  "git_tags_url": "https://api.github.com/repos/dropbox/livegrep/git/tags{/sha}",
  "git_refs_url": "https://api.github.com/repos/dropbox/livegrep/git/refs{/sha}",
  "trees_url": "https://api.github.com/repos/dropbox/livegrep/git/trees{/sha}",
  "statuses_url": "https://api.github.com/repos/dropbox/livegrep/statuses/{sha}",
  "languages_url": "https://api.github.com/repos/dropbox/livegrep/languages",
  "stargazers_url": "https://api.github.com/repos/dropbox/livegrep/stargazers",
  "contributors_url": "https://api.github.com/repos/dropbox/livegrep/contributors",
  "subscribers_url": "https://api.github.com/repos/dropbox/livegrep/subscribers",
  "subscription_url": "https://api.github.com/repos/dropbox/livegrep/subscription",
  "commits_url": "https://api.github.com/repos/dropbox/livegrep/commits{/sha}",
  "git_commits_url": "https://api.github.com/repos/dropbox/livegrep/git/commits{/sha}",
  "comments_url": "https://api.github.com/repos/dropbox/livegrep/comments{/number}",
  "issue_comment_url": "https://api.github.com/repos/dropbox/livegrep/issues/comments{/number}",
  "contents_url": "https://api.github.com/repos/dropbox/livegrep/contents/{+path}",
  "compare_url": "https://api.github.com/repos/dropbox/livegrep/compare/{base}...{head}",
  "merges_url": "https://api.github.com/repos/dropbox/livegrep/merges",
  "archive_url": "https://api.github.com/repos/dropbox/livegrep/{archive_format}{/ref}",
  "downloads_url": "https://api.github.com/repos/dropbox/livegrep/downloads",
  "issues_url": "https://api.github.com/repos/dropbox/livegrep/issues{/number}",
  "pulls_url": "https://api.github.com/repos/dropbox/livegrep/pulls{/number}",
  "milestones_url": "https://api.github.com/repos/dropbox/livegrep/milestones{/number}",
  "notifications_url": "https://api.github.com/repos/dropbox/livegrep/notifications{?since,all,participating}",
  "labels_url": "https://api.github.com/repos/dropbox/livegrep/labels{/name}",
  "releases_url": "https://api.github.com/repos/dropbox/livegrep/releases{/id}",
  "deployments_url": "https://api.github.com/repos/dropbox/livegrep/deployments",
  "created_at": "2014-09-29T19:32:38Z",
  "updated_at": "2015-10-16T08:02:25Z",
  "pushed_at": "2014-09-28T23:11:53Z",
  "git_url": "git://github.com/dropbox/livegrep.git",
  "ssh_url": "git@github.com:dropbox/livegrep.git",
  "clone_url": "https://github.com/dropbox/livegrep.git",
  "svn_url": "https://github.com/dropbox/livegrep",
  "homepage": "",
  "size": 7293,
  "stargazers_count": 3,
  "watchers_count": 3,
  "language": null,
  "has_issues": false,
  "has_downloads": true,
  "has_wiki": true,
  "has_pages": false,
  "forks_count": 1,
  "mirror_url": null,
  "open_issues_count": 0,
  "forks": 1,
  "open_issues": 0,
  "watchers": 3,
  "default_branch": "master",
  "master_branch": "master",
  "permissions": {
    "admin": false,
    "push": false,
    "pull": true
  },
  "license": {
    "key": "bsd-2-clause",
    "name": "BSD 2-clause \"Simplified\" License",
    "url": "https://api.github.com/licenses/bsd-2-clause",
    "featured": false
  },
  "organization": {
    "login": "dropbox",
    "id": 559357,
    "avatar_url": "https://avatars.githubusercontent.com/u/559357?v=3",
    "gravatar_id": "",
    "url": "https://api.github.com/users/dropbox",
    "html_url": "https://github.com/dropbox",
    "followers_url": "https://api.github.com/users/dropbox/followers",
    "following_url": "https://api.github.com/users/dropbox/following{/other_user}",
    "gists_url": "https://api.github.com/users/dropbox/gists{/gist_id}",
    "starred_url": "https://api.github.com/users/dropbox/starred{/owner}{/repo}",
    "subscriptions_url": "https://api.github.com/users/dropbox/subscriptions",
    "organizations_url": "https://api.github.com/users/dropbox/orgs",
    "repos_url": "https://api.github.com/users/dropbox/repos",
    "events_url": "https://api.github.com/users/dropbox/events{/privacy}",
    "received_events_url": "https://api.github.com/users/dropbox/received_events",
    "type": "Organization",
    "site_admin": false
  },
  "parent": {
    "id": 8117164,
    "name": "livegrep",
    "full_name": "livegrep/livegrep",
    "owner": {
      "login": "livegrep",
      "id": 7953784,
      "avatar_url": "https://avatars.githubusercontent.com/u/7953784?v=3",
      "gravatar_id": "",
      "url": "https://api.github.com/users/livegrep",
      "html_url": "https://github.com/livegrep",
      "followers_url": "https://api.github.com/users/livegrep/followers",
      "following_url": "https://api.github.com/users/livegrep/following{/other_user}",
      "gists_url": "https://api.github.com/users/livegrep/gists{/gist_id}",
      "starred_url": "https://api.github.com/users/livegrep/starred{/owner}{/repo}",
      "subscriptions_url": "https://api.github.com/users/livegrep/subscriptions",
      "organizations_url": "https://api.github.com/users/livegrep/orgs",
      "repos_url": "https://api.github.com/users/livegrep/repos",
      "events_url": "https://api.github.com/users/livegrep/events{/privacy}",
      "received_events_url": "https://api.github.com/users/livegrep/received_events",
      "type": "Organization",
      "site_admin": false
    },
    "private": false,
    "html_url": "https://github.com/livegrep/livegrep",
    "description": "Interactively grep source code. Source for http://livegrep.com/",
    "fork": false,
    "url": "https://api.github.com/repos/livegrep/livegrep",
    "forks_url": "https://api.github.com/repos/livegrep/livegrep/forks",
    "keys_url": "https://api.github.com/repos/livegrep/livegrep/keys{/key_id}",
    "collaborators_url": "https://api.github.com/repos/livegrep/livegrep/collaborators{/collaborator}",
    "teams_url": "https://api.github.com/repos/livegrep/livegrep/teams",
    "hooks_url": "https://api.github.com/repos/livegrep/livegrep/hooks",
    "issue_events_url": "https://api.github.com/repos/livegrep/livegrep/issues/events{/number}",
    "events_url": "https://api.github.com/repos/livegrep/livegrep/events",
    "assignees_url": "https://api.github.com/repos/livegrep/livegrep/assignees{/user}",
    "branches_url": "https://api.github.com/repos/livegrep/livegrep/branches{/branch}",
    "tags_url": "https://api.github.com/repos/livegrep/livegrep/tags",
    "blobs_url": "https://api.github.com/repos/livegrep/livegrep/git/blobs{/sha}",
    "git_tags_url": "https://api.github.com/repos/livegrep/livegrep/git/tags{/sha}",
    "git_refs_url": "https://api.github.com/repos/livegrep/livegrep/git/refs{/sha}",
    "trees_url": "https://api.github.com/repos/livegrep/livegrep/git/trees{/sha}",
    "statuses_url": "https://api.github.com/repos/livegrep/livegrep/statuses/{sha}",
    "languages_url": "https://api.github.com/repos/livegrep/livegrep/languages",
    "stargazers_url": "https://api.github.com/repos/livegrep/livegrep/stargazers",
    "contributors_url": "https://api.github.com/repos/livegrep/livegrep/contributors",
    "subscribers_url": "https://api.github.com/repos/livegrep/livegrep/subscribers",
    "subscription_url": "https://api.github.com/repos/livegrep/livegrep/subscription",
    "commits_url": "https://api.github.com/repos/livegrep/livegrep/commits{/sha}",
    "git_commits_url": "https://api.github.com/repos/livegrep/livegrep/git/commits{/sha}",
    "comments_url": "https://api.github.com/repos/livegrep/livegrep/comments{/number}",
    "issue_comment_url": "https://api.github.com/repos/livegrep/livegrep/issues/comments{/number}",
    "contents_url": "https://api.github.com/repos/livegrep/livegrep/contents/{+path}",
    "compare_url": "https://api.github.com/repos/livegrep/livegrep/compare/{base}...{head}",
    "merges_url": "https://api.github.com/repos/livegrep/livegrep/merges",
    "archive_url": "https://api.github.com/repos/livegrep/livegrep/{archive_format}{/ref}",
    "downloads_url": "https://api.github.com/repos/livegrep/livegrep/downloads",
    "issues_url": "https://api.github.com/repos/livegrep/livegrep/issues{/number}",
    "pulls_url": "https://api.github.com/repos/livegrep/livegrep/pulls{/number}",
    "milestones_url": "https://api.github.com/repos/livegrep/livegrep/milestones{/number}",
    "notifications_url": "https://api.github.com/repos/livegrep/livegrep/notifications{?since,all,participating}",
    "labels_url": "https://api.github.com/repos/livegrep/livegrep/labels{/name}",
    "releases_url": "https://api.github.com/repos/livegrep/livegrep/releases{/id}",
    "deployments_url": "https://api.github.com/repos/livegrep/livegrep/deployments",
    "created_at": "2013-02-10T00:19:18Z",
    "updated_at": "2016-01-14T17:02:10Z",
    "pushed_at": "2016-01-22T05:21:57Z",
    "git_url": "git://github.com/livegrep/livegrep.git",
    "ssh_url": "git@github.com:livegrep/livegrep.git",
    "clone_url": "https://github.com/livegrep/livegrep.git",
    "svn_url": "https://github.com/livegrep/livegrep",
    "homepage": "",
    "size": 7960,
    "stargazers_count": 233,
    "watchers_count": 233,
    "language": "C++",
    "has_issues": true,
    "has_downloads": true,
    "has_wiki": true,
    "has_pages": false,
    "forks_count": 29,
    "mirror_url": null,
    "open_issues_count": 3,
    "forks": 29,
    "open_issues": 3,
    "watchers": 233,
    "default_branch": "master"
  },
  "source": {
    "id": 8117164,
    "name": "livegrep",
    "full_name": "livegrep/livegrep",
    "owner": {
      "login": "livegrep",
      "id": 7953784,
      "avatar_url": "https://avatars.githubusercontent.com/u/7953784?v=3",
      "gravatar_id": "",
      "url": "https://api.github.com/users/livegrep",
      "html_url": "https://github.com/livegrep",
      "followers_url": "https://api.github.com/users/livegrep/followers",
      "following_url": "https://api.github.com/users/livegrep/following{/other_user}",
      "gists_url": "https://api.github.com/users/livegrep/gists{/gist_id}",
      "starred_url": "https://api.github.com/users/livegrep/starred{/owner}{/repo}",
      "subscriptions_url": "https://api.github.com/users/livegrep/subscriptions",
      "organizations_url": "https://api.github.com/users/livegrep/orgs",
      "repos_url": "https://api.github.com/users/livegrep/repos",
      "events_url": "https://api.github.com/users/livegrep/events{/privacy}",
      "received_events_url": "https://api.github.com/users/livegrep/received_events",
      "type": "Organization",
      "site_admin": false
    },
    "private": false,
    "html_url": "https://github.com/livegrep/livegrep",
    "description": "Interactively grep source code. Source for http://livegrep.com/",
    "fork": false,
    "url": "https://api.github.com/repos/livegrep/livegrep",
    "forks_url": "https://api.github.com/repos/livegrep/livegrep/forks",
    "keys_url": "https://api.github.com/repos/livegrep/livegrep/keys{/key_id}",
    "collaborators_url": "https://api.github.com/repos/livegrep/livegrep/collaborators{/collaborator}",
    "teams_url": "https://api.github.com/repos/livegrep/livegrep/teams",
    "hooks_url": "https://api.github.com/repos/livegrep/livegrep/hooks",
    "issue_events_url": "https://api.github.com/repos/livegrep/livegrep/issues/events{/number}",
    "events_url": "https://api.github.com/repos/livegrep/livegrep/events",
    "assignees_url": "https://api.github.com/repos/livegrep/livegrep/assignees{/user}",
    "branches_url": "https://api.github.com/repos/livegrep/livegrep/branches{/branch}",
    "tags_url": "https://api.github.com/repos/livegrep/livegrep/tags",
    "blobs_url": "https://api.github.com/repos/livegrep/livegrep/git/blobs{/sha}",
    "git_tags_url": "https://api.github.com/repos/livegrep/livegrep/git/tags{/sha}",
    "git_refs_url": "https://api.github.com/repos/livegrep/livegrep/git/refs{/sha}",
    "trees_url": "https://api.github.com/repos/livegrep/livegrep/git/trees{/sha}",
    "statuses_url": "https://api.github.com/repos/livegrep/livegrep/statuses/{sha}",
    "languages_url": "https://api.github.com/repos/livegrep/livegrep/languages",
    "stargazers_url": "https://api.github.com/repos/livegrep/livegrep/stargazers",
    "contributors_url": "https://api.github.com/repos/livegrep/livegrep/contributors",
    "subscribers_url": "https://api.github.com/repos/livegrep/livegrep/subscribers",
    "subscription_url": "https://api.github.com/repos/livegrep/livegrep/subscription",
    "commits_url": "https://api.github.com/repos/livegrep/livegrep/commits{/sha}",
    "git_commits_url": "https://api.github.com/repos/livegrep/livegrep/git/commits{/sha}",
    "comments_url": "https://api.github.com/repos/livegrep/livegrep/comments{/number}",
    "issue_comment_url": "https://api.github.com/repos/livegrep/livegrep/issues/comments{/number}",
    "contents_url": "https://api.github.com/repos/livegrep/livegrep/contents/{+path}",
    "compare_url": "https://api.github.com/repos/livegrep/livegrep/compare/{base}...{head}",
    "merges_url": "https://api.github.com/repos/livegrep/livegrep/merges",
    "archive_url": "https://api.github.com/repos/livegrep/livegrep/{archive_format}{/ref}",
    "downloads_url": "https://api.github.com/repos/livegrep/livegrep/downloads",
    "issues_url": "https://api.github.com/repos/livegrep/livegrep/issues{/number}",
    "pulls_url": "https://api.github.com/repos/livegrep/livegrep/pulls{/number}",
    "milestones_url": "https://api.github.com/repos/livegrep/livegrep/milestones{/number}",
    "notifications_url": "https://api.github.com/repos/livegrep/livegrep/notifications{?since,all,participating}",
    "labels_url": "https://api.github.com/repos/livegrep/livegrep/labels{/name}",
    "releases_url": "https://api.github.com/repos/livegrep/livegrep/releases{/id}",
    "deployments_url": "https://api.github.com/repos/livegrep/livegrep/deployments",
    "created_at": "2013-02-10T00:19:18Z",
    "updated_at": "2016-01-14T17:02:10Z",
    "pushed_at": "2016-01-22T05:21:57Z",
    "git_url": "git://github.com/livegrep/livegrep.git",
    "ssh_url": "git@github.com:livegrep/livegrep.git",
    "clone_url": "https://github.com/livegrep/livegrep.git",
    "svn_url": "https://github.com/livegrep/livegrep",
    "homepage": "",
    "size": 7960,
    "stargazers_count": 233,
    "watchers_count": 233,
    "language": "C++",
    "has_issues": true,
    "has_downloads": true,
    "has_wiki": true,
    "has_pages": false,
    "forks_count": 29,
    "mirror_url": null,
    "open_issues_count": 3,
    "forks": 29,
    "open_issues": 3,
    "watchers": 233,
    "default_branch": "master"
  },
  "network_count": 29,
  "subscribers_count": 47
}
