[
{
  "url": "https://api.github.com/repos/airbnb/RxGroups/issues/comments/175161473",
  "html_url": "https://github.com/airbnb/RxGroups/pull/8#issuecomment-175161473",
  "issue_url": "https://api.github.com/repos/airbnb/RxGroups/issues/8",
  "id": 175161473,
  "user": {
    "login": "elihart",
    "id": 2739242,
    "avatar_url": "https://avatars.githubusercontent.com/u/2739242?v=3",
    "gravatar_id": "",
    "url": "https://api.github.com/users/elihart",
    "html_url": "https://github.com/elihart",
    "followers_url": "https://api.github.com/users/elihart/followers",
    "following_url": "https://api.github.com/users/elihart/following{/other_user}",
    "gists_url": "https://api.github.com/users/elihart/gists{/gist_id}",
    "starred_url": "https://api.github.com/users/elihart/starred{/owner}{/repo}",
    "subscriptions_url": "https://api.github.com/users/elihart/subscriptions",
    "organizations_url": "https://api.github.com/users/elihart/orgs",
    "repos_url": "https://api.github.com/users/elihart/repos",
    "events_url": "https://api.github.com/users/elihart/events{/privacy}",
    "received_events_url": "https://api.github.com/users/elihart/received_events",
    "type": "User",
    "site_admin": false
  },
  "created_at": "2016-01-26T18:29:30Z",
  "updated_at": "2016-01-26T18:29:30Z",
  "body": "lgtm"
}
]
