[
{
  "url": "https://api.github.com/repos/Reactive-Extensions/Rx.NET/issues/comments/31596701",
  "html_url": "https://github.com/Reactive-Extensions/Rx.NET/pull/3#issuecomment-31596701",
  "issue_url": "https://api.github.com/repos/Reactive-Extensions/Rx.NET/issues/3",
  "id": 31596701,
  "user": {
    "login": "LeeCampbell",
    "id": 981443,
    "avatar_url": "https://avatars.githubusercontent.com/u/981443?v=3",
    "gravatar_id": "",
    "url": "https://api.github.com/users/LeeCampbell",
    "html_url": "https://github.com/LeeCampbell",
    "followers_url": "https://api.github.com/users/LeeCampbell/followers",
    "following_url": "https://api.github.com/users/LeeCampbell/following{/other_user}",
    "gists_url": "https://api.github.com/users/LeeCampbell/gists{/gist_id}",
    "starred_url": "https://api.github.com/users/LeeCampbell/starred{/owner}{/repo}",
    "subscriptions_url": "https://api.github.com/users/LeeCampbell/subscriptions",
    "organizations_url": "https://api.github.com/users/LeeCampbell/orgs",
    "repos_url": "https://api.github.com/users/LeeCampbell/repos",
    "events_url": "https://api.github.com/users/LeeCampbell/events{/privacy}",
    "received_events_url": "https://api.github.com/users/LeeCampbell/received_events",
    "type": "User",
    "site_admin": false
  },
  "created_at": "2014-01-05T05:08:43Z",
  "updated_at": "2014-01-05T05:08:43Z",
  "body": "Supporting blog post with performance reports found here http://leecampbell.blogspot.com.au/2014/01/replaysubject-performance-improvements.html"
}
, {
  "url": "https://api.github.com/repos/Reactive-Extensions/Rx.NET/issues/comments/33184427",
  "html_url": "https://github.com/Reactive-Extensions/Rx.NET/pull/3#issuecomment-33184427",
  "issue_url": "https://api.github.com/repos/Reactive-Extensions/Rx.NET/issues/3",
  "id": 33184427,
  "user": {
    "login": "LeeCampbell",
    "id": 981443,
    "avatar_url": "https://avatars.githubusercontent.com/u/981443?v=3",
    "gravatar_id": "",
    "url": "https://api.github.com/users/LeeCampbell",
    "html_url": "https://github.com/LeeCampbell",
    "followers_url": "https://api.github.com/users/LeeCampbell/followers",
    "following_url": "https://api.github.com/users/LeeCampbell/following{/other_user}",
    "gists_url": "https://api.github.com/users/LeeCampbell/gists{/gist_id}",
    "starred_url": "https://api.github.com/users/LeeCampbell/starred{/owner}{/repo}",
    "subscriptions_url": "https://api.github.com/users/LeeCampbell/subscriptions",
    "organizations_url": "https://api.github.com/users/LeeCampbell/orgs",
    "repos_url": "https://api.github.com/users/LeeCampbell/repos",
    "events_url": "https://api.github.com/users/LeeCampbell/events{/privacy}",
    "received_events_url": "https://api.github.com/users/LeeCampbell/received_events",
    "type": "User",
    "site_admin": false
  },
  "created_at": "2014-01-24T00:14:12Z",
  "updated_at": "2014-01-24T00:14:12Z",
  "body": "Thanks Kirk. Made the changes."
}
, {
  "url": "https://api.github.com/repos/Reactive-Extensions/Rx.NET/issues/comments/35839812",
  "html_url": "https://github.com/Reactive-Extensions/Rx.NET/pull/3#issuecomment-35839812",
  "issue_url": "https://api.github.com/repos/Reactive-Extensions/Rx.NET/issues/3",
  "id": 35839812,
  "user": {
    "login": "LeeCampbell",
    "id": 981443,
    "avatar_url": "https://avatars.githubusercontent.com/u/981443?v=3",
    "gravatar_id": "",
    "url": "https://api.github.com/users/LeeCampbell",
    "html_url": "https://github.com/LeeCampbell",
    "followers_url": "https://api.github.com/users/LeeCampbell/followers",
    "following_url": "https://api.github.com/users/LeeCampbell/following{/other_user}",
    "gists_url": "https://api.github.com/users/LeeCampbell/gists{/gist_id}",
    "starred_url": "https://api.github.com/users/LeeCampbell/starred{/owner}{/repo}",
    "subscriptions_url": "https://api.github.com/users/LeeCampbell/subscriptions",
    "organizations_url": "https://api.github.com/users/LeeCampbell/orgs",
    "repos_url": "https://api.github.com/users/LeeCampbell/repos",
    "events_url": "https://api.github.com/users/LeeCampbell/events{/privacy}",
    "received_events_url": "https://api.github.com/users/LeeCampbell/received_events",
    "type": "User",
    "site_admin": false
  },
  "created_at": "2014-02-23T19:10:40Z",
  "updated_at": "2014-02-23T19:10:40Z",
  "body": "@kirkshoop, I have added back the multiple disposals to the unit tests. I had inconsistently put them in some unit tests but not others. They are now in each of the ReplayOne, ReplayMany, ReplayAll and ReplayByTime infinite sequence tests."
}
, {
  "url": "https://api.github.com/repos/Reactive-Extensions/Rx.NET/issues/comments/35947010",
  "html_url": "https://github.com/Reactive-Extensions/Rx.NET/pull/3#issuecomment-35947010",
  "issue_url": "https://api.github.com/repos/Reactive-Extensions/Rx.NET/issues/3",
  "id": 35947010,
  "user": {
    "login": "kirkshoop",
    "id": 982716,
    "avatar_url": "https://avatars.githubusercontent.com/u/982716?v=3",
    "gravatar_id": "",
    "url": "https://api.github.com/users/kirkshoop",
    "html_url": "https://github.com/kirkshoop",
    "followers_url": "https://api.github.com/users/kirkshoop/followers",
    "following_url": "https://api.github.com/users/kirkshoop/following{/other_user}",
    "gists_url": "https://api.github.com/users/kirkshoop/gists{/gist_id}",
    "starred_url": "https://api.github.com/users/kirkshoop/starred{/owner}{/repo}",
    "subscriptions_url": "https://api.github.com/users/kirkshoop/subscriptions",
    "organizations_url": "https://api.github.com/users/kirkshoop/orgs",
    "repos_url": "https://api.github.com/users/kirkshoop/repos",
    "events_url": "https://api.github.com/users/kirkshoop/events{/privacy}",
    "received_events_url": "https://api.github.com/users/kirkshoop/received_events",
    "type": "User",
    "site_admin": false
  },
  "created_at": "2014-02-24T22:20:48Z",
  "updated_at": "2014-02-24T22:20:48Z",
  "body": "Merged! \r\nSorry for the drawn out process. Thank you for sticking with it."
}
]
