[
{
  "url": "https://api.github.com/repos/facebook/react-native/issues/comments/157419567",
  "html_url": "https://github.com/facebook/react-native/pull/4183#issuecomment-157419567",
  "issue_url": "https://api.github.com/repos/facebook/react-native/issues/4183",
  "id": 157419567,
  "user": {
    "login": "facebook-github-bot",
    "id": 6422482,
    "avatar_url": "https://avatars.githubusercontent.com/u/6422482?v=3",
    "gravatar_id": "",
    "url": "https://api.github.com/users/facebook-github-bot",
    "html_url": "https://github.com/facebook-github-bot",
    "followers_url": "https://api.github.com/users/facebook-github-bot/followers",
    "following_url": "https://api.github.com/users/facebook-github-bot/following{/other_user}",
    "gists_url": "https://api.github.com/users/facebook-github-bot/gists{/gist_id}",
    "starred_url": "https://api.github.com/users/facebook-github-bot/starred{/owner}{/repo}",
    "subscriptions_url": "https://api.github.com/users/facebook-github-bot/subscriptions",
    "organizations_url": "https://api.github.com/users/facebook-github-bot/orgs",
    "repos_url": "https://api.github.com/users/facebook-github-bot/repos",
    "events_url": "https://api.github.com/users/facebook-github-bot/events{/privacy}",
    "received_events_url": "https://api.github.com/users/facebook-github-bot/received_events",
    "type": "User",
    "site_admin": false
  },
  "created_at": "2015-11-17T16:22:26Z",
  "updated_at": "2015-11-17T16:22:26Z",
  "body": "By analyzing the blame information on this pull request, we identified @spicyj, @nicklockwood and @sahrens to be potential reviewers."
}
, {
  "url": "https://api.github.com/repos/facebook/react-native/issues/comments/157442886",
  "html_url": "https://github.com/facebook/react-native/pull/4183#issuecomment-157442886",
  "issue_url": "https://api.github.com/repos/facebook/react-native/issues/4183",
  "id": 157442886,
  "user": {
    "login": "nicklockwood",
    "id": 546885,
    "avatar_url": "https://avatars.githubusercontent.com/u/546885?v=3",
    "gravatar_id": "",
    "url": "https://api.github.com/users/nicklockwood",
    "html_url": "https://github.com/nicklockwood",
    "followers_url": "https://api.github.com/users/nicklockwood/followers",
    "following_url": "https://api.github.com/users/nicklockwood/following{/other_user}",
    "gists_url": "https://api.github.com/users/nicklockwood/gists{/gist_id}",
    "starred_url": "https://api.github.com/users/nicklockwood/starred{/owner}{/repo}",
    "subscriptions_url": "https://api.github.com/users/nicklockwood/subscriptions",
    "organizations_url": "https://api.github.com/users/nicklockwood/orgs",
    "repos_url": "https://api.github.com/users/nicklockwood/repos",
    "events_url": "https://api.github.com/users/nicklockwood/events{/privacy}",
    "received_events_url": "https://api.github.com/users/nicklockwood/received_events",
    "type": "User",
    "site_admin": false
  },
  "created_at": "2015-11-17T17:23:01Z",
  "updated_at": "2015-11-17T17:23:01Z",
  "body": "@facebook-github-bot shipit"
}
, {
  "url": "https://api.github.com/repos/facebook/react-native/issues/comments/157443165",
  "html_url": "https://github.com/facebook/react-native/pull/4183#issuecomment-157443165",
  "issue_url": "https://api.github.com/repos/facebook/react-native/issues/4183",
  "id": 157443165,
  "user": {
    "login": "facebook-github-bot",
    "id": 6422482,
    "avatar_url": "https://avatars.githubusercontent.com/u/6422482?v=3",
    "gravatar_id": "",
    "url": "https://api.github.com/users/facebook-github-bot",
    "html_url": "https://github.com/facebook-github-bot",
    "followers_url": "https://api.github.com/users/facebook-github-bot/followers",
    "following_url": "https://api.github.com/users/facebook-github-bot/following{/other_user}",
    "gists_url": "https://api.github.com/users/facebook-github-bot/gists{/gist_id}",
    "starred_url": "https://api.github.com/users/facebook-github-bot/starred{/owner}{/repo}",
    "subscriptions_url": "https://api.github.com/users/facebook-github-bot/subscriptions",
    "organizations_url": "https://api.github.com/users/facebook-github-bot/orgs",
    "repos_url": "https://api.github.com/users/facebook-github-bot/repos",
    "events_url": "https://api.github.com/users/facebook-github-bot/events{/privacy}",
    "received_events_url": "https://api.github.com/users/facebook-github-bot/received_events",
    "type": "User",
    "site_admin": false
  },
  "created_at": "2015-11-17T17:24:07Z",
  "updated_at": "2015-11-17T17:24:07Z",
  "body": "Thanks for importing. If you are an FB employee go to https://our.intern.facebook.com/intern/opensource/github/pull_request/1655262234727904/int_phab to review."
}
, {
  "url": "https://api.github.com/repos/facebook/react-native/issues/comments/158819159",
  "html_url": "https://github.com/facebook/react-native/pull/4183#issuecomment-158819159",
  "issue_url": "https://api.github.com/repos/facebook/react-native/issues/4183",
  "id": 158819159,
  "user": {
    "login": "brentvatne",
    "id": 90494,
    "avatar_url": "https://avatars.githubusercontent.com/u/90494?v=3",
    "gravatar_id": "",
    "url": "https://api.github.com/users/brentvatne",
    "html_url": "https://github.com/brentvatne",
    "followers_url": "https://api.github.com/users/brentvatne/followers",
    "following_url": "https://api.github.com/users/brentvatne/following{/other_user}",
    "gists_url": "https://api.github.com/users/brentvatne/gists{/gist_id}",
    "starred_url": "https://api.github.com/users/brentvatne/starred{/owner}{/repo}",
    "subscriptions_url": "https://api.github.com/users/brentvatne/subscriptions",
    "organizations_url": "https://api.github.com/users/brentvatne/orgs",
    "repos_url": "https://api.github.com/users/brentvatne/repos",
    "events_url": "https://api.github.com/users/brentvatne/events{/privacy}",
    "received_events_url": "https://api.github.com/users/brentvatne/received_events",
    "type": "User",
    "site_admin": false
  },
  "created_at": "2015-11-22T23:45:39Z",
  "updated_at": "2015-11-22T23:45:39Z",
  "body": "We should get this in for Android as well! cc @mkonicek "
}
, {
  "url": "https://api.github.com/repos/facebook/react-native/issues/comments/158862314",
  "html_url": "https://github.com/facebook/react-native/pull/4183#issuecomment-158862314",
  "issue_url": "https://api.github.com/repos/facebook/react-native/issues/4183",
  "id": 158862314,
  "user": {
    "login": "vjeux",
    "id": 197597,
    "avatar_url": "https://avatars.githubusercontent.com/u/197597?v=3",
    "gravatar_id": "",
    "url": "https://api.github.com/users/vjeux",
    "html_url": "https://github.com/vjeux",
    "followers_url": "https://api.github.com/users/vjeux/followers",
    "following_url": "https://api.github.com/users/vjeux/following{/other_user}",
    "gists_url": "https://api.github.com/users/vjeux/gists{/gist_id}",
    "starred_url": "https://api.github.com/users/vjeux/starred{/owner}{/repo}",
    "subscriptions_url": "https://api.github.com/users/vjeux/subscriptions",
    "organizations_url": "https://api.github.com/users/vjeux/orgs",
    "repos_url": "https://api.github.com/users/vjeux/repos",
    "events_url": "https://api.github.com/users/vjeux/events{/privacy}",
    "received_events_url": "https://api.github.com/users/vjeux/received_events",
    "type": "User",
    "site_admin": false
  },
  "created_at": "2015-11-23T06:39:15Z",
  "updated_at": "2015-11-23T06:39:15Z",
  "body": "Sorry to be the bad guy here but the implementation of min/max width/height on css-layout isn't ready to be used. It only supports a couple of cases and not even many of the common use cases nor any edge case.\r\n\r\nUsing this one would be really bad as people are going to rely on this bad implementation and it's going to be a major pain to upgrade to the proper one once we fix the issues"
}
, {
  "url": "https://api.github.com/repos/facebook/react-native/issues/comments/158862876",
  "html_url": "https://github.com/facebook/react-native/pull/4183#issuecomment-158862876",
  "issue_url": "https://api.github.com/repos/facebook/react-native/issues/4183",
  "id": 158862876,
  "user": {
    "login": "rocman",
    "id": 652057,
    "avatar_url": "https://avatars.githubusercontent.com/u/652057?v=3",
    "gravatar_id": "",
    "url": "https://api.github.com/users/rocman",
    "html_url": "https://github.com/rocman",
    "followers_url": "https://api.github.com/users/rocman/followers",
    "following_url": "https://api.github.com/users/rocman/following{/other_user}",
    "gists_url": "https://api.github.com/users/rocman/gists{/gist_id}",
    "starred_url": "https://api.github.com/users/rocman/starred{/owner}{/repo}",
    "subscriptions_url": "https://api.github.com/users/rocman/subscriptions",
    "organizations_url": "https://api.github.com/users/rocman/orgs",
    "repos_url": "https://api.github.com/users/rocman/repos",
    "events_url": "https://api.github.com/users/rocman/events{/privacy}",
    "received_events_url": "https://api.github.com/users/rocman/received_events",
    "type": "User",
    "site_admin": false
  },
  "created_at": "2015-11-23T06:45:43Z",
  "updated_at": "2015-11-23T06:45:43Z",
  "body": "Concerning about this. Is there any plan or even actual moves on implementing them?"
}
, {
  "url": "https://api.github.com/repos/facebook/react-native/issues/comments/158877259",
  "html_url": "https://github.com/facebook/react-native/pull/4183#issuecomment-158877259",
  "issue_url": "https://api.github.com/repos/facebook/react-native/issues/4183",
  "id": 158877259,
  "user": {
    "login": "nicklockwood",
    "id": 546885,
    "avatar_url": "https://avatars.githubusercontent.com/u/546885?v=3",
    "gravatar_id": "",
    "url": "https://api.github.com/users/nicklockwood",
    "html_url": "https://github.com/nicklockwood",
    "followers_url": "https://api.github.com/users/nicklockwood/followers",
    "following_url": "https://api.github.com/users/nicklockwood/following{/other_user}",
    "gists_url": "https://api.github.com/users/nicklockwood/gists{/gist_id}",
    "starred_url": "https://api.github.com/users/nicklockwood/starred{/owner}{/repo}",
    "subscriptions_url": "https://api.github.com/users/nicklockwood/subscriptions",
    "organizations_url": "https://api.github.com/users/nicklockwood/orgs",
    "repos_url": "https://api.github.com/users/nicklockwood/repos",
    "events_url": "https://api.github.com/users/nicklockwood/events{/privacy}",
    "received_events_url": "https://api.github.com/users/nicklockwood/received_events",
    "type": "User",
    "site_admin": false
  },
  "created_at": "2015-11-23T08:39:57Z",
  "updated_at": "2015-11-23T08:39:57Z",
  "body": "@vjeux Is the API likely to change?"
}
, {
  "url": "https://api.github.com/repos/facebook/react-native/issues/comments/159002661",
  "html_url": "https://github.com/facebook/react-native/pull/4183#issuecomment-159002661",
  "issue_url": "https://api.github.com/repos/facebook/react-native/issues/4183",
  "id": 159002661,
  "user": {
    "login": "vjeux",
    "id": 197597,
    "avatar_url": "https://avatars.githubusercontent.com/u/197597?v=3",
    "gravatar_id": "",
    "url": "https://api.github.com/users/vjeux",
    "html_url": "https://github.com/vjeux",
    "followers_url": "https://api.github.com/users/vjeux/followers",
    "following_url": "https://api.github.com/users/vjeux/following{/other_user}",
    "gists_url": "https://api.github.com/users/vjeux/gists{/gist_id}",
    "starred_url": "https://api.github.com/users/vjeux/starred{/owner}{/repo}",
    "subscriptions_url": "https://api.github.com/users/vjeux/subscriptions",
    "organizations_url": "https://api.github.com/users/vjeux/orgs",
    "repos_url": "https://api.github.com/users/vjeux/repos",
    "events_url": "https://api.github.com/users/vjeux/events{/privacy}",
    "received_events_url": "https://api.github.com/users/vjeux/received_events",
    "type": "User",
    "site_admin": false
  },
  "created_at": "2015-11-23T17:25:54Z",
  "updated_at": "2015-11-23T17:25:54Z",
  "body": "@nicklockwood: the api is going to stay the same. But if people use it today and we upgrade it, it'll break their app in subtle ways that we can't make backward compatible.\r\n\r\nThe current implementation is not just a bit off, it's completely wrong for most common inputs.\r\n\r\nRight now no one is working on it, but I'll gladly accept pull requests that improve the implementation."
}
, {
  "url": "https://api.github.com/repos/facebook/react-native/issues/comments/159620545",
  "html_url": "https://github.com/facebook/react-native/pull/4183#issuecomment-159620545",
  "issue_url": "https://api.github.com/repos/facebook/react-native/issues/4183",
  "id": 159620545,
  "user": {
    "login": "bergl",
    "id": 10261239,
    "avatar_url": "https://avatars.githubusercontent.com/u/10261239?v=3",
    "gravatar_id": "",
    "url": "https://api.github.com/users/bergl",
    "html_url": "https://github.com/bergl",
    "followers_url": "https://api.github.com/users/bergl/followers",
    "following_url": "https://api.github.com/users/bergl/following{/other_user}",
    "gists_url": "https://api.github.com/users/bergl/gists{/gist_id}",
    "starred_url": "https://api.github.com/users/bergl/starred{/owner}{/repo}",
    "subscriptions_url": "https://api.github.com/users/bergl/subscriptions",
    "organizations_url": "https://api.github.com/users/bergl/orgs",
    "repos_url": "https://api.github.com/users/bergl/repos",
    "events_url": "https://api.github.com/users/bergl/events{/privacy}",
    "received_events_url": "https://api.github.com/users/bergl/received_events",
    "type": "User",
    "site_admin": false
  },
  "created_at": "2015-11-25T14:22:18Z",
  "updated_at": "2015-11-25T14:22:36Z",
  "body": "FYI It is inside documentation:\r\nhttps://facebook.github.io/react-native/docs/flexbox.html#proptypes\r\n\r\nand:\r\nhttps://github.com/facebook/react-native/blob/master/Libraries/StyleSheet/LayoutPropTypes.js\r\nhttps://github.com/facebook/react-native/commit/2244a86eea9e6ad2d4094b126530f07291324f15\r\n\r\nBut not in released code\r\n"
}
, {
  "url": "https://api.github.com/repos/facebook/react-native/issues/comments/180536475",
  "html_url": "https://github.com/facebook/react-native/pull/4183#issuecomment-180536475",
  "issue_url": "https://api.github.com/repos/facebook/react-native/issues/4183",
  "id": 180536475,
  "user": {
    "login": "mkonicek",
    "id": 346214,
    "avatar_url": "https://avatars.githubusercontent.com/u/346214?v=3",
    "gravatar_id": "",
    "url": "https://api.github.com/users/mkonicek",
    "html_url": "https://github.com/mkonicek",
    "followers_url": "https://api.github.com/users/mkonicek/followers",
    "following_url": "https://api.github.com/users/mkonicek/following{/other_user}",
    "gists_url": "https://api.github.com/users/mkonicek/gists{/gist_id}",
    "starred_url": "https://api.github.com/users/mkonicek/starred{/owner}{/repo}",
    "subscriptions_url": "https://api.github.com/users/mkonicek/subscriptions",
    "organizations_url": "https://api.github.com/users/mkonicek/orgs",
    "repos_url": "https://api.github.com/users/mkonicek/repos",
    "events_url": "https://api.github.com/users/mkonicek/events{/privacy}",
    "received_events_url": "https://api.github.com/users/mkonicek/received_events",
    "type": "User",
    "site_admin": false
  },
  "created_at": "2016-02-05T20:06:22Z",
  "updated_at": "2016-02-05T20:06:22Z",
  "body": "FYI {min,max}{Width,Height} have been removed from the docs: https://github.com/facebook/react-native/commit/2529179769ff7f24f9b91acc5417e19983958ff6\r\n\r\nA per vjeux's comment above:\r\n\r\n> The current implementation is not just a bit off, it's completely wrong for most common inputs. Right now no one is working on it, but I'll gladly accept pull requests that improve the implementation.\r\n\r\nThe implementation is here: https://github.com/facebook/css-layout"
}
]
