[
{
  "url": "https://api.github.com/repos/facebook/react-native/issues/comments/141220304",
  "html_url": "https://github.com/facebook/react-native/issues/2818#issuecomment-141220304",
  "issue_url": "https://api.github.com/repos/facebook/react-native/issues/2818",
  "id": 141220304,
  "user": {
    "login": "ide",
    "id": 379606,
    "avatar_url": "https://avatars.githubusercontent.com/u/379606?v=3",
    "gravatar_id": "",
    "url": "https://api.github.com/users/ide",
    "html_url": "https://github.com/ide",
    "followers_url": "https://api.github.com/users/ide/followers",
    "following_url": "https://api.github.com/users/ide/following{/other_user}",
    "gists_url": "https://api.github.com/users/ide/gists{/gist_id}",
    "starred_url": "https://api.github.com/users/ide/starred{/owner}{/repo}",
    "subscriptions_url": "https://api.github.com/users/ide/subscriptions",
    "organizations_url": "https://api.github.com/users/ide/orgs",
    "repos_url": "https://api.github.com/users/ide/repos",
    "events_url": "https://api.github.com/users/ide/events{/privacy}",
    "received_events_url": "https://api.github.com/users/ide/received_events",
    "type": "User",
    "site_admin": false
  },
  "created_at": "2015-09-17T20:35:52Z",
  "updated_at": "2015-09-17T20:35:52Z",
  "body": "cc @a2 @nicklockwood "
}
, {
  "url": "https://api.github.com/repos/facebook/react-native/issues/comments/141222109",
  "html_url": "https://github.com/facebook/react-native/issues/2818#issuecomment-141222109",
  "issue_url": "https://api.github.com/repos/facebook/react-native/issues/2818",
  "id": 141222109,
  "user": {
    "login": "dvine-multimedia",
    "id": 996197,
    "avatar_url": "https://avatars.githubusercontent.com/u/996197?v=3",
    "gravatar_id": "",
    "url": "https://api.github.com/users/dvine-multimedia",
    "html_url": "https://github.com/dvine-multimedia",
    "followers_url": "https://api.github.com/users/dvine-multimedia/followers",
    "following_url": "https://api.github.com/users/dvine-multimedia/following{/other_user}",
    "gists_url": "https://api.github.com/users/dvine-multimedia/gists{/gist_id}",
    "starred_url": "https://api.github.com/users/dvine-multimedia/starred{/owner}{/repo}",
    "subscriptions_url": "https://api.github.com/users/dvine-multimedia/subscriptions",
    "organizations_url": "https://api.github.com/users/dvine-multimedia/orgs",
    "repos_url": "https://api.github.com/users/dvine-multimedia/repos",
    "events_url": "https://api.github.com/users/dvine-multimedia/events{/privacy}",
    "received_events_url": "https://api.github.com/users/dvine-multimedia/received_events",
    "type": "User",
    "site_admin": false
  },
  "created_at": "2015-09-17T20:40:42Z",
  "updated_at": "2015-09-17T20:40:42Z",
  "body": "sorry guys. my bad. close the issue. the second event came from the still active react-native-keyboard-events module."
}
]
