[
{
  "url": "https://api.github.com/repos/facebook/react-native/issues/comments/109772621",
  "html_url": "https://github.com/facebook/react-native/pull/1544#issuecomment-109772621",
  "issue_url": "https://api.github.com/repos/facebook/react-native/issues/1544",
  "id": 109772621,
  "user": {
    "login": "vjeux",
    "id": 197597,
    "avatar_url": "https://avatars.githubusercontent.com/u/197597?v=3",
    "gravatar_id": "",
    "url": "https://api.github.com/users/vjeux",
    "html_url": "https://github.com/vjeux",
    "followers_url": "https://api.github.com/users/vjeux/followers",
    "following_url": "https://api.github.com/users/vjeux/following{/other_user}",
    "gists_url": "https://api.github.com/users/vjeux/gists{/gist_id}",
    "starred_url": "https://api.github.com/users/vjeux/starred{/owner}{/repo}",
    "subscriptions_url": "https://api.github.com/users/vjeux/subscriptions",
    "organizations_url": "https://api.github.com/users/vjeux/orgs",
    "repos_url": "https://api.github.com/users/vjeux/repos",
    "events_url": "https://api.github.com/users/vjeux/events{/privacy}",
    "received_events_url": "https://api.github.com/users/vjeux/received_events",
    "type": "User",
    "site_admin": false
  },
  "created_at": "2015-06-07T16:55:52Z",
  "updated_at": "2015-06-07T16:55:52Z",
  "body": "cc @ide"
}
, {
  "url": "https://api.github.com/repos/facebook/react-native/issues/comments/113865905",
  "html_url": "https://github.com/facebook/react-native/pull/1544#issuecomment-113865905",
  "issue_url": "https://api.github.com/repos/facebook/react-native/issues/1544",
  "id": 113865905,
  "user": {
    "login": "ide",
    "id": 379606,
    "avatar_url": "https://avatars.githubusercontent.com/u/379606?v=3",
    "gravatar_id": "",
    "url": "https://api.github.com/users/ide",
    "html_url": "https://github.com/ide",
    "followers_url": "https://api.github.com/users/ide/followers",
    "following_url": "https://api.github.com/users/ide/following{/other_user}",
    "gists_url": "https://api.github.com/users/ide/gists{/gist_id}",
    "starred_url": "https://api.github.com/users/ide/starred{/owner}{/repo}",
    "subscriptions_url": "https://api.github.com/users/ide/subscriptions",
    "organizations_url": "https://api.github.com/users/ide/orgs",
    "repos_url": "https://api.github.com/users/ide/repos",
    "events_url": "https://api.github.com/users/ide/events{/privacy}",
    "received_events_url": "https://api.github.com/users/ide/received_events",
    "type": "User",
    "site_admin": false
  },
  "created_at": "2015-06-21T06:04:04Z",
  "updated_at": "2015-06-21T06:04:04Z",
  "body": "Hey @hedgerwang, sorry it took me awhile to write up some feedback. Overall I like the idea of separating the navigation state from the UI, particularly for deep linking where we want to know the current navigation state (so we can make a permalink) and how to render any navigation state (so we can visit a permalink).\r\n\r\n---\r\n\r\n**Tree structure and focused node:** you mentioned that exactly one node must be focused. I was thinking in a more complex app especially on a tablet, you might have two sibling navigators displayed on screen at the same time so there could be two scenes focused like this:\r\n\r\n```\r\n  +-----------------------------------------+  \r\n  |                  app                    |  \r\n  |                                         |  \r\n  | +------------------+ +----------------+ |  \r\n  | |                  | |                | |  \r\n  | |                  | |                | |  \r\n  | |                  | |                | |  \r\n  | |     contentL1    | |     contentR1  | |  \r\n  | |                  | |                | |  \r\n  | |                  | |                | |  \r\n  | |                  | |                | |  \r\n  | +------------------+ +----------------+ |  \r\n  |                                         |  \r\n  +-----------------------------------------+  \r\n```\r\n\r\nThe navigator on the left-hand side can display scenes `contentL1`, `contentL2`, etc... and similarly the navigator on the right-hand side can display scenes `contentR1`, `contentR2`, etc... To express the navigation state I would write:\r\n\r\n```\r\n|-- app\r\n   |-- [left=contentL1, right=contentR1] * // currently focused\r\n   |-- [left=contentL1, right=contentR2]   // can navigate to this state\r\n   |-- [left=contentL2, right=contentR2]   // and then this one\r\n```\r\n\r\nThere is probably a simpler way to express this state so if having multiple sibling navigators is a valid use case then we might want to pick a different data structure for it.\r\n\r\n---\r\n\r\n**Layout:** sometimes there may be a child scene that covers the entire parent scene so that it intercepts all gestures, but parts of the child are transparent. For example, there could be a dialog that can be dismissed by swiping anywhere (even outside of the dialog), but you can still see the parent scene behind the dialog:\r\n\r\n```\r\n+-----------------------------+         \r\n|             app             |         \r\n|                             |         \r\n|                             |         \r\n|      +---------------+      |         \r\n|      |               |      |         \r\n|      |    dialog     |      |         \r\n|      |               |      |         \r\n|      +---------------+      |         \r\n|                          ^  |         \r\n|                          |  |         \r\n+-----------------------------+         \r\n                           |            \r\n                           +            \r\ncan swipe anywhere to dismiss dialog    \r\n```\r\n\r\nTo implement this, I would make the dialog scene's layout cover the entire screen (a big transparent View) so that it receives all touches before the app scene.\r\n\r\n**Gestures:** I believe you had some ideas about progress events. I'm not sure about a lot of the API but they are these are some types of transitions I've seen in other apps:\r\n\r\n- Navigation bar of course\r\n- Carousel navigation like Snapchat (built on top of ScrollView... reimplementing the scroll pagination physics still doesn't feel right)\r\n  - Also, carousel that updates the nav bar, like the Skype app\r\n- Lightbox navigation when opening a single photo in the Facebook app\r\n- Opening/closing a photo that's part of an album in the Facebook app\r\n- The story strip in FB Paper (might be hard)\r\n- Minimizing a video in the YouTube app while it keeps playing in the corner\r\n- Opening/closing an email in Google Inbox\r\n\r\nIt could be a little helpful to look at UIViewController's API to see how the transitions are structured. The full API is pretty complex but it might provide an idea or two."
}
]
