[
{
  "url": "https://api.github.com/repos/facebook/react-native/issues/comments/152347671",
  "html_url": "https://github.com/facebook/react-native/issues/3772#issuecomment-152347671",
  "issue_url": "https://api.github.com/repos/facebook/react-native/issues/3772",
  "id": 152347671,
  "user": {
    "login": "nucleartux",
    "id": 199706,
    "avatar_url": "https://avatars.githubusercontent.com/u/199706?v=3",
    "gravatar_id": "",
    "url": "https://api.github.com/users/nucleartux",
    "html_url": "https://github.com/nucleartux",
    "followers_url": "https://api.github.com/users/nucleartux/followers",
    "following_url": "https://api.github.com/users/nucleartux/following{/other_user}",
    "gists_url": "https://api.github.com/users/nucleartux/gists{/gist_id}",
    "starred_url": "https://api.github.com/users/nucleartux/starred{/owner}{/repo}",
    "subscriptions_url": "https://api.github.com/users/nucleartux/subscriptions",
    "organizations_url": "https://api.github.com/users/nucleartux/orgs",
    "repos_url": "https://api.github.com/users/nucleartux/repos",
    "events_url": "https://api.github.com/users/nucleartux/events{/privacy}",
    "received_events_url": "https://api.github.com/users/nucleartux/received_events",
    "type": "User",
    "site_admin": false
  },
  "created_at": "2015-10-29T22:39:48Z",
  "updated_at": "2015-10-29T22:39:48Z",
  "body": "@ide can you help?:)"
}
, {
  "url": "https://api.github.com/repos/facebook/react-native/issues/comments/152349729",
  "html_url": "https://github.com/facebook/react-native/issues/3772#issuecomment-152349729",
  "issue_url": "https://api.github.com/repos/facebook/react-native/issues/3772",
  "id": 152349729,
  "user": {
    "login": "ide",
    "id": 379606,
    "avatar_url": "https://avatars.githubusercontent.com/u/379606?v=3",
    "gravatar_id": "",
    "url": "https://api.github.com/users/ide",
    "html_url": "https://github.com/ide",
    "followers_url": "https://api.github.com/users/ide/followers",
    "following_url": "https://api.github.com/users/ide/following{/other_user}",
    "gists_url": "https://api.github.com/users/ide/gists{/gist_id}",
    "starred_url": "https://api.github.com/users/ide/starred{/owner}{/repo}",
    "subscriptions_url": "https://api.github.com/users/ide/subscriptions",
    "organizations_url": "https://api.github.com/users/ide/orgs",
    "repos_url": "https://api.github.com/users/ide/repos",
    "events_url": "https://api.github.com/users/ide/events{/privacy}",
    "received_events_url": "https://api.github.com/users/ide/received_events",
    "type": "User",
    "site_admin": false
  },
  "created_at": "2015-10-29T22:51:45Z",
  "updated_at": "2015-10-29T22:51:45Z",
  "body": "cc @kmagiera @mkonicek do you know of a Java HTTP library that notifies you of more fine-grained events, like when headers have been downloaded? (Also: it might make sense to look into HTTP/2 libraries now that it's popular, but that's a separate task.)"
}
, {
  "url": "https://api.github.com/repos/facebook/react-native/issues/comments/152472105",
  "html_url": "https://github.com/facebook/react-native/issues/3772#issuecomment-152472105",
  "issue_url": "https://api.github.com/repos/facebook/react-native/issues/3772",
  "id": 152472105,
  "user": {
    "login": "kmagiera",
    "id": 726445,
    "avatar_url": "https://avatars.githubusercontent.com/u/726445?v=3",
    "gravatar_id": "",
    "url": "https://api.github.com/users/kmagiera",
    "html_url": "https://github.com/kmagiera",
    "followers_url": "https://api.github.com/users/kmagiera/followers",
    "following_url": "https://api.github.com/users/kmagiera/following{/other_user}",
    "gists_url": "https://api.github.com/users/kmagiera/gists{/gist_id}",
    "starred_url": "https://api.github.com/users/kmagiera/starred{/owner}{/repo}",
    "subscriptions_url": "https://api.github.com/users/kmagiera/subscriptions",
    "organizations_url": "https://api.github.com/users/kmagiera/orgs",
    "repos_url": "https://api.github.com/users/kmagiera/repos",
    "events_url": "https://api.github.com/users/kmagiera/events{/privacy}",
    "received_events_url": "https://api.github.com/users/kmagiera/received_events",
    "type": "User",
    "site_admin": false
  },
  "created_at": "2015-10-30T09:32:25Z",
  "updated_at": "2015-10-30T09:32:25Z",
  "body": "OkHttp that we use as a default http client have interceptors API that allows for tracking the progress (see https://github.com/square/okhttp/blob/master/samples/guide/src/main/java/com/squareup/okhttp/recipes/Progress.java). It also supports SPDY and HTTP/2 support is definitely on the works (if not already there https://github.com/square/okhttp/commit/21dc92f967d01c2da3ace57b7cc04421e2fd296b)"
}
, {
  "url": "https://api.github.com/repos/facebook/react-native/issues/comments/152474653",
  "html_url": "https://github.com/facebook/react-native/issues/3772#issuecomment-152474653",
  "issue_url": "https://api.github.com/repos/facebook/react-native/issues/3772",
  "id": 152474653,
  "user": {
    "login": "nucleartux",
    "id": 199706,
    "avatar_url": "https://avatars.githubusercontent.com/u/199706?v=3",
    "gravatar_id": "",
    "url": "https://api.github.com/users/nucleartux",
    "html_url": "https://github.com/nucleartux",
    "followers_url": "https://api.github.com/users/nucleartux/followers",
    "following_url": "https://api.github.com/users/nucleartux/following{/other_user}",
    "gists_url": "https://api.github.com/users/nucleartux/gists{/gist_id}",
    "starred_url": "https://api.github.com/users/nucleartux/starred{/owner}{/repo}",
    "subscriptions_url": "https://api.github.com/users/nucleartux/subscriptions",
    "organizations_url": "https://api.github.com/users/nucleartux/orgs",
    "repos_url": "https://api.github.com/users/nucleartux/repos",
    "events_url": "https://api.github.com/users/nucleartux/events{/privacy}",
    "received_events_url": "https://api.github.com/users/nucleartux/received_events",
    "type": "User",
    "site_admin": false
  },
  "created_at": "2015-10-30T09:45:38Z",
  "updated_at": "2015-10-30T09:48:39Z",
  "body": "Hm, but how realize HEADERS_RECEIVED event? I can read length of bytes send (for LOADING event), but how I can intercept what headers was received?"
}
, {
  "url": "https://api.github.com/repos/facebook/react-native/issues/comments/152481599",
  "html_url": "https://github.com/facebook/react-native/issues/3772#issuecomment-152481599",
  "issue_url": "https://api.github.com/repos/facebook/react-native/issues/3772",
  "id": 152481599,
  "user": {
    "login": "kmagiera",
    "id": 726445,
    "avatar_url": "https://avatars.githubusercontent.com/u/726445?v=3",
    "gravatar_id": "",
    "url": "https://api.github.com/users/kmagiera",
    "html_url": "https://github.com/kmagiera",
    "followers_url": "https://api.github.com/users/kmagiera/followers",
    "following_url": "https://api.github.com/users/kmagiera/following{/other_user}",
    "gists_url": "https://api.github.com/users/kmagiera/gists{/gist_id}",
    "starred_url": "https://api.github.com/users/kmagiera/starred{/owner}{/repo}",
    "subscriptions_url": "https://api.github.com/users/kmagiera/subscriptions",
    "organizations_url": "https://api.github.com/users/kmagiera/orgs",
    "repos_url": "https://api.github.com/users/kmagiera/repos",
    "events_url": "https://api.github.com/users/kmagiera/events{/privacy}",
    "received_events_url": "https://api.github.com/users/kmagiera/received_events",
    "type": "User",
    "site_admin": false
  },
  "created_at": "2015-10-30T10:13:03Z",
  "updated_at": "2015-10-30T10:13:03Z",
  "body": "Not an expert in OkHttp API but it looks like when `Chain.proceed` returns headers are available (or maybe you need to call `Response.headers()` on the result of `Chain.proceed` and it's blocking). Those are questions you perhaps want to ask on okhttp github project rather than here"
}
, {
  "url": "https://api.github.com/repos/facebook/react-native/issues/comments/152489952",
  "html_url": "https://github.com/facebook/react-native/issues/3772#issuecomment-152489952",
  "issue_url": "https://api.github.com/repos/facebook/react-native/issues/3772",
  "id": 152489952,
  "user": {
    "login": "nucleartux",
    "id": 199706,
    "avatar_url": "https://avatars.githubusercontent.com/u/199706?v=3",
    "gravatar_id": "",
    "url": "https://api.github.com/users/nucleartux",
    "html_url": "https://github.com/nucleartux",
    "followers_url": "https://api.github.com/users/nucleartux/followers",
    "following_url": "https://api.github.com/users/nucleartux/following{/other_user}",
    "gists_url": "https://api.github.com/users/nucleartux/gists{/gist_id}",
    "starred_url": "https://api.github.com/users/nucleartux/starred{/owner}{/repo}",
    "subscriptions_url": "https://api.github.com/users/nucleartux/subscriptions",
    "organizations_url": "https://api.github.com/users/nucleartux/orgs",
    "repos_url": "https://api.github.com/users/nucleartux/repos",
    "events_url": "https://api.github.com/users/nucleartux/events{/privacy}",
    "received_events_url": "https://api.github.com/users/nucleartux/received_events",
    "type": "User",
    "site_admin": false
  },
  "created_at": "2015-10-30T10:44:05Z",
  "updated_at": "2015-10-30T10:44:05Z",
  "body": "thank you, I will try realize this events :)"
}
]
