[
{
  "url": "https://api.github.com/repos/facebook/react-native/issues/comments/151768250",
  "html_url": "https://github.com/facebook/react-native/pull/3745#issuecomment-151768250",
  "issue_url": "https://api.github.com/repos/facebook/react-native/issues/3745",
  "id": 151768250,
  "user": {
    "login": "facebook-github-bot",
    "id": 6422482,
    "avatar_url": "https://avatars.githubusercontent.com/u/6422482?v=3",
    "gravatar_id": "",
    "url": "https://api.github.com/users/facebook-github-bot",
    "html_url": "https://github.com/facebook-github-bot",
    "followers_url": "https://api.github.com/users/facebook-github-bot/followers",
    "following_url": "https://api.github.com/users/facebook-github-bot/following{/other_user}",
    "gists_url": "https://api.github.com/users/facebook-github-bot/gists{/gist_id}",
    "starred_url": "https://api.github.com/users/facebook-github-bot/starred{/owner}{/repo}",
    "subscriptions_url": "https://api.github.com/users/facebook-github-bot/subscriptions",
    "organizations_url": "https://api.github.com/users/facebook-github-bot/orgs",
    "repos_url": "https://api.github.com/users/facebook-github-bot/repos",
    "events_url": "https://api.github.com/users/facebook-github-bot/events{/privacy}",
    "received_events_url": "https://api.github.com/users/facebook-github-bot/received_events",
    "type": "User",
    "site_admin": false
  },
  "created_at": "2015-10-28T08:47:37Z",
  "updated_at": "2015-10-28T08:47:37Z",
  "body": "By analyzing the blame information on this pull request, we identified @brentvatne, @chirag04 and @tylermcginnis to be potential reviewers."
}
]
