[
{
  "url": "https://api.github.com/repos/sourcegraph/srclib/issues/comments/168145481",
  "html_url": "https://github.com/sourcegraph/srclib/pull/235#issuecomment-168145481",
  "issue_url": "https://api.github.com/repos/sourcegraph/srclib/issues/235",
  "id": 168145481,
  "user": {
    "login": "sqs",
    "id": 1976,
    "avatar_url": "https://avatars.githubusercontent.com/u/1976?v=3",
    "gravatar_id": "",
    "url": "https://api.github.com/users/sqs",
    "html_url": "https://github.com/sqs",
    "followers_url": "https://api.github.com/users/sqs/followers",
    "following_url": "https://api.github.com/users/sqs/following{/other_user}",
    "gists_url": "https://api.github.com/users/sqs/gists{/gist_id}",
    "starred_url": "https://api.github.com/users/sqs/starred{/owner}{/repo}",
    "subscriptions_url": "https://api.github.com/users/sqs/subscriptions",
    "organizations_url": "https://api.github.com/users/sqs/orgs",
    "repos_url": "https://api.github.com/users/sqs/repos",
    "events_url": "https://api.github.com/users/sqs/events{/privacy}",
    "received_events_url": "https://api.github.com/users/sqs/received_events",
    "type": "User",
    "site_admin": false
  },
  "created_at": "2015-12-31T07:50:30Z",
  "updated_at": "2015-12-31T07:50:30Z",
  "body": "Please also review https://src.sourcegraph.com/sourcegraph/.changes/510"
}
]
