[
{
  "url": "https://api.github.com/repos/ValveSoftware/halflife/issues/comments/13677757",
  "html_url": "https://github.com/ValveSoftware/halflife/issues/244#issuecomment-13677757",
  "issue_url": "https://api.github.com/repos/ValveSoftware/halflife/issues/244",
  "id": 13677757,
  "user": {
    "login": "stormy9699",
    "id": 3607830,
    "avatar_url": "https://avatars.githubusercontent.com/u/3607830?v=3",
    "gravatar_id": "",
    "url": "https://api.github.com/users/stormy9699",
    "html_url": "https://github.com/stormy9699",
    "followers_url": "https://api.github.com/users/stormy9699/followers",
    "following_url": "https://api.github.com/users/stormy9699/following{/other_user}",
    "gists_url": "https://api.github.com/users/stormy9699/gists{/gist_id}",
    "starred_url": "https://api.github.com/users/stormy9699/starred{/owner}{/repo}",
    "subscriptions_url": "https://api.github.com/users/stormy9699/subscriptions",
    "organizations_url": "https://api.github.com/users/stormy9699/orgs",
    "repos_url": "https://api.github.com/users/stormy9699/repos",
    "events_url": "https://api.github.com/users/stormy9699/events{/privacy}",
    "received_events_url": "https://api.github.com/users/stormy9699/received_events",
    "type": "User",
    "site_admin": false
  },
  "created_at": "2013-02-17T00:04:54Z",
  "updated_at": "2013-02-17T00:04:54Z",
  "body": "Great idea! I've played competitive CS 1.6 for years, and I've always come up to a situation where I'm too far away from the bomb to hear it getting picked up so my teammates have to ghost for me. +1"
}
, {
  "url": "https://api.github.com/repos/ValveSoftware/halflife/issues/comments/13678226",
  "html_url": "https://github.com/ValveSoftware/halflife/issues/244#issuecomment-13678226",
  "issue_url": "https://api.github.com/repos/ValveSoftware/halflife/issues/244",
  "id": 13678226,
  "user": {
    "login": "MaximilianKohler",
    "id": 3606996,
    "avatar_url": "https://avatars.githubusercontent.com/u/3606996?v=3",
    "gravatar_id": "",
    "url": "https://api.github.com/users/MaximilianKohler",
    "html_url": "https://github.com/MaximilianKohler",
    "followers_url": "https://api.github.com/users/MaximilianKohler/followers",
    "following_url": "https://api.github.com/users/MaximilianKohler/following{/other_user}",
    "gists_url": "https://api.github.com/users/MaximilianKohler/gists{/gist_id}",
    "starred_url": "https://api.github.com/users/MaximilianKohler/starred{/owner}{/repo}",
    "subscriptions_url": "https://api.github.com/users/MaximilianKohler/subscriptions",
    "organizations_url": "https://api.github.com/users/MaximilianKohler/orgs",
    "repos_url": "https://api.github.com/users/MaximilianKohler/repos",
    "events_url": "https://api.github.com/users/MaximilianKohler/events{/privacy}",
    "received_events_url": "https://api.github.com/users/MaximilianKohler/received_events",
    "type": "User",
    "site_admin": false
  },
  "created_at": "2013-02-17T00:39:48Z",
  "updated_at": "2013-02-17T00:45:51Z",
  "body": "I think a change like this deserves input from professional european players before it's attempted.\r\n\r\n@MaxKorz that seems fine."
}
, {
  "url": "https://api.github.com/repos/ValveSoftware/halflife/issues/comments/13678255",
  "html_url": "https://github.com/ValveSoftware/halflife/issues/244#issuecomment-13678255",
  "issue_url": "https://api.github.com/repos/ValveSoftware/halflife/issues/244",
  "id": 13678255,
  "user": {
    "login": "MaxKorz",
    "id": 1938118,
    "avatar_url": "https://avatars.githubusercontent.com/u/1938118?v=3",
    "gravatar_id": "",
    "url": "https://api.github.com/users/MaxKorz",
    "html_url": "https://github.com/MaxKorz",
    "followers_url": "https://api.github.com/users/MaxKorz/followers",
    "following_url": "https://api.github.com/users/MaxKorz/following{/other_user}",
    "gists_url": "https://api.github.com/users/MaxKorz/gists{/gist_id}",
    "starred_url": "https://api.github.com/users/MaxKorz/starred{/owner}{/repo}",
    "subscriptions_url": "https://api.github.com/users/MaxKorz/subscriptions",
    "organizations_url": "https://api.github.com/users/MaxKorz/orgs",
    "repos_url": "https://api.github.com/users/MaxKorz/repos",
    "events_url": "https://api.github.com/users/MaxKorz/events{/privacy}",
    "received_events_url": "https://api.github.com/users/MaxKorz/received_events",
    "type": "User",
    "site_admin": false
  },
  "created_at": "2013-02-17T00:41:33Z",
  "updated_at": "2013-02-17T00:41:33Z",
  "body": "or make it a server cvar"
}
, {
  "url": "https://api.github.com/repos/ValveSoftware/halflife/issues/comments/13678835",
  "html_url": "https://github.com/ValveSoftware/halflife/issues/244#issuecomment-13678835",
  "issue_url": "https://api.github.com/repos/ValveSoftware/halflife/issues/244",
  "id": 13678835,
  "user": {
    "login": "Antoweif",
    "id": 3610677,
    "avatar_url": "https://avatars.githubusercontent.com/u/3610677?v=3",
    "gravatar_id": "",
    "url": "https://api.github.com/users/Antoweif",
    "html_url": "https://github.com/Antoweif",
    "followers_url": "https://api.github.com/users/Antoweif/followers",
    "following_url": "https://api.github.com/users/Antoweif/following{/other_user}",
    "gists_url": "https://api.github.com/users/Antoweif/gists{/gist_id}",
    "starred_url": "https://api.github.com/users/Antoweif/starred{/owner}{/repo}",
    "subscriptions_url": "https://api.github.com/users/Antoweif/subscriptions",
    "organizations_url": "https://api.github.com/users/Antoweif/orgs",
    "repos_url": "https://api.github.com/users/Antoweif/repos",
    "events_url": "https://api.github.com/users/Antoweif/events{/privacy}",
    "received_events_url": "https://api.github.com/users/Antoweif/received_events",
    "type": "User",
    "site_admin": false
  },
  "created_at": "2013-02-17T01:27:03Z",
  "updated_at": "2013-02-17T01:27:03Z",
  "body": "Agree, make it a cvar."
}
, {
  "url": "https://api.github.com/repos/ValveSoftware/halflife/issues/comments/13680292",
  "html_url": "https://github.com/ValveSoftware/halflife/issues/244#issuecomment-13680292",
  "issue_url": "https://api.github.com/repos/ValveSoftware/halflife/issues/244",
  "id": 13680292,
  "user": {
    "login": "zootziq",
    "id": 3613503,
    "avatar_url": "https://avatars.githubusercontent.com/u/3613503?v=3",
    "gravatar_id": "",
    "url": "https://api.github.com/users/zootziq",
    "html_url": "https://github.com/zootziq",
    "followers_url": "https://api.github.com/users/zootziq/followers",
    "following_url": "https://api.github.com/users/zootziq/following{/other_user}",
    "gists_url": "https://api.github.com/users/zootziq/gists{/gist_id}",
    "starred_url": "https://api.github.com/users/zootziq/starred{/owner}{/repo}",
    "subscriptions_url": "https://api.github.com/users/zootziq/subscriptions",
    "organizations_url": "https://api.github.com/users/zootziq/orgs",
    "repos_url": "https://api.github.com/users/zootziq/repos",
    "events_url": "https://api.github.com/users/zootziq/events{/privacy}",
    "received_events_url": "https://api.github.com/users/zootziq/received_events",
    "type": "User",
    "site_admin": false
  },
  "created_at": "2013-02-17T03:51:32Z",
  "updated_at": "2013-02-17T03:51:32Z",
  "body": "if cvar it will be fine. but if forcibly this not good idea, cuz people used to it."
}
, {
  "url": "https://api.github.com/repos/ValveSoftware/halflife/issues/comments/13683570",
  "html_url": "https://github.com/ValveSoftware/halflife/issues/244#issuecomment-13683570",
  "issue_url": "https://api.github.com/repos/ValveSoftware/halflife/issues/244",
  "id": 13683570,
  "user": {
    "login": "hAnnahf",
    "id": 1469707,
    "avatar_url": "https://avatars.githubusercontent.com/u/1469707?v=3",
    "gravatar_id": "",
    "url": "https://api.github.com/users/hAnnahf",
    "html_url": "https://github.com/hAnnahf",
    "followers_url": "https://api.github.com/users/hAnnahf/followers",
    "following_url": "https://api.github.com/users/hAnnahf/following{/other_user}",
    "gists_url": "https://api.github.com/users/hAnnahf/gists{/gist_id}",
    "starred_url": "https://api.github.com/users/hAnnahf/starred{/owner}{/repo}",
    "subscriptions_url": "https://api.github.com/users/hAnnahf/subscriptions",
    "organizations_url": "https://api.github.com/users/hAnnahf/orgs",
    "repos_url": "https://api.github.com/users/hAnnahf/repos",
    "events_url": "https://api.github.com/users/hAnnahf/events{/privacy}",
    "received_events_url": "https://api.github.com/users/hAnnahf/received_events",
    "type": "User",
    "site_admin": false
  },
  "created_at": "2013-02-17T10:01:27Z",
  "updated_at": "2013-02-17T10:01:27Z",
  "body": "This „bug“ is a part of the 5on5 CS scene and it shouldn't be fixed in my opinion."
}
, {
  "url": "https://api.github.com/repos/ValveSoftware/halflife/issues/comments/13685653",
  "html_url": "https://github.com/ValveSoftware/halflife/issues/244#issuecomment-13685653",
  "issue_url": "https://api.github.com/repos/ValveSoftware/halflife/issues/244",
  "id": 13685653,
  "user": {
    "login": "johndrinkwater",
    "id": 7708,
    "avatar_url": "https://avatars.githubusercontent.com/u/7708?v=3",
    "gravatar_id": "",
    "url": "https://api.github.com/users/johndrinkwater",
    "html_url": "https://github.com/johndrinkwater",
    "followers_url": "https://api.github.com/users/johndrinkwater/followers",
    "following_url": "https://api.github.com/users/johndrinkwater/following{/other_user}",
    "gists_url": "https://api.github.com/users/johndrinkwater/gists{/gist_id}",
    "starred_url": "https://api.github.com/users/johndrinkwater/starred{/owner}{/repo}",
    "subscriptions_url": "https://api.github.com/users/johndrinkwater/subscriptions",
    "organizations_url": "https://api.github.com/users/johndrinkwater/orgs",
    "repos_url": "https://api.github.com/users/johndrinkwater/repos",
    "events_url": "https://api.github.com/users/johndrinkwater/events{/privacy}",
    "received_events_url": "https://api.github.com/users/johndrinkwater/received_events",
    "type": "User",
    "site_admin": false
  },
  "created_at": "2013-02-17T13:15:00Z",
  "updated_at": "2013-02-17T13:15:00Z",
  "body": "@ukcko which is why others have requested it to be a server cvar :)"
}
]
