[
{
  "url": "https://api.github.com/repos/ValveSoftware/halflife/issues/comments/15767290",
  "html_url": "https://github.com/ValveSoftware/halflife/issues/895#issuecomment-15767290",
  "issue_url": "https://api.github.com/repos/ValveSoftware/halflife/issues/895",
  "id": 15767290,
  "user": {
    "login": "vjatseslav",
    "id": 3598534,
    "avatar_url": "https://avatars.githubusercontent.com/u/3598534?v=3",
    "gravatar_id": "",
    "url": "https://api.github.com/users/vjatseslav",
    "html_url": "https://github.com/vjatseslav",
    "followers_url": "https://api.github.com/users/vjatseslav/followers",
    "following_url": "https://api.github.com/users/vjatseslav/following{/other_user}",
    "gists_url": "https://api.github.com/users/vjatseslav/gists{/gist_id}",
    "starred_url": "https://api.github.com/users/vjatseslav/starred{/owner}{/repo}",
    "subscriptions_url": "https://api.github.com/users/vjatseslav/subscriptions",
    "organizations_url": "https://api.github.com/users/vjatseslav/orgs",
    "repos_url": "https://api.github.com/users/vjatseslav/repos",
    "events_url": "https://api.github.com/users/vjatseslav/events{/privacy}",
    "received_events_url": "https://api.github.com/users/vjatseslav/received_events",
    "type": "User",
    "site_admin": false
  },
  "created_at": "2013-04-02T10:19:00Z",
  "updated_at": "2013-04-02T10:36:58Z",
  "body": "After the last OF update Eset Smart Security detects file **./Steam/steamapps/downloading/50/gearbox/DQ2249.ICD** as probably modificated **Win32/Nuwar** virus. Because of that I can't update HL:OF to beta when antivirus is on."
}
, {
  "url": "https://api.github.com/repos/ValveSoftware/halflife/issues/comments/15787857",
  "html_url": "https://github.com/ValveSoftware/halflife/issues/895#issuecomment-15787857",
  "issue_url": "https://api.github.com/repos/ValveSoftware/halflife/issues/895",
  "id": 15787857,
  "user": {
    "login": "alfred-valve",
    "id": 3093825,
    "avatar_url": "https://avatars.githubusercontent.com/u/3093825?v=3",
    "gravatar_id": "",
    "url": "https://api.github.com/users/alfred-valve",
    "html_url": "https://github.com/alfred-valve",
    "followers_url": "https://api.github.com/users/alfred-valve/followers",
    "following_url": "https://api.github.com/users/alfred-valve/following{/other_user}",
    "gists_url": "https://api.github.com/users/alfred-valve/gists{/gist_id}",
    "starred_url": "https://api.github.com/users/alfred-valve/starred{/owner}{/repo}",
    "subscriptions_url": "https://api.github.com/users/alfred-valve/subscriptions",
    "organizations_url": "https://api.github.com/users/alfred-valve/orgs",
    "repos_url": "https://api.github.com/users/alfred-valve/repos",
    "events_url": "https://api.github.com/users/alfred-valve/events{/privacy}",
    "received_events_url": "https://api.github.com/users/alfred-valve/received_events",
    "type": "User",
    "site_admin": false
  },
  "created_at": "2013-04-02T16:52:31Z",
  "updated_at": "2013-04-02T16:53:10Z",
  "body": "This would be an issue to take up with you AV vendor...\r\n\r\nI will remove that file from the game though, it is not needed."
}
, {
  "url": "https://api.github.com/repos/ValveSoftware/halflife/issues/comments/15789037",
  "html_url": "https://github.com/ValveSoftware/halflife/issues/895#issuecomment-15789037",
  "issue_url": "https://api.github.com/repos/ValveSoftware/halflife/issues/895",
  "id": 15789037,
  "user": {
    "login": "Yulike",
    "id": 3406893,
    "avatar_url": "https://avatars.githubusercontent.com/u/3406893?v=3",
    "gravatar_id": "",
    "url": "https://api.github.com/users/Yulike",
    "html_url": "https://github.com/Yulike",
    "followers_url": "https://api.github.com/users/Yulike/followers",
    "following_url": "https://api.github.com/users/Yulike/following{/other_user}",
    "gists_url": "https://api.github.com/users/Yulike/gists{/gist_id}",
    "starred_url": "https://api.github.com/users/Yulike/starred{/owner}{/repo}",
    "subscriptions_url": "https://api.github.com/users/Yulike/subscriptions",
    "organizations_url": "https://api.github.com/users/Yulike/orgs",
    "repos_url": "https://api.github.com/users/Yulike/repos",
    "events_url": "https://api.github.com/users/Yulike/events{/privacy}",
    "received_events_url": "https://api.github.com/users/Yulike/received_events",
    "type": "User",
    "site_admin": false
  },
  "created_at": "2013-04-02T17:13:09Z",
  "updated_at": "2013-04-02T17:13:09Z",
  "body": "Use Linux and you wont need an anti-virus! :+1: "
}
, {
  "url": "https://api.github.com/repos/ValveSoftware/halflife/issues/comments/15799792",
  "html_url": "https://github.com/ValveSoftware/halflife/issues/895#issuecomment-15799792",
  "issue_url": "https://api.github.com/repos/ValveSoftware/halflife/issues/895",
  "id": 15799792,
  "user": {
    "login": "Mario6347",
    "id": 3900513,
    "avatar_url": "https://avatars.githubusercontent.com/u/3900513?v=3",
    "gravatar_id": "",
    "url": "https://api.github.com/users/Mario6347",
    "html_url": "https://github.com/Mario6347",
    "followers_url": "https://api.github.com/users/Mario6347/followers",
    "following_url": "https://api.github.com/users/Mario6347/following{/other_user}",
    "gists_url": "https://api.github.com/users/Mario6347/gists{/gist_id}",
    "starred_url": "https://api.github.com/users/Mario6347/starred{/owner}{/repo}",
    "subscriptions_url": "https://api.github.com/users/Mario6347/subscriptions",
    "organizations_url": "https://api.github.com/users/Mario6347/orgs",
    "repos_url": "https://api.github.com/users/Mario6347/repos",
    "events_url": "https://api.github.com/users/Mario6347/events{/privacy}",
    "received_events_url": "https://api.github.com/users/Mario6347/received_events",
    "type": "User",
    "site_admin": false
  },
  "created_at": "2013-04-02T20:18:33Z",
  "updated_at": "2013-04-02T20:18:33Z",
  "body": "Right, you have nothing to secure there because nobody can install anything without programming skills :D \r\n\r\nHowever both OS are insecure. Hope you have a anti-virus software installed.\r\n\r\n@alfred-valve \r\nIt is still not acceptable. Please inform the guys of anti-virus software earlier. No my system is clean, its always the damn hlds.exe since the port has been begun."
}
, {
  "url": "https://api.github.com/repos/ValveSoftware/halflife/issues/comments/15815679",
  "html_url": "https://github.com/ValveSoftware/halflife/issues/895#issuecomment-15815679",
  "issue_url": "https://api.github.com/repos/ValveSoftware/halflife/issues/895",
  "id": 15815679,
  "user": {
    "login": "vjatseslav",
    "id": 3598534,
    "avatar_url": "https://avatars.githubusercontent.com/u/3598534?v=3",
    "gravatar_id": "",
    "url": "https://api.github.com/users/vjatseslav",
    "html_url": "https://github.com/vjatseslav",
    "followers_url": "https://api.github.com/users/vjatseslav/followers",
    "following_url": "https://api.github.com/users/vjatseslav/following{/other_user}",
    "gists_url": "https://api.github.com/users/vjatseslav/gists{/gist_id}",
    "starred_url": "https://api.github.com/users/vjatseslav/starred{/owner}{/repo}",
    "subscriptions_url": "https://api.github.com/users/vjatseslav/subscriptions",
    "organizations_url": "https://api.github.com/users/vjatseslav/orgs",
    "repos_url": "https://api.github.com/users/vjatseslav/repos",
    "events_url": "https://api.github.com/users/vjatseslav/events{/privacy}",
    "received_events_url": "https://api.github.com/users/vjatseslav/received_events",
    "type": "User",
    "site_admin": false
  },
  "created_at": "2013-04-03T03:22:48Z",
  "updated_at": "2013-04-03T03:22:48Z",
  "body": "@Mario6347, we're talking not about informing someone about Valve development; if you got any problem - please provide full information with name of threat."
}
, {
  "url": "https://api.github.com/repos/ValveSoftware/halflife/issues/comments/16072912",
  "html_url": "https://github.com/ValveSoftware/halflife/issues/895#issuecomment-16072912",
  "issue_url": "https://api.github.com/repos/ValveSoftware/halflife/issues/895",
  "id": 16072912,
  "user": {
    "login": "Mario6347",
    "id": 3900513,
    "avatar_url": "https://avatars.githubusercontent.com/u/3900513?v=3",
    "gravatar_id": "",
    "url": "https://api.github.com/users/Mario6347",
    "html_url": "https://github.com/Mario6347",
    "followers_url": "https://api.github.com/users/Mario6347/followers",
    "following_url": "https://api.github.com/users/Mario6347/following{/other_user}",
    "gists_url": "https://api.github.com/users/Mario6347/gists{/gist_id}",
    "starred_url": "https://api.github.com/users/Mario6347/starred{/owner}{/repo}",
    "subscriptions_url": "https://api.github.com/users/Mario6347/subscriptions",
    "organizations_url": "https://api.github.com/users/Mario6347/orgs",
    "repos_url": "https://api.github.com/users/Mario6347/repos",
    "events_url": "https://api.github.com/users/Mario6347/events{/privacy}",
    "received_events_url": "https://api.github.com/users/Mario6347/received_events",
    "type": "User",
    "site_admin": false
  },
  "created_at": "2013-04-08T19:30:33Z",
  "updated_at": "2013-04-08T19:30:33Z",
  "body": "I'm pretty sure they will have the ability to scan their executables on common virus search engines and inform the developer of the given programs about a false detection.\r\n\r\nIt is a necessary and simple thing to avoid such false detections for the folks."
}
, {
  "url": "https://api.github.com/repos/ValveSoftware/halflife/issues/comments/16073158",
  "html_url": "https://github.com/ValveSoftware/halflife/issues/895#issuecomment-16073158",
  "issue_url": "https://api.github.com/repos/ValveSoftware/halflife/issues/895",
  "id": 16073158,
  "user": {
    "login": "MaxKorz",
    "id": 1938118,
    "avatar_url": "https://avatars.githubusercontent.com/u/1938118?v=3",
    "gravatar_id": "",
    "url": "https://api.github.com/users/MaxKorz",
    "html_url": "https://github.com/MaxKorz",
    "followers_url": "https://api.github.com/users/MaxKorz/followers",
    "following_url": "https://api.github.com/users/MaxKorz/following{/other_user}",
    "gists_url": "https://api.github.com/users/MaxKorz/gists{/gist_id}",
    "starred_url": "https://api.github.com/users/MaxKorz/starred{/owner}{/repo}",
    "subscriptions_url": "https://api.github.com/users/MaxKorz/subscriptions",
    "organizations_url": "https://api.github.com/users/MaxKorz/orgs",
    "repos_url": "https://api.github.com/users/MaxKorz/repos",
    "events_url": "https://api.github.com/users/MaxKorz/events{/privacy}",
    "received_events_url": "https://api.github.com/users/MaxKorz/received_events",
    "type": "User",
    "site_admin": false
  },
  "created_at": "2013-04-08T19:34:20Z",
  "updated_at": "2013-04-08T19:34:20Z",
  "body": "you should rescan your PC with another anitivirus software...\r\nhttps://www.virustotal.com/en/file/8b87430ab7f68fe0a09944ffcde949c3c7d5aff55ac7af73b499b882dc211d25/analysis/1365449517/ hl.exe build 6004 (the latest beta)"
}
, {
  "url": "https://api.github.com/repos/ValveSoftware/halflife/issues/comments/16073519",
  "html_url": "https://github.com/ValveSoftware/halflife/issues/895#issuecomment-16073519",
  "issue_url": "https://api.github.com/repos/ValveSoftware/halflife/issues/895",
  "id": 16073519,
  "user": {
    "login": "Mario6347",
    "id": 3900513,
    "avatar_url": "https://avatars.githubusercontent.com/u/3900513?v=3",
    "gravatar_id": "",
    "url": "https://api.github.com/users/Mario6347",
    "html_url": "https://github.com/Mario6347",
    "followers_url": "https://api.github.com/users/Mario6347/followers",
    "following_url": "https://api.github.com/users/Mario6347/following{/other_user}",
    "gists_url": "https://api.github.com/users/Mario6347/gists{/gist_id}",
    "starred_url": "https://api.github.com/users/Mario6347/starred{/owner}{/repo}",
    "subscriptions_url": "https://api.github.com/users/Mario6347/subscriptions",
    "organizations_url": "https://api.github.com/users/Mario6347/orgs",
    "repos_url": "https://api.github.com/users/Mario6347/repos",
    "events_url": "https://api.github.com/users/Mario6347/events{/privacy}",
    "received_events_url": "https://api.github.com/users/Mario6347/received_events",
    "type": "User",
    "site_admin": false
  },
  "created_at": "2013-04-08T19:40:38Z",
  "updated_at": "2013-04-08T19:46:52Z",
  "body": "It is not just me. And please don't say it is my job to inform Avira about a false detection. I didnt create the hlds.exe. So Valve don't care about it? Probably Avira right then?\r\n\r\nhttp://steamcommunity.com/app/70/discussions/0/864957912759723413\r\nhttps://github.com/ValveSoftware/steam-for-linux/issues/1211\r\n\r\nLatest Download\r\nhttp://s8.postimg.org/6gmfmiiud/Unbenannt.png"
}
, {
  "url": "https://api.github.com/repos/ValveSoftware/halflife/issues/comments/16074039",
  "html_url": "https://github.com/ValveSoftware/halflife/issues/895#issuecomment-16074039",
  "issue_url": "https://api.github.com/repos/ValveSoftware/halflife/issues/895",
  "id": 16074039,
  "user": {
    "login": "MaxKorz",
    "id": 1938118,
    "avatar_url": "https://avatars.githubusercontent.com/u/1938118?v=3",
    "gravatar_id": "",
    "url": "https://api.github.com/users/MaxKorz",
    "html_url": "https://github.com/MaxKorz",
    "followers_url": "https://api.github.com/users/MaxKorz/followers",
    "following_url": "https://api.github.com/users/MaxKorz/following{/other_user}",
    "gists_url": "https://api.github.com/users/MaxKorz/gists{/gist_id}",
    "starred_url": "https://api.github.com/users/MaxKorz/starred{/owner}{/repo}",
    "subscriptions_url": "https://api.github.com/users/MaxKorz/subscriptions",
    "organizations_url": "https://api.github.com/users/MaxKorz/orgs",
    "repos_url": "https://api.github.com/users/MaxKorz/repos",
    "events_url": "https://api.github.com/users/MaxKorz/events{/privacy}",
    "received_events_url": "https://api.github.com/users/MaxKorz/received_events",
    "type": "User",
    "site_admin": false
  },
  "created_at": "2013-04-08T19:49:11Z",
  "updated_at": "2013-04-08T20:02:37Z",
  "body": "https://www.virustotal.com/en/file/af08cb6a2ab809901025ec392fbc5c5076825ba39073a5c296afba1ba8cb0423/analysis/1365450300/\r\nHonestly, Avira sucks. It's the worst antivirus software I've ever seen. This antivirus is famous for lots of false detections.\r\nGoogle for it. Some guy was learning a programming language and Avira detected trojans in code examples from a book.\r\n\r\nAnd yes, it's your job to inform developers of your antivirus about an issue.\r\nYou don't blame Microsoft for issues in Half-Life, do you? Then don't blame Valve for issues in your antivirus\r\n\r\nFYI: \r\nTR/Dropper.Gen\r\nhttp://www.avira.com/en/support-threats-description/tid/3647/tr_dropper.gen.html\r\nDrops malicious files\r\n\r\nhlds.exe is server. Server downloads and uploads various files from players.\r\nAvira think it's a trojan so you should blame Avira"
}
, {
  "url": "https://api.github.com/repos/ValveSoftware/halflife/issues/comments/16075895",
  "html_url": "https://github.com/ValveSoftware/halflife/issues/895#issuecomment-16075895",
  "issue_url": "https://api.github.com/repos/ValveSoftware/halflife/issues/895",
  "id": 16075895,
  "user": {
    "login": "Mario6347",
    "id": 3900513,
    "avatar_url": "https://avatars.githubusercontent.com/u/3900513?v=3",
    "gravatar_id": "",
    "url": "https://api.github.com/users/Mario6347",
    "html_url": "https://github.com/Mario6347",
    "followers_url": "https://api.github.com/users/Mario6347/followers",
    "following_url": "https://api.github.com/users/Mario6347/following{/other_user}",
    "gists_url": "https://api.github.com/users/Mario6347/gists{/gist_id}",
    "starred_url": "https://api.github.com/users/Mario6347/starred{/owner}{/repo}",
    "subscriptions_url": "https://api.github.com/users/Mario6347/subscriptions",
    "organizations_url": "https://api.github.com/users/Mario6347/orgs",
    "repos_url": "https://api.github.com/users/Mario6347/repos",
    "events_url": "https://api.github.com/users/Mario6347/events{/privacy}",
    "received_events_url": "https://api.github.com/users/Mario6347/received_events",
    "type": "User",
    "site_admin": false
  },
  "created_at": "2013-04-08T20:22:23Z",
  "updated_at": "2013-04-08T20:22:23Z",
  "body": "I don't care about your explanations, a false detection is a false detection. And the developer should care about it not the user. Why I would blame Microsoft if Valve is incapable to create a solid program? Wait ... but my AV Software detects falsely and the guys from Avira incapable? \r\n\r\nSorry man, I trust my doc more than my drug dealer - if you got the comparison. You know that the system priority is: OS > AV Software > Other Software / Games\r\n\r\nSo Valve is at the end. As a serious developer you care about false detections and inform the guys who detected your files falsely. If you still disagree then nobody can help you. Just stop bootlicking. \r\n\r\nIn addition if you read my 1st post I said that I'm sure its falsely detected. However I can't ... no I don't want to inform my AV vendor every time Valve updates hlds.exe. Just because the guys are too lazy to check basics."
}
, {
  "url": "https://api.github.com/repos/ValveSoftware/halflife/issues/comments/16076098",
  "html_url": "https://github.com/ValveSoftware/halflife/issues/895#issuecomment-16076098",
  "issue_url": "https://api.github.com/repos/ValveSoftware/halflife/issues/895",
  "id": 16076098,
  "user": {
    "login": "Mario6347",
    "id": 3900513,
    "avatar_url": "https://avatars.githubusercontent.com/u/3900513?v=3",
    "gravatar_id": "",
    "url": "https://api.github.com/users/Mario6347",
    "html_url": "https://github.com/Mario6347",
    "followers_url": "https://api.github.com/users/Mario6347/followers",
    "following_url": "https://api.github.com/users/Mario6347/following{/other_user}",
    "gists_url": "https://api.github.com/users/Mario6347/gists{/gist_id}",
    "starred_url": "https://api.github.com/users/Mario6347/starred{/owner}{/repo}",
    "subscriptions_url": "https://api.github.com/users/Mario6347/subscriptions",
    "organizations_url": "https://api.github.com/users/Mario6347/orgs",
    "repos_url": "https://api.github.com/users/Mario6347/repos",
    "events_url": "https://api.github.com/users/Mario6347/events{/privacy}",
    "received_events_url": "https://api.github.com/users/Mario6347/received_events",
    "type": "User",
    "site_admin": false
  },
  "created_at": "2013-04-08T20:25:55Z",
  "updated_at": "2013-04-08T20:25:55Z",
  "body": "Not mention that there are thousands of other game developers and they don't have such issues like Valve at the moment :p "
}
, {
  "url": "https://api.github.com/repos/ValveSoftware/halflife/issues/comments/16076465",
  "html_url": "https://github.com/ValveSoftware/halflife/issues/895#issuecomment-16076465",
  "issue_url": "https://api.github.com/repos/ValveSoftware/halflife/issues/895",
  "id": 16076465,
  "user": {
    "login": "hAnnahf",
    "id": 1469707,
    "avatar_url": "https://avatars.githubusercontent.com/u/1469707?v=3",
    "gravatar_id": "",
    "url": "https://api.github.com/users/hAnnahf",
    "html_url": "https://github.com/hAnnahf",
    "followers_url": "https://api.github.com/users/hAnnahf/followers",
    "following_url": "https://api.github.com/users/hAnnahf/following{/other_user}",
    "gists_url": "https://api.github.com/users/hAnnahf/gists{/gist_id}",
    "starred_url": "https://api.github.com/users/hAnnahf/starred{/owner}{/repo}",
    "subscriptions_url": "https://api.github.com/users/hAnnahf/subscriptions",
    "organizations_url": "https://api.github.com/users/hAnnahf/orgs",
    "repos_url": "https://api.github.com/users/hAnnahf/repos",
    "events_url": "https://api.github.com/users/hAnnahf/events{/privacy}",
    "received_events_url": "https://api.github.com/users/hAnnahf/received_events",
    "type": "User",
    "site_admin": false
  },
  "created_at": "2013-04-08T20:32:05Z",
  "updated_at": "2013-04-08T20:32:05Z",
  "body": "@Mario6347 You made me laugh by your last post…"
}
, {
  "url": "https://api.github.com/repos/ValveSoftware/halflife/issues/comments/16077059",
  "html_url": "https://github.com/ValveSoftware/halflife/issues/895#issuecomment-16077059",
  "issue_url": "https://api.github.com/repos/ValveSoftware/halflife/issues/895",
  "id": 16077059,
  "user": {
    "login": "MaxKorz",
    "id": 1938118,
    "avatar_url": "https://avatars.githubusercontent.com/u/1938118?v=3",
    "gravatar_id": "",
    "url": "https://api.github.com/users/MaxKorz",
    "html_url": "https://github.com/MaxKorz",
    "followers_url": "https://api.github.com/users/MaxKorz/followers",
    "following_url": "https://api.github.com/users/MaxKorz/following{/other_user}",
    "gists_url": "https://api.github.com/users/MaxKorz/gists{/gist_id}",
    "starred_url": "https://api.github.com/users/MaxKorz/starred{/owner}{/repo}",
    "subscriptions_url": "https://api.github.com/users/MaxKorz/subscriptions",
    "organizations_url": "https://api.github.com/users/MaxKorz/orgs",
    "repos_url": "https://api.github.com/users/MaxKorz/repos",
    "events_url": "https://api.github.com/users/MaxKorz/events{/privacy}",
    "received_events_url": "https://api.github.com/users/MaxKorz/received_events",
    "type": "User",
    "site_admin": false
  },
  "created_at": "2013-04-08T20:42:43Z",
  "updated_at": "2013-04-08T20:46:06Z",
  "body": "@Mario6347 sorry, my system priority is: OS > Other Software.\r\nIf something(like your antivirus) screws with my OS or \"other software\" I delete it\r\nIf I love this software and it has issues, I report about those issues to developers and don't blame everyone I want"
}
, {
  "url": "https://api.github.com/repos/ValveSoftware/halflife/issues/comments/16077402",
  "html_url": "https://github.com/ValveSoftware/halflife/issues/895#issuecomment-16077402",
  "issue_url": "https://api.github.com/repos/ValveSoftware/halflife/issues/895",
  "id": 16077402,
  "user": {
    "login": "Mario6347",
    "id": 3900513,
    "avatar_url": "https://avatars.githubusercontent.com/u/3900513?v=3",
    "gravatar_id": "",
    "url": "https://api.github.com/users/Mario6347",
    "html_url": "https://github.com/Mario6347",
    "followers_url": "https://api.github.com/users/Mario6347/followers",
    "following_url": "https://api.github.com/users/Mario6347/following{/other_user}",
    "gists_url": "https://api.github.com/users/Mario6347/gists{/gist_id}",
    "starred_url": "https://api.github.com/users/Mario6347/starred{/owner}{/repo}",
    "subscriptions_url": "https://api.github.com/users/Mario6347/subscriptions",
    "organizations_url": "https://api.github.com/users/Mario6347/orgs",
    "repos_url": "https://api.github.com/users/Mario6347/repos",
    "events_url": "https://api.github.com/users/Mario6347/events{/privacy}",
    "received_events_url": "https://api.github.com/users/Mario6347/received_events",
    "type": "User",
    "site_admin": false
  },
  "created_at": "2013-04-08T20:48:27Z",
  "updated_at": "2013-04-08T20:50:57Z",
  "body": "Lol you are deleting your AV Software, ofcourse you are :D \r\n\r\nBut yes you are right, usually I delete software which screws my system like most of the people. Here its Valve, sorry I always follow my old and prooved (whatsoever) AV Software :P "
}
, {
  "url": "https://api.github.com/repos/ValveSoftware/halflife/issues/comments/16077884",
  "html_url": "https://github.com/ValveSoftware/halflife/issues/895#issuecomment-16077884",
  "issue_url": "https://api.github.com/repos/ValveSoftware/halflife/issues/895",
  "id": 16077884,
  "user": {
    "login": "hAnnahf",
    "id": 1469707,
    "avatar_url": "https://avatars.githubusercontent.com/u/1469707?v=3",
    "gravatar_id": "",
    "url": "https://api.github.com/users/hAnnahf",
    "html_url": "https://github.com/hAnnahf",
    "followers_url": "https://api.github.com/users/hAnnahf/followers",
    "following_url": "https://api.github.com/users/hAnnahf/following{/other_user}",
    "gists_url": "https://api.github.com/users/hAnnahf/gists{/gist_id}",
    "starred_url": "https://api.github.com/users/hAnnahf/starred{/owner}{/repo}",
    "subscriptions_url": "https://api.github.com/users/hAnnahf/subscriptions",
    "organizations_url": "https://api.github.com/users/hAnnahf/orgs",
    "repos_url": "https://api.github.com/users/hAnnahf/repos",
    "events_url": "https://api.github.com/users/hAnnahf/events{/privacy}",
    "received_events_url": "https://api.github.com/users/hAnnahf/received_events",
    "type": "User",
    "site_admin": false
  },
  "created_at": "2013-04-08T20:55:44Z",
  "updated_at": "2013-04-08T20:55:44Z",
  "body": "@Mario6347 Oh come on! Avira is surely a good AV software, but as @MaxKorz said, it's pretty known for its false detections. Just check [this](https://www.virustotal.com/en/file/af08cb6a2ab809901025ec392fbc5c5076825ba39073a5c296afba1ba8cb0423/analysis/1365454386/), it's not a problem of Valve! Just get it."
}
, {
  "url": "https://api.github.com/repos/ValveSoftware/halflife/issues/comments/16079530",
  "html_url": "https://github.com/ValveSoftware/halflife/issues/895#issuecomment-16079530",
  "issue_url": "https://api.github.com/repos/ValveSoftware/halflife/issues/895",
  "id": 16079530,
  "user": {
    "login": "johndrinkwater",
    "id": 7708,
    "avatar_url": "https://avatars.githubusercontent.com/u/7708?v=3",
    "gravatar_id": "",
    "url": "https://api.github.com/users/johndrinkwater",
    "html_url": "https://github.com/johndrinkwater",
    "followers_url": "https://api.github.com/users/johndrinkwater/followers",
    "following_url": "https://api.github.com/users/johndrinkwater/following{/other_user}",
    "gists_url": "https://api.github.com/users/johndrinkwater/gists{/gist_id}",
    "starred_url": "https://api.github.com/users/johndrinkwater/starred{/owner}{/repo}",
    "subscriptions_url": "https://api.github.com/users/johndrinkwater/subscriptions",
    "organizations_url": "https://api.github.com/users/johndrinkwater/orgs",
    "repos_url": "https://api.github.com/users/johndrinkwater/repos",
    "events_url": "https://api.github.com/users/johndrinkwater/events{/privacy}",
    "received_events_url": "https://api.github.com/users/johndrinkwater/received_events",
    "type": "User",
    "site_admin": false
  },
  "created_at": "2013-04-08T21:20:40Z",
  "updated_at": "2013-04-08T21:20:40Z",
  "body": "Please, peeps, try not to argue here :)\r\nValve updated the game, and they are going to again until the work is finalised and then I imagine if its still causing false positives, avira would get customers informing them of the problem…"
}
, {
  "url": "https://api.github.com/repos/ValveSoftware/halflife/issues/comments/16079574",
  "html_url": "https://github.com/ValveSoftware/halflife/issues/895#issuecomment-16079574",
  "issue_url": "https://api.github.com/repos/ValveSoftware/halflife/issues/895",
  "id": 16079574,
  "user": {
    "login": "Mario6347",
    "id": 3900513,
    "avatar_url": "https://avatars.githubusercontent.com/u/3900513?v=3",
    "gravatar_id": "",
    "url": "https://api.github.com/users/Mario6347",
    "html_url": "https://github.com/Mario6347",
    "followers_url": "https://api.github.com/users/Mario6347/followers",
    "following_url": "https://api.github.com/users/Mario6347/following{/other_user}",
    "gists_url": "https://api.github.com/users/Mario6347/gists{/gist_id}",
    "starred_url": "https://api.github.com/users/Mario6347/starred{/owner}{/repo}",
    "subscriptions_url": "https://api.github.com/users/Mario6347/subscriptions",
    "organizations_url": "https://api.github.com/users/Mario6347/orgs",
    "repos_url": "https://api.github.com/users/Mario6347/repos",
    "events_url": "https://api.github.com/users/Mario6347/events{/privacy}",
    "received_events_url": "https://api.github.com/users/Mario6347/received_events",
    "type": "User",
    "site_admin": false
  },
  "created_at": "2013-04-08T21:21:21Z",
  "updated_at": "2013-04-08T21:22:32Z",
  "body": "It is an advanced option given by the software. Other AV software are not looking that hard for such things. However its fact the hlds.exe gets falsely detected every damn update. Seriously whats so hard about analyzing it and probably inform the av vendor before they release an update? Valve is a huge company there shouldn't be any issue to do so. \r\n\r\n\r\nEDIT: I guess you are right john :D \r\n\r\nJust pissed of people say avira is the issue :P "
}
, {
  "url": "https://api.github.com/repos/ValveSoftware/halflife/issues/comments/16104573",
  "html_url": "https://github.com/ValveSoftware/halflife/issues/895#issuecomment-16104573",
  "issue_url": "https://api.github.com/repos/ValveSoftware/halflife/issues/895",
  "id": 16104573,
  "user": {
    "login": "vjatseslav",
    "id": 3598534,
    "avatar_url": "https://avatars.githubusercontent.com/u/3598534?v=3",
    "gravatar_id": "",
    "url": "https://api.github.com/users/vjatseslav",
    "html_url": "https://github.com/vjatseslav",
    "followers_url": "https://api.github.com/users/vjatseslav/followers",
    "following_url": "https://api.github.com/users/vjatseslav/following{/other_user}",
    "gists_url": "https://api.github.com/users/vjatseslav/gists{/gist_id}",
    "starred_url": "https://api.github.com/users/vjatseslav/starred{/owner}{/repo}",
    "subscriptions_url": "https://api.github.com/users/vjatseslav/subscriptions",
    "organizations_url": "https://api.github.com/users/vjatseslav/orgs",
    "repos_url": "https://api.github.com/users/vjatseslav/repos",
    "events_url": "https://api.github.com/users/vjatseslav/events{/privacy}",
    "received_events_url": "https://api.github.com/users/vjatseslav/received_events",
    "type": "User",
    "site_admin": false
  },
  "created_at": "2013-04-09T10:13:25Z",
  "updated_at": "2013-04-09T10:13:49Z",
  "body": "In every AV software there should be a virus lab, where you could send some potentially dangerous or false detected file, so they could check it and make some changes in virus database. If you're very dissatisfied about false detections - write in AV support."
}
, {
  "url": "https://api.github.com/repos/ValveSoftware/halflife/issues/comments/16105637",
  "html_url": "https://github.com/ValveSoftware/halflife/issues/895#issuecomment-16105637",
  "issue_url": "https://api.github.com/repos/ValveSoftware/halflife/issues/895",
  "id": 16105637,
  "user": {
    "login": "johndrinkwater",
    "id": 7708,
    "avatar_url": "https://avatars.githubusercontent.com/u/7708?v=3",
    "gravatar_id": "",
    "url": "https://api.github.com/users/johndrinkwater",
    "html_url": "https://github.com/johndrinkwater",
    "followers_url": "https://api.github.com/users/johndrinkwater/followers",
    "following_url": "https://api.github.com/users/johndrinkwater/following{/other_user}",
    "gists_url": "https://api.github.com/users/johndrinkwater/gists{/gist_id}",
    "starred_url": "https://api.github.com/users/johndrinkwater/starred{/owner}{/repo}",
    "subscriptions_url": "https://api.github.com/users/johndrinkwater/subscriptions",
    "organizations_url": "https://api.github.com/users/johndrinkwater/orgs",
    "repos_url": "https://api.github.com/users/johndrinkwater/repos",
    "events_url": "https://api.github.com/users/johndrinkwater/events{/privacy}",
    "received_events_url": "https://api.github.com/users/johndrinkwater/received_events",
    "type": "User",
    "site_admin": false
  },
  "created_at": "2013-04-09T10:42:15Z",
  "updated_at": "2013-04-09T10:42:15Z",
  "body": "Send your hlds.exe files to https://analysis.avira.com/"
}
, {
  "url": "https://api.github.com/repos/ValveSoftware/halflife/issues/comments/16114869",
  "html_url": "https://github.com/ValveSoftware/halflife/issues/895#issuecomment-16114869",
  "issue_url": "https://api.github.com/repos/ValveSoftware/halflife/issues/895",
  "id": 16114869,
  "user": {
    "login": "Yulike",
    "id": 3406893,
    "avatar_url": "https://avatars.githubusercontent.com/u/3406893?v=3",
    "gravatar_id": "",
    "url": "https://api.github.com/users/Yulike",
    "html_url": "https://github.com/Yulike",
    "followers_url": "https://api.github.com/users/Yulike/followers",
    "following_url": "https://api.github.com/users/Yulike/following{/other_user}",
    "gists_url": "https://api.github.com/users/Yulike/gists{/gist_id}",
    "starred_url": "https://api.github.com/users/Yulike/starred{/owner}{/repo}",
    "subscriptions_url": "https://api.github.com/users/Yulike/subscriptions",
    "organizations_url": "https://api.github.com/users/Yulike/orgs",
    "repos_url": "https://api.github.com/users/Yulike/repos",
    "events_url": "https://api.github.com/users/Yulike/events{/privacy}",
    "received_events_url": "https://api.github.com/users/Yulike/received_events",
    "type": "User",
    "site_admin": false
  },
  "created_at": "2013-04-09T14:16:33Z",
  "updated_at": "2013-04-09T14:16:33Z",
  "body": "I fail to see how it's Valves responsibility to make sure other companies Anti-Virus doesn't detect their software as a virus. This is why you buy the Anti-Virus so they can continue to make sure it's doing its job. They should be making sure their software does its job correctly, Valve have not control over this."
}
]
