[
{
  "url": "https://api.github.com/repos/ValveSoftware/halflife/issues/comments/13818593",
  "html_url": "https://github.com/ValveSoftware/halflife/issues/420#issuecomment-13818593",
  "issue_url": "https://api.github.com/repos/ValveSoftware/halflife/issues/420",
  "id": 13818593,
  "user": {
    "login": "MaxKorz",
    "id": 1938118,
    "avatar_url": "https://avatars.githubusercontent.com/u/1938118?v=3",
    "gravatar_id": "",
    "url": "https://api.github.com/users/MaxKorz",
    "html_url": "https://github.com/MaxKorz",
    "followers_url": "https://api.github.com/users/MaxKorz/followers",
    "following_url": "https://api.github.com/users/MaxKorz/following{/other_user}",
    "gists_url": "https://api.github.com/users/MaxKorz/gists{/gist_id}",
    "starred_url": "https://api.github.com/users/MaxKorz/starred{/owner}{/repo}",
    "subscriptions_url": "https://api.github.com/users/MaxKorz/subscriptions",
    "organizations_url": "https://api.github.com/users/MaxKorz/orgs",
    "repos_url": "https://api.github.com/users/MaxKorz/repos",
    "events_url": "https://api.github.com/users/MaxKorz/events{/privacy}",
    "received_events_url": "https://api.github.com/users/MaxKorz/received_events",
    "type": "User",
    "site_admin": false
  },
  "created_at": "2013-02-20T06:58:17Z",
  "updated_at": "2013-02-20T08:37:16Z",
  "body": "You could use OS API to manage dates:\r\nhttp://msdn.microsoft.com/en-us/goglobal/bb688124.aspx\r\nhttp://msdn.microsoft.com/en-us/library/windows/desktop/dd318101(v=vs.85).aspx\r\nanother way is to force USA date format everywhere\r\nhttp://msdn.microsoft.com/en-us/library/x99tb11d(VS.71).aspx"
}
, {
  "url": "https://api.github.com/repos/ValveSoftware/halflife/issues/comments/13832380",
  "html_url": "https://github.com/ValveSoftware/halflife/issues/420#issuecomment-13832380",
  "issue_url": "https://api.github.com/repos/ValveSoftware/halflife/issues/420",
  "id": 13832380,
  "user": {
    "login": "johndrinkwater",
    "id": 7708,
    "avatar_url": "https://avatars.githubusercontent.com/u/7708?v=3",
    "gravatar_id": "",
    "url": "https://api.github.com/users/johndrinkwater",
    "html_url": "https://github.com/johndrinkwater",
    "followers_url": "https://api.github.com/users/johndrinkwater/followers",
    "following_url": "https://api.github.com/users/johndrinkwater/following{/other_user}",
    "gists_url": "https://api.github.com/users/johndrinkwater/gists{/gist_id}",
    "starred_url": "https://api.github.com/users/johndrinkwater/starred{/owner}{/repo}",
    "subscriptions_url": "https://api.github.com/users/johndrinkwater/subscriptions",
    "organizations_url": "https://api.github.com/users/johndrinkwater/orgs",
    "repos_url": "https://api.github.com/users/johndrinkwater/repos",
    "events_url": "https://api.github.com/users/johndrinkwater/events{/privacy}",
    "received_events_url": "https://api.github.com/users/johndrinkwater/received_events",
    "type": "User",
    "site_admin": false
  },
  "created_at": "2013-02-20T13:51:06Z",
  "updated_at": "2013-02-20T13:51:06Z",
  "body": "Force USA date ? :( goldsrc could use system date format, or fallback could be onto a more technical yet non-confusing format, ISO 8601, YYYY-MM-DD"
}
, {
  "url": "https://api.github.com/repos/ValveSoftware/halflife/issues/comments/13832558",
  "html_url": "https://github.com/ValveSoftware/halflife/issues/420#issuecomment-13832558",
  "issue_url": "https://api.github.com/repos/ValveSoftware/halflife/issues/420",
  "id": 13832558,
  "user": {
    "login": "MaxKorz",
    "id": 1938118,
    "avatar_url": "https://avatars.githubusercontent.com/u/1938118?v=3",
    "gravatar_id": "",
    "url": "https://api.github.com/users/MaxKorz",
    "html_url": "https://github.com/MaxKorz",
    "followers_url": "https://api.github.com/users/MaxKorz/followers",
    "following_url": "https://api.github.com/users/MaxKorz/following{/other_user}",
    "gists_url": "https://api.github.com/users/MaxKorz/gists{/gist_id}",
    "starred_url": "https://api.github.com/users/MaxKorz/starred{/owner}{/repo}",
    "subscriptions_url": "https://api.github.com/users/MaxKorz/subscriptions",
    "organizations_url": "https://api.github.com/users/MaxKorz/orgs",
    "repos_url": "https://api.github.com/users/MaxKorz/repos",
    "events_url": "https://api.github.com/users/MaxKorz/events{/privacy}",
    "received_events_url": "https://api.github.com/users/MaxKorz/received_events",
    "type": "User",
    "site_admin": false
  },
  "created_at": "2013-02-20T13:55:14Z",
  "updated_at": "2013-02-20T13:55:29Z",
  "body": "They're not fixing it since 1998. I hope it will be at least forced to one standart, because it's better than don't be able to see dates at all"
}
, {
  "url": "https://api.github.com/repos/ValveSoftware/halflife/issues/comments/13890688",
  "html_url": "https://github.com/ValveSoftware/halflife/issues/420#issuecomment-13890688",
  "issue_url": "https://api.github.com/repos/ValveSoftware/halflife/issues/420",
  "id": 13890688,
  "user": {
    "login": "MaxKorz",
    "id": 1938118,
    "avatar_url": "https://avatars.githubusercontent.com/u/1938118?v=3",
    "gravatar_id": "",
    "url": "https://api.github.com/users/MaxKorz",
    "html_url": "https://github.com/MaxKorz",
    "followers_url": "https://api.github.com/users/MaxKorz/followers",
    "following_url": "https://api.github.com/users/MaxKorz/following{/other_user}",
    "gists_url": "https://api.github.com/users/MaxKorz/gists{/gist_id}",
    "starred_url": "https://api.github.com/users/MaxKorz/starred{/owner}{/repo}",
    "subscriptions_url": "https://api.github.com/users/MaxKorz/subscriptions",
    "organizations_url": "https://api.github.com/users/MaxKorz/orgs",
    "repos_url": "https://api.github.com/users/MaxKorz/repos",
    "events_url": "https://api.github.com/users/MaxKorz/events{/privacy}",
    "received_events_url": "https://api.github.com/users/MaxKorz/received_events",
    "type": "User",
    "site_admin": false
  },
  "created_at": "2013-02-21T14:21:15Z",
  "updated_at": "2013-02-21T14:21:15Z",
  "body": "http://en.wikipedia.org/wiki/Date_format_by_country#Map"
}
, {
  "url": "https://api.github.com/repos/ValveSoftware/halflife/issues/comments/15325293",
  "html_url": "https://github.com/ValveSoftware/halflife/issues/420#issuecomment-15325293",
  "issue_url": "https://api.github.com/repos/ValveSoftware/halflife/issues/420",
  "id": 15325293,
  "user": {
    "login": "MaxKorz",
    "id": 1938118,
    "avatar_url": "https://avatars.githubusercontent.com/u/1938118?v=3",
    "gravatar_id": "",
    "url": "https://api.github.com/users/MaxKorz",
    "html_url": "https://github.com/MaxKorz",
    "followers_url": "https://api.github.com/users/MaxKorz/followers",
    "following_url": "https://api.github.com/users/MaxKorz/following{/other_user}",
    "gists_url": "https://api.github.com/users/MaxKorz/gists{/gist_id}",
    "starred_url": "https://api.github.com/users/MaxKorz/starred{/owner}{/repo}",
    "subscriptions_url": "https://api.github.com/users/MaxKorz/subscriptions",
    "organizations_url": "https://api.github.com/users/MaxKorz/orgs",
    "repos_url": "https://api.github.com/users/MaxKorz/repos",
    "events_url": "https://api.github.com/users/MaxKorz/events{/privacy}",
    "received_events_url": "https://api.github.com/users/MaxKorz/received_events",
    "type": "User",
    "site_admin": false
  },
  "created_at": "2013-03-22T22:48:28Z",
  "updated_at": "2013-03-22T22:50:42Z",
  "body": "I checked, it's actually almost fixed in TF2\r\n![image](https://f.cloud.github.com/assets/1938118/293096/78567192-9342-11e2-8bf0-e0a9809c753b.png)\r\n(I wasn't able to see correct Hire Date before)\r\n![image](https://f.cloud.github.com/assets/1938118/293100/d5524362-9342-11e2-98fc-10c6b539afe1.png)\r\n\r\n![image](https://f.cloud.github.com/assets/1938118/293099/969df044-9342-11e2-86e4-c6a2757c4ac6.png)\r\n"
}
]
