[
{
  "url": "https://api.github.com/repos/aws/aws-sdk-ios/issues/comments/68479375",
  "html_url": "https://github.com/aws/aws-sdk-ios/issues/124#issuecomment-68479375",
  "issue_url": "https://api.github.com/repos/aws/aws-sdk-ios/issues/124",
  "id": 68479375,
  "user": {
    "login": "yosuke-matsuda",
    "id": 1459206,
    "avatar_url": "https://avatars.githubusercontent.com/u/1459206?v=3",
    "gravatar_id": "",
    "url": "https://api.github.com/users/yosuke-matsuda",
    "html_url": "https://github.com/yosuke-matsuda",
    "followers_url": "https://api.github.com/users/yosuke-matsuda/followers",
    "following_url": "https://api.github.com/users/yosuke-matsuda/following{/other_user}",
    "gists_url": "https://api.github.com/users/yosuke-matsuda/gists{/gist_id}",
    "starred_url": "https://api.github.com/users/yosuke-matsuda/starred{/owner}{/repo}",
    "subscriptions_url": "https://api.github.com/users/yosuke-matsuda/subscriptions",
    "organizations_url": "https://api.github.com/users/yosuke-matsuda/orgs",
    "repos_url": "https://api.github.com/users/yosuke-matsuda/repos",
    "events_url": "https://api.github.com/users/yosuke-matsuda/events{/privacy}",
    "received_events_url": "https://api.github.com/users/yosuke-matsuda/received_events",
    "type": "User",
    "site_admin": false
  },
  "created_at": "2015-01-01T03:07:39Z",
  "updated_at": "2015-01-12T19:32:16Z",
  "body": "It should be an exponential back off. We are aware of the issue, and the fix is on the way. Thank you."
}
, {
  "url": "https://api.github.com/repos/aws/aws-sdk-ios/issues/comments/70735284",
  "html_url": "https://github.com/aws/aws-sdk-ios/issues/124#issuecomment-70735284",
  "issue_url": "https://api.github.com/repos/aws/aws-sdk-ios/issues/124",
  "id": 70735284,
  "user": {
    "login": "yosuke-matsuda",
    "id": 1459206,
    "avatar_url": "https://avatars.githubusercontent.com/u/1459206?v=3",
    "gravatar_id": "",
    "url": "https://api.github.com/users/yosuke-matsuda",
    "html_url": "https://github.com/yosuke-matsuda",
    "followers_url": "https://api.github.com/users/yosuke-matsuda/followers",
    "following_url": "https://api.github.com/users/yosuke-matsuda/following{/other_user}",
    "gists_url": "https://api.github.com/users/yosuke-matsuda/gists{/gist_id}",
    "starred_url": "https://api.github.com/users/yosuke-matsuda/starred{/owner}{/repo}",
    "subscriptions_url": "https://api.github.com/users/yosuke-matsuda/subscriptions",
    "organizations_url": "https://api.github.com/users/yosuke-matsuda/orgs",
    "repos_url": "https://api.github.com/users/yosuke-matsuda/repos",
    "events_url": "https://api.github.com/users/yosuke-matsuda/events{/privacy}",
    "received_events_url": "https://api.github.com/users/yosuke-matsuda/received_events",
    "type": "User",
    "site_admin": false
  },
  "created_at": "2015-01-20T21:17:18Z",
  "updated_at": "2015-01-20T21:17:18Z",
  "body": "We've released the AWS Mobile SDK for iOS 2.0.14. It should address the issue you encountered.\r\n\r\nThanks,"
}
]
