[
{
  "url": "https://api.github.com/repos/owncloud/contacts/issues/comments/77426564",
  "html_url": "https://github.com/owncloud/contacts/pull/850#issuecomment-77426564",
  "issue_url": "https://api.github.com/repos/owncloud/contacts/issues/850",
  "id": 77426564,
  "user": {
    "login": "deMattin",
    "id": 5565503,
    "avatar_url": "https://avatars.githubusercontent.com/u/5565503?v=3",
    "gravatar_id": "",
    "url": "https://api.github.com/users/deMattin",
    "html_url": "https://github.com/deMattin",
    "followers_url": "https://api.github.com/users/deMattin/followers",
    "following_url": "https://api.github.com/users/deMattin/following{/other_user}",
    "gists_url": "https://api.github.com/users/deMattin/gists{/gist_id}",
    "starred_url": "https://api.github.com/users/deMattin/starred{/owner}{/repo}",
    "subscriptions_url": "https://api.github.com/users/deMattin/subscriptions",
    "organizations_url": "https://api.github.com/users/deMattin/orgs",
    "repos_url": "https://api.github.com/users/deMattin/repos",
    "events_url": "https://api.github.com/users/deMattin/events{/privacy}",
    "received_events_url": "https://api.github.com/users/deMattin/received_events",
    "type": "User",
    "site_admin": false
  },
  "created_at": "2015-03-05T18:58:14Z",
  "updated_at": "2015-03-05T18:58:14Z",
  "body": "Travis CI test failes because the testing routine has errors?!"
}
, {
  "url": "https://api.github.com/repos/owncloud/contacts/issues/comments/77959342",
  "html_url": "https://github.com/owncloud/contacts/pull/850#issuecomment-77959342",
  "issue_url": "https://api.github.com/repos/owncloud/contacts/issues/850",
  "id": 77959342,
  "user": {
    "login": "scrutinizer-notifier",
    "id": 6398257,
    "avatar_url": "https://avatars.githubusercontent.com/u/6398257?v=3",
    "gravatar_id": "",
    "url": "https://api.github.com/users/scrutinizer-notifier",
    "html_url": "https://github.com/scrutinizer-notifier",
    "followers_url": "https://api.github.com/users/scrutinizer-notifier/followers",
    "following_url": "https://api.github.com/users/scrutinizer-notifier/following{/other_user}",
    "gists_url": "https://api.github.com/users/scrutinizer-notifier/gists{/gist_id}",
    "starred_url": "https://api.github.com/users/scrutinizer-notifier/starred{/owner}{/repo}",
    "subscriptions_url": "https://api.github.com/users/scrutinizer-notifier/subscriptions",
    "organizations_url": "https://api.github.com/users/scrutinizer-notifier/orgs",
    "repos_url": "https://api.github.com/users/scrutinizer-notifier/repos",
    "events_url": "https://api.github.com/users/scrutinizer-notifier/events{/privacy}",
    "received_events_url": "https://api.github.com/users/scrutinizer-notifier/received_events",
    "type": "User",
    "site_admin": false
  },
  "created_at": "2015-03-09T22:36:03Z",
  "updated_at": "2015-03-09T22:36:03Z",
  "body": "The [inspection](https://scrutinizer-ci.com/g/owncloud/contacts/inspections/025ad5e3-849b-4a12-b555-4e9acbbb82dc) completed: **No new issues**"
}
, {
  "url": "https://api.github.com/repos/owncloud/contacts/issues/comments/78478809",
  "html_url": "https://github.com/owncloud/contacts/pull/850#issuecomment-78478809",
  "issue_url": "https://api.github.com/repos/owncloud/contacts/issues/850",
  "id": 78478809,
  "user": {
    "login": "LEDfan",
    "id": 2996275,
    "avatar_url": "https://avatars.githubusercontent.com/u/2996275?v=3",
    "gravatar_id": "",
    "url": "https://api.github.com/users/LEDfan",
    "html_url": "https://github.com/LEDfan",
    "followers_url": "https://api.github.com/users/LEDfan/followers",
    "following_url": "https://api.github.com/users/LEDfan/following{/other_user}",
    "gists_url": "https://api.github.com/users/LEDfan/gists{/gist_id}",
    "starred_url": "https://api.github.com/users/LEDfan/starred{/owner}{/repo}",
    "subscriptions_url": "https://api.github.com/users/LEDfan/subscriptions",
    "organizations_url": "https://api.github.com/users/LEDfan/orgs",
    "repos_url": "https://api.github.com/users/LEDfan/repos",
    "events_url": "https://api.github.com/users/LEDfan/events{/privacy}",
    "received_events_url": "https://api.github.com/users/LEDfan/received_events",
    "type": "User",
    "site_admin": false
  },
  "created_at": "2015-03-12T13:28:44Z",
  "updated_at": "2015-03-12T13:28:44Z",
  "body": "Don't mind the falling unit tests for this PR. Thanks for you patch. I confirmed the bug and the patch works!"
}
, {
  "url": "https://api.github.com/repos/owncloud/contacts/issues/comments/95824279",
  "html_url": "https://github.com/owncloud/contacts/pull/850#issuecomment-95824279",
  "issue_url": "https://api.github.com/repos/owncloud/contacts/issues/850",
  "id": 95824279,
  "user": {
    "login": "RealRancor",
    "id": 2248459,
    "avatar_url": "https://avatars.githubusercontent.com/u/2248459?v=3",
    "gravatar_id": "",
    "url": "https://api.github.com/users/RealRancor",
    "html_url": "https://github.com/RealRancor",
    "followers_url": "https://api.github.com/users/RealRancor/followers",
    "following_url": "https://api.github.com/users/RealRancor/following{/other_user}",
    "gists_url": "https://api.github.com/users/RealRancor/gists{/gist_id}",
    "starred_url": "https://api.github.com/users/RealRancor/starred{/owner}{/repo}",
    "subscriptions_url": "https://api.github.com/users/RealRancor/subscriptions",
    "organizations_url": "https://api.github.com/users/RealRancor/orgs",
    "repos_url": "https://api.github.com/users/RealRancor/repos",
    "events_url": "https://api.github.com/users/RealRancor/events{/privacy}",
    "received_events_url": "https://api.github.com/users/RealRancor/received_events",
    "type": "User",
    "site_admin": false
  },
  "created_at": "2015-04-24T06:56:12Z",
  "updated_at": "2015-04-24T06:56:12Z",
  "body": "Hi,\r\n\r\nit seems to late for OC 8.0.3 but what about a backport to OC 8.0.4?"
}
, {
  "url": "https://api.github.com/repos/owncloud/contacts/issues/comments/95831465",
  "html_url": "https://github.com/owncloud/contacts/pull/850#issuecomment-95831465",
  "issue_url": "https://api.github.com/repos/owncloud/contacts/issues/850",
  "id": 95831465,
  "user": {
    "login": "deMattin",
    "id": 5565503,
    "avatar_url": "https://avatars.githubusercontent.com/u/5565503?v=3",
    "gravatar_id": "",
    "url": "https://api.github.com/users/deMattin",
    "html_url": "https://github.com/deMattin",
    "followers_url": "https://api.github.com/users/deMattin/followers",
    "following_url": "https://api.github.com/users/deMattin/following{/other_user}",
    "gists_url": "https://api.github.com/users/deMattin/gists{/gist_id}",
    "starred_url": "https://api.github.com/users/deMattin/starred{/owner}{/repo}",
    "subscriptions_url": "https://api.github.com/users/deMattin/subscriptions",
    "organizations_url": "https://api.github.com/users/deMattin/orgs",
    "repos_url": "https://api.github.com/users/deMattin/repos",
    "events_url": "https://api.github.com/users/deMattin/events{/privacy}",
    "received_events_url": "https://api.github.com/users/deMattin/received_events",
    "type": "User",
    "site_admin": false
  },
  "created_at": "2015-04-24T07:12:59Z",
  "updated_at": "2015-04-24T07:12:59Z",
  "body": "Do you think, there'll ever be a 8.0.4?\r\nActual status:\r\n8.1-current: Past due by 21 days (85% complete  155 open  882 closed)\r\n8.0.3-current-maintenance: Past due by 17 days (100% complete  0 open  73 closed)\r\n\r\nThe new release schedule strategy as described doesn't seem to work or to be taken  : https://github.com/owncloud/core/wiki/Maintenance-and-Release-Schedule\r\n`Each year there will be four major ownCloud versions: x.0 will be released in Q1 (~ End of January), x.1 in Q2 (~ End of April), x.2 in Q3 (~ End of July) and x.3 in Q4 (~ End of October).`\r\n\r\nSimple use a theme to patch css and change the setting there or patch the original file, if you don't use theming at all.\r\nThat's how I do it (use theming) and also fix some other problems, because it lasts very long, til a simple fix like this is seen by user in a release version."
}
, {
  "url": "https://api.github.com/repos/owncloud/contacts/issues/comments/95837358",
  "html_url": "https://github.com/owncloud/contacts/pull/850#issuecomment-95837358",
  "issue_url": "https://api.github.com/repos/owncloud/contacts/issues/850",
  "id": 95837358,
  "user": {
    "login": "RealRancor",
    "id": 2248459,
    "avatar_url": "https://avatars.githubusercontent.com/u/2248459?v=3",
    "gravatar_id": "",
    "url": "https://api.github.com/users/RealRancor",
    "html_url": "https://github.com/RealRancor",
    "followers_url": "https://api.github.com/users/RealRancor/followers",
    "following_url": "https://api.github.com/users/RealRancor/following{/other_user}",
    "gists_url": "https://api.github.com/users/RealRancor/gists{/gist_id}",
    "starred_url": "https://api.github.com/users/RealRancor/starred{/owner}{/repo}",
    "subscriptions_url": "https://api.github.com/users/RealRancor/subscriptions",
    "organizations_url": "https://api.github.com/users/RealRancor/orgs",
    "repos_url": "https://api.github.com/users/RealRancor/repos",
    "events_url": "https://api.github.com/users/RealRancor/events{/privacy}",
    "received_events_url": "https://api.github.com/users/RealRancor/received_events",
    "type": "User",
    "site_admin": false
  },
  "created_at": "2015-04-24T07:47:38Z",
  "updated_at": "2015-04-24T07:47:43Z",
  "body": "Hi,\r\n\r\ni don't have any problems doing this patch but had a question at the forums about this missing edit button. Not everyone out there is checking the bugtracker for possible fixes. :wink: Thats why i have asked for a backport."
}
]
