[
{
  "url": "https://api.github.com/repos/Microsoft/node-uwp/issues/comments/168779740",
  "html_url": "https://github.com/Microsoft/node-uwp/issues/10#issuecomment-168779740",
  "issue_url": "https://api.github.com/repos/Microsoft/node-uwp/issues/10",
  "id": 168779740,
  "user": {
    "login": "jianchun",
    "id": 11861955,
    "avatar_url": "https://avatars.githubusercontent.com/u/11861955?v=3",
    "gravatar_id": "",
    "url": "https://api.github.com/users/jianchun",
    "html_url": "https://github.com/jianchun",
    "followers_url": "https://api.github.com/users/jianchun/followers",
    "following_url": "https://api.github.com/users/jianchun/following{/other_user}",
    "gists_url": "https://api.github.com/users/jianchun/gists{/gist_id}",
    "starred_url": "https://api.github.com/users/jianchun/starred{/owner}{/repo}",
    "subscriptions_url": "https://api.github.com/users/jianchun/subscriptions",
    "organizations_url": "https://api.github.com/users/jianchun/orgs",
    "repos_url": "https://api.github.com/users/jianchun/repos",
    "events_url": "https://api.github.com/users/jianchun/events{/privacy}",
    "received_events_url": "https://api.github.com/users/jianchun/received_events",
    "type": "User",
    "site_admin": false
  },
  "created_at": "2016-01-04T19:36:37Z",
  "updated_at": "2016-01-04T19:36:37Z",
  "body": "@abhisheksaatal Apologize for late response. There is a trivial sample in http://ms-iot.github.io/content/en-US/win10/samples/NodejsWU.htm (under \"Universal Windows Platform (UWP) namespaces\"). Generally this gives your app access to the UWP API."
}
]
