[
{
  "url": "https://api.github.com/repos/hashicorp/atlas-packer-vagrant-tutorial/issues/comments/94510656",
  "html_url": "https://github.com/hashicorp/atlas-packer-vagrant-tutorial/issues/4#issuecomment-94510656",
  "issue_url": "https://api.github.com/repos/hashicorp/atlas-packer-vagrant-tutorial/issues/4",
  "id": 94510656,
  "user": {
    "login": "pearkes",
    "id": 846194,
    "avatar_url": "https://avatars.githubusercontent.com/u/846194?v=3",
    "gravatar_id": "",
    "url": "https://api.github.com/users/pearkes",
    "html_url": "https://github.com/pearkes",
    "followers_url": "https://api.github.com/users/pearkes/followers",
    "following_url": "https://api.github.com/users/pearkes/following{/other_user}",
    "gists_url": "https://api.github.com/users/pearkes/gists{/gist_id}",
    "starred_url": "https://api.github.com/users/pearkes/starred{/owner}{/repo}",
    "subscriptions_url": "https://api.github.com/users/pearkes/subscriptions",
    "organizations_url": "https://api.github.com/users/pearkes/orgs",
    "repos_url": "https://api.github.com/users/pearkes/repos",
    "events_url": "https://api.github.com/users/pearkes/events{/privacy}",
    "received_events_url": "https://api.github.com/users/pearkes/received_events",
    "type": "User",
    "site_admin": false
  },
  "created_at": "2015-04-20T17:05:36Z",
  "updated_at": "2015-04-20T17:05:36Z",
  "body": "Thank you, these keys have been revoked. You would have had access to our binary store for internal services! Appreciate it."
}
]
