[
{
  "url": "https://api.github.com/repos/linkedin/Burrow/issues/comments/113252533",
  "html_url": "https://github.com/linkedin/Burrow/issues/5#issuecomment-113252533",
  "issue_url": "https://api.github.com/repos/linkedin/Burrow/issues/5",
  "id": 113252533,
  "user": {
    "login": "toddpalino",
    "id": 1283289,
    "avatar_url": "https://avatars.githubusercontent.com/u/1283289?v=3",
    "gravatar_id": "",
    "url": "https://api.github.com/users/toddpalino",
    "html_url": "https://github.com/toddpalino",
    "followers_url": "https://api.github.com/users/toddpalino/followers",
    "following_url": "https://api.github.com/users/toddpalino/following{/other_user}",
    "gists_url": "https://api.github.com/users/toddpalino/gists{/gist_id}",
    "starred_url": "https://api.github.com/users/toddpalino/starred{/owner}{/repo}",
    "subscriptions_url": "https://api.github.com/users/toddpalino/subscriptions",
    "organizations_url": "https://api.github.com/users/toddpalino/orgs",
    "repos_url": "https://api.github.com/users/toddpalino/repos",
    "events_url": "https://api.github.com/users/toddpalino/events{/privacy}",
    "received_events_url": "https://api.github.com/users/toddpalino/received_events",
    "type": "User",
    "site_admin": false
  },
  "created_at": "2015-06-18T18:35:54Z",
  "updated_at": "2015-06-18T18:35:54Z",
  "body": "I believe I resolved this with commit 8b96035bce5e9891490c3889fa638be6bb03872a. This changes the group expiration logic to track the youngest offset seen when evaluating a group. If the youngest offset is further back than our expiration window, the group is wiped out and a 404 is returned to the caller. This is different that the previous logic that tried to do it while iterating over the group, one partition at a time. This had the side effect of removing incomplete groups that were still committing offsets in."
}
]
