[
{
  "url": "https://api.github.com/repos/owncloud/documentation/issues/comments/47426370",
  "html_url": "https://github.com/owncloud/documentation/pull/406#issuecomment-47426370",
  "issue_url": "https://api.github.com/repos/owncloud/documentation/issues/406",
  "id": 47426370,
  "user": {
    "login": "karlitschek",
    "id": 867445,
    "avatar_url": "https://avatars.githubusercontent.com/u/867445?v=3",
    "gravatar_id": "",
    "url": "https://api.github.com/users/karlitschek",
    "html_url": "https://github.com/karlitschek",
    "followers_url": "https://api.github.com/users/karlitschek/followers",
    "following_url": "https://api.github.com/users/karlitschek/following{/other_user}",
    "gists_url": "https://api.github.com/users/karlitschek/gists{/gist_id}",
    "starred_url": "https://api.github.com/users/karlitschek/starred{/owner}{/repo}",
    "subscriptions_url": "https://api.github.com/users/karlitschek/subscriptions",
    "organizations_url": "https://api.github.com/users/karlitschek/orgs",
    "repos_url": "https://api.github.com/users/karlitschek/repos",
    "events_url": "https://api.github.com/users/karlitschek/events{/privacy}",
    "received_events_url": "https://api.github.com/users/karlitschek/received_events",
    "type": "User",
    "site_admin": false
  },
  "created_at": "2014-06-28T12:40:25Z",
  "updated_at": "2014-06-28T12:40:25Z",
  "body": ":+1: "
}
, {
  "url": "https://api.github.com/repos/owncloud/documentation/issues/comments/47428126",
  "html_url": "https://github.com/owncloud/documentation/pull/406#issuecomment-47428126",
  "issue_url": "https://api.github.com/repos/owncloud/documentation/issues/406",
  "id": 47428126,
  "user": {
    "login": "MorrisJobke",
    "id": 245432,
    "avatar_url": "https://avatars.githubusercontent.com/u/245432?v=3",
    "gravatar_id": "",
    "url": "https://api.github.com/users/MorrisJobke",
    "html_url": "https://github.com/MorrisJobke",
    "followers_url": "https://api.github.com/users/MorrisJobke/followers",
    "following_url": "https://api.github.com/users/MorrisJobke/following{/other_user}",
    "gists_url": "https://api.github.com/users/MorrisJobke/gists{/gist_id}",
    "starred_url": "https://api.github.com/users/MorrisJobke/starred{/owner}{/repo}",
    "subscriptions_url": "https://api.github.com/users/MorrisJobke/subscriptions",
    "organizations_url": "https://api.github.com/users/MorrisJobke/orgs",
    "repos_url": "https://api.github.com/users/MorrisJobke/repos",
    "events_url": "https://api.github.com/users/MorrisJobke/events{/privacy}",
    "received_events_url": "https://api.github.com/users/MorrisJobke/received_events",
    "type": "User",
    "site_admin": false
  },
  "created_at": "2014-06-28T13:59:43Z",
  "updated_at": "2014-06-28T13:59:43Z",
  "body": "stable6 8641628"
}
]
