[
{
  "url": "https://api.github.com/repos/facebook/fresco/issues/comments/124063253",
  "html_url": "https://github.com/facebook/fresco/issues/481#issuecomment-124063253",
  "issue_url": "https://api.github.com/repos/facebook/fresco/issues/481",
  "id": 124063253,
  "user": {
    "login": "IanChilds",
    "id": 3882853,
    "avatar_url": "https://avatars.githubusercontent.com/u/3882853?v=3",
    "gravatar_id": "",
    "url": "https://api.github.com/users/IanChilds",
    "html_url": "https://github.com/IanChilds",
    "followers_url": "https://api.github.com/users/IanChilds/followers",
    "following_url": "https://api.github.com/users/IanChilds/following{/other_user}",
    "gists_url": "https://api.github.com/users/IanChilds/gists{/gist_id}",
    "starred_url": "https://api.github.com/users/IanChilds/starred{/owner}{/repo}",
    "subscriptions_url": "https://api.github.com/users/IanChilds/subscriptions",
    "organizations_url": "https://api.github.com/users/IanChilds/orgs",
    "repos_url": "https://api.github.com/users/IanChilds/repos",
    "events_url": "https://api.github.com/users/IanChilds/events{/privacy}",
    "received_events_url": "https://api.github.com/users/IanChilds/received_events",
    "type": "User",
    "site_admin": false
  },
  "created_at": "2015-07-23T11:27:08Z",
  "updated_at": "2015-07-23T11:27:08Z",
  "body": "What kind of GIF is this? Where are the images coming from - are they network images, or local images? "
}
, {
  "url": "https://api.github.com/repos/facebook/fresco/issues/comments/124063602",
  "html_url": "https://github.com/facebook/fresco/issues/481#issuecomment-124063602",
  "issue_url": "https://api.github.com/repos/facebook/fresco/issues/481",
  "id": 124063602,
  "user": {
    "login": "danhantao",
    "id": 5282985,
    "avatar_url": "https://avatars.githubusercontent.com/u/5282985?v=3",
    "gravatar_id": "",
    "url": "https://api.github.com/users/danhantao",
    "html_url": "https://github.com/danhantao",
    "followers_url": "https://api.github.com/users/danhantao/followers",
    "following_url": "https://api.github.com/users/danhantao/following{/other_user}",
    "gists_url": "https://api.github.com/users/danhantao/gists{/gist_id}",
    "starred_url": "https://api.github.com/users/danhantao/starred{/owner}{/repo}",
    "subscriptions_url": "https://api.github.com/users/danhantao/subscriptions",
    "organizations_url": "https://api.github.com/users/danhantao/orgs",
    "repos_url": "https://api.github.com/users/danhantao/repos",
    "events_url": "https://api.github.com/users/danhantao/events{/privacy}",
    "received_events_url": "https://api.github.com/users/danhantao/received_events",
    "type": "User",
    "site_admin": false
  },
  "created_at": "2015-07-23T11:29:39Z",
  "updated_at": "2015-07-23T11:29:39Z",
  "body": "network images,downloaded,but show slowly when scroll~~~"
}
, {
  "url": "https://api.github.com/repos/facebook/fresco/issues/comments/124064196",
  "html_url": "https://github.com/facebook/fresco/issues/481#issuecomment-124064196",
  "issue_url": "https://api.github.com/repos/facebook/fresco/issues/481",
  "id": 124064196,
  "user": {
    "login": "danhantao",
    "id": 5282985,
    "avatar_url": "https://avatars.githubusercontent.com/u/5282985?v=3",
    "gravatar_id": "",
    "url": "https://api.github.com/users/danhantao",
    "html_url": "https://github.com/danhantao",
    "followers_url": "https://api.github.com/users/danhantao/followers",
    "following_url": "https://api.github.com/users/danhantao/following{/other_user}",
    "gists_url": "https://api.github.com/users/danhantao/gists{/gist_id}",
    "starred_url": "https://api.github.com/users/danhantao/starred{/owner}{/repo}",
    "subscriptions_url": "https://api.github.com/users/danhantao/subscriptions",
    "organizations_url": "https://api.github.com/users/danhantao/orgs",
    "repos_url": "https://api.github.com/users/danhantao/repos",
    "events_url": "https://api.github.com/users/danhantao/events{/privacy}",
    "received_events_url": "https://api.github.com/users/danhantao/received_events",
    "type": "User",
    "site_admin": false
  },
  "created_at": "2015-07-23T11:34:30Z",
  "updated_at": "2015-07-23T11:34:30Z",
  "body": "gif all like this:http://media4.giphy.com/media/zfCCnYiOyihos/200w.gif       not large,"
}
, {
  "url": "https://api.github.com/repos/facebook/fresco/issues/comments/124069879",
  "html_url": "https://github.com/facebook/fresco/issues/481#issuecomment-124069879",
  "issue_url": "https://api.github.com/repos/facebook/fresco/issues/481",
  "id": 124069879,
  "user": {
    "login": "IanChilds",
    "id": 3882853,
    "avatar_url": "https://avatars.githubusercontent.com/u/3882853?v=3",
    "gravatar_id": "",
    "url": "https://api.github.com/users/IanChilds",
    "html_url": "https://github.com/IanChilds",
    "followers_url": "https://api.github.com/users/IanChilds/followers",
    "following_url": "https://api.github.com/users/IanChilds/following{/other_user}",
    "gists_url": "https://api.github.com/users/IanChilds/gists{/gist_id}",
    "starred_url": "https://api.github.com/users/IanChilds/starred{/owner}{/repo}",
    "subscriptions_url": "https://api.github.com/users/IanChilds/subscriptions",
    "organizations_url": "https://api.github.com/users/IanChilds/orgs",
    "repos_url": "https://api.github.com/users/IanChilds/repos",
    "events_url": "https://api.github.com/users/IanChilds/events{/privacy}",
    "received_events_url": "https://api.github.com/users/IanChilds/received_events",
    "type": "User",
    "site_admin": false
  },
  "created_at": "2015-07-23T11:49:41Z",
  "updated_at": "2015-07-23T11:49:41Z",
  "body": "Unfortunately you will see the background since they need to be decoded and that takes a non-trivial amount of time, even for relatively small GIFs. \r\n\r\nYou'll have to prefetch (carefully) if you want to avoid seeing the background briefly. "
}
]
