[
{
  "login": "davidfowl",
  "id": 95136,
  "avatar_url": "https://avatars.githubusercontent.com/u/95136?v=3",
  "gravatar_id": "",
  "url": "https://api.github.com/users/davidfowl",
  "html_url": "https://github.com/davidfowl",
  "followers_url": "https://api.github.com/users/davidfowl/followers",
  "following_url": "https://api.github.com/users/davidfowl/following{/other_user}",
  "gists_url": "https://api.github.com/users/davidfowl/gists{/gist_id}",
  "starred_url": "https://api.github.com/users/davidfowl/starred{/owner}{/repo}",
  "subscriptions_url": "https://api.github.com/users/davidfowl/subscriptions",
  "organizations_url": "https://api.github.com/users/davidfowl/orgs",
  "repos_url": "https://api.github.com/users/davidfowl/repos",
  "events_url": "https://api.github.com/users/davidfowl/events{/privacy}",
  "received_events_url": "https://api.github.com/users/davidfowl/received_events",
  "type": "User",
  "site_admin": false
}
, {
  "login": "Eilon",
  "id": 202643,
  "avatar_url": "https://avatars.githubusercontent.com/u/202643?v=3",
  "gravatar_id": "",
  "url": "https://api.github.com/users/Eilon",
  "html_url": "https://github.com/Eilon",
  "followers_url": "https://api.github.com/users/Eilon/followers",
  "following_url": "https://api.github.com/users/Eilon/following{/other_user}",
  "gists_url": "https://api.github.com/users/Eilon/gists{/gist_id}",
  "starred_url": "https://api.github.com/users/Eilon/starred{/owner}{/repo}",
  "subscriptions_url": "https://api.github.com/users/Eilon/subscriptions",
  "organizations_url": "https://api.github.com/users/Eilon/orgs",
  "repos_url": "https://api.github.com/users/Eilon/repos",
  "events_url": "https://api.github.com/users/Eilon/events{/privacy}",
  "received_events_url": "https://api.github.com/users/Eilon/received_events",
  "type": "User",
  "site_admin": false
}
, {
  "login": "yishaigalatzer",
  "id": 1238711,
  "avatar_url": "https://avatars.githubusercontent.com/u/1238711?v=3",
  "gravatar_id": "",
  "url": "https://api.github.com/users/yishaigalatzer",
  "html_url": "https://github.com/yishaigalatzer",
  "followers_url": "https://api.github.com/users/yishaigalatzer/followers",
  "following_url": "https://api.github.com/users/yishaigalatzer/following{/other_user}",
  "gists_url": "https://api.github.com/users/yishaigalatzer/gists{/gist_id}",
  "starred_url": "https://api.github.com/users/yishaigalatzer/starred{/owner}{/repo}",
  "subscriptions_url": "https://api.github.com/users/yishaigalatzer/subscriptions",
  "organizations_url": "https://api.github.com/users/yishaigalatzer/orgs",
  "repos_url": "https://api.github.com/users/yishaigalatzer/repos",
  "events_url": "https://api.github.com/users/yishaigalatzer/events{/privacy}",
  "received_events_url": "https://api.github.com/users/yishaigalatzer/received_events",
  "type": "User",
  "site_admin": false
}
, {
  "login": "divega",
  "id": 1253414,
  "avatar_url": "https://avatars.githubusercontent.com/u/1253414?v=3",
  "gravatar_id": "",
  "url": "https://api.github.com/users/divega",
  "html_url": "https://github.com/divega",
  "followers_url": "https://api.github.com/users/divega/followers",
  "following_url": "https://api.github.com/users/divega/following{/other_user}",
  "gists_url": "https://api.github.com/users/divega/gists{/gist_id}",
  "starred_url": "https://api.github.com/users/divega/starred{/owner}{/repo}",
  "subscriptions_url": "https://api.github.com/users/divega/subscriptions",
  "organizations_url": "https://api.github.com/users/divega/orgs",
  "repos_url": "https://api.github.com/users/divega/repos",
  "events_url": "https://api.github.com/users/divega/events{/privacy}",
  "received_events_url": "https://api.github.com/users/divega/received_events",
  "type": "User",
  "site_admin": false
}
, {
  "login": "msftgits",
  "id": 9328564,
  "avatar_url": "https://avatars.githubusercontent.com/u/9328564?v=3",
  "gravatar_id": "",
  "url": "https://api.github.com/users/msftgits",
  "html_url": "https://github.com/msftgits",
  "followers_url": "https://api.github.com/users/msftgits/followers",
  "following_url": "https://api.github.com/users/msftgits/following{/other_user}",
  "gists_url": "https://api.github.com/users/msftgits/gists{/gist_id}",
  "starred_url": "https://api.github.com/users/msftgits/starred{/owner}{/repo}",
  "subscriptions_url": "https://api.github.com/users/msftgits/subscriptions",
  "organizations_url": "https://api.github.com/users/msftgits/orgs",
  "repos_url": "https://api.github.com/users/msftgits/repos",
  "events_url": "https://api.github.com/users/msftgits/events{/privacy}",
  "received_events_url": "https://api.github.com/users/msftgits/received_events",
  "type": "User",
  "site_admin": false
}
, {
  "login": "dnfgituser",
  "id": 10149554,
  "avatar_url": "https://avatars.githubusercontent.com/u/10149554?v=3",
  "gravatar_id": "",
  "url": "https://api.github.com/users/dnfgituser",
  "html_url": "https://github.com/dnfgituser",
  "followers_url": "https://api.github.com/users/dnfgituser/followers",
  "following_url": "https://api.github.com/users/dnfgituser/following{/other_user}",
  "gists_url": "https://api.github.com/users/dnfgituser/gists{/gist_id}",
  "starred_url": "https://api.github.com/users/dnfgituser/starred{/owner}{/repo}",
  "subscriptions_url": "https://api.github.com/users/dnfgituser/subscriptions",
  "organizations_url": "https://api.github.com/users/dnfgituser/orgs",
  "repos_url": "https://api.github.com/users/dnfgituser/repos",
  "events_url": "https://api.github.com/users/dnfgituser/events{/privacy}",
  "received_events_url": "https://api.github.com/users/dnfgituser/received_events",
  "type": "User",
  "site_admin": false
}
, {
  "login": "halter73",
  "id": 54385,
  "avatar_url": "https://avatars.githubusercontent.com/u/54385?v=3",
  "gravatar_id": "",
  "url": "https://api.github.com/users/halter73",
  "html_url": "https://github.com/halter73",
  "followers_url": "https://api.github.com/users/halter73/followers",
  "following_url": "https://api.github.com/users/halter73/following{/other_user}",
  "gists_url": "https://api.github.com/users/halter73/gists{/gist_id}",
  "starred_url": "https://api.github.com/users/halter73/starred{/owner}{/repo}",
  "subscriptions_url": "https://api.github.com/users/halter73/subscriptions",
  "organizations_url": "https://api.github.com/users/halter73/orgs",
  "repos_url": "https://api.github.com/users/halter73/repos",
  "events_url": "https://api.github.com/users/halter73/events{/privacy}",
  "received_events_url": "https://api.github.com/users/halter73/received_events",
  "type": "User",
  "site_admin": false
}
, {
  "login": "glennc",
  "id": 234688,
  "avatar_url": "https://avatars.githubusercontent.com/u/234688?v=3",
  "gravatar_id": "",
  "url": "https://api.github.com/users/glennc",
  "html_url": "https://github.com/glennc",
  "followers_url": "https://api.github.com/users/glennc/followers",
  "following_url": "https://api.github.com/users/glennc/following{/other_user}",
  "gists_url": "https://api.github.com/users/glennc/gists{/gist_id}",
  "starred_url": "https://api.github.com/users/glennc/starred{/owner}{/repo}",
  "subscriptions_url": "https://api.github.com/users/glennc/subscriptions",
  "organizations_url": "https://api.github.com/users/glennc/orgs",
  "repos_url": "https://api.github.com/users/glennc/repos",
  "events_url": "https://api.github.com/users/glennc/events{/privacy}",
  "received_events_url": "https://api.github.com/users/glennc/received_events",
  "type": "User",
  "site_admin": false
}
, {
  "login": "DamianEdwards",
  "id": 249088,
  "avatar_url": "https://avatars.githubusercontent.com/u/249088?v=3",
  "gravatar_id": "",
  "url": "https://api.github.com/users/DamianEdwards",
  "html_url": "https://github.com/DamianEdwards",
  "followers_url": "https://api.github.com/users/DamianEdwards/followers",
  "following_url": "https://api.github.com/users/DamianEdwards/following{/other_user}",
  "gists_url": "https://api.github.com/users/DamianEdwards/gists{/gist_id}",
  "starred_url": "https://api.github.com/users/DamianEdwards/starred{/owner}{/repo}",
  "subscriptions_url": "https://api.github.com/users/DamianEdwards/subscriptions",
  "organizations_url": "https://api.github.com/users/DamianEdwards/orgs",
  "repos_url": "https://api.github.com/users/DamianEdwards/repos",
  "events_url": "https://api.github.com/users/DamianEdwards/events{/privacy}",
  "received_events_url": "https://api.github.com/users/DamianEdwards/received_events",
  "type": "User",
  "site_admin": false
}
, {
  "login": "blowdart",
  "id": 796298,
  "avatar_url": "https://avatars.githubusercontent.com/u/796298?v=3",
  "gravatar_id": "",
  "url": "https://api.github.com/users/blowdart",
  "html_url": "https://github.com/blowdart",
  "followers_url": "https://api.github.com/users/blowdart/followers",
  "following_url": "https://api.github.com/users/blowdart/following{/other_user}",
  "gists_url": "https://api.github.com/users/blowdart/gists{/gist_id}",
  "starred_url": "https://api.github.com/users/blowdart/starred{/owner}{/repo}",
  "subscriptions_url": "https://api.github.com/users/blowdart/subscriptions",
  "organizations_url": "https://api.github.com/users/blowdart/orgs",
  "repos_url": "https://api.github.com/users/blowdart/repos",
  "events_url": "https://api.github.com/users/blowdart/events{/privacy}",
  "received_events_url": "https://api.github.com/users/blowdart/received_events",
  "type": "User",
  "site_admin": false
}
, {
  "login": "coolcsh",
  "id": 816505,
  "avatar_url": "https://avatars.githubusercontent.com/u/816505?v=3",
  "gravatar_id": "",
  "url": "https://api.github.com/users/coolcsh",
  "html_url": "https://github.com/coolcsh",
  "followers_url": "https://api.github.com/users/coolcsh/followers",
  "following_url": "https://api.github.com/users/coolcsh/following{/other_user}",
  "gists_url": "https://api.github.com/users/coolcsh/gists{/gist_id}",
  "starred_url": "https://api.github.com/users/coolcsh/starred{/owner}{/repo}",
  "subscriptions_url": "https://api.github.com/users/coolcsh/subscriptions",
  "organizations_url": "https://api.github.com/users/coolcsh/orgs",
  "repos_url": "https://api.github.com/users/coolcsh/repos",
  "events_url": "https://api.github.com/users/coolcsh/events{/privacy}",
  "received_events_url": "https://api.github.com/users/coolcsh/received_events",
  "type": "User",
  "site_admin": false
}
, {
  "login": "kirthik",
  "id": 1267650,
  "avatar_url": "https://avatars.githubusercontent.com/u/1267650?v=3",
  "gravatar_id": "",
  "url": "https://api.github.com/users/kirthik",
  "html_url": "https://github.com/kirthik",
  "followers_url": "https://api.github.com/users/kirthik/followers",
  "following_url": "https://api.github.com/users/kirthik/following{/other_user}",
  "gists_url": "https://api.github.com/users/kirthik/gists{/gist_id}",
  "starred_url": "https://api.github.com/users/kirthik/starred{/owner}{/repo}",
  "subscriptions_url": "https://api.github.com/users/kirthik/subscriptions",
  "organizations_url": "https://api.github.com/users/kirthik/orgs",
  "repos_url": "https://api.github.com/users/kirthik/repos",
  "events_url": "https://api.github.com/users/kirthik/events{/privacy}",
  "received_events_url": "https://api.github.com/users/kirthik/received_events",
  "type": "User",
  "site_admin": false
}
, {
  "login": "troydai",
  "id": 1329240,
  "avatar_url": "https://avatars.githubusercontent.com/u/1329240?v=3",
  "gravatar_id": "",
  "url": "https://api.github.com/users/troydai",
  "html_url": "https://github.com/troydai",
  "followers_url": "https://api.github.com/users/troydai/followers",
  "following_url": "https://api.github.com/users/troydai/following{/other_user}",
  "gists_url": "https://api.github.com/users/troydai/gists{/gist_id}",
  "starred_url": "https://api.github.com/users/troydai/starred{/owner}{/repo}",
  "subscriptions_url": "https://api.github.com/users/troydai/subscriptions",
  "organizations_url": "https://api.github.com/users/troydai/orgs",
  "repos_url": "https://api.github.com/users/troydai/repos",
  "events_url": "https://api.github.com/users/troydai/events{/privacy}",
  "received_events_url": "https://api.github.com/users/troydai/received_events",
  "type": "User",
  "site_admin": false
}
, {
  "login": "smitpatel",
  "id": 1528107,
  "avatar_url": "https://avatars.githubusercontent.com/u/1528107?v=3",
  "gravatar_id": "",
  "url": "https://api.github.com/users/smitpatel",
  "html_url": "https://github.com/smitpatel",
  "followers_url": "https://api.github.com/users/smitpatel/followers",
  "following_url": "https://api.github.com/users/smitpatel/following{/other_user}",
  "gists_url": "https://api.github.com/users/smitpatel/gists{/gist_id}",
  "starred_url": "https://api.github.com/users/smitpatel/starred{/owner}{/repo}",
  "subscriptions_url": "https://api.github.com/users/smitpatel/subscriptions",
  "organizations_url": "https://api.github.com/users/smitpatel/orgs",
  "repos_url": "https://api.github.com/users/smitpatel/repos",
  "events_url": "https://api.github.com/users/smitpatel/events{/privacy}",
  "received_events_url": "https://api.github.com/users/smitpatel/received_events",
  "type": "User",
  "site_admin": false
}
, {
  "login": "mmontwil",
  "id": 1568974,
  "avatar_url": "https://avatars.githubusercontent.com/u/1568974?v=3",
  "gravatar_id": "",
  "url": "https://api.github.com/users/mmontwil",
  "html_url": "https://github.com/mmontwil",
  "followers_url": "https://api.github.com/users/mmontwil/followers",
  "following_url": "https://api.github.com/users/mmontwil/following{/other_user}",
  "gists_url": "https://api.github.com/users/mmontwil/gists{/gist_id}",
  "starred_url": "https://api.github.com/users/mmontwil/starred{/owner}{/repo}",
  "subscriptions_url": "https://api.github.com/users/mmontwil/subscriptions",
  "organizations_url": "https://api.github.com/users/mmontwil/orgs",
  "repos_url": "https://api.github.com/users/mmontwil/repos",
  "events_url": "https://api.github.com/users/mmontwil/events{/privacy}",
  "received_events_url": "https://api.github.com/users/mmontwil/received_events",
  "type": "User",
  "site_admin": false
}
, {
  "login": "ajaybhargavb",
  "id": 1579269,
  "avatar_url": "https://avatars.githubusercontent.com/u/1579269?v=3",
  "gravatar_id": "",
  "url": "https://api.github.com/users/ajaybhargavb",
  "html_url": "https://github.com/ajaybhargavb",
  "followers_url": "https://api.github.com/users/ajaybhargavb/followers",
  "following_url": "https://api.github.com/users/ajaybhargavb/following{/other_user}",
  "gists_url": "https://api.github.com/users/ajaybhargavb/gists{/gist_id}",
  "starred_url": "https://api.github.com/users/ajaybhargavb/starred{/owner}{/repo}",
  "subscriptions_url": "https://api.github.com/users/ajaybhargavb/subscriptions",
  "organizations_url": "https://api.github.com/users/ajaybhargavb/orgs",
  "repos_url": "https://api.github.com/users/ajaybhargavb/repos",
  "events_url": "https://api.github.com/users/ajaybhargavb/events{/privacy}",
  "received_events_url": "https://api.github.com/users/ajaybhargavb/received_events",
  "type": "User",
  "site_admin": false
}
, {
  "login": "maumar",
  "id": 1591930,
  "avatar_url": "https://avatars.githubusercontent.com/u/1591930?v=3",
  "gravatar_id": "",
  "url": "https://api.github.com/users/maumar",
  "html_url": "https://github.com/maumar",
  "followers_url": "https://api.github.com/users/maumar/followers",
  "following_url": "https://api.github.com/users/maumar/following{/other_user}",
  "gists_url": "https://api.github.com/users/maumar/gists{/gist_id}",
  "starred_url": "https://api.github.com/users/maumar/starred{/owner}{/repo}",
  "subscriptions_url": "https://api.github.com/users/maumar/subscriptions",
  "organizations_url": "https://api.github.com/users/maumar/orgs",
  "repos_url": "https://api.github.com/users/maumar/repos",
  "events_url": "https://api.github.com/users/maumar/events{/privacy}",
  "received_events_url": "https://api.github.com/users/maumar/received_events",
  "type": "User",
  "site_admin": false
}
, {
  "login": "lajones",
  "id": 1915927,
  "avatar_url": "https://avatars.githubusercontent.com/u/1915927?v=3",
  "gravatar_id": "",
  "url": "https://api.github.com/users/lajones",
  "html_url": "https://github.com/lajones",
  "followers_url": "https://api.github.com/users/lajones/followers",
  "following_url": "https://api.github.com/users/lajones/following{/other_user}",
  "gists_url": "https://api.github.com/users/lajones/gists{/gist_id}",
  "starred_url": "https://api.github.com/users/lajones/starred{/owner}{/repo}",
  "subscriptions_url": "https://api.github.com/users/lajones/subscriptions",
  "organizations_url": "https://api.github.com/users/lajones/orgs",
  "repos_url": "https://api.github.com/users/lajones/repos",
  "events_url": "https://api.github.com/users/lajones/events{/privacy}",
  "received_events_url": "https://api.github.com/users/lajones/received_events",
  "type": "User",
  "site_admin": false
}
, {
  "login": "Xiaohongt",
  "id": 2381199,
  "avatar_url": "https://avatars.githubusercontent.com/u/2381199?v=3",
  "gravatar_id": "",
  "url": "https://api.github.com/users/Xiaohongt",
  "html_url": "https://github.com/Xiaohongt",
  "followers_url": "https://api.github.com/users/Xiaohongt/followers",
  "following_url": "https://api.github.com/users/Xiaohongt/following{/other_user}",
  "gists_url": "https://api.github.com/users/Xiaohongt/gists{/gist_id}",
  "starred_url": "https://api.github.com/users/Xiaohongt/starred{/owner}{/repo}",
  "subscriptions_url": "https://api.github.com/users/Xiaohongt/subscriptions",
  "organizations_url": "https://api.github.com/users/Xiaohongt/orgs",
  "repos_url": "https://api.github.com/users/Xiaohongt/repos",
  "events_url": "https://api.github.com/users/Xiaohongt/events{/privacy}",
  "received_events_url": "https://api.github.com/users/Xiaohongt/received_events",
  "type": "User",
  "site_admin": false
}
, {
  "login": "KKhurin",
  "id": 2626148,
  "avatar_url": "https://avatars.githubusercontent.com/u/2626148?v=3",
  "gravatar_id": "",
  "url": "https://api.github.com/users/KKhurin",
  "html_url": "https://github.com/KKhurin",
  "followers_url": "https://api.github.com/users/KKhurin/followers",
  "following_url": "https://api.github.com/users/KKhurin/following{/other_user}",
  "gists_url": "https://api.github.com/users/KKhurin/gists{/gist_id}",
  "starred_url": "https://api.github.com/users/KKhurin/starred{/owner}{/repo}",
  "subscriptions_url": "https://api.github.com/users/KKhurin/subscriptions",
  "organizations_url": "https://api.github.com/users/KKhurin/orgs",
  "repos_url": "https://api.github.com/users/KKhurin/repos",
  "events_url": "https://api.github.com/users/KKhurin/events{/privacy}",
  "received_events_url": "https://api.github.com/users/KKhurin/received_events",
  "type": "User",
  "site_admin": false
}
, {
  "login": "jhawk42",
  "id": 5255651,
  "avatar_url": "https://avatars.githubusercontent.com/u/5255651?v=3",
  "gravatar_id": "",
  "url": "https://api.github.com/users/jhawk42",
  "html_url": "https://github.com/jhawk42",
  "followers_url": "https://api.github.com/users/jhawk42/followers",
  "following_url": "https://api.github.com/users/jhawk42/following{/other_user}",
  "gists_url": "https://api.github.com/users/jhawk42/gists{/gist_id}",
  "starred_url": "https://api.github.com/users/jhawk42/starred{/owner}{/repo}",
  "subscriptions_url": "https://api.github.com/users/jhawk42/subscriptions",
  "organizations_url": "https://api.github.com/users/jhawk42/orgs",
  "repos_url": "https://api.github.com/users/jhawk42/repos",
  "events_url": "https://api.github.com/users/jhawk42/events{/privacy}",
  "received_events_url": "https://api.github.com/users/jhawk42/received_events",
  "type": "User",
  "site_admin": false
}
, {
  "login": "dougbu",
  "id": 6431421,
  "avatar_url": "https://avatars.githubusercontent.com/u/6431421?v=3",
  "gravatar_id": "",
  "url": "https://api.github.com/users/dougbu",
  "html_url": "https://github.com/dougbu",
  "followers_url": "https://api.github.com/users/dougbu/followers",
  "following_url": "https://api.github.com/users/dougbu/following{/other_user}",
  "gists_url": "https://api.github.com/users/dougbu/gists{/gist_id}",
  "starred_url": "https://api.github.com/users/dougbu/starred{/owner}{/repo}",
  "subscriptions_url": "https://api.github.com/users/dougbu/subscriptions",
  "organizations_url": "https://api.github.com/users/dougbu/orgs",
  "repos_url": "https://api.github.com/users/dougbu/repos",
  "events_url": "https://api.github.com/users/dougbu/events{/privacy}",
  "received_events_url": "https://api.github.com/users/dougbu/received_events",
  "type": "User",
  "site_admin": false
}
, {
  "login": "emilcicos",
  "id": 6577834,
  "avatar_url": "https://avatars.githubusercontent.com/u/6577834?v=3",
  "gravatar_id": "",
  "url": "https://api.github.com/users/emilcicos",
  "html_url": "https://github.com/emilcicos",
  "followers_url": "https://api.github.com/users/emilcicos/followers",
  "following_url": "https://api.github.com/users/emilcicos/following{/other_user}",
  "gists_url": "https://api.github.com/users/emilcicos/gists{/gist_id}",
  "starred_url": "https://api.github.com/users/emilcicos/starred{/owner}{/repo}",
  "subscriptions_url": "https://api.github.com/users/emilcicos/subscriptions",
  "organizations_url": "https://api.github.com/users/emilcicos/orgs",
  "repos_url": "https://api.github.com/users/emilcicos/repos",
  "events_url": "https://api.github.com/users/emilcicos/events{/privacy}",
  "received_events_url": "https://api.github.com/users/emilcicos/received_events",
  "type": "User",
  "site_admin": false
}
, {
  "login": "sornaks",
  "id": 6588965,
  "avatar_url": "https://avatars.githubusercontent.com/u/6588965?v=3",
  "gravatar_id": "",
  "url": "https://api.github.com/users/sornaks",
  "html_url": "https://github.com/sornaks",
  "followers_url": "https://api.github.com/users/sornaks/followers",
  "following_url": "https://api.github.com/users/sornaks/following{/other_user}",
  "gists_url": "https://api.github.com/users/sornaks/gists{/gist_id}",
  "starred_url": "https://api.github.com/users/sornaks/starred{/owner}{/repo}",
  "subscriptions_url": "https://api.github.com/users/sornaks/subscriptions",
  "organizations_url": "https://api.github.com/users/sornaks/orgs",
  "repos_url": "https://api.github.com/users/sornaks/repos",
  "events_url": "https://api.github.com/users/sornaks/events{/privacy}",
  "received_events_url": "https://api.github.com/users/sornaks/received_events",
  "type": "User",
  "site_admin": false
}
, {
  "login": "shhsu",
  "id": 6619915,
  "avatar_url": "https://avatars.githubusercontent.com/u/6619915?v=3",
  "gravatar_id": "",
  "url": "https://api.github.com/users/shhsu",
  "html_url": "https://github.com/shhsu",
  "followers_url": "https://api.github.com/users/shhsu/followers",
  "following_url": "https://api.github.com/users/shhsu/following{/other_user}",
  "gists_url": "https://api.github.com/users/shhsu/gists{/gist_id}",
  "starred_url": "https://api.github.com/users/shhsu/starred{/owner}{/repo}",
  "subscriptions_url": "https://api.github.com/users/shhsu/subscriptions",
  "organizations_url": "https://api.github.com/users/shhsu/orgs",
  "repos_url": "https://api.github.com/users/shhsu/repos",
  "events_url": "https://api.github.com/users/shhsu/events{/privacy}",
  "received_events_url": "https://api.github.com/users/shhsu/received_events",
  "type": "User",
  "site_admin": false
}
, {
  "login": "harshgMSFT",
  "id": 6729943,
  "avatar_url": "https://avatars.githubusercontent.com/u/6729943?v=3",
  "gravatar_id": "",
  "url": "https://api.github.com/users/harshgMSFT",
  "html_url": "https://github.com/harshgMSFT",
  "followers_url": "https://api.github.com/users/harshgMSFT/followers",
  "following_url": "https://api.github.com/users/harshgMSFT/following{/other_user}",
  "gists_url": "https://api.github.com/users/harshgMSFT/gists{/gist_id}",
  "starred_url": "https://api.github.com/users/harshgMSFT/starred{/owner}{/repo}",
  "subscriptions_url": "https://api.github.com/users/harshgMSFT/subscriptions",
  "organizations_url": "https://api.github.com/users/harshgMSFT/orgs",
  "repos_url": "https://api.github.com/users/harshgMSFT/repos",
  "events_url": "https://api.github.com/users/harshgMSFT/events{/privacy}",
  "received_events_url": "https://api.github.com/users/harshgMSFT/received_events",
  "type": "User",
  "site_admin": false
}
, {
  "login": "javiercn",
  "id": 6995051,
  "avatar_url": "https://avatars.githubusercontent.com/u/6995051?v=3",
  "gravatar_id": "",
  "url": "https://api.github.com/users/javiercn",
  "html_url": "https://github.com/javiercn",
  "followers_url": "https://api.github.com/users/javiercn/followers",
  "following_url": "https://api.github.com/users/javiercn/following{/other_user}",
  "gists_url": "https://api.github.com/users/javiercn/gists{/gist_id}",
  "starred_url": "https://api.github.com/users/javiercn/starred{/owner}{/repo}",
  "subscriptions_url": "https://api.github.com/users/javiercn/subscriptions",
  "organizations_url": "https://api.github.com/users/javiercn/orgs",
  "repos_url": "https://api.github.com/users/javiercn/repos",
  "events_url": "https://api.github.com/users/javiercn/events{/privacy}",
  "received_events_url": "https://api.github.com/users/javiercn/received_events",
  "type": "User",
  "site_admin": false
}
, {
  "login": "joeloff",
  "id": 7409981,
  "avatar_url": "https://avatars.githubusercontent.com/u/7409981?v=3",
  "gravatar_id": "",
  "url": "https://api.github.com/users/joeloff",
  "html_url": "https://github.com/joeloff",
  "followers_url": "https://api.github.com/users/joeloff/followers",
  "following_url": "https://api.github.com/users/joeloff/following{/other_user}",
  "gists_url": "https://api.github.com/users/joeloff/gists{/gist_id}",
  "starred_url": "https://api.github.com/users/joeloff/starred{/owner}{/repo}",
  "subscriptions_url": "https://api.github.com/users/joeloff/subscriptions",
  "organizations_url": "https://api.github.com/users/joeloff/orgs",
  "repos_url": "https://api.github.com/users/joeloff/repos",
  "events_url": "https://api.github.com/users/joeloff/events{/privacy}",
  "received_events_url": "https://api.github.com/users/joeloff/received_events",
  "type": "User",
  "site_admin": false
}
, {
  "login": "BrennanConroy",
  "id": 7574801,
  "avatar_url": "https://avatars.githubusercontent.com/u/7574801?v=3",
  "gravatar_id": "",
  "url": "https://api.github.com/users/BrennanConroy",
  "html_url": "https://github.com/BrennanConroy",
  "followers_url": "https://api.github.com/users/BrennanConroy/followers",
  "following_url": "https://api.github.com/users/BrennanConroy/following{/other_user}",
  "gists_url": "https://api.github.com/users/BrennanConroy/gists{/gist_id}",
  "starred_url": "https://api.github.com/users/BrennanConroy/starred{/owner}{/repo}",
  "subscriptions_url": "https://api.github.com/users/BrennanConroy/subscriptions",
  "organizations_url": "https://api.github.com/users/BrennanConroy/orgs",
  "repos_url": "https://api.github.com/users/BrennanConroy/repos",
  "events_url": "https://api.github.com/users/BrennanConroy/events{/privacy}",
  "received_events_url": "https://api.github.com/users/BrennanConroy/received_events",
  "type": "User",
  "site_admin": false
}
, {
  "login": "dnfclas",
  "id": 10201666,
  "avatar_url": "https://avatars.githubusercontent.com/u/10201666?v=3",
  "gravatar_id": "",
  "url": "https://api.github.com/users/dnfclas",
  "html_url": "https://github.com/dnfclas",
  "followers_url": "https://api.github.com/users/dnfclas/followers",
  "following_url": "https://api.github.com/users/dnfclas/following{/other_user}",
  "gists_url": "https://api.github.com/users/dnfclas/gists{/gist_id}",
  "starred_url": "https://api.github.com/users/dnfclas/starred{/owner}{/repo}",
  "subscriptions_url": "https://api.github.com/users/dnfclas/subscriptions",
  "organizations_url": "https://api.github.com/users/dnfclas/orgs",
  "repos_url": "https://api.github.com/users/dnfclas/repos",
  "events_url": "https://api.github.com/users/dnfclas/events{/privacy}",
  "received_events_url": "https://api.github.com/users/dnfclas/received_events",
  "type": "User",
  "site_admin": false
}
, {
  "login": "ardalis",
  "id": 782127,
  "avatar_url": "https://avatars.githubusercontent.com/u/782127?v=3",
  "gravatar_id": "",
  "url": "https://api.github.com/users/ardalis",
  "html_url": "https://github.com/ardalis",
  "followers_url": "https://api.github.com/users/ardalis/followers",
  "following_url": "https://api.github.com/users/ardalis/following{/other_user}",
  "gists_url": "https://api.github.com/users/ardalis/gists{/gist_id}",
  "starred_url": "https://api.github.com/users/ardalis/starred{/owner}{/repo}",
  "subscriptions_url": "https://api.github.com/users/ardalis/subscriptions",
  "organizations_url": "https://api.github.com/users/ardalis/orgs",
  "repos_url": "https://api.github.com/users/ardalis/repos",
  "events_url": "https://api.github.com/users/ardalis/events{/privacy}",
  "received_events_url": "https://api.github.com/users/ardalis/received_events",
  "type": "User",
  "site_admin": false
}
, {
  "login": "Rick-Anderson",
  "id": 3605364,
  "avatar_url": "https://avatars.githubusercontent.com/u/3605364?v=3",
  "gravatar_id": "",
  "url": "https://api.github.com/users/Rick-Anderson",
  "html_url": "https://github.com/Rick-Anderson",
  "followers_url": "https://api.github.com/users/Rick-Anderson/followers",
  "following_url": "https://api.github.com/users/Rick-Anderson/following{/other_user}",
  "gists_url": "https://api.github.com/users/Rick-Anderson/gists{/gist_id}",
  "starred_url": "https://api.github.com/users/Rick-Anderson/starred{/owner}{/repo}",
  "subscriptions_url": "https://api.github.com/users/Rick-Anderson/subscriptions",
  "organizations_url": "https://api.github.com/users/Rick-Anderson/orgs",
  "repos_url": "https://api.github.com/users/Rick-Anderson/repos",
  "events_url": "https://api.github.com/users/Rick-Anderson/events{/privacy}",
  "received_events_url": "https://api.github.com/users/Rick-Anderson/received_events",
  "type": "User",
  "site_admin": false
}
, {
  "login": "MikeWasson",
  "id": 3992422,
  "avatar_url": "https://avatars.githubusercontent.com/u/3992422?v=3",
  "gravatar_id": "",
  "url": "https://api.github.com/users/MikeWasson",
  "html_url": "https://github.com/MikeWasson",
  "followers_url": "https://api.github.com/users/MikeWasson/followers",
  "following_url": "https://api.github.com/users/MikeWasson/following{/other_user}",
  "gists_url": "https://api.github.com/users/MikeWasson/gists{/gist_id}",
  "starred_url": "https://api.github.com/users/MikeWasson/starred{/owner}{/repo}",
  "subscriptions_url": "https://api.github.com/users/MikeWasson/subscriptions",
  "organizations_url": "https://api.github.com/users/MikeWasson/orgs",
  "repos_url": "https://api.github.com/users/MikeWasson/repos",
  "events_url": "https://api.github.com/users/MikeWasson/events{/privacy}",
  "received_events_url": "https://api.github.com/users/MikeWasson/received_events",
  "type": "User",
  "site_admin": false
}
, {
  "login": "terrimorton",
  "id": 4643903,
  "avatar_url": "https://avatars.githubusercontent.com/u/4643903?v=3",
  "gravatar_id": "",
  "url": "https://api.github.com/users/terrimorton",
  "html_url": "https://github.com/terrimorton",
  "followers_url": "https://api.github.com/users/terrimorton/followers",
  "following_url": "https://api.github.com/users/terrimorton/following{/other_user}",
  "gists_url": "https://api.github.com/users/terrimorton/gists{/gist_id}",
  "starred_url": "https://api.github.com/users/terrimorton/starred{/owner}{/repo}",
  "subscriptions_url": "https://api.github.com/users/terrimorton/subscriptions",
  "organizations_url": "https://api.github.com/users/terrimorton/orgs",
  "repos_url": "https://api.github.com/users/terrimorton/repos",
  "events_url": "https://api.github.com/users/terrimorton/events{/privacy}",
  "received_events_url": "https://api.github.com/users/terrimorton/received_events",
  "type": "User",
  "site_admin": false
}
, {
  "login": "Erikre",
  "id": 7407729,
  "avatar_url": "https://avatars.githubusercontent.com/u/7407729?v=3",
  "gravatar_id": "",
  "url": "https://api.github.com/users/Erikre",
  "html_url": "https://github.com/Erikre",
  "followers_url": "https://api.github.com/users/Erikre/followers",
  "following_url": "https://api.github.com/users/Erikre/following{/other_user}",
  "gists_url": "https://api.github.com/users/Erikre/gists{/gist_id}",
  "starred_url": "https://api.github.com/users/Erikre/starred{/owner}{/repo}",
  "subscriptions_url": "https://api.github.com/users/Erikre/subscriptions",
  "organizations_url": "https://api.github.com/users/Erikre/orgs",
  "repos_url": "https://api.github.com/users/Erikre/repos",
  "events_url": "https://api.github.com/users/Erikre/events{/privacy}",
  "received_events_url": "https://api.github.com/users/Erikre/received_events",
  "type": "User",
  "site_admin": false
}
, {
  "login": "rowanmiller",
  "id": 4741851,
  "avatar_url": "https://avatars.githubusercontent.com/u/4741851?v=3",
  "gravatar_id": "",
  "url": "https://api.github.com/users/rowanmiller",
  "html_url": "https://github.com/rowanmiller",
  "followers_url": "https://api.github.com/users/rowanmiller/followers",
  "following_url": "https://api.github.com/users/rowanmiller/following{/other_user}",
  "gists_url": "https://api.github.com/users/rowanmiller/gists{/gist_id}",
  "starred_url": "https://api.github.com/users/rowanmiller/starred{/owner}{/repo}",
  "subscriptions_url": "https://api.github.com/users/rowanmiller/subscriptions",
  "organizations_url": "https://api.github.com/users/rowanmiller/orgs",
  "repos_url": "https://api.github.com/users/rowanmiller/repos",
  "events_url": "https://api.github.com/users/rowanmiller/events{/privacy}",
  "received_events_url": "https://api.github.com/users/rowanmiller/received_events",
  "type": "User",
  "site_admin": false
}
, {
  "login": "bricelam",
  "id": 1226749,
  "avatar_url": "https://avatars.githubusercontent.com/u/1226749?v=3",
  "gravatar_id": "",
  "url": "https://api.github.com/users/bricelam",
  "html_url": "https://github.com/bricelam",
  "followers_url": "https://api.github.com/users/bricelam/followers",
  "following_url": "https://api.github.com/users/bricelam/following{/other_user}",
  "gists_url": "https://api.github.com/users/bricelam/gists{/gist_id}",
  "starred_url": "https://api.github.com/users/bricelam/starred{/owner}{/repo}",
  "subscriptions_url": "https://api.github.com/users/bricelam/subscriptions",
  "organizations_url": "https://api.github.com/users/bricelam/orgs",
  "repos_url": "https://api.github.com/users/bricelam/repos",
  "events_url": "https://api.github.com/users/bricelam/events{/privacy}",
  "received_events_url": "https://api.github.com/users/bricelam/received_events",
  "type": "User",
  "site_admin": false
}
, {
  "login": "ajcvickers",
  "id": 1430078,
  "avatar_url": "https://avatars.githubusercontent.com/u/1430078?v=3",
  "gravatar_id": "",
  "url": "https://api.github.com/users/ajcvickers",
  "html_url": "https://github.com/ajcvickers",
  "followers_url": "https://api.github.com/users/ajcvickers/followers",
  "following_url": "https://api.github.com/users/ajcvickers/following{/other_user}",
  "gists_url": "https://api.github.com/users/ajcvickers/gists{/gist_id}",
  "starred_url": "https://api.github.com/users/ajcvickers/starred{/owner}{/repo}",
  "subscriptions_url": "https://api.github.com/users/ajcvickers/subscriptions",
  "organizations_url": "https://api.github.com/users/ajcvickers/orgs",
  "repos_url": "https://api.github.com/users/ajcvickers/repos",
  "events_url": "https://api.github.com/users/ajcvickers/events{/privacy}",
  "received_events_url": "https://api.github.com/users/ajcvickers/received_events",
  "type": "User",
  "site_admin": false
}
, {
  "login": "natemcmaster",
  "id": 2696087,
  "avatar_url": "https://avatars.githubusercontent.com/u/2696087?v=3",
  "gravatar_id": "",
  "url": "https://api.github.com/users/natemcmaster",
  "html_url": "https://github.com/natemcmaster",
  "followers_url": "https://api.github.com/users/natemcmaster/followers",
  "following_url": "https://api.github.com/users/natemcmaster/following{/other_user}",
  "gists_url": "https://api.github.com/users/natemcmaster/gists{/gist_id}",
  "starred_url": "https://api.github.com/users/natemcmaster/starred{/owner}{/repo}",
  "subscriptions_url": "https://api.github.com/users/natemcmaster/subscriptions",
  "organizations_url": "https://api.github.com/users/natemcmaster/orgs",
  "repos_url": "https://api.github.com/users/natemcmaster/repos",
  "events_url": "https://api.github.com/users/natemcmaster/events{/privacy}",
  "received_events_url": "https://api.github.com/users/natemcmaster/received_events",
  "type": "User",
  "site_admin": false
}
, {
  "login": "mikaelm12",
  "id": 4809660,
  "avatar_url": "https://avatars.githubusercontent.com/u/4809660?v=3",
  "gravatar_id": "",
  "url": "https://api.github.com/users/mikaelm12",
  "html_url": "https://github.com/mikaelm12",
  "followers_url": "https://api.github.com/users/mikaelm12/followers",
  "following_url": "https://api.github.com/users/mikaelm12/following{/other_user}",
  "gists_url": "https://api.github.com/users/mikaelm12/gists{/gist_id}",
  "starred_url": "https://api.github.com/users/mikaelm12/starred{/owner}{/repo}",
  "subscriptions_url": "https://api.github.com/users/mikaelm12/subscriptions",
  "organizations_url": "https://api.github.com/users/mikaelm12/orgs",
  "repos_url": "https://api.github.com/users/mikaelm12/repos",
  "events_url": "https://api.github.com/users/mikaelm12/events{/privacy}",
  "received_events_url": "https://api.github.com/users/mikaelm12/received_events",
  "type": "User",
  "site_admin": false
}
, {
  "login": "gerryLowry",
  "id": 2315073,
  "avatar_url": "https://avatars.githubusercontent.com/u/2315073?v=3",
  "gravatar_id": "",
  "url": "https://api.github.com/users/gerryLowry",
  "html_url": "https://github.com/gerryLowry",
  "followers_url": "https://api.github.com/users/gerryLowry/followers",
  "following_url": "https://api.github.com/users/gerryLowry/following{/other_user}",
  "gists_url": "https://api.github.com/users/gerryLowry/gists{/gist_id}",
  "starred_url": "https://api.github.com/users/gerryLowry/starred{/owner}{/repo}",
  "subscriptions_url": "https://api.github.com/users/gerryLowry/subscriptions",
  "organizations_url": "https://api.github.com/users/gerryLowry/orgs",
  "repos_url": "https://api.github.com/users/gerryLowry/repos",
  "events_url": "https://api.github.com/users/gerryLowry/events{/privacy}",
  "received_events_url": "https://api.github.com/users/gerryLowry/received_events",
  "type": "User",
  "site_admin": false
}
, {
  "login": "runamuk0",
  "id": 5784115,
  "avatar_url": "https://avatars.githubusercontent.com/u/5784115?v=3",
  "gravatar_id": "",
  "url": "https://api.github.com/users/runamuk0",
  "html_url": "https://github.com/runamuk0",
  "followers_url": "https://api.github.com/users/runamuk0/followers",
  "following_url": "https://api.github.com/users/runamuk0/following{/other_user}",
  "gists_url": "https://api.github.com/users/runamuk0/gists{/gist_id}",
  "starred_url": "https://api.github.com/users/runamuk0/starred{/owner}{/repo}",
  "subscriptions_url": "https://api.github.com/users/runamuk0/subscriptions",
  "organizations_url": "https://api.github.com/users/runamuk0/orgs",
  "repos_url": "https://api.github.com/users/runamuk0/repos",
  "events_url": "https://api.github.com/users/runamuk0/events{/privacy}",
  "received_events_url": "https://api.github.com/users/runamuk0/received_events",
  "type": "User",
  "site_admin": false
}
, {
  "login": "ErikEJ",
  "id": 4169187,
  "avatar_url": "https://avatars.githubusercontent.com/u/4169187?v=3",
  "gravatar_id": "",
  "url": "https://api.github.com/users/ErikEJ",
  "html_url": "https://github.com/ErikEJ",
  "followers_url": "https://api.github.com/users/ErikEJ/followers",
  "following_url": "https://api.github.com/users/ErikEJ/following{/other_user}",
  "gists_url": "https://api.github.com/users/ErikEJ/gists{/gist_id}",
  "starred_url": "https://api.github.com/users/ErikEJ/starred{/owner}{/repo}",
  "subscriptions_url": "https://api.github.com/users/ErikEJ/subscriptions",
  "organizations_url": "https://api.github.com/users/ErikEJ/orgs",
  "repos_url": "https://api.github.com/users/ErikEJ/repos",
  "events_url": "https://api.github.com/users/ErikEJ/events{/privacy}",
  "received_events_url": "https://api.github.com/users/ErikEJ/received_events",
  "type": "User",
  "site_admin": false
}
, {
  "login": "TomArcher",
  "id": 4117258,
  "avatar_url": "https://avatars.githubusercontent.com/u/4117258?v=3",
  "gravatar_id": "",
  "url": "https://api.github.com/users/TomArcher",
  "html_url": "https://github.com/TomArcher",
  "followers_url": "https://api.github.com/users/TomArcher/followers",
  "following_url": "https://api.github.com/users/TomArcher/following{/other_user}",
  "gists_url": "https://api.github.com/users/TomArcher/gists{/gist_id}",
  "starred_url": "https://api.github.com/users/TomArcher/starred{/owner}{/repo}",
  "subscriptions_url": "https://api.github.com/users/TomArcher/subscriptions",
  "organizations_url": "https://api.github.com/users/TomArcher/orgs",
  "repos_url": "https://api.github.com/users/TomArcher/repos",
  "events_url": "https://api.github.com/users/TomArcher/events{/privacy}",
  "received_events_url": "https://api.github.com/users/TomArcher/received_events",
  "type": "User",
  "site_admin": false
}
, {
  "login": "netwenchao",
  "id": 1317053,
  "avatar_url": "https://avatars.githubusercontent.com/u/1317053?v=3",
  "gravatar_id": "",
  "url": "https://api.github.com/users/netwenchao",
  "html_url": "https://github.com/netwenchao",
  "followers_url": "https://api.github.com/users/netwenchao/followers",
  "following_url": "https://api.github.com/users/netwenchao/following{/other_user}",
  "gists_url": "https://api.github.com/users/netwenchao/gists{/gist_id}",
  "starred_url": "https://api.github.com/users/netwenchao/starred{/owner}{/repo}",
  "subscriptions_url": "https://api.github.com/users/netwenchao/subscriptions",
  "organizations_url": "https://api.github.com/users/netwenchao/orgs",
  "repos_url": "https://api.github.com/users/netwenchao/repos",
  "events_url": "https://api.github.com/users/netwenchao/events{/privacy}",
  "received_events_url": "https://api.github.com/users/netwenchao/received_events",
  "type": "User",
  "site_admin": false
}
, {
  "login": "mstahl77",
  "id": 13456643,
  "avatar_url": "https://avatars.githubusercontent.com/u/13456643?v=3",
  "gravatar_id": "",
  "url": "https://api.github.com/users/mstahl77",
  "html_url": "https://github.com/mstahl77",
  "followers_url": "https://api.github.com/users/mstahl77/followers",
  "following_url": "https://api.github.com/users/mstahl77/following{/other_user}",
  "gists_url": "https://api.github.com/users/mstahl77/gists{/gist_id}",
  "starred_url": "https://api.github.com/users/mstahl77/starred{/owner}{/repo}",
  "subscriptions_url": "https://api.github.com/users/mstahl77/subscriptions",
  "organizations_url": "https://api.github.com/users/mstahl77/orgs",
  "repos_url": "https://api.github.com/users/mstahl77/repos",
  "events_url": "https://api.github.com/users/mstahl77/events{/privacy}",
  "received_events_url": "https://api.github.com/users/mstahl77/received_events",
  "type": "User",
  "site_admin": false
}
, {
  "login": "lhysrc",
  "id": 4969229,
  "avatar_url": "https://avatars.githubusercontent.com/u/4969229?v=3",
  "gravatar_id": "",
  "url": "https://api.github.com/users/lhysrc",
  "html_url": "https://github.com/lhysrc",
  "followers_url": "https://api.github.com/users/lhysrc/followers",
  "following_url": "https://api.github.com/users/lhysrc/following{/other_user}",
  "gists_url": "https://api.github.com/users/lhysrc/gists{/gist_id}",
  "starred_url": "https://api.github.com/users/lhysrc/starred{/owner}{/repo}",
  "subscriptions_url": "https://api.github.com/users/lhysrc/subscriptions",
  "organizations_url": "https://api.github.com/users/lhysrc/orgs",
  "repos_url": "https://api.github.com/users/lhysrc/repos",
  "events_url": "https://api.github.com/users/lhysrc/events{/privacy}",
  "received_events_url": "https://api.github.com/users/lhysrc/received_events",
  "type": "User",
  "site_admin": false
}
, {
  "login": "jongalloway",
  "id": 68539,
  "avatar_url": "https://avatars.githubusercontent.com/u/68539?v=3",
  "gravatar_id": "",
  "url": "https://api.github.com/users/jongalloway",
  "html_url": "https://github.com/jongalloway",
  "followers_url": "https://api.github.com/users/jongalloway/followers",
  "following_url": "https://api.github.com/users/jongalloway/following{/other_user}",
  "gists_url": "https://api.github.com/users/jongalloway/gists{/gist_id}",
  "starred_url": "https://api.github.com/users/jongalloway/starred{/owner}{/repo}",
  "subscriptions_url": "https://api.github.com/users/jongalloway/subscriptions",
  "organizations_url": "https://api.github.com/users/jongalloway/orgs",
  "repos_url": "https://api.github.com/users/jongalloway/repos",
  "events_url": "https://api.github.com/users/jongalloway/events{/privacy}",
  "received_events_url": "https://api.github.com/users/jongalloway/received_events",
  "type": "User",
  "site_admin": false
}
, {
  "login": "zaxy78",
  "id": 2380463,
  "avatar_url": "https://avatars.githubusercontent.com/u/2380463?v=3",
  "gravatar_id": "",
  "url": "https://api.github.com/users/zaxy78",
  "html_url": "https://github.com/zaxy78",
  "followers_url": "https://api.github.com/users/zaxy78/followers",
  "following_url": "https://api.github.com/users/zaxy78/following{/other_user}",
  "gists_url": "https://api.github.com/users/zaxy78/gists{/gist_id}",
  "starred_url": "https://api.github.com/users/zaxy78/starred{/owner}{/repo}",
  "subscriptions_url": "https://api.github.com/users/zaxy78/subscriptions",
  "organizations_url": "https://api.github.com/users/zaxy78/orgs",
  "repos_url": "https://api.github.com/users/zaxy78/repos",
  "events_url": "https://api.github.com/users/zaxy78/events{/privacy}",
  "received_events_url": "https://api.github.com/users/zaxy78/received_events",
  "type": "User",
  "site_admin": false
}
, {
  "login": "zhengwei",
  "id": 18769,
  "avatar_url": "https://avatars.githubusercontent.com/u/18769?v=3",
  "gravatar_id": "",
  "url": "https://api.github.com/users/zhengwei",
  "html_url": "https://github.com/zhengwei",
  "followers_url": "https://api.github.com/users/zhengwei/followers",
  "following_url": "https://api.github.com/users/zhengwei/following{/other_user}",
  "gists_url": "https://api.github.com/users/zhengwei/gists{/gist_id}",
  "starred_url": "https://api.github.com/users/zhengwei/starred{/owner}{/repo}",
  "subscriptions_url": "https://api.github.com/users/zhengwei/subscriptions",
  "organizations_url": "https://api.github.com/users/zhengwei/orgs",
  "repos_url": "https://api.github.com/users/zhengwei/repos",
  "events_url": "https://api.github.com/users/zhengwei/events{/privacy}",
  "received_events_url": "https://api.github.com/users/zhengwei/received_events",
  "type": "User",
  "site_admin": false
}
, {
  "login": "tmds",
  "id": 1025424,
  "avatar_url": "https://avatars.githubusercontent.com/u/1025424?v=3",
  "gravatar_id": "",
  "url": "https://api.github.com/users/tmds",
  "html_url": "https://github.com/tmds",
  "followers_url": "https://api.github.com/users/tmds/followers",
  "following_url": "https://api.github.com/users/tmds/following{/other_user}",
  "gists_url": "https://api.github.com/users/tmds/gists{/gist_id}",
  "starred_url": "https://api.github.com/users/tmds/starred{/owner}{/repo}",
  "subscriptions_url": "https://api.github.com/users/tmds/subscriptions",
  "organizations_url": "https://api.github.com/users/tmds/orgs",
  "repos_url": "https://api.github.com/users/tmds/repos",
  "events_url": "https://api.github.com/users/tmds/events{/privacy}",
  "received_events_url": "https://api.github.com/users/tmds/received_events",
  "type": "User",
  "site_admin": false
}
, {
  "login": "colourblendcreative",
  "id": 1074530,
  "avatar_url": "https://avatars.githubusercontent.com/u/1074530?v=3",
  "gravatar_id": "",
  "url": "https://api.github.com/users/colourblendcreative",
  "html_url": "https://github.com/colourblendcreative",
  "followers_url": "https://api.github.com/users/colourblendcreative/followers",
  "following_url": "https://api.github.com/users/colourblendcreative/following{/other_user}",
  "gists_url": "https://api.github.com/users/colourblendcreative/gists{/gist_id}",
  "starred_url": "https://api.github.com/users/colourblendcreative/starred{/owner}{/repo}",
  "subscriptions_url": "https://api.github.com/users/colourblendcreative/subscriptions",
  "organizations_url": "https://api.github.com/users/colourblendcreative/orgs",
  "repos_url": "https://api.github.com/users/colourblendcreative/repos",
  "events_url": "https://api.github.com/users/colourblendcreative/events{/privacy}",
  "received_events_url": "https://api.github.com/users/colourblendcreative/received_events",
  "type": "User",
  "site_admin": false
}
, {
  "login": "rhires",
  "id": 12577765,
  "avatar_url": "https://avatars.githubusercontent.com/u/12577765?v=3",
  "gravatar_id": "",
  "url": "https://api.github.com/users/rhires",
  "html_url": "https://github.com/rhires",
  "followers_url": "https://api.github.com/users/rhires/followers",
  "following_url": "https://api.github.com/users/rhires/following{/other_user}",
  "gists_url": "https://api.github.com/users/rhires/gists{/gist_id}",
  "starred_url": "https://api.github.com/users/rhires/starred{/owner}{/repo}",
  "subscriptions_url": "https://api.github.com/users/rhires/subscriptions",
  "organizations_url": "https://api.github.com/users/rhires/orgs",
  "repos_url": "https://api.github.com/users/rhires/repos",
  "events_url": "https://api.github.com/users/rhires/events{/privacy}",
  "received_events_url": "https://api.github.com/users/rhires/received_events",
  "type": "User",
  "site_admin": false
}
, {
  "login": "SteveSandersonMS",
  "id": 1101362,
  "avatar_url": "https://avatars.githubusercontent.com/u/1101362?v=3",
  "gravatar_id": "",
  "url": "https://api.github.com/users/SteveSandersonMS",
  "html_url": "https://github.com/SteveSandersonMS",
  "followers_url": "https://api.github.com/users/SteveSandersonMS/followers",
  "following_url": "https://api.github.com/users/SteveSandersonMS/following{/other_user}",
  "gists_url": "https://api.github.com/users/SteveSandersonMS/gists{/gist_id}",
  "starred_url": "https://api.github.com/users/SteveSandersonMS/starred{/owner}{/repo}",
  "subscriptions_url": "https://api.github.com/users/SteveSandersonMS/subscriptions",
  "organizations_url": "https://api.github.com/users/SteveSandersonMS/orgs",
  "repos_url": "https://api.github.com/users/SteveSandersonMS/repos",
  "events_url": "https://api.github.com/users/SteveSandersonMS/events{/privacy}",
  "received_events_url": "https://api.github.com/users/SteveSandersonMS/received_events",
  "type": "User",
  "site_admin": false
}
, {
  "login": "xinyebs",
  "id": 6802255,
  "avatar_url": "https://avatars.githubusercontent.com/u/6802255?v=3",
  "gravatar_id": "",
  "url": "https://api.github.com/users/xinyebs",
  "html_url": "https://github.com/xinyebs",
  "followers_url": "https://api.github.com/users/xinyebs/followers",
  "following_url": "https://api.github.com/users/xinyebs/following{/other_user}",
  "gists_url": "https://api.github.com/users/xinyebs/gists{/gist_id}",
  "starred_url": "https://api.github.com/users/xinyebs/starred{/owner}{/repo}",
  "subscriptions_url": "https://api.github.com/users/xinyebs/subscriptions",
  "organizations_url": "https://api.github.com/users/xinyebs/orgs",
  "repos_url": "https://api.github.com/users/xinyebs/repos",
  "events_url": "https://api.github.com/users/xinyebs/events{/privacy}",
  "received_events_url": "https://api.github.com/users/xinyebs/received_events",
  "type": "User",
  "site_admin": false
}
, {
  "login": "lybid2002",
  "id": 14916761,
  "avatar_url": "https://avatars.githubusercontent.com/u/14916761?v=3",
  "gravatar_id": "",
  "url": "https://api.github.com/users/lybid2002",
  "html_url": "https://github.com/lybid2002",
  "followers_url": "https://api.github.com/users/lybid2002/followers",
  "following_url": "https://api.github.com/users/lybid2002/following{/other_user}",
  "gists_url": "https://api.github.com/users/lybid2002/gists{/gist_id}",
  "starred_url": "https://api.github.com/users/lybid2002/starred{/owner}{/repo}",
  "subscriptions_url": "https://api.github.com/users/lybid2002/subscriptions",
  "organizations_url": "https://api.github.com/users/lybid2002/orgs",
  "repos_url": "https://api.github.com/users/lybid2002/repos",
  "events_url": "https://api.github.com/users/lybid2002/events{/privacy}",
  "received_events_url": "https://api.github.com/users/lybid2002/received_events",
  "type": "User",
  "site_admin": false
}
, {
  "login": "pkent",
  "id": 8542632,
  "avatar_url": "https://avatars.githubusercontent.com/u/8542632?v=3",
  "gravatar_id": "",
  "url": "https://api.github.com/users/pkent",
  "html_url": "https://github.com/pkent",
  "followers_url": "https://api.github.com/users/pkent/followers",
  "following_url": "https://api.github.com/users/pkent/following{/other_user}",
  "gists_url": "https://api.github.com/users/pkent/gists{/gist_id}",
  "starred_url": "https://api.github.com/users/pkent/starred{/owner}{/repo}",
  "subscriptions_url": "https://api.github.com/users/pkent/subscriptions",
  "organizations_url": "https://api.github.com/users/pkent/orgs",
  "repos_url": "https://api.github.com/users/pkent/repos",
  "events_url": "https://api.github.com/users/pkent/events{/privacy}",
  "received_events_url": "https://api.github.com/users/pkent/received_events",
  "type": "User",
  "site_admin": false
}
, {
  "login": "mehrt",
  "id": 12710388,
  "avatar_url": "https://avatars.githubusercontent.com/u/12710388?v=3",
  "gravatar_id": "",
  "url": "https://api.github.com/users/mehrt",
  "html_url": "https://github.com/mehrt",
  "followers_url": "https://api.github.com/users/mehrt/followers",
  "following_url": "https://api.github.com/users/mehrt/following{/other_user}",
  "gists_url": "https://api.github.com/users/mehrt/gists{/gist_id}",
  "starred_url": "https://api.github.com/users/mehrt/starred{/owner}{/repo}",
  "subscriptions_url": "https://api.github.com/users/mehrt/subscriptions",
  "organizations_url": "https://api.github.com/users/mehrt/orgs",
  "repos_url": "https://api.github.com/users/mehrt/repos",
  "events_url": "https://api.github.com/users/mehrt/events{/privacy}",
  "received_events_url": "https://api.github.com/users/mehrt/received_events",
  "type": "User",
  "site_admin": false
}
, {
  "login": "VGGeorgiev",
  "id": 3617141,
  "avatar_url": "https://avatars.githubusercontent.com/u/3617141?v=3",
  "gravatar_id": "",
  "url": "https://api.github.com/users/VGGeorgiev",
  "html_url": "https://github.com/VGGeorgiev",
  "followers_url": "https://api.github.com/users/VGGeorgiev/followers",
  "following_url": "https://api.github.com/users/VGGeorgiev/following{/other_user}",
  "gists_url": "https://api.github.com/users/VGGeorgiev/gists{/gist_id}",
  "starred_url": "https://api.github.com/users/VGGeorgiev/starred{/owner}{/repo}",
  "subscriptions_url": "https://api.github.com/users/VGGeorgiev/subscriptions",
  "organizations_url": "https://api.github.com/users/VGGeorgiev/orgs",
  "repos_url": "https://api.github.com/users/VGGeorgiev/repos",
  "events_url": "https://api.github.com/users/VGGeorgiev/events{/privacy}",
  "received_events_url": "https://api.github.com/users/VGGeorgiev/received_events",
  "type": "User",
  "site_admin": false
}
, {
  "login": "richlander",
  "id": 2608468,
  "avatar_url": "https://avatars.githubusercontent.com/u/2608468?v=3",
  "gravatar_id": "",
  "url": "https://api.github.com/users/richlander",
  "html_url": "https://github.com/richlander",
  "followers_url": "https://api.github.com/users/richlander/followers",
  "following_url": "https://api.github.com/users/richlander/following{/other_user}",
  "gists_url": "https://api.github.com/users/richlander/gists{/gist_id}",
  "starred_url": "https://api.github.com/users/richlander/starred{/owner}{/repo}",
  "subscriptions_url": "https://api.github.com/users/richlander/subscriptions",
  "organizations_url": "https://api.github.com/users/richlander/orgs",
  "repos_url": "https://api.github.com/users/richlander/repos",
  "events_url": "https://api.github.com/users/richlander/events{/privacy}",
  "received_events_url": "https://api.github.com/users/richlander/received_events",
  "type": "User",
  "site_admin": false
}
, {
  "login": "alittletired",
  "id": 1484277,
  "avatar_url": "https://avatars.githubusercontent.com/u/1484277?v=3",
  "gravatar_id": "",
  "url": "https://api.github.com/users/alittletired",
  "html_url": "https://github.com/alittletired",
  "followers_url": "https://api.github.com/users/alittletired/followers",
  "following_url": "https://api.github.com/users/alittletired/following{/other_user}",
  "gists_url": "https://api.github.com/users/alittletired/gists{/gist_id}",
  "starred_url": "https://api.github.com/users/alittletired/starred{/owner}{/repo}",
  "subscriptions_url": "https://api.github.com/users/alittletired/subscriptions",
  "organizations_url": "https://api.github.com/users/alittletired/orgs",
  "repos_url": "https://api.github.com/users/alittletired/repos",
  "events_url": "https://api.github.com/users/alittletired/events{/privacy}",
  "received_events_url": "https://api.github.com/users/alittletired/received_events",
  "type": "User",
  "site_admin": false
}
, {
  "login": "joaomello",
  "id": 1150714,
  "avatar_url": "https://avatars.githubusercontent.com/u/1150714?v=3",
  "gravatar_id": "",
  "url": "https://api.github.com/users/joaomello",
  "html_url": "https://github.com/joaomello",
  "followers_url": "https://api.github.com/users/joaomello/followers",
  "following_url": "https://api.github.com/users/joaomello/following{/other_user}",
  "gists_url": "https://api.github.com/users/joaomello/gists{/gist_id}",
  "starred_url": "https://api.github.com/users/joaomello/starred{/owner}{/repo}",
  "subscriptions_url": "https://api.github.com/users/joaomello/subscriptions",
  "organizations_url": "https://api.github.com/users/joaomello/orgs",
  "repos_url": "https://api.github.com/users/joaomello/repos",
  "events_url": "https://api.github.com/users/joaomello/events{/privacy}",
  "received_events_url": "https://api.github.com/users/joaomello/received_events",
  "type": "User",
  "site_admin": false
}
, {
  "login": "melanie9701",
  "id": 1155619,
  "avatar_url": "https://avatars.githubusercontent.com/u/1155619?v=3",
  "gravatar_id": "",
  "url": "https://api.github.com/users/melanie9701",
  "html_url": "https://github.com/melanie9701",
  "followers_url": "https://api.github.com/users/melanie9701/followers",
  "following_url": "https://api.github.com/users/melanie9701/following{/other_user}",
  "gists_url": "https://api.github.com/users/melanie9701/gists{/gist_id}",
  "starred_url": "https://api.github.com/users/melanie9701/starred{/owner}{/repo}",
  "subscriptions_url": "https://api.github.com/users/melanie9701/subscriptions",
  "organizations_url": "https://api.github.com/users/melanie9701/orgs",
  "repos_url": "https://api.github.com/users/melanie9701/repos",
  "events_url": "https://api.github.com/users/melanie9701/events{/privacy}",
  "received_events_url": "https://api.github.com/users/melanie9701/received_events",
  "type": "User",
  "site_admin": false
}
, {
  "login": "charlesmarques",
  "id": 10728463,
  "avatar_url": "https://avatars.githubusercontent.com/u/10728463?v=3",
  "gravatar_id": "",
  "url": "https://api.github.com/users/charlesmarques",
  "html_url": "https://github.com/charlesmarques",
  "followers_url": "https://api.github.com/users/charlesmarques/followers",
  "following_url": "https://api.github.com/users/charlesmarques/following{/other_user}",
  "gists_url": "https://api.github.com/users/charlesmarques/gists{/gist_id}",
  "starred_url": "https://api.github.com/users/charlesmarques/starred{/owner}{/repo}",
  "subscriptions_url": "https://api.github.com/users/charlesmarques/subscriptions",
  "organizations_url": "https://api.github.com/users/charlesmarques/orgs",
  "repos_url": "https://api.github.com/users/charlesmarques/repos",
  "events_url": "https://api.github.com/users/charlesmarques/events{/privacy}",
  "received_events_url": "https://api.github.com/users/charlesmarques/received_events",
  "type": "User",
  "site_admin": false
}
, {
  "login": "mkerryfuller",
  "id": 15652524,
  "avatar_url": "https://avatars.githubusercontent.com/u/15652524?v=3",
  "gravatar_id": "",
  "url": "https://api.github.com/users/mkerryfuller",
  "html_url": "https://github.com/mkerryfuller",
  "followers_url": "https://api.github.com/users/mkerryfuller/followers",
  "following_url": "https://api.github.com/users/mkerryfuller/following{/other_user}",
  "gists_url": "https://api.github.com/users/mkerryfuller/gists{/gist_id}",
  "starred_url": "https://api.github.com/users/mkerryfuller/starred{/owner}{/repo}",
  "subscriptions_url": "https://api.github.com/users/mkerryfuller/subscriptions",
  "organizations_url": "https://api.github.com/users/mkerryfuller/orgs",
  "repos_url": "https://api.github.com/users/mkerryfuller/repos",
  "events_url": "https://api.github.com/users/mkerryfuller/events{/privacy}",
  "received_events_url": "https://api.github.com/users/mkerryfuller/received_events",
  "type": "User",
  "site_admin": false
}
, {
  "login": "cemalshukriev",
  "id": 4073721,
  "avatar_url": "https://avatars.githubusercontent.com/u/4073721?v=3",
  "gravatar_id": "",
  "url": "https://api.github.com/users/cemalshukriev",
  "html_url": "https://github.com/cemalshukriev",
  "followers_url": "https://api.github.com/users/cemalshukriev/followers",
  "following_url": "https://api.github.com/users/cemalshukriev/following{/other_user}",
  "gists_url": "https://api.github.com/users/cemalshukriev/gists{/gist_id}",
  "starred_url": "https://api.github.com/users/cemalshukriev/starred{/owner}{/repo}",
  "subscriptions_url": "https://api.github.com/users/cemalshukriev/subscriptions",
  "organizations_url": "https://api.github.com/users/cemalshukriev/orgs",
  "repos_url": "https://api.github.com/users/cemalshukriev/repos",
  "events_url": "https://api.github.com/users/cemalshukriev/events{/privacy}",
  "received_events_url": "https://api.github.com/users/cemalshukriev/received_events",
  "type": "User",
  "site_admin": false
}
, {
  "login": "joeleesh",
  "id": 3804199,
  "avatar_url": "https://avatars.githubusercontent.com/u/3804199?v=3",
  "gravatar_id": "",
  "url": "https://api.github.com/users/joeleesh",
  "html_url": "https://github.com/joeleesh",
  "followers_url": "https://api.github.com/users/joeleesh/followers",
  "following_url": "https://api.github.com/users/joeleesh/following{/other_user}",
  "gists_url": "https://api.github.com/users/joeleesh/gists{/gist_id}",
  "starred_url": "https://api.github.com/users/joeleesh/starred{/owner}{/repo}",
  "subscriptions_url": "https://api.github.com/users/joeleesh/subscriptions",
  "organizations_url": "https://api.github.com/users/joeleesh/orgs",
  "repos_url": "https://api.github.com/users/joeleesh/repos",
  "events_url": "https://api.github.com/users/joeleesh/events{/privacy}",
  "received_events_url": "https://api.github.com/users/joeleesh/received_events",
  "type": "User",
  "site_admin": false
}
, {
  "login": "chenkennt",
  "id": 8436953,
  "avatar_url": "https://avatars.githubusercontent.com/u/8436953?v=3",
  "gravatar_id": "",
  "url": "https://api.github.com/users/chenkennt",
  "html_url": "https://github.com/chenkennt",
  "followers_url": "https://api.github.com/users/chenkennt/followers",
  "following_url": "https://api.github.com/users/chenkennt/following{/other_user}",
  "gists_url": "https://api.github.com/users/chenkennt/gists{/gist_id}",
  "starred_url": "https://api.github.com/users/chenkennt/starred{/owner}{/repo}",
  "subscriptions_url": "https://api.github.com/users/chenkennt/subscriptions",
  "organizations_url": "https://api.github.com/users/chenkennt/orgs",
  "repos_url": "https://api.github.com/users/chenkennt/repos",
  "events_url": "https://api.github.com/users/chenkennt/events{/privacy}",
  "received_events_url": "https://api.github.com/users/chenkennt/received_events",
  "type": "User",
  "site_admin": false
}
, {
  "login": "saldana",
  "id": 3681607,
  "avatar_url": "https://avatars.githubusercontent.com/u/3681607?v=3",
  "gravatar_id": "",
  "url": "https://api.github.com/users/saldana",
  "html_url": "https://github.com/saldana",
  "followers_url": "https://api.github.com/users/saldana/followers",
  "following_url": "https://api.github.com/users/saldana/following{/other_user}",
  "gists_url": "https://api.github.com/users/saldana/gists{/gist_id}",
  "starred_url": "https://api.github.com/users/saldana/starred{/owner}{/repo}",
  "subscriptions_url": "https://api.github.com/users/saldana/subscriptions",
  "organizations_url": "https://api.github.com/users/saldana/orgs",
  "repos_url": "https://api.github.com/users/saldana/repos",
  "events_url": "https://api.github.com/users/saldana/events{/privacy}",
  "received_events_url": "https://api.github.com/users/saldana/received_events",
  "type": "User",
  "site_admin": false
}
, {
  "login": "GitHub-Henry",
  "id": 7365783,
  "avatar_url": "https://avatars.githubusercontent.com/u/7365783?v=3",
  "gravatar_id": "",
  "url": "https://api.github.com/users/GitHub-Henry",
  "html_url": "https://github.com/GitHub-Henry",
  "followers_url": "https://api.github.com/users/GitHub-Henry/followers",
  "following_url": "https://api.github.com/users/GitHub-Henry/following{/other_user}",
  "gists_url": "https://api.github.com/users/GitHub-Henry/gists{/gist_id}",
  "starred_url": "https://api.github.com/users/GitHub-Henry/starred{/owner}{/repo}",
  "subscriptions_url": "https://api.github.com/users/GitHub-Henry/subscriptions",
  "organizations_url": "https://api.github.com/users/GitHub-Henry/orgs",
  "repos_url": "https://api.github.com/users/GitHub-Henry/repos",
  "events_url": "https://api.github.com/users/GitHub-Henry/events{/privacy}",
  "received_events_url": "https://api.github.com/users/GitHub-Henry/received_events",
  "type": "User",
  "site_admin": false
}
, {
  "login": "Allen4Tech",
  "id": 13222554,
  "avatar_url": "https://avatars.githubusercontent.com/u/13222554?v=3",
  "gravatar_id": "",
  "url": "https://api.github.com/users/Allen4Tech",
  "html_url": "https://github.com/Allen4Tech",
  "followers_url": "https://api.github.com/users/Allen4Tech/followers",
  "following_url": "https://api.github.com/users/Allen4Tech/following{/other_user}",
  "gists_url": "https://api.github.com/users/Allen4Tech/gists{/gist_id}",
  "starred_url": "https://api.github.com/users/Allen4Tech/starred{/owner}{/repo}",
  "subscriptions_url": "https://api.github.com/users/Allen4Tech/subscriptions",
  "organizations_url": "https://api.github.com/users/Allen4Tech/orgs",
  "repos_url": "https://api.github.com/users/Allen4Tech/repos",
  "events_url": "https://api.github.com/users/Allen4Tech/events{/privacy}",
  "received_events_url": "https://api.github.com/users/Allen4Tech/received_events",
  "type": "User",
  "site_admin": false
}
, {
  "login": "SajayAntony",
  "id": 1821104,
  "avatar_url": "https://avatars.githubusercontent.com/u/1821104?v=3",
  "gravatar_id": "",
  "url": "https://api.github.com/users/SajayAntony",
  "html_url": "https://github.com/SajayAntony",
  "followers_url": "https://api.github.com/users/SajayAntony/followers",
  "following_url": "https://api.github.com/users/SajayAntony/following{/other_user}",
  "gists_url": "https://api.github.com/users/SajayAntony/gists{/gist_id}",
  "starred_url": "https://api.github.com/users/SajayAntony/starred{/owner}{/repo}",
  "subscriptions_url": "https://api.github.com/users/SajayAntony/subscriptions",
  "organizations_url": "https://api.github.com/users/SajayAntony/orgs",
  "repos_url": "https://api.github.com/users/SajayAntony/repos",
  "events_url": "https://api.github.com/users/SajayAntony/events{/privacy}",
  "received_events_url": "https://api.github.com/users/SajayAntony/received_events",
  "type": "User",
  "site_admin": false
}
]
