[
{
  "url": "https://api.github.com/repos/cucumber/gherkin/issues/comments/97516054",
  "html_url": "https://github.com/cucumber/gherkin/pull/35#issuecomment-97516054",
  "issue_url": "https://api.github.com/repos/cucumber/gherkin/issues/35",
  "id": 97516054,
  "user": {
    "login": "aslakhellesoy",
    "id": 1000,
    "avatar_url": "https://avatars.githubusercontent.com/u/1000?v=3",
    "gravatar_id": "",
    "url": "https://api.github.com/users/aslakhellesoy",
    "html_url": "https://github.com/aslakhellesoy",
    "followers_url": "https://api.github.com/users/aslakhellesoy/followers",
    "following_url": "https://api.github.com/users/aslakhellesoy/following{/other_user}",
    "gists_url": "https://api.github.com/users/aslakhellesoy/gists{/gist_id}",
    "starred_url": "https://api.github.com/users/aslakhellesoy/starred{/owner}{/repo}",
    "subscriptions_url": "https://api.github.com/users/aslakhellesoy/subscriptions",
    "organizations_url": "https://api.github.com/users/aslakhellesoy/orgs",
    "repos_url": "https://api.github.com/users/aslakhellesoy/repos",
    "events_url": "https://api.github.com/users/aslakhellesoy/events{/privacy}",
    "received_events_url": "https://api.github.com/users/aslakhellesoy/received_events",
    "type": "User",
    "site_admin": false
  },
  "created_at": "2015-04-29T17:45:23Z",
  "updated_at": "2015-04-29T17:45:23Z",
  "body": "Wouldn't it be simpler to have getTags() & friends check if the argument is null/undefined?"
}
, {
  "url": "https://api.github.com/repos/cucumber/gherkin/issues/comments/97517947",
  "html_url": "https://github.com/cucumber/gherkin/pull/35#issuecomment-97517947",
  "issue_url": "https://api.github.com/repos/cucumber/gherkin/issues/35",
  "id": 97517947,
  "user": {
    "login": "tooky",
    "id": 349,
    "avatar_url": "https://avatars.githubusercontent.com/u/349?v=3",
    "gravatar_id": "",
    "url": "https://api.github.com/users/tooky",
    "html_url": "https://github.com/tooky",
    "followers_url": "https://api.github.com/users/tooky/followers",
    "following_url": "https://api.github.com/users/tooky/following{/other_user}",
    "gists_url": "https://api.github.com/users/tooky/gists{/gist_id}",
    "starred_url": "https://api.github.com/users/tooky/starred{/owner}{/repo}",
    "subscriptions_url": "https://api.github.com/users/tooky/subscriptions",
    "organizations_url": "https://api.github.com/users/tooky/orgs",
    "repos_url": "https://api.github.com/users/tooky/repos",
    "events_url": "https://api.github.com/users/tooky/events{/privacy}",
    "received_events_url": "https://api.github.com/users/tooky/received_events",
    "type": "User",
    "site_admin": false
  },
  "created_at": "2015-04-29T17:53:07Z",
  "updated_at": "2015-04-29T17:53:07Z",
  "body": "@aslakhellesoy yes - except we then call methods on the arguments returned. I had a quick stab at creating a null-object node, but it wasn't right."
}
]
