[
{
  "url": "https://api.github.com/repos/thoughtbot/gitsh/issues/comments/35117626",
  "html_url": "https://github.com/thoughtbot/gitsh/pull/97#issuecomment-35117626",
  "issue_url": "https://api.github.com/repos/thoughtbot/gitsh/issues/97",
  "id": 35117626,
  "user": {
    "login": "georgebrock",
    "id": 35861,
    "avatar_url": "https://avatars.githubusercontent.com/u/35861?v=3",
    "gravatar_id": "",
    "url": "https://api.github.com/users/georgebrock",
    "html_url": "https://github.com/georgebrock",
    "followers_url": "https://api.github.com/users/georgebrock/followers",
    "following_url": "https://api.github.com/users/georgebrock/following{/other_user}",
    "gists_url": "https://api.github.com/users/georgebrock/gists{/gist_id}",
    "starred_url": "https://api.github.com/users/georgebrock/starred{/owner}{/repo}",
    "subscriptions_url": "https://api.github.com/users/georgebrock/subscriptions",
    "organizations_url": "https://api.github.com/users/georgebrock/orgs",
    "repos_url": "https://api.github.com/users/georgebrock/repos",
    "events_url": "https://api.github.com/users/georgebrock/events{/privacy}",
    "received_events_url": "https://api.github.com/users/georgebrock/received_events",
    "type": "User",
    "site_admin": false
  },
  "created_at": "2014-02-14T19:44:05Z",
  "updated_at": "2014-02-14T19:44:05Z",
  "body": "Thanks for the PR, @hoop33. I've made a couple of comments, but I think this is definitely on the right track.\r\n\r\nMy only other thought is that currently this will also allow gitsh-specific commands to be prefixed (e.g. `git :exit`). I'd like to follow the principle of least astonishment and do whatever seems least surprising to the user, but in this case I'm not sure what the least surprising option is. If `git :exit` is a bug and not a feature, then an alternative might be to put the `git ` prefix in Git command branch of the `command_identifier` rule, otherwise it should stay where it is."
}
, {
  "url": "https://api.github.com/repos/thoughtbot/gitsh/issues/comments/35533297",
  "html_url": "https://github.com/thoughtbot/gitsh/pull/97#issuecomment-35533297",
  "issue_url": "https://api.github.com/repos/thoughtbot/gitsh/issues/97",
  "id": 35533297,
  "user": {
    "login": "hoop33",
    "id": 228333,
    "avatar_url": "https://avatars.githubusercontent.com/u/228333?v=3",
    "gravatar_id": "",
    "url": "https://api.github.com/users/hoop33",
    "html_url": "https://github.com/hoop33",
    "followers_url": "https://api.github.com/users/hoop33/followers",
    "following_url": "https://api.github.com/users/hoop33/following{/other_user}",
    "gists_url": "https://api.github.com/users/hoop33/gists{/gist_id}",
    "starred_url": "https://api.github.com/users/hoop33/starred{/owner}{/repo}",
    "subscriptions_url": "https://api.github.com/users/hoop33/subscriptions",
    "organizations_url": "https://api.github.com/users/hoop33/orgs",
    "repos_url": "https://api.github.com/users/hoop33/repos",
    "events_url": "https://api.github.com/users/hoop33/events{/privacy}",
    "received_events_url": "https://api.github.com/users/hoop33/received_events",
    "type": "User",
    "site_admin": false
  },
  "created_at": "2014-02-19T18:47:49Z",
  "updated_at": "2014-02-19T18:47:49Z",
  "body": "Thanks for the feedback! Yeah, I muddled my way through Parslet. I'll take another crack at it."
}
, {
  "url": "https://api.github.com/repos/thoughtbot/gitsh/issues/comments/35599765",
  "html_url": "https://github.com/thoughtbot/gitsh/pull/97#issuecomment-35599765",
  "issue_url": "https://api.github.com/repos/thoughtbot/gitsh/issues/97",
  "id": 35599765,
  "user": {
    "login": "georgebrock",
    "id": 35861,
    "avatar_url": "https://avatars.githubusercontent.com/u/35861?v=3",
    "gravatar_id": "",
    "url": "https://api.github.com/users/georgebrock",
    "html_url": "https://github.com/georgebrock",
    "followers_url": "https://api.github.com/users/georgebrock/followers",
    "following_url": "https://api.github.com/users/georgebrock/following{/other_user}",
    "gists_url": "https://api.github.com/users/georgebrock/gists{/gist_id}",
    "starred_url": "https://api.github.com/users/georgebrock/starred{/owner}{/repo}",
    "subscriptions_url": "https://api.github.com/users/georgebrock/subscriptions",
    "organizations_url": "https://api.github.com/users/georgebrock/orgs",
    "repos_url": "https://api.github.com/users/georgebrock/repos",
    "events_url": "https://api.github.com/users/georgebrock/events{/privacy}",
    "received_events_url": "https://api.github.com/users/georgebrock/received_events",
    "type": "User",
    "site_admin": false
  },
  "created_at": "2014-02-20T08:52:19Z",
  "updated_at": "2014-02-20T08:52:19Z",
  "body": "Thanks!"
}
, {
  "url": "https://api.github.com/repos/thoughtbot/gitsh/issues/comments/43404660",
  "html_url": "https://github.com/thoughtbot/gitsh/pull/97#issuecomment-43404660",
  "issue_url": "https://api.github.com/repos/thoughtbot/gitsh/issues/97",
  "id": 43404660,
  "user": {
    "login": "AgentAntelope",
    "id": 1962412,
    "avatar_url": "https://avatars.githubusercontent.com/u/1962412?v=3",
    "gravatar_id": "",
    "url": "https://api.github.com/users/AgentAntelope",
    "html_url": "https://github.com/AgentAntelope",
    "followers_url": "https://api.github.com/users/AgentAntelope/followers",
    "following_url": "https://api.github.com/users/AgentAntelope/following{/other_user}",
    "gists_url": "https://api.github.com/users/AgentAntelope/gists{/gist_id}",
    "starred_url": "https://api.github.com/users/AgentAntelope/starred{/owner}{/repo}",
    "subscriptions_url": "https://api.github.com/users/AgentAntelope/subscriptions",
    "organizations_url": "https://api.github.com/users/AgentAntelope/orgs",
    "repos_url": "https://api.github.com/users/AgentAntelope/repos",
    "events_url": "https://api.github.com/users/AgentAntelope/events{/privacy}",
    "received_events_url": "https://api.github.com/users/AgentAntelope/received_events",
    "type": "User",
    "site_admin": false
  },
  "created_at": "2014-05-17T11:42:58Z",
  "updated_at": "2014-05-17T11:42:58Z",
  "body": "Any chance of an update on this one? This trips me up pretty regularly."
}
, {
  "url": "https://api.github.com/repos/thoughtbot/gitsh/issues/comments/57772828",
  "html_url": "https://github.com/thoughtbot/gitsh/pull/97#issuecomment-57772828",
  "issue_url": "https://api.github.com/repos/thoughtbot/gitsh/issues/97",
  "id": 57772828,
  "user": {
    "login": "georgebrock",
    "id": 35861,
    "avatar_url": "https://avatars.githubusercontent.com/u/35861?v=3",
    "gravatar_id": "",
    "url": "https://api.github.com/users/georgebrock",
    "html_url": "https://github.com/georgebrock",
    "followers_url": "https://api.github.com/users/georgebrock/followers",
    "following_url": "https://api.github.com/users/georgebrock/following{/other_user}",
    "gists_url": "https://api.github.com/users/georgebrock/gists{/gist_id}",
    "starred_url": "https://api.github.com/users/georgebrock/starred{/owner}{/repo}",
    "subscriptions_url": "https://api.github.com/users/georgebrock/subscriptions",
    "organizations_url": "https://api.github.com/users/georgebrock/orgs",
    "repos_url": "https://api.github.com/users/georgebrock/repos",
    "events_url": "https://api.github.com/users/georgebrock/events{/privacy}",
    "received_events_url": "https://api.github.com/users/georgebrock/received_events",
    "type": "User",
    "site_admin": false
  },
  "created_at": "2014-10-03T09:22:33Z",
  "updated_at": "2014-10-03T09:22:33Z",
  "body": "@hoop33 I've merged a slightly different implementation of this which is enabled using git's `help.autocorrect` setting. Some of it was based on your approach, so you'll still be credited in the release notes for the next version (I wrote it on a plane and didn't have your code with me, so I couldn't directly use your implementation). Thanks!"
}
, {
  "url": "https://api.github.com/repos/thoughtbot/gitsh/issues/comments/57781895",
  "html_url": "https://github.com/thoughtbot/gitsh/pull/97#issuecomment-57781895",
  "issue_url": "https://api.github.com/repos/thoughtbot/gitsh/issues/97",
  "id": 57781895,
  "user": {
    "login": "hoop33",
    "id": 228333,
    "avatar_url": "https://avatars.githubusercontent.com/u/228333?v=3",
    "gravatar_id": "",
    "url": "https://api.github.com/users/hoop33",
    "html_url": "https://github.com/hoop33",
    "followers_url": "https://api.github.com/users/hoop33/followers",
    "following_url": "https://api.github.com/users/hoop33/following{/other_user}",
    "gists_url": "https://api.github.com/users/hoop33/gists{/gist_id}",
    "starred_url": "https://api.github.com/users/hoop33/starred{/owner}{/repo}",
    "subscriptions_url": "https://api.github.com/users/hoop33/subscriptions",
    "organizations_url": "https://api.github.com/users/hoop33/orgs",
    "repos_url": "https://api.github.com/users/hoop33/repos",
    "events_url": "https://api.github.com/users/hoop33/events{/privacy}",
    "received_events_url": "https://api.github.com/users/hoop33/received_events",
    "type": "User",
    "site_admin": false
  },
  "created_at": "2014-10-03T11:16:59Z",
  "updated_at": "2014-10-03T11:16:59Z",
  "body": "You're too kind--thanks!"
}
]
