[
{
  "url": "https://api.github.com/repos/docker/libcontainer/issues/comments/88131533",
  "html_url": "https://github.com/docker/libcontainer/pull/494#issuecomment-88131533",
  "issue_url": "https://api.github.com/repos/docker/libcontainer/issues/494",
  "id": 88131533,
  "user": {
    "login": "LK4D4",
    "id": 101445,
    "avatar_url": "https://avatars.githubusercontent.com/u/101445?v=3",
    "gravatar_id": "",
    "url": "https://api.github.com/users/LK4D4",
    "html_url": "https://github.com/LK4D4",
    "followers_url": "https://api.github.com/users/LK4D4/followers",
    "following_url": "https://api.github.com/users/LK4D4/following{/other_user}",
    "gists_url": "https://api.github.com/users/LK4D4/gists{/gist_id}",
    "starred_url": "https://api.github.com/users/LK4D4/starred{/owner}{/repo}",
    "subscriptions_url": "https://api.github.com/users/LK4D4/subscriptions",
    "organizations_url": "https://api.github.com/users/LK4D4/orgs",
    "repos_url": "https://api.github.com/users/LK4D4/repos",
    "events_url": "https://api.github.com/users/LK4D4/events{/privacy}",
    "received_events_url": "https://api.github.com/users/LK4D4/received_events",
    "type": "User",
    "site_admin": false
  },
  "created_at": "2015-03-31T15:26:14Z",
  "updated_at": "2015-03-31T15:26:14Z",
  "body": "@Mashimiao Tests fail :)"
}
, {
  "url": "https://api.github.com/repos/docker/libcontainer/issues/comments/88166220",
  "html_url": "https://github.com/docker/libcontainer/pull/494#issuecomment-88166220",
  "issue_url": "https://api.github.com/repos/docker/libcontainer/issues/494",
  "id": 88166220,
  "user": {
    "login": "LK4D4",
    "id": 101445,
    "avatar_url": "https://avatars.githubusercontent.com/u/101445?v=3",
    "gravatar_id": "",
    "url": "https://api.github.com/users/LK4D4",
    "html_url": "https://github.com/LK4D4",
    "followers_url": "https://api.github.com/users/LK4D4/followers",
    "following_url": "https://api.github.com/users/LK4D4/following{/other_user}",
    "gists_url": "https://api.github.com/users/LK4D4/gists{/gist_id}",
    "starred_url": "https://api.github.com/users/LK4D4/starred{/owner}{/repo}",
    "subscriptions_url": "https://api.github.com/users/LK4D4/subscriptions",
    "organizations_url": "https://api.github.com/users/LK4D4/orgs",
    "repos_url": "https://api.github.com/users/LK4D4/repos",
    "events_url": "https://api.github.com/users/LK4D4/events{/privacy}",
    "received_events_url": "https://api.github.com/users/LK4D4/received_events",
    "type": "User",
    "site_admin": false
  },
  "created_at": "2015-03-31T16:43:33Z",
  "updated_at": "2015-03-31T16:43:33Z",
  "body": "LGTM\r\nAlso you have misspell in commit message `reurn`. You can fix if you want."
}
, {
  "url": "https://api.github.com/repos/docker/libcontainer/issues/comments/88227717",
  "html_url": "https://github.com/docker/libcontainer/pull/494#issuecomment-88227717",
  "issue_url": "https://api.github.com/repos/docker/libcontainer/issues/494",
  "id": 88227717,
  "user": {
    "login": "mrunalp",
    "id": 53798,
    "avatar_url": "https://avatars.githubusercontent.com/u/53798?v=3",
    "gravatar_id": "",
    "url": "https://api.github.com/users/mrunalp",
    "html_url": "https://github.com/mrunalp",
    "followers_url": "https://api.github.com/users/mrunalp/followers",
    "following_url": "https://api.github.com/users/mrunalp/following{/other_user}",
    "gists_url": "https://api.github.com/users/mrunalp/gists{/gist_id}",
    "starred_url": "https://api.github.com/users/mrunalp/starred{/owner}{/repo}",
    "subscriptions_url": "https://api.github.com/users/mrunalp/subscriptions",
    "organizations_url": "https://api.github.com/users/mrunalp/orgs",
    "repos_url": "https://api.github.com/users/mrunalp/repos",
    "events_url": "https://api.github.com/users/mrunalp/events{/privacy}",
    "received_events_url": "https://api.github.com/users/mrunalp/received_events",
    "type": "User",
    "site_admin": false
  },
  "created_at": "2015-03-31T19:58:58Z",
  "updated_at": "2015-03-31T19:58:58Z",
  "body": "LGTM"
}
]
