[
{
  "url": "https://api.github.com/repos/apple/swift-corelibs-foundation/issues/comments/162231373",
  "html_url": "https://github.com/apple/swift-corelibs-foundation/pull/40#issuecomment-162231373",
  "issue_url": "https://api.github.com/repos/apple/swift-corelibs-foundation/issues/40",
  "id": 162231373,
  "user": {
    "login": "parkera",
    "id": 144462,
    "avatar_url": "https://avatars.githubusercontent.com/u/144462?v=3",
    "gravatar_id": "",
    "url": "https://api.github.com/users/parkera",
    "html_url": "https://github.com/parkera",
    "followers_url": "https://api.github.com/users/parkera/followers",
    "following_url": "https://api.github.com/users/parkera/following{/other_user}",
    "gists_url": "https://api.github.com/users/parkera/gists{/gist_id}",
    "starred_url": "https://api.github.com/users/parkera/starred{/owner}{/repo}",
    "subscriptions_url": "https://api.github.com/users/parkera/subscriptions",
    "organizations_url": "https://api.github.com/users/parkera/orgs",
    "repos_url": "https://api.github.com/users/parkera/repos",
    "events_url": "https://api.github.com/users/parkera/events{/privacy}",
    "received_events_url": "https://api.github.com/users/parkera/received_events",
    "type": "User",
    "site_admin": false
  },
  "created_at": "2015-12-05T18:02:11Z",
  "updated_at": "2015-12-05T18:02:11Z",
  "body": "Looks good to me. Sibling makes more sense."
}
]
