[
{
  "url": "https://api.github.com/repos/thoughtbot/dotfiles/issues/comments/24240783",
  "html_url": "https://github.com/thoughtbot/dotfiles/pull/191#issuecomment-24240783",
  "issue_url": "https://api.github.com/repos/thoughtbot/dotfiles/issues/191",
  "id": 24240783,
  "user": {
    "login": "JoelQ",
    "id": 1006966,
    "avatar_url": "https://avatars.githubusercontent.com/u/1006966?v=3",
    "gravatar_id": "",
    "url": "https://api.github.com/users/JoelQ",
    "html_url": "https://github.com/JoelQ",
    "followers_url": "https://api.github.com/users/JoelQ/followers",
    "following_url": "https://api.github.com/users/JoelQ/following{/other_user}",
    "gists_url": "https://api.github.com/users/JoelQ/gists{/gist_id}",
    "starred_url": "https://api.github.com/users/JoelQ/starred{/owner}{/repo}",
    "subscriptions_url": "https://api.github.com/users/JoelQ/subscriptions",
    "organizations_url": "https://api.github.com/users/JoelQ/orgs",
    "repos_url": "https://api.github.com/users/JoelQ/repos",
    "events_url": "https://api.github.com/users/JoelQ/events{/privacy}",
    "received_events_url": "https://api.github.com/users/JoelQ/received_events",
    "type": "User",
    "site_admin": false
  },
  "created_at": "2013-09-11T13:47:45Z",
  "updated_at": "2013-09-11T13:47:45Z",
  "body": "@joshuaclayton Do you know if this breaks the Spring binstub?"
}
, {
  "url": "https://api.github.com/repos/thoughtbot/dotfiles/issues/comments/24242151",
  "html_url": "https://github.com/thoughtbot/dotfiles/pull/191#issuecomment-24242151",
  "issue_url": "https://api.github.com/repos/thoughtbot/dotfiles/issues/191",
  "id": 24242151,
  "user": {
    "login": "joshuaclayton",
    "id": 1574,
    "avatar_url": "https://avatars.githubusercontent.com/u/1574?v=3",
    "gravatar_id": "",
    "url": "https://api.github.com/users/joshuaclayton",
    "html_url": "https://github.com/joshuaclayton",
    "followers_url": "https://api.github.com/users/joshuaclayton/followers",
    "following_url": "https://api.github.com/users/joshuaclayton/following{/other_user}",
    "gists_url": "https://api.github.com/users/joshuaclayton/gists{/gist_id}",
    "starred_url": "https://api.github.com/users/joshuaclayton/starred{/owner}{/repo}",
    "subscriptions_url": "https://api.github.com/users/joshuaclayton/subscriptions",
    "organizations_url": "https://api.github.com/users/joshuaclayton/orgs",
    "repos_url": "https://api.github.com/users/joshuaclayton/repos",
    "events_url": "https://api.github.com/users/joshuaclayton/events{/privacy}",
    "received_events_url": "https://api.github.com/users/joshuaclayton/received_events",
    "type": "User",
    "site_admin": false
  },
  "created_at": "2013-09-11T14:05:24Z",
  "updated_at": "2013-09-11T14:05:24Z",
  "body": "@JoelQ this commit specifically does not, no, since it's only adding another directory to search when looking for binaries.\r\n\r\nThe original change stems from https://twitter.com/tpope/status/165631968996900865 and requires you call `mkdir .git/safe` in every repo (gem or Rails app) you trust. The path change finds `.git/safe`, traverses up two directories, and then adds `bin/` from there."
}
, {
  "url": "https://api.github.com/repos/thoughtbot/dotfiles/issues/comments/28892235",
  "html_url": "https://github.com/thoughtbot/dotfiles/pull/191#issuecomment-28892235",
  "issue_url": "https://api.github.com/repos/thoughtbot/dotfiles/issues/191",
  "id": 28892235,
  "user": {
    "login": "mike-burns",
    "id": 4550,
    "avatar_url": "https://avatars.githubusercontent.com/u/4550?v=3",
    "gravatar_id": "",
    "url": "https://api.github.com/users/mike-burns",
    "html_url": "https://github.com/mike-burns",
    "followers_url": "https://api.github.com/users/mike-burns/followers",
    "following_url": "https://api.github.com/users/mike-burns/following{/other_user}",
    "gists_url": "https://api.github.com/users/mike-burns/gists{/gist_id}",
    "starred_url": "https://api.github.com/users/mike-burns/starred{/owner}{/repo}",
    "subscriptions_url": "https://api.github.com/users/mike-burns/subscriptions",
    "organizations_url": "https://api.github.com/users/mike-burns/orgs",
    "repos_url": "https://api.github.com/users/mike-burns/repos",
    "events_url": "https://api.github.com/users/mike-burns/events{/privacy}",
    "received_events_url": "https://api.github.com/users/mike-burns/received_events",
    "type": "User",
    "site_admin": false
  },
  "created_at": "2013-11-20T14:18:41Z",
  "updated_at": "2013-11-20T14:18:41Z",
  "body": "I'm not opposed to this, but it will make setup more cumbersome. Perhaps something like this should go in `bin/setup` scripts:\r\n\r\n    print \"Do you trust the ./bin directory for this project? [y/N] \"\r\n    trusted = gets\r\n    if trusted.start_with?('y')\r\n      puts \"FileUtils.mkdir_p('.git/safe')\"\r\n    end\r\n\r\n(Maybe a check to make sure that `.git/safe` doesn't already exist before asking, too.)"
}
, {
  "url": "https://api.github.com/repos/thoughtbot/dotfiles/issues/comments/28894719",
  "html_url": "https://github.com/thoughtbot/dotfiles/pull/191#issuecomment-28894719",
  "issue_url": "https://api.github.com/repos/thoughtbot/dotfiles/issues/191",
  "id": 28894719,
  "user": {
    "login": "jferris",
    "id": 7591,
    "avatar_url": "https://avatars.githubusercontent.com/u/7591?v=3",
    "gravatar_id": "",
    "url": "https://api.github.com/users/jferris",
    "html_url": "https://github.com/jferris",
    "followers_url": "https://api.github.com/users/jferris/followers",
    "following_url": "https://api.github.com/users/jferris/following{/other_user}",
    "gists_url": "https://api.github.com/users/jferris/gists{/gist_id}",
    "starred_url": "https://api.github.com/users/jferris/starred{/owner}{/repo}",
    "subscriptions_url": "https://api.github.com/users/jferris/subscriptions",
    "organizations_url": "https://api.github.com/users/jferris/orgs",
    "repos_url": "https://api.github.com/users/jferris/repos",
    "events_url": "https://api.github.com/users/jferris/events{/privacy}",
    "received_events_url": "https://api.github.com/users/jferris/received_events",
    "type": "User",
    "site_admin": false
  },
  "created_at": "2013-11-20T14:49:01Z",
  "updated_at": "2013-11-20T14:49:01Z",
  "body": "If we add it to `bin/setup`, I think it would be fine to not prompt and just create the directory. You'd need to have `./.git/safe/../../bin` on your `PATH` and run `bin/setup` before scripts were executable."
}
, {
  "url": "https://api.github.com/repos/thoughtbot/dotfiles/issues/comments/32568596",
  "html_url": "https://github.com/thoughtbot/dotfiles/pull/191#issuecomment-32568596",
  "issue_url": "https://api.github.com/repos/thoughtbot/dotfiles/issues/191",
  "id": 32568596,
  "user": {
    "login": "croaky",
    "id": 198,
    "avatar_url": "https://avatars.githubusercontent.com/u/198?v=3",
    "gravatar_id": "",
    "url": "https://api.github.com/users/croaky",
    "html_url": "https://github.com/croaky",
    "followers_url": "https://api.github.com/users/croaky/followers",
    "following_url": "https://api.github.com/users/croaky/following{/other_user}",
    "gists_url": "https://api.github.com/users/croaky/gists{/gist_id}",
    "starred_url": "https://api.github.com/users/croaky/starred{/owner}{/repo}",
    "subscriptions_url": "https://api.github.com/users/croaky/subscriptions",
    "organizations_url": "https://api.github.com/users/croaky/orgs",
    "repos_url": "https://api.github.com/users/croaky/repos",
    "events_url": "https://api.github.com/users/croaky/events{/privacy}",
    "received_events_url": "https://api.github.com/users/croaky/received_events",
    "type": "User",
    "site_admin": false
  },
  "created_at": "2014-01-17T00:38:22Z",
  "updated_at": "2014-01-21T19:06:59Z",
  "body": "I moved this to zshenv. Ready for re-review. /cc @jferris @pbrisbin @mike-burns "
}
, {
  "url": "https://api.github.com/repos/thoughtbot/dotfiles/issues/comments/33102320",
  "html_url": "https://github.com/thoughtbot/dotfiles/pull/191#issuecomment-33102320",
  "issue_url": "https://api.github.com/repos/thoughtbot/dotfiles/issues/191",
  "id": 33102320,
  "user": {
    "login": "croaky",
    "id": 198,
    "avatar_url": "https://avatars.githubusercontent.com/u/198?v=3",
    "gravatar_id": "",
    "url": "https://api.github.com/users/croaky",
    "html_url": "https://github.com/croaky",
    "followers_url": "https://api.github.com/users/croaky/followers",
    "following_url": "https://api.github.com/users/croaky/following{/other_user}",
    "gists_url": "https://api.github.com/users/croaky/gists{/gist_id}",
    "starred_url": "https://api.github.com/users/croaky/starred{/owner}{/repo}",
    "subscriptions_url": "https://api.github.com/users/croaky/subscriptions",
    "organizations_url": "https://api.github.com/users/croaky/orgs",
    "repos_url": "https://api.github.com/users/croaky/repos",
    "events_url": "https://api.github.com/users/croaky/events{/privacy}",
    "received_events_url": "https://api.github.com/users/croaky/received_events",
    "type": "User",
    "site_admin": false
  },
  "created_at": "2014-01-23T07:22:09Z",
  "updated_at": "2014-01-23T07:22:09Z",
  "body": "I'm trying a different approach and including rbenv in the commit in https://github.com/thoughtbot/dotfiles/pull/215. It's exactly @derekprior's approach and is working for me with no zshenv or zshenv.local files. I'm able to run specs from vim as well."
}
, {
  "url": "https://api.github.com/repos/thoughtbot/dotfiles/issues/comments/33111200",
  "html_url": "https://github.com/thoughtbot/dotfiles/pull/191#issuecomment-33111200",
  "issue_url": "https://api.github.com/repos/thoughtbot/dotfiles/issues/191",
  "id": 33111200,
  "user": {
    "login": "mike-burns",
    "id": 4550,
    "avatar_url": "https://avatars.githubusercontent.com/u/4550?v=3",
    "gravatar_id": "",
    "url": "https://api.github.com/users/mike-burns",
    "html_url": "https://github.com/mike-burns",
    "followers_url": "https://api.github.com/users/mike-burns/followers",
    "following_url": "https://api.github.com/users/mike-burns/following{/other_user}",
    "gists_url": "https://api.github.com/users/mike-burns/gists{/gist_id}",
    "starred_url": "https://api.github.com/users/mike-burns/starred{/owner}{/repo}",
    "subscriptions_url": "https://api.github.com/users/mike-burns/subscriptions",
    "organizations_url": "https://api.github.com/users/mike-burns/orgs",
    "repos_url": "https://api.github.com/users/mike-burns/repos",
    "events_url": "https://api.github.com/users/mike-burns/events{/privacy}",
    "received_events_url": "https://api.github.com/users/mike-burns/received_events",
    "type": "User",
    "site_admin": false
  },
  "created_at": "2014-01-23T10:10:04Z",
  "updated_at": "2014-01-23T10:10:04Z",
  "body": "@croaky I don't think I understand #215. It seems to be just like #191 (this PR), but limited only to rbenv?"
}
, {
  "url": "https://api.github.com/repos/thoughtbot/dotfiles/issues/comments/33141417",
  "html_url": "https://github.com/thoughtbot/dotfiles/pull/191#issuecomment-33141417",
  "issue_url": "https://api.github.com/repos/thoughtbot/dotfiles/issues/191",
  "id": 33141417,
  "user": {
    "login": "croaky",
    "id": 198,
    "avatar_url": "https://avatars.githubusercontent.com/u/198?v=3",
    "gravatar_id": "",
    "url": "https://api.github.com/users/croaky",
    "html_url": "https://github.com/croaky",
    "followers_url": "https://api.github.com/users/croaky/followers",
    "following_url": "https://api.github.com/users/croaky/following{/other_user}",
    "gists_url": "https://api.github.com/users/croaky/gists{/gist_id}",
    "starred_url": "https://api.github.com/users/croaky/starred{/owner}{/repo}",
    "subscriptions_url": "https://api.github.com/users/croaky/subscriptions",
    "organizations_url": "https://api.github.com/users/croaky/orgs",
    "repos_url": "https://api.github.com/users/croaky/repos",
    "events_url": "https://api.github.com/users/croaky/events{/privacy}",
    "received_events_url": "https://api.github.com/users/croaky/received_events",
    "type": "User",
    "site_admin": false
  },
  "created_at": "2014-01-23T16:37:37Z",
  "updated_at": "2014-01-23T16:37:37Z",
  "body": "@mike-burns In #191:\r\n\r\n* Loading .git/safe stuff is in zshenv\r\n* No rbenv\r\n\r\nIn #215:\r\n\r\n* Loading .git/safe bit is in zshrc\r\n* Adds rbenv\r\n* both .git/safe and rbenv bits wrapped in an \"if rbenv exists\" conditional\r\n\r\nThe rbenv part seemed related enough to try as a separate pull while keeping this version around to compare."
}
, {
  "url": "https://api.github.com/repos/thoughtbot/dotfiles/issues/comments/33176234",
  "html_url": "https://github.com/thoughtbot/dotfiles/pull/191#issuecomment-33176234",
  "issue_url": "https://api.github.com/repos/thoughtbot/dotfiles/issues/191",
  "id": 33176234,
  "user": {
    "login": "croaky",
    "id": 198,
    "avatar_url": "https://avatars.githubusercontent.com/u/198?v=3",
    "gravatar_id": "",
    "url": "https://api.github.com/users/croaky",
    "html_url": "https://github.com/croaky",
    "followers_url": "https://api.github.com/users/croaky/followers",
    "following_url": "https://api.github.com/users/croaky/following{/other_user}",
    "gists_url": "https://api.github.com/users/croaky/gists{/gist_id}",
    "starred_url": "https://api.github.com/users/croaky/starred{/owner}{/repo}",
    "subscriptions_url": "https://api.github.com/users/croaky/subscriptions",
    "organizations_url": "https://api.github.com/users/croaky/orgs",
    "repos_url": "https://api.github.com/users/croaky/repos",
    "events_url": "https://api.github.com/users/croaky/events{/privacy}",
    "received_events_url": "https://api.github.com/users/croaky/received_events",
    "type": "User",
    "site_admin": false
  },
  "created_at": "2014-01-23T22:26:21Z",
  "updated_at": "2014-01-23T22:26:21Z",
  "body": "Merged #215 instead."
}
]
