[
{
  "url": "https://api.github.com/repos/thoughtbot/dotfiles/issues/comments/2503856",
  "html_url": "https://github.com/thoughtbot/dotfiles/issues/10#issuecomment-2503856",
  "issue_url": "https://api.github.com/repos/thoughtbot/dotfiles/issues/10",
  "id": 2503856,
  "user": {
    "login": "gabebw",
    "id": 257678,
    "avatar_url": "https://avatars.githubusercontent.com/u/257678?v=3",
    "gravatar_id": "",
    "url": "https://api.github.com/users/gabebw",
    "html_url": "https://github.com/gabebw",
    "followers_url": "https://api.github.com/users/gabebw/followers",
    "following_url": "https://api.github.com/users/gabebw/following{/other_user}",
    "gists_url": "https://api.github.com/users/gabebw/gists{/gist_id}",
    "starred_url": "https://api.github.com/users/gabebw/starred{/owner}{/repo}",
    "subscriptions_url": "https://api.github.com/users/gabebw/subscriptions",
    "organizations_url": "https://api.github.com/users/gabebw/orgs",
    "repos_url": "https://api.github.com/users/gabebw/repos",
    "events_url": "https://api.github.com/users/gabebw/events{/privacy}",
    "received_events_url": "https://api.github.com/users/gabebw/received_events",
    "type": "User",
    "site_admin": false
  },
  "created_at": "2011-10-24T14:11:17Z",
  "updated_at": "2011-10-24T14:11:17Z",
  "body": "`down` should be changed to `done` - it's much more clear."
}
, {
  "url": "https://api.github.com/repos/thoughtbot/dotfiles/issues/comments/2503935",
  "html_url": "https://github.com/thoughtbot/dotfiles/issues/10#issuecomment-2503935",
  "issue_url": "https://api.github.com/repos/thoughtbot/dotfiles/issues/10",
  "id": 2503935,
  "user": {
    "login": "jferris",
    "id": 7591,
    "avatar_url": "https://avatars.githubusercontent.com/u/7591?v=3",
    "gravatar_id": "",
    "url": "https://api.github.com/users/jferris",
    "html_url": "https://github.com/jferris",
    "followers_url": "https://api.github.com/users/jferris/followers",
    "following_url": "https://api.github.com/users/jferris/following{/other_user}",
    "gists_url": "https://api.github.com/users/jferris/gists{/gist_id}",
    "starred_url": "https://api.github.com/users/jferris/starred{/owner}{/repo}",
    "subscriptions_url": "https://api.github.com/users/jferris/subscriptions",
    "organizations_url": "https://api.github.com/users/jferris/orgs",
    "repos_url": "https://api.github.com/users/jferris/repos",
    "events_url": "https://api.github.com/users/jferris/events{/privacy}",
    "received_events_url": "https://api.github.com/users/jferris/received_events",
    "type": "User",
    "site_admin": false
  },
  "created_at": "2011-10-24T14:18:24Z",
  "updated_at": "2011-10-24T14:18:24Z",
  "body": "I thought we already had a `gitconfig`; I'm cool with adding one.\r\n\r\nIf you follow the format here: https://github.com/jferris/dot_files/blob/master/gitconfig\r\n\r\nThen future changes upstream can be merged with custom changes later using `install.sh`."
}
, {
  "url": "https://api.github.com/repos/thoughtbot/dotfiles/issues/comments/2504101",
  "html_url": "https://github.com/thoughtbot/dotfiles/issues/10#issuecomment-2504101",
  "issue_url": "https://api.github.com/repos/thoughtbot/dotfiles/issues/10",
  "id": 2504101,
  "user": {
    "login": "croaky",
    "id": 198,
    "avatar_url": "https://avatars.githubusercontent.com/u/198?v=3",
    "gravatar_id": "",
    "url": "https://api.github.com/users/croaky",
    "html_url": "https://github.com/croaky",
    "followers_url": "https://api.github.com/users/croaky/followers",
    "following_url": "https://api.github.com/users/croaky/following{/other_user}",
    "gists_url": "https://api.github.com/users/croaky/gists{/gist_id}",
    "starred_url": "https://api.github.com/users/croaky/starred{/owner}{/repo}",
    "subscriptions_url": "https://api.github.com/users/croaky/subscriptions",
    "organizations_url": "https://api.github.com/users/croaky/orgs",
    "repos_url": "https://api.github.com/users/croaky/repos",
    "events_url": "https://api.github.com/users/croaky/events{/privacy}",
    "received_events_url": "https://api.github.com/users/croaky/received_events",
    "type": "User",
    "site_admin": false
  },
  "created_at": "2011-10-24T14:31:53Z",
  "updated_at": "2011-10-24T14:31:53Z",
  "body": "I added a gitconfig for the default tracking branch and format, but left the aliasing alone for now because I know people do it differently:\r\n\r\nhttps://github.com/thoughtbot/dotfiles/commit/fdc8afcd198ebaefe8b17388f85fab801251b7fa\r\n\r\nIt was the `git log` that drove me crazy when I was working with the Rails apprentice."
}
]
