[
{
  "url": "https://api.github.com/repos/ServiceStack/Issues/issues/comments/48561162",
  "html_url": "https://github.com/ServiceStack/Issues/issues/108#issuecomment-48561162",
  "issue_url": "https://api.github.com/repos/ServiceStack/Issues/issues/108",
  "id": 48561162,
  "user": {
    "login": "mythz",
    "id": 89361,
    "avatar_url": "https://avatars.githubusercontent.com/u/89361?v=3",
    "gravatar_id": "",
    "url": "https://api.github.com/users/mythz",
    "html_url": "https://github.com/mythz",
    "followers_url": "https://api.github.com/users/mythz/followers",
    "following_url": "https://api.github.com/users/mythz/following{/other_user}",
    "gists_url": "https://api.github.com/users/mythz/gists{/gist_id}",
    "starred_url": "https://api.github.com/users/mythz/starred{/owner}{/repo}",
    "subscriptions_url": "https://api.github.com/users/mythz/subscriptions",
    "organizations_url": "https://api.github.com/users/mythz/orgs",
    "repos_url": "https://api.github.com/users/mythz/repos",
    "events_url": "https://api.github.com/users/mythz/events{/privacy}",
    "received_events_url": "https://api.github.com/users/mythz/received_events",
    "type": "User",
    "site_admin": false
  },
  "created_at": "2014-07-10T03:15:28Z",
  "updated_at": "2014-07-10T03:15:28Z",
  "body": "This should now be fixed in this commit: https://github.com/ServiceStack/Bundler/commit/5b04db8c9da0232e218d94182861be5d78382c66\r\nThere's a new MapPath fallback that's overridable for when `HostingEnvironment.MapPath()` returns null. The fallback is an inline version of `PathUtils.MapHostAbsolutePath()` since Bundler.cs is dependency-free.\r\n\r\nThis is available in the new v.1.1.31 version of [Bundler that's now on NuGet](https://www.nuget.org/packages/Bundler)."
}
]
