[
{
  "url": "https://api.github.com/repos/mongodb/mongo-cxx-driver/issues/comments/56231026",
  "html_url": "https://github.com/mongodb/mongo-cxx-driver/pull/160#issuecomment-56231026",
  "issue_url": "https://api.github.com/repos/mongodb/mongo-cxx-driver/issues/160",
  "id": 56231026,
  "user": {
    "login": "acmorrow",
    "id": 268253,
    "avatar_url": "https://avatars.githubusercontent.com/u/268253?v=3",
    "gravatar_id": "",
    "url": "https://api.github.com/users/acmorrow",
    "html_url": "https://github.com/acmorrow",
    "followers_url": "https://api.github.com/users/acmorrow/followers",
    "following_url": "https://api.github.com/users/acmorrow/following{/other_user}",
    "gists_url": "https://api.github.com/users/acmorrow/gists{/gist_id}",
    "starred_url": "https://api.github.com/users/acmorrow/starred{/owner}{/repo}",
    "subscriptions_url": "https://api.github.com/users/acmorrow/subscriptions",
    "organizations_url": "https://api.github.com/users/acmorrow/orgs",
    "repos_url": "https://api.github.com/users/acmorrow/repos",
    "events_url": "https://api.github.com/users/acmorrow/events{/privacy}",
    "received_events_url": "https://api.github.com/users/acmorrow/received_events",
    "type": "User",
    "site_admin": false
  },
  "created_at": "2014-09-19T20:28:04Z",
  "updated_at": "2014-09-19T20:28:04Z",
  "body": "Well, MONGO_CLIENT_API and MONGO_CLIENT_FUNC, but those are \"namespaced\" as well as one can hope with a macro. We *could* probably make them hygenic with undef/redef, but I'm not sure it is worth the effort.\r\n\r\nThe BSON macro itself, and BSON_ARRAY. Could, in theory, rename this to MONGO_BSON. Again, not sure.\r\n\r\nHow about NOINLINE_DECL, PACKED_DECL, etc, from inline_decls? I don't see that those get undef/redef treatment. Perhaps they should.\r\n\r\n@andy10gen do you know of any festering macro evil we should aim to purge from the driver before a 1.0 release?"
}
, {
  "url": "https://api.github.com/repos/mongodb/mongo-cxx-driver/issues/comments/56231725",
  "html_url": "https://github.com/mongodb/mongo-cxx-driver/pull/160#issuecomment-56231725",
  "issue_url": "https://api.github.com/repos/mongodb/mongo-cxx-driver/issues/160",
  "id": 56231725,
  "user": {
    "login": "amidvidy",
    "id": 363757,
    "avatar_url": "https://avatars.githubusercontent.com/u/363757?v=3",
    "gravatar_id": "",
    "url": "https://api.github.com/users/amidvidy",
    "html_url": "https://github.com/amidvidy",
    "followers_url": "https://api.github.com/users/amidvidy/followers",
    "following_url": "https://api.github.com/users/amidvidy/following{/other_user}",
    "gists_url": "https://api.github.com/users/amidvidy/gists{/gist_id}",
    "starred_url": "https://api.github.com/users/amidvidy/starred{/owner}{/repo}",
    "subscriptions_url": "https://api.github.com/users/amidvidy/subscriptions",
    "organizations_url": "https://api.github.com/users/amidvidy/orgs",
    "repos_url": "https://api.github.com/users/amidvidy/repos",
    "events_url": "https://api.github.com/users/amidvidy/events{/privacy}",
    "received_events_url": "https://api.github.com/users/amidvidy/received_events",
    "type": "User",
    "site_admin": false
  },
  "created_at": "2014-09-19T20:34:10Z",
  "updated_at": "2014-09-19T20:34:10Z",
  "body": "I considered the BSON macros, but it seems like they should be in a separate BSON namespace, and BSON_BSON and BSON_BSON_ARRAY sounds a bit strange. I will add *DECL to undef/redef"
}
, {
  "url": "https://api.github.com/repos/mongodb/mongo-cxx-driver/issues/comments/56397094",
  "html_url": "https://github.com/mongodb/mongo-cxx-driver/pull/160#issuecomment-56397094",
  "issue_url": "https://api.github.com/repos/mongodb/mongo-cxx-driver/issues/160",
  "id": 56397094,
  "user": {
    "login": "amidvidy",
    "id": 363757,
    "avatar_url": "https://avatars.githubusercontent.com/u/363757?v=3",
    "gravatar_id": "",
    "url": "https://api.github.com/users/amidvidy",
    "html_url": "https://github.com/amidvidy",
    "followers_url": "https://api.github.com/users/amidvidy/followers",
    "following_url": "https://api.github.com/users/amidvidy/following{/other_user}",
    "gists_url": "https://api.github.com/users/amidvidy/gists{/gist_id}",
    "starred_url": "https://api.github.com/users/amidvidy/starred{/owner}{/repo}",
    "subscriptions_url": "https://api.github.com/users/amidvidy/subscriptions",
    "organizations_url": "https://api.github.com/users/amidvidy/orgs",
    "repos_url": "https://api.github.com/users/amidvidy/repos",
    "events_url": "https://api.github.com/users/amidvidy/events{/privacy}",
    "received_events_url": "https://api.github.com/users/amidvidy/received_events",
    "type": "User",
    "site_admin": false
  },
  "created_at": "2014-09-22T16:09:04Z",
  "updated_at": "2014-09-22T16:09:04Z",
  "body": "renamed inline decl/packed decl to MONGO_* and added the old, non-prefixed names to undef/redef macros for compatibility."
}
, {
  "url": "https://api.github.com/repos/mongodb/mongo-cxx-driver/issues/comments/56456652",
  "html_url": "https://github.com/mongodb/mongo-cxx-driver/pull/160#issuecomment-56456652",
  "issue_url": "https://api.github.com/repos/mongodb/mongo-cxx-driver/issues/160",
  "id": 56456652,
  "user": {
    "login": "acmorrow",
    "id": 268253,
    "avatar_url": "https://avatars.githubusercontent.com/u/268253?v=3",
    "gravatar_id": "",
    "url": "https://api.github.com/users/acmorrow",
    "html_url": "https://github.com/acmorrow",
    "followers_url": "https://api.github.com/users/acmorrow/followers",
    "following_url": "https://api.github.com/users/acmorrow/following{/other_user}",
    "gists_url": "https://api.github.com/users/acmorrow/gists{/gist_id}",
    "starred_url": "https://api.github.com/users/acmorrow/starred{/owner}{/repo}",
    "subscriptions_url": "https://api.github.com/users/acmorrow/subscriptions",
    "organizations_url": "https://api.github.com/users/acmorrow/orgs",
    "repos_url": "https://api.github.com/users/acmorrow/repos",
    "events_url": "https://api.github.com/users/acmorrow/events{/privacy}",
    "received_events_url": "https://api.github.com/users/acmorrow/received_events",
    "type": "User",
    "site_admin": false
  },
  "created_at": "2014-09-22T23:01:20Z",
  "updated_at": "2014-09-22T23:01:20Z",
  "body": "LGTM. I suspect PACKED_DECL may go away soon but no harm doing things the right way before it does."
}
]
