[
{
  "url": "https://api.github.com/repos/adafruit/adafruit-io-node/issues/comments/131283803",
  "html_url": "https://github.com/adafruit/adafruit-io-node/pull/3#issuecomment-131283803",
  "issue_url": "https://api.github.com/repos/adafruit/adafruit-io-node/issues/3",
  "id": 131283803,
  "user": {
    "login": "toddtreece",
    "id": 360020,
    "avatar_url": "https://avatars.githubusercontent.com/u/360020?v=3",
    "gravatar_id": "",
    "url": "https://api.github.com/users/toddtreece",
    "html_url": "https://github.com/toddtreece",
    "followers_url": "https://api.github.com/users/toddtreece/followers",
    "following_url": "https://api.github.com/users/toddtreece/following{/other_user}",
    "gists_url": "https://api.github.com/users/toddtreece/gists{/gist_id}",
    "starred_url": "https://api.github.com/users/toddtreece/starred{/owner}{/repo}",
    "subscriptions_url": "https://api.github.com/users/toddtreece/subscriptions",
    "organizations_url": "https://api.github.com/users/toddtreece/orgs",
    "repos_url": "https://api.github.com/users/toddtreece/repos",
    "events_url": "https://api.github.com/users/toddtreece/events{/privacy}",
    "received_events_url": "https://api.github.com/users/toddtreece/received_events",
    "type": "User",
    "site_admin": false
  },
  "created_at": "2015-08-15T03:03:08Z",
  "updated_at": "2015-08-15T03:03:08Z",
  "body": "thanks!"
}
]
