[
{
  "url": "https://api.github.com/repos/hashicorp/hcl/issues/comments/154898154",
  "html_url": "https://github.com/hashicorp/hcl/pull/45#issuecomment-154898154",
  "issue_url": "https://api.github.com/repos/hashicorp/hcl/issues/45",
  "id": 154898154,
  "user": {
    "login": "virtuald",
    "id": 567900,
    "avatar_url": "https://avatars.githubusercontent.com/u/567900?v=3",
    "gravatar_id": "",
    "url": "https://api.github.com/users/virtuald",
    "html_url": "https://github.com/virtuald",
    "followers_url": "https://api.github.com/users/virtuald/followers",
    "following_url": "https://api.github.com/users/virtuald/following{/other_user}",
    "gists_url": "https://api.github.com/users/virtuald/gists{/gist_id}",
    "starred_url": "https://api.github.com/users/virtuald/starred{/owner}{/repo}",
    "subscriptions_url": "https://api.github.com/users/virtuald/subscriptions",
    "organizations_url": "https://api.github.com/users/virtuald/orgs",
    "repos_url": "https://api.github.com/users/virtuald/repos",
    "events_url": "https://api.github.com/users/virtuald/events{/privacy}",
    "received_events_url": "https://api.github.com/users/virtuald/received_events",
    "type": "User",
    "site_admin": false
  },
  "created_at": "2015-11-09T01:25:16Z",
  "updated_at": "2015-11-09T01:25:30Z",
  "body": "The README hasn't changed much, and there aren't *too* many adjustments to the test fixtures... so I assume that the actual definition of HCL hasn't changed much. I haven't looked too deeply at the changes yet.. \r\n\r\nIt would be great if you could implement an hcl2json (and back) tool on top of these changes -- which, presumably is easier with the new AST et al. It would also be nice to see more 'round trip' tests if you haven't added them already -- eg, going from JSON to data to HCL to data to JSON and ensuring that the output at the end is the same."
}
, {
  "url": "https://api.github.com/repos/hashicorp/hcl/issues/comments/154950628",
  "html_url": "https://github.com/hashicorp/hcl/pull/45#issuecomment-154950628",
  "issue_url": "https://api.github.com/repos/hashicorp/hcl/issues/45",
  "id": 154950628,
  "user": {
    "login": "mitchellh",
    "id": 1299,
    "avatar_url": "https://avatars.githubusercontent.com/u/1299?v=3",
    "gravatar_id": "",
    "url": "https://api.github.com/users/mitchellh",
    "html_url": "https://github.com/mitchellh",
    "followers_url": "https://api.github.com/users/mitchellh/followers",
    "following_url": "https://api.github.com/users/mitchellh/following{/other_user}",
    "gists_url": "https://api.github.com/users/mitchellh/gists{/gist_id}",
    "starred_url": "https://api.github.com/users/mitchellh/starred{/owner}{/repo}",
    "subscriptions_url": "https://api.github.com/users/mitchellh/subscriptions",
    "organizations_url": "https://api.github.com/users/mitchellh/orgs",
    "repos_url": "https://api.github.com/users/mitchellh/repos",
    "events_url": "https://api.github.com/users/mitchellh/events{/privacy}",
    "received_events_url": "https://api.github.com/users/mitchellh/received_events",
    "type": "User",
    "site_admin": false
  },
  "created_at": "2015-11-09T06:05:15Z",
  "updated_at": "2015-11-09T06:05:15Z",
  "body": "@virtuald That's correct, the _syntax_ of HCL is completely the same. The API has changed if you were using this library, though."
}
, {
  "url": "https://api.github.com/repos/hashicorp/hcl/issues/comments/154952427",
  "html_url": "https://github.com/hashicorp/hcl/pull/45#issuecomment-154952427",
  "issue_url": "https://api.github.com/repos/hashicorp/hcl/issues/45",
  "id": 154952427,
  "user": {
    "login": "mitchellh",
    "id": 1299,
    "avatar_url": "https://avatars.githubusercontent.com/u/1299?v=3",
    "gravatar_id": "",
    "url": "https://api.github.com/users/mitchellh",
    "html_url": "https://github.com/mitchellh",
    "followers_url": "https://api.github.com/users/mitchellh/followers",
    "following_url": "https://api.github.com/users/mitchellh/following{/other_user}",
    "gists_url": "https://api.github.com/users/mitchellh/gists{/gist_id}",
    "starred_url": "https://api.github.com/users/mitchellh/starred{/owner}{/repo}",
    "subscriptions_url": "https://api.github.com/users/mitchellh/subscriptions",
    "organizations_url": "https://api.github.com/users/mitchellh/orgs",
    "repos_url": "https://api.github.com/users/mitchellh/repos",
    "events_url": "https://api.github.com/users/mitchellh/events{/privacy}",
    "received_events_url": "https://api.github.com/users/mitchellh/received_events",
    "type": "User",
    "site_admin": false
  },
  "created_at": "2015-11-09T06:06:38Z",
  "updated_at": "2015-11-09T06:06:46Z",
  "body": "And regarding `hcl2json` and back, this isn't truly possible since JSON has multiple representations for HCL. That is: a single HCL config can be converted to JSON in multiple ways and a single JSON representation can be converted to multiple _styles_ of HCL. The semantics would be the same, but the look and feel would definitely be different. As a getting started tool if you planned on moving things to JSON it might not be bad, but it would feel weird."
}
, {
  "url": "https://api.github.com/repos/hashicorp/hcl/issues/comments/154956323",
  "html_url": "https://github.com/hashicorp/hcl/pull/45#issuecomment-154956323",
  "issue_url": "https://api.github.com/repos/hashicorp/hcl/issues/45",
  "id": 154956323,
  "user": {
    "login": "virtuald",
    "id": 567900,
    "avatar_url": "https://avatars.githubusercontent.com/u/567900?v=3",
    "gravatar_id": "",
    "url": "https://api.github.com/users/virtuald",
    "html_url": "https://github.com/virtuald",
    "followers_url": "https://api.github.com/users/virtuald/followers",
    "following_url": "https://api.github.com/users/virtuald/following{/other_user}",
    "gists_url": "https://api.github.com/users/virtuald/gists{/gist_id}",
    "starred_url": "https://api.github.com/users/virtuald/starred{/owner}{/repo}",
    "subscriptions_url": "https://api.github.com/users/virtuald/subscriptions",
    "organizations_url": "https://api.github.com/users/virtuald/orgs",
    "repos_url": "https://api.github.com/users/virtuald/repos",
    "events_url": "https://api.github.com/users/virtuald/events{/privacy}",
    "received_events_url": "https://api.github.com/users/virtuald/received_events",
    "type": "User",
    "site_admin": false
  },
  "created_at": "2015-11-09T06:19:14Z",
  "updated_at": "2015-11-09T06:19:14Z",
  "body": "It seems like those types of ambiguities should be in the README file.\r\n\r\nAs the maintainer of the python implementation of HCL, I suppose that's directly in conflict from what I want from hcl then -- namely, I like to think about HCL as a replacement (ish) for JSON that isn't YAML that has really convenient constructs for creating nested structures and supports comments. \r\n\r\nThis of course is important for me because I just take HCL and turn it into a python dictionary -- which is basically JSON already. Having an unambiguous (canonical?) way to translate HCL -> JSON in a one-to-one way would be convenient for that use case."
}
, {
  "url": "https://api.github.com/repos/hashicorp/hcl/issues/comments/154957552",
  "html_url": "https://github.com/hashicorp/hcl/pull/45#issuecomment-154957552",
  "issue_url": "https://api.github.com/repos/hashicorp/hcl/issues/45",
  "id": 154957552,
  "user": {
    "login": "mitchellh",
    "id": 1299,
    "avatar_url": "https://avatars.githubusercontent.com/u/1299?v=3",
    "gravatar_id": "",
    "url": "https://api.github.com/users/mitchellh",
    "html_url": "https://github.com/mitchellh",
    "followers_url": "https://api.github.com/users/mitchellh/followers",
    "following_url": "https://api.github.com/users/mitchellh/following{/other_user}",
    "gists_url": "https://api.github.com/users/mitchellh/gists{/gist_id}",
    "starred_url": "https://api.github.com/users/mitchellh/starred{/owner}{/repo}",
    "subscriptions_url": "https://api.github.com/users/mitchellh/subscriptions",
    "organizations_url": "https://api.github.com/users/mitchellh/orgs",
    "repos_url": "https://api.github.com/users/mitchellh/repos",
    "events_url": "https://api.github.com/users/mitchellh/events{/privacy}",
    "received_events_url": "https://api.github.com/users/mitchellh/received_events",
    "type": "User",
    "site_admin": false
  },
  "created_at": "2015-11-09T06:27:58Z",
  "updated_at": "2015-11-09T06:27:58Z",
  "body": "Unfortunately due to the syntax of HCL it is simply impossible. A basic example:\r\n\r\nHCL:\r\n\r\n```\r\nfoo { bar = \"baz\" }\r\n```\r\n\r\nCan be represented in JSON as:\r\n\r\n```\r\n{ \"foo\": { \"bar\": \"baz\" } }\r\n{ \"foo\": [{ \"bar\": \"baz\" }] }\r\n```\r\n\r\nThe latter representation is because in HCL that block can be repeated multiple times to make a list of them. The former is allowed in JSON because it feels right as a JSON user, you expect it to work. It is a shortcut for the 2nd form.\r\n\r\nI agree we should put this in the README. \r\n\r\nThe goal of HCL isn't to have a 1:1 mapping between HCL/JSON: it is so that your configuration can be represented semantically equivalent in either format, to allow humans and machines to interoperate with software. Or, to just allow JSON where it is convenient. The idea is that you should be able to parse HCL and also magically get JSON support. It isn't a goal that the JSON has to be a strict representation in one structure, hence multiple are allowed above.\r\n"
}
, {
  "url": "https://api.github.com/repos/hashicorp/hcl/issues/comments/155149221",
  "html_url": "https://github.com/hashicorp/hcl/pull/45#issuecomment-155149221",
  "issue_url": "https://api.github.com/repos/hashicorp/hcl/issues/45",
  "id": 155149221,
  "user": {
    "login": "mitchellh",
    "id": 1299,
    "avatar_url": "https://avatars.githubusercontent.com/u/1299?v=3",
    "gravatar_id": "",
    "url": "https://api.github.com/users/mitchellh",
    "html_url": "https://github.com/mitchellh",
    "followers_url": "https://api.github.com/users/mitchellh/followers",
    "following_url": "https://api.github.com/users/mitchellh/following{/other_user}",
    "gists_url": "https://api.github.com/users/mitchellh/gists{/gist_id}",
    "starred_url": "https://api.github.com/users/mitchellh/starred{/owner}{/repo}",
    "subscriptions_url": "https://api.github.com/users/mitchellh/subscriptions",
    "organizations_url": "https://api.github.com/users/mitchellh/orgs",
    "repos_url": "https://api.github.com/users/mitchellh/repos",
    "events_url": "https://api.github.com/users/mitchellh/events{/privacy}",
    "received_events_url": "https://api.github.com/users/mitchellh/received_events",
    "type": "User",
    "site_admin": false
  },
  "created_at": "2015-11-09T18:34:23Z",
  "updated_at": "2015-11-09T18:34:23Z",
  "body": "Doing it!"
}
, {
  "url": "https://api.github.com/repos/hashicorp/hcl/issues/comments/155152214",
  "html_url": "https://github.com/hashicorp/hcl/pull/45#issuecomment-155152214",
  "issue_url": "https://api.github.com/repos/hashicorp/hcl/issues/45",
  "id": 155152214,
  "user": {
    "login": "fatih",
    "id": 438920,
    "avatar_url": "https://avatars.githubusercontent.com/u/438920?v=3",
    "gravatar_id": "",
    "url": "https://api.github.com/users/fatih",
    "html_url": "https://github.com/fatih",
    "followers_url": "https://api.github.com/users/fatih/followers",
    "following_url": "https://api.github.com/users/fatih/following{/other_user}",
    "gists_url": "https://api.github.com/users/fatih/gists{/gist_id}",
    "starred_url": "https://api.github.com/users/fatih/starred{/owner}{/repo}",
    "subscriptions_url": "https://api.github.com/users/fatih/subscriptions",
    "organizations_url": "https://api.github.com/users/fatih/orgs",
    "repos_url": "https://api.github.com/users/fatih/repos",
    "events_url": "https://api.github.com/users/fatih/events{/privacy}",
    "received_events_url": "https://api.github.com/users/fatih/received_events",
    "type": "User",
    "site_admin": false
  },
  "created_at": "2015-11-09T18:46:24Z",
  "updated_at": "2015-11-09T18:46:24Z",
  "body": "👍 Awesome step. I'm at DotGo, didn't had the time to look. "
}
]
