[
{
  "url": "https://api.github.com/repos/cucumber/cucumber-ruby/issues/comments/28625347",
  "html_url": "https://github.com/cucumber/cucumber-ruby/pull/599#issuecomment-28625347",
  "issue_url": "https://api.github.com/repos/cucumber/cucumber-ruby/issues/599",
  "id": 28625347,
  "user": {
    "login": "os97673",
    "id": 450628,
    "avatar_url": "https://avatars.githubusercontent.com/u/450628?v=3",
    "gravatar_id": "",
    "url": "https://api.github.com/users/os97673",
    "html_url": "https://github.com/os97673",
    "followers_url": "https://api.github.com/users/os97673/followers",
    "following_url": "https://api.github.com/users/os97673/following{/other_user}",
    "gists_url": "https://api.github.com/users/os97673/gists{/gist_id}",
    "starred_url": "https://api.github.com/users/os97673/starred{/owner}{/repo}",
    "subscriptions_url": "https://api.github.com/users/os97673/subscriptions",
    "organizations_url": "https://api.github.com/users/os97673/orgs",
    "repos_url": "https://api.github.com/users/os97673/repos",
    "events_url": "https://api.github.com/users/os97673/events{/privacy}",
    "received_events_url": "https://api.github.com/users/os97673/received_events",
    "type": "User",
    "site_admin": false
  },
  "created_at": "2013-11-16T12:09:21Z",
  "updated_at": "2013-11-16T12:09:21Z",
  "body": "Thank you for fixing the problem."
}
]
