[
{
  "url": "https://api.github.com/repos/square/p2/issues/comments/125701063",
  "html_url": "https://github.com/square/p2/pull/203#issuecomment-125701063",
  "issue_url": "https://api.github.com/repos/square/p2/issues/203",
  "id": 125701063,
  "user": {
    "login": "robertabbott",
    "id": 7033685,
    "avatar_url": "https://avatars.githubusercontent.com/u/7033685?v=3",
    "gravatar_id": "",
    "url": "https://api.github.com/users/robertabbott",
    "html_url": "https://github.com/robertabbott",
    "followers_url": "https://api.github.com/users/robertabbott/followers",
    "following_url": "https://api.github.com/users/robertabbott/following{/other_user}",
    "gists_url": "https://api.github.com/users/robertabbott/gists{/gist_id}",
    "starred_url": "https://api.github.com/users/robertabbott/starred{/owner}{/repo}",
    "subscriptions_url": "https://api.github.com/users/robertabbott/subscriptions",
    "organizations_url": "https://api.github.com/users/robertabbott/orgs",
    "repos_url": "https://api.github.com/users/robertabbott/repos",
    "events_url": "https://api.github.com/users/robertabbott/events{/privacy}",
    "received_events_url": "https://api.github.com/users/robertabbott/received_events",
    "type": "User",
    "site_admin": false
  },
  "created_at": "2015-07-28T18:15:54Z",
  "updated_at": "2015-07-28T18:15:54Z",
  "body": "LGTM"
}
]
