[
{
  "url": "https://api.github.com/repos/Azure/azure-mobile-apps-node/issues/comments/147787809",
  "html_url": "https://github.com/Azure/azure-mobile-apps-node/pull/89#issuecomment-147787809",
  "issue_url": "https://api.github.com/repos/Azure/azure-mobile-apps-node/issues/89",
  "id": 147787809,
  "user": {
    "login": "danderson00",
    "id": 1265935,
    "avatar_url": "https://avatars.githubusercontent.com/u/1265935?v=3",
    "gravatar_id": "",
    "url": "https://api.github.com/users/danderson00",
    "html_url": "https://github.com/danderson00",
    "followers_url": "https://api.github.com/users/danderson00/followers",
    "following_url": "https://api.github.com/users/danderson00/following{/other_user}",
    "gists_url": "https://api.github.com/users/danderson00/gists{/gist_id}",
    "starred_url": "https://api.github.com/users/danderson00/starred{/owner}{/repo}",
    "subscriptions_url": "https://api.github.com/users/danderson00/subscriptions",
    "organizations_url": "https://api.github.com/users/danderson00/orgs",
    "repos_url": "https://api.github.com/users/danderson00/repos",
    "events_url": "https://api.github.com/users/danderson00/events{/privacy}",
    "received_events_url": "https://api.github.com/users/danderson00/received_events",
    "type": "User",
    "site_admin": false
  },
  "created_at": "2015-10-13T17:38:32Z",
  "updated_at": "2015-10-13T17:38:32Z",
  "body": "I added a new issue for multi level paths - https://github.com/Azure/azure-mobile-apps-node/issues/96"
}
]
