[
{
  "url": "https://api.github.com/repos/openstack/openstack-manuals/issues/comments/12343052",
  "html_url": "https://github.com/openstack/openstack-manuals/pull/7#issuecomment-12343052",
  "issue_url": "https://api.github.com/repos/openstack/openstack-manuals/issues/7",
  "id": 12343052,
  "user": {
    "login": "openstack-gerrit",
    "id": 903479,
    "avatar_url": "https://avatars.githubusercontent.com/u/903479?v=3",
    "gravatar_id": "",
    "url": "https://api.github.com/users/openstack-gerrit",
    "html_url": "https://github.com/openstack-gerrit",
    "followers_url": "https://api.github.com/users/openstack-gerrit/followers",
    "following_url": "https://api.github.com/users/openstack-gerrit/following{/other_user}",
    "gists_url": "https://api.github.com/users/openstack-gerrit/gists{/gist_id}",
    "starred_url": "https://api.github.com/users/openstack-gerrit/starred{/owner}{/repo}",
    "subscriptions_url": "https://api.github.com/users/openstack-gerrit/subscriptions",
    "organizations_url": "https://api.github.com/users/openstack-gerrit/orgs",
    "repos_url": "https://api.github.com/users/openstack-gerrit/repos",
    "events_url": "https://api.github.com/users/openstack-gerrit/events{/privacy}",
    "received_events_url": "https://api.github.com/users/openstack-gerrit/received_events",
    "type": "User",
    "site_admin": false
  },
  "created_at": "2013-01-16T22:07:24Z",
  "updated_at": "2013-01-16T22:07:24Z",
  "body": "Thank you for contributing to OpenStack!\n\nopenstack/openstack-manuals uses Gerrit for code review.\n\nPlease visit http://wiki.openstack.org/GerritWorkflow and follow the\ninstructions there to upload your change to Gerrit.\n"
}
]
