[
{
  "url": "https://api.github.com/repos/yahoo/oozie/issues/comments/491556",
  "html_url": "https://github.com/yahoo/oozie/pull/121#issuecomment-491556",
  "issue_url": "https://api.github.com/repos/yahoo/oozie/issues/121",
  "id": 491556,
  "user": {
    "login": "brookwc",
    "id": 386786,
    "avatar_url": "https://avatars.githubusercontent.com/u/386786?v=3",
    "gravatar_id": "",
    "url": "https://api.github.com/users/brookwc",
    "html_url": "https://github.com/brookwc",
    "followers_url": "https://api.github.com/users/brookwc/followers",
    "following_url": "https://api.github.com/users/brookwc/following{/other_user}",
    "gists_url": "https://api.github.com/users/brookwc/gists{/gist_id}",
    "starred_url": "https://api.github.com/users/brookwc/starred{/owner}{/repo}",
    "subscriptions_url": "https://api.github.com/users/brookwc/subscriptions",
    "organizations_url": "https://api.github.com/users/brookwc/orgs",
    "repos_url": "https://api.github.com/users/brookwc/repos",
    "events_url": "https://api.github.com/users/brookwc/events{/privacy}",
    "received_events_url": "https://api.github.com/users/brookwc/received_events",
    "type": "User",
    "site_admin": false
  },
  "created_at": "2010-10-25T18:04:10Z",
  "updated_at": "2010-10-25T18:04:10Z",
  "body": "+1"
}
]
