[
{
  "url": "https://api.github.com/repos/yahoo/oozie/issues/comments/854245",
  "html_url": "https://github.com/yahoo/oozie/issues/553#issuecomment-854245",
  "issue_url": "https://api.github.com/repos/yahoo/oozie/issues/553",
  "id": 854245,
  "user": {
    "login": "angeloh",
    "id": 304674,
    "avatar_url": "https://avatars.githubusercontent.com/u/304674?v=3",
    "gravatar_id": "",
    "url": "https://api.github.com/users/angeloh",
    "html_url": "https://github.com/angeloh",
    "followers_url": "https://api.github.com/users/angeloh/followers",
    "following_url": "https://api.github.com/users/angeloh/following{/other_user}",
    "gists_url": "https://api.github.com/users/angeloh/gists{/gist_id}",
    "starred_url": "https://api.github.com/users/angeloh/starred{/owner}{/repo}",
    "subscriptions_url": "https://api.github.com/users/angeloh/subscriptions",
    "organizations_url": "https://api.github.com/users/angeloh/orgs",
    "repos_url": "https://api.github.com/users/angeloh/repos",
    "events_url": "https://api.github.com/users/angeloh/events{/privacy}",
    "received_events_url": "https://api.github.com/users/angeloh/received_events",
    "type": "User",
    "site_admin": false
  },
  "created_at": "2011-03-10T01:15:00Z",
  "updated_at": "2011-03-10T01:15:00Z",
  "body": "Closed by b8a1f1cfed903fcfb015a9a0c0c23df7b09bd08f coord job should not materialize new actions when WAITING actions exceed concurrency."
}
]
