[
{
  "url": "https://api.github.com/repos/yahoo/oozie/issues/comments/8552761",
  "html_url": "https://github.com/yahoo/oozie/issues/838#issuecomment-8552761",
  "issue_url": "https://api.github.com/repos/yahoo/oozie/issues/838",
  "id": 8552761,
  "user": {
    "login": "maruthy",
    "id": 2344743,
    "avatar_url": "https://avatars.githubusercontent.com/u/2344743?v=3",
    "gravatar_id": "",
    "url": "https://api.github.com/users/maruthy",
    "html_url": "https://github.com/maruthy",
    "followers_url": "https://api.github.com/users/maruthy/followers",
    "following_url": "https://api.github.com/users/maruthy/following{/other_user}",
    "gists_url": "https://api.github.com/users/maruthy/gists{/gist_id}",
    "starred_url": "https://api.github.com/users/maruthy/starred{/owner}{/repo}",
    "subscriptions_url": "https://api.github.com/users/maruthy/subscriptions",
    "organizations_url": "https://api.github.com/users/maruthy/orgs",
    "repos_url": "https://api.github.com/users/maruthy/repos",
    "events_url": "https://api.github.com/users/maruthy/events{/privacy}",
    "received_events_url": "https://api.github.com/users/maruthy/received_events",
    "type": "User",
    "site_admin": false
  },
  "created_at": "2012-09-14T06:27:03Z",
  "updated_at": "2012-09-14T06:27:03Z",
  "body": "The documentation at \"http://incubator.apache.org/oozie/docs/3.2.0-incubating/docs/ENG_Building.html#Passphare-less_SSH_Setup\" clearly indicates that there must be a user setup with pass phrase less access to shell otherwise it will endup in PermissionDenied(publickey, password) scenario\n\nThanks\nMaruthy\n"
}
, {
  "url": "https://api.github.com/repos/yahoo/oozie/issues/comments/12929212",
  "html_url": "https://github.com/yahoo/oozie/issues/838#issuecomment-12929212",
  "issue_url": "https://api.github.com/repos/yahoo/oozie/issues/838",
  "id": 12929212,
  "user": {
    "login": "maruthy",
    "id": 2344743,
    "avatar_url": "https://avatars.githubusercontent.com/u/2344743?v=3",
    "gravatar_id": "",
    "url": "https://api.github.com/users/maruthy",
    "html_url": "https://github.com/maruthy",
    "followers_url": "https://api.github.com/users/maruthy/followers",
    "following_url": "https://api.github.com/users/maruthy/following{/other_user}",
    "gists_url": "https://api.github.com/users/maruthy/gists{/gist_id}",
    "starred_url": "https://api.github.com/users/maruthy/starred{/owner}{/repo}",
    "subscriptions_url": "https://api.github.com/users/maruthy/subscriptions",
    "organizations_url": "https://api.github.com/users/maruthy/orgs",
    "repos_url": "https://api.github.com/users/maruthy/repos",
    "events_url": "https://api.github.com/users/maruthy/events{/privacy}",
    "received_events_url": "https://api.github.com/users/maruthy/received_events",
    "type": "User",
    "site_admin": false
  },
  "created_at": "2013-01-31T06:09:58Z",
  "updated_at": "2013-01-31T06:09:58Z",
  "body": "Hi,\r\n\r\nI think there is some difference in understanding the documentation of oozie. Oozie 3.2 workflows allow ssh action and being deprecated in later versions I hope. Anyway the documentation of oozie says that “pass phrase less login must be setup” in the system in-order for the ssh action to work. I did so and it started working.\r\n\r\nThanks\r\nMaruthy\r\n\r\n\r\nFrom: FlavSF [mailto:notifications@github.com]\r\nSent: Friday, January 25, 2013 4:11 AM\r\nTo: yahoo/oozie\r\nCc: Venkatamaruthy J -ERS, HCL Tech\r\nSubject: Re: [oozie] Unable to ssh to remote machine through oozie (#838)\r\n\r\n\r\nI am facing the same issue as the author. Whenever I try to do any kind of ssh command I encounter the following error: AUTH_FAILED: Not able to perform operation [ssh -o PasswordAuthentication=no -o KbdInteractiveDevices=no -o StrictHostKeyChecking=no -o ConnectTimeout=20 root@serverip mkdir -p oozie-oozi/0000114-130122145142848-oozie-oozi-W/mysql_delete--ssh/ ] | ErrorStream: Permission denied (gssapi-keyex,gssapi-with-mic,publickey,password).\r\n\r\nBut it doesn't make sense for few reasons:\r\n\r\n *   I can perfectly ssh into my server using ssh root@serverip\r\n *   Whenever I execute the above command (ssh -o PasswordAuthentication=no -o KbdInteractiveDevices=no -o StrictHostKeyChecking=no -o ConnectTimeout=20 root@serverip mkdir -p oozie-oozi/0000114-130122145142848-oozie-oozi-W/mysql_delete--ssh/) manually, it works!\r\n *   When looking at the link provided above, I also confirm that I can ssh localhost with success\r\n\r\nAny ideas? Did you find resolution to your problem @marryhazarika<https://github.com/marryhazarika> ?\r\n\r\n—\r\nReply to this email directly or view it on GitHub<https://github.com/yahoo/oozie/issues/838#issuecomment-12677974>.\r\n\r\n\n\n::DISCLAIMER::\n----------------------------------------------------------------------------------------------------------------------------------------------------\n\nThe contents of this e-mail and any attachment(s) are confidential and intended for the named recipient(s) only.\nE-mail transmission is not guaranteed to be secure or error-free as information could be intercepted, corrupted,\nlost, destroyed, arrive late or incomplete, or may contain viruses in transmission. The e mail and its contents\n(with or without referred errors) shall therefore not attach any liability on the originator or HCL or its affiliates.\nViews or opinions, if any, presented in this email are solely those of the author and may not necessarily reflect the\nviews or opinions of HCL or its affiliates. Any form of reproduction, dissemination, copying, disclosure, modification,\ndistribution and / or publication of this message without the prior written consent of authorized representative of\nHCL is strictly prohibited. If you have received this email in error please delete it and notify the sender immediately.\nBefore opening any email and/or attachments, please check them for viruses and other defects.\n\n----------------------------------------------------------------------------------------------------------------------------------------------------\n"
}
, {
  "url": "https://api.github.com/repos/yahoo/oozie/issues/comments/12929676",
  "html_url": "https://github.com/yahoo/oozie/issues/838#issuecomment-12929676",
  "issue_url": "https://api.github.com/repos/yahoo/oozie/issues/838",
  "id": 12929676,
  "user": {
    "login": "marryhazarika",
    "id": 1849473,
    "avatar_url": "https://avatars.githubusercontent.com/u/1849473?v=3",
    "gravatar_id": "",
    "url": "https://api.github.com/users/marryhazarika",
    "html_url": "https://github.com/marryhazarika",
    "followers_url": "https://api.github.com/users/marryhazarika/followers",
    "following_url": "https://api.github.com/users/marryhazarika/following{/other_user}",
    "gists_url": "https://api.github.com/users/marryhazarika/gists{/gist_id}",
    "starred_url": "https://api.github.com/users/marryhazarika/starred{/owner}{/repo}",
    "subscriptions_url": "https://api.github.com/users/marryhazarika/subscriptions",
    "organizations_url": "https://api.github.com/users/marryhazarika/orgs",
    "repos_url": "https://api.github.com/users/marryhazarika/repos",
    "events_url": "https://api.github.com/users/marryhazarika/events{/privacy}",
    "received_events_url": "https://api.github.com/users/marryhazarika/received_events",
    "type": "User",
    "site_admin": false
  },
  "created_at": "2013-01-31T06:32:47Z",
  "updated_at": "2013-01-31T06:32:47Z",
  "body": "Hi,\r\n\r\n Run Oozie server as a Oozie user. If running Oozie server from different\r\nuser just modify the following properties in core-site.xml under\r\nHADOOP_HOME:\r\n\r\n<property>\r\n  <name>hadoop.proxyuser.oozie.hosts</name>\r\n  <value>*</value>\r\n</property>\r\n\r\n<property>\r\n  <name>hadoop.proxyuser.oozie.groups</name>\r\n  <value>*</value>\r\n</property>\r\n\r\nNOTE: Change the name oozie in above properties to the user name from where\r\nOozie server is started.\r\n\r\nMy problem was solved this way. Try this out once.\r\n\r\n\r\nOn Thu, Jan 31, 2013 at 11:40 AM, maruthy <notifications@github.com> wrote:\r\n\r\n> Hi,\r\n>\r\n> I think there is some difference in understanding the documentation of\r\n> oozie. Oozie 3.2 workflows allow ssh action and being deprecated in later\r\n> versions I hope. Anyway the documentation of oozie says that “pass phrase\r\n> less login must be setup” in the system in-order for the ssh action to\r\n> work. I did so and it started working.\r\n>\r\n> Thanks\r\n> Maruthy\r\n>\r\n>\r\n> From: FlavSF [mailto:notifications@github.com]\r\n> Sent: Friday, January 25, 2013 4:11 AM\r\n> To: yahoo/oozie\r\n> Cc: Venkatamaruthy J -ERS, HCL Tech\r\n> Subject: Re: [oozie] Unable to ssh to remote machine through oozie (#838)\r\n>\r\n>\r\n> I am facing the same issue as the author. Whenever I try to do any kind of\r\n> ssh command I encounter the following error: AUTH_FAILED: Not able to\r\n> perform operation [ssh -o PasswordAuthentication=no -o\r\n> KbdInteractiveDevices=no -o StrictHostKeyChecking=no -o ConnectTimeout=20\r\n> root@serverip mkdir -p\r\n> oozie-oozi/0000114-130122145142848-oozie-oozi-W/mysql_delete--ssh/ ] |\r\n> ErrorStream: Permission denied\r\n> (gssapi-keyex,gssapi-with-mic,publickey,password).\r\n>\r\n> But it doesn't make sense for few reasons:\r\n>\r\n> * I can perfectly ssh into my server using ssh root@serverip\r\n> * Whenever I execute the above command (ssh -o PasswordAuthentication=no\r\n> -o KbdInteractiveDevices=no -o StrictHostKeyChecking=no -o\r\n> ConnectTimeout=20 root@serverip mkdir -p\r\n> oozie-oozi/0000114-130122145142848-oozie-oozi-W/mysql_delete--ssh/)\r\n> manually, it works!\r\n> * When looking at the link provided above, I also confirm that I can ssh\r\n> localhost with success\r\n>\r\n> Any ideas? Did you find resolution to your problem @marryhazarika<\r\n> https://github.com/marryhazarika> ?\r\n>\r\n> —\r\n> Reply to this email directly or view it on GitHub<\r\n> https://github.com/yahoo/oozie/issues/838#issuecomment-12677974>.\r\n>\r\n>\r\n>\r\n> ::DISCLAIMER::\r\n>\r\n> ----------------------------------------------------------------------------------------------------------------------------------------------------\r\n>\r\n> The contents of this e-mail and any attachment(s) are confidential and\r\n> intended for the named recipient(s) only.\r\n> E-mail transmission is not guaranteed to be secure or error-free as\r\n> information could be intercepted, corrupted,\r\n> lost, destroyed, arrive late or incomplete, or may contain viruses in\r\n> transmission. The e mail and its contents\r\n> (with or without referred errors) shall therefore not attach any liability\r\n> on the originator or HCL or its affiliates.\r\n> Views or opinions, if any, presented in this email are solely those of the\r\n> author and may not necessarily reflect the\r\n> views or opinions of HCL or its affiliates. Any form of reproduction,\r\n> dissemination, copying, disclosure, modification,\r\n> distribution and / or publication of this message without the prior\r\n> written consent of authorized representative of\r\n> HCL is strictly prohibited. If you have received this email in error\r\n> please delete it and notify the sender immediately.\r\n> Before opening any email and/or attachments, please check them for viruses\r\n> and other defects.\r\n>\r\n>\r\n> ----------------------------------------------------------------------------------------------------------------------------------------------------\r\n>\r\n>  —\r\n> Reply to this email directly or view it on GitHub<https://github.com/yahoo/oozie/issues/838#issuecomment-12929212>.\r\n>\r\n>\r\n\r\n\r\n\r\n-- \r\n*Regards,*\r\nMarry Hazarika\r\nSoftware Engineer\r\nGuwahati, Assam"
}
, {
  "url": "https://api.github.com/repos/yahoo/oozie/issues/comments/12930109",
  "html_url": "https://github.com/yahoo/oozie/issues/838#issuecomment-12930109",
  "issue_url": "https://api.github.com/repos/yahoo/oozie/issues/838",
  "id": 12930109,
  "user": {
    "login": "maruthy",
    "id": 2344743,
    "avatar_url": "https://avatars.githubusercontent.com/u/2344743?v=3",
    "gravatar_id": "",
    "url": "https://api.github.com/users/maruthy",
    "html_url": "https://github.com/maruthy",
    "followers_url": "https://api.github.com/users/maruthy/followers",
    "following_url": "https://api.github.com/users/maruthy/following{/other_user}",
    "gists_url": "https://api.github.com/users/maruthy/gists{/gist_id}",
    "starred_url": "https://api.github.com/users/maruthy/starred{/owner}{/repo}",
    "subscriptions_url": "https://api.github.com/users/maruthy/subscriptions",
    "organizations_url": "https://api.github.com/users/maruthy/orgs",
    "repos_url": "https://api.github.com/users/maruthy/repos",
    "events_url": "https://api.github.com/users/maruthy/events{/privacy}",
    "received_events_url": "https://api.github.com/users/maruthy/received_events",
    "type": "User",
    "site_admin": false
  },
  "created_at": "2013-01-31T06:53:43Z",
  "updated_at": "2013-01-31T06:53:43Z",
  "body": "Thanks for the update,\r\nIn-fact this modifications are also stated in the documentation of oozie if I am not wrong. This settings I did in the beginning itself so I did not pay much of an attention to it.\r\nThanks\r\nMaruthy\r\nFrom: marryhazarika [mailto:notifications@github.com]\r\nSent: Thursday, January 31, 2013 12:03 PM\r\nTo: yahoo/oozie\r\nCc: Venkatamaruthy J -ERS, HCL Tech\r\nSubject: Re: [oozie] Unable to ssh to remote machine through oozie (#838)\r\n\r\nHi,\r\n\r\nRun Oozie server as a Oozie user. If running Oozie server from different\r\nuser just modify the following properties in core-site.xml under\r\nHADOOP_HOME:\r\n\r\n<property>\r\n<name>hadoop.proxyuser.oozie.hosts</name>\r\n<value>*</value>\r\n</property>\r\n\r\n<property>\r\n<name>hadoop.proxyuser.oozie.groups</name>\r\n<value>*</value>\r\n</property>\r\n\r\nNOTE: Change the name oozie in above properties to the user name from where\r\nOozie server is started.\r\n\r\nMy problem was solved this way. Try this out once.\r\n\r\n\r\nOn Thu, Jan 31, 2013 at 11:40 AM, maruthy <notifications@github.com> wrote:\r\n\r\n> Hi,\r\n>\r\n> I think there is some difference in understanding the documentation of\r\n> oozie. Oozie 3.2 workflows allow ssh action and being deprecated in later\r\n> versions I hope. Anyway the documentation of oozie says that “pass phrase\r\n> less login must be setup” in the system in-order for the ssh action to\r\n> work. I did so and it started working.\r\n>\r\n> Thanks\r\n> Maruthy\r\n>\r\n>\r\n> From: FlavSF [mailto:notifications@github.com]\r\n> Sent: Friday, January 25, 2013 4:11 AM\r\n> To: yahoo/oozie\r\n> Cc: Venkatamaruthy J -ERS, HCL Tech\r\n> Subject: Re: [oozie] Unable to ssh to remote machine through oozie (#838)\r\n>\r\n>\r\n> I am facing the same issue as the author. Whenever I try to do any kind of\r\n> ssh command I encounter the following error: AUTH_FAILED: Not able to\r\n> perform operation [ssh -o PasswordAuthentication=no -o\r\n> KbdInteractiveDevices=no -o StrictHostKeyChecking=no -o ConnectTimeout=20\r\n> root@serverip mkdir -p\r\n> oozie-oozi/0000114-130122145142848-oozie-oozi-W/mysql_delete--ssh/ ] |\r\n> ErrorStream: Permission denied\r\n> (gssapi-keyex,gssapi-with-mic,publickey,password).\r\n>\r\n> But it doesn't make sense for few reasons:\r\n>\r\n> * I can perfectly ssh into my server using ssh root@serverip\r\n> * Whenever I execute the above command (ssh -o PasswordAuthentication=no\r\n> -o KbdInteractiveDevices=no -o StrictHostKeyChecking=no -o\r\n> ConnectTimeout=20 root@serverip mkdir -p\r\n> oozie-oozi/0000114-130122145142848-oozie-oozi-W/mysql_delete--ssh/)\r\n> manually, it works!\r\n> * When looking at the link provided above, I also confirm that I can ssh\r\n> localhost with success\r\n>\r\n> Any ideas? Did you find resolution to your problem @marryhazarika<\r\n> https://github.com/marryhazarika> ?\r\n>\r\n> —\r\n> Reply to this email directly or view it on GitHub<\r\n> https://github.com/yahoo/oozie/issues/838#issuecomment-12677974>.\r\n>\r\n>\r\n>\r\n> ::DISCLAIMER::\r\n>\r\n> ----------------------------------------------------------------------------------------------------------------------------------------------------\r\n>\r\n> The contents of this e-mail and any attachment(s) are confidential and\r\n> intended for the named recipient(s) only.\r\n> E-mail transmission is not guaranteed to be secure or error-free as\r\n> information could be intercepted, corrupted,\r\n> lost, destroyed, arrive late or incomplete, or may contain viruses in\r\n> transmission. The e mail and its contents\r\n> (with or without referred errors) shall therefore not attach any liability\r\n> on the originator or HCL or its affiliates.\r\n> Views or opinions, if any, presented in this email are solely those of the\r\n> author and may not necessarily reflect the\r\n> views or opinions of HCL or its affiliates. Any form of reproduction,\r\n> dissemination, copying, disclosure, modification,\r\n> distribution and / or publication of this message without the prior\r\n> written consent of authorized representative of\r\n> HCL is strictly prohibited. If you have received this email in error\r\n> please delete it and notify the sender immediately.\r\n> Before opening any email and/or attachments, please check them for viruses\r\n> and other defects.\r\n>\r\n>\r\n> ----------------------------------------------------------------------------------------------------------------------------------------------------\r\n>\r\n> —\r\n> Reply to this email directly or view it on GitHub<https://github.com/yahoo/oozie/issues/838#issuecomment-12929212>.\r\n>\r\n>\r\n\r\n\r\n\r\n--\r\n*Regards,*\r\nMarry Hazarika\r\nSoftware Engineer\r\nGuwahati, Assam\r\n\r\n—\r\nReply to this email directly or view it on GitHub<https://github.com/yahoo/oozie/issues/838#issuecomment-12929676>.\r\n\r\n"
}
, {
  "url": "https://api.github.com/repos/yahoo/oozie/issues/comments/15458275",
  "html_url": "https://github.com/yahoo/oozie/issues/838#issuecomment-15458275",
  "issue_url": "https://api.github.com/repos/yahoo/oozie/issues/838",
  "id": 15458275,
  "user": {
    "login": "marryhazarika",
    "id": 1849473,
    "avatar_url": "https://avatars.githubusercontent.com/u/1849473?v=3",
    "gravatar_id": "",
    "url": "https://api.github.com/users/marryhazarika",
    "html_url": "https://github.com/marryhazarika",
    "followers_url": "https://api.github.com/users/marryhazarika/followers",
    "following_url": "https://api.github.com/users/marryhazarika/following{/other_user}",
    "gists_url": "https://api.github.com/users/marryhazarika/gists{/gist_id}",
    "starred_url": "https://api.github.com/users/marryhazarika/starred{/owner}{/repo}",
    "subscriptions_url": "https://api.github.com/users/marryhazarika/subscriptions",
    "organizations_url": "https://api.github.com/users/marryhazarika/orgs",
    "repos_url": "https://api.github.com/users/marryhazarika/repos",
    "events_url": "https://api.github.com/users/marryhazarika/events{/privacy}",
    "received_events_url": "https://api.github.com/users/marryhazarika/received_events",
    "type": "User",
    "site_admin": false
  },
  "created_at": "2013-03-26T13:35:43Z",
  "updated_at": "2013-03-26T13:35:43Z",
  "body": "<http://www.skillpages.com/i/ftuf/emailinvitelanding?user=3906543b-f295-e211-a117\r\n-c86545fe99e0&signedParameters=lnIGZaJu1ysg-yuElTIKoqLCxuFyqwtlTurH7CHamU0.eyJlbW\r\nFpbCI6InJlcGx5K2ktNTA2NDU3NS0yMTM0ODJmNzNiY2ZhNTY0NzVjMDQxYWZmZWEyMDg2YjdlOTIxZDM\r\n4LTE4NDk0NzNAcmVwbHkuZ2l0aHViLmNvbSIsImZyb20iOiIzOTA2NTQzYi1mMjk1LWUyMTEtYTExNy1j\r\nODY1NDVmZTk5ZTAiLCJ0byI6IjU4OGYxMmE5LTJlYzItNWFiNS05NjkzLWIyYTcwOGEyMWMzMCIsImlzc\r\n3VlZF9hdCI6IjEzNjQzMDQ5MzUiLCJ2ZXIiOiIxIiwicCI6IjMifQ&emailMessageId=e48f217c-f29\r\n5-e211-9f30-cfd8e9020dd7&emailType=Invite&sdate=201303261335&utm_source=EmailInvi\r\nte&utm_medium=Email&emailLinkType=Logo>\r\n\r\nHi,\r\n\r\nMarry Hazarika wants to connect with you.\r\n\r\n<http://www.skillpages.com/i/ftuf/emailinvitelanding?user=3906543b-f295-e211-a117\r\n-c86545fe99e0&signedParameters=lnIGZaJu1ysg-yuElTIKoqLCxuFyqwtlTurH7CHamU0.eyJlbW\r\nFpbCI6InJlcGx5K2ktNTA2NDU3NS0yMTM0ODJmNzNiY2ZhNTY0NzVjMDQxYWZmZWEyMDg2YjdlOTIxZDM\r\n4LTE4NDk0NzNAcmVwbHkuZ2l0aHViLmNvbSIsImZyb20iOiIzOTA2NTQzYi1mMjk1LWUyMTEtYTExNy1j\r\nODY1NDVmZTk5ZTAiLCJ0byI6IjU4OGYxMmE5LTJlYzItNWFiNS05NjkzLWIyYTcwOGEyMWMzMCIsImlzc\r\n3VlZF9hdCI6IjEzNjQzMDQ5MzUiLCJ2ZXIiOiIxIiwicCI6IjMifQ&emailMessageId=e48f217c-f29\r\n5-e211-9f30-cfd8e9020dd7&emailType=Invite&sdate=201303261335&utm_source=EmailInvi\r\nte&utm_medium=Email&emailLinkType=ProfileThumb>\r\n\r\nMarry Hazarika\r\n<http://www.skillpages.com/i/ftuf/emailinvitelanding?user=3906543b-f295-e211-a117\r\n-c86545fe99e0&signedParameters=lnIGZaJu1ysg-yuElTIKoqLCxuFyqwtlTurH7CHamU0.eyJlbW\r\nFpbCI6InJlcGx5K2ktNTA2NDU3NS0yMTM0ODJmNzNiY2ZhNTY0NzVjMDQxYWZmZWEyMDg2YjdlOTIxZDM\r\n4LTE4NDk0NzNAcmVwbHkuZ2l0aHViLmNvbSIsImZyb20iOiIzOTA2NTQzYi1mMjk1LWUyMTEtYTExNy1j\r\nODY1NDVmZTk5ZTAiLCJ0byI6IjU4OGYxMmE5LTJlYzItNWFiNS05NjkzLWIyYTcwOGEyMWMzMCIsImlzc\r\n3VlZF9hdCI6IjEzNjQzMDQ5MzUiLCJ2ZXIiOiIxIiwicCI6IjMifQ&emailMessageId=e48f217c-f29\r\n5-e211-9f30-cfd8e9020dd7&emailType=Invite&sdate=201303261335&utm_source=EmailInvi\r\nte&utm_medium=Email&emailLinkType=ProfileName>\r\n\r\nInvite sent: 26 March, 2013\r\n\r\nContinue\r\n<http://www.skillpages.com/i/ftuf/emailinvitelanding?user=3906543b-f295-e211-a117\r\n-c86545fe99e0&signedParameters=lnIGZaJu1ysg-yuElTIKoqLCxuFyqwtlTurH7CHamU0.eyJlbW\r\nFpbCI6InJlcGx5K2ktNTA2NDU3NS0yMTM0ODJmNzNiY2ZhNTY0NzVjMDQxYWZmZWEyMDg2YjdlOTIxZDM\r\n4LTE4NDk0NzNAcmVwbHkuZ2l0aHViLmNvbSIsImZyb20iOiIzOTA2NTQzYi1mMjk1LWUyMTEtYTExNy1j\r\nODY1NDVmZTk5ZTAiLCJ0byI6IjU4OGYxMmE5LTJlYzItNWFiNS05NjkzLWIyYTcwOGEyMWMzMCIsImlzc\r\n3VlZF9hdCI6IjEzNjQzMDQ5MzUiLCJ2ZXIiOiIxIiwicCI6IjMifQ&cnId=3906543b-f295-e211-a11\r\n7-c86545fe99e0&emailMessageId=e48f217c-f295-e211-9f30-cfd8e9020dd7&emailType=Invi\r\nte&sdate=201303261335&utm_source=EmailInvite&utm_medium=Email&emailLinkType=MainC\r\nallToAction>\r\n\r\nreply@reply.github.com\r\n was invited to join SkillPages by Marry Hazarika. To stop receiving emails from\r\nSkillPages click here\r\n<http://www.skillpages.com/i/account/unsubscribe?signedParameters=Gm6M6O5M_rRqL7Q\r\nlWAG6ep20Kxmlde2Wmv5owSDk0HU.eyJlbWFpbCI6InJlcGx5K2ktNTA2NDU3NS0yMTM0ODJmNzNiY2Zh\r\nNTY0NzVjMDQxYWZmZWEyMDg2YjdlOTIxZDM4LTE4NDk0NzNAcmVwbHkuZ2l0aHViLmNvbSIsImlzc3VlZ\r\nF9hdCI6IjEzNjQzMDQ5MzUiLCJ2ZXIiOiIxIiwicCI6IjAifQ&emailMessageId=e48f217c-f295-e2\r\n11-9f30-cfd8e9020dd7&emailType=Invite&sdate=201303261335&utm_source=EmailInvite&u\r\ntm_medium=Email&emailLinkType=Unsubscribe> .\r\n\r\n© 2013 SkillPages, Blackrock Business Park, Dublin, Ireland and 228 Hamilton\r\nAvenue, 3rd Floor, Palo Alto, CA 94301."
}
]
