[
{
  "url": "https://api.github.com/repos/Shopify/themekit/issues/comments/139276676",
  "html_url": "https://github.com/Shopify/themekit/pull/80#issuecomment-139276676",
  "issue_url": "https://api.github.com/repos/Shopify/themekit/issues/80",
  "id": 139276676,
  "user": {
    "login": "csaunders",
    "id": 82491,
    "avatar_url": "https://avatars.githubusercontent.com/u/82491?v=3",
    "gravatar_id": "",
    "url": "https://api.github.com/users/csaunders",
    "html_url": "https://github.com/csaunders",
    "followers_url": "https://api.github.com/users/csaunders/followers",
    "following_url": "https://api.github.com/users/csaunders/following{/other_user}",
    "gists_url": "https://api.github.com/users/csaunders/gists{/gist_id}",
    "starred_url": "https://api.github.com/users/csaunders/starred{/owner}{/repo}",
    "subscriptions_url": "https://api.github.com/users/csaunders/subscriptions",
    "organizations_url": "https://api.github.com/users/csaunders/orgs",
    "repos_url": "https://api.github.com/users/csaunders/repos",
    "events_url": "https://api.github.com/users/csaunders/events{/privacy}",
    "received_events_url": "https://api.github.com/users/csaunders/received_events",
    "type": "User",
    "site_admin": false
  },
  "created_at": "2015-09-10T15:16:42Z",
  "updated_at": "2015-09-10T15:16:42Z",
  "body": "Oh man. I goofed up hard, so sorry about that :(\r\n\r\nThank you so much :)"
}
]
