[
{
  "url": "https://api.github.com/repos/github/hubot-scripts/issues/comments/13106666",
  "html_url": "https://github.com/github/hubot-scripts/pull/751#issuecomment-13106666",
  "issue_url": "https://api.github.com/repos/github/hubot-scripts/issues/751",
  "id": 13106666,
  "user": {
    "login": "skalnik",
    "id": 2546,
    "avatar_url": "https://avatars.githubusercontent.com/u/2546?v=3",
    "gravatar_id": "",
    "url": "https://api.github.com/users/skalnik",
    "html_url": "https://github.com/skalnik",
    "followers_url": "https://api.github.com/users/skalnik/followers",
    "following_url": "https://api.github.com/users/skalnik/following{/other_user}",
    "gists_url": "https://api.github.com/users/skalnik/gists{/gist_id}",
    "starred_url": "https://api.github.com/users/skalnik/starred{/owner}{/repo}",
    "subscriptions_url": "https://api.github.com/users/skalnik/subscriptions",
    "organizations_url": "https://api.github.com/users/skalnik/orgs",
    "repos_url": "https://api.github.com/users/skalnik/repos",
    "events_url": "https://api.github.com/users/skalnik/events{/privacy}",
    "received_events_url": "https://api.github.com/users/skalnik/received_events",
    "type": "User",
    "site_admin": true
  },
  "created_at": "2013-02-04T23:41:45Z",
  "updated_at": "2013-02-04T23:41:45Z",
  "body": "The 3d help stuff was broken and I fixed that here too."
}
]
