[
{
  "url": "https://api.github.com/repos/heroku/hsup/issues/comments/59697746",
  "html_url": "https://github.com/heroku/hsup/issues/4#issuecomment-59697746",
  "issue_url": "https://api.github.com/repos/heroku/hsup/issues/4",
  "id": 59697746,
  "user": {
    "login": "brandur",
    "id": 96890,
    "avatar_url": "https://avatars.githubusercontent.com/u/96890?v=3",
    "gravatar_id": "",
    "url": "https://api.github.com/users/brandur",
    "html_url": "https://github.com/brandur",
    "followers_url": "https://api.github.com/users/brandur/followers",
    "following_url": "https://api.github.com/users/brandur/following{/other_user}",
    "gists_url": "https://api.github.com/users/brandur/gists{/gist_id}",
    "starred_url": "https://api.github.com/users/brandur/starred{/owner}{/repo}",
    "subscriptions_url": "https://api.github.com/users/brandur/subscriptions",
    "organizations_url": "https://api.github.com/users/brandur/orgs",
    "repos_url": "https://api.github.com/users/brandur/repos",
    "events_url": "https://api.github.com/users/brandur/events{/privacy}",
    "received_events_url": "https://api.github.com/users/brandur/received_events",
    "type": "User",
    "site_admin": false
  },
  "created_at": "2014-10-20T07:48:03Z",
  "updated_at": "2014-10-20T07:48:03Z",
  "body": "Oof, actually I'm just tired. Needs moar `bundle exec`."
}
]
