[
{
  "url": "https://api.github.com/repos/etsy/statsd/issues/comments/38175363",
  "html_url": "https://github.com/etsy/statsd/pull/405#issuecomment-38175363",
  "issue_url": "https://api.github.com/repos/etsy/statsd/issues/405",
  "id": 38175363,
  "user": {
    "login": "derpston",
    "id": 801467,
    "avatar_url": "https://avatars.githubusercontent.com/u/801467?v=3",
    "gravatar_id": "",
    "url": "https://api.github.com/users/derpston",
    "html_url": "https://github.com/derpston",
    "followers_url": "https://api.github.com/users/derpston/followers",
    "following_url": "https://api.github.com/users/derpston/following{/other_user}",
    "gists_url": "https://api.github.com/users/derpston/gists{/gist_id}",
    "starred_url": "https://api.github.com/users/derpston/starred{/owner}{/repo}",
    "subscriptions_url": "https://api.github.com/users/derpston/subscriptions",
    "organizations_url": "https://api.github.com/users/derpston/orgs",
    "repos_url": "https://api.github.com/users/derpston/repos",
    "events_url": "https://api.github.com/users/derpston/events{/privacy}",
    "received_events_url": "https://api.github.com/users/derpston/received_events",
    "type": "User",
    "site_admin": false
  },
  "created_at": "2014-03-20T14:46:58Z",
  "updated_at": "2014-03-20T14:46:58Z",
  "body": "Looks like this caused a test to fail, I didn't catch that. I'll investigate and update this later today."
}
, {
  "url": "https://api.github.com/repos/etsy/statsd/issues/comments/40388076",
  "html_url": "https://github.com/etsy/statsd/pull/405#issuecomment-40388076",
  "issue_url": "https://api.github.com/repos/etsy/statsd/issues/405",
  "id": 40388076,
  "user": {
    "login": "mrtazz",
    "id": 68183,
    "avatar_url": "https://avatars.githubusercontent.com/u/68183?v=3",
    "gravatar_id": "",
    "url": "https://api.github.com/users/mrtazz",
    "html_url": "https://github.com/mrtazz",
    "followers_url": "https://api.github.com/users/mrtazz/followers",
    "following_url": "https://api.github.com/users/mrtazz/following{/other_user}",
    "gists_url": "https://api.github.com/users/mrtazz/gists{/gist_id}",
    "starred_url": "https://api.github.com/users/mrtazz/starred{/owner}{/repo}",
    "subscriptions_url": "https://api.github.com/users/mrtazz/subscriptions",
    "organizations_url": "https://api.github.com/users/mrtazz/orgs",
    "repos_url": "https://api.github.com/users/mrtazz/repos",
    "events_url": "https://api.github.com/users/mrtazz/events{/privacy}",
    "received_events_url": "https://api.github.com/users/mrtazz/received_events",
    "type": "User",
    "site_admin": false
  },
  "created_at": "2014-04-14T16:35:03Z",
  "updated_at": "2014-04-14T16:35:03Z",
  "body": "I think this change makes sense in general, however I'd much rather have a less hacky version where we correctly set the prefix when building up the strings and not run a string replace afterwards."
}
, {
  "url": "https://api.github.com/repos/etsy/statsd/issues/comments/41049491",
  "html_url": "https://github.com/etsy/statsd/pull/405#issuecomment-41049491",
  "issue_url": "https://api.github.com/repos/etsy/statsd/issues/405",
  "id": 41049491,
  "user": {
    "login": "derpston",
    "id": 801467,
    "avatar_url": "https://avatars.githubusercontent.com/u/801467?v=3",
    "gravatar_id": "",
    "url": "https://api.github.com/users/derpston",
    "html_url": "https://github.com/derpston",
    "followers_url": "https://api.github.com/users/derpston/followers",
    "following_url": "https://api.github.com/users/derpston/following{/other_user}",
    "gists_url": "https://api.github.com/users/derpston/gists{/gist_id}",
    "starred_url": "https://api.github.com/users/derpston/starred{/owner}{/repo}",
    "subscriptions_url": "https://api.github.com/users/derpston/subscriptions",
    "organizations_url": "https://api.github.com/users/derpston/orgs",
    "repos_url": "https://api.github.com/users/derpston/repos",
    "events_url": "https://api.github.com/users/derpston/events{/privacy}",
    "received_events_url": "https://api.github.com/users/derpston/received_events",
    "type": "User",
    "site_admin": false
  },
  "created_at": "2014-04-22T14:53:51Z",
  "updated_at": "2014-04-22T14:53:51Z",
  "body": "I'd prefer that too, but I think it might involve a refactor of the messy string building code. This seemed like the fastest way to make some progress, given the amount of time the clean solution will take.\r\n\r\nAre there any plans to refactor this string building code to allow for this sort of change?\r\n\r\nAlternatively, are there any plans to deprecate/remove the legacy namespace?\r\n\r\nWondering if perhaps the legacy namespace should be handled by a completely distinct backend plugin, and eliminate all those awkward string building conditionals."
}
]
