[
{
  "url": "https://api.github.com/repos/google/traceur-compiler/issues/comments/61414402",
  "html_url": "https://github.com/google/traceur-compiler/issues/1465#issuecomment-61414402",
  "issue_url": "https://api.github.com/repos/google/traceur-compiler/issues/1465",
  "id": 61414402,
  "user": {
    "login": "arv",
    "id": 45845,
    "avatar_url": "https://avatars.githubusercontent.com/u/45845?v=3",
    "gravatar_id": "",
    "url": "https://api.github.com/users/arv",
    "html_url": "https://github.com/arv",
    "followers_url": "https://api.github.com/users/arv/followers",
    "following_url": "https://api.github.com/users/arv/following{/other_user}",
    "gists_url": "https://api.github.com/users/arv/gists{/gist_id}",
    "starred_url": "https://api.github.com/users/arv/starred{/owner}{/repo}",
    "subscriptions_url": "https://api.github.com/users/arv/subscriptions",
    "organizations_url": "https://api.github.com/users/arv/orgs",
    "repos_url": "https://api.github.com/users/arv/repos",
    "events_url": "https://api.github.com/users/arv/events{/privacy}",
    "received_events_url": "https://api.github.com/users/arv/received_events",
    "type": "User",
    "site_admin": false
  },
  "created_at": "2014-11-02T17:09:21Z",
  "updated_at": "2014-11-02T17:09:21Z",
  "body": "Also, see discussion in #1365\r\n"
}
]
