[
{
  "url": "https://api.github.com/repos/google/traceur-compiler/issues/comments/70741766",
  "html_url": "https://github.com/google/traceur-compiler/issues/1647#issuecomment-70741766",
  "issue_url": "https://api.github.com/repos/google/traceur-compiler/issues/1647",
  "id": 70741766,
  "user": {
    "login": "arv",
    "id": 45845,
    "avatar_url": "https://avatars.githubusercontent.com/u/45845?v=3",
    "gravatar_id": "",
    "url": "https://api.github.com/users/arv",
    "html_url": "https://github.com/arv",
    "followers_url": "https://api.github.com/users/arv/followers",
    "following_url": "https://api.github.com/users/arv/following{/other_user}",
    "gists_url": "https://api.github.com/users/arv/gists{/gist_id}",
    "starred_url": "https://api.github.com/users/arv/starred{/owner}{/repo}",
    "subscriptions_url": "https://api.github.com/users/arv/subscriptions",
    "organizations_url": "https://api.github.com/users/arv/orgs",
    "repos_url": "https://api.github.com/users/arv/repos",
    "events_url": "https://api.github.com/users/arv/events{/privacy}",
    "received_events_url": "https://api.github.com/users/arv/received_events",
    "type": "User",
    "site_admin": false
  },
  "created_at": "2015-01-20T21:53:40Z",
  "updated_at": "2015-01-20T21:53:40Z",
  "body": "This line of code is problematic:\r\n\r\n```js\r\nfor (var p = void 0 in b)\r\n```\r\n\r\nI'm not sure why we are adding the initializer in the for loop. We should not do that."
}
, {
  "url": "https://api.github.com/repos/google/traceur-compiler/issues/comments/71421560",
  "html_url": "https://github.com/google/traceur-compiler/issues/1647#issuecomment-71421560",
  "issue_url": "https://api.github.com/repos/google/traceur-compiler/issues/1647",
  "id": 71421560,
  "user": {
    "login": "muzuiget",
    "id": 330812,
    "avatar_url": "https://avatars.githubusercontent.com/u/330812?v=3",
    "gravatar_id": "",
    "url": "https://api.github.com/users/muzuiget",
    "html_url": "https://github.com/muzuiget",
    "followers_url": "https://api.github.com/users/muzuiget/followers",
    "following_url": "https://api.github.com/users/muzuiget/following{/other_user}",
    "gists_url": "https://api.github.com/users/muzuiget/gists{/gist_id}",
    "starred_url": "https://api.github.com/users/muzuiget/starred{/owner}{/repo}",
    "subscriptions_url": "https://api.github.com/users/muzuiget/subscriptions",
    "organizations_url": "https://api.github.com/users/muzuiget/orgs",
    "repos_url": "https://api.github.com/users/muzuiget/repos",
    "events_url": "https://api.github.com/users/muzuiget/events{/privacy}",
    "received_events_url": "https://api.github.com/users/muzuiget/received_events",
    "type": "User",
    "site_admin": false
  },
  "created_at": "2015-01-26T07:11:22Z",
  "updated_at": "2015-01-26T07:11:22Z",
  "body": "Same here, my site broken in Safari 8, any workaround?"
}
, {
  "url": "https://api.github.com/repos/google/traceur-compiler/issues/comments/71478974",
  "html_url": "https://github.com/google/traceur-compiler/issues/1647#issuecomment-71478974",
  "issue_url": "https://api.github.com/repos/google/traceur-compiler/issues/1647",
  "id": 71478974,
  "user": {
    "login": "errorx666",
    "id": 1048542,
    "avatar_url": "https://avatars.githubusercontent.com/u/1048542?v=3",
    "gravatar_id": "",
    "url": "https://api.github.com/users/errorx666",
    "html_url": "https://github.com/errorx666",
    "followers_url": "https://api.github.com/users/errorx666/followers",
    "following_url": "https://api.github.com/users/errorx666/following{/other_user}",
    "gists_url": "https://api.github.com/users/errorx666/gists{/gist_id}",
    "starred_url": "https://api.github.com/users/errorx666/starred{/owner}{/repo}",
    "subscriptions_url": "https://api.github.com/users/errorx666/subscriptions",
    "organizations_url": "https://api.github.com/users/errorx666/orgs",
    "repos_url": "https://api.github.com/users/errorx666/repos",
    "events_url": "https://api.github.com/users/errorx666/events{/privacy}",
    "received_events_url": "https://api.github.com/users/errorx666/received_events",
    "type": "User",
    "site_admin": false
  },
  "created_at": "2015-01-26T15:34:46Z",
  "updated_at": "2015-01-26T15:35:08Z",
  "body": "@muzuiget for now, a grunt task to replace \" = void 0 in \" with \" in \"?\r\n\r\nNot the most elegant solution, admittedly."
}
, {
  "url": "https://api.github.com/repos/google/traceur-compiler/issues/comments/89020119",
  "html_url": "https://github.com/google/traceur-compiler/issues/1647#issuecomment-89020119",
  "issue_url": "https://api.github.com/repos/google/traceur-compiler/issues/1647",
  "id": 89020119,
  "user": {
    "login": "zoe-1",
    "id": 1852507,
    "avatar_url": "https://avatars.githubusercontent.com/u/1852507?v=3",
    "gravatar_id": "",
    "url": "https://api.github.com/users/zoe-1",
    "html_url": "https://github.com/zoe-1",
    "followers_url": "https://api.github.com/users/zoe-1/followers",
    "following_url": "https://api.github.com/users/zoe-1/following{/other_user}",
    "gists_url": "https://api.github.com/users/zoe-1/gists{/gist_id}",
    "starred_url": "https://api.github.com/users/zoe-1/starred{/owner}{/repo}",
    "subscriptions_url": "https://api.github.com/users/zoe-1/subscriptions",
    "organizations_url": "https://api.github.com/users/zoe-1/orgs",
    "repos_url": "https://api.github.com/users/zoe-1/repos",
    "events_url": "https://api.github.com/users/zoe-1/events{/privacy}",
    "received_events_url": "https://api.github.com/users/zoe-1/received_events",
    "type": "User",
    "site_admin": false
  },
  "created_at": "2015-04-02T19:36:25Z",
  "updated_at": "2015-04-02T19:36:25Z",
  "body": "Just downloaded the quick start tutorial learned about from Brad Greens twitter post today. \r\nI was using Safari and got errors:\r\n[Error] ReferenceError: Can't find variable: System\r\n\tglobal code (index.html, line 5)\r\n[Error] SyntaxError: Cannot use initialiser syntax in a strict mode enumeration.\r\n\t(anonymous function) (es6-shim.js, line 4941)\r\nHope this helps. \r\n"
}
, {
  "url": "https://api.github.com/repos/google/traceur-compiler/issues/comments/89027312",
  "html_url": "https://github.com/google/traceur-compiler/issues/1647#issuecomment-89027312",
  "issue_url": "https://api.github.com/repos/google/traceur-compiler/issues/1647",
  "id": 89027312,
  "user": {
    "login": "johnjbarton",
    "id": 205570,
    "avatar_url": "https://avatars.githubusercontent.com/u/205570?v=3",
    "gravatar_id": "",
    "url": "https://api.github.com/users/johnjbarton",
    "html_url": "https://github.com/johnjbarton",
    "followers_url": "https://api.github.com/users/johnjbarton/followers",
    "following_url": "https://api.github.com/users/johnjbarton/following{/other_user}",
    "gists_url": "https://api.github.com/users/johnjbarton/gists{/gist_id}",
    "starred_url": "https://api.github.com/users/johnjbarton/starred{/owner}{/repo}",
    "subscriptions_url": "https://api.github.com/users/johnjbarton/subscriptions",
    "organizations_url": "https://api.github.com/users/johnjbarton/orgs",
    "repos_url": "https://api.github.com/users/johnjbarton/repos",
    "events_url": "https://api.github.com/users/johnjbarton/events{/privacy}",
    "received_events_url": "https://api.github.com/users/johnjbarton/received_events",
    "type": "User",
    "site_admin": false
  },
  "created_at": "2015-04-02T20:02:57Z",
  "updated_at": "2015-04-02T20:02:57Z",
  "body": "@zoe-1 Please open a new issue and tell us what file you loaded in to safari, Thanks!"
}
, {
  "url": "https://api.github.com/repos/google/traceur-compiler/issues/comments/89075771",
  "html_url": "https://github.com/google/traceur-compiler/issues/1647#issuecomment-89075771",
  "issue_url": "https://api.github.com/repos/google/traceur-compiler/issues/1647",
  "id": 89075771,
  "user": {
    "login": "zoe-1",
    "id": 1852507,
    "avatar_url": "https://avatars.githubusercontent.com/u/1852507?v=3",
    "gravatar_id": "",
    "url": "https://api.github.com/users/zoe-1",
    "html_url": "https://github.com/zoe-1",
    "followers_url": "https://api.github.com/users/zoe-1/followers",
    "following_url": "https://api.github.com/users/zoe-1/following{/other_user}",
    "gists_url": "https://api.github.com/users/zoe-1/gists{/gist_id}",
    "starred_url": "https://api.github.com/users/zoe-1/starred{/owner}{/repo}",
    "subscriptions_url": "https://api.github.com/users/zoe-1/subscriptions",
    "organizations_url": "https://api.github.com/users/zoe-1/orgs",
    "repos_url": "https://api.github.com/users/zoe-1/repos",
    "events_url": "https://api.github.com/users/zoe-1/events{/privacy}",
    "received_events_url": "https://api.github.com/users/zoe-1/received_events",
    "type": "User",
    "site_admin": false
  },
  "created_at": "2015-04-02T23:19:18Z",
  "updated_at": "2015-04-02T23:19:18Z",
  "body": "Ok. Made an issue here:\r\nhttps://github.com/google/traceur-compiler/issues/1862"
}
]
