[
{
  "url": "https://api.github.com/repos/google/traceur-compiler/issues/comments/34335434",
  "html_url": "https://github.com/google/traceur-compiler/issues/647#issuecomment-34335434",
  "issue_url": "https://api.github.com/repos/google/traceur-compiler/issues/647",
  "id": 34335434,
  "user": {
    "login": "johnjbarton",
    "id": 205570,
    "avatar_url": "https://avatars.githubusercontent.com/u/205570?v=3",
    "gravatar_id": "",
    "url": "https://api.github.com/users/johnjbarton",
    "html_url": "https://github.com/johnjbarton",
    "followers_url": "https://api.github.com/users/johnjbarton/followers",
    "following_url": "https://api.github.com/users/johnjbarton/following{/other_user}",
    "gists_url": "https://api.github.com/users/johnjbarton/gists{/gist_id}",
    "starred_url": "https://api.github.com/users/johnjbarton/starred{/owner}{/repo}",
    "subscriptions_url": "https://api.github.com/users/johnjbarton/subscriptions",
    "organizations_url": "https://api.github.com/users/johnjbarton/orgs",
    "repos_url": "https://api.github.com/users/johnjbarton/repos",
    "events_url": "https://api.github.com/users/johnjbarton/events{/privacy}",
    "received_events_url": "https://api.github.com/users/johnjbarton/received_events",
    "type": "User",
    "site_admin": false
  },
  "created_at": "2014-02-06T15:41:47Z",
  "updated_at": "2014-02-06T15:41:47Z",
  "body": "TODO(arv): Change CodeUnit to use promises instead of \"events\"."
}
, {
  "url": "https://api.github.com/repos/google/traceur-compiler/issues/comments/35111420",
  "html_url": "https://github.com/google/traceur-compiler/issues/647#issuecomment-35111420",
  "issue_url": "https://api.github.com/repos/google/traceur-compiler/issues/647",
  "id": 35111420,
  "user": {
    "login": "johnjbarton",
    "id": 205570,
    "avatar_url": "https://avatars.githubusercontent.com/u/205570?v=3",
    "gravatar_id": "",
    "url": "https://api.github.com/users/johnjbarton",
    "html_url": "https://github.com/johnjbarton",
    "followers_url": "https://api.github.com/users/johnjbarton/followers",
    "following_url": "https://api.github.com/users/johnjbarton/following{/other_user}",
    "gists_url": "https://api.github.com/users/johnjbarton/gists{/gist_id}",
    "starred_url": "https://api.github.com/users/johnjbarton/starred{/owner}{/repo}",
    "subscriptions_url": "https://api.github.com/users/johnjbarton/subscriptions",
    "organizations_url": "https://api.github.com/users/johnjbarton/orgs",
    "repos_url": "https://api.github.com/users/johnjbarton/repos",
    "events_url": "https://api.github.com/users/johnjbarton/events{/privacy}",
    "received_events_url": "https://api.github.com/users/johnjbarton/received_events",
    "type": "User",
    "site_admin": false
  },
  "created_at": "2014-02-14T18:36:18Z",
  "updated_at": "2014-02-14T18:36:18Z",
  "body": "Fixed by PR #747 and #756"
}
]
