[
{
  "url": "https://api.github.com/repos/google/traceur-compiler/issues/comments/77981006",
  "html_url": "https://github.com/google/traceur-compiler/issues/1803#issuecomment-77981006",
  "issue_url": "https://api.github.com/repos/google/traceur-compiler/issues/1803",
  "id": 77981006,
  "user": {
    "login": "caitp",
    "id": 2294695,
    "avatar_url": "https://avatars.githubusercontent.com/u/2294695?v=3",
    "gravatar_id": "",
    "url": "https://api.github.com/users/caitp",
    "html_url": "https://github.com/caitp",
    "followers_url": "https://api.github.com/users/caitp/followers",
    "following_url": "https://api.github.com/users/caitp/following{/other_user}",
    "gists_url": "https://api.github.com/users/caitp/gists{/gist_id}",
    "starred_url": "https://api.github.com/users/caitp/starred{/owner}{/repo}",
    "subscriptions_url": "https://api.github.com/users/caitp/subscriptions",
    "organizations_url": "https://api.github.com/users/caitp/orgs",
    "repos_url": "https://api.github.com/users/caitp/repos",
    "events_url": "https://api.github.com/users/caitp/events{/privacy}",
    "received_events_url": "https://api.github.com/users/caitp/received_events",
    "type": "User",
    "site_admin": false
  },
  "created_at": "2015-03-10T01:41:00Z",
  "updated_at": "2015-03-10T01:41:00Z",
  "body": "This actually seems to be wrong in general, not just in arrow functions.\r\n\r\n```js\r\nx: for (var i = 0; i < 100; ++i) {\r\n  y: for (var j = 0; j < 100; ++j) {\r\n    console.log(\"y\" + j);\r\n    break /*\r\n      */ x;\r\n  }\r\n  console.log(\"x\" + i);\r\n}\r\n```\r\n\r\nis translating to\r\n\r\n```js\r\nx: for (var i = 0; i < 100; ++i) {\r\n  y: for (var j = 0; j < 100; ++j) {\r\n    console.log(\"y\" + j);\r\n    break x;\r\n  }\r\n  console.log(\"x\" + i);\r\n}\r\n```\r\n\r\nwhich is inconsistent with browsers"
}
, {
  "url": "https://api.github.com/repos/google/traceur-compiler/issues/comments/78059990",
  "html_url": "https://github.com/google/traceur-compiler/issues/1803#issuecomment-78059990",
  "issue_url": "https://api.github.com/repos/google/traceur-compiler/issues/1803",
  "id": 78059990,
  "user": {
    "login": "arv",
    "id": 45845,
    "avatar_url": "https://avatars.githubusercontent.com/u/45845?v=3",
    "gravatar_id": "",
    "url": "https://api.github.com/users/arv",
    "html_url": "https://github.com/arv",
    "followers_url": "https://api.github.com/users/arv/followers",
    "following_url": "https://api.github.com/users/arv/following{/other_user}",
    "gists_url": "https://api.github.com/users/arv/gists{/gist_id}",
    "starred_url": "https://api.github.com/users/arv/starred{/owner}{/repo}",
    "subscriptions_url": "https://api.github.com/users/arv/subscriptions",
    "organizations_url": "https://api.github.com/users/arv/orgs",
    "repos_url": "https://api.github.com/users/arv/repos",
    "events_url": "https://api.github.com/users/arv/events{/privacy}",
    "received_events_url": "https://api.github.com/users/arv/received_events",
    "type": "User",
    "site_admin": false
  },
  "created_at": "2015-03-10T14:09:07Z",
  "updated_at": "2015-03-10T14:09:07Z",
  "body": "Really? That makes no sense to me. I have to dig through the spec for this."
}
, {
  "url": "https://api.github.com/repos/google/traceur-compiler/issues/comments/78065164",
  "html_url": "https://github.com/google/traceur-compiler/issues/1803#issuecomment-78065164",
  "issue_url": "https://api.github.com/repos/google/traceur-compiler/issues/1803",
  "id": 78065164,
  "user": {
    "login": "zenparsing",
    "id": 5995084,
    "avatar_url": "https://avatars.githubusercontent.com/u/5995084?v=3",
    "gravatar_id": "",
    "url": "https://api.github.com/users/zenparsing",
    "html_url": "https://github.com/zenparsing",
    "followers_url": "https://api.github.com/users/zenparsing/followers",
    "following_url": "https://api.github.com/users/zenparsing/following{/other_user}",
    "gists_url": "https://api.github.com/users/zenparsing/gists{/gist_id}",
    "starred_url": "https://api.github.com/users/zenparsing/starred{/owner}{/repo}",
    "subscriptions_url": "https://api.github.com/users/zenparsing/subscriptions",
    "organizations_url": "https://api.github.com/users/zenparsing/orgs",
    "repos_url": "https://api.github.com/users/zenparsing/repos",
    "events_url": "https://api.github.com/users/zenparsing/events{/privacy}",
    "received_events_url": "https://api.github.com/users/zenparsing/received_events",
    "type": "User",
    "site_admin": false
  },
  "created_at": "2015-03-10T14:32:44Z",
  "updated_at": "2015-03-10T14:32:44Z",
  "body": "A better test case:\r\n\r\n```js\r\nfunction f() {\r\n  return /*\r\n    */ 1;\r\n}\r\nf();  // Should be undefined, according to the spec\r\n```\r\n\r\nIt's called out explicitly at http://people.mozilla.org/~jorendorff/es6-draft.html#sec-lexical-and-regexp-grammars, second paragraph.\r\n\r\n> A MultiLineComment (that is, a comment of the form “/*…*/” regardless of whether it spans \r\n> more than one line) is likewise simply discarded if it contains no line terminator; but if \r\n> a MultiLineComment contains one or more line terminators, then it is replaced by a single \r\n> line terminator, which becomes part of the stream of input elements for the syntactic grammar."
}
, {
  "url": "https://api.github.com/repos/google/traceur-compiler/issues/comments/78067039",
  "html_url": "https://github.com/google/traceur-compiler/issues/1803#issuecomment-78067039",
  "issue_url": "https://api.github.com/repos/google/traceur-compiler/issues/1803",
  "id": 78067039,
  "user": {
    "login": "caitp",
    "id": 2294695,
    "avatar_url": "https://avatars.githubusercontent.com/u/2294695?v=3",
    "gravatar_id": "",
    "url": "https://api.github.com/users/caitp",
    "html_url": "https://github.com/caitp",
    "followers_url": "https://api.github.com/users/caitp/followers",
    "following_url": "https://api.github.com/users/caitp/following{/other_user}",
    "gists_url": "https://api.github.com/users/caitp/gists{/gist_id}",
    "starred_url": "https://api.github.com/users/caitp/starred{/owner}{/repo}",
    "subscriptions_url": "https://api.github.com/users/caitp/subscriptions",
    "organizations_url": "https://api.github.com/users/caitp/orgs",
    "repos_url": "https://api.github.com/users/caitp/repos",
    "events_url": "https://api.github.com/users/caitp/events{/privacy}",
    "received_events_url": "https://api.github.com/users/caitp/received_events",
    "type": "User",
    "site_admin": false
  },
  "created_at": "2015-03-10T14:40:52Z",
  "updated_at": "2015-03-10T14:40:52Z",
  "body": "Thanks for finding the paragraph to cite, I was looking for it but couldn't find one"
}
, {
  "url": "https://api.github.com/repos/google/traceur-compiler/issues/comments/78081550",
  "html_url": "https://github.com/google/traceur-compiler/issues/1803#issuecomment-78081550",
  "issue_url": "https://api.github.com/repos/google/traceur-compiler/issues/1803",
  "id": 78081550,
  "user": {
    "login": "arv",
    "id": 45845,
    "avatar_url": "https://avatars.githubusercontent.com/u/45845?v=3",
    "gravatar_id": "",
    "url": "https://api.github.com/users/arv",
    "html_url": "https://github.com/arv",
    "followers_url": "https://api.github.com/users/arv/followers",
    "following_url": "https://api.github.com/users/arv/following{/other_user}",
    "gists_url": "https://api.github.com/users/arv/gists{/gist_id}",
    "starred_url": "https://api.github.com/users/arv/starred{/owner}{/repo}",
    "subscriptions_url": "https://api.github.com/users/arv/subscriptions",
    "organizations_url": "https://api.github.com/users/arv/orgs",
    "repos_url": "https://api.github.com/users/arv/repos",
    "events_url": "https://api.github.com/users/arv/events{/privacy}",
    "received_events_url": "https://api.github.com/users/arv/received_events",
    "type": "User",
    "site_admin": false
  },
  "created_at": "2015-03-10T15:45:27Z",
  "updated_at": "2015-03-10T15:45:27Z",
  "body": "Thanks Kevin."
}
]
