[
{
  "url": "https://api.github.com/repos/google/traceur-compiler/issues/comments/160732799",
  "html_url": "https://github.com/google/traceur-compiler/pull/2030#issuecomment-160732799",
  "issue_url": "https://api.github.com/repos/google/traceur-compiler/issues/2030",
  "id": 160732799,
  "user": {
    "login": "arv",
    "id": 45845,
    "avatar_url": "https://avatars.githubusercontent.com/u/45845?v=3",
    "gravatar_id": "",
    "url": "https://api.github.com/users/arv",
    "html_url": "https://github.com/arv",
    "followers_url": "https://api.github.com/users/arv/followers",
    "following_url": "https://api.github.com/users/arv/following{/other_user}",
    "gists_url": "https://api.github.com/users/arv/gists{/gist_id}",
    "starred_url": "https://api.github.com/users/arv/starred{/owner}{/repo}",
    "subscriptions_url": "https://api.github.com/users/arv/subscriptions",
    "organizations_url": "https://api.github.com/users/arv/orgs",
    "repos_url": "https://api.github.com/users/arv/repos",
    "events_url": "https://api.github.com/users/arv/events{/privacy}",
    "received_events_url": "https://api.github.com/users/arv/received_events",
    "type": "User",
    "site_admin": false
  },
  "created_at": "2015-11-30T19:26:37Z",
  "updated_at": "2015-11-30T19:26:37Z",
  "body": "LGTM\r\n\r\nDo you know why we sorted these in the past?\r\n\r\nAnother option might be to do the import from the runtime files that depends on the feature in question. Might be bad though since I want us to be able to create runtimes that do not require classes.js because most browsers supports classes now."
}
, {
  "url": "https://api.github.com/repos/google/traceur-compiler/issues/comments/160740604",
  "html_url": "https://github.com/google/traceur-compiler/pull/2030#issuecomment-160740604",
  "issue_url": "https://api.github.com/repos/google/traceur-compiler/issues/2030",
  "id": 160740604,
  "user": {
    "login": "johnjbarton",
    "id": 205570,
    "avatar_url": "https://avatars.githubusercontent.com/u/205570?v=3",
    "gravatar_id": "",
    "url": "https://api.github.com/users/johnjbarton",
    "html_url": "https://github.com/johnjbarton",
    "followers_url": "https://api.github.com/users/johnjbarton/followers",
    "following_url": "https://api.github.com/users/johnjbarton/following{/other_user}",
    "gists_url": "https://api.github.com/users/johnjbarton/gists{/gist_id}",
    "starred_url": "https://api.github.com/users/johnjbarton/starred{/owner}{/repo}",
    "subscriptions_url": "https://api.github.com/users/johnjbarton/subscriptions",
    "organizations_url": "https://api.github.com/users/johnjbarton/orgs",
    "repos_url": "https://api.github.com/users/johnjbarton/repos",
    "events_url": "https://api.github.com/users/johnjbarton/events{/privacy}",
    "received_events_url": "https://api.github.com/users/johnjbarton/received_events",
    "type": "User",
    "site_admin": false
  },
  "created_at": "2015-11-30T19:55:41Z",
  "updated_at": "2015-11-30T19:55:41Z",
  "body": "Looks like we sorted to get a stable order to avoid extra diffs back when we where committing `bin/traceur.js` \r\nhttps://github.com/google/traceur-compiler/issues/423\r\n\r\nhttps://github.com/google/traceur-compiler/commit/0c53d7b853cdb79508f2388cf58bea935c4153ce"
}
, {
  "url": "https://api.github.com/repos/google/traceur-compiler/issues/comments/160783189",
  "html_url": "https://github.com/google/traceur-compiler/pull/2030#issuecomment-160783189",
  "issue_url": "https://api.github.com/repos/google/traceur-compiler/issues/2030",
  "id": 160783189,
  "user": {
    "login": "arv",
    "id": 45845,
    "avatar_url": "https://avatars.githubusercontent.com/u/45845?v=3",
    "gravatar_id": "",
    "url": "https://api.github.com/users/arv",
    "html_url": "https://github.com/arv",
    "followers_url": "https://api.github.com/users/arv/followers",
    "following_url": "https://api.github.com/users/arv/following{/other_user}",
    "gists_url": "https://api.github.com/users/arv/gists{/gist_id}",
    "starred_url": "https://api.github.com/users/arv/starred{/owner}{/repo}",
    "subscriptions_url": "https://api.github.com/users/arv/subscriptions",
    "organizations_url": "https://api.github.com/users/arv/orgs",
    "repos_url": "https://api.github.com/users/arv/repos",
    "events_url": "https://api.github.com/users/arv/events{/privacy}",
    "received_events_url": "https://api.github.com/users/arv/received_events",
    "type": "User",
    "site_admin": false
  },
  "created_at": "2015-11-30T22:33:21Z",
  "updated_at": "2015-11-30T22:33:21Z",
  "body": "OK. Thanks for the archaeology... Since we no longer commit bin/traceur.js the stable order is no longer important."
}
]
