[
{
  "url": "https://api.github.com/repos/google/traceur-compiler/issues/comments/49215045",
  "html_url": "https://github.com/google/traceur-compiler/issues/1182#issuecomment-49215045",
  "issue_url": "https://api.github.com/repos/google/traceur-compiler/issues/1182",
  "id": 49215045,
  "user": {
    "login": "domenic",
    "id": 617481,
    "avatar_url": "https://avatars.githubusercontent.com/u/617481?v=3",
    "gravatar_id": "",
    "url": "https://api.github.com/users/domenic",
    "html_url": "https://github.com/domenic",
    "followers_url": "https://api.github.com/users/domenic/followers",
    "following_url": "https://api.github.com/users/domenic/following{/other_user}",
    "gists_url": "https://api.github.com/users/domenic/gists{/gist_id}",
    "starred_url": "https://api.github.com/users/domenic/starred{/owner}{/repo}",
    "subscriptions_url": "https://api.github.com/users/domenic/subscriptions",
    "organizations_url": "https://api.github.com/users/domenic/orgs",
    "repos_url": "https://api.github.com/users/domenic/repos",
    "events_url": "https://api.github.com/users/domenic/events{/privacy}",
    "received_events_url": "https://api.github.com/users/domenic/received_events",
    "type": "User",
    "site_admin": false
  },
  "created_at": "2014-07-16T19:31:55Z",
  "updated_at": "2014-07-16T19:31:55Z",
  "body": "You need to await fn2, since it is an async function. Right now it is returning a promise that you are ignoring."
}
, {
  "url": "https://api.github.com/repos/google/traceur-compiler/issues/comments/49215789",
  "html_url": "https://github.com/google/traceur-compiler/issues/1182#issuecomment-49215789",
  "issue_url": "https://api.github.com/repos/google/traceur-compiler/issues/1182",
  "id": 49215789,
  "user": {
    "login": "hojgr",
    "id": 626096,
    "avatar_url": "https://avatars.githubusercontent.com/u/626096?v=3",
    "gravatar_id": "",
    "url": "https://api.github.com/users/hojgr",
    "html_url": "https://github.com/hojgr",
    "followers_url": "https://api.github.com/users/hojgr/followers",
    "following_url": "https://api.github.com/users/hojgr/following{/other_user}",
    "gists_url": "https://api.github.com/users/hojgr/gists{/gist_id}",
    "starred_url": "https://api.github.com/users/hojgr/starred{/owner}{/repo}",
    "subscriptions_url": "https://api.github.com/users/hojgr/subscriptions",
    "organizations_url": "https://api.github.com/users/hojgr/orgs",
    "repos_url": "https://api.github.com/users/hojgr/repos",
    "events_url": "https://api.github.com/users/hojgr/events{/privacy}",
    "received_events_url": "https://api.github.com/users/hojgr/received_events",
    "type": "User",
    "site_admin": false
  },
  "created_at": "2014-07-16T19:38:09Z",
  "updated_at": "2014-07-16T19:38:09Z",
  "body": "How should that be done? Calling fn2 as follows `await fn2()` throws an error\r\n```\r\nError: http://google.github.io/traceur-compiler/demo/8:9:7: Semi-colon expected\r\n```\r\n\r\nAnd calling it in an async annonymous function, as in documentation, that is\r\n```\r\n(async function() {\r\n  await fn2();\r\n})();\r\n```\r\nworks but still suppresses the error."
}
, {
  "url": "https://api.github.com/repos/google/traceur-compiler/issues/comments/49222866",
  "html_url": "https://github.com/google/traceur-compiler/issues/1182#issuecomment-49222866",
  "issue_url": "https://api.github.com/repos/google/traceur-compiler/issues/1182",
  "id": 49222866,
  "user": {
    "login": "domenic",
    "id": 617481,
    "avatar_url": "https://avatars.githubusercontent.com/u/617481?v=3",
    "gravatar_id": "",
    "url": "https://api.github.com/users/domenic",
    "html_url": "https://github.com/domenic",
    "followers_url": "https://api.github.com/users/domenic/followers",
    "following_url": "https://api.github.com/users/domenic/following{/other_user}",
    "gists_url": "https://api.github.com/users/domenic/gists{/gist_id}",
    "starred_url": "https://api.github.com/users/domenic/starred{/owner}{/repo}",
    "subscriptions_url": "https://api.github.com/users/domenic/subscriptions",
    "organizations_url": "https://api.github.com/users/domenic/orgs",
    "repos_url": "https://api.github.com/users/domenic/repos",
    "events_url": "https://api.github.com/users/domenic/events{/privacy}",
    "received_events_url": "https://api.github.com/users/domenic/received_events",
    "type": "User",
    "site_admin": false
  },
  "created_at": "2014-07-16T20:34:36Z",
  "updated_at": "2014-07-16T20:42:08Z",
  "body": "You are right; that was not a good answer.\r\n\r\nThis will work:\r\n\r\n```js\r\nfn2().catch(console.error.bind(console));\r\n```\r\n\r\nI am not sure how I feel about this... it's annoying that you have to get thrown back into promise-land in this way."
}
, {
  "url": "https://api.github.com/repos/google/traceur-compiler/issues/comments/49223146",
  "html_url": "https://github.com/google/traceur-compiler/issues/1182#issuecomment-49223146",
  "issue_url": "https://api.github.com/repos/google/traceur-compiler/issues/1182",
  "id": 49223146,
  "user": {
    "login": "hojgr",
    "id": 626096,
    "avatar_url": "https://avatars.githubusercontent.com/u/626096?v=3",
    "gravatar_id": "",
    "url": "https://api.github.com/users/hojgr",
    "html_url": "https://github.com/hojgr",
    "followers_url": "https://api.github.com/users/hojgr/followers",
    "following_url": "https://api.github.com/users/hojgr/following{/other_user}",
    "gists_url": "https://api.github.com/users/hojgr/gists{/gist_id}",
    "starred_url": "https://api.github.com/users/hojgr/starred{/owner}{/repo}",
    "subscriptions_url": "https://api.github.com/users/hojgr/subscriptions",
    "organizations_url": "https://api.github.com/users/hojgr/orgs",
    "repos_url": "https://api.github.com/users/hojgr/repos",
    "events_url": "https://api.github.com/users/hojgr/events{/privacy}",
    "received_events_url": "https://api.github.com/users/hojgr/received_events",
    "type": "User",
    "site_admin": false
  },
  "created_at": "2014-07-16T20:36:54Z",
  "updated_at": "2014-07-16T20:36:54Z",
  "body": "Well, it should at least be covered in documentation somewhere, I think. Thank you."
}
, {
  "url": "https://api.github.com/repos/google/traceur-compiler/issues/comments/49223562",
  "html_url": "https://github.com/google/traceur-compiler/issues/1182#issuecomment-49223562",
  "issue_url": "https://api.github.com/repos/google/traceur-compiler/issues/1182",
  "id": 49223562,
  "user": {
    "login": "johnjbarton",
    "id": 205570,
    "avatar_url": "https://avatars.githubusercontent.com/u/205570?v=3",
    "gravatar_id": "",
    "url": "https://api.github.com/users/johnjbarton",
    "html_url": "https://github.com/johnjbarton",
    "followers_url": "https://api.github.com/users/johnjbarton/followers",
    "following_url": "https://api.github.com/users/johnjbarton/following{/other_user}",
    "gists_url": "https://api.github.com/users/johnjbarton/gists{/gist_id}",
    "starred_url": "https://api.github.com/users/johnjbarton/starred{/owner}{/repo}",
    "subscriptions_url": "https://api.github.com/users/johnjbarton/subscriptions",
    "organizations_url": "https://api.github.com/users/johnjbarton/orgs",
    "repos_url": "https://api.github.com/users/johnjbarton/repos",
    "events_url": "https://api.github.com/users/johnjbarton/events{/privacy}",
    "received_events_url": "https://api.github.com/users/johnjbarton/received_events",
    "type": "User",
    "site_admin": false
  },
  "created_at": "2014-07-16T20:39:54Z",
  "updated_at": "2014-07-16T20:39:54Z",
  "body": "Your contributions to documentation would be welcomed.\r\nOn Jul 16, 2014 1:37 PM, \"Michal Hojgr\" <notifications@github.com> wrote:\r\n\r\n> Well, it should at least be covered in documentation somewhere, I think.\r\n> Thank you.\r\n>\r\n> —\r\n> Reply to this email directly or view it on GitHub\r\n> <https://github.com/google/traceur-compiler/issues/1182#issuecomment-49223146>\r\n> .\r\n>"
}
, {
  "url": "https://api.github.com/repos/google/traceur-compiler/issues/comments/49224062",
  "html_url": "https://github.com/google/traceur-compiler/issues/1182#issuecomment-49224062",
  "issue_url": "https://api.github.com/repos/google/traceur-compiler/issues/1182",
  "id": 49224062,
  "user": {
    "login": "domenic",
    "id": 617481,
    "avatar_url": "https://avatars.githubusercontent.com/u/617481?v=3",
    "gravatar_id": "",
    "url": "https://api.github.com/users/domenic",
    "html_url": "https://github.com/domenic",
    "followers_url": "https://api.github.com/users/domenic/followers",
    "following_url": "https://api.github.com/users/domenic/following{/other_user}",
    "gists_url": "https://api.github.com/users/domenic/gists{/gist_id}",
    "starred_url": "https://api.github.com/users/domenic/starred{/owner}{/repo}",
    "subscriptions_url": "https://api.github.com/users/domenic/subscriptions",
    "organizations_url": "https://api.github.com/users/domenic/orgs",
    "repos_url": "https://api.github.com/users/domenic/repos",
    "events_url": "https://api.github.com/users/domenic/events{/privacy}",
    "received_events_url": "https://api.github.com/users/domenic/received_events",
    "type": "User",
    "site_admin": false
  },
  "created_at": "2014-07-16T20:43:52Z",
  "updated_at": "2014-07-16T20:43:52Z",
  "body": "The essential problem here is that debugging tools for promises in browsers are in their infancy. Ideally, the fact that you ignored the returned promise would show up in the dev tools, until/unless you added that `.catch` handler, or gave the promise to someone who did. I am told work is underway for adding this kind of support for native promises. Ember's RSVP promises already have an excellent inspector to show the graph of async computations, including any dangling failures. And Firefox uses an interesting technique where such failures are displayed after the promise is GCed, which can be pretty effective.\r\n\r\nSo I wanted to say, basically: this isn't your fault, but is really something dev tools should be better at helping you with. We're kind of in a transitional phase right now where it's painful, but it's getting better :)"
}
]
