[
{
  "url": "https://api.github.com/repos/alibaba/node-hbase-client/issues/comments/17991186",
  "html_url": "https://github.com/alibaba/node-hbase-client/pull/20#issuecomment-17991186",
  "issue_url": "https://api.github.com/repos/alibaba/node-hbase-client/issues/20",
  "id": 17991186,
  "user": {
    "login": "fengmk2",
    "id": 156269,
    "avatar_url": "https://avatars.githubusercontent.com/u/156269?v=3",
    "gravatar_id": "",
    "url": "https://api.github.com/users/fengmk2",
    "html_url": "https://github.com/fengmk2",
    "followers_url": "https://api.github.com/users/fengmk2/followers",
    "following_url": "https://api.github.com/users/fengmk2/following{/other_user}",
    "gists_url": "https://api.github.com/users/fengmk2/gists{/gist_id}",
    "starred_url": "https://api.github.com/users/fengmk2/starred{/owner}{/repo}",
    "subscriptions_url": "https://api.github.com/users/fengmk2/subscriptions",
    "organizations_url": "https://api.github.com/users/fengmk2/orgs",
    "repos_url": "https://api.github.com/users/fengmk2/repos",
    "events_url": "https://api.github.com/users/fengmk2/events{/privacy}",
    "received_events_url": "https://api.github.com/users/fengmk2/received_events",
    "type": "User",
    "site_admin": false
  },
  "created_at": "2013-05-16T09:41:19Z",
  "updated_at": "2013-05-16T09:41:19Z",
  "body": "手动合并了。"
}
]
