[
{
  "url": "https://api.github.com/repos/square/javapoet/issues/comments/156622726",
  "html_url": "https://github.com/square/javapoet/issues/366#issuecomment-156622726",
  "issue_url": "https://api.github.com/repos/square/javapoet/issues/366",
  "id": 156622726,
  "user": {
    "login": "swankjesse",
    "id": 133019,
    "avatar_url": "https://avatars.githubusercontent.com/u/133019?v=3",
    "gravatar_id": "",
    "url": "https://api.github.com/users/swankjesse",
    "html_url": "https://github.com/swankjesse",
    "followers_url": "https://api.github.com/users/swankjesse/followers",
    "following_url": "https://api.github.com/users/swankjesse/following{/other_user}",
    "gists_url": "https://api.github.com/users/swankjesse/gists{/gist_id}",
    "starred_url": "https://api.github.com/users/swankjesse/starred{/owner}{/repo}",
    "subscriptions_url": "https://api.github.com/users/swankjesse/subscriptions",
    "organizations_url": "https://api.github.com/users/swankjesse/orgs",
    "repos_url": "https://api.github.com/users/swankjesse/repos",
    "events_url": "https://api.github.com/users/swankjesse/events{/privacy}",
    "received_events_url": "https://api.github.com/users/swankjesse/received_events",
    "type": "User",
    "site_admin": false
  },
  "created_at": "2015-11-14T04:00:28Z",
  "updated_at": "2015-11-14T04:00:28Z",
  "body": "@yrfselrahc I believe this is fixed in the latest JavaPoet."
}
]
