[
{
  "url": "https://api.github.com/repos/square/javapoet/issues/comments/66209886",
  "html_url": "https://github.com/square/javapoet/issues/123#issuecomment-66209886",
  "issue_url": "https://api.github.com/repos/square/javapoet/issues/123",
  "id": 66209886,
  "user": {
    "login": "swankjesse",
    "id": 133019,
    "avatar_url": "https://avatars.githubusercontent.com/u/133019?v=3",
    "gravatar_id": "",
    "url": "https://api.github.com/users/swankjesse",
    "html_url": "https://github.com/swankjesse",
    "followers_url": "https://api.github.com/users/swankjesse/followers",
    "following_url": "https://api.github.com/users/swankjesse/following{/other_user}",
    "gists_url": "https://api.github.com/users/swankjesse/gists{/gist_id}",
    "starred_url": "https://api.github.com/users/swankjesse/starred{/owner}{/repo}",
    "subscriptions_url": "https://api.github.com/users/swankjesse/subscriptions",
    "organizations_url": "https://api.github.com/users/swankjesse/orgs",
    "repos_url": "https://api.github.com/users/swankjesse/repos",
    "events_url": "https://api.github.com/users/swankjesse/events{/privacy}",
    "received_events_url": "https://api.github.com/users/swankjesse/received_events",
    "type": "User",
    "site_admin": false
  },
  "created_at": "2014-12-08T23:42:49Z",
  "updated_at": "2014-12-08T23:42:49Z",
  "body": "+1 for using MethodWriter for constructors. They're also the same types in the bytecode."
}
, {
  "url": "https://api.github.com/repos/square/javapoet/issues/comments/66213545",
  "html_url": "https://github.com/square/javapoet/issues/123#issuecomment-66213545",
  "issue_url": "https://api.github.com/repos/square/javapoet/issues/123",
  "id": 66213545,
  "user": {
    "login": "JakeWharton",
    "id": 66577,
    "avatar_url": "https://avatars.githubusercontent.com/u/66577?v=3",
    "gravatar_id": "",
    "url": "https://api.github.com/users/JakeWharton",
    "html_url": "https://github.com/JakeWharton",
    "followers_url": "https://api.github.com/users/JakeWharton/followers",
    "following_url": "https://api.github.com/users/JakeWharton/following{/other_user}",
    "gists_url": "https://api.github.com/users/JakeWharton/gists{/gist_id}",
    "starred_url": "https://api.github.com/users/JakeWharton/starred{/owner}{/repo}",
    "subscriptions_url": "https://api.github.com/users/JakeWharton/subscriptions",
    "organizations_url": "https://api.github.com/users/JakeWharton/orgs",
    "repos_url": "https://api.github.com/users/JakeWharton/repos",
    "events_url": "https://api.github.com/users/JakeWharton/events{/privacy}",
    "received_events_url": "https://api.github.com/users/JakeWharton/received_events",
    "type": "User",
    "site_admin": false
  },
  "created_at": "2014-12-09T00:17:17Z",
  "updated_at": "2014-12-09T00:17:17Z",
  "body": "Would you do the same if we had a builder-based API? Getting a `MethodWriter` from a factory called `addConstructor` is slightly different than passing a `MethodWriter` to an `addConstructor(MethodWriter)`. At that point I think I'd create `ExecutableWriter` or `MethodishthingWriter` from which both could extend purely for better type-safety."
}
, {
  "url": "https://api.github.com/repos/square/javapoet/issues/comments/66213626",
  "html_url": "https://github.com/square/javapoet/issues/123#issuecomment-66213626",
  "issue_url": "https://api.github.com/repos/square/javapoet/issues/123",
  "id": 66213626,
  "user": {
    "login": "kenzierocks",
    "id": 2093023,
    "avatar_url": "https://avatars.githubusercontent.com/u/2093023?v=3",
    "gravatar_id": "",
    "url": "https://api.github.com/users/kenzierocks",
    "html_url": "https://github.com/kenzierocks",
    "followers_url": "https://api.github.com/users/kenzierocks/followers",
    "following_url": "https://api.github.com/users/kenzierocks/following{/other_user}",
    "gists_url": "https://api.github.com/users/kenzierocks/gists{/gist_id}",
    "starred_url": "https://api.github.com/users/kenzierocks/starred{/owner}{/repo}",
    "subscriptions_url": "https://api.github.com/users/kenzierocks/subscriptions",
    "organizations_url": "https://api.github.com/users/kenzierocks/orgs",
    "repos_url": "https://api.github.com/users/kenzierocks/repos",
    "events_url": "https://api.github.com/users/kenzierocks/events{/privacy}",
    "received_events_url": "https://api.github.com/users/kenzierocks/received_events",
    "type": "User",
    "site_admin": false
  },
  "created_at": "2014-12-09T00:18:06Z",
  "updated_at": "2014-12-09T00:18:06Z",
  "body": "`CallableWriter`?"
}
, {
  "url": "https://api.github.com/repos/square/javapoet/issues/comments/66240029",
  "html_url": "https://github.com/square/javapoet/issues/123#issuecomment-66240029",
  "issue_url": "https://api.github.com/repos/square/javapoet/issues/123",
  "id": 66240029,
  "user": {
    "login": "JakeWharton",
    "id": 66577,
    "avatar_url": "https://avatars.githubusercontent.com/u/66577?v=3",
    "gravatar_id": "",
    "url": "https://api.github.com/users/JakeWharton",
    "html_url": "https://github.com/JakeWharton",
    "followers_url": "https://api.github.com/users/JakeWharton/followers",
    "following_url": "https://api.github.com/users/JakeWharton/following{/other_user}",
    "gists_url": "https://api.github.com/users/JakeWharton/gists{/gist_id}",
    "starred_url": "https://api.github.com/users/JakeWharton/starred{/owner}{/repo}",
    "subscriptions_url": "https://api.github.com/users/JakeWharton/subscriptions",
    "organizations_url": "https://api.github.com/users/JakeWharton/orgs",
    "repos_url": "https://api.github.com/users/JakeWharton/repos",
    "events_url": "https://api.github.com/users/JakeWharton/events{/privacy}",
    "received_events_url": "https://api.github.com/users/JakeWharton/received_events",
    "type": "User",
    "site_admin": false
  },
  "created_at": "2014-12-09T06:21:54Z",
  "updated_at": "2014-12-09T06:21:54Z",
  "body": "I implemented this earlier but haven't submitted a PR yet. Still want to think on it a bit.\r\n\r\nhttps://github.com/square/javawriter/compare/jw/consolidate-ctor-and-method-writers"
}
]
