[
{
  "url": "https://api.github.com/repos/yahoo/flux-router-component/issues/comments/61511224",
  "html_url": "https://github.com/yahoo/flux-router-component/issues/33#issuecomment-61511224",
  "issue_url": "https://api.github.com/repos/yahoo/flux-router-component/issues/33",
  "id": 61511224,
  "user": {
    "login": "lingyan",
    "id": 1414235,
    "avatar_url": "https://avatars.githubusercontent.com/u/1414235?v=3",
    "gravatar_id": "",
    "url": "https://api.github.com/users/lingyan",
    "html_url": "https://github.com/lingyan",
    "followers_url": "https://api.github.com/users/lingyan/followers",
    "following_url": "https://api.github.com/users/lingyan/following{/other_user}",
    "gists_url": "https://api.github.com/users/lingyan/gists{/gist_id}",
    "starred_url": "https://api.github.com/users/lingyan/starred{/owner}{/repo}",
    "subscriptions_url": "https://api.github.com/users/lingyan/subscriptions",
    "organizations_url": "https://api.github.com/users/lingyan/orgs",
    "repos_url": "https://api.github.com/users/lingyan/repos",
    "events_url": "https://api.github.com/users/lingyan/events{/privacy}",
    "received_events_url": "https://api.github.com/users/lingyan/received_events",
    "type": "User",
    "site_admin": false
  },
  "created_at": "2014-11-03T17:07:20Z",
  "updated_at": "2014-11-03T17:07:20Z",
  "body": "Thanks @roblg!\r\n\r\nWe saw the same issue and thought about using peer dependency too, except for when we tried using peer dependency on a previous project (not related to React), we had seen issues.  @mridgway @redonkulus, do you guys remember what the issues were exactly?\r\n"
}
, {
  "url": "https://api.github.com/repos/yahoo/flux-router-component/issues/comments/61573600",
  "html_url": "https://github.com/yahoo/flux-router-component/issues/33#issuecomment-61573600",
  "issue_url": "https://api.github.com/repos/yahoo/flux-router-component/issues/33",
  "id": 61573600,
  "user": {
    "login": "redonkulus",
    "id": 193272,
    "avatar_url": "https://avatars.githubusercontent.com/u/193272?v=3",
    "gravatar_id": "",
    "url": "https://api.github.com/users/redonkulus",
    "html_url": "https://github.com/redonkulus",
    "followers_url": "https://api.github.com/users/redonkulus/followers",
    "following_url": "https://api.github.com/users/redonkulus/following{/other_user}",
    "gists_url": "https://api.github.com/users/redonkulus/gists{/gist_id}",
    "starred_url": "https://api.github.com/users/redonkulus/starred{/owner}{/repo}",
    "subscriptions_url": "https://api.github.com/users/redonkulus/subscriptions",
    "organizations_url": "https://api.github.com/users/redonkulus/orgs",
    "repos_url": "https://api.github.com/users/redonkulus/repos",
    "events_url": "https://api.github.com/users/redonkulus/events{/privacy}",
    "received_events_url": "https://api.github.com/users/redonkulus/received_events",
    "type": "User",
    "site_admin": false
  },
  "created_at": "2014-11-04T00:16:34Z",
  "updated_at": "2014-11-04T00:16:34Z",
  "body": "I don't recall the exact issues, they were always hard to debug. I did some research and seems like other projects are following a similar approach. "
}
, {
  "url": "https://api.github.com/repos/yahoo/flux-router-component/issues/comments/68099957",
  "html_url": "https://github.com/yahoo/flux-router-component/issues/33#issuecomment-68099957",
  "issue_url": "https://api.github.com/repos/yahoo/flux-router-component/issues/33",
  "id": 68099957,
  "user": {
    "login": "brigand",
    "id": 936069,
    "avatar_url": "https://avatars.githubusercontent.com/u/936069?v=3",
    "gravatar_id": "",
    "url": "https://api.github.com/users/brigand",
    "html_url": "https://github.com/brigand",
    "followers_url": "https://api.github.com/users/brigand/followers",
    "following_url": "https://api.github.com/users/brigand/following{/other_user}",
    "gists_url": "https://api.github.com/users/brigand/gists{/gist_id}",
    "starred_url": "https://api.github.com/users/brigand/starred{/owner}{/repo}",
    "subscriptions_url": "https://api.github.com/users/brigand/subscriptions",
    "organizations_url": "https://api.github.com/users/brigand/orgs",
    "repos_url": "https://api.github.com/users/brigand/repos",
    "events_url": "https://api.github.com/users/brigand/events{/privacy}",
    "received_events_url": "https://api.github.com/users/brigand/received_events",
    "type": "User",
    "site_admin": false
  },
  "created_at": "2014-12-25T11:21:15Z",
  "updated_at": "2014-12-25T11:21:15Z",
  "body": "It makes little difference, the important part is declaring compatible React versions for each release, so people know when they can upgrade flux-router-component and when they can upgrade React.\r\n\r\nnpm doesn't do a great job of helping with this (there's no way to say 'give me flux-router-component latest compatible with 0.12.1')"
}
, {
  "url": "https://api.github.com/repos/yahoo/flux-router-component/issues/comments/71766045",
  "html_url": "https://github.com/yahoo/flux-router-component/issues/33#issuecomment-71766045",
  "issue_url": "https://api.github.com/repos/yahoo/flux-router-component/issues/33",
  "id": 71766045,
  "user": {
    "login": "peleteiro",
    "id": 822,
    "avatar_url": "https://avatars.githubusercontent.com/u/822?v=3",
    "gravatar_id": "",
    "url": "https://api.github.com/users/peleteiro",
    "html_url": "https://github.com/peleteiro",
    "followers_url": "https://api.github.com/users/peleteiro/followers",
    "following_url": "https://api.github.com/users/peleteiro/following{/other_user}",
    "gists_url": "https://api.github.com/users/peleteiro/gists{/gist_id}",
    "starred_url": "https://api.github.com/users/peleteiro/starred{/owner}{/repo}",
    "subscriptions_url": "https://api.github.com/users/peleteiro/subscriptions",
    "organizations_url": "https://api.github.com/users/peleteiro/orgs",
    "repos_url": "https://api.github.com/users/peleteiro/repos",
    "events_url": "https://api.github.com/users/peleteiro/events{/privacy}",
    "received_events_url": "https://api.github.com/users/peleteiro/received_events",
    "type": "User",
    "site_admin": false
  },
  "created_at": "2015-01-28T01:39:31Z",
  "updated_at": "2015-01-28T01:39:37Z",
  "body": "+1\r\n\r\nIt's a good pratice for a react library to have it as peer dependency. It saves us a lot of time and bugs.\r\n\r\nhttps://github.com/facebook/react/issues/2402"
}
, {
  "url": "https://api.github.com/repos/yahoo/flux-router-component/issues/comments/71768073",
  "html_url": "https://github.com/yahoo/flux-router-component/issues/33#issuecomment-71768073",
  "issue_url": "https://api.github.com/repos/yahoo/flux-router-component/issues/33",
  "id": 71768073,
  "user": {
    "login": "brigand",
    "id": 936069,
    "avatar_url": "https://avatars.githubusercontent.com/u/936069?v=3",
    "gravatar_id": "",
    "url": "https://api.github.com/users/brigand",
    "html_url": "https://github.com/brigand",
    "followers_url": "https://api.github.com/users/brigand/followers",
    "following_url": "https://api.github.com/users/brigand/following{/other_user}",
    "gists_url": "https://api.github.com/users/brigand/gists{/gist_id}",
    "starred_url": "https://api.github.com/users/brigand/starred{/owner}{/repo}",
    "subscriptions_url": "https://api.github.com/users/brigand/subscriptions",
    "organizations_url": "https://api.github.com/users/brigand/orgs",
    "repos_url": "https://api.github.com/users/brigand/repos",
    "events_url": "https://api.github.com/users/brigand/events{/privacy}",
    "received_events_url": "https://api.github.com/users/brigand/received_events",
    "type": "User",
    "site_admin": false
  },
  "created_at": "2015-01-28T02:00:47Z",
  "updated_at": "2015-01-28T02:02:54Z",
  "body": "To clarify my previous comment, it makes little difference whether you make it a peerDependency or just don't list it in the dependencies.\r\n\r\nIf you put in the readme a mapping of flux-router-component releases to react releases it'd be much more useful than a half-baked feature like peerDependencies.\r\n\r\n\r\nreact    | flux-router-component\r\n----------|--------------------------\r\n0.12.x  |  0.5.x\r\n0.11.x  |  <0.5\r\n<0.11  |  not compatible\r\n\r\n<sup>numbers above made up for example purposes</sup>"
}
, {
  "url": "https://api.github.com/repos/yahoo/flux-router-component/issues/comments/71771325",
  "html_url": "https://github.com/yahoo/flux-router-component/issues/33#issuecomment-71771325",
  "issue_url": "https://api.github.com/repos/yahoo/flux-router-component/issues/33",
  "id": 71771325,
  "user": {
    "login": "lingyan",
    "id": 1414235,
    "avatar_url": "https://avatars.githubusercontent.com/u/1414235?v=3",
    "gravatar_id": "",
    "url": "https://api.github.com/users/lingyan",
    "html_url": "https://github.com/lingyan",
    "followers_url": "https://api.github.com/users/lingyan/followers",
    "following_url": "https://api.github.com/users/lingyan/following{/other_user}",
    "gists_url": "https://api.github.com/users/lingyan/gists{/gist_id}",
    "starred_url": "https://api.github.com/users/lingyan/starred{/owner}{/repo}",
    "subscriptions_url": "https://api.github.com/users/lingyan/subscriptions",
    "organizations_url": "https://api.github.com/users/lingyan/orgs",
    "repos_url": "https://api.github.com/users/lingyan/repos",
    "events_url": "https://api.github.com/users/lingyan/events{/privacy}",
    "received_events_url": "https://api.github.com/users/lingyan/received_events",
    "type": "User",
    "site_admin": false
  },
  "created_at": "2015-01-28T02:38:07Z",
  "updated_at": "2015-01-28T03:05:17Z",
  "body": "@brigand Agree with peerDependencies.  I can add a table like you proposed to the README.  The source of truth is always in the package.json."
}
, {
  "url": "https://api.github.com/repos/yahoo/flux-router-component/issues/comments/71773588",
  "html_url": "https://github.com/yahoo/flux-router-component/issues/33#issuecomment-71773588",
  "issue_url": "https://api.github.com/repos/yahoo/flux-router-component/issues/33",
  "id": 71773588,
  "user": {
    "login": "lingyan",
    "id": 1414235,
    "avatar_url": "https://avatars.githubusercontent.com/u/1414235?v=3",
    "gravatar_id": "",
    "url": "https://api.github.com/users/lingyan",
    "html_url": "https://github.com/lingyan",
    "followers_url": "https://api.github.com/users/lingyan/followers",
    "following_url": "https://api.github.com/users/lingyan/following{/other_user}",
    "gists_url": "https://api.github.com/users/lingyan/gists{/gist_id}",
    "starred_url": "https://api.github.com/users/lingyan/starred{/owner}{/repo}",
    "subscriptions_url": "https://api.github.com/users/lingyan/subscriptions",
    "organizations_url": "https://api.github.com/users/lingyan/orgs",
    "repos_url": "https://api.github.com/users/lingyan/repos",
    "events_url": "https://api.github.com/users/lingyan/events{/privacy}",
    "received_events_url": "https://api.github.com/users/lingyan/received_events",
    "type": "User",
    "site_admin": false
  },
  "created_at": "2015-01-28T03:05:43Z",
  "updated_at": "2015-01-28T03:05:43Z",
  "body": "@brigand Added, https://github.com/yahoo/flux-router-component/blob/master/README.md#compatible-react-versions"
}
, {
  "url": "https://api.github.com/repos/yahoo/flux-router-component/issues/comments/71780108",
  "html_url": "https://github.com/yahoo/flux-router-component/issues/33#issuecomment-71780108",
  "issue_url": "https://api.github.com/repos/yahoo/flux-router-component/issues/33",
  "id": 71780108,
  "user": {
    "login": "peleteiro",
    "id": 822,
    "avatar_url": "https://avatars.githubusercontent.com/u/822?v=3",
    "gravatar_id": "",
    "url": "https://api.github.com/users/peleteiro",
    "html_url": "https://github.com/peleteiro",
    "followers_url": "https://api.github.com/users/peleteiro/followers",
    "following_url": "https://api.github.com/users/peleteiro/following{/other_user}",
    "gists_url": "https://api.github.com/users/peleteiro/gists{/gist_id}",
    "starred_url": "https://api.github.com/users/peleteiro/starred{/owner}{/repo}",
    "subscriptions_url": "https://api.github.com/users/peleteiro/subscriptions",
    "organizations_url": "https://api.github.com/users/peleteiro/orgs",
    "repos_url": "https://api.github.com/users/peleteiro/repos",
    "events_url": "https://api.github.com/users/peleteiro/events{/privacy}",
    "received_events_url": "https://api.github.com/users/peleteiro/received_events",
    "type": "User",
    "site_admin": false
  },
  "created_at": "2015-01-28T04:38:46Z",
  "updated_at": "2015-01-28T04:41:49Z",
  "body": "It makes a lot diference. flux-router-component cannot use a different React that my app uses, it should use the exactly same one. It makes it a peerDependency.\r\n\r\nIf you, like me, uses flux-router-component on the server AND client; You gonna have trouble if you update react and not reinstall flux-router-component. Like I just did today and lost 4 hours. It runs a different version on the server (the one npm installed just for flux-router-component) and on the client uses the new you installed for your project. Making it a peerDependency (with version boundaries and so) solves it.\r\n\r\nIt's a recommendation from React.js guys for libraries and every other lib/component that I'm aware of uses React this way.\r\n\r\nPlease, take in consideration this issue. It's not about peerDependencies being a good feature, but about being the best one available.\r\n"
}
, {
  "url": "https://api.github.com/repos/yahoo/flux-router-component/issues/comments/71789703",
  "html_url": "https://github.com/yahoo/flux-router-component/issues/33#issuecomment-71789703",
  "issue_url": "https://api.github.com/repos/yahoo/flux-router-component/issues/33",
  "id": 71789703,
  "user": {
    "login": "lingyan",
    "id": 1414235,
    "avatar_url": "https://avatars.githubusercontent.com/u/1414235?v=3",
    "gravatar_id": "",
    "url": "https://api.github.com/users/lingyan",
    "html_url": "https://github.com/lingyan",
    "followers_url": "https://api.github.com/users/lingyan/followers",
    "following_url": "https://api.github.com/users/lingyan/following{/other_user}",
    "gists_url": "https://api.github.com/users/lingyan/gists{/gist_id}",
    "starred_url": "https://api.github.com/users/lingyan/starred{/owner}{/repo}",
    "subscriptions_url": "https://api.github.com/users/lingyan/subscriptions",
    "organizations_url": "https://api.github.com/users/lingyan/orgs",
    "repos_url": "https://api.github.com/users/lingyan/repos",
    "events_url": "https://api.github.com/users/lingyan/events{/privacy}",
    "received_events_url": "https://api.github.com/users/lingyan/received_events",
    "type": "User",
    "site_admin": false
  },
  "created_at": "2015-01-28T06:57:20Z",
  "updated_at": "2015-01-28T06:57:32Z",
  "body": "@peleteiro  I am digging more into the issues we might've had with peer dependencies in the past, to see if those were significant enough to stop this change.  I hope they are not.  Will get back to you soon."
}
, {
  "url": "https://api.github.com/repos/yahoo/flux-router-component/issues/comments/71982452",
  "html_url": "https://github.com/yahoo/flux-router-component/issues/33#issuecomment-71982452",
  "issue_url": "https://api.github.com/repos/yahoo/flux-router-component/issues/33",
  "id": 71982452,
  "user": {
    "login": "lingyan",
    "id": 1414235,
    "avatar_url": "https://avatars.githubusercontent.com/u/1414235?v=3",
    "gravatar_id": "",
    "url": "https://api.github.com/users/lingyan",
    "html_url": "https://github.com/lingyan",
    "followers_url": "https://api.github.com/users/lingyan/followers",
    "following_url": "https://api.github.com/users/lingyan/following{/other_user}",
    "gists_url": "https://api.github.com/users/lingyan/gists{/gist_id}",
    "starred_url": "https://api.github.com/users/lingyan/starred{/owner}{/repo}",
    "subscriptions_url": "https://api.github.com/users/lingyan/subscriptions",
    "organizations_url": "https://api.github.com/users/lingyan/orgs",
    "repos_url": "https://api.github.com/users/lingyan/repos",
    "events_url": "https://api.github.com/users/lingyan/events{/privacy}",
    "received_events_url": "https://api.github.com/users/lingyan/received_events",
    "type": "User",
    "site_admin": false
  },
  "created_at": "2015-01-29T07:37:41Z",
  "updated_at": "2015-01-30T23:24:26Z",
  "body": "@peleteiro \r\n\r\nOk. We have seen issue with npm shrinkwrap, when there is a peer dependency declared (say react), but its parent module does not have it as dependency.  Then the issue is npm install still installs react as an extraneous package (which is actually a problem).  But then when you run npm shrinkwrap, it will fail on extraneous packages.\r\n\r\nThis might not be a big issue in our case, as very likely the app will include react as dependency.  But then there will be more hairy issues when it comes to npm link and other things :(   Check out this super-long debate npm issue about deprecating peerDependencies: https://github.com/npm/npm/issues/5080  One of the comments in there (https://github.com/npm/npm/issues/5080#issuecomment-40556757) makes most sense to me.  But not sure where that thread will eventually go and whether there will be any action item coming out of it.\r\n\r\nThere are suggestions about using dependencies and npm dedupe in that thread as well.  But I am not 100% sure if that is the magic bullet either."
}
, {
  "url": "https://api.github.com/repos/yahoo/flux-router-component/issues/comments/72898156",
  "html_url": "https://github.com/yahoo/flux-router-component/issues/33#issuecomment-72898156",
  "issue_url": "https://api.github.com/repos/yahoo/flux-router-component/issues/33",
  "id": 72898156,
  "user": {
    "login": "peleteiro",
    "id": 822,
    "avatar_url": "https://avatars.githubusercontent.com/u/822?v=3",
    "gravatar_id": "",
    "url": "https://api.github.com/users/peleteiro",
    "html_url": "https://github.com/peleteiro",
    "followers_url": "https://api.github.com/users/peleteiro/followers",
    "following_url": "https://api.github.com/users/peleteiro/following{/other_user}",
    "gists_url": "https://api.github.com/users/peleteiro/gists{/gist_id}",
    "starred_url": "https://api.github.com/users/peleteiro/starred{/owner}{/repo}",
    "subscriptions_url": "https://api.github.com/users/peleteiro/subscriptions",
    "organizations_url": "https://api.github.com/users/peleteiro/orgs",
    "repos_url": "https://api.github.com/users/peleteiro/repos",
    "events_url": "https://api.github.com/users/peleteiro/events{/privacy}",
    "received_events_url": "https://api.github.com/users/peleteiro/received_events",
    "type": "User",
    "site_admin": false
  },
  "created_at": "2015-02-04T17:26:13Z",
  "updated_at": "2015-02-04T17:26:13Z",
  "body": "I updated my npm modules today and I started to get an error: Cannot read property 'firstChild' of undefined.\r\n\r\nIt was flux-router-component having it's own version of React again.\r\n\r\nhttp://stackoverflow.com/questions/27153166/typeerror-when-using-react-cannot-read-property-firstchild-of-undefined\r\n\r\n`rm -rf node_modules/flux-router-component/node_modules/react` will fix it.\r\n "
}
, {
  "url": "https://api.github.com/repos/yahoo/flux-router-component/issues/comments/72901150",
  "html_url": "https://github.com/yahoo/flux-router-component/issues/33#issuecomment-72901150",
  "issue_url": "https://api.github.com/repos/yahoo/flux-router-component/issues/33",
  "id": 72901150,
  "user": {
    "login": "lingyan",
    "id": 1414235,
    "avatar_url": "https://avatars.githubusercontent.com/u/1414235?v=3",
    "gravatar_id": "",
    "url": "https://api.github.com/users/lingyan",
    "html_url": "https://github.com/lingyan",
    "followers_url": "https://api.github.com/users/lingyan/followers",
    "following_url": "https://api.github.com/users/lingyan/following{/other_user}",
    "gists_url": "https://api.github.com/users/lingyan/gists{/gist_id}",
    "starred_url": "https://api.github.com/users/lingyan/starred{/owner}{/repo}",
    "subscriptions_url": "https://api.github.com/users/lingyan/subscriptions",
    "organizations_url": "https://api.github.com/users/lingyan/orgs",
    "repos_url": "https://api.github.com/users/lingyan/repos",
    "events_url": "https://api.github.com/users/lingyan/events{/privacy}",
    "received_events_url": "https://api.github.com/users/lingyan/received_events",
    "type": "User",
    "site_admin": false
  },
  "created_at": "2015-02-04T17:41:20Z",
  "updated_at": "2015-02-04T17:41:48Z",
  "body": "Urgh... that is frustrating.  Lets bite the bullet, see what other pandora's box it will open :)  I will file a PR."
}
, {
  "url": "https://api.github.com/repos/yahoo/flux-router-component/issues/comments/72902516",
  "html_url": "https://github.com/yahoo/flux-router-component/issues/33#issuecomment-72902516",
  "issue_url": "https://api.github.com/repos/yahoo/flux-router-component/issues/33",
  "id": 72902516,
  "user": {
    "login": "brigand",
    "id": 936069,
    "avatar_url": "https://avatars.githubusercontent.com/u/936069?v=3",
    "gravatar_id": "",
    "url": "https://api.github.com/users/brigand",
    "html_url": "https://github.com/brigand",
    "followers_url": "https://api.github.com/users/brigand/followers",
    "following_url": "https://api.github.com/users/brigand/following{/other_user}",
    "gists_url": "https://api.github.com/users/brigand/gists{/gist_id}",
    "starred_url": "https://api.github.com/users/brigand/starred{/owner}{/repo}",
    "subscriptions_url": "https://api.github.com/users/brigand/subscriptions",
    "organizations_url": "https://api.github.com/users/brigand/orgs",
    "repos_url": "https://api.github.com/users/brigand/repos",
    "events_url": "https://api.github.com/users/brigand/events{/privacy}",
    "received_events_url": "https://api.github.com/users/brigand/received_events",
    "type": "User",
    "site_admin": false
  },
  "created_at": "2015-02-04T17:48:15Z",
  "updated_at": "2015-02-04T17:48:15Z",
  "body": "I still think just leaving it out of the dependencies is the smartest move from a technical standpoint.  There's no gain to putting it in peerDependencies or dependencies, other than correctness and readability of package.json.\r\n\r\nWhen in doubt, don't break things imo. "
}
, {
  "url": "https://api.github.com/repos/yahoo/flux-router-component/issues/comments/72903267",
  "html_url": "https://github.com/yahoo/flux-router-component/issues/33#issuecomment-72903267",
  "issue_url": "https://api.github.com/repos/yahoo/flux-router-component/issues/33",
  "id": 72903267,
  "user": {
    "login": "jedireza",
    "id": 979929,
    "avatar_url": "https://avatars.githubusercontent.com/u/979929?v=3",
    "gravatar_id": "",
    "url": "https://api.github.com/users/jedireza",
    "html_url": "https://github.com/jedireza",
    "followers_url": "https://api.github.com/users/jedireza/followers",
    "following_url": "https://api.github.com/users/jedireza/following{/other_user}",
    "gists_url": "https://api.github.com/users/jedireza/gists{/gist_id}",
    "starred_url": "https://api.github.com/users/jedireza/starred{/owner}{/repo}",
    "subscriptions_url": "https://api.github.com/users/jedireza/subscriptions",
    "organizations_url": "https://api.github.com/users/jedireza/orgs",
    "repos_url": "https://api.github.com/users/jedireza/repos",
    "events_url": "https://api.github.com/users/jedireza/events{/privacy}",
    "received_events_url": "https://api.github.com/users/jedireza/received_events",
    "type": "User",
    "site_admin": false
  },
  "created_at": "2015-02-04T17:52:15Z",
  "updated_at": "2015-02-04T17:52:45Z",
  "body": " > other than correctness and readability of package.json\r\n\r\nI think that's important.\r\n\r\nAlso, even if we put it in `peerDependencies` it'll probably end up in `devDependencies` so during continuous integration/deployment (for tests), it'll get installed. `peerDependencies` are not installed via `$ npm install`."
}
, {
  "url": "https://api.github.com/repos/yahoo/flux-router-component/issues/comments/72904188",
  "html_url": "https://github.com/yahoo/flux-router-component/issues/33#issuecomment-72904188",
  "issue_url": "https://api.github.com/repos/yahoo/flux-router-component/issues/33",
  "id": 72904188,
  "user": {
    "login": "brigand",
    "id": 936069,
    "avatar_url": "https://avatars.githubusercontent.com/u/936069?v=3",
    "gravatar_id": "",
    "url": "https://api.github.com/users/brigand",
    "html_url": "https://github.com/brigand",
    "followers_url": "https://api.github.com/users/brigand/followers",
    "following_url": "https://api.github.com/users/brigand/following{/other_user}",
    "gists_url": "https://api.github.com/users/brigand/gists{/gist_id}",
    "starred_url": "https://api.github.com/users/brigand/starred{/owner}{/repo}",
    "subscriptions_url": "https://api.github.com/users/brigand/subscriptions",
    "organizations_url": "https://api.github.com/users/brigand/orgs",
    "repos_url": "https://api.github.com/users/brigand/repos",
    "events_url": "https://api.github.com/users/brigand/events{/privacy}",
    "received_events_url": "https://api.github.com/users/brigand/received_events",
    "type": "User",
    "site_admin": false
  },
  "created_at": "2015-02-04T17:57:11Z",
  "updated_at": "2015-02-04T17:57:11Z",
  "body": "Understood, I guess we'll have to agree to disagree and hope for the best.\r\n"
}
, {
  "url": "https://api.github.com/repos/yahoo/flux-router-component/issues/comments/73083465",
  "html_url": "https://github.com/yahoo/flux-router-component/issues/33#issuecomment-73083465",
  "issue_url": "https://api.github.com/repos/yahoo/flux-router-component/issues/33",
  "id": 73083465,
  "user": {
    "login": "lingyan",
    "id": 1414235,
    "avatar_url": "https://avatars.githubusercontent.com/u/1414235?v=3",
    "gravatar_id": "",
    "url": "https://api.github.com/users/lingyan",
    "html_url": "https://github.com/lingyan",
    "followers_url": "https://api.github.com/users/lingyan/followers",
    "following_url": "https://api.github.com/users/lingyan/following{/other_user}",
    "gists_url": "https://api.github.com/users/lingyan/gists{/gist_id}",
    "starred_url": "https://api.github.com/users/lingyan/starred{/owner}{/repo}",
    "subscriptions_url": "https://api.github.com/users/lingyan/subscriptions",
    "organizations_url": "https://api.github.com/users/lingyan/orgs",
    "repos_url": "https://api.github.com/users/lingyan/repos",
    "events_url": "https://api.github.com/users/lingyan/events{/privacy}",
    "received_events_url": "https://api.github.com/users/lingyan/received_events",
    "type": "User",
    "site_admin": false
  },
  "created_at": "2015-02-05T17:01:48Z",
  "updated_at": "2015-02-05T17:01:48Z",
  "body": "0.5.8 released for addressing this issue: https://github.com/yahoo/flux-router-component/releases/tag/v0.5.8\r\n\r\nWe had to add react also to devDependencies to get unit tests to pass with npm 1.x, because npm 1.x does not install peerDependencies, while npm 2.x does."
}
]
