[
{
  "url": "https://api.github.com/repos/yahoo/flux-router-component/issues/comments/67226423",
  "html_url": "https://github.com/yahoo/flux-router-component/pull/55#issuecomment-67226423",
  "issue_url": "https://api.github.com/repos/yahoo/flux-router-component/issues/55",
  "id": 67226423,
  "user": {
    "login": "yahoocla",
    "id": 6155154,
    "avatar_url": "https://avatars.githubusercontent.com/u/6155154?v=3",
    "gravatar_id": "",
    "url": "https://api.github.com/users/yahoocla",
    "html_url": "https://github.com/yahoocla",
    "followers_url": "https://api.github.com/users/yahoocla/followers",
    "following_url": "https://api.github.com/users/yahoocla/following{/other_user}",
    "gists_url": "https://api.github.com/users/yahoocla/gists{/gist_id}",
    "starred_url": "https://api.github.com/users/yahoocla/starred{/owner}{/repo}",
    "subscriptions_url": "https://api.github.com/users/yahoocla/subscriptions",
    "organizations_url": "https://api.github.com/users/yahoocla/orgs",
    "repos_url": "https://api.github.com/users/yahoocla/repos",
    "events_url": "https://api.github.com/users/yahoocla/events{/privacy}",
    "received_events_url": "https://api.github.com/users/yahoocla/received_events",
    "type": "User",
    "site_admin": false
  },
  "created_at": "2014-12-16T20:30:15Z",
  "updated_at": "2014-12-16T20:30:15Z",
  "body": "CLA is valid!"
}
, {
  "url": "https://api.github.com/repos/yahoo/flux-router-component/issues/comments/67226684",
  "html_url": "https://github.com/yahoo/flux-router-component/pull/55#issuecomment-67226684",
  "issue_url": "https://api.github.com/repos/yahoo/flux-router-component/issues/55",
  "id": 67226684,
  "user": {
    "login": "coveralls",
    "id": 2354108,
    "avatar_url": "https://avatars.githubusercontent.com/u/2354108?v=3",
    "gravatar_id": "",
    "url": "https://api.github.com/users/coveralls",
    "html_url": "https://github.com/coveralls",
    "followers_url": "https://api.github.com/users/coveralls/followers",
    "following_url": "https://api.github.com/users/coveralls/following{/other_user}",
    "gists_url": "https://api.github.com/users/coveralls/gists{/gist_id}",
    "starred_url": "https://api.github.com/users/coveralls/starred{/owner}{/repo}",
    "subscriptions_url": "https://api.github.com/users/coveralls/subscriptions",
    "organizations_url": "https://api.github.com/users/coveralls/orgs",
    "repos_url": "https://api.github.com/users/coveralls/repos",
    "events_url": "https://api.github.com/users/coveralls/events{/privacy}",
    "received_events_url": "https://api.github.com/users/coveralls/received_events",
    "type": "User",
    "site_admin": false
  },
  "created_at": "2014-12-16T20:31:57Z",
  "updated_at": "2014-12-16T20:31:57Z",
  "body": "\n[![Coverage Status](https://coveralls.io/builds/1620998/badge)](https://coveralls.io/builds/1620998)\n\nCoverage remained the same when pulling **a6fd993ff09ccc5f2c17d123c4b6b077342c9005 on emptyHash** into **421f2c28407f201a3a0e9952827f688b605a1ab8 on master**.\n"
}
, {
  "url": "https://api.github.com/repos/yahoo/flux-router-component/issues/comments/67237553",
  "html_url": "https://github.com/yahoo/flux-router-component/pull/55#issuecomment-67237553",
  "issue_url": "https://api.github.com/repos/yahoo/flux-router-component/issues/55",
  "id": 67237553,
  "user": {
    "login": "redonkulus",
    "id": 193272,
    "avatar_url": "https://avatars.githubusercontent.com/u/193272?v=3",
    "gravatar_id": "",
    "url": "https://api.github.com/users/redonkulus",
    "html_url": "https://github.com/redonkulus",
    "followers_url": "https://api.github.com/users/redonkulus/followers",
    "following_url": "https://api.github.com/users/redonkulus/following{/other_user}",
    "gists_url": "https://api.github.com/users/redonkulus/gists{/gist_id}",
    "starred_url": "https://api.github.com/users/redonkulus/starred{/owner}{/repo}",
    "subscriptions_url": "https://api.github.com/users/redonkulus/subscriptions",
    "organizations_url": "https://api.github.com/users/redonkulus/orgs",
    "repos_url": "https://api.github.com/users/redonkulus/repos",
    "events_url": "https://api.github.com/users/redonkulus/events{/privacy}",
    "received_events_url": "https://api.github.com/users/redonkulus/received_events",
    "type": "User",
    "site_admin": false
  },
  "created_at": "2014-12-16T21:43:06Z",
  "updated_at": "2014-12-16T21:43:06Z",
  "body": ":shipit: "
}
]
