[
{
  "url": "https://api.github.com/repos/facebook/hhvm/issues/comments/61371343",
  "html_url": "https://github.com/facebook/hhvm/pull/4113#issuecomment-61371343",
  "issue_url": "https://api.github.com/repos/facebook/hhvm/issues/4113",
  "id": 61371343,
  "user": {
    "login": "facebook-github-bot",
    "id": 6422482,
    "avatar_url": "https://avatars.githubusercontent.com/u/6422482?v=3",
    "gravatar_id": "",
    "url": "https://api.github.com/users/facebook-github-bot",
    "html_url": "https://github.com/facebook-github-bot",
    "followers_url": "https://api.github.com/users/facebook-github-bot/followers",
    "following_url": "https://api.github.com/users/facebook-github-bot/following{/other_user}",
    "gists_url": "https://api.github.com/users/facebook-github-bot/gists{/gist_id}",
    "starred_url": "https://api.github.com/users/facebook-github-bot/starred{/owner}{/repo}",
    "subscriptions_url": "https://api.github.com/users/facebook-github-bot/subscriptions",
    "organizations_url": "https://api.github.com/users/facebook-github-bot/orgs",
    "repos_url": "https://api.github.com/users/facebook-github-bot/repos",
    "events_url": "https://api.github.com/users/facebook-github-bot/events{/privacy}",
    "received_events_url": "https://api.github.com/users/facebook-github-bot/received_events",
    "type": "User",
    "site_admin": false
  },
  "created_at": "2014-11-01T15:18:22Z",
  "updated_at": "2014-11-01T15:18:22Z",
  "body": "This pull request has been imported into Phabricator, and discussion and review of the diff will take place at https://reviews.facebook.net/D28173"
}
, {
  "url": "https://api.github.com/repos/facebook/hhvm/issues/comments/61459447",
  "html_url": "https://github.com/facebook/hhvm/pull/4113#issuecomment-61459447",
  "issue_url": "https://api.github.com/repos/facebook/hhvm/issues/4113",
  "id": 61459447,
  "user": {
    "login": "reeze",
    "id": 14658,
    "avatar_url": "https://avatars.githubusercontent.com/u/14658?v=3",
    "gravatar_id": "",
    "url": "https://api.github.com/users/reeze",
    "html_url": "https://github.com/reeze",
    "followers_url": "https://api.github.com/users/reeze/followers",
    "following_url": "https://api.github.com/users/reeze/following{/other_user}",
    "gists_url": "https://api.github.com/users/reeze/gists{/gist_id}",
    "starred_url": "https://api.github.com/users/reeze/starred{/owner}{/repo}",
    "subscriptions_url": "https://api.github.com/users/reeze/subscriptions",
    "organizations_url": "https://api.github.com/users/reeze/orgs",
    "repos_url": "https://api.github.com/users/reeze/repos",
    "events_url": "https://api.github.com/users/reeze/events{/privacy}",
    "received_events_url": "https://api.github.com/users/reeze/received_events",
    "type": "User",
    "site_admin": false
  },
  "created_at": "2014-11-03T10:22:18Z",
  "updated_at": "2014-11-03T10:22:18Z",
  "body": "Will it works in Repo mode and JIT?"
}
, {
  "url": "https://api.github.com/repos/facebook/hhvm/issues/comments/61467821",
  "html_url": "https://github.com/facebook/hhvm/pull/4113#issuecomment-61467821",
  "issue_url": "https://api.github.com/repos/facebook/hhvm/issues/4113",
  "id": 61467821,
  "user": {
    "login": "marcioAlmada",
    "id": 227395,
    "avatar_url": "https://avatars.githubusercontent.com/u/227395?v=3",
    "gravatar_id": "",
    "url": "https://api.github.com/users/marcioAlmada",
    "html_url": "https://github.com/marcioAlmada",
    "followers_url": "https://api.github.com/users/marcioAlmada/followers",
    "following_url": "https://api.github.com/users/marcioAlmada/following{/other_user}",
    "gists_url": "https://api.github.com/users/marcioAlmada/gists{/gist_id}",
    "starred_url": "https://api.github.com/users/marcioAlmada/starred{/owner}{/repo}",
    "subscriptions_url": "https://api.github.com/users/marcioAlmada/subscriptions",
    "organizations_url": "https://api.github.com/users/marcioAlmada/orgs",
    "repos_url": "https://api.github.com/users/marcioAlmada/repos",
    "events_url": "https://api.github.com/users/marcioAlmada/events{/privacy}",
    "received_events_url": "https://api.github.com/users/marcioAlmada/received_events",
    "type": "User",
    "site_admin": false
  },
  "created_at": "2014-11-03T11:52:25Z",
  "updated_at": "2014-11-03T11:52:37Z",
  "body": "hey @reeze :) please look at the internal phabricator issue ↑ created by @facebook-github-bot. We still need to patch `hhbc-translator.cpp`."
}
, {
  "url": "https://api.github.com/repos/facebook/hhvm/issues/comments/61933488",
  "html_url": "https://github.com/facebook/hhvm/pull/4113#issuecomment-61933488",
  "issue_url": "https://api.github.com/repos/facebook/hhvm/issues/4113",
  "id": 61933488,
  "user": {
    "login": "reeze",
    "id": 14658,
    "avatar_url": "https://avatars.githubusercontent.com/u/14658?v=3",
    "gravatar_id": "",
    "url": "https://api.github.com/users/reeze",
    "html_url": "https://github.com/reeze",
    "followers_url": "https://api.github.com/users/reeze/followers",
    "following_url": "https://api.github.com/users/reeze/following{/other_user}",
    "gists_url": "https://api.github.com/users/reeze/gists{/gist_id}",
    "starred_url": "https://api.github.com/users/reeze/starred{/owner}{/repo}",
    "subscriptions_url": "https://api.github.com/users/reeze/subscriptions",
    "organizations_url": "https://api.github.com/users/reeze/orgs",
    "repos_url": "https://api.github.com/users/reeze/repos",
    "events_url": "https://api.github.com/users/reeze/events{/privacy}",
    "received_events_url": "https://api.github.com/users/reeze/received_events",
    "type": "User",
    "site_admin": false
  },
  "created_at": "2014-11-06T06:38:28Z",
  "updated_at": "2014-11-06T06:38:28Z",
  "body": "Ah, there already a discussion about it :)  :+1: "
}
, {
  "url": "https://api.github.com/repos/facebook/hhvm/issues/comments/63136655",
  "html_url": "https://github.com/facebook/hhvm/pull/4113#issuecomment-63136655",
  "issue_url": "https://api.github.com/repos/facebook/hhvm/issues/4113",
  "id": 63136655,
  "user": {
    "login": "JoelMarcey",
    "id": 3757713,
    "avatar_url": "https://avatars.githubusercontent.com/u/3757713?v=3",
    "gravatar_id": "",
    "url": "https://api.github.com/users/JoelMarcey",
    "html_url": "https://github.com/JoelMarcey",
    "followers_url": "https://api.github.com/users/JoelMarcey/followers",
    "following_url": "https://api.github.com/users/JoelMarcey/following{/other_user}",
    "gists_url": "https://api.github.com/users/JoelMarcey/gists{/gist_id}",
    "starred_url": "https://api.github.com/users/JoelMarcey/starred{/owner}{/repo}",
    "subscriptions_url": "https://api.github.com/users/JoelMarcey/subscriptions",
    "organizations_url": "https://api.github.com/users/JoelMarcey/orgs",
    "repos_url": "https://api.github.com/users/JoelMarcey/repos",
    "events_url": "https://api.github.com/users/JoelMarcey/events{/privacy}",
    "received_events_url": "https://api.github.com/users/JoelMarcey/received_events",
    "type": "User",
    "site_admin": false
  },
  "created_at": "2014-11-14T22:06:04Z",
  "updated_at": "2014-11-14T22:06:04Z",
  "body": "@marcioAlmada Friendly ping on the requested changes on your pull request. See the comments in there. Thanks!"
}
, {
  "url": "https://api.github.com/repos/facebook/hhvm/issues/comments/63842730",
  "html_url": "https://github.com/facebook/hhvm/pull/4113#issuecomment-63842730",
  "issue_url": "https://api.github.com/repos/facebook/hhvm/issues/4113",
  "id": 63842730,
  "user": {
    "login": "paulbiss",
    "id": 1039792,
    "avatar_url": "https://avatars.githubusercontent.com/u/1039792?v=3",
    "gravatar_id": "",
    "url": "https://api.github.com/users/paulbiss",
    "html_url": "https://github.com/paulbiss",
    "followers_url": "https://api.github.com/users/paulbiss/followers",
    "following_url": "https://api.github.com/users/paulbiss/following{/other_user}",
    "gists_url": "https://api.github.com/users/paulbiss/gists{/gist_id}",
    "starred_url": "https://api.github.com/users/paulbiss/starred{/owner}{/repo}",
    "subscriptions_url": "https://api.github.com/users/paulbiss/subscriptions",
    "organizations_url": "https://api.github.com/users/paulbiss/orgs",
    "repos_url": "https://api.github.com/users/paulbiss/repos",
    "events_url": "https://api.github.com/users/paulbiss/events{/privacy}",
    "received_events_url": "https://api.github.com/users/paulbiss/received_events",
    "type": "User",
    "site_admin": false
  },
  "created_at": "2014-11-20T17:08:11Z",
  "updated_at": "2014-11-20T17:08:11Z",
  "body": "Closing per comment on diff."
}
]
