[
{
  "url": "https://api.github.com/repos/facebook/hhvm/issues/comments/75513884",
  "html_url": "https://github.com/facebook/hhvm/issues/4883#issuecomment-75513884",
  "issue_url": "https://api.github.com/repos/facebook/hhvm/issues/4883",
  "id": 75513884,
  "user": {
    "login": "yaslama",
    "id": 309602,
    "avatar_url": "https://avatars.githubusercontent.com/u/309602?v=3",
    "gravatar_id": "",
    "url": "https://api.github.com/users/yaslama",
    "html_url": "https://github.com/yaslama",
    "followers_url": "https://api.github.com/users/yaslama/followers",
    "following_url": "https://api.github.com/users/yaslama/following{/other_user}",
    "gists_url": "https://api.github.com/users/yaslama/gists{/gist_id}",
    "starred_url": "https://api.github.com/users/yaslama/starred{/owner}{/repo}",
    "subscriptions_url": "https://api.github.com/users/yaslama/subscriptions",
    "organizations_url": "https://api.github.com/users/yaslama/orgs",
    "repos_url": "https://api.github.com/users/yaslama/repos",
    "events_url": "https://api.github.com/users/yaslama/events{/privacy}",
    "received_events_url": "https://api.github.com/users/yaslama/received_events",
    "type": "User",
    "site_admin": false
  },
  "created_at": "2015-02-23T09:48:59Z",
  "updated_at": "2015-02-23T09:48:59Z",
  "body": "IMHO, webscalesql submodule in third-party needs to be updated to https://github.com/webscalesql/webscalesql-5.6/commit/13e32199550b144252b07cbdba9c80e1ceeef7bf or better https://github.com/webscalesql/webscalesql-5.6/commit/3b23e80ac275f3c20729c78dd712085b9e6d0141\r\n\r\nThese commits fix the build"
}
, {
  "url": "https://api.github.com/repos/facebook/hhvm/issues/comments/75590565",
  "html_url": "https://github.com/facebook/hhvm/issues/4883#issuecomment-75590565",
  "issue_url": "https://api.github.com/repos/facebook/hhvm/issues/4883",
  "id": 75590565,
  "user": {
    "login": "paulbiss",
    "id": 1039792,
    "avatar_url": "https://avatars.githubusercontent.com/u/1039792?v=3",
    "gravatar_id": "",
    "url": "https://api.github.com/users/paulbiss",
    "html_url": "https://github.com/paulbiss",
    "followers_url": "https://api.github.com/users/paulbiss/followers",
    "following_url": "https://api.github.com/users/paulbiss/following{/other_user}",
    "gists_url": "https://api.github.com/users/paulbiss/gists{/gist_id}",
    "starred_url": "https://api.github.com/users/paulbiss/starred{/owner}{/repo}",
    "subscriptions_url": "https://api.github.com/users/paulbiss/subscriptions",
    "organizations_url": "https://api.github.com/users/paulbiss/orgs",
    "repos_url": "https://api.github.com/users/paulbiss/repos",
    "events_url": "https://api.github.com/users/paulbiss/events{/privacy}",
    "received_events_url": "https://api.github.com/users/paulbiss/received_events",
    "type": "User",
    "site_admin": false
  },
  "created_at": "2015-02-23T17:34:32Z",
  "updated_at": "2015-02-23T17:34:32Z",
  "body": "cc @fredemmott @sgolemon "
}
, {
  "url": "https://api.github.com/repos/facebook/hhvm/issues/comments/75809631",
  "html_url": "https://github.com/facebook/hhvm/issues/4883#issuecomment-75809631",
  "issue_url": "https://api.github.com/repos/facebook/hhvm/issues/4883",
  "id": 75809631,
  "user": {
    "login": "jwatzman",
    "id": 575697,
    "avatar_url": "https://avatars.githubusercontent.com/u/575697?v=3",
    "gravatar_id": "",
    "url": "https://api.github.com/users/jwatzman",
    "html_url": "https://github.com/jwatzman",
    "followers_url": "https://api.github.com/users/jwatzman/followers",
    "following_url": "https://api.github.com/users/jwatzman/following{/other_user}",
    "gists_url": "https://api.github.com/users/jwatzman/gists{/gist_id}",
    "starred_url": "https://api.github.com/users/jwatzman/starred{/owner}{/repo}",
    "subscriptions_url": "https://api.github.com/users/jwatzman/subscriptions",
    "organizations_url": "https://api.github.com/users/jwatzman/orgs",
    "repos_url": "https://api.github.com/users/jwatzman/repos",
    "events_url": "https://api.github.com/users/jwatzman/events{/privacy}",
    "received_events_url": "https://api.github.com/users/jwatzman/received_events",
    "type": "User",
    "site_admin": false
  },
  "created_at": "2015-02-24T17:58:02Z",
  "updated_at": "2015-02-24T17:58:02Z",
  "body": "Our nightly builds are succeeding, so curious what's going on here. What OS are you on?\r\n\r\n@yaslama what you linked indicates this is some problem with building without dtrace? I don't think HHVM has any dtrace facilities, is this something specific to the way webscalesql configures itself?"
}
, {
  "url": "https://api.github.com/repos/facebook/hhvm/issues/comments/75820137",
  "html_url": "https://github.com/facebook/hhvm/issues/4883#issuecomment-75820137",
  "issue_url": "https://api.github.com/repos/facebook/hhvm/issues/4883",
  "id": 75820137,
  "user": {
    "login": "yaslama",
    "id": 309602,
    "avatar_url": "https://avatars.githubusercontent.com/u/309602?v=3",
    "gravatar_id": "",
    "url": "https://api.github.com/users/yaslama",
    "html_url": "https://github.com/yaslama",
    "followers_url": "https://api.github.com/users/yaslama/followers",
    "following_url": "https://api.github.com/users/yaslama/following{/other_user}",
    "gists_url": "https://api.github.com/users/yaslama/gists{/gist_id}",
    "starred_url": "https://api.github.com/users/yaslama/starred{/owner}{/repo}",
    "subscriptions_url": "https://api.github.com/users/yaslama/subscriptions",
    "organizations_url": "https://api.github.com/users/yaslama/orgs",
    "repos_url": "https://api.github.com/users/yaslama/repos",
    "events_url": "https://api.github.com/users/yaslama/events{/privacy}",
    "received_events_url": "https://api.github.com/users/yaslama/received_events",
    "type": "User",
    "site_admin": false
  },
  "created_at": "2015-02-24T18:52:07Z",
  "updated_at": "2015-02-24T18:52:07Z",
  "body": "@jwatzman the build error occurs even without dtrace. The reason is that the variable len is unknown in the scope, so even if the macro expends to nothing, the compiler detects that the variable is not declared.\r\nSee https://github.com/webscalesql/webscalesql-5.6/issues/17 and https://reviews.facebook.net/D33777"
}
, {
  "url": "https://api.github.com/repos/facebook/hhvm/issues/comments/75830040",
  "html_url": "https://github.com/facebook/hhvm/issues/4883#issuecomment-75830040",
  "issue_url": "https://api.github.com/repos/facebook/hhvm/issues/4883",
  "id": 75830040,
  "user": {
    "login": "jwatzman",
    "id": 575697,
    "avatar_url": "https://avatars.githubusercontent.com/u/575697?v=3",
    "gravatar_id": "",
    "url": "https://api.github.com/users/jwatzman",
    "html_url": "https://github.com/jwatzman",
    "followers_url": "https://api.github.com/users/jwatzman/followers",
    "following_url": "https://api.github.com/users/jwatzman/following{/other_user}",
    "gists_url": "https://api.github.com/users/jwatzman/gists{/gist_id}",
    "starred_url": "https://api.github.com/users/jwatzman/starred{/owner}{/repo}",
    "subscriptions_url": "https://api.github.com/users/jwatzman/subscriptions",
    "organizations_url": "https://api.github.com/users/jwatzman/orgs",
    "repos_url": "https://api.github.com/users/jwatzman/repos",
    "events_url": "https://api.github.com/users/jwatzman/events{/privacy}",
    "received_events_url": "https://api.github.com/users/jwatzman/received_events",
    "type": "User",
    "site_admin": false
  },
  "created_at": "2015-02-24T19:41:58Z",
  "updated_at": "2015-02-24T19:41:58Z",
  "body": "Yeah but it doesn't always trigger -- do you know what has to happen to trigger this? The HHVM builds I've been doing from github are all still succeeding and have been for a while. Just don't want to blindly bump the submodule without confirming it fixes the issue here."
}
, {
  "url": "https://api.github.com/repos/facebook/hhvm/issues/comments/75854246",
  "html_url": "https://github.com/facebook/hhvm/issues/4883#issuecomment-75854246",
  "issue_url": "https://api.github.com/repos/facebook/hhvm/issues/4883",
  "id": 75854246,
  "user": {
    "login": "yaslama",
    "id": 309602,
    "avatar_url": "https://avatars.githubusercontent.com/u/309602?v=3",
    "gravatar_id": "",
    "url": "https://api.github.com/users/yaslama",
    "html_url": "https://github.com/yaslama",
    "followers_url": "https://api.github.com/users/yaslama/followers",
    "following_url": "https://api.github.com/users/yaslama/following{/other_user}",
    "gists_url": "https://api.github.com/users/yaslama/gists{/gist_id}",
    "starred_url": "https://api.github.com/users/yaslama/starred{/owner}{/repo}",
    "subscriptions_url": "https://api.github.com/users/yaslama/subscriptions",
    "organizations_url": "https://api.github.com/users/yaslama/orgs",
    "repos_url": "https://api.github.com/users/yaslama/repos",
    "events_url": "https://api.github.com/users/yaslama/events{/privacy}",
    "received_events_url": "https://api.github.com/users/yaslama/received_events",
    "type": "User",
    "site_admin": false
  },
  "created_at": "2015-02-24T21:51:18Z",
  "updated_at": "2015-02-24T21:53:50Z",
  "body": "@jwatzman  the problem is triggered in my laptop (debian sid) because the package called systemtap-sdt-dev is installed and contains /usr/bin/dtrace .Per https://github.com/webscalesql/webscalesql-5.6/blob/webscalesql-5.6.23/cmake/dtrace.cmake#L34 ENABLE_DTRACE is defined.\r\nThis causes third-party/webscalesqlclient/webscalesql-5.6/include/probes_mysql_dtrace.h to be included instead of third-party/webscalesqlclient/webscalesql-5.6/include/probes_mysql_nodtrace.h\r\n\r\nBTW, in the test plan of https://reviews.facebook.net/D33777 systemtap was installed to trigger the error.\r\n"
}
, {
  "url": "https://api.github.com/repos/facebook/hhvm/issues/comments/76105967",
  "html_url": "https://github.com/facebook/hhvm/issues/4883#issuecomment-76105967",
  "issue_url": "https://api.github.com/repos/facebook/hhvm/issues/4883",
  "id": 76105967,
  "user": {
    "login": "jwatzman",
    "id": 575697,
    "avatar_url": "https://avatars.githubusercontent.com/u/575697?v=3",
    "gravatar_id": "",
    "url": "https://api.github.com/users/jwatzman",
    "html_url": "https://github.com/jwatzman",
    "followers_url": "https://api.github.com/users/jwatzman/followers",
    "following_url": "https://api.github.com/users/jwatzman/following{/other_user}",
    "gists_url": "https://api.github.com/users/jwatzman/gists{/gist_id}",
    "starred_url": "https://api.github.com/users/jwatzman/starred{/owner}{/repo}",
    "subscriptions_url": "https://api.github.com/users/jwatzman/subscriptions",
    "organizations_url": "https://api.github.com/users/jwatzman/orgs",
    "repos_url": "https://api.github.com/users/jwatzman/repos",
    "events_url": "https://api.github.com/users/jwatzman/events{/privacy}",
    "received_events_url": "https://api.github.com/users/jwatzman/received_events",
    "type": "User",
    "site_admin": false
  },
  "created_at": "2015-02-26T01:32:23Z",
  "updated_at": "2015-02-26T01:32:23Z",
  "body": "Thanks for the info. I'll poke this in a few days if no one beats me to it (I'm super busy right now)."
}
, {
  "url": "https://api.github.com/repos/facebook/hhvm/issues/comments/77350615",
  "html_url": "https://github.com/facebook/hhvm/issues/4883#issuecomment-77350615",
  "issue_url": "https://api.github.com/repos/facebook/hhvm/issues/4883",
  "id": 77350615,
  "user": {
    "login": "ViolentVotan",
    "id": 9610691,
    "avatar_url": "https://avatars.githubusercontent.com/u/9610691?v=3",
    "gravatar_id": "",
    "url": "https://api.github.com/users/ViolentVotan",
    "html_url": "https://github.com/ViolentVotan",
    "followers_url": "https://api.github.com/users/ViolentVotan/followers",
    "following_url": "https://api.github.com/users/ViolentVotan/following{/other_user}",
    "gists_url": "https://api.github.com/users/ViolentVotan/gists{/gist_id}",
    "starred_url": "https://api.github.com/users/ViolentVotan/starred{/owner}{/repo}",
    "subscriptions_url": "https://api.github.com/users/ViolentVotan/subscriptions",
    "organizations_url": "https://api.github.com/users/ViolentVotan/orgs",
    "repos_url": "https://api.github.com/users/ViolentVotan/repos",
    "events_url": "https://api.github.com/users/ViolentVotan/events{/privacy}",
    "received_events_url": "https://api.github.com/users/ViolentVotan/received_events",
    "type": "User",
    "site_admin": false
  },
  "created_at": "2015-03-05T11:45:21Z",
  "updated_at": "2015-03-05T11:45:21Z",
  "body": "A new checkout from today yields similiar results>\r\n\r\n[ 91%] Building CXX object libmysql/CMakeFiles/clientlib.dir/__/sql/net_serv.cc.o\r\nIn file included from /tmp/hhvm/third-party/webscalesqlclient/webscalesql-5.6/include/probes_mysql_dtrace.h:9:0,\r\n                 from /tmp/hhvm/third-party/webscalesqlclient/webscalesql-5.6/include/probes_mysql.h:24,\r\n                 from /tmp/hhvm/third-party/webscalesqlclient/webscalesql-5.6/sql/net_serv.cc:46:\r\n/tmp/hhvm/third-party/webscalesqlclient/webscalesql-5.6/sql/net_serv.cc: In function ‘net_async_status net_write_command_nonblocking(NET*, uchar, const uchar*, size_t, const uchar*, size_t, my_bool*)’:\r\n/tmp/hhvm/third-party/webscalesqlclient/webscalesql-5.6/sql/net_serv.cc:547:29: error: ‘len’ was not declared in this scope\r\n       MYSQL_NET_WRITE_START(len);\r\n                             ^\r\n/tmp/hhvm/third-party/webscalesqlclient/webscalesql-5.6/sql/net_serv.cc:547:7: note: in expansion of macro ‘MYSQL_NET_WRITE_START’\r\n       MYSQL_NET_WRITE_START(len);\r\n       ^\r\n/tmp/hhvm/third-party/webscalesqlclient/webscalesql-5.6/include/probes_mysql_dtrace.h:526:1: error: template argument 1 is invalid\r\n DTRACE_PROBE1(mysql,net__write__start,arg1)\r\n ^\r\n/tmp/hhvm/third-party/webscalesqlclient/webscalesql-5.6/sql/net_serv.cc:547:7: note: in expansion of macro ‘MYSQL_NET_WRITE_START’\r\n       MYSQL_NET_WRITE_START(len);\r\n       ^\r\nmake[5]: *** [libmysql/CMakeFiles/clientlib.dir/__/sql/net_serv.cc.o] Error 1\r\nmake[4]: *** [libmysql/CMakeFiles/clientlib.dir/all] Error 2\r\nmake[3]: *** [all] Error 2\r\nmake[2]: *** [third-party/webscalesqlclient/build/src/webscalesqlclient-stamp/webscalesqlclient-build] Error 2\r\nmake[1]: *** [third-party/webscalesqlclient/CMakeFiles/webscalesqlclient.dir/all] Error 2\r\nmake: *** [all] Error 2"
}
, {
  "url": "https://api.github.com/repos/facebook/hhvm/issues/comments/77733797",
  "html_url": "https://github.com/facebook/hhvm/issues/4883#issuecomment-77733797",
  "issue_url": "https://api.github.com/repos/facebook/hhvm/issues/4883",
  "id": 77733797,
  "user": {
    "login": "davidbitton",
    "id": 277207,
    "avatar_url": "https://avatars.githubusercontent.com/u/277207?v=3",
    "gravatar_id": "",
    "url": "https://api.github.com/users/davidbitton",
    "html_url": "https://github.com/davidbitton",
    "followers_url": "https://api.github.com/users/davidbitton/followers",
    "following_url": "https://api.github.com/users/davidbitton/following{/other_user}",
    "gists_url": "https://api.github.com/users/davidbitton/gists{/gist_id}",
    "starred_url": "https://api.github.com/users/davidbitton/starred{/owner}{/repo}",
    "subscriptions_url": "https://api.github.com/users/davidbitton/subscriptions",
    "organizations_url": "https://api.github.com/users/davidbitton/orgs",
    "repos_url": "https://api.github.com/users/davidbitton/repos",
    "events_url": "https://api.github.com/users/davidbitton/events{/privacy}",
    "received_events_url": "https://api.github.com/users/davidbitton/received_events",
    "type": "User",
    "site_admin": false
  },
  "created_at": "2015-03-08T05:15:48Z",
  "updated_at": "2015-03-08T05:15:48Z",
  "body": "HHVM is not compiling with the same failure as @ViolentVotan above on an AWS EC2 m3.medium with Fedora 21.  "
}
, {
  "url": "https://api.github.com/repos/facebook/hhvm/issues/comments/78289198",
  "html_url": "https://github.com/facebook/hhvm/issues/4883#issuecomment-78289198",
  "issue_url": "https://api.github.com/repos/facebook/hhvm/issues/4883",
  "id": 78289198,
  "user": {
    "login": "davidbitton",
    "id": 277207,
    "avatar_url": "https://avatars.githubusercontent.com/u/277207?v=3",
    "gravatar_id": "",
    "url": "https://api.github.com/users/davidbitton",
    "html_url": "https://github.com/davidbitton",
    "followers_url": "https://api.github.com/users/davidbitton/followers",
    "following_url": "https://api.github.com/users/davidbitton/following{/other_user}",
    "gists_url": "https://api.github.com/users/davidbitton/gists{/gist_id}",
    "starred_url": "https://api.github.com/users/davidbitton/starred{/owner}{/repo}",
    "subscriptions_url": "https://api.github.com/users/davidbitton/subscriptions",
    "organizations_url": "https://api.github.com/users/davidbitton/orgs",
    "repos_url": "https://api.github.com/users/davidbitton/repos",
    "events_url": "https://api.github.com/users/davidbitton/events{/privacy}",
    "received_events_url": "https://api.github.com/users/davidbitton/received_events",
    "type": "User",
    "site_admin": false
  },
  "created_at": "2015-03-11T15:42:19Z",
  "updated_at": "2015-03-11T15:42:19Z",
  "body": "If you raw dog the changes made in this webscale [commit](https://github.com/webscalesql/webscalesql-5.6/commit/3b23e80ac275f3c20729c78dd712085b9e6d014), the build continues."
}
, {
  "url": "https://api.github.com/repos/facebook/hhvm/issues/comments/81696678",
  "html_url": "https://github.com/facebook/hhvm/issues/4883#issuecomment-81696678",
  "issue_url": "https://api.github.com/repos/facebook/hhvm/issues/4883",
  "id": 81696678,
  "user": {
    "login": "uxbod",
    "id": 1374399,
    "avatar_url": "https://avatars.githubusercontent.com/u/1374399?v=3",
    "gravatar_id": "",
    "url": "https://api.github.com/users/uxbod",
    "html_url": "https://github.com/uxbod",
    "followers_url": "https://api.github.com/users/uxbod/followers",
    "following_url": "https://api.github.com/users/uxbod/following{/other_user}",
    "gists_url": "https://api.github.com/users/uxbod/gists{/gist_id}",
    "starred_url": "https://api.github.com/users/uxbod/starred{/owner}{/repo}",
    "subscriptions_url": "https://api.github.com/users/uxbod/subscriptions",
    "organizations_url": "https://api.github.com/users/uxbod/orgs",
    "repos_url": "https://api.github.com/users/uxbod/repos",
    "events_url": "https://api.github.com/users/uxbod/events{/privacy}",
    "received_events_url": "https://api.github.com/users/uxbod/received_events",
    "type": "User",
    "site_admin": false
  },
  "created_at": "2015-03-16T14:22:09Z",
  "updated_at": "2015-03-16T14:22:09Z",
  "body": "Confirmed like @davidbitton that if you edit as per that commit latest pull builds fine."
}
, {
  "url": "https://api.github.com/repos/facebook/hhvm/issues/comments/107255162",
  "html_url": "https://github.com/facebook/hhvm/issues/4883#issuecomment-107255162",
  "issue_url": "https://api.github.com/repos/facebook/hhvm/issues/4883",
  "id": 107255162,
  "user": {
    "login": "burner1024",
    "id": 1279852,
    "avatar_url": "https://avatars.githubusercontent.com/u/1279852?v=3",
    "gravatar_id": "",
    "url": "https://api.github.com/users/burner1024",
    "html_url": "https://github.com/burner1024",
    "followers_url": "https://api.github.com/users/burner1024/followers",
    "following_url": "https://api.github.com/users/burner1024/following{/other_user}",
    "gists_url": "https://api.github.com/users/burner1024/gists{/gist_id}",
    "starred_url": "https://api.github.com/users/burner1024/starred{/owner}{/repo}",
    "subscriptions_url": "https://api.github.com/users/burner1024/subscriptions",
    "organizations_url": "https://api.github.com/users/burner1024/orgs",
    "repos_url": "https://api.github.com/users/burner1024/repos",
    "events_url": "https://api.github.com/users/burner1024/events{/privacy}",
    "received_events_url": "https://api.github.com/users/burner1024/received_events",
    "type": "User",
    "site_admin": false
  },
  "created_at": "2015-05-31T22:54:57Z",
  "updated_at": "2015-05-31T22:54:57Z",
  "body": "Which version has it made into?"
}
, {
  "url": "https://api.github.com/repos/facebook/hhvm/issues/comments/107380737",
  "html_url": "https://github.com/facebook/hhvm/issues/4883#issuecomment-107380737",
  "issue_url": "https://api.github.com/repos/facebook/hhvm/issues/4883",
  "id": 107380737,
  "user": {
    "login": "simonwelsh",
    "id": 125915,
    "avatar_url": "https://avatars.githubusercontent.com/u/125915?v=3",
    "gravatar_id": "",
    "url": "https://api.github.com/users/simonwelsh",
    "html_url": "https://github.com/simonwelsh",
    "followers_url": "https://api.github.com/users/simonwelsh/followers",
    "following_url": "https://api.github.com/users/simonwelsh/following{/other_user}",
    "gists_url": "https://api.github.com/users/simonwelsh/gists{/gist_id}",
    "starred_url": "https://api.github.com/users/simonwelsh/starred{/owner}{/repo}",
    "subscriptions_url": "https://api.github.com/users/simonwelsh/subscriptions",
    "organizations_url": "https://api.github.com/users/simonwelsh/orgs",
    "repos_url": "https://api.github.com/users/simonwelsh/repos",
    "events_url": "https://api.github.com/users/simonwelsh/events{/privacy}",
    "received_events_url": "https://api.github.com/users/simonwelsh/received_events",
    "type": "User",
    "site_admin": false
  },
  "created_at": "2015-06-01T09:33:50Z",
  "updated_at": "2015-06-01T09:33:50Z",
  "body": "@burner1024 If you look at the commit, it lists the tags it's in. That one is in 3.7.0 and 3.7.1."
}
, {
  "url": "https://api.github.com/repos/facebook/hhvm/issues/comments/107382507",
  "html_url": "https://github.com/facebook/hhvm/issues/4883#issuecomment-107382507",
  "issue_url": "https://api.github.com/repos/facebook/hhvm/issues/4883",
  "id": 107382507,
  "user": {
    "login": "burner1024",
    "id": 1279852,
    "avatar_url": "https://avatars.githubusercontent.com/u/1279852?v=3",
    "gravatar_id": "",
    "url": "https://api.github.com/users/burner1024",
    "html_url": "https://github.com/burner1024",
    "followers_url": "https://api.github.com/users/burner1024/followers",
    "following_url": "https://api.github.com/users/burner1024/following{/other_user}",
    "gists_url": "https://api.github.com/users/burner1024/gists{/gist_id}",
    "starred_url": "https://api.github.com/users/burner1024/starred{/owner}{/repo}",
    "subscriptions_url": "https://api.github.com/users/burner1024/subscriptions",
    "organizations_url": "https://api.github.com/users/burner1024/orgs",
    "repos_url": "https://api.github.com/users/burner1024/repos",
    "events_url": "https://api.github.com/users/burner1024/events{/privacy}",
    "received_events_url": "https://api.github.com/users/burner1024/received_events",
    "type": "User",
    "site_admin": false
  },
  "created_at": "2015-06-01T09:42:12Z",
  "updated_at": "2015-06-01T09:42:12Z",
  "body": "@simonwelsh oh right. Thanks."
}
]
