[
{
  "url": "https://api.github.com/repos/facebook/hhvm/issues/comments/23411650",
  "html_url": "https://github.com/facebook/hhvm/issues/990#issuecomment-23411650",
  "issue_url": "https://api.github.com/repos/facebook/hhvm/issues/990",
  "id": 23411650,
  "user": {
    "login": "Yermo",
    "id": 854565,
    "avatar_url": "https://avatars.githubusercontent.com/u/854565?v=3",
    "gravatar_id": "",
    "url": "https://api.github.com/users/Yermo",
    "html_url": "https://github.com/Yermo",
    "followers_url": "https://api.github.com/users/Yermo/followers",
    "following_url": "https://api.github.com/users/Yermo/following{/other_user}",
    "gists_url": "https://api.github.com/users/Yermo/gists{/gist_id}",
    "starred_url": "https://api.github.com/users/Yermo/starred{/owner}{/repo}",
    "subscriptions_url": "https://api.github.com/users/Yermo/subscriptions",
    "organizations_url": "https://api.github.com/users/Yermo/orgs",
    "repos_url": "https://api.github.com/users/Yermo/repos",
    "events_url": "https://api.github.com/users/Yermo/events{/privacy}",
    "received_events_url": "https://api.github.com/users/Yermo/received_events",
    "type": "User",
    "site_admin": false
  },
  "created_at": "2013-08-28T12:55:48Z",
  "updated_at": "2013-08-28T12:55:48Z",
  "body": "I am seeing this as well. My codebase also uses a custom session handler."
}
, {
  "url": "https://api.github.com/repos/facebook/hhvm/issues/comments/23525952",
  "html_url": "https://github.com/facebook/hhvm/issues/990#issuecomment-23525952",
  "issue_url": "https://api.github.com/repos/facebook/hhvm/issues/990",
  "id": 23525952,
  "user": {
    "login": "scannell",
    "id": 4433664,
    "avatar_url": "https://avatars.githubusercontent.com/u/4433664?v=3",
    "gravatar_id": "",
    "url": "https://api.github.com/users/scannell",
    "html_url": "https://github.com/scannell",
    "followers_url": "https://api.github.com/users/scannell/followers",
    "following_url": "https://api.github.com/users/scannell/following{/other_user}",
    "gists_url": "https://api.github.com/users/scannell/gists{/gist_id}",
    "starred_url": "https://api.github.com/users/scannell/starred{/owner}{/repo}",
    "subscriptions_url": "https://api.github.com/users/scannell/subscriptions",
    "organizations_url": "https://api.github.com/users/scannell/orgs",
    "repos_url": "https://api.github.com/users/scannell/repos",
    "events_url": "https://api.github.com/users/scannell/events{/privacy}",
    "received_events_url": "https://api.github.com/users/scannell/received_events",
    "type": "User",
    "site_admin": false
  },
  "created_at": "2013-08-29T21:43:32Z",
  "updated_at": "2013-08-29T21:43:32Z",
  "body": "From @javer:\r\n\r\n@scannell , yes, here is test_session_set_save_handler.php:\r\n```php\r\n<?php\r\nfunction open($save_path, $session_id) { echo \"open\\n\"; return true; }\r\nfunction close() { echo \"close\\n\"; return true; }\r\nfunction read($session_id) { echo \"read\\n\"; return true; }\r\nfunction write($session_id, $session_data) { echo \"write\\n\"; return true; }\r\nfunction destroy($session_id) { echo \"destroy\\n\"; return true; }\r\nfunction gc($maxlifetime) { echo \"gc\\n\"; return true; }\r\n\r\nsession_set_save_handler('open', 'close', 'read', 'write', 'destroy', 'gc');\r\nsession_start();\r\n```\r\nand test.sh:\r\n```bash\r\n#!/bin/sh\r\n\r\nhhvm -m server -p 4247 >out 2>err &\r\nsleep 3\r\n\r\nfor i in {1..3}; do\r\n    wget http://127.0.0.1:4247/test_session_set_save_handler.php\r\ndone\r\n```\r\nAfter running test.sh we will have in err:\r\n```\r\nCore dumped: Segmentation fault\r\n```"
}
, {
  "url": "https://api.github.com/repos/facebook/hhvm/issues/comments/23542638",
  "html_url": "https://github.com/facebook/hhvm/issues/990#issuecomment-23542638",
  "issue_url": "https://api.github.com/repos/facebook/hhvm/issues/990",
  "id": 23542638,
  "user": {
    "login": "Kozzi11",
    "id": 1239642,
    "avatar_url": "https://avatars.githubusercontent.com/u/1239642?v=3",
    "gravatar_id": "",
    "url": "https://api.github.com/users/Kozzi11",
    "html_url": "https://github.com/Kozzi11",
    "followers_url": "https://api.github.com/users/Kozzi11/followers",
    "following_url": "https://api.github.com/users/Kozzi11/following{/other_user}",
    "gists_url": "https://api.github.com/users/Kozzi11/gists{/gist_id}",
    "starred_url": "https://api.github.com/users/Kozzi11/starred{/owner}{/repo}",
    "subscriptions_url": "https://api.github.com/users/Kozzi11/subscriptions",
    "organizations_url": "https://api.github.com/users/Kozzi11/orgs",
    "repos_url": "https://api.github.com/users/Kozzi11/repos",
    "events_url": "https://api.github.com/users/Kozzi11/events{/privacy}",
    "received_events_url": "https://api.github.com/users/Kozzi11/received_events",
    "type": "User",
    "site_admin": false
  },
  "created_at": "2013-08-30T06:19:23Z",
  "updated_at": "2013-08-30T08:13:21Z",
  "body": "(gdb) bt\r\n\\#0  0x0000000001967bd6 in HPHP::Class::getDtor (this=0x4c707041179c0614) at /home/kozak/Dokumenty/Projekty/dev/hiphop-php/hphp/runtime/vm/class.h:555\r\n\\#1  0x0000000001653876 in HPHP::ObjectData::destruct (this=0x7f4d3f4464e0) at /home/kozak/Dokumenty/Projekty/dev/hiphop-php/hphp/runtime/base/object-data.cpp:79\r\n\\#2  0x00000000018e2a87 in HPHP::ObjectData::release (this=0x7f4d3f4464e0) at /home/kozak/Dokumenty/Projekty/dev/hiphop-php/hphp/runtime/base/object-data.h:176\r\n\\#3  0x00000000018ef240 in HPHP::SmartPtr<HPHP::ObjectData>::operator= (this=0x7f4d3f6ce9e0, px=0x7f4d18446ef0) at /home/kozak/Dokumenty/Projekty/dev/hiphop-php/hphp/runtime/base/smart-ptr.h:117\r\n\\#4  0x00000000018edc0a in HPHP::SmartPtr<HPHP::ObjectData>::operator= (this=0x7f4d3f6ce9e0, src=...) at /home/kozak/Dokumenty/Projekty/dev/hiphop-php/hphp/runtime/base/smart-ptr.h:87\r\n\\#5  0x00000000018ecb01 in HPHP::Object::operator= (this=0x7f4d3f6ce9e0, src=...) at /home/kozak/Dokumenty/Projekty/dev/hiphop-php/hphp/runtime/base/type-object.h:70\r\n\\#6  0x000000000267a8ff in HPHP::f_hphp_session_set_save_handler (sessionhandler=..., register_shutdown=false) at /home/kozak/Dokumenty/Projekty/dev/hiphop-php/hphp/runtime/ext/ext_session.cpp:1549\r\n\\#7  0x0000000002592068 in HPHP::fg1_hphp_session_set_save_handler (rv=0x7f4d51af4060, ar=0x7f4d43abfd40, count=2) at /home/kozak/Dokumenty/Projekty/dev/hiphop-php/hphp/runtime/ext/ext_session.cpp.ext_hhvm.cpp:210\r\n\\#8  0x0000000002592153 in HPHP::fg_hphp_session_set_save_handler (ar=0x7f4d43abfd40) at /home/kozak/Dokumenty/Projekty/dev/hiphop-php/hphp/runtime/ext/ext_session.cpp.ext_hhvm.cpp:224\r\n\\#9  0x0000000006c0e7bd in ?? ()\r\n\\#10 0x000000000206a8ee in enterTCHelper () at /home/kozak/Dokumenty/Projekty/dev/hiphop-php/hphp/runtime/vm/jit/translator-asm-helpers.S:81\r\n\\#11 0x0000000001f41faa in HPHP::Transl::TranslatorX64::enterTC (this=0x7f4d656ea600, start=0x6c0d5c0 \"H\\307\\301\\300\\325\\300\\006H\\211\\357H\\211\\336H\\307\\302\\211\\n\", data=0x0)\r\n    at /home/kozak/Dokumenty/Projekty/dev/hiphop-php/hphp/runtime/vm/jit/translator-x64.cpp:2088\r\n\\#12 0x0000000001f7ba7a in HPHP::Transl::TranslatorX64::enterTCAfterPrologue (this=0x7f4d656ea600, start=0x1f39680 <__funcBodyHelperThunk> \"H\\211\\357\\350\\004\")\r\n    at /home/kozak/Dokumenty/Projekty/dev/hiphop-php/hphp/runtime/vm/jit/translator-x64.h:541\r\n\\#13 0x0000000001c8cf38 in HPHP::VMExecutionContext::enterVMWork (this=0x7f4d60abe600, enterFnAr=0x7f4d43abffc0) at /home/kozak/Dokumenty/Projekty/dev/hiphop-php/hphp/runtime/vm/bytecode.cpp:1516\r\n\\#14 0x0000000001c8d154 in HPHP::VMExecutionContext::enterVM (this=0x7f4d60abe600, retval=0x7f4d51af4760, ar=0x7f4d43abffc0) at /home/kozak/Dokumenty/Projekty/dev/hiphop-php/hphp/runtime/vm/bytecode.cpp:1554\r\n\\#15 0x0000000001c8e050 in HPHP::VMExecutionContext::invokeFunc (this=0x7f4d60abe600, retval=0x7f4d51af4760, f=0x7f4d6bd97920, params=..., this_=0x0, cls=0x0, varEnv=0x7f4d47e8c020, invName=0x0, \r\n    flags=HPHP::VMExecutionContext::InvokePseudoMain) at /home/kozak/Dokumenty/Projekty/dev/hiphop-php/hphp/runtime/vm/bytecode.cpp:1772\r\n\\#16 0x0000000001c8e892 in HPHP::VMExecutionContext::invokeUnit (this=0x7f4d60abe600, retval=0x7f4d51af4760, unit=0x7f4d6bc89500) at /home/kozak/Dokumenty/Projekty/dev/hiphop-php/hphp/runtime/vm/bytecode.cpp:1876\r\n\\#17 0x00000000018e9138 in HPHP::invoke_file_impl (res=..., path=..., once=true, currentDir=0x2a44008 \"\") at /home/kozak/Dokumenty/Projekty/dev/hiphop-php/hphp/runtime/base/builtin-functions.cpp:829\r\n\\#18 0x00000000018e9005 in HPHP::invoke_file (s=..., once=true, currentDir=0x2a44008 \"\") at /home/kozak/Dokumenty/Projekty/dev/hiphop-php/hphp/runtime/base/builtin-functions.cpp:812\r\n\\#19 0x00000000018e8e5b in HPHP::include_impl_invoke (file=..., once=true, currentDir=0x2a44008 \"\") at /home/kozak/Dokumenty/Projekty/dev/hiphop-php/hphp/runtime/base/builtin-functions.cpp:795\r\n\\#20 0x0000000001985a67 in HPHP::hphp_invoke (context=0x7f4d60abe600, cmd=\"/var/www/html/system/web/kozak.cz/eshop/mvc/front/initApp.php\", func=false, funcParams=..., funcRet=..., reqInitFunc=\"\", reqInitDoc=\"\", \r\n    error=@0x7f4d51af4a1f: false, errorMsg=\"Internal Server Error\", once=true, warmupOnly=false, richErrorMsg=false) at /home/kozak/Dokumenty/Projekty/dev/hiphop-php/hphp/runtime/base/program-functions.cpp:1499\r\n\\#21 0x0000000001bddfe7 in HPHP::HttpRequestHandler::executePHPRequest (this=0x7f4d61067300, transport=0x7f4d51af4ea0, reqURI=..., sourceRootInfo=..., cachableDynamicContent=false)\r\n    at /home/kozak/Dokumenty/Projekty/dev/hiphop-php/hphp/runtime/server/http-request-handler.cpp:339\r\n\\#22 0x0000000001bdd760 in HPHP::HttpRequestHandler::handleRequest (this=0x7f4d61067300, transport=0x7f4d51af4ea0) at /home/kozak/Dokumenty/Projekty/dev/hiphop-php/hphp/runtime/server/http-request-handler.cpp:277\r\n\\#23 0x0000000001bf0b01 in HPHP::LibEventWorker::doJobImpl (this=0x7f4d64fc5380, job=..., abort=false) at /home/kozak/Dokumenty/Projekty/dev/hiphop-php/hphp/runtime/server/libevent-server.cpp:122\r\n\\#24 0x0000000001bf0866 in HPHP::LibEventWorker::doJob (this=0x7f4d64fc5380, job=...) at /home/kozak/Dokumenty/Projekty/dev/hiphop-php/hphp/runtime/server/libevent-server.cpp:89\r\n\\#25 0x0000000001beb7f3 in HPHP::JobQueueWorker<boost::shared_ptr<HPHP::LibEventJob>, true, false, HPHP::JobQueueDropVMStack>::start (this=0x7f4d64fc5380) at /home/kozak/Dokumenty/Projekty/dev/hiphop-php/hphp/util/job-queue.h:405\r\n\\#26 0x0000000001bebdab in HPHP::AsyncFunc<HPHP::LibEventWorker>::run_ (obj=0x7f4d64081200) at /home/kozak/Dokumenty/Projekty/dev/hiphop-php/hphp/util/async-func.h:205\r\n\\#27 0x000000000200be93 in HPHP::AsyncFuncImpl::threadFuncImpl (this=0x7f4d64081200) at /home/kozak/Dokumenty/Projekty/dev/hiphop-php/hphp/util/async-func.cpp:111\r\n\\#28 0x000000000200bb82 in HPHP::AsyncFuncImpl::ThreadFunc (obj=0x7f4d64081200) at /home/kozak/Dokumenty/Projekty/dev/hiphop-php/hphp/util/async-func.cpp:44\r\n\\#29 0x00007f4d6f8b30a2 in start_thread () from /usr/lib/libpthread.so.0\r\n\\#30 0x00007f4d6e094a2d in clone () from /usr/lib/libc.so.6\r\n\r\n(gdb) print m_dtor\r\nCannot access memory at address 0xb0\r\n"
}
, {
  "url": "https://api.github.com/repos/facebook/hhvm/issues/comments/23546433",
  "html_url": "https://github.com/facebook/hhvm/issues/990#issuecomment-23546433",
  "issue_url": "https://api.github.com/repos/facebook/hhvm/issues/990",
  "id": 23546433,
  "user": {
    "login": "Kozzi11",
    "id": 1239642,
    "avatar_url": "https://avatars.githubusercontent.com/u/1239642?v=3",
    "gravatar_id": "",
    "url": "https://api.github.com/users/Kozzi11",
    "html_url": "https://github.com/Kozzi11",
    "followers_url": "https://api.github.com/users/Kozzi11/followers",
    "following_url": "https://api.github.com/users/Kozzi11/following{/other_user}",
    "gists_url": "https://api.github.com/users/Kozzi11/gists{/gist_id}",
    "starred_url": "https://api.github.com/users/Kozzi11/starred{/owner}{/repo}",
    "subscriptions_url": "https://api.github.com/users/Kozzi11/subscriptions",
    "organizations_url": "https://api.github.com/users/Kozzi11/orgs",
    "repos_url": "https://api.github.com/users/Kozzi11/repos",
    "events_url": "https://api.github.com/users/Kozzi11/events{/privacy}",
    "received_events_url": "https://api.github.com/users/Kozzi11/received_events",
    "type": "User",
    "site_admin": false
  },
  "created_at": "2013-08-30T08:08:14Z",
  "updated_at": "2013-08-30T08:08:14Z",
  "body": "(gdb) bt\r\n\\#0  0x0000000001a306a4 in HPHP::url_encode (s=0x7fffe4c080a0 \"\\264\\200\\300\\344\\377\\177\", len=@0x7fffe1ef3cac: -457146336) at /home/kozak/Dokumenty/Projekty/dev/hiphop-php/hphp/runtime/base/zend-url.cpp:358\r\n\\#1  0x0000000001c29af1 in HPHP::Transport::setCookie (this=0x7fffe1ef4ea0, name=..., value=..., expire=0, path=..., domain=..., secure=false, httponly=false, encode_url=true)\r\n    at /home/kozak/Dokumenty/Projekty/dev/hiphop-php/hphp/runtime/server/transport.cpp:523\r\n\\#2  0x000000000267948c in HPHP::php_session_send_cookie () at /home/kozak/Dokumenty/Projekty/dev/hiphop-php/hphp/runtime/ext/ext_session.cpp:1291\r\n\\#3  0x0000000002679562 in HPHP::php_session_reset_id () at /home/kozak/Dokumenty/Projekty/dev/hiphop-php/hphp/runtime/ext/ext_session.cpp:1296\r\n\\#4  0x000000000267bec1 in HPHP::f_session_start () at /home/kozak/Dokumenty/Projekty/dev/hiphop-php/hphp/runtime/ext/ext_session.cpp:1741\r\n\r\n\r\n(gdb) print encoded_value_len\r\n$10 = -457146336\r\n(gdb) print s_session->m_id.m_px.m_len\r\n$26 = 3837820960\r\n(gdb) print s_session->m_id.m_px.m_data\r\n$27 = 0x7fffe4c080a0 \"\\264\\200\\300\\344\\377\\177\"\r\n"
}
, {
  "url": "https://api.github.com/repos/facebook/hhvm/issues/comments/23556513",
  "html_url": "https://github.com/facebook/hhvm/issues/990#issuecomment-23556513",
  "issue_url": "https://api.github.com/repos/facebook/hhvm/issues/990",
  "id": 23556513,
  "user": {
    "login": "Kozzi11",
    "id": 1239642,
    "avatar_url": "https://avatars.githubusercontent.com/u/1239642?v=3",
    "gravatar_id": "",
    "url": "https://api.github.com/users/Kozzi11",
    "html_url": "https://github.com/Kozzi11",
    "followers_url": "https://api.github.com/users/Kozzi11/followers",
    "following_url": "https://api.github.com/users/Kozzi11/following{/other_user}",
    "gists_url": "https://api.github.com/users/Kozzi11/gists{/gist_id}",
    "starred_url": "https://api.github.com/users/Kozzi11/starred{/owner}{/repo}",
    "subscriptions_url": "https://api.github.com/users/Kozzi11/subscriptions",
    "organizations_url": "https://api.github.com/users/Kozzi11/orgs",
    "repos_url": "https://api.github.com/users/Kozzi11/repos",
    "events_url": "https://api.github.com/users/Kozzi11/events{/privacy}",
    "received_events_url": "https://api.github.com/users/Kozzi11/received_events",
    "type": "User",
    "site_admin": false
  },
  "created_at": "2013-08-30T12:01:54Z",
  "updated_at": "2013-08-30T12:01:54Z",
  "body": "The main problem is with s_session->m_id, because it is corrupted. It has some weird size and m_px point to random access or maybe already freed memory."
}
, {
  "url": "https://api.github.com/repos/facebook/hhvm/issues/comments/23557059",
  "html_url": "https://github.com/facebook/hhvm/issues/990#issuecomment-23557059",
  "issue_url": "https://api.github.com/repos/facebook/hhvm/issues/990",
  "id": 23557059,
  "user": {
    "login": "Kozzi11",
    "id": 1239642,
    "avatar_url": "https://avatars.githubusercontent.com/u/1239642?v=3",
    "gravatar_id": "",
    "url": "https://api.github.com/users/Kozzi11",
    "html_url": "https://github.com/Kozzi11",
    "followers_url": "https://api.github.com/users/Kozzi11/followers",
    "following_url": "https://api.github.com/users/Kozzi11/following{/other_user}",
    "gists_url": "https://api.github.com/users/Kozzi11/gists{/gist_id}",
    "starred_url": "https://api.github.com/users/Kozzi11/starred{/owner}{/repo}",
    "subscriptions_url": "https://api.github.com/users/Kozzi11/subscriptions",
    "organizations_url": "https://api.github.com/users/Kozzi11/orgs",
    "repos_url": "https://api.github.com/users/Kozzi11/repos",
    "events_url": "https://api.github.com/users/Kozzi11/events{/privacy}",
    "received_events_url": "https://api.github.com/users/Kozzi11/received_events",
    "type": "User",
    "site_admin": false
  },
  "created_at": "2013-08-30T12:14:32Z",
  "updated_at": "2013-08-30T12:14:32Z",
  "body": "I hit some other crash, and in all cases there was HPHP::StringData with m_data out of bounds"
}
, {
  "url": "https://api.github.com/repos/facebook/hhvm/issues/comments/23594130",
  "html_url": "https://github.com/facebook/hhvm/issues/990#issuecomment-23594130",
  "issue_url": "https://api.github.com/repos/facebook/hhvm/issues/990",
  "id": 23594130,
  "user": {
    "login": "javer",
    "id": 591296,
    "avatar_url": "https://avatars.githubusercontent.com/u/591296?v=3",
    "gravatar_id": "",
    "url": "https://api.github.com/users/javer",
    "html_url": "https://github.com/javer",
    "followers_url": "https://api.github.com/users/javer/followers",
    "following_url": "https://api.github.com/users/javer/following{/other_user}",
    "gists_url": "https://api.github.com/users/javer/gists{/gist_id}",
    "starred_url": "https://api.github.com/users/javer/starred{/owner}{/repo}",
    "subscriptions_url": "https://api.github.com/users/javer/subscriptions",
    "organizations_url": "https://api.github.com/users/javer/orgs",
    "repos_url": "https://api.github.com/users/javer/repos",
    "events_url": "https://api.github.com/users/javer/events{/privacy}",
    "received_events_url": "https://api.github.com/users/javer/received_events",
    "type": "User",
    "site_admin": false
  },
  "created_at": "2013-08-30T23:06:52Z",
  "updated_at": "2013-08-30T23:06:52Z",
  "body": "I did some investigation and determined that this bug was introduced with commit b9058d036e762a760f29c0586cfd6ee816fd48ce. In the previous commit 23c8e35811fe4df1a0aa5c6b45e37caec8907ada all works fine, but beginning with b9058d036e762a760f29c0586cfd6ee816fd48ce every build crashes after session_set_save_handler and several requests."
}
, {
  "url": "https://api.github.com/repos/facebook/hhvm/issues/comments/23594211",
  "html_url": "https://github.com/facebook/hhvm/issues/990#issuecomment-23594211",
  "issue_url": "https://api.github.com/repos/facebook/hhvm/issues/990",
  "id": 23594211,
  "user": {
    "login": "scannell",
    "id": 4433664,
    "avatar_url": "https://avatars.githubusercontent.com/u/4433664?v=3",
    "gravatar_id": "",
    "url": "https://api.github.com/users/scannell",
    "html_url": "https://github.com/scannell",
    "followers_url": "https://api.github.com/users/scannell/followers",
    "following_url": "https://api.github.com/users/scannell/following{/other_user}",
    "gists_url": "https://api.github.com/users/scannell/gists{/gist_id}",
    "starred_url": "https://api.github.com/users/scannell/starred{/owner}{/repo}",
    "subscriptions_url": "https://api.github.com/users/scannell/subscriptions",
    "organizations_url": "https://api.github.com/users/scannell/orgs",
    "repos_url": "https://api.github.com/users/scannell/repos",
    "events_url": "https://api.github.com/users/scannell/events{/privacy}",
    "received_events_url": "https://api.github.com/users/scannell/received_events",
    "type": "User",
    "site_admin": false
  },
  "created_at": "2013-08-30T23:09:47Z",
  "updated_at": "2013-08-30T23:09:47Z",
  "body": "(CC @ptarjan as the author of b9058d0)"
}
, {
  "url": "https://api.github.com/repos/facebook/hhvm/issues/comments/24018164",
  "html_url": "https://github.com/facebook/hhvm/issues/990#issuecomment-24018164",
  "issue_url": "https://api.github.com/repos/facebook/hhvm/issues/990",
  "id": 24018164,
  "user": {
    "login": "Kozzi11",
    "id": 1239642,
    "avatar_url": "https://avatars.githubusercontent.com/u/1239642?v=3",
    "gravatar_id": "",
    "url": "https://api.github.com/users/Kozzi11",
    "html_url": "https://github.com/Kozzi11",
    "followers_url": "https://api.github.com/users/Kozzi11/followers",
    "following_url": "https://api.github.com/users/Kozzi11/following{/other_user}",
    "gists_url": "https://api.github.com/users/Kozzi11/gists{/gist_id}",
    "starred_url": "https://api.github.com/users/Kozzi11/starred{/owner}{/repo}",
    "subscriptions_url": "https://api.github.com/users/Kozzi11/subscriptions",
    "organizations_url": "https://api.github.com/users/Kozzi11/orgs",
    "repos_url": "https://api.github.com/users/Kozzi11/repos",
    "events_url": "https://api.github.com/users/Kozzi11/events{/privacy}",
    "received_events_url": "https://api.github.com/users/Kozzi11/received_events",
    "type": "User",
    "site_admin": false
  },
  "created_at": "2013-09-08T09:59:07Z",
  "updated_at": "2013-09-08T09:59:27Z",
  "body": "It is much better, but still it does not work properly:\r\n\r\n\\#0  0x0000000000b5d89e in HPHP::StringData::same(HPHP::StringData const*) const ()\r\n\\#1  0x0000000000971b28 in HPHP::JIT::ccmp_equal(HPHP::StringData*, HPHP::StringData*) ()\r\n\\#2  0x000000000540900c in ?? ()\r\n\\#3  0x0000000000fe5e0e in enterTCHelper ()\r\n\\#4  0x0000000000f64a70 in HPHP::Transl::TranslatorX64::enterTC(unsigned char*, void*) ()\r\n\\#5  0x0000000000e13dbb in HPHP::VMExecutionContext::enterVM(HPHP::TypedValue*, HPHP::ActRec*) ()\r\n\\#6  0x0000000000e14710 in HPHP::VMExecutionContext::invokeFunc(HPHP::TypedValue*, HPHP::Func const*, HPHP::Array const&, HPHP::ObjectData*, HPHP::Class*, HPHP::VarEnv*, HPHP::StringData*, HPHP::VMExecutionContext::InvokeFlags) ()\r\n\\#7  0x0000000000e151c5 in HPHP::VMExecutionContext::invokeUnit(HPHP::TypedValue*, HPHP::Unit*) ()\r\n\\#8  0x0000000000b72257 in HPHP::invoke_file(HPHP::String const&, bool, char const*) ()\r\n\\#9  0x0000000000b72ed2 in HPHP::include_impl_invoke(HPHP::String const&, bool, char const*) ()\r\n\\#10 0x0000000000bcb6f9 in HPHP::hphp_invoke(HPHP::ExecutionContext*, std::string const&, bool, HPHP::Array const&, HPHP::VRefParamValue const&, std::string const&, std::string const&, bool&, std::string&, bool, bool, bool) ()\r\n\\#11 0x0000000000d9abf0 in HPHP::HttpRequestHandler::executePHPRequest(HPHP::Transport*, HPHP::RequestURI&, HPHP::SourceRootInfo&, bool) ()\r\n\\#12 0x0000000000d9c2d0 in HPHP::HttpRequestHandler::handleRequest(HPHP::Transport*) ()\r\n\\#13 0x0000000000da39e8 in HPHP::LibEventWorker::doJobImpl(boost::shared_ptr<HPHP::LibEventJob>, bool) ()\r\n\\#14 0x0000000000da3c5a in HPHP::LibEventWorker::doJob(boost::shared_ptr<HPHP::LibEventJob>) ()\r\n\\#15 0x0000000000d7af38 in HPHP::JobQueueWorker<boost::shared_ptr<HPHP::LibEventJob>, true, false, HPHP::JobQueueDropVMStack>::start() ()\r\n\\#16 0x0000000000f9fd17 in HPHP::AsyncFuncImpl::threadFuncImpl() ()\r\n\\#17 0x0000000000f9feb0 in HPHP::AsyncFuncImpl::ThreadFunc(void*) ()\r\n\\#18 0x00007f36b7dbb0a2 in start_thread () from /usr/lib/libpthread.so.0"
}
, {
  "url": "https://api.github.com/repos/facebook/hhvm/issues/comments/24078397",
  "html_url": "https://github.com/facebook/hhvm/issues/990#issuecomment-24078397",
  "issue_url": "https://api.github.com/repos/facebook/hhvm/issues/990",
  "id": 24078397,
  "user": {
    "login": "scannell",
    "id": 4433664,
    "avatar_url": "https://avatars.githubusercontent.com/u/4433664?v=3",
    "gravatar_id": "",
    "url": "https://api.github.com/users/scannell",
    "html_url": "https://github.com/scannell",
    "followers_url": "https://api.github.com/users/scannell/followers",
    "following_url": "https://api.github.com/users/scannell/following{/other_user}",
    "gists_url": "https://api.github.com/users/scannell/gists{/gist_id}",
    "starred_url": "https://api.github.com/users/scannell/starred{/owner}{/repo}",
    "subscriptions_url": "https://api.github.com/users/scannell/subscriptions",
    "organizations_url": "https://api.github.com/users/scannell/orgs",
    "repos_url": "https://api.github.com/users/scannell/repos",
    "events_url": "https://api.github.com/users/scannell/events{/privacy}",
    "received_events_url": "https://api.github.com/users/scannell/received_events",
    "type": "User",
    "site_admin": false
  },
  "created_at": "2013-09-09T14:14:50Z",
  "updated_at": "2013-09-09T14:14:50Z",
  "body": "Can you open a new issue that has a small repro case that produces this backtrace? (Is it sporadic or 100% repro now?)"
}
]
