[
{
  "url": "https://api.github.com/repos/facebook/hhvm/issues/comments/54259349",
  "html_url": "https://github.com/facebook/hhvm/issues/3649#issuecomment-54259349",
  "issue_url": "https://api.github.com/repos/facebook/hhvm/issues/3649",
  "id": 54259349,
  "user": {
    "login": "craigcarnell",
    "id": 1188869,
    "avatar_url": "https://avatars.githubusercontent.com/u/1188869?v=3",
    "gravatar_id": "",
    "url": "https://api.github.com/users/craigcarnell",
    "html_url": "https://github.com/craigcarnell",
    "followers_url": "https://api.github.com/users/craigcarnell/followers",
    "following_url": "https://api.github.com/users/craigcarnell/following{/other_user}",
    "gists_url": "https://api.github.com/users/craigcarnell/gists{/gist_id}",
    "starred_url": "https://api.github.com/users/craigcarnell/starred{/owner}{/repo}",
    "subscriptions_url": "https://api.github.com/users/craigcarnell/subscriptions",
    "organizations_url": "https://api.github.com/users/craigcarnell/orgs",
    "repos_url": "https://api.github.com/users/craigcarnell/repos",
    "events_url": "https://api.github.com/users/craigcarnell/events{/privacy}",
    "received_events_url": "https://api.github.com/users/craigcarnell/received_events",
    "type": "User",
    "site_admin": false
  },
  "created_at": "2014-09-03T07:03:25Z",
  "updated_at": "2014-09-03T07:03:25Z",
  "body": "Why did you close this? was this resolved? What is the default thread count?"
}
]
