[
{
  "url": "https://api.github.com/repos/facebook/hhvm/issues/comments/31204506",
  "html_url": "https://github.com/facebook/hhvm/issues/1436#issuecomment-31204506",
  "issue_url": "https://api.github.com/repos/facebook/hhvm/issues/1436",
  "id": 31204506,
  "user": {
    "login": "scannell",
    "id": 4433664,
    "avatar_url": "https://avatars.githubusercontent.com/u/4433664?v=3",
    "gravatar_id": "",
    "url": "https://api.github.com/users/scannell",
    "html_url": "https://github.com/scannell",
    "followers_url": "https://api.github.com/users/scannell/followers",
    "following_url": "https://api.github.com/users/scannell/following{/other_user}",
    "gists_url": "https://api.github.com/users/scannell/gists{/gist_id}",
    "starred_url": "https://api.github.com/users/scannell/starred{/owner}{/repo}",
    "subscriptions_url": "https://api.github.com/users/scannell/subscriptions",
    "organizations_url": "https://api.github.com/users/scannell/orgs",
    "repos_url": "https://api.github.com/users/scannell/repos",
    "events_url": "https://api.github.com/users/scannell/events{/privacy}",
    "received_events_url": "https://api.github.com/users/scannell/received_events",
    "type": "User",
    "site_admin": false
  },
  "created_at": "2013-12-25T20:00:56Z",
  "updated_at": "2013-12-25T20:00:56Z",
  "body": "Thanks for reporting this. I suspect this is part of htmlspecialchars not being implemented properly or at all. Feel free to submit a PR if you (or anyone else reading this) gets to this before we do."
}
, {
  "url": "https://api.github.com/repos/facebook/hhvm/issues/comments/39517068",
  "html_url": "https://github.com/facebook/hhvm/issues/1436#issuecomment-39517068",
  "issue_url": "https://api.github.com/repos/facebook/hhvm/issues/1436",
  "id": 39517068,
  "user": {
    "login": "LiraNuna",
    "id": 205628,
    "avatar_url": "https://avatars.githubusercontent.com/u/205628?v=3",
    "gravatar_id": "",
    "url": "https://api.github.com/users/LiraNuna",
    "html_url": "https://github.com/LiraNuna",
    "followers_url": "https://api.github.com/users/LiraNuna/followers",
    "following_url": "https://api.github.com/users/LiraNuna/following{/other_user}",
    "gists_url": "https://api.github.com/users/LiraNuna/gists{/gist_id}",
    "starred_url": "https://api.github.com/users/LiraNuna/starred{/owner}{/repo}",
    "subscriptions_url": "https://api.github.com/users/LiraNuna/subscriptions",
    "organizations_url": "https://api.github.com/users/LiraNuna/orgs",
    "repos_url": "https://api.github.com/users/LiraNuna/repos",
    "events_url": "https://api.github.com/users/LiraNuna/events{/privacy}",
    "received_events_url": "https://api.github.com/users/LiraNuna/received_events",
    "type": "User",
    "site_admin": false
  },
  "created_at": "2014-04-03T23:24:16Z",
  "updated_at": "2014-04-03T23:24:16Z",
  "body": "A notice is being given:\r\n\r\n    Notice: Array to string conversion"
}
, {
  "url": "https://api.github.com/repos/facebook/hhvm/issues/comments/41471739",
  "html_url": "https://github.com/facebook/hhvm/issues/1436#issuecomment-41471739",
  "issue_url": "https://api.github.com/repos/facebook/hhvm/issues/1436",
  "id": 41471739,
  "user": {
    "login": "SiebelsTim",
    "id": 1153003,
    "avatar_url": "https://avatars.githubusercontent.com/u/1153003?v=3",
    "gravatar_id": "",
    "url": "https://api.github.com/users/SiebelsTim",
    "html_url": "https://github.com/SiebelsTim",
    "followers_url": "https://api.github.com/users/SiebelsTim/followers",
    "following_url": "https://api.github.com/users/SiebelsTim/following{/other_user}",
    "gists_url": "https://api.github.com/users/SiebelsTim/gists{/gist_id}",
    "starred_url": "https://api.github.com/users/SiebelsTim/starred{/owner}{/repo}",
    "subscriptions_url": "https://api.github.com/users/SiebelsTim/subscriptions",
    "organizations_url": "https://api.github.com/users/SiebelsTim/orgs",
    "repos_url": "https://api.github.com/users/SiebelsTim/repos",
    "events_url": "https://api.github.com/users/SiebelsTim/events{/privacy}",
    "received_events_url": "https://api.github.com/users/SiebelsTim/received_events",
    "type": "User",
    "site_admin": false
  },
  "created_at": "2014-04-26T15:34:20Z",
  "updated_at": "2014-04-26T15:34:20Z",
  "body": "For me, php raises a warning and NULL while hhvm raises a notice and Array.\r\n\r\n    $ php stringconversion.php\r\n    PHP Warning:  htmlspecialchars() expects parameter 1 to be string, array given\r\n    NULL\r\n\r\n    $ hhvm stringconversion.php\r\n    Notice: Array to string conversion\r\n    string(5) \"Array\"\r\n\r\n    $ php --version\r\n    PHP 5.5.9-1ubuntu4 (cli) (built: Apr  9 2014 17:11:57) \r\n    Copyright (c) 1997-2014 The PHP Group\r\n    Zend Engine v2.5.0, Copyright (c) 1998-2014 Zend Technologies\r\n        with Zend OPcache v7.0.3, Copyright (c) 1999-2014, by Zend Technologies\r\n    $ hhvm --version\r\n    HipHop VM 3.0.1 (rel)\r\n    Compiler: tags/HHVM-3.0.1-0-g1da451b79f40686de6472d23cf90fdd09fa4dc23\r\n    Repo schema: 11f0d546efba889ced1f9b92d9c9249f494d0b84\r\n"
}
, {
  "url": "https://api.github.com/repos/facebook/hhvm/issues/comments/43239679",
  "html_url": "https://github.com/facebook/hhvm/issues/1436#issuecomment-43239679",
  "issue_url": "https://api.github.com/repos/facebook/hhvm/issues/1436",
  "id": 43239679,
  "user": {
    "login": "fredemmott",
    "id": 360927,
    "avatar_url": "https://avatars.githubusercontent.com/u/360927?v=3",
    "gravatar_id": "",
    "url": "https://api.github.com/users/fredemmott",
    "html_url": "https://github.com/fredemmott",
    "followers_url": "https://api.github.com/users/fredemmott/followers",
    "following_url": "https://api.github.com/users/fredemmott/following{/other_user}",
    "gists_url": "https://api.github.com/users/fredemmott/gists{/gist_id}",
    "starred_url": "https://api.github.com/users/fredemmott/starred{/owner}{/repo}",
    "subscriptions_url": "https://api.github.com/users/fredemmott/subscriptions",
    "organizations_url": "https://api.github.com/users/fredemmott/orgs",
    "repos_url": "https://api.github.com/users/fredemmott/repos",
    "events_url": "https://api.github.com/users/fredemmott/events{/privacy}",
    "received_events_url": "https://api.github.com/users/fredemmott/received_events",
    "type": "User",
    "site_admin": false
  },
  "created_at": "2014-05-15T17:26:56Z",
  "updated_at": "2014-05-15T17:26:56Z",
  "body": "Incorrect fix, working on a better one."
}
]
