[
{
  "url": "https://api.github.com/repos/facebook/hhvm/issues/comments/60161314",
  "html_url": "https://github.com/facebook/hhvm/pull/4039#issuecomment-60161314",
  "issue_url": "https://api.github.com/repos/facebook/hhvm/issues/4039",
  "id": 60161314,
  "user": {
    "login": "facebook-github-bot",
    "id": 6422482,
    "avatar_url": "https://avatars.githubusercontent.com/u/6422482?v=3",
    "gravatar_id": "",
    "url": "https://api.github.com/users/facebook-github-bot",
    "html_url": "https://github.com/facebook-github-bot",
    "followers_url": "https://api.github.com/users/facebook-github-bot/followers",
    "following_url": "https://api.github.com/users/facebook-github-bot/following{/other_user}",
    "gists_url": "https://api.github.com/users/facebook-github-bot/gists{/gist_id}",
    "starred_url": "https://api.github.com/users/facebook-github-bot/starred{/owner}{/repo}",
    "subscriptions_url": "https://api.github.com/users/facebook-github-bot/subscriptions",
    "organizations_url": "https://api.github.com/users/facebook-github-bot/orgs",
    "repos_url": "https://api.github.com/users/facebook-github-bot/repos",
    "events_url": "https://api.github.com/users/facebook-github-bot/events{/privacy}",
    "received_events_url": "https://api.github.com/users/facebook-github-bot/received_events",
    "type": "User",
    "site_admin": false
  },
  "created_at": "2014-10-22T21:47:51Z",
  "updated_at": "2014-10-22T21:47:51Z",
  "body": "This pull request has been imported into Phabricator, and discussion and review of the diff will take place at https://reviews.facebook.net/D25485"
}
]
