[
{
  "url": "https://api.github.com/repos/facebook/hhvm/issues/comments/47028517",
  "html_url": "https://github.com/facebook/hhvm/pull/3027#issuecomment-47028517",
  "issue_url": "https://api.github.com/repos/facebook/hhvm/issues/3027",
  "id": 47028517,
  "user": {
    "login": "facebook-github-bot",
    "id": 6422482,
    "avatar_url": "https://avatars.githubusercontent.com/u/6422482?v=3",
    "gravatar_id": "",
    "url": "https://api.github.com/users/facebook-github-bot",
    "html_url": "https://github.com/facebook-github-bot",
    "followers_url": "https://api.github.com/users/facebook-github-bot/followers",
    "following_url": "https://api.github.com/users/facebook-github-bot/following{/other_user}",
    "gists_url": "https://api.github.com/users/facebook-github-bot/gists{/gist_id}",
    "starred_url": "https://api.github.com/users/facebook-github-bot/starred{/owner}{/repo}",
    "subscriptions_url": "https://api.github.com/users/facebook-github-bot/subscriptions",
    "organizations_url": "https://api.github.com/users/facebook-github-bot/orgs",
    "repos_url": "https://api.github.com/users/facebook-github-bot/repos",
    "events_url": "https://api.github.com/users/facebook-github-bot/events{/privacy}",
    "received_events_url": "https://api.github.com/users/facebook-github-bot/received_events",
    "type": "User",
    "site_admin": false
  },
  "created_at": "2014-06-24T20:47:27Z",
  "updated_at": "2014-06-24T20:47:27Z",
  "body": "Thank you for your pull request and welcome to our community. We require contributors to sign our Contributor License Agreement, and we don't seem to have you on file. In order for us to review and merge your code, please sign up at https://code.facebook.com/cla - and if you have received this in error or have any questions, please drop us a line at cla@fb.com. Thanks!"
}
, {
  "url": "https://api.github.com/repos/facebook/hhvm/issues/comments/47036877",
  "html_url": "https://github.com/facebook/hhvm/pull/3027#issuecomment-47036877",
  "issue_url": "https://api.github.com/repos/facebook/hhvm/issues/3027",
  "id": 47036877,
  "user": {
    "login": "JoelMarcey",
    "id": 3757713,
    "avatar_url": "https://avatars.githubusercontent.com/u/3757713?v=3",
    "gravatar_id": "",
    "url": "https://api.github.com/users/JoelMarcey",
    "html_url": "https://github.com/JoelMarcey",
    "followers_url": "https://api.github.com/users/JoelMarcey/followers",
    "following_url": "https://api.github.com/users/JoelMarcey/following{/other_user}",
    "gists_url": "https://api.github.com/users/JoelMarcey/gists{/gist_id}",
    "starred_url": "https://api.github.com/users/JoelMarcey/starred{/owner}{/repo}",
    "subscriptions_url": "https://api.github.com/users/JoelMarcey/subscriptions",
    "organizations_url": "https://api.github.com/users/JoelMarcey/orgs",
    "repos_url": "https://api.github.com/users/JoelMarcey/repos",
    "events_url": "https://api.github.com/users/JoelMarcey/events{/privacy}",
    "received_events_url": "https://api.github.com/users/JoelMarcey/received_events",
    "type": "User",
    "site_admin": false
  },
  "created_at": "2014-06-24T22:02:00Z",
  "updated_at": "2014-06-24T22:02:00Z",
  "body": "@rrh Hi! I have pulled this in for review. Thanks!\r\n\r\nInternal Diff Number: D1401272"
}
, {
  "url": "https://api.github.com/repos/facebook/hhvm/issues/comments/47037103",
  "html_url": "https://github.com/facebook/hhvm/pull/3027#issuecomment-47037103",
  "issue_url": "https://api.github.com/repos/facebook/hhvm/issues/3027",
  "id": 47037103,
  "user": {
    "login": "rrh",
    "id": 1577878,
    "avatar_url": "https://avatars.githubusercontent.com/u/1577878?v=3",
    "gravatar_id": "",
    "url": "https://api.github.com/users/rrh",
    "html_url": "https://github.com/rrh",
    "followers_url": "https://api.github.com/users/rrh/followers",
    "following_url": "https://api.github.com/users/rrh/following{/other_user}",
    "gists_url": "https://api.github.com/users/rrh/gists{/gist_id}",
    "starred_url": "https://api.github.com/users/rrh/starred{/owner}{/repo}",
    "subscriptions_url": "https://api.github.com/users/rrh/subscriptions",
    "organizations_url": "https://api.github.com/users/rrh/orgs",
    "repos_url": "https://api.github.com/users/rrh/repos",
    "events_url": "https://api.github.com/users/rrh/events{/privacy}",
    "received_events_url": "https://api.github.com/users/rrh/received_events",
    "type": "User",
    "site_admin": false
  },
  "created_at": "2014-06-24T22:04:19Z",
  "updated_at": "2014-06-24T22:04:19Z",
  "body": "The review robot thinks I haven't executed the CLA yet, but I think I have.  \"I\" would be my corporate lawyer and corporate presence.  I'll try to get this straightened out today."
}
, {
  "url": "https://api.github.com/repos/facebook/hhvm/issues/comments/47038151",
  "html_url": "https://github.com/facebook/hhvm/pull/3027#issuecomment-47038151",
  "issue_url": "https://api.github.com/repos/facebook/hhvm/issues/3027",
  "id": 47038151,
  "user": {
    "login": "JoelMarcey",
    "id": 3757713,
    "avatar_url": "https://avatars.githubusercontent.com/u/3757713?v=3",
    "gravatar_id": "",
    "url": "https://api.github.com/users/JoelMarcey",
    "html_url": "https://github.com/JoelMarcey",
    "followers_url": "https://api.github.com/users/JoelMarcey/followers",
    "following_url": "https://api.github.com/users/JoelMarcey/following{/other_user}",
    "gists_url": "https://api.github.com/users/JoelMarcey/gists{/gist_id}",
    "starred_url": "https://api.github.com/users/JoelMarcey/starred{/owner}{/repo}",
    "subscriptions_url": "https://api.github.com/users/JoelMarcey/subscriptions",
    "organizations_url": "https://api.github.com/users/JoelMarcey/orgs",
    "repos_url": "https://api.github.com/users/JoelMarcey/repos",
    "events_url": "https://api.github.com/users/JoelMarcey/events{/privacy}",
    "received_events_url": "https://api.github.com/users/JoelMarcey/received_events",
    "type": "User",
    "site_admin": false
  },
  "created_at": "2014-06-24T22:15:16Z",
  "updated_at": "2014-06-24T22:15:16Z",
  "body": "@rrh Oh. I read the bot wrong and too fast. I thought you had signed it too. I am assuming you are signing via that link above?"
}
, {
  "url": "https://api.github.com/repos/facebook/hhvm/issues/comments/47268545",
  "html_url": "https://github.com/facebook/hhvm/pull/3027#issuecomment-47268545",
  "issue_url": "https://api.github.com/repos/facebook/hhvm/issues/3027",
  "id": 47268545,
  "user": {
    "login": "rrh",
    "id": 1577878,
    "avatar_url": "https://avatars.githubusercontent.com/u/1577878?v=3",
    "gravatar_id": "",
    "url": "https://api.github.com/users/rrh",
    "html_url": "https://github.com/rrh",
    "followers_url": "https://api.github.com/users/rrh/followers",
    "following_url": "https://api.github.com/users/rrh/following{/other_user}",
    "gists_url": "https://api.github.com/users/rrh/gists{/gist_id}",
    "starred_url": "https://api.github.com/users/rrh/starred{/owner}{/repo}",
    "subscriptions_url": "https://api.github.com/users/rrh/subscriptions",
    "organizations_url": "https://api.github.com/users/rrh/orgs",
    "repos_url": "https://api.github.com/users/rrh/repos",
    "events_url": "https://api.github.com/users/rrh/events{/privacy}",
    "received_events_url": "https://api.github.com/users/rrh/received_events",
    "type": "User",
    "site_admin": false
  },
  "created_at": "2014-06-26T19:26:01Z",
  "updated_at": "2014-06-26T19:26:01Z",
  "body": "Sara chased down the CLA on FB's end.  The paper pusher checked the appropriate box(es), and Sara says that \"it is official now\".  Joelm concurs."
}
, {
  "url": "https://api.github.com/repos/facebook/hhvm/issues/comments/47269818",
  "html_url": "https://github.com/facebook/hhvm/pull/3027#issuecomment-47269818",
  "issue_url": "https://api.github.com/repos/facebook/hhvm/issues/3027",
  "id": 47269818,
  "user": {
    "login": "facebook-github-bot",
    "id": 6422482,
    "avatar_url": "https://avatars.githubusercontent.com/u/6422482?v=3",
    "gravatar_id": "",
    "url": "https://api.github.com/users/facebook-github-bot",
    "html_url": "https://github.com/facebook-github-bot",
    "followers_url": "https://api.github.com/users/facebook-github-bot/followers",
    "following_url": "https://api.github.com/users/facebook-github-bot/following{/other_user}",
    "gists_url": "https://api.github.com/users/facebook-github-bot/gists{/gist_id}",
    "starred_url": "https://api.github.com/users/facebook-github-bot/starred{/owner}{/repo}",
    "subscriptions_url": "https://api.github.com/users/facebook-github-bot/subscriptions",
    "organizations_url": "https://api.github.com/users/facebook-github-bot/orgs",
    "repos_url": "https://api.github.com/users/facebook-github-bot/repos",
    "events_url": "https://api.github.com/users/facebook-github-bot/events{/privacy}",
    "received_events_url": "https://api.github.com/users/facebook-github-bot/received_events",
    "type": "User",
    "site_admin": false
  },
  "created_at": "2014-06-26T19:36:45Z",
  "updated_at": "2014-06-26T19:36:45Z",
  "body": "Thank you for signing our Contributor License Agreement. We can now accept your code for this (and any) Facebook open source project. Thanks!"
}
]
