[
{
  "url": "https://api.github.com/repos/facebook/hhvm/issues/comments/317104",
  "html_url": "https://github.com/facebook/hhvm/issues/160#issuecomment-317104",
  "issue_url": "https://api.github.com/repos/facebook/hhvm/issues/160",
  "id": 317104,
  "user": {
    "login": "chrisgraham",
    "id": 195389,
    "avatar_url": "https://avatars.githubusercontent.com/u/195389?v=3",
    "gravatar_id": "",
    "url": "https://api.github.com/users/chrisgraham",
    "html_url": "https://github.com/chrisgraham",
    "followers_url": "https://api.github.com/users/chrisgraham/followers",
    "following_url": "https://api.github.com/users/chrisgraham/following{/other_user}",
    "gists_url": "https://api.github.com/users/chrisgraham/gists{/gist_id}",
    "starred_url": "https://api.github.com/users/chrisgraham/starred{/owner}{/repo}",
    "subscriptions_url": "https://api.github.com/users/chrisgraham/subscriptions",
    "organizations_url": "https://api.github.com/users/chrisgraham/orgs",
    "repos_url": "https://api.github.com/users/chrisgraham/repos",
    "events_url": "https://api.github.com/users/chrisgraham/events{/privacy}",
    "received_events_url": "https://api.github.com/users/chrisgraham/received_events",
    "type": "User",
    "site_admin": false
  },
  "created_at": "2010-07-18T19:32:44Z",
  "updated_at": "2010-07-18T19:32:44Z",
  "body": "Also\r\n<pre>\r\nbreak \"whatever\"\r\n</pre>\r\nshould not be ignored, but rather treated like a normal break."
}
, {
  "url": "https://api.github.com/repos/facebook/hhvm/issues/comments/317105",
  "html_url": "https://github.com/facebook/hhvm/issues/160#issuecomment-317105",
  "issue_url": "https://api.github.com/repos/facebook/hhvm/issues/160",
  "id": 317105,
  "user": {
    "login": "chrisgraham",
    "id": 195389,
    "avatar_url": "https://avatars.githubusercontent.com/u/195389?v=3",
    "gravatar_id": "",
    "url": "https://api.github.com/users/chrisgraham",
    "html_url": "https://github.com/chrisgraham",
    "followers_url": "https://api.github.com/users/chrisgraham/followers",
    "following_url": "https://api.github.com/users/chrisgraham/following{/other_user}",
    "gists_url": "https://api.github.com/users/chrisgraham/gists{/gist_id}",
    "starred_url": "https://api.github.com/users/chrisgraham/starred{/owner}{/repo}",
    "subscriptions_url": "https://api.github.com/users/chrisgraham/subscriptions",
    "organizations_url": "https://api.github.com/users/chrisgraham/orgs",
    "repos_url": "https://api.github.com/users/chrisgraham/repos",
    "events_url": "https://api.github.com/users/chrisgraham/events{/privacy}",
    "received_events_url": "https://api.github.com/users/chrisgraham/received_events",
    "type": "User",
    "site_admin": false
  },
  "created_at": "2010-07-18T19:33:13Z",
  "updated_at": "2010-07-18T19:33:13Z",
  "body": "and \"break 0\""
}
, {
  "url": "https://api.github.com/repos/facebook/hhvm/issues/comments/7261080",
  "html_url": "https://github.com/facebook/hhvm/issues/160#issuecomment-7261080",
  "issue_url": "https://api.github.com/repos/facebook/hhvm/issues/160",
  "id": 7261080,
  "user": {
    "login": "sgolemon",
    "id": 812538,
    "avatar_url": "https://avatars.githubusercontent.com/u/812538?v=3",
    "gravatar_id": "",
    "url": "https://api.github.com/users/sgolemon",
    "html_url": "https://github.com/sgolemon",
    "followers_url": "https://api.github.com/users/sgolemon/followers",
    "following_url": "https://api.github.com/users/sgolemon/following{/other_user}",
    "gists_url": "https://api.github.com/users/sgolemon/gists{/gist_id}",
    "starred_url": "https://api.github.com/users/sgolemon/starred{/owner}{/repo}",
    "subscriptions_url": "https://api.github.com/users/sgolemon/subscriptions",
    "organizations_url": "https://api.github.com/users/sgolemon/orgs",
    "repos_url": "https://api.github.com/users/sgolemon/repos",
    "events_url": "https://api.github.com/users/sgolemon/events{/privacy}",
    "received_events_url": "https://api.github.com/users/sgolemon/received_events",
    "type": "User",
    "site_admin": false
  },
  "created_at": "2012-07-25T20:30:14Z",
  "updated_at": "2012-07-25T20:30:14Z",
  "body": "Checked all cases, each one behaves as expected currently."
}
]
