[
{
  "url": "https://api.github.com/repos/facebook/hhvm/issues/comments/46507085",
  "html_url": "https://github.com/facebook/hhvm/issues/2980#issuecomment-46507085",
  "issue_url": "https://api.github.com/repos/facebook/hhvm/issues/2980",
  "id": 46507085,
  "user": {
    "login": "Aatch",
    "id": 342416,
    "avatar_url": "https://avatars.githubusercontent.com/u/342416?v=3",
    "gravatar_id": "",
    "url": "https://api.github.com/users/Aatch",
    "html_url": "https://github.com/Aatch",
    "followers_url": "https://api.github.com/users/Aatch/followers",
    "following_url": "https://api.github.com/users/Aatch/following{/other_user}",
    "gists_url": "https://api.github.com/users/Aatch/gists{/gist_id}",
    "starred_url": "https://api.github.com/users/Aatch/starred{/owner}{/repo}",
    "subscriptions_url": "https://api.github.com/users/Aatch/subscriptions",
    "organizations_url": "https://api.github.com/users/Aatch/orgs",
    "repos_url": "https://api.github.com/users/Aatch/repos",
    "events_url": "https://api.github.com/users/Aatch/events{/privacy}",
    "received_events_url": "https://api.github.com/users/Aatch/received_events",
    "type": "User",
    "site_admin": false
  },
  "created_at": "2014-06-18T23:23:52Z",
  "updated_at": "2014-06-18T23:23:52Z",
  "body": "PDO support is being slowly worked on, tracked by this issue: https://github.com/PocketRent/hhvm-pgsql/issues/2\r\n\r\nIt's unlikely that pgsql will be added into the core repo, as we want to move away from bundling more and more extensions into HHVM."
}
, {
  "url": "https://api.github.com/repos/facebook/hhvm/issues/comments/46522126",
  "html_url": "https://github.com/facebook/hhvm/issues/2980#issuecomment-46522126",
  "issue_url": "https://api.github.com/repos/facebook/hhvm/issues/2980",
  "id": 46522126,
  "user": {
    "login": "sammcj",
    "id": 862951,
    "avatar_url": "https://avatars.githubusercontent.com/u/862951?v=3",
    "gravatar_id": "",
    "url": "https://api.github.com/users/sammcj",
    "html_url": "https://github.com/sammcj",
    "followers_url": "https://api.github.com/users/sammcj/followers",
    "following_url": "https://api.github.com/users/sammcj/following{/other_user}",
    "gists_url": "https://api.github.com/users/sammcj/gists{/gist_id}",
    "starred_url": "https://api.github.com/users/sammcj/starred{/owner}{/repo}",
    "subscriptions_url": "https://api.github.com/users/sammcj/subscriptions",
    "organizations_url": "https://api.github.com/users/sammcj/orgs",
    "repos_url": "https://api.github.com/users/sammcj/repos",
    "events_url": "https://api.github.com/users/sammcj/events{/privacy}",
    "received_events_url": "https://api.github.com/users/sammcj/received_events",
    "type": "User",
    "site_admin": false
  },
  "created_at": "2014-06-19T04:16:52Z",
  "updated_at": "2014-06-19T04:16:52Z",
  "body": "Is it possible it could be added to the packages though?"
}
, {
  "url": "https://api.github.com/repos/facebook/hhvm/issues/comments/46592878",
  "html_url": "https://github.com/facebook/hhvm/issues/2980#issuecomment-46592878",
  "issue_url": "https://api.github.com/repos/facebook/hhvm/issues/2980",
  "id": 46592878,
  "user": {
    "login": "fredemmott",
    "id": 360927,
    "avatar_url": "https://avatars.githubusercontent.com/u/360927?v=3",
    "gravatar_id": "",
    "url": "https://api.github.com/users/fredemmott",
    "html_url": "https://github.com/fredemmott",
    "followers_url": "https://api.github.com/users/fredemmott/followers",
    "following_url": "https://api.github.com/users/fredemmott/following{/other_user}",
    "gists_url": "https://api.github.com/users/fredemmott/gists{/gist_id}",
    "starred_url": "https://api.github.com/users/fredemmott/starred{/owner}{/repo}",
    "subscriptions_url": "https://api.github.com/users/fredemmott/subscriptions",
    "organizations_url": "https://api.github.com/users/fredemmott/orgs",
    "repos_url": "https://api.github.com/users/fredemmott/repos",
    "events_url": "https://api.github.com/users/fredemmott/events{/privacy}",
    "received_events_url": "https://api.github.com/users/fredemmott/received_events",
    "type": "User",
    "site_admin": false
  },
  "created_at": "2014-06-19T17:43:57Z",
  "updated_at": "2014-06-19T17:43:57Z",
  "body": "It won't be in the core package. We're looking at good ways to install separate extensions - composer, or separate debs are likely - eg you install hhvm + hhvm-pgsql in the future."
}
]
