[
{
  "url": "https://api.github.com/repos/Microsoft/TypeScript/issues/comments/78155379",
  "html_url": "https://github.com/Microsoft/TypeScript/issues/2288#issuecomment-78155379",
  "issue_url": "https://api.github.com/repos/Microsoft/TypeScript/issues/2288",
  "id": 78155379,
  "user": {
    "login": "danquirk",
    "id": 7121557,
    "avatar_url": "https://avatars.githubusercontent.com/u/7121557?v=3",
    "gravatar_id": "",
    "url": "https://api.github.com/users/danquirk",
    "html_url": "https://github.com/danquirk",
    "followers_url": "https://api.github.com/users/danquirk/followers",
    "following_url": "https://api.github.com/users/danquirk/following{/other_user}",
    "gists_url": "https://api.github.com/users/danquirk/gists{/gist_id}",
    "starred_url": "https://api.github.com/users/danquirk/starred{/owner}{/repo}",
    "subscriptions_url": "https://api.github.com/users/danquirk/subscriptions",
    "organizations_url": "https://api.github.com/users/danquirk/orgs",
    "repos_url": "https://api.github.com/users/danquirk/repos",
    "events_url": "https://api.github.com/users/danquirk/events{/privacy}",
    "received_events_url": "https://api.github.com/users/danquirk/received_events",
    "type": "User",
    "site_admin": false
  },
  "created_at": "2015-03-10T21:46:05Z",
  "updated_at": "2015-03-10T21:46:05Z",
  "body": "This is by design. TypeScript uses structural typing to determine assignability. The name of a type is irrelevant, what matters is its shape. In this case your Company and Employee types are identical based on their shape, so they are assignable to one another. If they had a disjoint set of properties you would see the error you expect. This design is intended to enable common JavaScript/TypeScript patterns that mix named types (classes/interfaces) with unnamed types (object literals and function types)."
}
, {
  "url": "https://api.github.com/repos/Microsoft/TypeScript/issues/comments/78161646",
  "html_url": "https://github.com/Microsoft/TypeScript/issues/2288#issuecomment-78161646",
  "issue_url": "https://api.github.com/repos/Microsoft/TypeScript/issues/2288",
  "id": 78161646,
  "user": {
    "login": "Dzienny",
    "id": 2404666,
    "avatar_url": "https://avatars.githubusercontent.com/u/2404666?v=3",
    "gravatar_id": "",
    "url": "https://api.github.com/users/Dzienny",
    "html_url": "https://github.com/Dzienny",
    "followers_url": "https://api.github.com/users/Dzienny/followers",
    "following_url": "https://api.github.com/users/Dzienny/following{/other_user}",
    "gists_url": "https://api.github.com/users/Dzienny/gists{/gist_id}",
    "starred_url": "https://api.github.com/users/Dzienny/starred{/owner}{/repo}",
    "subscriptions_url": "https://api.github.com/users/Dzienny/subscriptions",
    "organizations_url": "https://api.github.com/users/Dzienny/orgs",
    "repos_url": "https://api.github.com/users/Dzienny/repos",
    "events_url": "https://api.github.com/users/Dzienny/events{/privacy}",
    "received_events_url": "https://api.github.com/users/Dzienny/received_events",
    "type": "User",
    "site_admin": false
  },
  "created_at": "2015-03-10T22:23:30Z",
  "updated_at": "2015-03-10T22:23:30Z",
  "body": "I see and I suppose, in this case, it would be possible to have both - ie enable common JavaScript/TypeScript patterns and warn a programmer when appropriate. In the example there are two Typescript classes that probably have a different meaning/purpose and the compiler could notice it. The programmer would have to add explicit cast to get rid of the warning, example:\r\n```typescript\r\narray.push(<Employee>new Company('Google'));\r\n```"
}
, {
  "url": "https://api.github.com/repos/Microsoft/TypeScript/issues/comments/78163515",
  "html_url": "https://github.com/Microsoft/TypeScript/issues/2288#issuecomment-78163515",
  "issue_url": "https://api.github.com/repos/Microsoft/TypeScript/issues/2288",
  "id": 78163515,
  "user": {
    "login": "danquirk",
    "id": 7121557,
    "avatar_url": "https://avatars.githubusercontent.com/u/7121557?v=3",
    "gravatar_id": "",
    "url": "https://api.github.com/users/danquirk",
    "html_url": "https://github.com/danquirk",
    "followers_url": "https://api.github.com/users/danquirk/followers",
    "following_url": "https://api.github.com/users/danquirk/following{/other_user}",
    "gists_url": "https://api.github.com/users/danquirk/gists{/gist_id}",
    "starred_url": "https://api.github.com/users/danquirk/starred{/owner}{/repo}",
    "subscriptions_url": "https://api.github.com/users/danquirk/subscriptions",
    "organizations_url": "https://api.github.com/users/danquirk/orgs",
    "repos_url": "https://api.github.com/users/danquirk/repos",
    "events_url": "https://api.github.com/users/danquirk/events{/privacy}",
    "received_events_url": "https://api.github.com/users/danquirk/received_events",
    "type": "User",
    "site_admin": false
  },
  "created_at": "2015-03-10T22:35:45Z",
  "updated_at": "2015-03-10T22:35:45Z",
  "body": "How does the compiler notice it? Only when the types are identical? Why should it be illegal to have 2 things that are shaped the same? What if they're not precisely identical?\r\n\r\n```ts\r\ninterface Point {\r\n    x: number;\r\n    y: number\r\n}\r\n\r\ninterface Point3D {\r\n    x: number;\r\n    y: number;\r\n    z: number\r\n}\r\n\r\nvar arr: Array<Point>;\r\nvar p3: Point3D;\r\narr.push(p3); // error? by what logic?\r\n```\r\n\r\nYou can find a lot of discussion about this in #202"
}
, {
  "url": "https://api.github.com/repos/Microsoft/TypeScript/issues/comments/78176439",
  "html_url": "https://github.com/Microsoft/TypeScript/issues/2288#issuecomment-78176439",
  "issue_url": "https://api.github.com/repos/Microsoft/TypeScript/issues/2288",
  "id": 78176439,
  "user": {
    "login": "Dzienny",
    "id": 2404666,
    "avatar_url": "https://avatars.githubusercontent.com/u/2404666?v=3",
    "gravatar_id": "",
    "url": "https://api.github.com/users/Dzienny",
    "html_url": "https://github.com/Dzienny",
    "followers_url": "https://api.github.com/users/Dzienny/followers",
    "following_url": "https://api.github.com/users/Dzienny/following{/other_user}",
    "gists_url": "https://api.github.com/users/Dzienny/gists{/gist_id}",
    "starred_url": "https://api.github.com/users/Dzienny/starred{/owner}{/repo}",
    "subscriptions_url": "https://api.github.com/users/Dzienny/subscriptions",
    "organizations_url": "https://api.github.com/users/Dzienny/orgs",
    "repos_url": "https://api.github.com/users/Dzienny/repos",
    "events_url": "https://api.github.com/users/Dzienny/events{/privacy}",
    "received_events_url": "https://api.github.com/users/Dzienny/received_events",
    "type": "User",
    "site_admin": false
  },
  "created_at": "2015-03-11T00:13:17Z",
  "updated_at": "2015-03-11T00:13:17Z",
  "body": "In case of TypeScript classes the compiler could look at their shape first, and then look at their name and scope. Then if the shape is different, it would produce the standard error \"Type 'a' is not assignable to type 'b'; else if the name or scope are different, it would produce a warning about the missing cast.\r\n\r\nIn the given example, I would really prefer to have a warning and have to make a cast to get rid of it, since putting a 3d point into a 2d points array may indicate a potential error. The 3d point should probably be projected onto 2d space first, or maybe some other computation could be needed. Or maybe that is exactly what the author intended; a cast would make the intention clear. To me one of the main points of having type checks is to detect potential problems as early as possible and I believe this extra check would help."
}
, {
  "url": "https://api.github.com/repos/Microsoft/TypeScript/issues/comments/78183260",
  "html_url": "https://github.com/Microsoft/TypeScript/issues/2288#issuecomment-78183260",
  "issue_url": "https://api.github.com/repos/Microsoft/TypeScript/issues/2288",
  "id": 78183260,
  "user": {
    "login": "danquirk",
    "id": 7121557,
    "avatar_url": "https://avatars.githubusercontent.com/u/7121557?v=3",
    "gravatar_id": "",
    "url": "https://api.github.com/users/danquirk",
    "html_url": "https://github.com/danquirk",
    "followers_url": "https://api.github.com/users/danquirk/followers",
    "following_url": "https://api.github.com/users/danquirk/following{/other_user}",
    "gists_url": "https://api.github.com/users/danquirk/gists{/gist_id}",
    "starred_url": "https://api.github.com/users/danquirk/starred{/owner}{/repo}",
    "subscriptions_url": "https://api.github.com/users/danquirk/subscriptions",
    "organizations_url": "https://api.github.com/users/danquirk/orgs",
    "repos_url": "https://api.github.com/users/danquirk/repos",
    "events_url": "https://api.github.com/users/danquirk/events{/privacy}",
    "received_events_url": "https://api.github.com/users/danquirk/received_events",
    "type": "User",
    "site_admin": false
  },
  "created_at": "2015-03-11T01:21:55Z",
  "updated_at": "2015-03-11T01:21:55Z",
  "body": "Your proposal is essentially to add a nominal check on top of structural checks. This simply isn't going to happen. It doesn't mesh with how people actually use JavaScript today and would be a massive breaking change. Yes there are patterns where structural typing does not give you the same safety as nominal typing. Conversely, there are patterns nominal typing does not allow, or makes extremely painful, which structural typing makes simple or possible at all. There are trade offs with each, but the domain in which TypeScript is in necessitates structural typing. We don't want to be in a situation where you constantly have to annotate and cast your object literals and other correct, working JavaScript code just to satisfy the compiler."
}
]
