[
{
  "url": "https://api.github.com/repos/Microsoft/TypeScript/issues/comments/159350348",
  "html_url": "https://github.com/Microsoft/TypeScript/issues/5776#issuecomment-159350348",
  "issue_url": "https://api.github.com/repos/Microsoft/TypeScript/issues/5776",
  "id": 159350348,
  "user": {
    "login": "RyanCavanaugh",
    "id": 6685088,
    "avatar_url": "https://avatars.githubusercontent.com/u/6685088?v=3",
    "gravatar_id": "",
    "url": "https://api.github.com/users/RyanCavanaugh",
    "html_url": "https://github.com/RyanCavanaugh",
    "followers_url": "https://api.github.com/users/RyanCavanaugh/followers",
    "following_url": "https://api.github.com/users/RyanCavanaugh/following{/other_user}",
    "gists_url": "https://api.github.com/users/RyanCavanaugh/gists{/gist_id}",
    "starred_url": "https://api.github.com/users/RyanCavanaugh/starred{/owner}{/repo}",
    "subscriptions_url": "https://api.github.com/users/RyanCavanaugh/subscriptions",
    "organizations_url": "https://api.github.com/users/RyanCavanaugh/orgs",
    "repos_url": "https://api.github.com/users/RyanCavanaugh/repos",
    "events_url": "https://api.github.com/users/RyanCavanaugh/events{/privacy}",
    "received_events_url": "https://api.github.com/users/RyanCavanaugh/received_events",
    "type": "User",
    "site_admin": false
  },
  "created_at": "2015-11-24T17:35:31Z",
  "updated_at": "2015-11-24T17:35:31Z",
  "body": "Duplicate of #3812"
}
, {
  "url": "https://api.github.com/repos/Microsoft/TypeScript/issues/comments/159360756",
  "html_url": "https://github.com/Microsoft/TypeScript/issues/5776#issuecomment-159360756",
  "issue_url": "https://api.github.com/repos/Microsoft/TypeScript/issues/5776",
  "id": 159360756,
  "user": {
    "login": "wesleycho",
    "id": 1703387,
    "avatar_url": "https://avatars.githubusercontent.com/u/1703387?v=3",
    "gravatar_id": "",
    "url": "https://api.github.com/users/wesleycho",
    "html_url": "https://github.com/wesleycho",
    "followers_url": "https://api.github.com/users/wesleycho/followers",
    "following_url": "https://api.github.com/users/wesleycho/following{/other_user}",
    "gists_url": "https://api.github.com/users/wesleycho/gists{/gist_id}",
    "starred_url": "https://api.github.com/users/wesleycho/starred{/owner}{/repo}",
    "subscriptions_url": "https://api.github.com/users/wesleycho/subscriptions",
    "organizations_url": "https://api.github.com/users/wesleycho/orgs",
    "repos_url": "https://api.github.com/users/wesleycho/repos",
    "events_url": "https://api.github.com/users/wesleycho/events{/privacy}",
    "received_events_url": "https://api.github.com/users/wesleycho/received_events",
    "type": "User",
    "site_admin": false
  },
  "created_at": "2015-11-24T18:16:23Z",
  "updated_at": "2015-11-24T18:16:23Z",
  "body": "Ah sorry, couldn't find anything mentioning union types in particular when searching for issues."
}
]
