[
{
  "url": "https://api.github.com/repos/Microsoft/TypeScript/issues/comments/172377209",
  "html_url": "https://github.com/Microsoft/TypeScript/issues/6521#issuecomment-172377209",
  "issue_url": "https://api.github.com/repos/Microsoft/TypeScript/issues/6521",
  "id": 172377209,
  "user": {
    "login": "SamuelEnglard",
    "id": 1119883,
    "avatar_url": "https://avatars.githubusercontent.com/u/1119883?v=3",
    "gravatar_id": "",
    "url": "https://api.github.com/users/SamuelEnglard",
    "html_url": "https://github.com/SamuelEnglard",
    "followers_url": "https://api.github.com/users/SamuelEnglard/followers",
    "following_url": "https://api.github.com/users/SamuelEnglard/following{/other_user}",
    "gists_url": "https://api.github.com/users/SamuelEnglard/gists{/gist_id}",
    "starred_url": "https://api.github.com/users/SamuelEnglard/starred{/owner}{/repo}",
    "subscriptions_url": "https://api.github.com/users/SamuelEnglard/subscriptions",
    "organizations_url": "https://api.github.com/users/SamuelEnglard/orgs",
    "repos_url": "https://api.github.com/users/SamuelEnglard/repos",
    "events_url": "https://api.github.com/users/SamuelEnglard/events{/privacy}",
    "received_events_url": "https://api.github.com/users/SamuelEnglard/received_events",
    "type": "User",
    "site_admin": false
  },
  "created_at": "2016-01-17T20:24:02Z",
  "updated_at": "2016-01-17T20:24:02Z",
  "body": "Using what minifier?"
}
, {
  "url": "https://api.github.com/repos/Microsoft/TypeScript/issues/comments/172377879",
  "html_url": "https://github.com/Microsoft/TypeScript/issues/6521#issuecomment-172377879",
  "issue_url": "https://api.github.com/repos/Microsoft/TypeScript/issues/6521",
  "id": 172377879,
  "user": {
    "login": "tandu",
    "id": 273313,
    "avatar_url": "https://avatars.githubusercontent.com/u/273313?v=3",
    "gravatar_id": "",
    "url": "https://api.github.com/users/tandu",
    "html_url": "https://github.com/tandu",
    "followers_url": "https://api.github.com/users/tandu/followers",
    "following_url": "https://api.github.com/users/tandu/following{/other_user}",
    "gists_url": "https://api.github.com/users/tandu/gists{/gist_id}",
    "starred_url": "https://api.github.com/users/tandu/starred{/owner}{/repo}",
    "subscriptions_url": "https://api.github.com/users/tandu/subscriptions",
    "organizations_url": "https://api.github.com/users/tandu/orgs",
    "repos_url": "https://api.github.com/users/tandu/repos",
    "events_url": "https://api.github.com/users/tandu/events{/privacy}",
    "received_events_url": "https://api.github.com/users/tandu/received_events",
    "type": "User",
    "site_admin": false
  },
  "created_at": "2016-01-17T20:26:19Z",
  "updated_at": "2016-01-17T20:26:19Z",
  "body": "As @mgechev says \"The combination of ng2-inline-templates & typescript breaks the CSS.\"."
}
, {
  "url": "https://api.github.com/repos/Microsoft/TypeScript/issues/comments/172377902",
  "html_url": "https://github.com/Microsoft/TypeScript/issues/6521#issuecomment-172377902",
  "issue_url": "https://api.github.com/repos/Microsoft/TypeScript/issues/6521",
  "id": 172377902,
  "user": {
    "login": "tandu",
    "id": 273313,
    "avatar_url": "https://avatars.githubusercontent.com/u/273313?v=3",
    "gravatar_id": "",
    "url": "https://api.github.com/users/tandu",
    "html_url": "https://github.com/tandu",
    "followers_url": "https://api.github.com/users/tandu/followers",
    "following_url": "https://api.github.com/users/tandu/following{/other_user}",
    "gists_url": "https://api.github.com/users/tandu/gists{/gist_id}",
    "starred_url": "https://api.github.com/users/tandu/starred{/owner}{/repo}",
    "subscriptions_url": "https://api.github.com/users/tandu/subscriptions",
    "organizations_url": "https://api.github.com/users/tandu/orgs",
    "repos_url": "https://api.github.com/users/tandu/repos",
    "events_url": "https://api.github.com/users/tandu/events{/privacy}",
    "received_events_url": "https://api.github.com/users/tandu/received_events",
    "type": "User",
    "site_admin": false
  },
  "created_at": "2016-01-17T20:26:43Z",
  "updated_at": "2016-01-17T20:27:01Z",
  "body": "Check our discussion here https://github.com/mgechev/angular2-seed/issues/390"
}
, {
  "url": "https://api.github.com/repos/Microsoft/TypeScript/issues/comments/172378029",
  "html_url": "https://github.com/Microsoft/TypeScript/issues/6521#issuecomment-172378029",
  "issue_url": "https://api.github.com/repos/Microsoft/TypeScript/issues/6521",
  "id": 172378029,
  "user": {
    "login": "blakeembrey",
    "id": 1088987,
    "avatar_url": "https://avatars.githubusercontent.com/u/1088987?v=3",
    "gravatar_id": "",
    "url": "https://api.github.com/users/blakeembrey",
    "html_url": "https://github.com/blakeembrey",
    "followers_url": "https://api.github.com/users/blakeembrey/followers",
    "following_url": "https://api.github.com/users/blakeembrey/following{/other_user}",
    "gists_url": "https://api.github.com/users/blakeembrey/gists{/gist_id}",
    "starred_url": "https://api.github.com/users/blakeembrey/starred{/owner}{/repo}",
    "subscriptions_url": "https://api.github.com/users/blakeembrey/subscriptions",
    "organizations_url": "https://api.github.com/users/blakeembrey/orgs",
    "repos_url": "https://api.github.com/users/blakeembrey/repos",
    "events_url": "https://api.github.com/users/blakeembrey/events{/privacy}",
    "received_events_url": "https://api.github.com/users/blakeembrey/received_events",
    "type": "User",
    "site_admin": false
  },
  "created_at": "2016-01-17T20:28:58Z",
  "updated_at": "2016-01-17T20:30:24Z",
  "body": "@tandu Have you tried using two backslashes? It's in a string, so you need to escape the backslash to use it.\r\n\r\nEdit: To be clear, I don't know Angular. Just going off the inline template comment (https://github.com/mgechev/angular2-seed/issues/390#issuecomment-172218130) which is using a string, hence the backslash needs to be escaped."
}
, {
  "url": "https://api.github.com/repos/Microsoft/TypeScript/issues/comments/172378145",
  "html_url": "https://github.com/Microsoft/TypeScript/issues/6521#issuecomment-172378145",
  "issue_url": "https://api.github.com/repos/Microsoft/TypeScript/issues/6521",
  "id": 172378145,
  "user": {
    "login": "tandu",
    "id": 273313,
    "avatar_url": "https://avatars.githubusercontent.com/u/273313?v=3",
    "gravatar_id": "",
    "url": "https://api.github.com/users/tandu",
    "html_url": "https://github.com/tandu",
    "followers_url": "https://api.github.com/users/tandu/followers",
    "following_url": "https://api.github.com/users/tandu/following{/other_user}",
    "gists_url": "https://api.github.com/users/tandu/gists{/gist_id}",
    "starred_url": "https://api.github.com/users/tandu/starred{/owner}{/repo}",
    "subscriptions_url": "https://api.github.com/users/tandu/subscriptions",
    "organizations_url": "https://api.github.com/users/tandu/orgs",
    "repos_url": "https://api.github.com/users/tandu/repos",
    "events_url": "https://api.github.com/users/tandu/events{/privacy}",
    "received_events_url": "https://api.github.com/users/tandu/received_events",
    "type": "User",
    "site_admin": false
  },
  "created_at": "2016-01-17T20:30:42Z",
  "updated_at": "2016-01-17T20:30:42Z",
  "body": "In that case css for angular2-seed in dev mode works incorrectly. I.e. dev and prod modes handle this css rule differently."
}
, {
  "url": "https://api.github.com/repos/Microsoft/TypeScript/issues/comments/172378306",
  "html_url": "https://github.com/Microsoft/TypeScript/issues/6521#issuecomment-172378306",
  "issue_url": "https://api.github.com/repos/Microsoft/TypeScript/issues/6521",
  "id": 172378306,
  "user": {
    "login": "tandu",
    "id": 273313,
    "avatar_url": "https://avatars.githubusercontent.com/u/273313?v=3",
    "gravatar_id": "",
    "url": "https://api.github.com/users/tandu",
    "html_url": "https://github.com/tandu",
    "followers_url": "https://api.github.com/users/tandu/followers",
    "following_url": "https://api.github.com/users/tandu/following{/other_user}",
    "gists_url": "https://api.github.com/users/tandu/gists{/gist_id}",
    "starred_url": "https://api.github.com/users/tandu/starred{/owner}{/repo}",
    "subscriptions_url": "https://api.github.com/users/tandu/subscriptions",
    "organizations_url": "https://api.github.com/users/tandu/orgs",
    "repos_url": "https://api.github.com/users/tandu/repos",
    "events_url": "https://api.github.com/users/tandu/events{/privacy}",
    "received_events_url": "https://api.github.com/users/tandu/received_events",
    "type": "User",
    "site_admin": false
  },
  "created_at": "2016-01-17T20:32:58Z",
  "updated_at": "2016-01-17T20:32:58Z",
  "body": "Here is zipped application that introduces the issue https://github.com/mgechev/angular2-seed/files/92926/angular2-seed.zip"
}
, {
  "url": "https://api.github.com/repos/Microsoft/TypeScript/issues/comments/172378439",
  "html_url": "https://github.com/Microsoft/TypeScript/issues/6521#issuecomment-172378439",
  "issue_url": "https://api.github.com/repos/Microsoft/TypeScript/issues/6521",
  "id": 172378439,
  "user": {
    "login": "blakeembrey",
    "id": 1088987,
    "avatar_url": "https://avatars.githubusercontent.com/u/1088987?v=3",
    "gravatar_id": "",
    "url": "https://api.github.com/users/blakeembrey",
    "html_url": "https://github.com/blakeembrey",
    "followers_url": "https://api.github.com/users/blakeembrey/followers",
    "following_url": "https://api.github.com/users/blakeembrey/following{/other_user}",
    "gists_url": "https://api.github.com/users/blakeembrey/gists{/gist_id}",
    "starred_url": "https://api.github.com/users/blakeembrey/starred{/owner}{/repo}",
    "subscriptions_url": "https://api.github.com/users/blakeembrey/subscriptions",
    "organizations_url": "https://api.github.com/users/blakeembrey/orgs",
    "repos_url": "https://api.github.com/users/blakeembrey/repos",
    "events_url": "https://api.github.com/users/blakeembrey/events{/privacy}",
    "received_events_url": "https://api.github.com/users/blakeembrey/received_events",
    "type": "User",
    "site_admin": false
  },
  "created_at": "2016-01-17T20:35:20Z",
  "updated_at": "2016-01-17T20:39:27Z",
  "body": "@tandu I can't comment on Angular-specifics, but if this is inside a JavaScript string, it needs two backslashes to be in the output. The fact that it sounds like it works in dev is the bug to me."
}
, {
  "url": "https://api.github.com/repos/Microsoft/TypeScript/issues/comments/172379234",
  "html_url": "https://github.com/Microsoft/TypeScript/issues/6521#issuecomment-172379234",
  "issue_url": "https://api.github.com/repos/Microsoft/TypeScript/issues/6521",
  "id": 172379234,
  "user": {
    "login": "tandu",
    "id": 273313,
    "avatar_url": "https://avatars.githubusercontent.com/u/273313?v=3",
    "gravatar_id": "",
    "url": "https://api.github.com/users/tandu",
    "html_url": "https://github.com/tandu",
    "followers_url": "https://api.github.com/users/tandu/followers",
    "following_url": "https://api.github.com/users/tandu/following{/other_user}",
    "gists_url": "https://api.github.com/users/tandu/gists{/gist_id}",
    "starred_url": "https://api.github.com/users/tandu/starred{/owner}{/repo}",
    "subscriptions_url": "https://api.github.com/users/tandu/subscriptions",
    "organizations_url": "https://api.github.com/users/tandu/orgs",
    "repos_url": "https://api.github.com/users/tandu/repos",
    "events_url": "https://api.github.com/users/tandu/events{/privacy}",
    "received_events_url": "https://api.github.com/users/tandu/received_events",
    "type": "User",
    "site_admin": false
  },
  "created_at": "2016-01-17T20:48:38Z",
  "updated_at": "2016-01-17T20:48:38Z",
  "body": "In dev css is not minified I think this is the difference. In css unicode symbol should be defined using one slash, check here, for example: http://stackoverflow.com/questions/10393462/placing-unicode-character-in-css-content-value so it looks like a bug that minifier requires 2 backslashes."
}
, {
  "url": "https://api.github.com/repos/Microsoft/TypeScript/issues/comments/172379568",
  "html_url": "https://github.com/Microsoft/TypeScript/issues/6521#issuecomment-172379568",
  "issue_url": "https://api.github.com/repos/Microsoft/TypeScript/issues/6521",
  "id": 172379568,
  "user": {
    "login": "blakeembrey",
    "id": 1088987,
    "avatar_url": "https://avatars.githubusercontent.com/u/1088987?v=3",
    "gravatar_id": "",
    "url": "https://api.github.com/users/blakeembrey",
    "html_url": "https://github.com/blakeembrey",
    "followers_url": "https://api.github.com/users/blakeembrey/followers",
    "following_url": "https://api.github.com/users/blakeembrey/following{/other_user}",
    "gists_url": "https://api.github.com/users/blakeembrey/gists{/gist_id}",
    "starred_url": "https://api.github.com/users/blakeembrey/starred{/owner}{/repo}",
    "subscriptions_url": "https://api.github.com/users/blakeembrey/subscriptions",
    "organizations_url": "https://api.github.com/users/blakeembrey/orgs",
    "repos_url": "https://api.github.com/users/blakeembrey/repos",
    "events_url": "https://api.github.com/users/blakeembrey/events{/privacy}",
    "received_events_url": "https://api.github.com/users/blakeembrey/received_events",
    "type": "User",
    "site_admin": false
  },
  "created_at": "2016-01-17T20:54:07Z",
  "updated_at": "2016-01-17T20:54:07Z",
  "body": "> if this is inside a JavaScript string, it needs two backslashes to be in the output\r\n\r\n@tandu No, it's not. You're writing JavaScript, not CSS (well, it's CSS inside of a JavaScript string) - so you need to escape the backslash in a JavaScript string, it's just how JavaScript works. I don't know how it's even working in dev, since it shouldn't.\r\n\r\nYou might want to read up on strings in JavaScript, if you're interested. But a backslash is an escape character. To have a backslash in the output, you need a backslash to escape another backslash - two backslashes."
}
, {
  "url": "https://api.github.com/repos/Microsoft/TypeScript/issues/comments/172379741",
  "html_url": "https://github.com/Microsoft/TypeScript/issues/6521#issuecomment-172379741",
  "issue_url": "https://api.github.com/repos/Microsoft/TypeScript/issues/6521",
  "id": 172379741,
  "user": {
    "login": "blakeembrey",
    "id": 1088987,
    "avatar_url": "https://avatars.githubusercontent.com/u/1088987?v=3",
    "gravatar_id": "",
    "url": "https://api.github.com/users/blakeembrey",
    "html_url": "https://github.com/blakeembrey",
    "followers_url": "https://api.github.com/users/blakeembrey/followers",
    "following_url": "https://api.github.com/users/blakeembrey/following{/other_user}",
    "gists_url": "https://api.github.com/users/blakeembrey/gists{/gist_id}",
    "starred_url": "https://api.github.com/users/blakeembrey/starred{/owner}{/repo}",
    "subscriptions_url": "https://api.github.com/users/blakeembrey/subscriptions",
    "organizations_url": "https://api.github.com/users/blakeembrey/orgs",
    "repos_url": "https://api.github.com/users/blakeembrey/repos",
    "events_url": "https://api.github.com/users/blakeembrey/events{/privacy}",
    "received_events_url": "https://api.github.com/users/blakeembrey/received_events",
    "type": "User",
    "site_admin": false
  },
  "created_at": "2016-01-17T20:56:50Z",
  "updated_at": "2016-01-17T20:56:50Z",
  "body": "@tandu I just downloaded your zip - is it in the CSS file? TypeScript isn't the right place for the issue on CSS. As for the comment by @mgechev, I believe his example was wrong because it would need two backslashes."
}
, {
  "url": "https://api.github.com/repos/Microsoft/TypeScript/issues/comments/172379771",
  "html_url": "https://github.com/Microsoft/TypeScript/issues/6521#issuecomment-172379771",
  "issue_url": "https://api.github.com/repos/Microsoft/TypeScript/issues/6521",
  "id": 172379771,
  "user": {
    "login": "tandu",
    "id": 273313,
    "avatar_url": "https://avatars.githubusercontent.com/u/273313?v=3",
    "gravatar_id": "",
    "url": "https://api.github.com/users/tandu",
    "html_url": "https://github.com/tandu",
    "followers_url": "https://api.github.com/users/tandu/followers",
    "following_url": "https://api.github.com/users/tandu/following{/other_user}",
    "gists_url": "https://api.github.com/users/tandu/gists{/gist_id}",
    "starred_url": "https://api.github.com/users/tandu/starred{/owner}{/repo}",
    "subscriptions_url": "https://api.github.com/users/tandu/subscriptions",
    "organizations_url": "https://api.github.com/users/tandu/orgs",
    "repos_url": "https://api.github.com/users/tandu/repos",
    "events_url": "https://api.github.com/users/tandu/events{/privacy}",
    "received_events_url": "https://api.github.com/users/tandu/received_events",
    "type": "User",
    "site_admin": false
  },
  "created_at": "2016-01-17T20:57:25Z",
  "updated_at": "2016-01-17T20:57:25Z",
  "body": "I understand how escaping in strings is working. But if you are provided a real css to be minified either minifier should respect its single backslashes or css string should be parsed by regexp to replace single backslashes to double once."
}
, {
  "url": "https://api.github.com/repos/Microsoft/TypeScript/issues/comments/172379969",
  "html_url": "https://github.com/Microsoft/TypeScript/issues/6521#issuecomment-172379969",
  "issue_url": "https://api.github.com/repos/Microsoft/TypeScript/issues/6521",
  "id": 172379969,
  "user": {
    "login": "tandu",
    "id": 273313,
    "avatar_url": "https://avatars.githubusercontent.com/u/273313?v=3",
    "gravatar_id": "",
    "url": "https://api.github.com/users/tandu",
    "html_url": "https://github.com/tandu",
    "followers_url": "https://api.github.com/users/tandu/followers",
    "following_url": "https://api.github.com/users/tandu/following{/other_user}",
    "gists_url": "https://api.github.com/users/tandu/gists{/gist_id}",
    "starred_url": "https://api.github.com/users/tandu/starred{/owner}{/repo}",
    "subscriptions_url": "https://api.github.com/users/tandu/subscriptions",
    "organizations_url": "https://api.github.com/users/tandu/orgs",
    "repos_url": "https://api.github.com/users/tandu/repos",
    "events_url": "https://api.github.com/users/tandu/events{/privacy}",
    "received_events_url": "https://api.github.com/users/tandu/received_events",
    "type": "User",
    "site_admin": false
  },
  "created_at": "2016-01-17T20:58:09Z",
  "updated_at": "2016-01-17T20:58:09Z",
  "body": "In example cd to `dist/prod` and run test server from here: `python -m SimpleHTTPServer` then open it at `localhost:8000` in browser."
}
, {
  "url": "https://api.github.com/repos/Microsoft/TypeScript/issues/comments/172380239",
  "html_url": "https://github.com/Microsoft/TypeScript/issues/6521#issuecomment-172380239",
  "issue_url": "https://api.github.com/repos/Microsoft/TypeScript/issues/6521",
  "id": 172380239,
  "user": {
    "login": "tandu",
    "id": 273313,
    "avatar_url": "https://avatars.githubusercontent.com/u/273313?v=3",
    "gravatar_id": "",
    "url": "https://api.github.com/users/tandu",
    "html_url": "https://github.com/tandu",
    "followers_url": "https://api.github.com/users/tandu/followers",
    "following_url": "https://api.github.com/users/tandu/following{/other_user}",
    "gists_url": "https://api.github.com/users/tandu/gists{/gist_id}",
    "starred_url": "https://api.github.com/users/tandu/starred{/owner}{/repo}",
    "subscriptions_url": "https://api.github.com/users/tandu/subscriptions",
    "organizations_url": "https://api.github.com/users/tandu/orgs",
    "repos_url": "https://api.github.com/users/tandu/repos",
    "events_url": "https://api.github.com/users/tandu/events{/privacy}",
    "received_events_url": "https://api.github.com/users/tandu/received_events",
    "type": "User",
    "site_admin": false
  },
  "created_at": "2016-01-17T20:58:52Z",
  "updated_at": "2016-01-17T20:58:52Z",
  "body": "To run it in dev you need to do some steps:\r\n```bash\r\nnpm install tsd -g\r\nnpm install\r\nnpm start\r\n```"
}
, {
  "url": "https://api.github.com/repos/Microsoft/TypeScript/issues/comments/172380407",
  "html_url": "https://github.com/Microsoft/TypeScript/issues/6521#issuecomment-172380407",
  "issue_url": "https://api.github.com/repos/Microsoft/TypeScript/issues/6521",
  "id": 172380407,
  "user": {
    "login": "blakeembrey",
    "id": 1088987,
    "avatar_url": "https://avatars.githubusercontent.com/u/1088987?v=3",
    "gravatar_id": "",
    "url": "https://api.github.com/users/blakeembrey",
    "html_url": "https://github.com/blakeembrey",
    "followers_url": "https://api.github.com/users/blakeembrey/followers",
    "following_url": "https://api.github.com/users/blakeembrey/following{/other_user}",
    "gists_url": "https://api.github.com/users/blakeembrey/gists{/gist_id}",
    "starred_url": "https://api.github.com/users/blakeembrey/starred{/owner}{/repo}",
    "subscriptions_url": "https://api.github.com/users/blakeembrey/subscriptions",
    "organizations_url": "https://api.github.com/users/blakeembrey/orgs",
    "repos_url": "https://api.github.com/users/blakeembrey/repos",
    "events_url": "https://api.github.com/users/blakeembrey/events{/privacy}",
    "received_events_url": "https://api.github.com/users/blakeembrey/received_events",
    "type": "User",
    "site_admin": false
  },
  "created_at": "2016-01-17T20:59:18Z",
  "updated_at": "2016-01-17T20:59:18Z",
  "body": "@tandu It's not a TypeScript bug if it's in CSS. You should log the issue in the minifier repo you've mentioned. "
}
, {
  "url": "https://api.github.com/repos/Microsoft/TypeScript/issues/comments/172381238",
  "html_url": "https://github.com/Microsoft/TypeScript/issues/6521#issuecomment-172381238",
  "issue_url": "https://api.github.com/repos/Microsoft/TypeScript/issues/6521",
  "id": 172381238,
  "user": {
    "login": "tandu",
    "id": 273313,
    "avatar_url": "https://avatars.githubusercontent.com/u/273313?v=3",
    "gravatar_id": "",
    "url": "https://api.github.com/users/tandu",
    "html_url": "https://github.com/tandu",
    "followers_url": "https://api.github.com/users/tandu/followers",
    "following_url": "https://api.github.com/users/tandu/following{/other_user}",
    "gists_url": "https://api.github.com/users/tandu/gists{/gist_id}",
    "starred_url": "https://api.github.com/users/tandu/starred{/owner}{/repo}",
    "subscriptions_url": "https://api.github.com/users/tandu/subscriptions",
    "organizations_url": "https://api.github.com/users/tandu/orgs",
    "repos_url": "https://api.github.com/users/tandu/repos",
    "events_url": "https://api.github.com/users/tandu/events{/privacy}",
    "received_events_url": "https://api.github.com/users/tandu/received_events",
    "type": "User",
    "site_admin": false
  },
  "created_at": "2016-01-17T21:01:31Z",
  "updated_at": "2016-01-17T21:01:31Z",
  "body": "Yes, I think you are right, I will talk with them."
}
, {
  "url": "https://api.github.com/repos/Microsoft/TypeScript/issues/comments/172381883",
  "html_url": "https://github.com/Microsoft/TypeScript/issues/6521#issuecomment-172381883",
  "issue_url": "https://api.github.com/repos/Microsoft/TypeScript/issues/6521",
  "id": 172381883,
  "user": {
    "login": "blakeembrey",
    "id": 1088987,
    "avatar_url": "https://avatars.githubusercontent.com/u/1088987?v=3",
    "gravatar_id": "",
    "url": "https://api.github.com/users/blakeembrey",
    "html_url": "https://github.com/blakeembrey",
    "followers_url": "https://api.github.com/users/blakeembrey/followers",
    "following_url": "https://api.github.com/users/blakeembrey/following{/other_user}",
    "gists_url": "https://api.github.com/users/blakeembrey/gists{/gist_id}",
    "starred_url": "https://api.github.com/users/blakeembrey/starred{/owner}{/repo}",
    "subscriptions_url": "https://api.github.com/users/blakeembrey/subscriptions",
    "organizations_url": "https://api.github.com/users/blakeembrey/orgs",
    "repos_url": "https://api.github.com/users/blakeembrey/repos",
    "events_url": "https://api.github.com/users/blakeembrey/events{/privacy}",
    "received_events_url": "https://api.github.com/users/blakeembrey/received_events",
    "type": "User",
    "site_admin": false
  },
  "created_at": "2016-01-17T21:03:21Z",
  "updated_at": "2016-01-17T21:03:21Z",
  "body": "@tandu Looks like it's caused in https://github.com/ludohenin/gulp-inline-ng2-template/blob/master/parser.js#L164-L167, they are just printing the backslashes back into JS without any additional escaping. They need to replace every backslash with two backslashes."
}
, {
  "url": "https://api.github.com/repos/Microsoft/TypeScript/issues/comments/172382243",
  "html_url": "https://github.com/Microsoft/TypeScript/issues/6521#issuecomment-172382243",
  "issue_url": "https://api.github.com/repos/Microsoft/TypeScript/issues/6521",
  "id": 172382243,
  "user": {
    "login": "vladima",
    "id": 8052307,
    "avatar_url": "https://avatars.githubusercontent.com/u/8052307?v=3",
    "gravatar_id": "",
    "url": "https://api.github.com/users/vladima",
    "html_url": "https://github.com/vladima",
    "followers_url": "https://api.github.com/users/vladima/followers",
    "following_url": "https://api.github.com/users/vladima/following{/other_user}",
    "gists_url": "https://api.github.com/users/vladima/gists{/gist_id}",
    "starred_url": "https://api.github.com/users/vladima/starred{/owner}{/repo}",
    "subscriptions_url": "https://api.github.com/users/vladima/subscriptions",
    "organizations_url": "https://api.github.com/users/vladima/orgs",
    "repos_url": "https://api.github.com/users/vladima/repos",
    "events_url": "https://api.github.com/users/vladima/events{/privacy}",
    "received_events_url": "https://api.github.com/users/vladima/received_events",
    "type": "User",
    "site_admin": false
  },
  "created_at": "2016-01-17T21:04:27Z",
  "updated_at": "2016-01-17T21:04:27Z",
  "body": "as I understand originally it appear when `\\200B` had appeared in string template?\r\n```ts\r\n@Component({\r\n  template: '',\r\n  styles: [`\r\n    smile:before {\r\n      content: \"\\200B\";\r\n    }\r\n  `]\r\n})\r\nclass SampleComponent {}\r\n```\r\nif yes then from my reading of the ES6 spec seem that `\\2` is illegal sequence of characters for string templates so TypeScript compiler should show an error \r\n\r\n[TemplateCharacter](https://tc39.github.io/ecma262/#prod-TemplateCharacter)\r\n>TemplateCharacter::\r\n  $[lookahead ≠ {]\r\n  **\\EscapeSequence**\r\n  LineContinuation\r\n  LineTerminatorSequence\r\n  SourceCharacterbut not one of ` or \\ or $ or LineTerminator\r\n\r\n[EscapeSequence](https://tc39.github.io/ecma262/#prod-EscapeSequence)\r\n>EscapeSequence::\r\n  **CharacterEscapeSequence**\r\n  0[lookahead ∉ DecimalDigit]\r\n  HexEscapeSequence\r\n  UnicodeEscapeSequence\r\n\r\n[CharacterEscapeSequence](https://tc39.github.io/ecma262/#prod-CharacterEscapeSequence)\r\n>CharacterEscapeSequence::\r\nSingleEscapeCharacter\r\n**NonEscapeCharacter**\r\n\r\n\r\n>SingleEscapeCharacter::one of\r\n'\"\\bfnrtv\r\n\r\n\r\n>NonEscapeCharacter::\r\nSourceCharacter but **not one of EscapeCharacter** or LineTerminator\r\n\r\n\r\n>EscapeCharacter::\r\nSingleEscapeCharacter\r\n**DecimalDigit**\r\nx\r\nu"
}
, {
  "url": "https://api.github.com/repos/Microsoft/TypeScript/issues/comments/172382244",
  "html_url": "https://github.com/Microsoft/TypeScript/issues/6521#issuecomment-172382244",
  "issue_url": "https://api.github.com/repos/Microsoft/TypeScript/issues/6521",
  "id": 172382244,
  "user": {
    "login": "tandu",
    "id": 273313,
    "avatar_url": "https://avatars.githubusercontent.com/u/273313?v=3",
    "gravatar_id": "",
    "url": "https://api.github.com/users/tandu",
    "html_url": "https://github.com/tandu",
    "followers_url": "https://api.github.com/users/tandu/followers",
    "following_url": "https://api.github.com/users/tandu/following{/other_user}",
    "gists_url": "https://api.github.com/users/tandu/gists{/gist_id}",
    "starred_url": "https://api.github.com/users/tandu/starred{/owner}{/repo}",
    "subscriptions_url": "https://api.github.com/users/tandu/subscriptions",
    "organizations_url": "https://api.github.com/users/tandu/orgs",
    "repos_url": "https://api.github.com/users/tandu/repos",
    "events_url": "https://api.github.com/users/tandu/events{/privacy}",
    "received_events_url": "https://api.github.com/users/tandu/received_events",
    "type": "User",
    "site_admin": false
  },
  "created_at": "2016-01-17T21:04:28Z",
  "updated_at": "2016-01-17T21:04:28Z",
  "body": "Hm, I forgot about this http://www.typescriptlang.org/Playground#src=%40Component%28{%0A%20%20template%3A%20%27%27%2C%0A%20%20styles%3A%20[%60%0A%20%20%20%20smile%3Abefore%20{%0A%20%20%20%20%20%20content%3A%20%22\\200B%22%3B%0A%20%20%20%20}%0A%20%20%60]%0A}%29%0Aclass%20SampleComponent%20{} It seems that is tsc issue after all."
}
, {
  "url": "https://api.github.com/repos/Microsoft/TypeScript/issues/comments/172382451",
  "html_url": "https://github.com/Microsoft/TypeScript/issues/6521#issuecomment-172382451",
  "issue_url": "https://api.github.com/repos/Microsoft/TypeScript/issues/6521",
  "id": 172382451,
  "user": {
    "login": "tandu",
    "id": 273313,
    "avatar_url": "https://avatars.githubusercontent.com/u/273313?v=3",
    "gravatar_id": "",
    "url": "https://api.github.com/users/tandu",
    "html_url": "https://github.com/tandu",
    "followers_url": "https://api.github.com/users/tandu/followers",
    "following_url": "https://api.github.com/users/tandu/following{/other_user}",
    "gists_url": "https://api.github.com/users/tandu/gists{/gist_id}",
    "starred_url": "https://api.github.com/users/tandu/starred{/owner}{/repo}",
    "subscriptions_url": "https://api.github.com/users/tandu/subscriptions",
    "organizations_url": "https://api.github.com/users/tandu/orgs",
    "repos_url": "https://api.github.com/users/tandu/repos",
    "events_url": "https://api.github.com/users/tandu/events{/privacy}",
    "received_events_url": "https://api.github.com/users/tandu/received_events",
    "type": "User",
    "site_admin": false
  },
  "created_at": "2016-01-17T21:05:36Z",
  "updated_at": "2016-01-17T21:05:36Z",
  "body": "Or as you said `gulp-inline-ng2-template` should replace single backslashes by two."
}
, {
  "url": "https://api.github.com/repos/Microsoft/TypeScript/issues/comments/172383846",
  "html_url": "https://github.com/Microsoft/TypeScript/issues/6521#issuecomment-172383846",
  "issue_url": "https://api.github.com/repos/Microsoft/TypeScript/issues/6521",
  "id": 172383846,
  "user": {
    "login": "blakeembrey",
    "id": 1088987,
    "avatar_url": "https://avatars.githubusercontent.com/u/1088987?v=3",
    "gravatar_id": "",
    "url": "https://api.github.com/users/blakeembrey",
    "html_url": "https://github.com/blakeembrey",
    "followers_url": "https://api.github.com/users/blakeembrey/followers",
    "following_url": "https://api.github.com/users/blakeembrey/following{/other_user}",
    "gists_url": "https://api.github.com/users/blakeembrey/gists{/gist_id}",
    "starred_url": "https://api.github.com/users/blakeembrey/starred{/owner}{/repo}",
    "subscriptions_url": "https://api.github.com/users/blakeembrey/subscriptions",
    "organizations_url": "https://api.github.com/users/blakeembrey/orgs",
    "repos_url": "https://api.github.com/users/blakeembrey/repos",
    "events_url": "https://api.github.com/users/blakeembrey/events{/privacy}",
    "received_events_url": "https://api.github.com/users/blakeembrey/received_events",
    "type": "User",
    "site_admin": false
  },
  "created_at": "2016-01-17T21:12:06Z",
  "updated_at": "2016-01-17T21:12:06Z",
  "body": "Yes. Sounds like TypeScript could give a compiler error on the escape sequence, and that'll make the issue more obvious to consumers. Need to make sure `gulp-inline-ng2-template` is treating the strings correctly when putting it inline (E.g. backslashes, new lines, etc.)"
}
, {
  "url": "https://api.github.com/repos/Microsoft/TypeScript/issues/comments/172396349",
  "html_url": "https://github.com/Microsoft/TypeScript/issues/6521#issuecomment-172396349",
  "issue_url": "https://api.github.com/repos/Microsoft/TypeScript/issues/6521",
  "id": 172396349,
  "user": {
    "login": "DanielRosenwasser",
    "id": 972891,
    "avatar_url": "https://avatars.githubusercontent.com/u/972891?v=3",
    "gravatar_id": "",
    "url": "https://api.github.com/users/DanielRosenwasser",
    "html_url": "https://github.com/DanielRosenwasser",
    "followers_url": "https://api.github.com/users/DanielRosenwasser/followers",
    "following_url": "https://api.github.com/users/DanielRosenwasser/following{/other_user}",
    "gists_url": "https://api.github.com/users/DanielRosenwasser/gists{/gist_id}",
    "starred_url": "https://api.github.com/users/DanielRosenwasser/starred{/owner}{/repo}",
    "subscriptions_url": "https://api.github.com/users/DanielRosenwasser/subscriptions",
    "organizations_url": "https://api.github.com/users/DanielRosenwasser/orgs",
    "repos_url": "https://api.github.com/users/DanielRosenwasser/repos",
    "events_url": "https://api.github.com/users/DanielRosenwasser/events{/privacy}",
    "received_events_url": "https://api.github.com/users/DanielRosenwasser/received_events",
    "type": "User",
    "site_admin": false
  },
  "created_at": "2016-01-17T23:47:55Z",
  "updated_at": "2016-01-17T23:47:55Z",
  "body": "@vladima is correct. I think #396 is either strongly related, or this is a duplicate of it. Either way, the fix for this should fix #396 as well."
}
]
