[
{
  "url": "https://api.github.com/repos/Microsoft/TypeScript/issues/comments/49675254",
  "html_url": "https://github.com/Microsoft/TypeScript/issues/135#issuecomment-49675254",
  "issue_url": "https://api.github.com/repos/Microsoft/TypeScript/issues/135",
  "id": 49675254,
  "user": {
    "login": "jonathandturner",
    "id": 547158,
    "avatar_url": "https://avatars.githubusercontent.com/u/547158?v=3",
    "gravatar_id": "",
    "url": "https://api.github.com/users/jonathandturner",
    "html_url": "https://github.com/jonathandturner",
    "followers_url": "https://api.github.com/users/jonathandturner/followers",
    "following_url": "https://api.github.com/users/jonathandturner/following{/other_user}",
    "gists_url": "https://api.github.com/users/jonathandturner/gists{/gist_id}",
    "starred_url": "https://api.github.com/users/jonathandturner/starred{/owner}{/repo}",
    "subscriptions_url": "https://api.github.com/users/jonathandturner/subscriptions",
    "organizations_url": "https://api.github.com/users/jonathandturner/orgs",
    "repos_url": "https://api.github.com/users/jonathandturner/repos",
    "events_url": "https://api.github.com/users/jonathandturner/events{/privacy}",
    "received_events_url": "https://api.github.com/users/jonathandturner/received_events",
    "type": "User",
    "site_admin": false
  },
  "created_at": "2014-07-21T22:31:28Z",
  "updated_at": "2014-07-21T22:31:28Z",
  "body": "In practice, it should be difficult to hit this issue.  The code must have both a side effect and have the import elided in the codegen because it's not used as a value.  "
}
]
