[
{
  "url": "https://api.github.com/repos/Microsoft/TypeScript/issues/comments/161725392",
  "html_url": "https://github.com/Microsoft/TypeScript/pull/5912#issuecomment-161725392",
  "issue_url": "https://api.github.com/repos/Microsoft/TypeScript/issues/5912",
  "id": 161725392,
  "user": {
    "login": "sparecycles",
    "id": 719818,
    "avatar_url": "https://avatars.githubusercontent.com/u/719818?v=3",
    "gravatar_id": "",
    "url": "https://api.github.com/users/sparecycles",
    "html_url": "https://github.com/sparecycles",
    "followers_url": "https://api.github.com/users/sparecycles/followers",
    "following_url": "https://api.github.com/users/sparecycles/following{/other_user}",
    "gists_url": "https://api.github.com/users/sparecycles/gists{/gist_id}",
    "starred_url": "https://api.github.com/users/sparecycles/starred{/owner}{/repo}",
    "subscriptions_url": "https://api.github.com/users/sparecycles/subscriptions",
    "organizations_url": "https://api.github.com/users/sparecycles/orgs",
    "repos_url": "https://api.github.com/users/sparecycles/repos",
    "events_url": "https://api.github.com/users/sparecycles/events{/privacy}",
    "received_events_url": "https://api.github.com/users/sparecycles/received_events",
    "type": "User",
    "site_admin": false
  },
  "created_at": "2015-12-03T17:34:25Z",
  "updated_at": "2015-12-03T17:34:25Z",
  "body": "Tried running ```jake lib``` in the #5461 commit, didn't work then either :wink:"
}
, {
  "url": "https://api.github.com/repos/Microsoft/TypeScript/issues/comments/161726112",
  "html_url": "https://github.com/Microsoft/TypeScript/pull/5912#issuecomment-161726112",
  "issue_url": "https://api.github.com/repos/Microsoft/TypeScript/issues/5912",
  "id": 161726112,
  "user": {
    "login": "mhegazy",
    "id": 8000722,
    "avatar_url": "https://avatars.githubusercontent.com/u/8000722?v=3",
    "gravatar_id": "",
    "url": "https://api.github.com/users/mhegazy",
    "html_url": "https://github.com/mhegazy",
    "followers_url": "https://api.github.com/users/mhegazy/followers",
    "following_url": "https://api.github.com/users/mhegazy/following{/other_user}",
    "gists_url": "https://api.github.com/users/mhegazy/gists{/gist_id}",
    "starred_url": "https://api.github.com/users/mhegazy/starred{/owner}{/repo}",
    "subscriptions_url": "https://api.github.com/users/mhegazy/subscriptions",
    "organizations_url": "https://api.github.com/users/mhegazy/orgs",
    "repos_url": "https://api.github.com/users/mhegazy/repos",
    "events_url": "https://api.github.com/users/mhegazy/events{/privacy}",
    "received_events_url": "https://api.github.com/users/mhegazy/received_events",
    "type": "User",
    "site_admin": false
  },
  "created_at": "2015-12-03T17:37:27Z",
  "updated_at": "2015-12-03T17:37:27Z",
  "body": "> Tried running jake lib in the #5461 commit, didn't work then either :wink:\r\n\r\nhow is that? what did you see? any errors?"
}
, {
  "url": "https://api.github.com/repos/Microsoft/TypeScript/issues/comments/161730998",
  "html_url": "https://github.com/Microsoft/TypeScript/pull/5912#issuecomment-161730998",
  "issue_url": "https://api.github.com/repos/Microsoft/TypeScript/issues/5912",
  "id": 161730998,
  "user": {
    "login": "sparecycles",
    "id": 719818,
    "avatar_url": "https://avatars.githubusercontent.com/u/719818?v=3",
    "gravatar_id": "",
    "url": "https://api.github.com/users/sparecycles",
    "html_url": "https://github.com/sparecycles",
    "followers_url": "https://api.github.com/users/sparecycles/followers",
    "following_url": "https://api.github.com/users/sparecycles/following{/other_user}",
    "gists_url": "https://api.github.com/users/sparecycles/gists{/gist_id}",
    "starred_url": "https://api.github.com/users/sparecycles/starred{/owner}{/repo}",
    "subscriptions_url": "https://api.github.com/users/sparecycles/subscriptions",
    "organizations_url": "https://api.github.com/users/sparecycles/orgs",
    "repos_url": "https://api.github.com/users/sparecycles/repos",
    "events_url": "https://api.github.com/users/sparecycles/events{/privacy}",
    "received_events_url": "https://api.github.com/users/sparecycles/received_events",
    "type": "User",
    "site_admin": false
  },
  "created_at": "2015-12-03T17:54:57Z",
  "updated_at": "2015-12-03T17:54:57Z",
  "body": "You don't even need ```jake lib``` to update the built/local data, just running jake after changing ```src/lib``` files updates that fine (as I expect running jake with no arguments to do).\r\n\r\nBut, when I run ```jake lib``` I don't think it's out of scope to assume ```lib``` would be updated.\r\n\r\nIn the instructions: \"To build the library files\" obviously means the files in ```lib/``` (except it doesn't).  The README in ```lib/``` says these files are not meant to be updated by hand, and changes should be made in ```src/``` but nowhere is it documented that the command is ```jake LKG```.\r\n\r\nCan you not see how this is confusing?"
}
, {
  "url": "https://api.github.com/repos/Microsoft/TypeScript/issues/comments/161733856",
  "html_url": "https://github.com/Microsoft/TypeScript/pull/5912#issuecomment-161733856",
  "issue_url": "https://api.github.com/repos/Microsoft/TypeScript/issues/5912",
  "id": 161733856,
  "user": {
    "login": "mhegazy",
    "id": 8000722,
    "avatar_url": "https://avatars.githubusercontent.com/u/8000722?v=3",
    "gravatar_id": "",
    "url": "https://api.github.com/users/mhegazy",
    "html_url": "https://github.com/mhegazy",
    "followers_url": "https://api.github.com/users/mhegazy/followers",
    "following_url": "https://api.github.com/users/mhegazy/following{/other_user}",
    "gists_url": "https://api.github.com/users/mhegazy/gists{/gist_id}",
    "starred_url": "https://api.github.com/users/mhegazy/starred{/owner}{/repo}",
    "subscriptions_url": "https://api.github.com/users/mhegazy/subscriptions",
    "organizations_url": "https://api.github.com/users/mhegazy/orgs",
    "repos_url": "https://api.github.com/users/mhegazy/repos",
    "events_url": "https://api.github.com/users/mhegazy/events{/privacy}",
    "received_events_url": "https://api.github.com/users/mhegazy/received_events",
    "type": "User",
    "site_admin": false
  },
  "created_at": "2015-12-03T18:03:59Z",
  "updated_at": "2015-12-03T18:03:59Z",
  "body": "i see.  well in my defense, `\\lib` was called `\\bin` and that was less confusing.. \r\n\r\nAny how, so we can make it `jake local` or just 'jake`, how about that?"
}
, {
  "url": "https://api.github.com/repos/Microsoft/TypeScript/issues/comments/161740081",
  "html_url": "https://github.com/Microsoft/TypeScript/pull/5912#issuecomment-161740081",
  "issue_url": "https://api.github.com/repos/Microsoft/TypeScript/issues/5912",
  "id": 161740081,
  "user": {
    "login": "sparecycles",
    "id": 719818,
    "avatar_url": "https://avatars.githubusercontent.com/u/719818?v=3",
    "gravatar_id": "",
    "url": "https://api.github.com/users/sparecycles",
    "html_url": "https://github.com/sparecycles",
    "followers_url": "https://api.github.com/users/sparecycles/followers",
    "following_url": "https://api.github.com/users/sparecycles/following{/other_user}",
    "gists_url": "https://api.github.com/users/sparecycles/gists{/gist_id}",
    "starred_url": "https://api.github.com/users/sparecycles/starred{/owner}{/repo}",
    "subscriptions_url": "https://api.github.com/users/sparecycles/subscriptions",
    "organizations_url": "https://api.github.com/users/sparecycles/orgs",
    "repos_url": "https://api.github.com/users/sparecycles/repos",
    "events_url": "https://api.github.com/users/sparecycles/events{/privacy}",
    "received_events_url": "https://api.github.com/users/sparecycles/received_events",
    "type": "User",
    "site_admin": false
  },
  "created_at": "2015-12-03T18:29:44Z",
  "updated_at": "2015-12-03T18:29:44Z",
  "body": "(hmm... musing) perhaps ```/bootstrap``` ( or ```/bs``` ? ) would be a better name?"
}
, {
  "url": "https://api.github.com/repos/Microsoft/TypeScript/issues/comments/161742923",
  "html_url": "https://github.com/Microsoft/TypeScript/pull/5912#issuecomment-161742923",
  "issue_url": "https://api.github.com/repos/Microsoft/TypeScript/issues/5912",
  "id": 161742923,
  "user": {
    "login": "mhegazy",
    "id": 8000722,
    "avatar_url": "https://avatars.githubusercontent.com/u/8000722?v=3",
    "gravatar_id": "",
    "url": "https://api.github.com/users/mhegazy",
    "html_url": "https://github.com/mhegazy",
    "followers_url": "https://api.github.com/users/mhegazy/followers",
    "following_url": "https://api.github.com/users/mhegazy/following{/other_user}",
    "gists_url": "https://api.github.com/users/mhegazy/gists{/gist_id}",
    "starred_url": "https://api.github.com/users/mhegazy/starred{/owner}{/repo}",
    "subscriptions_url": "https://api.github.com/users/mhegazy/subscriptions",
    "organizations_url": "https://api.github.com/users/mhegazy/orgs",
    "repos_url": "https://api.github.com/users/mhegazy/repos",
    "events_url": "https://api.github.com/users/mhegazy/events{/privacy}",
    "received_events_url": "https://api.github.com/users/mhegazy/received_events",
    "type": "User",
    "site_admin": false
  },
  "created_at": "2015-12-03T18:41:25Z",
  "updated_at": "2015-12-03T18:41:25Z",
  "body": "looks good. thanks!"
}
]
