[
{
  "url": "https://api.github.com/repos/Microsoft/TypeScript/issues/comments/78426768",
  "html_url": "https://github.com/Microsoft/TypeScript/issues/2306#issuecomment-78426768",
  "issue_url": "https://api.github.com/repos/Microsoft/TypeScript/issues/2306",
  "id": 78426768,
  "user": {
    "login": "basarat",
    "id": 874898,
    "avatar_url": "https://avatars.githubusercontent.com/u/874898?v=3",
    "gravatar_id": "",
    "url": "https://api.github.com/users/basarat",
    "html_url": "https://github.com/basarat",
    "followers_url": "https://api.github.com/users/basarat/followers",
    "following_url": "https://api.github.com/users/basarat/following{/other_user}",
    "gists_url": "https://api.github.com/users/basarat/gists{/gist_id}",
    "starred_url": "https://api.github.com/users/basarat/starred{/owner}{/repo}",
    "subscriptions_url": "https://api.github.com/users/basarat/subscriptions",
    "organizations_url": "https://api.github.com/users/basarat/orgs",
    "repos_url": "https://api.github.com/users/basarat/repos",
    "events_url": "https://api.github.com/users/basarat/events{/privacy}",
    "received_events_url": "https://api.github.com/users/basarat/received_events",
    "type": "User",
    "site_admin": false
  },
  "created_at": "2015-03-12T05:38:27Z",
  "updated_at": "2015-03-12T05:38:27Z",
  "body": "`ConvertTabsToSpaces` ? I hate tabs btw. "
}
, {
  "url": "https://api.github.com/repos/Microsoft/TypeScript/issues/comments/78444676",
  "html_url": "https://github.com/Microsoft/TypeScript/issues/2306#issuecomment-78444676",
  "issue_url": "https://api.github.com/repos/Microsoft/TypeScript/issues/2306",
  "id": 78444676,
  "user": {
    "login": "hachre",
    "id": 885304,
    "avatar_url": "https://avatars.githubusercontent.com/u/885304?v=3",
    "gravatar_id": "",
    "url": "https://api.github.com/users/hachre",
    "html_url": "https://github.com/hachre",
    "followers_url": "https://api.github.com/users/hachre/followers",
    "following_url": "https://api.github.com/users/hachre/following{/other_user}",
    "gists_url": "https://api.github.com/users/hachre/gists{/gist_id}",
    "starred_url": "https://api.github.com/users/hachre/starred{/owner}{/repo}",
    "subscriptions_url": "https://api.github.com/users/hachre/subscriptions",
    "organizations_url": "https://api.github.com/users/hachre/orgs",
    "repos_url": "https://api.github.com/users/hachre/repos",
    "events_url": "https://api.github.com/users/hachre/events{/privacy}",
    "received_events_url": "https://api.github.com/users/hachre/received_events",
    "type": "User",
    "site_admin": false
  },
  "created_at": "2015-03-12T09:07:45Z",
  "updated_at": "2015-03-12T09:11:58Z",
  "body": "I'd like something like ConvertSpacesToTabs. Right now if you give it a space indented input there is no way to get it changed to tabs like there is with a tab indented input. \r\n\r\nWhy do you hate tabs?"
}
, {
  "url": "https://api.github.com/repos/Microsoft/TypeScript/issues/comments/91457901",
  "html_url": "https://github.com/Microsoft/TypeScript/issues/2306#issuecomment-91457901",
  "issue_url": "https://api.github.com/repos/Microsoft/TypeScript/issues/2306",
  "id": 91457901,
  "user": {
    "login": "lucasmciruzzi",
    "id": 3979433,
    "avatar_url": "https://avatars.githubusercontent.com/u/3979433?v=3",
    "gravatar_id": "",
    "url": "https://api.github.com/users/lucasmciruzzi",
    "html_url": "https://github.com/lucasmciruzzi",
    "followers_url": "https://api.github.com/users/lucasmciruzzi/followers",
    "following_url": "https://api.github.com/users/lucasmciruzzi/following{/other_user}",
    "gists_url": "https://api.github.com/users/lucasmciruzzi/gists{/gist_id}",
    "starred_url": "https://api.github.com/users/lucasmciruzzi/starred{/owner}{/repo}",
    "subscriptions_url": "https://api.github.com/users/lucasmciruzzi/subscriptions",
    "organizations_url": "https://api.github.com/users/lucasmciruzzi/orgs",
    "repos_url": "https://api.github.com/users/lucasmciruzzi/repos",
    "events_url": "https://api.github.com/users/lucasmciruzzi/events{/privacy}",
    "received_events_url": "https://api.github.com/users/lucasmciruzzi/received_events",
    "type": "User",
    "site_admin": false
  },
  "created_at": "2015-04-10T07:03:20Z",
  "updated_at": "2015-04-10T07:03:20Z",
  "body": "+1. The Sublime Text plugin uses this to format the TS code, but I use tabs in my project, so it will be nice if you let us set if we want spaces (2 or 4) or tabs in the format (I'm not even asking to do so on the output, but it also would be nice)."
}
, {
  "url": "https://api.github.com/repos/Microsoft/TypeScript/issues/comments/91824730",
  "html_url": "https://github.com/Microsoft/TypeScript/issues/2306#issuecomment-91824730",
  "issue_url": "https://api.github.com/repos/Microsoft/TypeScript/issues/2306",
  "id": 91824730,
  "user": {
    "login": "basarat",
    "id": 874898,
    "avatar_url": "https://avatars.githubusercontent.com/u/874898?v=3",
    "gravatar_id": "",
    "url": "https://api.github.com/users/basarat",
    "html_url": "https://github.com/basarat",
    "followers_url": "https://api.github.com/users/basarat/followers",
    "following_url": "https://api.github.com/users/basarat/following{/other_user}",
    "gists_url": "https://api.github.com/users/basarat/gists{/gist_id}",
    "starred_url": "https://api.github.com/users/basarat/starred{/owner}{/repo}",
    "subscriptions_url": "https://api.github.com/users/basarat/subscriptions",
    "organizations_url": "https://api.github.com/users/basarat/orgs",
    "repos_url": "https://api.github.com/users/basarat/repos",
    "events_url": "https://api.github.com/users/basarat/events{/privacy}",
    "received_events_url": "https://api.github.com/users/basarat/received_events",
    "type": "User",
    "site_admin": false
  },
  "created_at": "2015-04-11T10:40:33Z",
  "updated_at": "2015-04-11T10:40:33Z",
  "body": "> Why do you hate tabs\r\n\r\nhttps://www.google.com.au/search?q=tabs+vs.+spaces&safe=off&source=lnms&tbm=isch&sa=X&ei=A_ooVfKHH8KwmAX4jYCoAw&ved=0CAcQ_AUoAQ&biw=2048&bih=1071&dpr=1.25\r\n\r\nI don't have a good answer :rose: "
}
, {
  "url": "https://api.github.com/repos/Microsoft/TypeScript/issues/comments/91911749",
  "html_url": "https://github.com/Microsoft/TypeScript/issues/2306#issuecomment-91911749",
  "issue_url": "https://api.github.com/repos/Microsoft/TypeScript/issues/2306",
  "id": 91911749,
  "user": {
    "login": "DanielRosenwasser",
    "id": 972891,
    "avatar_url": "https://avatars.githubusercontent.com/u/972891?v=3",
    "gravatar_id": "",
    "url": "https://api.github.com/users/DanielRosenwasser",
    "html_url": "https://github.com/DanielRosenwasser",
    "followers_url": "https://api.github.com/users/DanielRosenwasser/followers",
    "following_url": "https://api.github.com/users/DanielRosenwasser/following{/other_user}",
    "gists_url": "https://api.github.com/users/DanielRosenwasser/gists{/gist_id}",
    "starred_url": "https://api.github.com/users/DanielRosenwasser/starred{/owner}{/repo}",
    "subscriptions_url": "https://api.github.com/users/DanielRosenwasser/subscriptions",
    "organizations_url": "https://api.github.com/users/DanielRosenwasser/orgs",
    "repos_url": "https://api.github.com/users/DanielRosenwasser/repos",
    "events_url": "https://api.github.com/users/DanielRosenwasser/events{/privacy}",
    "received_events_url": "https://api.github.com/users/DanielRosenwasser/received_events",
    "type": "User",
    "site_admin": false
  },
  "created_at": "2015-04-11T19:36:32Z",
  "updated_at": "2015-04-11T19:36:32Z",
  "body": "> Why do you hate tabs?\r\n\r\nWhy don't you love spaces? :wink: "
}
, {
  "url": "https://api.github.com/repos/Microsoft/TypeScript/issues/comments/91912162",
  "html_url": "https://github.com/Microsoft/TypeScript/issues/2306#issuecomment-91912162",
  "issue_url": "https://api.github.com/repos/Microsoft/TypeScript/issues/2306",
  "id": 91912162,
  "user": {
    "login": "hachre",
    "id": 885304,
    "avatar_url": "https://avatars.githubusercontent.com/u/885304?v=3",
    "gravatar_id": "",
    "url": "https://api.github.com/users/hachre",
    "html_url": "https://github.com/hachre",
    "followers_url": "https://api.github.com/users/hachre/followers",
    "following_url": "https://api.github.com/users/hachre/following{/other_user}",
    "gists_url": "https://api.github.com/users/hachre/gists{/gist_id}",
    "starred_url": "https://api.github.com/users/hachre/starred{/owner}{/repo}",
    "subscriptions_url": "https://api.github.com/users/hachre/subscriptions",
    "organizations_url": "https://api.github.com/users/hachre/orgs",
    "repos_url": "https://api.github.com/users/hachre/repos",
    "events_url": "https://api.github.com/users/hachre/events{/privacy}",
    "received_events_url": "https://api.github.com/users/hachre/received_events",
    "type": "User",
    "site_admin": false
  },
  "created_at": "2015-04-11T19:38:26Z",
  "updated_at": "2015-04-11T19:42:51Z",
  "body": "@DanielRosenwasser Beause I like to have control over the indendation depth when I view files and because I find it easier to make a \"single space\" mistake in indendation than a \"single tab\" mistake because the differene is way more obvious. It's just a preference ;)"
}
, {
  "url": "https://api.github.com/repos/Microsoft/TypeScript/issues/comments/91912577",
  "html_url": "https://github.com/Microsoft/TypeScript/issues/2306#issuecomment-91912577",
  "issue_url": "https://api.github.com/repos/Microsoft/TypeScript/issues/2306",
  "id": 91912577,
  "user": {
    "login": "lucasmciruzzi",
    "id": 3979433,
    "avatar_url": "https://avatars.githubusercontent.com/u/3979433?v=3",
    "gravatar_id": "",
    "url": "https://api.github.com/users/lucasmciruzzi",
    "html_url": "https://github.com/lucasmciruzzi",
    "followers_url": "https://api.github.com/users/lucasmciruzzi/followers",
    "following_url": "https://api.github.com/users/lucasmciruzzi/following{/other_user}",
    "gists_url": "https://api.github.com/users/lucasmciruzzi/gists{/gist_id}",
    "starred_url": "https://api.github.com/users/lucasmciruzzi/starred{/owner}{/repo}",
    "subscriptions_url": "https://api.github.com/users/lucasmciruzzi/subscriptions",
    "organizations_url": "https://api.github.com/users/lucasmciruzzi/orgs",
    "repos_url": "https://api.github.com/users/lucasmciruzzi/repos",
    "events_url": "https://api.github.com/users/lucasmciruzzi/events{/privacy}",
    "received_events_url": "https://api.github.com/users/lucasmciruzzi/received_events",
    "type": "User",
    "site_admin": false
  },
  "created_at": "2015-04-11T19:40:53Z",
  "updated_at": "2015-04-11T19:58:42Z",
  "body": "@DanielRosenwasser because, **in my opinion**, spaces are \"dirty\". Tabs allow more control about indentation, are characters designed to indent, and are only one, instead of 2 or 4 like spaces...\r\n\r\nBesides, the thing here is not to have one or the other, the thing is to **have the option to choose**."
}
, {
  "url": "https://api.github.com/repos/Microsoft/TypeScript/issues/comments/93145245",
  "html_url": "https://github.com/Microsoft/TypeScript/issues/2306#issuecomment-93145245",
  "issue_url": "https://api.github.com/repos/Microsoft/TypeScript/issues/2306",
  "id": 93145245,
  "user": {
    "login": "lucasmciruzzi",
    "id": 3979433,
    "avatar_url": "https://avatars.githubusercontent.com/u/3979433?v=3",
    "gravatar_id": "",
    "url": "https://api.github.com/users/lucasmciruzzi",
    "html_url": "https://github.com/lucasmciruzzi",
    "followers_url": "https://api.github.com/users/lucasmciruzzi/followers",
    "following_url": "https://api.github.com/users/lucasmciruzzi/following{/other_user}",
    "gists_url": "https://api.github.com/users/lucasmciruzzi/gists{/gist_id}",
    "starred_url": "https://api.github.com/users/lucasmciruzzi/starred{/owner}{/repo}",
    "subscriptions_url": "https://api.github.com/users/lucasmciruzzi/subscriptions",
    "organizations_url": "https://api.github.com/users/lucasmciruzzi/orgs",
    "repos_url": "https://api.github.com/users/lucasmciruzzi/repos",
    "events_url": "https://api.github.com/users/lucasmciruzzi/events{/privacy}",
    "received_events_url": "https://api.github.com/users/lucasmciruzzi/received_events",
    "type": "User",
    "site_admin": false
  },
  "created_at": "2015-04-15T01:54:31Z",
  "updated_at": "2015-04-15T01:54:47Z",
  "body": "I've just done a pull request adding a --indentStyle parameter in order to address issues like this one: #2768"
}
, {
  "url": "https://api.github.com/repos/Microsoft/TypeScript/issues/comments/93177845",
  "html_url": "https://github.com/Microsoft/TypeScript/issues/2306#issuecomment-93177845",
  "issue_url": "https://api.github.com/repos/Microsoft/TypeScript/issues/2306",
  "id": 93177845,
  "user": {
    "login": "hachre",
    "id": 885304,
    "avatar_url": "https://avatars.githubusercontent.com/u/885304?v=3",
    "gravatar_id": "",
    "url": "https://api.github.com/users/hachre",
    "html_url": "https://github.com/hachre",
    "followers_url": "https://api.github.com/users/hachre/followers",
    "following_url": "https://api.github.com/users/hachre/following{/other_user}",
    "gists_url": "https://api.github.com/users/hachre/gists{/gist_id}",
    "starred_url": "https://api.github.com/users/hachre/starred{/owner}{/repo}",
    "subscriptions_url": "https://api.github.com/users/hachre/subscriptions",
    "organizations_url": "https://api.github.com/users/hachre/orgs",
    "repos_url": "https://api.github.com/users/hachre/repos",
    "events_url": "https://api.github.com/users/hachre/events{/privacy}",
    "received_events_url": "https://api.github.com/users/hachre/received_events",
    "type": "User",
    "site_admin": false
  },
  "created_at": "2015-04-15T03:46:02Z",
  "updated_at": "2015-04-15T03:46:02Z",
  "body": "Thanks @lucasmciruzzi "
}
, {
  "url": "https://api.github.com/repos/Microsoft/TypeScript/issues/comments/93183215",
  "html_url": "https://github.com/Microsoft/TypeScript/issues/2306#issuecomment-93183215",
  "issue_url": "https://api.github.com/repos/Microsoft/TypeScript/issues/2306",
  "id": 93183215,
  "user": {
    "login": "mhegazy",
    "id": 8000722,
    "avatar_url": "https://avatars.githubusercontent.com/u/8000722?v=3",
    "gravatar_id": "",
    "url": "https://api.github.com/users/mhegazy",
    "html_url": "https://github.com/mhegazy",
    "followers_url": "https://api.github.com/users/mhegazy/followers",
    "following_url": "https://api.github.com/users/mhegazy/following{/other_user}",
    "gists_url": "https://api.github.com/users/mhegazy/gists{/gist_id}",
    "starred_url": "https://api.github.com/users/mhegazy/starred{/owner}{/repo}",
    "subscriptions_url": "https://api.github.com/users/mhegazy/subscriptions",
    "organizations_url": "https://api.github.com/users/mhegazy/orgs",
    "repos_url": "https://api.github.com/users/mhegazy/repos",
    "events_url": "https://api.github.com/users/mhegazy/events{/privacy}",
    "received_events_url": "https://api.github.com/users/mhegazy/received_events",
    "type": "User",
    "site_admin": false
  },
  "created_at": "2015-04-15T04:19:11Z",
  "updated_at": "2015-04-15T04:19:11Z",
  "body": "@lucasmciruzzi, i do not see how #2768 is related to this issue. your change targets the generated js, and not the language service formatting for typescript files."
}
]
