[
{
  "url": "https://api.github.com/repos/Microsoft/TypeScript/issues/comments/137845601",
  "html_url": "https://github.com/Microsoft/TypeScript/issues/4648#issuecomment-137845601",
  "issue_url": "https://api.github.com/repos/Microsoft/TypeScript/issues/4648",
  "id": 137845601,
  "user": {
    "login": "weswigham",
    "id": 2932786,
    "avatar_url": "https://avatars.githubusercontent.com/u/2932786?v=3",
    "gravatar_id": "",
    "url": "https://api.github.com/users/weswigham",
    "html_url": "https://github.com/weswigham",
    "followers_url": "https://api.github.com/users/weswigham/followers",
    "following_url": "https://api.github.com/users/weswigham/following{/other_user}",
    "gists_url": "https://api.github.com/users/weswigham/gists{/gist_id}",
    "starred_url": "https://api.github.com/users/weswigham/starred{/owner}{/repo}",
    "subscriptions_url": "https://api.github.com/users/weswigham/subscriptions",
    "organizations_url": "https://api.github.com/users/weswigham/orgs",
    "repos_url": "https://api.github.com/users/weswigham/repos",
    "events_url": "https://api.github.com/users/weswigham/events{/privacy}",
    "received_events_url": "https://api.github.com/users/weswigham/received_events",
    "type": "User",
    "site_admin": false
  },
  "created_at": "2015-09-04T20:29:49Z",
  "updated_at": "2015-09-04T22:21:56Z",
  "body": "```ts\r\ndeclare module JSX {\r\n  interface IntrinsicElements {\r\n    \"my-custom-element\": MyCustomElementClass\r\n  }\r\n}\r\n```\r\nYou can do this to remove the type error, if you'd like."
}
]
