[
{
  "url": "https://api.github.com/repos/Microsoft/TypeScript/issues/comments/52140107",
  "html_url": "https://github.com/Microsoft/TypeScript/issues/400#issuecomment-52140107",
  "issue_url": "https://api.github.com/repos/Microsoft/TypeScript/issues/400",
  "id": 52140107,
  "user": {
    "login": "sheetalkamat",
    "id": 8052792,
    "avatar_url": "https://avatars.githubusercontent.com/u/8052792?v=3",
    "gravatar_id": "",
    "url": "https://api.github.com/users/sheetalkamat",
    "html_url": "https://github.com/sheetalkamat",
    "followers_url": "https://api.github.com/users/sheetalkamat/followers",
    "following_url": "https://api.github.com/users/sheetalkamat/following{/other_user}",
    "gists_url": "https://api.github.com/users/sheetalkamat/gists{/gist_id}",
    "starred_url": "https://api.github.com/users/sheetalkamat/starred{/owner}{/repo}",
    "subscriptions_url": "https://api.github.com/users/sheetalkamat/subscriptions",
    "organizations_url": "https://api.github.com/users/sheetalkamat/orgs",
    "repos_url": "https://api.github.com/users/sheetalkamat/repos",
    "events_url": "https://api.github.com/users/sheetalkamat/events{/privacy}",
    "received_events_url": "https://api.github.com/users/sheetalkamat/received_events",
    "type": "User",
    "site_admin": false
  },
  "created_at": "2014-08-14T03:29:24Z",
  "updated_at": "2014-08-14T03:29:24Z",
  "body": "Fixed by 875d0c0c75efcd5b41380764ead06198409677c4"
}
]
