[
{
  "url": "https://api.github.com/repos/Microsoft/TypeScript/issues/comments/114686799",
  "html_url": "https://github.com/Microsoft/TypeScript/pull/3512#issuecomment-114686799",
  "issue_url": "https://api.github.com/repos/Microsoft/TypeScript/issues/3512",
  "id": 114686799,
  "user": {
    "login": "mhegazy",
    "id": 8000722,
    "avatar_url": "https://avatars.githubusercontent.com/u/8000722?v=3",
    "gravatar_id": "",
    "url": "https://api.github.com/users/mhegazy",
    "html_url": "https://github.com/mhegazy",
    "followers_url": "https://api.github.com/users/mhegazy/followers",
    "following_url": "https://api.github.com/users/mhegazy/following{/other_user}",
    "gists_url": "https://api.github.com/users/mhegazy/gists{/gist_id}",
    "starred_url": "https://api.github.com/users/mhegazy/starred{/owner}{/repo}",
    "subscriptions_url": "https://api.github.com/users/mhegazy/subscriptions",
    "organizations_url": "https://api.github.com/users/mhegazy/orgs",
    "repos_url": "https://api.github.com/users/mhegazy/repos",
    "events_url": "https://api.github.com/users/mhegazy/events{/privacy}",
    "received_events_url": "https://api.github.com/users/mhegazy/received_events",
    "type": "User",
    "site_admin": false
  },
  "created_at": "2015-06-24T01:04:01Z",
  "updated_at": "2015-06-24T01:04:01Z",
  "body": "As we talked about this earlier, i think this is more fit as an API helper that allows for computing this information, then the build driver can persisted in whatever format needed."
}
, {
  "url": "https://api.github.com/repos/Microsoft/TypeScript/issues/comments/117063089",
  "html_url": "https://github.com/Microsoft/TypeScript/pull/3512#issuecomment-117063089",
  "issue_url": "https://api.github.com/repos/Microsoft/TypeScript/issues/3512",
  "id": 117063089,
  "user": {
    "login": "dbaeumer",
    "id": 1931590,
    "avatar_url": "https://avatars.githubusercontent.com/u/1931590?v=3",
    "gravatar_id": "",
    "url": "https://api.github.com/users/dbaeumer",
    "html_url": "https://github.com/dbaeumer",
    "followers_url": "https://api.github.com/users/dbaeumer/followers",
    "following_url": "https://api.github.com/users/dbaeumer/following{/other_user}",
    "gists_url": "https://api.github.com/users/dbaeumer/gists{/gist_id}",
    "starred_url": "https://api.github.com/users/dbaeumer/starred{/owner}{/repo}",
    "subscriptions_url": "https://api.github.com/users/dbaeumer/subscriptions",
    "organizations_url": "https://api.github.com/users/dbaeumer/orgs",
    "repos_url": "https://api.github.com/users/dbaeumer/repos",
    "events_url": "https://api.github.com/users/dbaeumer/events{/privacy}",
    "received_events_url": "https://api.github.com/users/dbaeumer/received_events",
    "type": "User",
    "site_admin": false
  },
  "created_at": "2015-06-30T08:59:04Z",
  "updated_at": "2015-06-30T08:59:04Z",
  "body": "Agree, I will work on a PR that adds an API helper"
}
]
