[
{
  "url": "https://api.github.com/repos/mapbox/uv_zip/issues/2",
  "labels_url": "https://api.github.com/repos/mapbox/uv_zip/issues/2/labels{/name}",
  "comments_url": "https://api.github.com/repos/mapbox/uv_zip/issues/2/comments",
  "events_url": "https://api.github.com/repos/mapbox/uv_zip/issues/2/events",
  "html_url": "https://github.com/mapbox/uv_zip/pull/2",
  "id": 57545606,
  "number": 2,
  "title": "Expand tests to cover what mapbox-gl-uses",
  "user": {
    "login": "ljbade",
    "id": 1215089,
    "avatar_url": "https://avatars.githubusercontent.com/u/1215089?v=3",
    "gravatar_id": "",
    "url": "https://api.github.com/users/ljbade",
    "html_url": "https://github.com/ljbade",
    "followers_url": "https://api.github.com/users/ljbade/followers",
    "following_url": "https://api.github.com/users/ljbade/following{/other_user}",
    "gists_url": "https://api.github.com/users/ljbade/gists{/gist_id}",
    "starred_url": "https://api.github.com/users/ljbade/starred{/owner}{/repo}",
    "subscriptions_url": "https://api.github.com/users/ljbade/subscriptions",
    "organizations_url": "https://api.github.com/users/ljbade/orgs",
    "repos_url": "https://api.github.com/users/ljbade/repos",
    "events_url": "https://api.github.com/users/ljbade/events{/privacy}",
    "received_events_url": "https://api.github.com/users/ljbade/received_events",
    "type": "User",
    "site_admin": false
  },
  "labels": [],
  "state": "closed",
  "locked": false,
  "assignee": null,
  "milestone": null,
  "comments": 0,
  "created_at": "2015-02-13T01:13:21Z",
  "updated_at": "2015-02-17T05:37:58Z",
  "closed_at": "2015-02-17T05:37:55Z",
  "pull_request": {
    "url": "https://api.github.com/repos/mapbox/uv_zip/pulls/2",
    "html_url": "https://github.com/mapbox/uv_zip/pull/2",
    "diff_url": "https://github.com/mapbox/uv_zip/pull/2.diff",
    "patch_url": "https://github.com/mapbox/uv_zip/pull/2.patch"
  },
  "body": "Also enable debug information"
}
, {
  "url": "https://api.github.com/repos/mapbox/uv_zip/issues/1",
  "labels_url": "https://api.github.com/repos/mapbox/uv_zip/issues/1/labels{/name}",
  "comments_url": "https://api.github.com/repos/mapbox/uv_zip/issues/1/comments",
  "events_url": "https://api.github.com/repos/mapbox/uv_zip/issues/1/events",
  "html_url": "https://github.com/mapbox/uv_zip/pull/1",
  "id": 55799012,
  "number": 1,
  "title": "README: Add link to test.cpp file",
  "user": {
    "login": "Turbo87",
    "id": 141300,
    "avatar_url": "https://avatars.githubusercontent.com/u/141300?v=3",
    "gravatar_id": "",
    "url": "https://api.github.com/users/Turbo87",
    "html_url": "https://github.com/Turbo87",
    "followers_url": "https://api.github.com/users/Turbo87/followers",
    "following_url": "https://api.github.com/users/Turbo87/following{/other_user}",
    "gists_url": "https://api.github.com/users/Turbo87/gists{/gist_id}",
    "starred_url": "https://api.github.com/users/Turbo87/starred{/owner}{/repo}",
    "subscriptions_url": "https://api.github.com/users/Turbo87/subscriptions",
    "organizations_url": "https://api.github.com/users/Turbo87/orgs",
    "repos_url": "https://api.github.com/users/Turbo87/repos",
    "events_url": "https://api.github.com/users/Turbo87/events{/privacy}",
    "received_events_url": "https://api.github.com/users/Turbo87/received_events",
    "type": "User",
    "site_admin": false
  },
  "labels": [],
  "state": "closed",
  "locked": false,
  "assignee": null,
  "milestone": null,
  "comments": 3,
  "created_at": "2015-01-28T18:56:33Z",
  "updated_at": "2015-02-04T14:03:30Z",
  "closed_at": "2015-02-04T13:53:43Z",
  "pull_request": {
    "url": "https://api.github.com/repos/mapbox/uv_zip/pulls/1",
    "html_url": "https://github.com/mapbox/uv_zip/pull/1",
    "diff_url": "https://github.com/mapbox/uv_zip/pull/1.diff",
    "patch_url": "https://github.com/mapbox/uv_zip/pull/1.patch"
  },
  "body": ""
}
]
