[
{
  "url": "https://api.github.com/repos/thoughtbot/factory_girl/issues/comments/6035252",
  "html_url": "https://github.com/thoughtbot/factory_girl/issues/387#issuecomment-6035252",
  "issue_url": "https://api.github.com/repos/thoughtbot/factory_girl/issues/387",
  "id": 6035252,
  "user": {
    "login": "adarsh",
    "id": 913757,
    "avatar_url": "https://avatars.githubusercontent.com/u/913757?v=3",
    "gravatar_id": "",
    "url": "https://api.github.com/users/adarsh",
    "html_url": "https://github.com/adarsh",
    "followers_url": "https://api.github.com/users/adarsh/followers",
    "following_url": "https://api.github.com/users/adarsh/following{/other_user}",
    "gists_url": "https://api.github.com/users/adarsh/gists{/gist_id}",
    "starred_url": "https://api.github.com/users/adarsh/starred{/owner}{/repo}",
    "subscriptions_url": "https://api.github.com/users/adarsh/subscriptions",
    "organizations_url": "https://api.github.com/users/adarsh/orgs",
    "repos_url": "https://api.github.com/users/adarsh/repos",
    "events_url": "https://api.github.com/users/adarsh/events{/privacy}",
    "received_events_url": "https://api.github.com/users/adarsh/received_events",
    "type": "User",
    "site_admin": false
  },
  "created_at": "2012-05-31T13:08:36Z",
  "updated_at": "2012-05-31T13:08:36Z",
  "body": "Do an `rvm list` and make sure you are using the right Ruby version.\n\nIf not do `rvm use 1.9.3-p194` and give another whirl."
}
, {
  "url": "https://api.github.com/repos/thoughtbot/factory_girl/issues/comments/6037278",
  "html_url": "https://github.com/thoughtbot/factory_girl/issues/387#issuecomment-6037278",
  "issue_url": "https://api.github.com/repos/thoughtbot/factory_girl/issues/387",
  "id": 6037278,
  "user": {
    "login": "JohnSmall",
    "id": 38699,
    "avatar_url": "https://avatars.githubusercontent.com/u/38699?v=3",
    "gravatar_id": "",
    "url": "https://api.github.com/users/JohnSmall",
    "html_url": "https://github.com/JohnSmall",
    "followers_url": "https://api.github.com/users/JohnSmall/followers",
    "following_url": "https://api.github.com/users/JohnSmall/following{/other_user}",
    "gists_url": "https://api.github.com/users/JohnSmall/gists{/gist_id}",
    "starred_url": "https://api.github.com/users/JohnSmall/starred{/owner}{/repo}",
    "subscriptions_url": "https://api.github.com/users/JohnSmall/subscriptions",
    "organizations_url": "https://api.github.com/users/JohnSmall/orgs",
    "repos_url": "https://api.github.com/users/JohnSmall/repos",
    "events_url": "https://api.github.com/users/JohnSmall/events{/privacy}",
    "received_events_url": "https://api.github.com/users/JohnSmall/received_events",
    "type": "User",
    "site_admin": false
  },
  "created_at": "2012-05-31T14:28:23Z",
  "updated_at": "2012-05-31T14:28:23Z",
  "body": "I'm definitely using the right ruby in rvm. But when did gem env, I got a confusing result. The ruby version was the system ruby 1.8.7, but the ruby executable was the correct rvm installed ruby. I'm in the process of uninstalling the system ruby and rebuilding the rvm gemset and I'll see how I get on.\n"
}
, {
  "url": "https://api.github.com/repos/thoughtbot/factory_girl/issues/comments/6059423",
  "html_url": "https://github.com/thoughtbot/factory_girl/issues/387#issuecomment-6059423",
  "issue_url": "https://api.github.com/repos/thoughtbot/factory_girl/issues/387",
  "id": 6059423,
  "user": {
    "login": "JohnSmall",
    "id": 38699,
    "avatar_url": "https://avatars.githubusercontent.com/u/38699?v=3",
    "gravatar_id": "",
    "url": "https://api.github.com/users/JohnSmall",
    "html_url": "https://github.com/JohnSmall",
    "followers_url": "https://api.github.com/users/JohnSmall/followers",
    "following_url": "https://api.github.com/users/JohnSmall/following{/other_user}",
    "gists_url": "https://api.github.com/users/JohnSmall/gists{/gist_id}",
    "starred_url": "https://api.github.com/users/JohnSmall/starred{/owner}{/repo}",
    "subscriptions_url": "https://api.github.com/users/JohnSmall/subscriptions",
    "organizations_url": "https://api.github.com/users/JohnSmall/orgs",
    "repos_url": "https://api.github.com/users/JohnSmall/repos",
    "events_url": "https://api.github.com/users/JohnSmall/events{/privacy}",
    "received_events_url": "https://api.github.com/users/JohnSmall/received_events",
    "type": "User",
    "site_admin": false
  },
  "created_at": "2012-06-01T12:37:05Z",
  "updated_at": "2012-06-01T12:37:05Z",
  "body": "Removing my system Ruby and regenerating the 1.9.3-p194 rvm installation and gemset cleared the problem.\n"
}
]
