{
  "id": 13914484,
  "name": "CC3000_MDNS",
  "full_name": "adafruit/CC3000_MDNS",
  "owner": {
    "login": "adafruit",
    "id": 181069,
    "avatar_url": "https://avatars.githubusercontent.com/u/181069?v=3",
    "gravatar_id": "",
    "url": "https://api.github.com/users/adafruit",
    "html_url": "https://github.com/adafruit",
    "followers_url": "https://api.github.com/users/adafruit/followers",
    "following_url": "https://api.github.com/users/adafruit/following{/other_user}",
    "gists_url": "https://api.github.com/users/adafruit/gists{/gist_id}",
    "starred_url": "https://api.github.com/users/adafruit/starred{/owner}{/repo}",
    "subscriptions_url": "https://api.github.com/users/adafruit/subscriptions",
    "organizations_url": "https://api.github.com/users/adafruit/orgs",
    "repos_url": "https://api.github.com/users/adafruit/repos",
    "events_url": "https://api.github.com/users/adafruit/events{/privacy}",
    "received_events_url": "https://api.github.com/users/adafruit/received_events",
    "type": "Organization",
    "site_admin": false
  },
  "private": false,
  "html_url": "https://github.com/adafruit/CC3000_MDNS",
  "description": "Simple multicast DNS name resolution library for Adafruit's CC3000 and Arduino.",
  "fork": false,
  "url": "https://api.github.com/repos/adafruit/CC3000_MDNS",
  "forks_url": "https://api.github.com/repos/adafruit/CC3000_MDNS/forks",
  "keys_url": "https://api.github.com/repos/adafruit/CC3000_MDNS/keys{/key_id}",
  "collaborators_url": "https://api.github.com/repos/adafruit/CC3000_MDNS/collaborators{/collaborator}",
  "teams_url": "https://api.github.com/repos/adafruit/CC3000_MDNS/teams",
  "hooks_url": "https://api.github.com/repos/adafruit/CC3000_MDNS/hooks",
  "issue_events_url": "https://api.github.com/repos/adafruit/CC3000_MDNS/issues/events{/number}",
  "events_url": "https://api.github.com/repos/adafruit/CC3000_MDNS/events",
  "assignees_url": "https://api.github.com/repos/adafruit/CC3000_MDNS/assignees{/user}",
  "branches_url": "https://api.github.com/repos/adafruit/CC3000_MDNS/branches{/branch}",
  "tags_url": "https://api.github.com/repos/adafruit/CC3000_MDNS/tags",
  "blobs_url": "https://api.github.com/repos/adafruit/CC3000_MDNS/git/blobs{/sha}",
  "git_tags_url": "https://api.github.com/repos/adafruit/CC3000_MDNS/git/tags{/sha}",
  "git_refs_url": "https://api.github.com/repos/adafruit/CC3000_MDNS/git/refs{/sha}",
  "trees_url": "https://api.github.com/repos/adafruit/CC3000_MDNS/git/trees{/sha}",
  "statuses_url": "https://api.github.com/repos/adafruit/CC3000_MDNS/statuses/{sha}",
  "languages_url": "https://api.github.com/repos/adafruit/CC3000_MDNS/languages",
  "stargazers_url": "https://api.github.com/repos/adafruit/CC3000_MDNS/stargazers",
  "contributors_url": "https://api.github.com/repos/adafruit/CC3000_MDNS/contributors",
  "subscribers_url": "https://api.github.com/repos/adafruit/CC3000_MDNS/subscribers",
  "subscription_url": "https://api.github.com/repos/adafruit/CC3000_MDNS/subscription",
  "commits_url": "https://api.github.com/repos/adafruit/CC3000_MDNS/commits{/sha}",
  "git_commits_url": "https://api.github.com/repos/adafruit/CC3000_MDNS/git/commits{/sha}",
  "comments_url": "https://api.github.com/repos/adafruit/CC3000_MDNS/comments{/number}",
  "issue_comment_url": "https://api.github.com/repos/adafruit/CC3000_MDNS/issues/comments{/number}",
  "contents_url": "https://api.github.com/repos/adafruit/CC3000_MDNS/contents/{+path}",
  "compare_url": "https://api.github.com/repos/adafruit/CC3000_MDNS/compare/{base}...{head}",
  "merges_url": "https://api.github.com/repos/adafruit/CC3000_MDNS/merges",
  "archive_url": "https://api.github.com/repos/adafruit/CC3000_MDNS/{archive_format}{/ref}",
  "downloads_url": "https://api.github.com/repos/adafruit/CC3000_MDNS/downloads",
  "issues_url": "https://api.github.com/repos/adafruit/CC3000_MDNS/issues{/number}",
  "pulls_url": "https://api.github.com/repos/adafruit/CC3000_MDNS/pulls{/number}",
  "milestones_url": "https://api.github.com/repos/adafruit/CC3000_MDNS/milestones{/number}",
  "notifications_url": "https://api.github.com/repos/adafruit/CC3000_MDNS/notifications{?since,all,participating}",
  "labels_url": "https://api.github.com/repos/adafruit/CC3000_MDNS/labels{/name}",
  "releases_url": "https://api.github.com/repos/adafruit/CC3000_MDNS/releases{/id}",
  "deployments_url": "https://api.github.com/repos/adafruit/CC3000_MDNS/deployments",
  "created_at": "2013-10-28T02:02:15Z",
  "updated_at": "2015-12-10T00:30:25Z",
  "pushed_at": "2015-06-09T12:17:03Z",
  "git_url": "git://github.com/adafruit/CC3000_MDNS.git",
  "ssh_url": "git@github.com:adafruit/CC3000_MDNS.git",
  "clone_url": "https://github.com/adafruit/CC3000_MDNS.git",
  "svn_url": "https://github.com/adafruit/CC3000_MDNS",
  "homepage": null,
  "size": 207,
  "stargazers_count": 51,
  "watchers_count": 51,
  "language": "C++",
  "has_issues": true,
  "has_downloads": true,
  "has_wiki": true,
  "has_pages": false,
  "forks_count": 17,
  "mirror_url": null,
  "open_issues_count": 1,
  "forks": 17,
  "open_issues": 1,
  "watchers": 51,
  "default_branch": "master",
  "master_branch": "master",
  "permissions": {
    "admin": false,
    "push": false,
    "pull": true
  },
  "license": null,
  "organization": {
    "login": "adafruit",
    "id": 181069,
    "avatar_url": "https://avatars.githubusercontent.com/u/181069?v=3",
    "gravatar_id": "",
    "url": "https://api.github.com/users/adafruit",
    "html_url": "https://github.com/adafruit",
    "followers_url": "https://api.github.com/users/adafruit/followers",
    "following_url": "https://api.github.com/users/adafruit/following{/other_user}",
    "gists_url": "https://api.github.com/users/adafruit/gists{/gist_id}",
    "starred_url": "https://api.github.com/users/adafruit/starred{/owner}{/repo}",
    "subscriptions_url": "https://api.github.com/users/adafruit/subscriptions",
    "organizations_url": "https://api.github.com/users/adafruit/orgs",
    "repos_url": "https://api.github.com/users/adafruit/repos",
    "events_url": "https://api.github.com/users/adafruit/events{/privacy}",
    "received_events_url": "https://api.github.com/users/adafruit/received_events",
    "type": "Organization",
    "site_admin": false
  },
  "network_count": 17,
  "subscribers_count": 13
}
