[
{
  "url": "https://api.github.com/repos/paypal/PayPal-PHP-SDK/issues/comments/73055514",
  "html_url": "https://github.com/paypal/PayPal-PHP-SDK/issues/238#issuecomment-73055514",
  "issue_url": "https://api.github.com/repos/paypal/PayPal-PHP-SDK/issues/238",
  "id": 73055514,
  "user": {
    "login": "jziaja",
    "id": 8227966,
    "avatar_url": "https://avatars.githubusercontent.com/u/8227966?v=3",
    "gravatar_id": "",
    "url": "https://api.github.com/users/jziaja",
    "html_url": "https://github.com/jziaja",
    "followers_url": "https://api.github.com/users/jziaja/followers",
    "following_url": "https://api.github.com/users/jziaja/following{/other_user}",
    "gists_url": "https://api.github.com/users/jziaja/gists{/gist_id}",
    "starred_url": "https://api.github.com/users/jziaja/starred{/owner}{/repo}",
    "subscriptions_url": "https://api.github.com/users/jziaja/subscriptions",
    "organizations_url": "https://api.github.com/users/jziaja/orgs",
    "repos_url": "https://api.github.com/users/jziaja/repos",
    "events_url": "https://api.github.com/users/jziaja/events{/privacy}",
    "received_events_url": "https://api.github.com/users/jziaja/received_events",
    "type": "User",
    "site_admin": false
  },
  "created_at": "2015-02-05T14:36:36Z",
  "updated_at": "2015-02-05T14:36:36Z",
  "body": "Unfortunately, using a credit card token as the funding instrument isn't currently supported when creating billing agreements.  I'm following up with the subscription team to check the current status of supporting this feature.  If anything, the error message should be changed to indicate that credit card tokens aren't currently supported."
}
, {
  "url": "https://api.github.com/repos/paypal/PayPal-PHP-SDK/issues/comments/73070985",
  "html_url": "https://github.com/paypal/PayPal-PHP-SDK/issues/238#issuecomment-73070985",
  "issue_url": "https://api.github.com/repos/paypal/PayPal-PHP-SDK/issues/238",
  "id": 73070985,
  "user": {
    "login": "engrsandeep",
    "id": 10007250,
    "avatar_url": "https://avatars.githubusercontent.com/u/10007250?v=3",
    "gravatar_id": "",
    "url": "https://api.github.com/users/engrsandeep",
    "html_url": "https://github.com/engrsandeep",
    "followers_url": "https://api.github.com/users/engrsandeep/followers",
    "following_url": "https://api.github.com/users/engrsandeep/following{/other_user}",
    "gists_url": "https://api.github.com/users/engrsandeep/gists{/gist_id}",
    "starred_url": "https://api.github.com/users/engrsandeep/starred{/owner}{/repo}",
    "subscriptions_url": "https://api.github.com/users/engrsandeep/subscriptions",
    "organizations_url": "https://api.github.com/users/engrsandeep/orgs",
    "repos_url": "https://api.github.com/users/engrsandeep/repos",
    "events_url": "https://api.github.com/users/engrsandeep/events{/privacy}",
    "received_events_url": "https://api.github.com/users/engrsandeep/received_events",
    "type": "User",
    "site_admin": false
  },
  "created_at": "2015-02-05T16:00:38Z",
  "updated_at": "2015-02-05T16:00:38Z",
  "body": "Ok, then what is benefit to store a credit card with paypal?"
}
, {
  "url": "https://api.github.com/repos/paypal/PayPal-PHP-SDK/issues/comments/73087303",
  "html_url": "https://github.com/paypal/PayPal-PHP-SDK/issues/238#issuecomment-73087303",
  "issue_url": "https://api.github.com/repos/paypal/PayPal-PHP-SDK/issues/238",
  "id": 73087303,
  "user": {
    "login": "jziaja",
    "id": 8227966,
    "avatar_url": "https://avatars.githubusercontent.com/u/8227966?v=3",
    "gravatar_id": "",
    "url": "https://api.github.com/users/jziaja",
    "html_url": "https://github.com/jziaja",
    "followers_url": "https://api.github.com/users/jziaja/followers",
    "following_url": "https://api.github.com/users/jziaja/following{/other_user}",
    "gists_url": "https://api.github.com/users/jziaja/gists{/gist_id}",
    "starred_url": "https://api.github.com/users/jziaja/starred{/owner}{/repo}",
    "subscriptions_url": "https://api.github.com/users/jziaja/subscriptions",
    "organizations_url": "https://api.github.com/users/jziaja/orgs",
    "repos_url": "https://api.github.com/users/jziaja/repos",
    "events_url": "https://api.github.com/users/jziaja/events{/privacy}",
    "received_events_url": "https://api.github.com/users/jziaja/received_events",
    "type": "User",
    "site_admin": false
  },
  "created_at": "2015-02-05T17:21:44Z",
  "updated_at": "2015-02-05T17:21:44Z",
  "body": "> Ok, then what is benefit to store a credit card with paypal?\r\n\r\nUsing a credit card token is supported for making [one time payments](https://developer.paypal.com/docs/integration/direct/accept-credit-cards/).  \r\n\r\nIn context of billing agreements, using a credit card token is currently not supported as a funding instrument."
}
, {
  "url": "https://api.github.com/repos/paypal/PayPal-PHP-SDK/issues/comments/73095198",
  "html_url": "https://github.com/paypal/PayPal-PHP-SDK/issues/238#issuecomment-73095198",
  "issue_url": "https://api.github.com/repos/paypal/PayPal-PHP-SDK/issues/238",
  "id": 73095198,
  "user": {
    "login": "jaypatel512",
    "id": 1309895,
    "avatar_url": "https://avatars.githubusercontent.com/u/1309895?v=3",
    "gravatar_id": "",
    "url": "https://api.github.com/users/jaypatel512",
    "html_url": "https://github.com/jaypatel512",
    "followers_url": "https://api.github.com/users/jaypatel512/followers",
    "following_url": "https://api.github.com/users/jaypatel512/following{/other_user}",
    "gists_url": "https://api.github.com/users/jaypatel512/gists{/gist_id}",
    "starred_url": "https://api.github.com/users/jaypatel512/starred{/owner}{/repo}",
    "subscriptions_url": "https://api.github.com/users/jaypatel512/subscriptions",
    "organizations_url": "https://api.github.com/users/jaypatel512/orgs",
    "repos_url": "https://api.github.com/users/jaypatel512/repos",
    "events_url": "https://api.github.com/users/jaypatel512/events{/privacy}",
    "received_events_url": "https://api.github.com/users/jaypatel512/received_events",
    "type": "User",
    "site_admin": false
  },
  "created_at": "2015-02-05T18:05:50Z",
  "updated_at": "2015-02-05T18:05:50Z",
  "body": "Closing this issue to be tracked on https://github.com/paypal/PayPal-Python-SDK/issues/60"
}
]
