[
{
  "url": "https://api.github.com/repos/paypal/PayPal-PHP-SDK/issues/comments/71663415",
  "html_url": "https://github.com/paypal/PayPal-PHP-SDK/issues/223#issuecomment-71663415",
  "issue_url": "https://api.github.com/repos/paypal/PayPal-PHP-SDK/issues/223",
  "id": 71663415,
  "user": {
    "login": "jaypatel512",
    "id": 1309895,
    "avatar_url": "https://avatars.githubusercontent.com/u/1309895?v=3",
    "gravatar_id": "",
    "url": "https://api.github.com/users/jaypatel512",
    "html_url": "https://github.com/jaypatel512",
    "followers_url": "https://api.github.com/users/jaypatel512/followers",
    "following_url": "https://api.github.com/users/jaypatel512/following{/other_user}",
    "gists_url": "https://api.github.com/users/jaypatel512/gists{/gist_id}",
    "starred_url": "https://api.github.com/users/jaypatel512/starred{/owner}{/repo}",
    "subscriptions_url": "https://api.github.com/users/jaypatel512/subscriptions",
    "organizations_url": "https://api.github.com/users/jaypatel512/orgs",
    "repos_url": "https://api.github.com/users/jaypatel512/repos",
    "events_url": "https://api.github.com/users/jaypatel512/events{/privacy}",
    "received_events_url": "https://api.github.com/users/jaypatel512/received_events",
    "type": "User",
    "site_admin": false
  },
  "created_at": "2015-01-27T15:12:18Z",
  "updated_at": "2015-01-27T15:12:18Z",
  "body": "Hey @cullylarson ! I agree. The object conversion seem to be doing something crazy here. I will definitely look into this, and allow it to create an empty object."
}
]
