[
{
  "url": "https://api.github.com/repos/mapbox/node-sqlite3/issues/comments/32138569",
  "html_url": "https://github.com/mapbox/node-sqlite3/issues/241#issuecomment-32138569",
  "issue_url": "https://api.github.com/repos/mapbox/node-sqlite3/issues/241",
  "id": 32138569,
  "user": {
    "login": "springmeyer",
    "id": 20300,
    "avatar_url": "https://avatars.githubusercontent.com/u/20300?v=3",
    "gravatar_id": "",
    "url": "https://api.github.com/users/springmeyer",
    "html_url": "https://github.com/springmeyer",
    "followers_url": "https://api.github.com/users/springmeyer/followers",
    "following_url": "https://api.github.com/users/springmeyer/following{/other_user}",
    "gists_url": "https://api.github.com/users/springmeyer/gists{/gist_id}",
    "starred_url": "https://api.github.com/users/springmeyer/starred{/owner}{/repo}",
    "subscriptions_url": "https://api.github.com/users/springmeyer/subscriptions",
    "organizations_url": "https://api.github.com/users/springmeyer/orgs",
    "repos_url": "https://api.github.com/users/springmeyer/repos",
    "events_url": "https://api.github.com/users/springmeyer/events{/privacy}",
    "received_events_url": "https://api.github.com/users/springmeyer/received_events",
    "type": "User",
    "site_admin": false
  },
  "created_at": "2014-01-12T23:52:54Z",
  "updated_at": "2014-01-12T23:52:54Z",
  "body": "node-sqlite3 does not support v0.11.x. Follow #184 for progress.\r\n\r\nNot the the versioning for the binaries is based on `process.versions.modules` not the node version."
}
]
