[
{
  "url": "https://api.github.com/repos/twitter/ambrose/issues/comments/66214718",
  "html_url": "https://github.com/twitter/ambrose/issues/2#issuecomment-66214718",
  "issue_url": "https://api.github.com/repos/twitter/ambrose/issues/2",
  "id": 66214718,
  "user": {
    "login": "sagemintblue",
    "id": 440162,
    "avatar_url": "https://avatars.githubusercontent.com/u/440162?v=3",
    "gravatar_id": "",
    "url": "https://api.github.com/users/sagemintblue",
    "html_url": "https://github.com/sagemintblue",
    "followers_url": "https://api.github.com/users/sagemintblue/followers",
    "following_url": "https://api.github.com/users/sagemintblue/following{/other_user}",
    "gists_url": "https://api.github.com/users/sagemintblue/gists{/gist_id}",
    "starred_url": "https://api.github.com/users/sagemintblue/starred{/owner}{/repo}",
    "subscriptions_url": "https://api.github.com/users/sagemintblue/subscriptions",
    "organizations_url": "https://api.github.com/users/sagemintblue/orgs",
    "repos_url": "https://api.github.com/users/sagemintblue/repos",
    "events_url": "https://api.github.com/users/sagemintblue/events{/privacy}",
    "received_events_url": "https://api.github.com/users/sagemintblue/received_events",
    "type": "User",
    "site_admin": false
  },
  "created_at": "2014-12-09T00:29:50Z",
  "updated_at": "2014-12-09T00:29:50Z",
  "body": "fixed in master."
}
]
