[
{
  "url": "https://api.github.com/repos/github/msysgit/issues/comments/51228811",
  "html_url": "https://github.com/github/msysgit/pull/29#issuecomment-51228811",
  "issue_url": "https://api.github.com/repos/github/msysgit/issues/29",
  "id": 51228811,
  "user": {
    "login": "paulcbetts",
    "id": 1396,
    "avatar_url": "https://avatars.githubusercontent.com/u/1396?v=3",
    "gravatar_id": "",
    "url": "https://api.github.com/users/paulcbetts",
    "html_url": "https://github.com/paulcbetts",
    "followers_url": "https://api.github.com/users/paulcbetts/followers",
    "following_url": "https://api.github.com/users/paulcbetts/following{/other_user}",
    "gists_url": "https://api.github.com/users/paulcbetts/gists{/gist_id}",
    "starred_url": "https://api.github.com/users/paulcbetts/starred{/owner}{/repo}",
    "subscriptions_url": "https://api.github.com/users/paulcbetts/subscriptions",
    "organizations_url": "https://api.github.com/users/paulcbetts/orgs",
    "repos_url": "https://api.github.com/users/paulcbetts/repos",
    "events_url": "https://api.github.com/users/paulcbetts/events{/privacy}",
    "received_events_url": "https://api.github.com/users/paulcbetts/received_events",
    "type": "User",
    "site_admin": false
  },
  "created_at": "2014-08-05T17:12:38Z",
  "updated_at": "2014-08-05T17:12:38Z",
  "body": "Thanks @madskristensen! "
}
]
