[
{
  "url": "https://api.github.com/repos/elastic/elasticsearch-mapper-attachments/issues/comments/16765858",
  "html_url": "https://github.com/elastic/elasticsearch-mapper-attachments/issues/27#issuecomment-16765858",
  "issue_url": "https://api.github.com/repos/elastic/elasticsearch-mapper-attachments/issues/27",
  "id": 16765858,
  "user": {
    "login": "jonarrien",
    "id": 1249415,
    "avatar_url": "https://avatars.githubusercontent.com/u/1249415?v=3",
    "gravatar_id": "",
    "url": "https://api.github.com/users/jonarrien",
    "html_url": "https://github.com/jonarrien",
    "followers_url": "https://api.github.com/users/jonarrien/followers",
    "following_url": "https://api.github.com/users/jonarrien/following{/other_user}",
    "gists_url": "https://api.github.com/users/jonarrien/gists{/gist_id}",
    "starred_url": "https://api.github.com/users/jonarrien/starred{/owner}{/repo}",
    "subscriptions_url": "https://api.github.com/users/jonarrien/subscriptions",
    "organizations_url": "https://api.github.com/users/jonarrien/orgs",
    "repos_url": "https://api.github.com/users/jonarrien/repos",
    "events_url": "https://api.github.com/users/jonarrien/events{/privacy}",
    "received_events_url": "https://api.github.com/users/jonarrien/received_events",
    "type": "User",
    "site_admin": false
  },
  "created_at": "2013-04-22T08:34:32Z",
  "updated_at": "2013-04-22T08:34:32Z",
  "body": "If I try to parse Office documents with tike-app.jar, the content of the document is been extracted successfully. \r\n\r\nAfter some tests, I have discovered that txt files are also not being indexed, only PDF files. Anyone has a clue why PDF files are correctly indexed, but not other formats? \r\n\r\nThanks in advance."
}
, {
  "url": "https://api.github.com/repos/elastic/elasticsearch-mapper-attachments/issues/comments/17324966",
  "html_url": "https://github.com/elastic/elasticsearch-mapper-attachments/issues/27#issuecomment-17324966",
  "issue_url": "https://api.github.com/repos/elastic/elasticsearch-mapper-attachments/issues/27",
  "id": 17324966,
  "user": {
    "login": "jonarrien",
    "id": 1249415,
    "avatar_url": "https://avatars.githubusercontent.com/u/1249415?v=3",
    "gravatar_id": "",
    "url": "https://api.github.com/users/jonarrien",
    "html_url": "https://github.com/jonarrien",
    "followers_url": "https://api.github.com/users/jonarrien/followers",
    "following_url": "https://api.github.com/users/jonarrien/following{/other_user}",
    "gists_url": "https://api.github.com/users/jonarrien/gists{/gist_id}",
    "starred_url": "https://api.github.com/users/jonarrien/starred{/owner}{/repo}",
    "subscriptions_url": "https://api.github.com/users/jonarrien/subscriptions",
    "organizations_url": "https://api.github.com/users/jonarrien/orgs",
    "repos_url": "https://api.github.com/users/jonarrien/repos",
    "events_url": "https://api.github.com/users/jonarrien/events{/privacy}",
    "received_events_url": "https://api.github.com/users/jonarrien/received_events",
    "type": "User",
    "site_admin": false
  },
  "created_at": "2013-05-02T07:56:12Z",
  "updated_at": "2013-05-02T07:56:12Z",
  "body": "Fixed. It was a mapping mistake with the analyzer. Sorry."
}
]
