[
{
  "url": "https://api.github.com/repos/ValveSoftware/Source-1-Games/issues/comments/18254349",
  "html_url": "https://github.com/ValveSoftware/Source-1-Games/issues/765#issuecomment-18254349",
  "issue_url": "https://api.github.com/repos/ValveSoftware/Source-1-Games/issues/765",
  "id": 18254349,
  "user": {
    "login": "alfred-valve",
    "id": 3093825,
    "avatar_url": "https://avatars.githubusercontent.com/u/3093825?v=3",
    "gravatar_id": "",
    "url": "https://api.github.com/users/alfred-valve",
    "html_url": "https://github.com/alfred-valve",
    "followers_url": "https://api.github.com/users/alfred-valve/followers",
    "following_url": "https://api.github.com/users/alfred-valve/following{/other_user}",
    "gists_url": "https://api.github.com/users/alfred-valve/gists{/gist_id}",
    "starred_url": "https://api.github.com/users/alfred-valve/starred{/owner}{/repo}",
    "subscriptions_url": "https://api.github.com/users/alfred-valve/subscriptions",
    "organizations_url": "https://api.github.com/users/alfred-valve/orgs",
    "repos_url": "https://api.github.com/users/alfred-valve/repos",
    "events_url": "https://api.github.com/users/alfred-valve/events{/privacy}",
    "received_events_url": "https://api.github.com/users/alfred-valve/received_events",
    "type": "User",
    "site_admin": false
  },
  "created_at": "2013-05-22T02:41:58Z",
  "updated_at": "2013-05-22T02:41:58Z",
  "body": "EP1 and EP2 run the exact same binaries.... Got any idea on the variance you see between them?"
}
, {
  "url": "https://api.github.com/repos/ValveSoftware/Source-1-Games/issues/comments/18261192",
  "html_url": "https://github.com/ValveSoftware/Source-1-Games/issues/765#issuecomment-18261192",
  "issue_url": "https://api.github.com/repos/ValveSoftware/Source-1-Games/issues/765",
  "id": 18261192,
  "user": {
    "login": "volca02",
    "id": 1075171,
    "avatar_url": "https://avatars.githubusercontent.com/u/1075171?v=3",
    "gravatar_id": "",
    "url": "https://api.github.com/users/volca02",
    "html_url": "https://github.com/volca02",
    "followers_url": "https://api.github.com/users/volca02/followers",
    "following_url": "https://api.github.com/users/volca02/following{/other_user}",
    "gists_url": "https://api.github.com/users/volca02/gists{/gist_id}",
    "starred_url": "https://api.github.com/users/volca02/starred{/owner}{/repo}",
    "subscriptions_url": "https://api.github.com/users/volca02/subscriptions",
    "organizations_url": "https://api.github.com/users/volca02/orgs",
    "repos_url": "https://api.github.com/users/volca02/repos",
    "events_url": "https://api.github.com/users/volca02/events{/privacy}",
    "received_events_url": "https://api.github.com/users/volca02/received_events",
    "type": "User",
    "site_admin": false
  },
  "created_at": "2013-05-22T07:14:59Z",
  "updated_at": "2013-05-22T07:14:59Z",
  "body": "I confirm this report (also on 13.4). CS:S also has this lag, but it all depends on scene complexity and graphics settings (see #431). "
}
, {
  "url": "https://api.github.com/repos/ValveSoftware/Source-1-Games/issues/comments/18373504",
  "html_url": "https://github.com/ValveSoftware/Source-1-Games/issues/765#issuecomment-18373504",
  "issue_url": "https://api.github.com/repos/ValveSoftware/Source-1-Games/issues/765",
  "id": 18373504,
  "user": {
    "login": "iiv3",
    "id": 4492960,
    "avatar_url": "https://avatars.githubusercontent.com/u/4492960?v=3",
    "gravatar_id": "",
    "url": "https://api.github.com/users/iiv3",
    "html_url": "https://github.com/iiv3",
    "followers_url": "https://api.github.com/users/iiv3/followers",
    "following_url": "https://api.github.com/users/iiv3/following{/other_user}",
    "gists_url": "https://api.github.com/users/iiv3/gists{/gist_id}",
    "starred_url": "https://api.github.com/users/iiv3/starred{/owner}{/repo}",
    "subscriptions_url": "https://api.github.com/users/iiv3/subscriptions",
    "organizations_url": "https://api.github.com/users/iiv3/orgs",
    "repos_url": "https://api.github.com/users/iiv3/repos",
    "events_url": "https://api.github.com/users/iiv3/events{/privacy}",
    "received_events_url": "https://api.github.com/users/iiv3/received_events",
    "type": "User",
    "site_admin": false
  },
  "created_at": "2013-05-23T21:38:46Z",
  "updated_at": "2013-05-23T21:38:46Z",
  "body": "I want to add something. I had disabled game-overlay for Portal, it doesn't seem to have an impact on the lag.\r\n\r\n@alfred-valve, I played only the first 5 minutes of EP1 and EP2, so the scene complexity is quite plausible explanation.\r\n\r\nThere is a location in first level of EP1 that shows huge lag \r\n`maps/ep1_citadel_00.bsp` `pos: -6477.44 6043.07 -36.07` `ang: 0.00 36.37 0.00` \r\n(I think DOG throws the van at my position: ) It lags when I face the stone wall that is lit by fire. I have 120fps while lagging. Looking at `ang: 0.00 110.0 0.00` shows almost no lag.\r\nThere are other fires that doesn't cause massive lag.\r\n\r\nAlso, I tried a few more levels in CS:S. There are levels that have no lag, levels that have lag on some places and levels that have huge lag from the start.\r\nAlso, I tried the benchmark in CS:S in non-fullscreen window. That should have turned the lag into stutter, but I saw no stutter.\r\n\r\nIf you haven't reproduced the problem yourself and want me to run some other programs or do some other tests, feel free to ask me.\r\n"
}
, {
  "url": "https://api.github.com/repos/ValveSoftware/Source-1-Games/issues/comments/18573228",
  "html_url": "https://github.com/ValveSoftware/Source-1-Games/issues/765#issuecomment-18573228",
  "issue_url": "https://api.github.com/repos/ValveSoftware/Source-1-Games/issues/765",
  "id": 18573228,
  "user": {
    "login": "kwahoo2",
    "id": 3474114,
    "avatar_url": "https://avatars.githubusercontent.com/u/3474114?v=3",
    "gravatar_id": "",
    "url": "https://api.github.com/users/kwahoo2",
    "html_url": "https://github.com/kwahoo2",
    "followers_url": "https://api.github.com/users/kwahoo2/followers",
    "following_url": "https://api.github.com/users/kwahoo2/following{/other_user}",
    "gists_url": "https://api.github.com/users/kwahoo2/gists{/gist_id}",
    "starred_url": "https://api.github.com/users/kwahoo2/starred{/owner}{/repo}",
    "subscriptions_url": "https://api.github.com/users/kwahoo2/subscriptions",
    "organizations_url": "https://api.github.com/users/kwahoo2/orgs",
    "repos_url": "https://api.github.com/users/kwahoo2/repos",
    "events_url": "https://api.github.com/users/kwahoo2/events{/privacy}",
    "received_events_url": "https://api.github.com/users/kwahoo2/received_events",
    "type": "User",
    "site_admin": false
  },
  "created_at": "2013-05-28T19:15:36Z",
  "updated_at": "2013-05-28T19:16:13Z",
  "body": "I can confirm for 13.4 (Ubuntu 12.10 64-bit, Radeon 6670, Half-Life 2). I logged GPU usage using https://github.com/clbr/radeontop tool.\r\n\r\nThe part with a huge lag:\r\n![hl-fglrx_html_m675e6e7e](https://f.cloud.github.com/assets/3474114/574518/533b641e-c7ca-11e2-898c-4d61ca7e3eda.png)\r\n\r\nAlmost the same place but without lag:\r\n![hl-fglrx_html_m9b7265](https://f.cloud.github.com/assets/3474114/574515/48c36d2e-c7ca-11e2-988b-fa25b74162cf.png)\r\n\r\nLook at Event Engine (ee) usage. It goes up when game lagging, everything else (Primitive Assembly, Vertex Grouper + Tesselator etc) goes down. \r\n\r\nI can deliver detailed logs if they would be useful. BTW there is no lag at all using open source drivers."
}
, {
  "url": "https://api.github.com/repos/ValveSoftware/Source-1-Games/issues/comments/18827736",
  "html_url": "https://github.com/ValveSoftware/Source-1-Games/issues/765#issuecomment-18827736",
  "issue_url": "https://api.github.com/repos/ValveSoftware/Source-1-Games/issues/765",
  "id": 18827736,
  "user": {
    "login": "iiv3",
    "id": 4492960,
    "avatar_url": "https://avatars.githubusercontent.com/u/4492960?v=3",
    "gravatar_id": "",
    "url": "https://api.github.com/users/iiv3",
    "html_url": "https://github.com/iiv3",
    "followers_url": "https://api.github.com/users/iiv3/followers",
    "following_url": "https://api.github.com/users/iiv3/following{/other_user}",
    "gists_url": "https://api.github.com/users/iiv3/gists{/gist_id}",
    "starred_url": "https://api.github.com/users/iiv3/starred{/owner}{/repo}",
    "subscriptions_url": "https://api.github.com/users/iiv3/subscriptions",
    "organizations_url": "https://api.github.com/users/iiv3/orgs",
    "repos_url": "https://api.github.com/users/iiv3/repos",
    "events_url": "https://api.github.com/users/iiv3/events{/privacy}",
    "received_events_url": "https://api.github.com/users/iiv3/received_events",
    "type": "User",
    "site_admin": false
  },
  "created_at": "2013-06-03T08:25:19Z",
  "updated_at": "2013-06-03T08:25:19Z",
  "body": "The Catalyst 13.6-beta is already out and it also shows the same symptoms. They are present even when the beta logo is visible on the screen corner.\r\n\r\nThere is one more thing, I suspect that the problem is reproducible with a simple `glxgears`. The program runs normally when started (~6400fps), but once maximized it starts to stutter (~1200fps).\r\nThe same program under 13.3-beta3 runs with ~2400fps (normal), ~1200fps (maximized) and no stutter at all.\r\n"
}
, {
  "url": "https://api.github.com/repos/ValveSoftware/Source-1-Games/issues/comments/18955148",
  "html_url": "https://github.com/ValveSoftware/Source-1-Games/issues/765#issuecomment-18955148",
  "issue_url": "https://api.github.com/repos/ValveSoftware/Source-1-Games/issues/765",
  "id": 18955148,
  "user": {
    "login": "volca02",
    "id": 1075171,
    "avatar_url": "https://avatars.githubusercontent.com/u/1075171?v=3",
    "gravatar_id": "",
    "url": "https://api.github.com/users/volca02",
    "html_url": "https://github.com/volca02",
    "followers_url": "https://api.github.com/users/volca02/followers",
    "following_url": "https://api.github.com/users/volca02/following{/other_user}",
    "gists_url": "https://api.github.com/users/volca02/gists{/gist_id}",
    "starred_url": "https://api.github.com/users/volca02/starred{/owner}{/repo}",
    "subscriptions_url": "https://api.github.com/users/volca02/subscriptions",
    "organizations_url": "https://api.github.com/users/volca02/orgs",
    "repos_url": "https://api.github.com/users/volca02/repos",
    "events_url": "https://api.github.com/users/volca02/events{/privacy}",
    "received_events_url": "https://api.github.com/users/volca02/received_events",
    "type": "User",
    "site_admin": false
  },
  "created_at": "2013-06-05T04:36:01Z",
  "updated_at": "2013-06-05T04:36:01Z",
  "body": "I experienced the same lag with other games, but not all - for example the Awesomenauts exhibit this, but not Oil Rush. Interetingly Awesomenauts author Joost written an article about this (http://joostdevblog.blogspot.cz/2011/10/what-no-one-told-you-about-videocard.html - see the fift picture) , and mentions fencing."
}
, {
  "url": "https://api.github.com/repos/ValveSoftware/Source-1-Games/issues/comments/18975114",
  "html_url": "https://github.com/ValveSoftware/Source-1-Games/issues/765#issuecomment-18975114",
  "issue_url": "https://api.github.com/repos/ValveSoftware/Source-1-Games/issues/765",
  "id": 18975114,
  "user": {
    "login": "mmstick",
    "id": 4143535,
    "avatar_url": "https://avatars.githubusercontent.com/u/4143535?v=3",
    "gravatar_id": "",
    "url": "https://api.github.com/users/mmstick",
    "html_url": "https://github.com/mmstick",
    "followers_url": "https://api.github.com/users/mmstick/followers",
    "following_url": "https://api.github.com/users/mmstick/following{/other_user}",
    "gists_url": "https://api.github.com/users/mmstick/gists{/gist_id}",
    "starred_url": "https://api.github.com/users/mmstick/starred{/owner}{/repo}",
    "subscriptions_url": "https://api.github.com/users/mmstick/subscriptions",
    "organizations_url": "https://api.github.com/users/mmstick/orgs",
    "repos_url": "https://api.github.com/users/mmstick/repos",
    "events_url": "https://api.github.com/users/mmstick/events{/privacy}",
    "received_events_url": "https://api.github.com/users/mmstick/received_events",
    "type": "User",
    "site_admin": false
  },
  "created_at": "2013-06-05T13:24:28Z",
  "updated_at": "2013-06-05T13:25:30Z",
  "body": "I can assure you that this issue is significantly worse in the fglrx drivers for GCN (Radeon HD 7xxx) hardware. TF2 is completely unplayable. All you can do is play 2D games, old Source games, and indie games with little graphics. Open source radeon driver also causes a lot of black boxes to flicker all over the screen. There's no place for AMD in gaming on Linux at the moment."
}
, {
  "url": "https://api.github.com/repos/ValveSoftware/Source-1-Games/issues/comments/19494952",
  "html_url": "https://github.com/ValveSoftware/Source-1-Games/issues/765#issuecomment-19494952",
  "issue_url": "https://api.github.com/repos/ValveSoftware/Source-1-Games/issues/765",
  "id": 19494952,
  "user": {
    "login": "volca02",
    "id": 1075171,
    "avatar_url": "https://avatars.githubusercontent.com/u/1075171?v=3",
    "gravatar_id": "",
    "url": "https://api.github.com/users/volca02",
    "html_url": "https://github.com/volca02",
    "followers_url": "https://api.github.com/users/volca02/followers",
    "following_url": "https://api.github.com/users/volca02/following{/other_user}",
    "gists_url": "https://api.github.com/users/volca02/gists{/gist_id}",
    "starred_url": "https://api.github.com/users/volca02/starred{/owner}{/repo}",
    "subscriptions_url": "https://api.github.com/users/volca02/subscriptions",
    "organizations_url": "https://api.github.com/users/volca02/orgs",
    "repos_url": "https://api.github.com/users/volca02/repos",
    "events_url": "https://api.github.com/users/volca02/events{/privacy}",
    "received_events_url": "https://api.github.com/users/volca02/received_events",
    "type": "User",
    "site_admin": false
  },
  "created_at": "2013-06-15T11:12:40Z",
  "updated_at": "2013-06-15T17:16:51Z",
  "body": "I've investigated a bit more and it seems to be an engine's problem, not driver's, after all. I am not sure if glXSwapBuffers should empty the command buffer but on catalyst it simply does not.\r\n\r\nAs a partial remedy, I hijacked elfhacks project and created an LD_PRELOAD hook that fixes this: https://github.com/volca02/glsync\r\n\r\nAs this forces to flush the command buffer on every frame it is clearly not ideal - expect a FPS drop (we could for example do this so that every frame finishes at the end of the next one). Also, unfortunately, it does not work with Left4Dead2 (but it works with other games).\r\n\r\nEdit: fixed the sync to be done on end of next frame - the FPS seems quite similar to original, but without the lag."
}
, {
  "url": "https://api.github.com/repos/ValveSoftware/Source-1-Games/issues/comments/19507073",
  "html_url": "https://github.com/ValveSoftware/Source-1-Games/issues/765#issuecomment-19507073",
  "issue_url": "https://api.github.com/repos/ValveSoftware/Source-1-Games/issues/765",
  "id": 19507073,
  "user": {
    "login": "Plagman",
    "id": 529930,
    "avatar_url": "https://avatars.githubusercontent.com/u/529930?v=3",
    "gravatar_id": "",
    "url": "https://api.github.com/users/Plagman",
    "html_url": "https://github.com/Plagman",
    "followers_url": "https://api.github.com/users/Plagman/followers",
    "following_url": "https://api.github.com/users/Plagman/following{/other_user}",
    "gists_url": "https://api.github.com/users/Plagman/gists{/gist_id}",
    "starred_url": "https://api.github.com/users/Plagman/starred{/owner}{/repo}",
    "subscriptions_url": "https://api.github.com/users/Plagman/subscriptions",
    "organizations_url": "https://api.github.com/users/Plagman/orgs",
    "repos_url": "https://api.github.com/users/Plagman/repos",
    "events_url": "https://api.github.com/users/Plagman/events{/privacy}",
    "received_events_url": "https://api.github.com/users/Plagman/received_events",
    "type": "User",
    "site_admin": false
  },
  "created_at": "2013-06-16T03:00:19Z",
  "updated_at": "2013-06-16T03:00:30Z",
  "body": "This is a driver bug; it shouldn't be getting that many frames ahead. SwapBuffers() is specified to cause a command buffer flush. I know the NVIDIA driver has a configuration knob that lets you set how many frames you can have queued in the command buffer; the default value is 3, I believe. The catalyst driver has an internal setting called the 'flip queue', but it looks like it isn't properly kicking in in this case."
}
, {
  "url": "https://api.github.com/repos/ValveSoftware/Source-1-Games/issues/comments/19507170",
  "html_url": "https://github.com/ValveSoftware/Source-1-Games/issues/765#issuecomment-19507170",
  "issue_url": "https://api.github.com/repos/ValveSoftware/Source-1-Games/issues/765",
  "id": 19507170,
  "user": {
    "login": "mmstick",
    "id": 4143535,
    "avatar_url": "https://avatars.githubusercontent.com/u/4143535?v=3",
    "gravatar_id": "",
    "url": "https://api.github.com/users/mmstick",
    "html_url": "https://github.com/mmstick",
    "followers_url": "https://api.github.com/users/mmstick/followers",
    "following_url": "https://api.github.com/users/mmstick/following{/other_user}",
    "gists_url": "https://api.github.com/users/mmstick/gists{/gist_id}",
    "starred_url": "https://api.github.com/users/mmstick/starred{/owner}{/repo}",
    "subscriptions_url": "https://api.github.com/users/mmstick/subscriptions",
    "organizations_url": "https://api.github.com/users/mmstick/orgs",
    "repos_url": "https://api.github.com/users/mmstick/repos",
    "events_url": "https://api.github.com/users/mmstick/events{/privacy}",
    "received_events_url": "https://api.github.com/users/mmstick/received_events",
    "type": "User",
    "site_admin": false
  },
  "created_at": "2013-06-16T03:15:47Z",
  "updated_at": "2013-06-16T03:16:42Z",
  "body": "Then is there any way that we can access this flip queue property much like RadeonPro does in Windows? It was able to expose all the finer parameters for control for users, so I would imagine it is possible to do the same in Linux, even if by some clever hack. However, I suppose we need Valve to contact them and tell them about the problem. AMD doesn't listen to little people like myself. I made a post about these issues in their forum there with not a response from AMD. It just got ignored I guess."
}
, {
  "url": "https://api.github.com/repos/ValveSoftware/Source-1-Games/issues/comments/19510570",
  "html_url": "https://github.com/ValveSoftware/Source-1-Games/issues/765#issuecomment-19510570",
  "issue_url": "https://api.github.com/repos/ValveSoftware/Source-1-Games/issues/765",
  "id": 19510570,
  "user": {
    "login": "volca02",
    "id": 1075171,
    "avatar_url": "https://avatars.githubusercontent.com/u/1075171?v=3",
    "gravatar_id": "",
    "url": "https://api.github.com/users/volca02",
    "html_url": "https://github.com/volca02",
    "followers_url": "https://api.github.com/users/volca02/followers",
    "following_url": "https://api.github.com/users/volca02/following{/other_user}",
    "gists_url": "https://api.github.com/users/volca02/gists{/gist_id}",
    "starred_url": "https://api.github.com/users/volca02/starred{/owner}{/repo}",
    "subscriptions_url": "https://api.github.com/users/volca02/subscriptions",
    "organizations_url": "https://api.github.com/users/volca02/orgs",
    "repos_url": "https://api.github.com/users/volca02/repos",
    "events_url": "https://api.github.com/users/volca02/events{/privacy}",
    "received_events_url": "https://api.github.com/users/volca02/received_events",
    "type": "User",
    "site_admin": false
  },
  "created_at": "2013-06-16T10:31:25Z",
  "updated_at": "2013-06-16T10:31:25Z",
  "body": "Hmm, are you sure glFlush (and thus glXSwapBuffers) should cause any CPU synchronization? It is not said it should guarantee any of the commands already executed before returning from the call - only that they will be executed in \"finite time\" (ASAP). What I gather from the glFlush in opengl documentation is that calling that will result in guarantee the commands will get executed, as soon as the GL environment allows - there is nothing said about the call blocking before the command buffer empties (which of course would be ineffective since we'd have to wait for CPU to enter all commands of the next frame and GPU would starve in the meantime).\r\n\r\nThe way I see it is that the GL driver should provide at least a weak guarantee, much like the said maximal count of frames in the command queue - but it is up to the user to provide additional synchronization as needed. But there is nothing in the article (http://www.opengl.org/sdk/docs/man/xhtml/glFlush.xml) enforcing the synchronization, in fact the note says the opposite."
}
, {
  "url": "https://api.github.com/repos/ValveSoftware/Source-1-Games/issues/comments/19653494",
  "html_url": "https://github.com/ValveSoftware/Source-1-Games/issues/765#issuecomment-19653494",
  "issue_url": "https://api.github.com/repos/ValveSoftware/Source-1-Games/issues/765",
  "id": 19653494,
  "user": {
    "login": "iiv3",
    "id": 4492960,
    "avatar_url": "https://avatars.githubusercontent.com/u/4492960?v=3",
    "gravatar_id": "",
    "url": "https://api.github.com/users/iiv3",
    "html_url": "https://github.com/iiv3",
    "followers_url": "https://api.github.com/users/iiv3/followers",
    "following_url": "https://api.github.com/users/iiv3/following{/other_user}",
    "gists_url": "https://api.github.com/users/iiv3/gists{/gist_id}",
    "starred_url": "https://api.github.com/users/iiv3/starred{/owner}{/repo}",
    "subscriptions_url": "https://api.github.com/users/iiv3/subscriptions",
    "organizations_url": "https://api.github.com/users/iiv3/orgs",
    "repos_url": "https://api.github.com/users/iiv3/repos",
    "events_url": "https://api.github.com/users/iiv3/events{/privacy}",
    "received_events_url": "https://api.github.com/users/iiv3/received_events",
    "type": "User",
    "site_admin": false
  },
  "created_at": "2013-06-19T00:33:49Z",
  "updated_at": "2013-06-19T00:33:49Z",
  "body": "@ Plagman, would you please add gl_finish variable that forces glFinish() somewhere in the rendering cycle. It could be right before or after glXSwapBuffers().\r\nI tried both in the glxgears.c and it seems to eliminate the extra buffering/render lag/stutter and it still manages to provide 3000fps with vsync disabled. \r\n\r\nDoom3 does have r_finish to force similar behavior (disabled by default).\r\nI checked wine, it seems that wined3d issues glFinish before glXSwapBuffers if there is more than 1 context.\r\n\r\nI'm afraid that @voica02 may be right. You need something that guarantees synchronization.\r\nTechnically if you rely on undefined behavior, it is not a driver bug. \r\n\r\n"
}
, {
  "url": "https://api.github.com/repos/ValveSoftware/Source-1-Games/issues/comments/19669328",
  "html_url": "https://github.com/ValveSoftware/Source-1-Games/issues/765#issuecomment-19669328",
  "issue_url": "https://api.github.com/repos/ValveSoftware/Source-1-Games/issues/765",
  "id": 19669328,
  "user": {
    "login": "volca02",
    "id": 1075171,
    "avatar_url": "https://avatars.githubusercontent.com/u/1075171?v=3",
    "gravatar_id": "",
    "url": "https://api.github.com/users/volca02",
    "html_url": "https://github.com/volca02",
    "followers_url": "https://api.github.com/users/volca02/followers",
    "following_url": "https://api.github.com/users/volca02/following{/other_user}",
    "gists_url": "https://api.github.com/users/volca02/gists{/gist_id}",
    "starred_url": "https://api.github.com/users/volca02/starred{/owner}{/repo}",
    "subscriptions_url": "https://api.github.com/users/volca02/subscriptions",
    "organizations_url": "https://api.github.com/users/volca02/orgs",
    "repos_url": "https://api.github.com/users/volca02/repos",
    "events_url": "https://api.github.com/users/volca02/events{/privacy}",
    "received_events_url": "https://api.github.com/users/volca02/received_events",
    "type": "User",
    "site_admin": false
  },
  "created_at": "2013-06-19T08:24:23Z",
  "updated_at": "2013-06-19T08:24:23Z",
  "body": "I think that glFinish might be slightly too aggressive - this is why I used fences in the hack, that way I always have GPU do work without starving/waiting for next frame to be entered (e.g Frame 1 is sent, Frame 2 is sent, Frame 1 is waited for to be finished, Frame 3 is sent, Frame 2 is waited for to be finished...)."
}
, {
  "url": "https://api.github.com/repos/ValveSoftware/Source-1-Games/issues/comments/19677829",
  "html_url": "https://github.com/ValveSoftware/Source-1-Games/issues/765#issuecomment-19677829",
  "issue_url": "https://api.github.com/repos/ValveSoftware/Source-1-Games/issues/765",
  "id": 19677829,
  "user": {
    "login": "aleksijuvani",
    "id": 3168386,
    "avatar_url": "https://avatars.githubusercontent.com/u/3168386?v=3",
    "gravatar_id": "",
    "url": "https://api.github.com/users/aleksijuvani",
    "html_url": "https://github.com/aleksijuvani",
    "followers_url": "https://api.github.com/users/aleksijuvani/followers",
    "following_url": "https://api.github.com/users/aleksijuvani/following{/other_user}",
    "gists_url": "https://api.github.com/users/aleksijuvani/gists{/gist_id}",
    "starred_url": "https://api.github.com/users/aleksijuvani/starred{/owner}{/repo}",
    "subscriptions_url": "https://api.github.com/users/aleksijuvani/subscriptions",
    "organizations_url": "https://api.github.com/users/aleksijuvani/orgs",
    "repos_url": "https://api.github.com/users/aleksijuvani/repos",
    "events_url": "https://api.github.com/users/aleksijuvani/events{/privacy}",
    "received_events_url": "https://api.github.com/users/aleksijuvani/received_events",
    "type": "User",
    "site_admin": false
  },
  "created_at": "2013-06-19T11:26:11Z",
  "updated_at": "2013-06-19T11:26:11Z",
  "body": "I know I'm terribly late, but just dropping in to confirm this. Ubuntu 13.04 64-bit, Catalyst 13.6 Beta (xorg-edgers), Radeon HD 5830.\r\n\r\nIt's reproducible with glxgears as @iiv3 noted earlier. Setting fps_max to 60 seems to be an effective workaround in at least Garry's Mod and Half-Life 2: Deathmatch. I'm getting terrible performance in Team Fortress 2 for some reason so I can't be sure if it had any effect there."
}
, {
  "url": "https://api.github.com/repos/ValveSoftware/Source-1-Games/issues/comments/19721901",
  "html_url": "https://github.com/ValveSoftware/Source-1-Games/issues/765#issuecomment-19721901",
  "issue_url": "https://api.github.com/repos/ValveSoftware/Source-1-Games/issues/765",
  "id": 19721901,
  "user": {
    "login": "mmstick",
    "id": 4143535,
    "avatar_url": "https://avatars.githubusercontent.com/u/4143535?v=3",
    "gravatar_id": "",
    "url": "https://api.github.com/users/mmstick",
    "html_url": "https://github.com/mmstick",
    "followers_url": "https://api.github.com/users/mmstick/followers",
    "following_url": "https://api.github.com/users/mmstick/following{/other_user}",
    "gists_url": "https://api.github.com/users/mmstick/gists{/gist_id}",
    "starred_url": "https://api.github.com/users/mmstick/starred{/owner}{/repo}",
    "subscriptions_url": "https://api.github.com/users/mmstick/subscriptions",
    "organizations_url": "https://api.github.com/users/mmstick/orgs",
    "repos_url": "https://api.github.com/users/mmstick/repos",
    "events_url": "https://api.github.com/users/mmstick/events{/privacy}",
    "received_events_url": "https://api.github.com/users/mmstick/received_events",
    "type": "User",
    "site_admin": false
  },
  "created_at": "2013-06-19T23:23:39Z",
  "updated_at": "2013-06-19T23:24:14Z",
  "body": "Those games get a benefit because you are already getting more than 60 FPS. However, TF2 is quite horrible; especially when you join an online server. With 24 bots the framerates are sluggish a bit with a bit input lag but at least smooth to a degree. However, join an online server and say hi to 1FPS."
}
, {
  "url": "https://api.github.com/repos/ValveSoftware/Source-1-Games/issues/comments/19874686",
  "html_url": "https://github.com/ValveSoftware/Source-1-Games/issues/765#issuecomment-19874686",
  "issue_url": "https://api.github.com/repos/ValveSoftware/Source-1-Games/issues/765",
  "id": 19874686,
  "user": {
    "login": "iiv3",
    "id": 4492960,
    "avatar_url": "https://avatars.githubusercontent.com/u/4492960?v=3",
    "gravatar_id": "",
    "url": "https://api.github.com/users/iiv3",
    "html_url": "https://github.com/iiv3",
    "followers_url": "https://api.github.com/users/iiv3/followers",
    "following_url": "https://api.github.com/users/iiv3/following{/other_user}",
    "gists_url": "https://api.github.com/users/iiv3/gists{/gist_id}",
    "starred_url": "https://api.github.com/users/iiv3/starred{/owner}{/repo}",
    "subscriptions_url": "https://api.github.com/users/iiv3/subscriptions",
    "organizations_url": "https://api.github.com/users/iiv3/orgs",
    "repos_url": "https://api.github.com/users/iiv3/repos",
    "events_url": "https://api.github.com/users/iiv3/events{/privacy}",
    "received_events_url": "https://api.github.com/users/iiv3/received_events",
    "type": "User",
    "site_admin": false
  },
  "created_at": "2013-06-23T14:21:49Z",
  "updated_at": "2013-06-23T14:21:49Z",
  "body": "@volca02, yes of course, glFenceSync() provides much finer control. The only problem is that it requires OpenGL 3.2 or newer. I'm not sure what is the minimum required version for Source1 games.\r\n\r\nThere is something more. Sometimes lower latency is more important than high framerates. One such case is in multiplayer games. For example 3 frames delay at 60Hz is 50ms (that is on top of network lag).\r\nAnother case that may prefer lower latency is Oculus Rift (the 3D Virtual Reality goggles).\r\nPlayers that have sufficiently powerful hardware may want to get the lower lag.\r\n\r\nThe best solution would be to check for \"ARB_sync\" extension. If it is available then allow configurable delay using the fences. If it is not available then allow enabling of 0 frame delay using the glFinish.\r\n"
}
, {
  "url": "https://api.github.com/repos/ValveSoftware/Source-1-Games/issues/comments/19876103",
  "html_url": "https://github.com/ValveSoftware/Source-1-Games/issues/765#issuecomment-19876103",
  "issue_url": "https://api.github.com/repos/ValveSoftware/Source-1-Games/issues/765",
  "id": 19876103,
  "user": {
    "login": "volca02",
    "id": 1075171,
    "avatar_url": "https://avatars.githubusercontent.com/u/1075171?v=3",
    "gravatar_id": "",
    "url": "https://api.github.com/users/volca02",
    "html_url": "https://github.com/volca02",
    "followers_url": "https://api.github.com/users/volca02/followers",
    "following_url": "https://api.github.com/users/volca02/following{/other_user}",
    "gists_url": "https://api.github.com/users/volca02/gists{/gist_id}",
    "starred_url": "https://api.github.com/users/volca02/starred{/owner}{/repo}",
    "subscriptions_url": "https://api.github.com/users/volca02/subscriptions",
    "organizations_url": "https://api.github.com/users/volca02/orgs",
    "repos_url": "https://api.github.com/users/volca02/repos",
    "events_url": "https://api.github.com/users/volca02/events{/privacy}",
    "received_events_url": "https://api.github.com/users/volca02/received_events",
    "type": "User",
    "site_admin": false
  },
  "created_at": "2013-06-23T15:56:19Z",
  "updated_at": "2013-06-23T15:56:19Z",
  "body": "Wanted to post this link: http://www.nvidia.in/object/General_FAQ.html#G4\r\nApparently this is a problem also present on windows."
}
, {
  "url": "https://api.github.com/repos/ValveSoftware/Source-1-Games/issues/comments/19885179",
  "html_url": "https://github.com/ValveSoftware/Source-1-Games/issues/765#issuecomment-19885179",
  "issue_url": "https://api.github.com/repos/ValveSoftware/Source-1-Games/issues/765",
  "id": 19885179,
  "user": {
    "login": "iiv3",
    "id": 4492960,
    "avatar_url": "https://avatars.githubusercontent.com/u/4492960?v=3",
    "gravatar_id": "",
    "url": "https://api.github.com/users/iiv3",
    "html_url": "https://github.com/iiv3",
    "followers_url": "https://api.github.com/users/iiv3/followers",
    "following_url": "https://api.github.com/users/iiv3/following{/other_user}",
    "gists_url": "https://api.github.com/users/iiv3/gists{/gist_id}",
    "starred_url": "https://api.github.com/users/iiv3/starred{/owner}{/repo}",
    "subscriptions_url": "https://api.github.com/users/iiv3/subscriptions",
    "organizations_url": "https://api.github.com/users/iiv3/orgs",
    "repos_url": "https://api.github.com/users/iiv3/repos",
    "events_url": "https://api.github.com/users/iiv3/events{/privacy}",
    "received_events_url": "https://api.github.com/users/iiv3/received_events",
    "type": "User",
    "site_admin": false
  },
  "created_at": "2013-06-24T01:17:26Z",
  "updated_at": "2013-06-24T01:17:26Z",
  "body": "A little bit more info about the bug.\r\n\r\nPlease, read these first:\r\nhttp://www.opengl.org/wiki/Common_Mistakes#glFinish_and_glFlush\r\nhttp://www.opengl.org/wiki/Synchronization\r\nhttp://www.opengl.org/sdk/docs/man2/xhtml/glXSwapBuffers.xml\r\n\r\nIt is important to note that the primary function of SwapBuffers is to provide a new working buffer. The presentation is secondary to that. This is important to note for the case of vsync blocking.\r\n(SwapBuffers is not explicitly defined to be working like this... but it is the most logical way.)\r\n\r\nLet's examine a case where we have 2 buffers. We have buffer#1 already rendered and visible. We issue commands for drawing buffer#2. When SwapBuffers is called, it is not supposed to block until vsync (that blocking is actually a side effect), it is supposed to block until buffer#1 is freed(aka hidden). For this to happen the drawing commands (for buffer#2) should be finished AND THEN wait buffer#2 to be made visible by vsync (thus hiding and freeing buffer#1).\r\n\r\nTo avoid the above blocking, OpenGL uses triple buffering. Then, instead of blocking right away the extra buffer#3 would be allocated and commands could be issued while we wait for the rendering and switching of buffer#2. Then on next SwapBuffers we will block only if buffer#2 still haven't been displayed yet.\r\n\r\nWhat I have found.\r\n\r\nThe problem with fglrx is \"optimization\" that allows SwapBuffers to work asynchronously. It allows the CPU to continue issuing OpenGL commands even when there is no free available buffer. (like borrowing a buffer we don't have yet). This lets the CPU run ahead and fill up the input command queue and then also fill up the GPU command queue.\r\n\r\nIn a sense Source1 games trigger this bug because they are too well optimized and avoid issuing of any commands that cause synchronization events (mentioned in the second link), just like glxgears.\r\n\r\nTo confirm this, I used the fence query function `glGetSynciv()` to figure out the amount of the render lag in `glxgears -fullscreen`. With some tweaking (e.g. call draw_gears() twice) I managed to reach a peak of 248 frames. At 1920x1080*3(rgb) it amounts more than my total video ram, so there is no way it really allocates that many buffers.\r\n\r\nAlso `glGetIntegerv(GL_RENDERBUFFER_FREE_MEMORY_ATI, memory_info);` usually returns same values (649916,455936,1883763,3600) even at peak lag. (VBO/TEXTURE/RENDERBUFFER seem to return the same values). Meaning, no additional memory is allocated for render buffers.\r\n\r\nThere is however one problem with this explanation. If SwapBuffers was entirely asynchronous, then vsync would not work or it would cause even bigger render lag. This means that SwapBuffers still blocks at vertical retrace, but that is the only thing it blocks at. Once the retrace is cleared it would continue without checking for available buffer.\r\n\r\nI'm still able to get render lag with enabled vsync, but it is a lot harder to trigger. I did manage to get render lag of 5 frames using glxgears and calling draw_gears() 200 times. This means, it lags when rendering time is bigger than display duration.\r\n"
}
, {
  "url": "https://api.github.com/repos/ValveSoftware/Source-1-Games/issues/comments/19889470",
  "html_url": "https://github.com/ValveSoftware/Source-1-Games/issues/765#issuecomment-19889470",
  "issue_url": "https://api.github.com/repos/ValveSoftware/Source-1-Games/issues/765",
  "id": 19889470,
  "user": {
    "login": "Plagman",
    "id": 529930,
    "avatar_url": "https://avatars.githubusercontent.com/u/529930?v=3",
    "gravatar_id": "",
    "url": "https://api.github.com/users/Plagman",
    "html_url": "https://github.com/Plagman",
    "followers_url": "https://api.github.com/users/Plagman/followers",
    "following_url": "https://api.github.com/users/Plagman/following{/other_user}",
    "gists_url": "https://api.github.com/users/Plagman/gists{/gist_id}",
    "starred_url": "https://api.github.com/users/Plagman/starred{/owner}{/repo}",
    "subscriptions_url": "https://api.github.com/users/Plagman/subscriptions",
    "organizations_url": "https://api.github.com/users/Plagman/orgs",
    "repos_url": "https://api.github.com/users/Plagman/repos",
    "events_url": "https://api.github.com/users/Plagman/events{/privacy}",
    "received_events_url": "https://api.github.com/users/Plagman/received_events",
    "type": "User",
    "site_admin": false
  },
  "created_at": "2013-06-24T05:16:20Z",
  "updated_at": "2013-06-24T05:16:20Z",
  "body": "I added a gl_finish cvar to force a sync in drivers that don't ever throttle swapBuffers, as requested. It should ship as part of the next update."
}
, {
  "url": "https://api.github.com/repos/ValveSoftware/Source-1-Games/issues/comments/20014808",
  "html_url": "https://github.com/ValveSoftware/Source-1-Games/issues/765#issuecomment-20014808",
  "issue_url": "https://api.github.com/repos/ValveSoftware/Source-1-Games/issues/765",
  "id": 20014808,
  "user": {
    "login": "iiv3",
    "id": 4492960,
    "avatar_url": "https://avatars.githubusercontent.com/u/4492960?v=3",
    "gravatar_id": "",
    "url": "https://api.github.com/users/iiv3",
    "html_url": "https://github.com/iiv3",
    "followers_url": "https://api.github.com/users/iiv3/followers",
    "following_url": "https://api.github.com/users/iiv3/following{/other_user}",
    "gists_url": "https://api.github.com/users/iiv3/gists{/gist_id}",
    "starred_url": "https://api.github.com/users/iiv3/starred{/owner}{/repo}",
    "subscriptions_url": "https://api.github.com/users/iiv3/subscriptions",
    "organizations_url": "https://api.github.com/users/iiv3/orgs",
    "repos_url": "https://api.github.com/users/iiv3/repos",
    "events_url": "https://api.github.com/users/iiv3/events{/privacy}",
    "received_events_url": "https://api.github.com/users/iiv3/received_events",
    "type": "User",
    "site_admin": false
  },
  "created_at": "2013-06-25T23:08:30Z",
  "updated_at": "2013-06-25T23:08:30Z",
  "body": "I saw the update of Portal and TF2 and it seems to works just fine.\r\nAny plans to update the rest of the Source games?\r\n"
}
, {
  "url": "https://api.github.com/repos/ValveSoftware/Source-1-Games/issues/comments/20018050",
  "html_url": "https://github.com/ValveSoftware/Source-1-Games/issues/765#issuecomment-20018050",
  "issue_url": "https://api.github.com/repos/ValveSoftware/Source-1-Games/issues/765",
  "id": 20018050,
  "user": {
    "login": "alfred-valve",
    "id": 3093825,
    "avatar_url": "https://avatars.githubusercontent.com/u/3093825?v=3",
    "gravatar_id": "",
    "url": "https://api.github.com/users/alfred-valve",
    "html_url": "https://github.com/alfred-valve",
    "followers_url": "https://api.github.com/users/alfred-valve/followers",
    "following_url": "https://api.github.com/users/alfred-valve/following{/other_user}",
    "gists_url": "https://api.github.com/users/alfred-valve/gists{/gist_id}",
    "starred_url": "https://api.github.com/users/alfred-valve/starred{/owner}{/repo}",
    "subscriptions_url": "https://api.github.com/users/alfred-valve/subscriptions",
    "organizations_url": "https://api.github.com/users/alfred-valve/orgs",
    "repos_url": "https://api.github.com/users/alfred-valve/repos",
    "events_url": "https://api.github.com/users/alfred-valve/events{/privacy}",
    "received_events_url": "https://api.github.com/users/alfred-valve/received_events",
    "type": "User",
    "site_admin": false
  },
  "created_at": "2013-06-26T00:03:26Z",
  "updated_at": "2013-06-26T00:03:26Z",
  "body": "This is live in HL2 beta now too, and will be soon for our other Multi-player titles."
}
, {
  "url": "https://api.github.com/repos/ValveSoftware/Source-1-Games/issues/comments/20222936",
  "html_url": "https://github.com/ValveSoftware/Source-1-Games/issues/765#issuecomment-20222936",
  "issue_url": "https://api.github.com/repos/ValveSoftware/Source-1-Games/issues/765",
  "id": 20222936,
  "user": {
    "login": "mmstick",
    "id": 4143535,
    "avatar_url": "https://avatars.githubusercontent.com/u/4143535?v=3",
    "gravatar_id": "",
    "url": "https://api.github.com/users/mmstick",
    "html_url": "https://github.com/mmstick",
    "followers_url": "https://api.github.com/users/mmstick/followers",
    "following_url": "https://api.github.com/users/mmstick/following{/other_user}",
    "gists_url": "https://api.github.com/users/mmstick/gists{/gist_id}",
    "starred_url": "https://api.github.com/users/mmstick/starred{/owner}{/repo}",
    "subscriptions_url": "https://api.github.com/users/mmstick/subscriptions",
    "organizations_url": "https://api.github.com/users/mmstick/orgs",
    "repos_url": "https://api.github.com/users/mmstick/repos",
    "events_url": "https://api.github.com/users/mmstick/events{/privacy}",
    "received_events_url": "https://api.github.com/users/mmstick/received_events",
    "type": "User",
    "site_admin": false
  },
  "created_at": "2013-06-29T02:20:18Z",
  "updated_at": "2013-06-29T02:20:18Z",
  "body": "I see, it's borderline playable now in servers. There's still some lag and framerates keep dipping to 19 with an average of 29 FPS but at least there isn't 2 second input lag."
}
, {
  "url": "https://api.github.com/repos/ValveSoftware/Source-1-Games/issues/comments/20552104",
  "html_url": "https://github.com/ValveSoftware/Source-1-Games/issues/765#issuecomment-20552104",
  "issue_url": "https://api.github.com/repos/ValveSoftware/Source-1-Games/issues/765",
  "id": 20552104,
  "user": {
    "login": "RussianNeuroMancer",
    "id": 2613247,
    "avatar_url": "https://avatars.githubusercontent.com/u/2613247?v=3",
    "gravatar_id": "",
    "url": "https://api.github.com/users/RussianNeuroMancer",
    "html_url": "https://github.com/RussianNeuroMancer",
    "followers_url": "https://api.github.com/users/RussianNeuroMancer/followers",
    "following_url": "https://api.github.com/users/RussianNeuroMancer/following{/other_user}",
    "gists_url": "https://api.github.com/users/RussianNeuroMancer/gists{/gist_id}",
    "starred_url": "https://api.github.com/users/RussianNeuroMancer/starred{/owner}{/repo}",
    "subscriptions_url": "https://api.github.com/users/RussianNeuroMancer/subscriptions",
    "organizations_url": "https://api.github.com/users/RussianNeuroMancer/orgs",
    "repos_url": "https://api.github.com/users/RussianNeuroMancer/repos",
    "events_url": "https://api.github.com/users/RussianNeuroMancer/events{/privacy}",
    "received_events_url": "https://api.github.com/users/RussianNeuroMancer/received_events",
    "type": "User",
    "site_admin": false
  },
  "created_at": "2013-07-06T10:01:00Z",
  "updated_at": "2013-07-06T10:01:00Z",
  "body": "@iiv3 you probably talking about this issue: http://ati.cchtml.com/show_bug.cgi?id=832#c13\r\n\r\n> pierre.boudier@amd.com\r\n> thanks for the report; we found a regression in OGL to control the lag indeed. this will be fixed shortly."
}
, {
  "url": "https://api.github.com/repos/ValveSoftware/Source-1-Games/issues/comments/21290691",
  "html_url": "https://github.com/ValveSoftware/Source-1-Games/issues/765#issuecomment-21290691",
  "issue_url": "https://api.github.com/repos/ValveSoftware/Source-1-Games/issues/765",
  "id": 21290691,
  "user": {
    "login": "forever1percent",
    "id": 3126641,
    "avatar_url": "https://avatars.githubusercontent.com/u/3126641?v=3",
    "gravatar_id": "",
    "url": "https://api.github.com/users/forever1percent",
    "html_url": "https://github.com/forever1percent",
    "followers_url": "https://api.github.com/users/forever1percent/followers",
    "following_url": "https://api.github.com/users/forever1percent/following{/other_user}",
    "gists_url": "https://api.github.com/users/forever1percent/gists{/gist_id}",
    "starred_url": "https://api.github.com/users/forever1percent/starred{/owner}{/repo}",
    "subscriptions_url": "https://api.github.com/users/forever1percent/subscriptions",
    "organizations_url": "https://api.github.com/users/forever1percent/orgs",
    "repos_url": "https://api.github.com/users/forever1percent/repos",
    "events_url": "https://api.github.com/users/forever1percent/events{/privacy}",
    "received_events_url": "https://api.github.com/users/forever1percent/received_events",
    "type": "User",
    "site_admin": false
  },
  "created_at": "2013-07-20T09:10:30Z",
  "updated_at": "2013-07-20T09:10:30Z",
  "body": "Hello, trying to use `gl_finish 1` command to see if it fixes lags in Portal if portal render depth is > 0 I get Engine error `Too many verts for dynamic vertex buffer (106370>32768) Tell a programmer to up VERTEX_BUFFER_SIZE`, what does it mean?"
}
]
