[
{
  "url": "https://api.github.com/repos/google/google-visualization-issues/issues/comments/100515854",
  "html_url": "https://github.com/google/google-visualization-issues/issues/1107#issuecomment-100515854",
  "issue_url": "https://api.github.com/repos/google/google-visualization-issues/issues/1107",
  "id": 100515854,
  "user": {
    "login": "orwant",
    "id": 9052763,
    "avatar_url": "https://avatars.githubusercontent.com/u/9052763?v=3",
    "gravatar_id": "",
    "url": "https://api.github.com/users/orwant",
    "html_url": "https://github.com/orwant",
    "followers_url": "https://api.github.com/users/orwant/followers",
    "following_url": "https://api.github.com/users/orwant/following{/other_user}",
    "gists_url": "https://api.github.com/users/orwant/gists{/gist_id}",
    "starred_url": "https://api.github.com/users/orwant/starred{/owner}{/repo}",
    "subscriptions_url": "https://api.github.com/users/orwant/subscriptions",
    "organizations_url": "https://api.github.com/users/orwant/orgs",
    "repos_url": "https://api.github.com/users/orwant/repos",
    "events_url": "https://api.github.com/users/orwant/events{/privacy}",
    "received_events_url": "https://api.github.com/users/orwant/received_events",
    "type": "User",
    "site_admin": false
  },
  "created_at": "2015-05-09T16:45:10Z",
  "updated_at": "2015-05-09T16:45:10Z",
  "body": "```\nThe sequence in which colors bands are rendered is GREEN, YELLOW, RED. So override the\ncolors value to achieve this effect (In you particular case redColor #00CC00.\r\n\r\nI have filed Bug 1195, with working sample, for updating the documentation.\r\n\n```\n\nOriginal issue reported on code.google.com by `dpdhole` on 2013-04-20 08:14:12"
}
]
