[
{
  "url": "https://api.github.com/repos/Azure/azure-mobile-services/issues/comments/69680004",
  "html_url": "https://github.com/Azure/azure-mobile-services/issues/548#issuecomment-69680004",
  "issue_url": "https://api.github.com/repos/Azure/azure-mobile-services/issues/548",
  "id": 69680004,
  "user": {
    "login": "lindydonna",
    "id": 4260261,
    "avatar_url": "https://avatars.githubusercontent.com/u/4260261?v=3",
    "gravatar_id": "",
    "url": "https://api.github.com/users/lindydonna",
    "html_url": "https://github.com/lindydonna",
    "followers_url": "https://api.github.com/users/lindydonna/followers",
    "following_url": "https://api.github.com/users/lindydonna/following{/other_user}",
    "gists_url": "https://api.github.com/users/lindydonna/gists{/gist_id}",
    "starred_url": "https://api.github.com/users/lindydonna/starred{/owner}{/repo}",
    "subscriptions_url": "https://api.github.com/users/lindydonna/subscriptions",
    "organizations_url": "https://api.github.com/users/lindydonna/orgs",
    "repos_url": "https://api.github.com/users/lindydonna/repos",
    "events_url": "https://api.github.com/users/lindydonna/events{/privacy}",
    "received_events_url": "https://api.github.com/users/lindydonna/received_events",
    "type": "User",
    "site_admin": false
  },
  "created_at": "2015-01-13T01:24:18Z",
  "updated_at": "2015-01-13T01:24:18Z",
  "body": "I think you are running into a bug in the .NET runtime on Windows Phone. See this thread for more details: https://social.msdn.microsoft.com/Forums/en-US/88920ec1-0088-43d0-8d39-cc3c292fcb9f/offline-data-sample-crashes-on-startup?forum=azuremobile\r\n\r\nWe have fixed the bug in the source, so you can build your own client assembly. Otherwise, we will release a new NuGet package within a week or so."
}
, {
  "url": "https://api.github.com/repos/Azure/azure-mobile-services/issues/comments/69745966",
  "html_url": "https://github.com/Azure/azure-mobile-services/issues/548#issuecomment-69745966",
  "issue_url": "https://api.github.com/repos/Azure/azure-mobile-services/issues/548",
  "id": 69745966,
  "user": {
    "login": "raketenhunddev",
    "id": 10413980,
    "avatar_url": "https://avatars.githubusercontent.com/u/10413980?v=3",
    "gravatar_id": "",
    "url": "https://api.github.com/users/raketenhunddev",
    "html_url": "https://github.com/raketenhunddev",
    "followers_url": "https://api.github.com/users/raketenhunddev/followers",
    "following_url": "https://api.github.com/users/raketenhunddev/following{/other_user}",
    "gists_url": "https://api.github.com/users/raketenhunddev/gists{/gist_id}",
    "starred_url": "https://api.github.com/users/raketenhunddev/starred{/owner}{/repo}",
    "subscriptions_url": "https://api.github.com/users/raketenhunddev/subscriptions",
    "organizations_url": "https://api.github.com/users/raketenhunddev/orgs",
    "repos_url": "https://api.github.com/users/raketenhunddev/repos",
    "events_url": "https://api.github.com/users/raketenhunddev/events{/privacy}",
    "received_events_url": "https://api.github.com/users/raketenhunddev/received_events",
    "type": "User",
    "site_admin": false
  },
  "created_at": "2015-01-13T13:48:54Z",
  "updated_at": "2015-01-13T13:48:54Z",
  "body": "I think I'll wait for the NuGet update. Thanks for your response"
}
, {
  "url": "https://api.github.com/repos/Azure/azure-mobile-services/issues/comments/77058465",
  "html_url": "https://github.com/Azure/azure-mobile-services/issues/548#issuecomment-77058465",
  "issue_url": "https://api.github.com/repos/Azure/azure-mobile-services/issues/548",
  "id": 77058465,
  "user": {
    "login": "lindydonna",
    "id": 4260261,
    "avatar_url": "https://avatars.githubusercontent.com/u/4260261?v=3",
    "gravatar_id": "",
    "url": "https://api.github.com/users/lindydonna",
    "html_url": "https://github.com/lindydonna",
    "followers_url": "https://api.github.com/users/lindydonna/followers",
    "following_url": "https://api.github.com/users/lindydonna/following{/other_user}",
    "gists_url": "https://api.github.com/users/lindydonna/gists{/gist_id}",
    "starred_url": "https://api.github.com/users/lindydonna/starred{/owner}{/repo}",
    "subscriptions_url": "https://api.github.com/users/lindydonna/subscriptions",
    "organizations_url": "https://api.github.com/users/lindydonna/orgs",
    "repos_url": "https://api.github.com/users/lindydonna/repos",
    "events_url": "https://api.github.com/users/lindydonna/events{/privacy}",
    "received_events_url": "https://api.github.com/users/lindydonna/received_events",
    "type": "User",
    "site_admin": false
  },
  "created_at": "2015-03-03T23:02:42Z",
  "updated_at": "2015-03-03T23:02:42Z",
  "body": "Fixed in 1.3.1 of Mobile Services SDK and 1.0.1 of SQLiteStore."
}
, {
  "url": "https://api.github.com/repos/Azure/azure-mobile-services/issues/comments/77837257",
  "html_url": "https://github.com/Azure/azure-mobile-services/issues/548#issuecomment-77837257",
  "issue_url": "https://api.github.com/repos/Azure/azure-mobile-services/issues/548",
  "id": 77837257,
  "user": {
    "login": "hemlata09",
    "id": 4252253,
    "avatar_url": "https://avatars.githubusercontent.com/u/4252253?v=3",
    "gravatar_id": "",
    "url": "https://api.github.com/users/hemlata09",
    "html_url": "https://github.com/hemlata09",
    "followers_url": "https://api.github.com/users/hemlata09/followers",
    "following_url": "https://api.github.com/users/hemlata09/following{/other_user}",
    "gists_url": "https://api.github.com/users/hemlata09/gists{/gist_id}",
    "starred_url": "https://api.github.com/users/hemlata09/starred{/owner}{/repo}",
    "subscriptions_url": "https://api.github.com/users/hemlata09/subscriptions",
    "organizations_url": "https://api.github.com/users/hemlata09/orgs",
    "repos_url": "https://api.github.com/users/hemlata09/repos",
    "events_url": "https://api.github.com/users/hemlata09/events{/privacy}",
    "received_events_url": "https://api.github.com/users/hemlata09/received_events",
    "type": "User",
    "site_admin": false
  },
  "created_at": "2015-03-09T11:27:08Z",
  "updated_at": "2015-03-09T11:27:08Z",
  "body": "Hi,\r\n\r\nI am facing same issue with my app in Release mode and updated Mobile Service SDK 1.3.1 and SQLiteStore 1.0.1 then its working fine. After that I deployed on App store with updated dlls but its throwing same exception (MissingManifestResource_NoPRIresources) after installing on Windows Phone.\r\n\r\nCan you please provide any solution?\r\n\r\nThanks,\r\nHema"
}
]
