[
{
  "url": "https://api.github.com/repos/mapbox/mapbox-android-demo/issues/comments/47384773",
  "html_url": "https://github.com/mapbox/mapbox-android-demo/issues/16#issuecomment-47384773",
  "issue_url": "https://api.github.com/repos/mapbox/mapbox-android-demo/issues/16",
  "id": 47384773,
  "user": {
    "login": "bleege",
    "id": 989928,
    "avatar_url": "https://avatars.githubusercontent.com/u/989928?v=3",
    "gravatar_id": "",
    "url": "https://api.github.com/users/bleege",
    "html_url": "https://github.com/bleege",
    "followers_url": "https://api.github.com/users/bleege/followers",
    "following_url": "https://api.github.com/users/bleege/following{/other_user}",
    "gists_url": "https://api.github.com/users/bleege/gists{/gist_id}",
    "starred_url": "https://api.github.com/users/bleege/starred{/owner}{/repo}",
    "subscriptions_url": "https://api.github.com/users/bleege/subscriptions",
    "organizations_url": "https://api.github.com/users/bleege/orgs",
    "repos_url": "https://api.github.com/users/bleege/repos",
    "events_url": "https://api.github.com/users/bleege/events{/privacy}",
    "received_events_url": "https://api.github.com/users/bleege/received_events",
    "type": "User",
    "site_admin": false
  },
  "created_at": "2014-06-27T18:33:41Z",
  "updated_at": "2014-06-27T18:33:41Z",
  "body": "Fixed."
}
]
