[
{
  "url": "https://api.github.com/repos/google/go-github/issues/comments/168437531",
  "html_url": "https://github.com/google/go-github/issues/246#issuecomment-168437531",
  "issue_url": "https://api.github.com/repos/google/go-github/issues/246",
  "id": 168437531,
  "user": {
    "login": "willnorris",
    "id": 1112,
    "avatar_url": "https://avatars.githubusercontent.com/u/1112?v=3",
    "gravatar_id": "",
    "url": "https://api.github.com/users/willnorris",
    "html_url": "https://github.com/willnorris",
    "followers_url": "https://api.github.com/users/willnorris/followers",
    "following_url": "https://api.github.com/users/willnorris/following{/other_user}",
    "gists_url": "https://api.github.com/users/willnorris/gists{/gist_id}",
    "starred_url": "https://api.github.com/users/willnorris/starred{/owner}{/repo}",
    "subscriptions_url": "https://api.github.com/users/willnorris/subscriptions",
    "organizations_url": "https://api.github.com/users/willnorris/orgs",
    "repos_url": "https://api.github.com/users/willnorris/repos",
    "events_url": "https://api.github.com/users/willnorris/events{/privacy}",
    "received_events_url": "https://api.github.com/users/willnorris/received_events",
    "type": "User",
    "site_admin": false
  },
  "created_at": "2016-01-02T23:06:00Z",
  "updated_at": "2016-01-02T23:06:00Z",
  "body": "Could you provide a snippet of the exact call you're making?"
}
, {
  "url": "https://api.github.com/repos/google/go-github/issues/comments/182107789",
  "html_url": "https://github.com/google/go-github/issues/246#issuecomment-182107789",
  "issue_url": "https://api.github.com/repos/google/go-github/issues/246",
  "id": 182107789,
  "user": {
    "login": "vito",
    "id": 1880,
    "avatar_url": "https://avatars.githubusercontent.com/u/1880?v=3",
    "gravatar_id": "",
    "url": "https://api.github.com/users/vito",
    "html_url": "https://github.com/vito",
    "followers_url": "https://api.github.com/users/vito/followers",
    "following_url": "https://api.github.com/users/vito/following{/other_user}",
    "gists_url": "https://api.github.com/users/vito/gists{/gist_id}",
    "starred_url": "https://api.github.com/users/vito/starred{/owner}{/repo}",
    "subscriptions_url": "https://api.github.com/users/vito/subscriptions",
    "organizations_url": "https://api.github.com/users/vito/orgs",
    "repos_url": "https://api.github.com/users/vito/repos",
    "events_url": "https://api.github.com/users/vito/events{/privacy}",
    "received_events_url": "https://api.github.com/users/vito/received_events",
    "type": "User",
    "site_admin": false
  },
  "created_at": "2016-02-09T22:29:06Z",
  "updated_at": "2016-02-09T22:29:06Z",
  "body": "Seeing this too. It only seems to happen when using a client that has a token configured. Perhaps it's propagating the `Authorization` header through to the S3 redirect, which AWS seems to reject?\r\n\r\nFor me it doesn't technically fail, it just downloads the aforementioned XML instead of the actual contents of the artifact, since it doesn't check the response status code:\r\n\r\nhttps://github.com/google/go-github/blob/84fc80440d3bb3a82d297b827308ce11dcf047eb/github/repos_releases.go#L230-L235\r\n\r\nHere's our code that exhibits the problem:\r\n\r\nhttps://github.com/concourse/github-release-resource/blob/91b8f79018718c8256faa29ddc43aed87191e053/github.go\r\n\r\n...if this client is constructed with a token configured in `Source`, we run into this issue."
}
, {
  "url": "https://api.github.com/repos/google/go-github/issues/comments/183468171",
  "html_url": "https://github.com/google/go-github/issues/246#issuecomment-183468171",
  "issue_url": "https://api.github.com/repos/google/go-github/issues/246",
  "id": 183468171,
  "user": {
    "login": "xoebus",
    "id": 38814,
    "avatar_url": "https://avatars.githubusercontent.com/u/38814?v=3",
    "gravatar_id": "",
    "url": "https://api.github.com/users/xoebus",
    "html_url": "https://github.com/xoebus",
    "followers_url": "https://api.github.com/users/xoebus/followers",
    "following_url": "https://api.github.com/users/xoebus/following{/other_user}",
    "gists_url": "https://api.github.com/users/xoebus/gists{/gist_id}",
    "starred_url": "https://api.github.com/users/xoebus/starred{/owner}{/repo}",
    "subscriptions_url": "https://api.github.com/users/xoebus/subscriptions",
    "organizations_url": "https://api.github.com/users/xoebus/orgs",
    "repos_url": "https://api.github.com/users/xoebus/repos",
    "events_url": "https://api.github.com/users/xoebus/events{/privacy}",
    "received_events_url": "https://api.github.com/users/xoebus/received_events",
    "type": "User",
    "site_admin": false
  },
  "created_at": "2016-02-12T19:59:45Z",
  "updated_at": "2016-02-12T19:59:45Z",
  "body": "I've made [a little package][statham] that allows a per-host `http.RoundTripper`. We're using this to get around this at the moment. i.e. `api.github.com` uses an OAuth Transport and then anything else uses the default transport.\r\n\r\n[statham]: https://github.com/xoebus/statham"
}
]
