[
{
  "url": "https://api.github.com/repos/google/go-github/issues/comments/20917280",
  "html_url": "https://github.com/google/go-github/pull/21#issuecomment-20917280",
  "issue_url": "https://api.github.com/repos/google/go-github/issues/21",
  "id": 20917280,
  "user": {
    "login": "RC1140",
    "id": 31234,
    "avatar_url": "https://avatars.githubusercontent.com/u/31234?v=3",
    "gravatar_id": "",
    "url": "https://api.github.com/users/RC1140",
    "html_url": "https://github.com/RC1140",
    "followers_url": "https://api.github.com/users/RC1140/followers",
    "following_url": "https://api.github.com/users/RC1140/following{/other_user}",
    "gists_url": "https://api.github.com/users/RC1140/gists{/gist_id}",
    "starred_url": "https://api.github.com/users/RC1140/starred{/owner}{/repo}",
    "subscriptions_url": "https://api.github.com/users/RC1140/subscriptions",
    "organizations_url": "https://api.github.com/users/RC1140/orgs",
    "repos_url": "https://api.github.com/users/RC1140/repos",
    "events_url": "https://api.github.com/users/RC1140/events{/privacy}",
    "received_events_url": "https://api.github.com/users/RC1140/received_events",
    "type": "User",
    "site_admin": false
  },
  "created_at": "2013-07-13T09:25:34Z",
  "updated_at": "2013-07-13T09:25:34Z",
  "body": "Hi @willnorris \r\n\r\nI tried my best to make sure that my code matches your existing code, please let me know if there is anything you want me to fix or change that would prevent the merge from happening.\r\n\r\nThanks"
}
, {
  "url": "https://api.github.com/repos/google/go-github/issues/comments/20981333",
  "html_url": "https://github.com/google/go-github/pull/21#issuecomment-20981333",
  "issue_url": "https://api.github.com/repos/google/go-github/issues/21",
  "id": 20981333,
  "user": {
    "login": "willnorris",
    "id": 1112,
    "avatar_url": "https://avatars.githubusercontent.com/u/1112?v=3",
    "gravatar_id": "",
    "url": "https://api.github.com/users/willnorris",
    "html_url": "https://github.com/willnorris",
    "followers_url": "https://api.github.com/users/willnorris/followers",
    "following_url": "https://api.github.com/users/willnorris/following{/other_user}",
    "gists_url": "https://api.github.com/users/willnorris/gists{/gist_id}",
    "starred_url": "https://api.github.com/users/willnorris/starred{/owner}{/repo}",
    "subscriptions_url": "https://api.github.com/users/willnorris/subscriptions",
    "organizations_url": "https://api.github.com/users/willnorris/orgs",
    "repos_url": "https://api.github.com/users/willnorris/repos",
    "events_url": "https://api.github.com/users/willnorris/events{/privacy}",
    "received_events_url": "https://api.github.com/users/willnorris/received_events",
    "type": "User",
    "site_admin": false
  },
  "created_at": "2013-07-15T16:22:59Z",
  "updated_at": "2013-07-15T16:22:59Z",
  "body": "also, please run `go fmt` over everything, as it looks like there are a few minor formatting issues."
}
, {
  "url": "https://api.github.com/repos/google/go-github/issues/comments/20981498",
  "html_url": "https://github.com/google/go-github/pull/21#issuecomment-20981498",
  "issue_url": "https://api.github.com/repos/google/go-github/issues/21",
  "id": 20981498,
  "user": {
    "login": "RC1140",
    "id": 31234,
    "avatar_url": "https://avatars.githubusercontent.com/u/31234?v=3",
    "gravatar_id": "",
    "url": "https://api.github.com/users/RC1140",
    "html_url": "https://github.com/RC1140",
    "followers_url": "https://api.github.com/users/RC1140/followers",
    "following_url": "https://api.github.com/users/RC1140/following{/other_user}",
    "gists_url": "https://api.github.com/users/RC1140/gists{/gist_id}",
    "starred_url": "https://api.github.com/users/RC1140/starred{/owner}{/repo}",
    "subscriptions_url": "https://api.github.com/users/RC1140/subscriptions",
    "organizations_url": "https://api.github.com/users/RC1140/orgs",
    "repos_url": "https://api.github.com/users/RC1140/repos",
    "events_url": "https://api.github.com/users/RC1140/events{/privacy}",
    "received_events_url": "https://api.github.com/users/RC1140/received_events",
    "type": "User",
    "site_admin": false
  },
  "created_at": "2013-07-15T16:24:58Z",
  "updated_at": "2013-07-15T16:24:58Z",
  "body": "Heya\r\n\r\nThanks for the reply and thanks for taking the time to do the review. Will fix the issues that you have mentioned and submit a pull request when done."
}
, {
  "url": "https://api.github.com/repos/google/go-github/issues/comments/21071345",
  "html_url": "https://github.com/google/go-github/pull/21#issuecomment-21071345",
  "issue_url": "https://api.github.com/repos/google/go-github/issues/21",
  "id": 21071345,
  "user": {
    "login": "RC1140",
    "id": 31234,
    "avatar_url": "https://avatars.githubusercontent.com/u/31234?v=3",
    "gravatar_id": "",
    "url": "https://api.github.com/users/RC1140",
    "html_url": "https://github.com/RC1140",
    "followers_url": "https://api.github.com/users/RC1140/followers",
    "following_url": "https://api.github.com/users/RC1140/following{/other_user}",
    "gists_url": "https://api.github.com/users/RC1140/gists{/gist_id}",
    "starred_url": "https://api.github.com/users/RC1140/starred{/owner}{/repo}",
    "subscriptions_url": "https://api.github.com/users/RC1140/subscriptions",
    "organizations_url": "https://api.github.com/users/RC1140/orgs",
    "repos_url": "https://api.github.com/users/RC1140/repos",
    "events_url": "https://api.github.com/users/RC1140/events{/privacy}",
    "received_events_url": "https://api.github.com/users/RC1140/received_events",
    "type": "User",
    "site_admin": false
  },
  "created_at": "2013-07-16T20:32:23Z",
  "updated_at": "2013-07-16T20:32:23Z",
  "body": "Hi @willnorris \r\n\r\nUpdated the commit and signed the doc as requested. Hope I didnt miss something."
}
, {
  "url": "https://api.github.com/repos/google/go-github/issues/comments/21072023",
  "html_url": "https://github.com/google/go-github/pull/21#issuecomment-21072023",
  "issue_url": "https://api.github.com/repos/google/go-github/issues/21",
  "id": 21072023,
  "user": {
    "login": "willnorris",
    "id": 1112,
    "avatar_url": "https://avatars.githubusercontent.com/u/1112?v=3",
    "gravatar_id": "",
    "url": "https://api.github.com/users/willnorris",
    "html_url": "https://github.com/willnorris",
    "followers_url": "https://api.github.com/users/willnorris/followers",
    "following_url": "https://api.github.com/users/willnorris/following{/other_user}",
    "gists_url": "https://api.github.com/users/willnorris/gists{/gist_id}",
    "starred_url": "https://api.github.com/users/willnorris/starred{/owner}{/repo}",
    "subscriptions_url": "https://api.github.com/users/willnorris/subscriptions",
    "organizations_url": "https://api.github.com/users/willnorris/orgs",
    "repos_url": "https://api.github.com/users/willnorris/repos",
    "events_url": "https://api.github.com/users/willnorris/events{/privacy}",
    "received_events_url": "https://api.github.com/users/willnorris/received_events",
    "type": "User",
    "site_admin": false
  },
  "created_at": "2013-07-16T20:42:23Z",
  "updated_at": "2013-07-16T20:42:23Z",
  "body": "this current commit doesn't actually compile.  You can see the errors in travis: https://travis-ci.org/google/go-github/builds/9154321\r\n\r\nAlso, as noted [here](https://github.com/google/go-github/pull/21#discussion_r5193937) let's go with `Activity` rather than `Activities` to match the terminology GitHub uses themselves."
}
, {
  "url": "https://api.github.com/repos/google/go-github/issues/comments/21093965",
  "html_url": "https://github.com/google/go-github/pull/21#issuecomment-21093965",
  "issue_url": "https://api.github.com/repos/google/go-github/issues/21",
  "id": 21093965,
  "user": {
    "login": "RC1140",
    "id": 31234,
    "avatar_url": "https://avatars.githubusercontent.com/u/31234?v=3",
    "gravatar_id": "",
    "url": "https://api.github.com/users/RC1140",
    "html_url": "https://github.com/RC1140",
    "followers_url": "https://api.github.com/users/RC1140/followers",
    "following_url": "https://api.github.com/users/RC1140/following{/other_user}",
    "gists_url": "https://api.github.com/users/RC1140/gists{/gist_id}",
    "starred_url": "https://api.github.com/users/RC1140/starred{/owner}{/repo}",
    "subscriptions_url": "https://api.github.com/users/RC1140/subscriptions",
    "organizations_url": "https://api.github.com/users/RC1140/orgs",
    "repos_url": "https://api.github.com/users/RC1140/repos",
    "events_url": "https://api.github.com/users/RC1140/events{/privacy}",
    "received_events_url": "https://api.github.com/users/RC1140/received_events",
    "type": "User",
    "site_admin": false
  },
  "created_at": "2013-07-17T06:09:14Z",
  "updated_at": "2013-07-17T06:09:14Z",
  "body": "So that was slightly embarrassing from my side (broken build) , but have renamed migrated and ensured everything builds and is formatted. I am a little unsure about the naming ,went with activity (singular) everywhere. This is how github has named its api but it feels weird having only one file with a singular name."
}
, {
  "url": "https://api.github.com/repos/google/go-github/issues/comments/21752533",
  "html_url": "https://github.com/google/go-github/pull/21#issuecomment-21752533",
  "issue_url": "https://api.github.com/repos/google/go-github/issues/21",
  "id": 21752533,
  "user": {
    "login": "willnorris",
    "id": 1112,
    "avatar_url": "https://avatars.githubusercontent.com/u/1112?v=3",
    "gravatar_id": "",
    "url": "https://api.github.com/users/willnorris",
    "html_url": "https://github.com/willnorris",
    "followers_url": "https://api.github.com/users/willnorris/followers",
    "following_url": "https://api.github.com/users/willnorris/following{/other_user}",
    "gists_url": "https://api.github.com/users/willnorris/gists{/gist_id}",
    "starred_url": "https://api.github.com/users/willnorris/starred{/owner}{/repo}",
    "subscriptions_url": "https://api.github.com/users/willnorris/subscriptions",
    "organizations_url": "https://api.github.com/users/willnorris/orgs",
    "repos_url": "https://api.github.com/users/willnorris/repos",
    "events_url": "https://api.github.com/users/willnorris/events{/privacy}",
    "received_events_url": "https://api.github.com/users/willnorris/received_events",
    "type": "User",
    "site_admin": false
  },
  "created_at": "2013-07-29T21:21:03Z",
  "updated_at": "2013-07-29T21:21:03Z",
  "body": "merged (with slight modifications) as b347348d7ac5d2141e718805982999f85c87d18e"
}
]
