[
{
  "url": "https://api.github.com/repos/hashicorp/envconsul/issues/comments/49207690",
  "html_url": "https://github.com/hashicorp/envconsul/issues/7#issuecomment-49207690",
  "issue_url": "https://api.github.com/repos/hashicorp/envconsul/issues/7",
  "id": 49207690,
  "user": {
    "login": "armon",
    "id": 592032,
    "avatar_url": "https://avatars.githubusercontent.com/u/592032?v=3",
    "gravatar_id": "",
    "url": "https://api.github.com/users/armon",
    "html_url": "https://github.com/armon",
    "followers_url": "https://api.github.com/users/armon/followers",
    "following_url": "https://api.github.com/users/armon/following{/other_user}",
    "gists_url": "https://api.github.com/users/armon/gists{/gist_id}",
    "starred_url": "https://api.github.com/users/armon/starred{/owner}{/repo}",
    "subscriptions_url": "https://api.github.com/users/armon/subscriptions",
    "organizations_url": "https://api.github.com/users/armon/orgs",
    "repos_url": "https://api.github.com/users/armon/repos",
    "events_url": "https://api.github.com/users/armon/events{/privacy}",
    "received_events_url": "https://api.github.com/users/armon/received_events",
    "type": "User",
    "site_admin": false
  },
  "created_at": "2014-07-16T18:34:32Z",
  "updated_at": "2014-07-16T18:34:32Z",
  "body": "@sirvon envconsul sets the environment variables for the sub-process it starts, it is unable to change the variables of the shell itself. For example, if you run:\r\n\r\n```\r\nenvconsul foo python python-test.py\r\n```\r\n\r\nThen your script should be able to see those environment variables as well. Basically, you need `envconsul` to be the parent process. You could do something more complex, such as exporting the variables and then sourcing them, but that is probably needlessly complex, and would not support variable reloading. Hope that helps!"
}
, {
  "url": "https://api.github.com/repos/hashicorp/envconsul/issues/comments/49213753",
  "html_url": "https://github.com/hashicorp/envconsul/issues/7#issuecomment-49213753",
  "issue_url": "https://api.github.com/repos/hashicorp/envconsul/issues/7",
  "id": 49213753,
  "user": {
    "login": "sirvon",
    "id": 1570089,
    "avatar_url": "https://avatars.githubusercontent.com/u/1570089?v=3",
    "gravatar_id": "",
    "url": "https://api.github.com/users/sirvon",
    "html_url": "https://github.com/sirvon",
    "followers_url": "https://api.github.com/users/sirvon/followers",
    "following_url": "https://api.github.com/users/sirvon/following{/other_user}",
    "gists_url": "https://api.github.com/users/sirvon/gists{/gist_id}",
    "starred_url": "https://api.github.com/users/sirvon/starred{/owner}{/repo}",
    "subscriptions_url": "https://api.github.com/users/sirvon/subscriptions",
    "organizations_url": "https://api.github.com/users/sirvon/orgs",
    "repos_url": "https://api.github.com/users/sirvon/repos",
    "events_url": "https://api.github.com/users/sirvon/events{/privacy}",
    "received_events_url": "https://api.github.com/users/sirvon/received_events",
    "type": "User",
    "site_admin": false
  },
  "created_at": "2014-07-16T19:21:48Z",
  "updated_at": "2014-07-16T19:21:48Z",
  "body": "yes it does help very much\r\nthanks again!"
}
]
