[
{
  "url": "https://api.github.com/repos/thoughtbot/bourbon/issues/comments/152650657",
  "html_url": "https://github.com/thoughtbot/bourbon/issues/797#issuecomment-152650657",
  "issue_url": "https://api.github.com/repos/thoughtbot/bourbon/issues/797",
  "id": 152650657,
  "user": {
    "login": "bduff9",
    "id": 7385875,
    "avatar_url": "https://avatars.githubusercontent.com/u/7385875?v=3",
    "gravatar_id": "",
    "url": "https://api.github.com/users/bduff9",
    "html_url": "https://github.com/bduff9",
    "followers_url": "https://api.github.com/users/bduff9/followers",
    "following_url": "https://api.github.com/users/bduff9/following{/other_user}",
    "gists_url": "https://api.github.com/users/bduff9/gists{/gist_id}",
    "starred_url": "https://api.github.com/users/bduff9/starred{/owner}{/repo}",
    "subscriptions_url": "https://api.github.com/users/bduff9/subscriptions",
    "organizations_url": "https://api.github.com/users/bduff9/orgs",
    "repos_url": "https://api.github.com/users/bduff9/repos",
    "events_url": "https://api.github.com/users/bduff9/events{/privacy}",
    "received_events_url": "https://api.github.com/users/bduff9/received_events",
    "type": "User",
    "site_admin": false
  },
  "created_at": "2015-10-30T21:03:49Z",
  "updated_at": "2015-10-30T21:03:49Z",
  "body": "Oops, meant to include that when I run the exact same file with no Compass or Bourbon (and just put empty mixins as placeholders so it compiles successfully), it only takes 1.2sec"
}
, {
  "url": "https://api.github.com/repos/thoughtbot/bourbon/issues/comments/170154756",
  "html_url": "https://github.com/thoughtbot/bourbon/issues/797#issuecomment-170154756",
  "issue_url": "https://api.github.com/repos/thoughtbot/bourbon/issues/797",
  "id": 170154756,
  "user": {
    "login": "tysongach",
    "id": 903327,
    "avatar_url": "https://avatars.githubusercontent.com/u/903327?v=3",
    "gravatar_id": "",
    "url": "https://api.github.com/users/tysongach",
    "html_url": "https://github.com/tysongach",
    "followers_url": "https://api.github.com/users/tysongach/followers",
    "following_url": "https://api.github.com/users/tysongach/following{/other_user}",
    "gists_url": "https://api.github.com/users/tysongach/gists{/gist_id}",
    "starred_url": "https://api.github.com/users/tysongach/starred{/owner}{/repo}",
    "subscriptions_url": "https://api.github.com/users/tysongach/subscriptions",
    "organizations_url": "https://api.github.com/users/tysongach/orgs",
    "repos_url": "https://api.github.com/users/tysongach/repos",
    "events_url": "https://api.github.com/users/tysongach/events{/privacy}",
    "received_events_url": "https://api.github.com/users/tysongach/received_events",
    "type": "User",
    "site_admin": false
  },
  "created_at": "2016-01-08T23:21:26Z",
  "updated_at": "2016-01-08T23:21:26Z",
  "body": "@bduff9 Hi Brian! Are you still having issues?\r\n\r\nHonestly, I’ve never worked with JRuby, so my knowledge here is lacking, to say the least.\r\n\r\nMay I ask how much Sass overall you are compiling (like number of partials, or a rough overall line count)? Is using LibSass an option? It boasts faster compiling times, in most scenarios.\r\n\r\nAlso, regarding your part about Bitters: Yes, we recommend installed Bitters as flat Sass files right into your project. It’s more of a jumping off point to get some base styles in, rather than a library to pick and pull from."
}
]
