[
{
  "url": "https://api.github.com/repos/thoughtbot/bourbon/issues/comments/44053805",
  "html_url": "https://github.com/thoughtbot/bourbon/pull/436#issuecomment-44053805",
  "issue_url": "https://api.github.com/repos/thoughtbot/bourbon/issues/436",
  "id": 44053805,
  "user": {
    "login": "paulrusso",
    "id": 451263,
    "avatar_url": "https://avatars.githubusercontent.com/u/451263?v=3",
    "gravatar_id": "",
    "url": "https://api.github.com/users/paulrusso",
    "html_url": "https://github.com/paulrusso",
    "followers_url": "https://api.github.com/users/paulrusso/followers",
    "following_url": "https://api.github.com/users/paulrusso/following{/other_user}",
    "gists_url": "https://api.github.com/users/paulrusso/gists{/gist_id}",
    "starred_url": "https://api.github.com/users/paulrusso/starred{/owner}{/repo}",
    "subscriptions_url": "https://api.github.com/users/paulrusso/subscriptions",
    "organizations_url": "https://api.github.com/users/paulrusso/orgs",
    "repos_url": "https://api.github.com/users/paulrusso/repos",
    "events_url": "https://api.github.com/users/paulrusso/events{/privacy}",
    "received_events_url": "https://api.github.com/users/paulrusso/received_events",
    "type": "User",
    "site_admin": false
  },
  "created_at": "2014-05-23T19:57:49Z",
  "updated_at": "2014-05-23T19:57:49Z",
  "body": ":thumbsup:"
}
]
