[
{
  "url": "https://api.github.com/repos/thoughtbot/bourbon/issues/comments/40316007",
  "html_url": "https://github.com/thoughtbot/bourbon/pull/395#issuecomment-40316007",
  "issue_url": "https://api.github.com/repos/thoughtbot/bourbon/issues/395",
  "id": 40316007,
  "user": {
    "login": "jpdevries",
    "id": 592335,
    "avatar_url": "https://avatars.githubusercontent.com/u/592335?v=3",
    "gravatar_id": "",
    "url": "https://api.github.com/users/jpdevries",
    "html_url": "https://github.com/jpdevries",
    "followers_url": "https://api.github.com/users/jpdevries/followers",
    "following_url": "https://api.github.com/users/jpdevries/following{/other_user}",
    "gists_url": "https://api.github.com/users/jpdevries/gists{/gist_id}",
    "starred_url": "https://api.github.com/users/jpdevries/starred{/owner}{/repo}",
    "subscriptions_url": "https://api.github.com/users/jpdevries/subscriptions",
    "organizations_url": "https://api.github.com/users/jpdevries/orgs",
    "repos_url": "https://api.github.com/users/jpdevries/repos",
    "events_url": "https://api.github.com/users/jpdevries/events{/privacy}",
    "received_events_url": "https://api.github.com/users/jpdevries/received_events",
    "type": "User",
    "site_admin": false
  },
  "created_at": "2014-04-13T18:53:13Z",
  "updated_at": "2014-04-13T18:53:13Z",
  "body": "that's an interesting trick. so rotating it 360 degrees must just trigger it to render differently?"
}
, {
  "url": "https://api.github.com/repos/thoughtbot/bourbon/issues/comments/40324119",
  "html_url": "https://github.com/thoughtbot/bourbon/pull/395#issuecomment-40324119",
  "issue_url": "https://api.github.com/repos/thoughtbot/bourbon/issues/395",
  "id": 40324119,
  "user": {
    "login": "indrekpaas",
    "id": 6239035,
    "avatar_url": "https://avatars.githubusercontent.com/u/6239035?v=3",
    "gravatar_id": "",
    "url": "https://api.github.com/users/indrekpaas",
    "html_url": "https://github.com/indrekpaas",
    "followers_url": "https://api.github.com/users/indrekpaas/followers",
    "following_url": "https://api.github.com/users/indrekpaas/following{/other_user}",
    "gists_url": "https://api.github.com/users/indrekpaas/gists{/gist_id}",
    "starred_url": "https://api.github.com/users/indrekpaas/starred{/owner}{/repo}",
    "subscriptions_url": "https://api.github.com/users/indrekpaas/subscriptions",
    "organizations_url": "https://api.github.com/users/indrekpaas/orgs",
    "repos_url": "https://api.github.com/users/indrekpaas/repos",
    "events_url": "https://api.github.com/users/indrekpaas/events{/privacy}",
    "received_events_url": "https://api.github.com/users/indrekpaas/received_events",
    "type": "User",
    "site_admin": false
  },
  "created_at": "2014-04-13T23:50:21Z",
  "updated_at": "2014-04-13T23:50:21Z",
  "body": "Yes, it triggers hardware rendering and since the transforms aren't actually distinguishable, they're still rendered using hardware with antialiasing enabled."
}
, {
  "url": "https://api.github.com/repos/thoughtbot/bourbon/issues/comments/40881960",
  "html_url": "https://github.com/thoughtbot/bourbon/pull/395#issuecomment-40881960",
  "issue_url": "https://api.github.com/repos/thoughtbot/bourbon/issues/395",
  "id": 40881960,
  "user": {
    "login": "plapier",
    "id": 339967,
    "avatar_url": "https://avatars.githubusercontent.com/u/339967?v=3",
    "gravatar_id": "",
    "url": "https://api.github.com/users/plapier",
    "html_url": "https://github.com/plapier",
    "followers_url": "https://api.github.com/users/plapier/followers",
    "following_url": "https://api.github.com/users/plapier/following{/other_user}",
    "gists_url": "https://api.github.com/users/plapier/gists{/gist_id}",
    "starred_url": "https://api.github.com/users/plapier/starred{/owner}{/repo}",
    "subscriptions_url": "https://api.github.com/users/plapier/subscriptions",
    "organizations_url": "https://api.github.com/users/plapier/orgs",
    "repos_url": "https://api.github.com/users/plapier/repos",
    "events_url": "https://api.github.com/users/plapier/events{/privacy}",
    "received_events_url": "https://api.github.com/users/plapier/received_events",
    "type": "User",
    "site_admin": false
  },
  "created_at": "2014-04-19T22:06:27Z",
  "updated_at": "2014-04-19T22:06:27Z",
  "body": "This is interesting. \r\nWhy are the transforms different for each vendor? Webkit rotate vs Moz scale\r\nWhy is it missing a non-prefixed transform?\r\n\r\nI'm interested in seeing this demo'd on http://sassmeister.com/"
}
, {
  "url": "https://api.github.com/repos/thoughtbot/bourbon/issues/comments/40990530",
  "html_url": "https://github.com/thoughtbot/bourbon/pull/395#issuecomment-40990530",
  "issue_url": "https://api.github.com/repos/thoughtbot/bourbon/issues/395",
  "id": 40990530,
  "user": {
    "login": "indrekpaas",
    "id": 6239035,
    "avatar_url": "https://avatars.githubusercontent.com/u/6239035?v=3",
    "gravatar_id": "",
    "url": "https://api.github.com/users/indrekpaas",
    "html_url": "https://github.com/indrekpaas",
    "followers_url": "https://api.github.com/users/indrekpaas/followers",
    "following_url": "https://api.github.com/users/indrekpaas/following{/other_user}",
    "gists_url": "https://api.github.com/users/indrekpaas/gists{/gist_id}",
    "starred_url": "https://api.github.com/users/indrekpaas/starred{/owner}{/repo}",
    "subscriptions_url": "https://api.github.com/users/indrekpaas/subscriptions",
    "organizations_url": "https://api.github.com/users/indrekpaas/orgs",
    "repos_url": "https://api.github.com/users/indrekpaas/repos",
    "events_url": "https://api.github.com/users/indrekpaas/events{/privacy}",
    "received_events_url": "https://api.github.com/users/indrekpaas/received_events",
    "type": "User",
    "site_admin": false
  },
  "created_at": "2014-04-22T00:01:07Z",
  "updated_at": "2014-04-22T00:14:04Z",
  "body": "Discovered through tests that latest webkit browsers support border antialiasing by default and I removed the obsolete _-webkit-transform: rotate_ property.\r\n\r\nThe properties were different because the quirk is applied on the browser rendering engine level: _-moz-transform: rotate_ won't trigger hardware rendering in Gecko browsers, whereas _-moz-transform: scale_ does. _-webkit-transform: rotate_ was the equivalent in previous webkit builds.\r\n\r\nPlease see the demo in Chrome and Firefox for a quick comparison at http://sassmeister.com/gist/11159578\r\n\r\n\r\nPS: just second-guessing if Autoprefixer would override the vendor-specific values and/or compiling css with decimal precision < 3 would round the _-moz-transform: scale_ value not trigger the antialiased rendering..."
}
]
