[
{
  "url": "https://api.github.com/repos/Microsoft/ngconf2015demo/issues/comments/77957815",
  "html_url": "https://github.com/Microsoft/ngconf2015demo/issues/7#issuecomment-77957815",
  "issue_url": "https://api.github.com/repos/Microsoft/ngconf2015demo/issues/7",
  "id": 77957815,
  "user": {
    "login": "davideast",
    "id": 4570265,
    "avatar_url": "https://avatars.githubusercontent.com/u/4570265?v=3",
    "gravatar_id": "",
    "url": "https://api.github.com/users/davideast",
    "html_url": "https://github.com/davideast",
    "followers_url": "https://api.github.com/users/davideast/followers",
    "following_url": "https://api.github.com/users/davideast/following{/other_user}",
    "gists_url": "https://api.github.com/users/davideast/gists{/gist_id}",
    "starred_url": "https://api.github.com/users/davideast/starred{/owner}{/repo}",
    "subscriptions_url": "https://api.github.com/users/davideast/subscriptions",
    "organizations_url": "https://api.github.com/users/davideast/orgs",
    "repos_url": "https://api.github.com/users/davideast/repos",
    "events_url": "https://api.github.com/users/davideast/events{/privacy}",
    "received_events_url": "https://api.github.com/users/davideast/received_events",
    "type": "User",
    "site_admin": false
  },
  "created_at": "2015-03-09T22:26:42Z",
  "updated_at": "2015-03-09T22:26:48Z",
  "body": "This is due to the old version of Zone.js. This issue is fixed in the latest version."
}
, {
  "url": "https://api.github.com/repos/Microsoft/ngconf2015demo/issues/comments/78589952",
  "html_url": "https://github.com/Microsoft/ngconf2015demo/issues/7#issuecomment-78589952",
  "issue_url": "https://api.github.com/repos/Microsoft/ngconf2015demo/issues/7",
  "id": 78589952,
  "user": {
    "login": "adamstortz",
    "id": 5168605,
    "avatar_url": "https://avatars.githubusercontent.com/u/5168605?v=3",
    "gravatar_id": "",
    "url": "https://api.github.com/users/adamstortz",
    "html_url": "https://github.com/adamstortz",
    "followers_url": "https://api.github.com/users/adamstortz/followers",
    "following_url": "https://api.github.com/users/adamstortz/following{/other_user}",
    "gists_url": "https://api.github.com/users/adamstortz/gists{/gist_id}",
    "starred_url": "https://api.github.com/users/adamstortz/starred{/owner}{/repo}",
    "subscriptions_url": "https://api.github.com/users/adamstortz/subscriptions",
    "organizations_url": "https://api.github.com/users/adamstortz/orgs",
    "repos_url": "https://api.github.com/users/adamstortz/repos",
    "events_url": "https://api.github.com/users/adamstortz/events{/privacy}",
    "received_events_url": "https://api.github.com/users/adamstortz/received_events",
    "type": "User",
    "site_admin": false
  },
  "created_at": "2015-03-12T19:45:08Z",
  "updated_at": "2015-03-12T19:45:08Z",
  "body": "I have upgraded to the latest version of Zone.js and that has not fixed the issue.  I have also pulled down the latest source from this repo and it is still happening."
}
]
