[
{
  "url": "https://api.github.com/repos/square/spoon/issues/comments/73169030",
  "html_url": "https://github.com/square/spoon/issues/228#issuecomment-73169030",
  "issue_url": "https://api.github.com/repos/square/spoon/issues/228",
  "id": 73169030,
  "user": {
    "login": "f2prateek",
    "id": 843979,
    "avatar_url": "https://avatars.githubusercontent.com/u/843979?v=3",
    "gravatar_id": "",
    "url": "https://api.github.com/users/f2prateek",
    "html_url": "https://github.com/f2prateek",
    "followers_url": "https://api.github.com/users/f2prateek/followers",
    "following_url": "https://api.github.com/users/f2prateek/following{/other_user}",
    "gists_url": "https://api.github.com/users/f2prateek/gists{/gist_id}",
    "starred_url": "https://api.github.com/users/f2prateek/starred{/owner}{/repo}",
    "subscriptions_url": "https://api.github.com/users/f2prateek/subscriptions",
    "organizations_url": "https://api.github.com/users/f2prateek/orgs",
    "repos_url": "https://api.github.com/users/f2prateek/repos",
    "events_url": "https://api.github.com/users/f2prateek/events{/privacy}",
    "received_events_url": "https://api.github.com/users/f2prateek/received_events",
    "type": "User",
    "site_admin": false
  },
  "created_at": "2015-02-06T02:01:48Z",
  "updated_at": "2015-02-06T02:01:48Z",
  "body": "We explicitly removed this behaviour in https://github.com/square/spoon/issues/110. It could potentially be added as an option if there is a good case for it."
}
, {
  "url": "https://api.github.com/repos/square/spoon/issues/comments/73172248",
  "html_url": "https://github.com/square/spoon/issues/228#issuecomment-73172248",
  "issue_url": "https://api.github.com/repos/square/spoon/issues/228",
  "id": 73172248,
  "user": {
    "login": "trothwell",
    "id": 1165489,
    "avatar_url": "https://avatars.githubusercontent.com/u/1165489?v=3",
    "gravatar_id": "",
    "url": "https://api.github.com/users/trothwell",
    "html_url": "https://github.com/trothwell",
    "followers_url": "https://api.github.com/users/trothwell/followers",
    "following_url": "https://api.github.com/users/trothwell/following{/other_user}",
    "gists_url": "https://api.github.com/users/trothwell/gists{/gist_id}",
    "starred_url": "https://api.github.com/users/trothwell/starred{/owner}{/repo}",
    "subscriptions_url": "https://api.github.com/users/trothwell/subscriptions",
    "organizations_url": "https://api.github.com/users/trothwell/orgs",
    "repos_url": "https://api.github.com/users/trothwell/repos",
    "events_url": "https://api.github.com/users/trothwell/events{/privacy}",
    "received_events_url": "https://api.github.com/users/trothwell/received_events",
    "type": "User",
    "site_admin": false
  },
  "created_at": "2015-02-06T02:23:11Z",
  "updated_at": "2015-02-06T02:23:11Z",
  "body": "That cleans up the APK prior to install. Which is slightly different than what I'm requesting.\r\n\r\nIn my case, after Spoon is finished executing the instrumentation test, The \"old APKs\" are removed then."
}
]
