[
{
  "url": "https://api.github.com/repos/Azure/autorest/issues/comments/149354022",
  "html_url": "https://github.com/Azure/autorest/pull/401#issuecomment-149354022",
  "issue_url": "https://api.github.com/repos/Azure/autorest/issues/401",
  "id": 149354022,
  "user": {
    "login": "azurecla",
    "id": 8030856,
    "avatar_url": "https://avatars.githubusercontent.com/u/8030856?v=3",
    "gravatar_id": "",
    "url": "https://api.github.com/users/azurecla",
    "html_url": "https://github.com/azurecla",
    "followers_url": "https://api.github.com/users/azurecla/followers",
    "following_url": "https://api.github.com/users/azurecla/following{/other_user}",
    "gists_url": "https://api.github.com/users/azurecla/gists{/gist_id}",
    "starred_url": "https://api.github.com/users/azurecla/starred{/owner}{/repo}",
    "subscriptions_url": "https://api.github.com/users/azurecla/subscriptions",
    "organizations_url": "https://api.github.com/users/azurecla/orgs",
    "repos_url": "https://api.github.com/users/azurecla/repos",
    "events_url": "https://api.github.com/users/azurecla/events{/privacy}",
    "received_events_url": "https://api.github.com/users/azurecla/received_events",
    "type": "User",
    "site_admin": false
  },
  "created_at": "2015-10-19T21:33:37Z",
  "updated_at": "2015-10-19T21:33:37Z",
  "body": "Hi __@brjohnstmsft__, I'm your friendly neighborhood Azure Pull Request Bot (You can call me AZPRBOT). Thanks for your contribution!\n    <p>\n        It looks like you're working at Microsoft (brjohnst). If you're full-time, we DON'T require a contribution license agreement.\n    </p>\n    <p>\n        If you are a vendor, or work for Microsoft Open Technologies, DO please sign the electronic contribution license agreement. It will take 2 minutes and there's no faxing! https://cla.azure.com.\n    </p>\n\nTTYL, AZPRBOT;\n"
}
, {
  "url": "https://api.github.com/repos/Azure/autorest/issues/comments/149357246",
  "html_url": "https://github.com/Azure/autorest/pull/401#issuecomment-149357246",
  "issue_url": "https://api.github.com/repos/Azure/autorest/issues/401",
  "id": 149357246,
  "user": {
    "login": "azurecla",
    "id": 8030856,
    "avatar_url": "https://avatars.githubusercontent.com/u/8030856?v=3",
    "gravatar_id": "",
    "url": "https://api.github.com/users/azurecla",
    "html_url": "https://github.com/azurecla",
    "followers_url": "https://api.github.com/users/azurecla/followers",
    "following_url": "https://api.github.com/users/azurecla/following{/other_user}",
    "gists_url": "https://api.github.com/users/azurecla/gists{/gist_id}",
    "starred_url": "https://api.github.com/users/azurecla/starred{/owner}{/repo}",
    "subscriptions_url": "https://api.github.com/users/azurecla/subscriptions",
    "organizations_url": "https://api.github.com/users/azurecla/orgs",
    "repos_url": "https://api.github.com/users/azurecla/repos",
    "events_url": "https://api.github.com/users/azurecla/events{/privacy}",
    "received_events_url": "https://api.github.com/users/azurecla/received_events",
    "type": "User",
    "site_admin": false
  },
  "created_at": "2015-10-19T21:48:45Z",
  "updated_at": "2015-10-19T21:48:45Z",
  "body": "Hi __@brjohnstmsft__, I'm your friendly neighborhood Azure Pull Request Bot (You can call me AZPRBOT). Thanks for your contribution!\n    <p>\n        It looks like you're working at Microsoft (brjohnst). If you're full-time, we DON'T require a contribution license agreement.\n    </p>\n    <p>\n        If you are a vendor, or work for Microsoft Open Technologies, DO please sign the electronic contribution license agreement. It will take 2 minutes and there's no faxing! https://cla.azure.com.\n    </p>\n\nTTYL, AZPRBOT;\n"
}
, {
  "url": "https://api.github.com/repos/Azure/autorest/issues/comments/149359776",
  "html_url": "https://github.com/Azure/autorest/pull/401#issuecomment-149359776",
  "issue_url": "https://api.github.com/repos/Azure/autorest/issues/401",
  "id": 149359776,
  "user": {
    "login": "azurecla",
    "id": 8030856,
    "avatar_url": "https://avatars.githubusercontent.com/u/8030856?v=3",
    "gravatar_id": "",
    "url": "https://api.github.com/users/azurecla",
    "html_url": "https://github.com/azurecla",
    "followers_url": "https://api.github.com/users/azurecla/followers",
    "following_url": "https://api.github.com/users/azurecla/following{/other_user}",
    "gists_url": "https://api.github.com/users/azurecla/gists{/gist_id}",
    "starred_url": "https://api.github.com/users/azurecla/starred{/owner}{/repo}",
    "subscriptions_url": "https://api.github.com/users/azurecla/subscriptions",
    "organizations_url": "https://api.github.com/users/azurecla/orgs",
    "repos_url": "https://api.github.com/users/azurecla/repos",
    "events_url": "https://api.github.com/users/azurecla/events{/privacy}",
    "received_events_url": "https://api.github.com/users/azurecla/received_events",
    "type": "User",
    "site_admin": false
  },
  "created_at": "2015-10-19T21:57:43Z",
  "updated_at": "2015-10-19T21:57:43Z",
  "body": "Hi __@brjohnstmsft__, I'm your friendly neighborhood Azure Pull Request Bot (You can call me AZPRBOT). Thanks for your contribution!\n    <p>\n        It looks like you're working at Microsoft (brjohnst). If you're full-time, we DON'T require a contribution license agreement.\n    </p>\n    <p>\n        If you are a vendor, or work for Microsoft Open Technologies, DO please sign the electronic contribution license agreement. It will take 2 minutes and there's no faxing! https://cla.azure.com.\n    </p>\n\nTTYL, AZPRBOT;\n"
}
, {
  "url": "https://api.github.com/repos/Azure/autorest/issues/comments/149367903",
  "html_url": "https://github.com/Azure/autorest/pull/401#issuecomment-149367903",
  "issue_url": "https://api.github.com/repos/Azure/autorest/issues/401",
  "id": 149367903,
  "user": {
    "login": "amarzavery",
    "id": 4521223,
    "avatar_url": "https://avatars.githubusercontent.com/u/4521223?v=3",
    "gravatar_id": "",
    "url": "https://api.github.com/users/amarzavery",
    "html_url": "https://github.com/amarzavery",
    "followers_url": "https://api.github.com/users/amarzavery/followers",
    "following_url": "https://api.github.com/users/amarzavery/following{/other_user}",
    "gists_url": "https://api.github.com/users/amarzavery/gists{/gist_id}",
    "starred_url": "https://api.github.com/users/amarzavery/starred{/owner}{/repo}",
    "subscriptions_url": "https://api.github.com/users/amarzavery/subscriptions",
    "organizations_url": "https://api.github.com/users/amarzavery/orgs",
    "repos_url": "https://api.github.com/users/amarzavery/repos",
    "events_url": "https://api.github.com/users/amarzavery/events{/privacy}",
    "received_events_url": "https://api.github.com/users/amarzavery/received_events",
    "type": "User",
    "site_admin": false
  },
  "created_at": "2015-10-19T22:41:19Z",
  "updated_at": "2015-10-19T22:41:19Z",
  "body": "In Travis CI:\r\nHttpInfrastructureTests [FAIL]\r\nSystem.Globalization.CultureInfo culture)\r\n\r\n4061    EnsureTestCoverage [FAIL]\r\n\r\n4062      Assert.Equal() Failure\r\n\r\n4063      Expected: 460\r\n\r\n4064      Actual:   403\r\n\r\n"
}
, {
  "url": "https://api.github.com/repos/Azure/autorest/issues/comments/149379032",
  "html_url": "https://github.com/Azure/autorest/pull/401#issuecomment-149379032",
  "issue_url": "https://api.github.com/repos/Azure/autorest/issues/401",
  "id": 149379032,
  "user": {
    "login": "azurecla",
    "id": 8030856,
    "avatar_url": "https://avatars.githubusercontent.com/u/8030856?v=3",
    "gravatar_id": "",
    "url": "https://api.github.com/users/azurecla",
    "html_url": "https://github.com/azurecla",
    "followers_url": "https://api.github.com/users/azurecla/followers",
    "following_url": "https://api.github.com/users/azurecla/following{/other_user}",
    "gists_url": "https://api.github.com/users/azurecla/gists{/gist_id}",
    "starred_url": "https://api.github.com/users/azurecla/starred{/owner}{/repo}",
    "subscriptions_url": "https://api.github.com/users/azurecla/subscriptions",
    "organizations_url": "https://api.github.com/users/azurecla/orgs",
    "repos_url": "https://api.github.com/users/azurecla/repos",
    "events_url": "https://api.github.com/users/azurecla/events{/privacy}",
    "received_events_url": "https://api.github.com/users/azurecla/received_events",
    "type": "User",
    "site_admin": false
  },
  "created_at": "2015-10-19T23:50:19Z",
  "updated_at": "2015-10-19T23:50:19Z",
  "body": "Hi __@brjohnstmsft__, I'm your friendly neighborhood Azure Pull Request Bot (You can call me AZPRBOT). Thanks for your contribution!\n    <p>\n        It looks like you're working at Microsoft (brjohnst). If you're full-time, we DON'T require a contribution license agreement.\n    </p>\n    <p>\n        If you are a vendor, or work for Microsoft Open Technologies, DO please sign the electronic contribution license agreement. It will take 2 minutes and there's no faxing! https://cla.azure.com.\n    </p>\n\nTTYL, AZPRBOT;\n"
}
]
