[
{
  "url": "https://api.github.com/repos/heroku/heroku-buildpack-nodejs/issues/comments/29861491",
  "html_url": "https://github.com/heroku/heroku-buildpack-nodejs/issues/73#issuecomment-29861491",
  "issue_url": "https://api.github.com/repos/heroku/heroku-buildpack-nodejs/issues/73",
  "id": 29861491,
  "user": {
    "login": "zeke",
    "id": 2289,
    "avatar_url": "https://avatars.githubusercontent.com/u/2289?v=3",
    "gravatar_id": "",
    "url": "https://api.github.com/users/zeke",
    "html_url": "https://github.com/zeke",
    "followers_url": "https://api.github.com/users/zeke/followers",
    "following_url": "https://api.github.com/users/zeke/following{/other_user}",
    "gists_url": "https://api.github.com/users/zeke/gists{/gist_id}",
    "starred_url": "https://api.github.com/users/zeke/starred{/owner}{/repo}",
    "subscriptions_url": "https://api.github.com/users/zeke/subscriptions",
    "organizations_url": "https://api.github.com/users/zeke/orgs",
    "repos_url": "https://api.github.com/users/zeke/repos",
    "events_url": "https://api.github.com/users/zeke/events{/privacy}",
    "received_events_url": "https://api.github.com/users/zeke/received_events",
    "type": "User",
    "site_admin": false
  },
  "created_at": "2013-12-05T00:41:42Z",
  "updated_at": "2013-12-05T00:41:42Z",
  "body": "Hi @ekosz. Sorry you're having issues.\r\n\r\nIn the short term, you can use the old buildpack: https://github.com/heroku/heroku-buildpack-nodejs#legacy-compatibility\r\n\r\nPlease open a support ticket at https://help.heroku.com/tickets/new and I'll help you debug your application."
}
, {
  "url": "https://api.github.com/repos/heroku/heroku-buildpack-nodejs/issues/comments/30374158",
  "html_url": "https://github.com/heroku/heroku-buildpack-nodejs/issues/73#issuecomment-30374158",
  "issue_url": "https://api.github.com/repos/heroku/heroku-buildpack-nodejs/issues/73",
  "id": 30374158,
  "user": {
    "login": "ben-ng",
    "id": 543312,
    "avatar_url": "https://avatars.githubusercontent.com/u/543312?v=3",
    "gravatar_id": "",
    "url": "https://api.github.com/users/ben-ng",
    "html_url": "https://github.com/ben-ng",
    "followers_url": "https://api.github.com/users/ben-ng/followers",
    "following_url": "https://api.github.com/users/ben-ng/following{/other_user}",
    "gists_url": "https://api.github.com/users/ben-ng/gists{/gist_id}",
    "starred_url": "https://api.github.com/users/ben-ng/starred{/owner}{/repo}",
    "subscriptions_url": "https://api.github.com/users/ben-ng/subscriptions",
    "organizations_url": "https://api.github.com/users/ben-ng/orgs",
    "repos_url": "https://api.github.com/users/ben-ng/repos",
    "events_url": "https://api.github.com/users/ben-ng/events{/privacy}",
    "received_events_url": "https://api.github.com/users/ben-ng/received_events",
    "type": "User",
    "site_admin": false
  },
  "created_at": "2013-12-11T23:08:11Z",
  "updated_at": "2013-12-11T23:08:11Z",
  "body": "I've run into the same issue. Sent a support ticket."
}
]
