[
{
  "login": "rlr",
  "id": 36629,
  "avatar_url": "https://avatars.githubusercontent.com/u/36629?v=3",
  "gravatar_id": "",
  "url": "https://api.github.com/users/rlr",
  "html_url": "https://github.com/rlr",
  "followers_url": "https://api.github.com/users/rlr/followers",
  "following_url": "https://api.github.com/users/rlr/following{/other_user}",
  "gists_url": "https://api.github.com/users/rlr/gists{/gist_id}",
  "starred_url": "https://api.github.com/users/rlr/starred{/owner}{/repo}",
  "subscriptions_url": "https://api.github.com/users/rlr/subscriptions",
  "organizations_url": "https://api.github.com/users/rlr/orgs",
  "repos_url": "https://api.github.com/users/rlr/repos",
  "events_url": "https://api.github.com/users/rlr/events{/privacy}",
  "received_events_url": "https://api.github.com/users/rlr/received_events",
  "type": "User",
  "site_admin": false
}
, {
  "login": "davidascher",
  "id": 51278,
  "avatar_url": "https://avatars.githubusercontent.com/u/51278?v=3",
  "gravatar_id": "",
  "url": "https://api.github.com/users/davidascher",
  "html_url": "https://github.com/davidascher",
  "followers_url": "https://api.github.com/users/davidascher/followers",
  "following_url": "https://api.github.com/users/davidascher/following{/other_user}",
  "gists_url": "https://api.github.com/users/davidascher/gists{/gist_id}",
  "starred_url": "https://api.github.com/users/davidascher/starred{/owner}{/repo}",
  "subscriptions_url": "https://api.github.com/users/davidascher/subscriptions",
  "organizations_url": "https://api.github.com/users/davidascher/orgs",
  "repos_url": "https://api.github.com/users/davidascher/repos",
  "events_url": "https://api.github.com/users/davidascher/events{/privacy}",
  "received_events_url": "https://api.github.com/users/davidascher/received_events",
  "type": "User",
  "site_admin": false
}
, {
  "login": "fox2mike",
  "id": 117655,
  "avatar_url": "https://avatars.githubusercontent.com/u/117655?v=3",
  "gravatar_id": "",
  "url": "https://api.github.com/users/fox2mike",
  "html_url": "https://github.com/fox2mike",
  "followers_url": "https://api.github.com/users/fox2mike/followers",
  "following_url": "https://api.github.com/users/fox2mike/following{/other_user}",
  "gists_url": "https://api.github.com/users/fox2mike/gists{/gist_id}",
  "starred_url": "https://api.github.com/users/fox2mike/starred{/owner}{/repo}",
  "subscriptions_url": "https://api.github.com/users/fox2mike/subscriptions",
  "organizations_url": "https://api.github.com/users/fox2mike/orgs",
  "repos_url": "https://api.github.com/users/fox2mike/repos",
  "events_url": "https://api.github.com/users/fox2mike/events{/privacy}",
  "received_events_url": "https://api.github.com/users/fox2mike/received_events",
  "type": "User",
  "site_admin": false
}
, {
  "login": "AutomatedTester",
  "id": 128518,
  "avatar_url": "https://avatars.githubusercontent.com/u/128518?v=3",
  "gravatar_id": "",
  "url": "https://api.github.com/users/AutomatedTester",
  "html_url": "https://github.com/AutomatedTester",
  "followers_url": "https://api.github.com/users/AutomatedTester/followers",
  "following_url": "https://api.github.com/users/AutomatedTester/following{/other_user}",
  "gists_url": "https://api.github.com/users/AutomatedTester/gists{/gist_id}",
  "starred_url": "https://api.github.com/users/AutomatedTester/starred{/owner}{/repo}",
  "subscriptions_url": "https://api.github.com/users/AutomatedTester/subscriptions",
  "organizations_url": "https://api.github.com/users/AutomatedTester/orgs",
  "repos_url": "https://api.github.com/users/AutomatedTester/repos",
  "events_url": "https://api.github.com/users/AutomatedTester/events{/privacy}",
  "received_events_url": "https://api.github.com/users/AutomatedTester/received_events",
  "type": "User",
  "site_admin": false
}
, {
  "login": "mythmon",
  "id": 305049,
  "avatar_url": "https://avatars.githubusercontent.com/u/305049?v=3",
  "gravatar_id": "",
  "url": "https://api.github.com/users/mythmon",
  "html_url": "https://github.com/mythmon",
  "followers_url": "https://api.github.com/users/mythmon/followers",
  "following_url": "https://api.github.com/users/mythmon/following{/other_user}",
  "gists_url": "https://api.github.com/users/mythmon/gists{/gist_id}",
  "starred_url": "https://api.github.com/users/mythmon/starred{/owner}{/repo}",
  "subscriptions_url": "https://api.github.com/users/mythmon/subscriptions",
  "organizations_url": "https://api.github.com/users/mythmon/orgs",
  "repos_url": "https://api.github.com/users/mythmon/repos",
  "events_url": "https://api.github.com/users/mythmon/events{/privacy}",
  "received_events_url": "https://api.github.com/users/mythmon/received_events",
  "type": "User",
  "site_admin": false
}
, {
  "login": "Sancus",
  "id": 479671,
  "avatar_url": "https://avatars.githubusercontent.com/u/479671?v=3",
  "gravatar_id": "",
  "url": "https://api.github.com/users/Sancus",
  "html_url": "https://github.com/Sancus",
  "followers_url": "https://api.github.com/users/Sancus/followers",
  "following_url": "https://api.github.com/users/Sancus/following{/other_user}",
  "gists_url": "https://api.github.com/users/Sancus/gists{/gist_id}",
  "starred_url": "https://api.github.com/users/Sancus/starred{/owner}{/repo}",
  "subscriptions_url": "https://api.github.com/users/Sancus/subscriptions",
  "organizations_url": "https://api.github.com/users/Sancus/orgs",
  "repos_url": "https://api.github.com/users/Sancus/repos",
  "events_url": "https://api.github.com/users/Sancus/events{/privacy}",
  "received_events_url": "https://api.github.com/users/Sancus/received_events",
  "type": "User",
  "site_admin": false
}
, {
  "login": "willkg",
  "id": 820826,
  "avatar_url": "https://avatars.githubusercontent.com/u/820826?v=3",
  "gravatar_id": "",
  "url": "https://api.github.com/users/willkg",
  "html_url": "https://github.com/willkg",
  "followers_url": "https://api.github.com/users/willkg/followers",
  "following_url": "https://api.github.com/users/willkg/following{/other_user}",
  "gists_url": "https://api.github.com/users/willkg/gists{/gist_id}",
  "starred_url": "https://api.github.com/users/willkg/starred{/owner}{/repo}",
  "subscriptions_url": "https://api.github.com/users/willkg/subscriptions",
  "organizations_url": "https://api.github.com/users/willkg/orgs",
  "repos_url": "https://api.github.com/users/willkg/repos",
  "events_url": "https://api.github.com/users/willkg/events{/privacy}",
  "received_events_url": "https://api.github.com/users/willkg/received_events",
  "type": "User",
  "site_admin": false
}
, {
  "login": "jasonthomas",
  "id": 910992,
  "avatar_url": "https://avatars.githubusercontent.com/u/910992?v=3",
  "gravatar_id": "",
  "url": "https://api.github.com/users/jasonthomas",
  "html_url": "https://github.com/jasonthomas",
  "followers_url": "https://api.github.com/users/jasonthomas/followers",
  "following_url": "https://api.github.com/users/jasonthomas/following{/other_user}",
  "gists_url": "https://api.github.com/users/jasonthomas/gists{/gist_id}",
  "starred_url": "https://api.github.com/users/jasonthomas/starred{/owner}{/repo}",
  "subscriptions_url": "https://api.github.com/users/jasonthomas/subscriptions",
  "organizations_url": "https://api.github.com/users/jasonthomas/orgs",
  "repos_url": "https://api.github.com/users/jasonthomas/repos",
  "events_url": "https://api.github.com/users/jasonthomas/events{/privacy}",
  "received_events_url": "https://api.github.com/users/jasonthomas/received_events",
  "type": "User",
  "site_admin": false
}
, {
  "login": "gdestuynder",
  "id": 956866,
  "avatar_url": "https://avatars.githubusercontent.com/u/956866?v=3",
  "gravatar_id": "",
  "url": "https://api.github.com/users/gdestuynder",
  "html_url": "https://github.com/gdestuynder",
  "followers_url": "https://api.github.com/users/gdestuynder/followers",
  "following_url": "https://api.github.com/users/gdestuynder/following{/other_user}",
  "gists_url": "https://api.github.com/users/gdestuynder/gists{/gist_id}",
  "starred_url": "https://api.github.com/users/gdestuynder/starred{/owner}{/repo}",
  "subscriptions_url": "https://api.github.com/users/gdestuynder/subscriptions",
  "organizations_url": "https://api.github.com/users/gdestuynder/orgs",
  "repos_url": "https://api.github.com/users/gdestuynder/repos",
  "events_url": "https://api.github.com/users/gdestuynder/events{/privacy}",
  "received_events_url": "https://api.github.com/users/gdestuynder/received_events",
  "type": "User",
  "site_admin": false
}
, {
  "login": "jdotpz",
  "id": 1373628,
  "avatar_url": "https://avatars.githubusercontent.com/u/1373628?v=3",
  "gravatar_id": "",
  "url": "https://api.github.com/users/jdotpz",
  "html_url": "https://github.com/jdotpz",
  "followers_url": "https://api.github.com/users/jdotpz/followers",
  "following_url": "https://api.github.com/users/jdotpz/following{/other_user}",
  "gists_url": "https://api.github.com/users/jdotpz/gists{/gist_id}",
  "starred_url": "https://api.github.com/users/jdotpz/starred{/owner}{/repo}",
  "subscriptions_url": "https://api.github.com/users/jdotpz/subscriptions",
  "organizations_url": "https://api.github.com/users/jdotpz/orgs",
  "repos_url": "https://api.github.com/users/jdotpz/repos",
  "events_url": "https://api.github.com/users/jdotpz/events{/privacy}",
  "received_events_url": "https://api.github.com/users/jdotpz/received_events",
  "type": "User",
  "site_admin": false
}
, {
  "login": "dean",
  "id": 1235347,
  "avatar_url": "https://avatars.githubusercontent.com/u/1235347?v=3",
  "gravatar_id": "",
  "url": "https://api.github.com/users/dean",
  "html_url": "https://github.com/dean",
  "followers_url": "https://api.github.com/users/dean/followers",
  "following_url": "https://api.github.com/users/dean/following{/other_user}",
  "gists_url": "https://api.github.com/users/dean/gists{/gist_id}",
  "starred_url": "https://api.github.com/users/dean/starred{/owner}{/repo}",
  "subscriptions_url": "https://api.github.com/users/dean/subscriptions",
  "organizations_url": "https://api.github.com/users/dean/orgs",
  "repos_url": "https://api.github.com/users/dean/repos",
  "events_url": "https://api.github.com/users/dean/events{/privacy}",
  "received_events_url": "https://api.github.com/users/dean/received_events",
  "type": "User",
  "site_admin": false
}
, {
  "login": "mrrrgn",
  "id": 2722349,
  "avatar_url": "https://avatars.githubusercontent.com/u/2722349?v=3",
  "gravatar_id": "",
  "url": "https://api.github.com/users/mrrrgn",
  "html_url": "https://github.com/mrrrgn",
  "followers_url": "https://api.github.com/users/mrrrgn/followers",
  "following_url": "https://api.github.com/users/mrrrgn/following{/other_user}",
  "gists_url": "https://api.github.com/users/mrrrgn/gists{/gist_id}",
  "starred_url": "https://api.github.com/users/mrrrgn/starred{/owner}{/repo}",
  "subscriptions_url": "https://api.github.com/users/mrrrgn/subscriptions",
  "organizations_url": "https://api.github.com/users/mrrrgn/orgs",
  "repos_url": "https://api.github.com/users/mrrrgn/repos",
  "events_url": "https://api.github.com/users/mrrrgn/events{/privacy}",
  "received_events_url": "https://api.github.com/users/mrrrgn/received_events",
  "type": "User",
  "site_admin": false
}
, {
  "login": "brittanystoroz",
  "id": 856935,
  "avatar_url": "https://avatars.githubusercontent.com/u/856935?v=3",
  "gravatar_id": "",
  "url": "https://api.github.com/users/brittanystoroz",
  "html_url": "https://github.com/brittanystoroz",
  "followers_url": "https://api.github.com/users/brittanystoroz/followers",
  "following_url": "https://api.github.com/users/brittanystoroz/following{/other_user}",
  "gists_url": "https://api.github.com/users/brittanystoroz/gists{/gist_id}",
  "starred_url": "https://api.github.com/users/brittanystoroz/starred{/owner}{/repo}",
  "subscriptions_url": "https://api.github.com/users/brittanystoroz/subscriptions",
  "organizations_url": "https://api.github.com/users/brittanystoroz/orgs",
  "repos_url": "https://api.github.com/users/brittanystoroz/repos",
  "events_url": "https://api.github.com/users/brittanystoroz/events{/privacy}",
  "received_events_url": "https://api.github.com/users/brittanystoroz/received_events",
  "type": "User",
  "site_admin": false
}
]
