[
{
  "url": "https://api.github.com/repos/google/streamy-dart/issues/comments/28242377",
  "html_url": "https://github.com/google/streamy-dart/pull/124#issuecomment-28242377",
  "issue_url": "https://api.github.com/repos/google/streamy-dart/issues/124",
  "id": 28242377,
  "user": {
    "login": "alxhub",
    "id": 4175141,
    "avatar_url": "https://avatars.githubusercontent.com/u/4175141?v=3",
    "gravatar_id": "",
    "url": "https://api.github.com/users/alxhub",
    "html_url": "https://github.com/alxhub",
    "followers_url": "https://api.github.com/users/alxhub/followers",
    "following_url": "https://api.github.com/users/alxhub/following{/other_user}",
    "gists_url": "https://api.github.com/users/alxhub/gists{/gist_id}",
    "starred_url": "https://api.github.com/users/alxhub/starred{/owner}{/repo}",
    "subscriptions_url": "https://api.github.com/users/alxhub/subscriptions",
    "organizations_url": "https://api.github.com/users/alxhub/orgs",
    "repos_url": "https://api.github.com/users/alxhub/repos",
    "events_url": "https://api.github.com/users/alxhub/events{/privacy}",
    "received_events_url": "https://api.github.com/users/alxhub/received_events",
    "type": "User",
    "site_admin": false
  },
  "created_at": "2013-11-11T21:43:19Z",
  "updated_at": "2013-11-11T21:43:19Z",
  "body": "LGTM"
}
]
