[
{
  "url": "https://api.github.com/repos/google/blockly/issues/comments/121418300",
  "html_url": "https://github.com/google/blockly/issues/26#issuecomment-121418300",
  "issue_url": "https://api.github.com/repos/google/blockly/issues/26",
  "id": 121418300,
  "user": {
    "login": "NeilFraser",
    "id": 250480,
    "avatar_url": "https://avatars.githubusercontent.com/u/250480?v=3",
    "gravatar_id": "",
    "url": "https://api.github.com/users/NeilFraser",
    "html_url": "https://github.com/NeilFraser",
    "followers_url": "https://api.github.com/users/NeilFraser/followers",
    "following_url": "https://api.github.com/users/NeilFraser/following{/other_user}",
    "gists_url": "https://api.github.com/users/NeilFraser/gists{/gist_id}",
    "starred_url": "https://api.github.com/users/NeilFraser/starred{/owner}{/repo}",
    "subscriptions_url": "https://api.github.com/users/NeilFraser/subscriptions",
    "organizations_url": "https://api.github.com/users/NeilFraser/orgs",
    "repos_url": "https://api.github.com/users/NeilFraser/repos",
    "events_url": "https://api.github.com/users/NeilFraser/events{/privacy}",
    "received_events_url": "https://api.github.com/users/NeilFraser/received_events",
    "type": "User",
    "site_admin": false
  },
  "created_at": "2015-07-14T22:56:39Z",
  "updated_at": "2015-07-14T22:56:39Z",
  "body": "The issue is located in the getScreenCTM call made by Blockly.mouseToSvg.  The input is correct: the absolute location of the touch event on the physical screen.  The output is incorrect: in Safari getScreenCTM compensates for the zoomed-in scroll, whereas Chrome does not account for the scroll.\r\n\r\nhttps://code.google.com/p/chromium/issues/detail?id=81995"
}
]
