[
{
  "url": "https://api.github.com/repos/thoughtbot/pick/issues/comments/86875782",
  "html_url": "https://github.com/thoughtbot/pick/issues/50#issuecomment-86875782",
  "issue_url": "https://api.github.com/repos/thoughtbot/pick/issues/50",
  "id": 86875782,
  "user": {
    "login": "calleerlandsson",
    "id": 66666,
    "avatar_url": "https://avatars.githubusercontent.com/u/66666?v=3",
    "gravatar_id": "",
    "url": "https://api.github.com/users/calleerlandsson",
    "html_url": "https://github.com/calleerlandsson",
    "followers_url": "https://api.github.com/users/calleerlandsson/followers",
    "following_url": "https://api.github.com/users/calleerlandsson/following{/other_user}",
    "gists_url": "https://api.github.com/users/calleerlandsson/gists{/gist_id}",
    "starred_url": "https://api.github.com/users/calleerlandsson/starred{/owner}{/repo}",
    "subscriptions_url": "https://api.github.com/users/calleerlandsson/subscriptions",
    "organizations_url": "https://api.github.com/users/calleerlandsson/orgs",
    "repos_url": "https://api.github.com/users/calleerlandsson/repos",
    "events_url": "https://api.github.com/users/calleerlandsson/events{/privacy}",
    "received_events_url": "https://api.github.com/users/calleerlandsson/received_events",
    "type": "User",
    "site_admin": false
  },
  "created_at": "2015-03-27T09:12:41Z",
  "updated_at": "2015-03-27T09:12:41Z",
  "body": "Hey @eavgerinos, thanks for reporting this.\r\n\r\nI think this is because the conditional on [this line](https://github.com/thoughtbot/pick/blob/92b3fbadfc92a7c786623f847f1ad137f5d3fa01/src/choices.c#L78) only checks the score of choices. By also sorting choices with the same score alphabetically, the order would be deterministic.\r\n\r\nUnless someone beats me to it, I'll look into this as soon as I can."
}
]
