[
{
  "url": "https://api.github.com/repos/cucumber/cucumber-js/issues/comments/95997758",
  "html_url": "https://github.com/cucumber/cucumber-js/pull/236#issuecomment-95997758",
  "issue_url": "https://api.github.com/repos/cucumber/cucumber-js/issues/236",
  "id": 95997758,
  "user": {
    "login": "jbpros",
    "id": 52343,
    "avatar_url": "https://avatars.githubusercontent.com/u/52343?v=3",
    "gravatar_id": "",
    "url": "https://api.github.com/users/jbpros",
    "html_url": "https://github.com/jbpros",
    "followers_url": "https://api.github.com/users/jbpros/followers",
    "following_url": "https://api.github.com/users/jbpros/following{/other_user}",
    "gists_url": "https://api.github.com/users/jbpros/gists{/gist_id}",
    "starred_url": "https://api.github.com/users/jbpros/starred{/owner}{/repo}",
    "subscriptions_url": "https://api.github.com/users/jbpros/subscriptions",
    "organizations_url": "https://api.github.com/users/jbpros/orgs",
    "repos_url": "https://api.github.com/users/jbpros/repos",
    "events_url": "https://api.github.com/users/jbpros/events{/privacy}",
    "received_events_url": "https://api.github.com/users/jbpros/received_events",
    "type": "User",
    "site_admin": false
  },
  "created_at": "2015-04-24T17:17:40Z",
  "updated_at": "2015-04-24T17:17:40Z",
  "body": "closed by 3554f5f"
}
, {
  "url": "https://api.github.com/repos/cucumber/cucumber-js/issues/comments/96002995",
  "html_url": "https://github.com/cucumber/cucumber-js/pull/236#issuecomment-96002995",
  "issue_url": "https://api.github.com/repos/cucumber/cucumber-js/issues/236",
  "id": 96002995,
  "user": {
    "login": "samccone",
    "id": 883126,
    "avatar_url": "https://avatars.githubusercontent.com/u/883126?v=3",
    "gravatar_id": "",
    "url": "https://api.github.com/users/samccone",
    "html_url": "https://github.com/samccone",
    "followers_url": "https://api.github.com/users/samccone/followers",
    "following_url": "https://api.github.com/users/samccone/following{/other_user}",
    "gists_url": "https://api.github.com/users/samccone/gists{/gist_id}",
    "starred_url": "https://api.github.com/users/samccone/starred{/owner}{/repo}",
    "subscriptions_url": "https://api.github.com/users/samccone/subscriptions",
    "organizations_url": "https://api.github.com/users/samccone/orgs",
    "repos_url": "https://api.github.com/users/samccone/repos",
    "events_url": "https://api.github.com/users/samccone/events{/privacy}",
    "received_events_url": "https://api.github.com/users/samccone/received_events",
    "type": "User",
    "site_admin": false
  },
  "created_at": "2015-04-24T17:25:53Z",
  "updated_at": "2015-04-24T17:25:53Z",
  "body": ":+1:"
}
]
