[
{
  "url": "https://api.github.com/repos/linkedin/gobblin/issues/comments/103669066",
  "html_url": "https://github.com/linkedin/gobblin/pull/135#issuecomment-103669066",
  "issue_url": "https://api.github.com/repos/linkedin/gobblin/issues/135",
  "id": 103669066,
  "user": {
    "login": "akshaynanavati",
    "id": 3410061,
    "avatar_url": "https://avatars.githubusercontent.com/u/3410061?v=3",
    "gravatar_id": "",
    "url": "https://api.github.com/users/akshaynanavati",
    "html_url": "https://github.com/akshaynanavati",
    "followers_url": "https://api.github.com/users/akshaynanavati/followers",
    "following_url": "https://api.github.com/users/akshaynanavati/following{/other_user}",
    "gists_url": "https://api.github.com/users/akshaynanavati/gists{/gist_id}",
    "starred_url": "https://api.github.com/users/akshaynanavati/starred{/owner}{/repo}",
    "subscriptions_url": "https://api.github.com/users/akshaynanavati/subscriptions",
    "organizations_url": "https://api.github.com/users/akshaynanavati/orgs",
    "repos_url": "https://api.github.com/users/akshaynanavati/repos",
    "events_url": "https://api.github.com/users/akshaynanavati/events{/privacy}",
    "received_events_url": "https://api.github.com/users/akshaynanavati/received_events",
    "type": "User",
    "site_admin": false
  },
  "created_at": "2015-05-19T21:15:25Z",
  "updated_at": "2015-05-19T21:16:28Z",
  "body": "I haven't looked too deeply into this PR but had a few questions based on the PR summary:\r\n\r\nDoes this mean there will be one extractor per topic no matter how many partitions there are? Before, I believe there was 1 task per partition per topic, so the job was parallelized based on partitions, i.e. if there are 10 partitions, there could be 10 different threads pulling from Kafka. Is this now a sequential process?\r\n\r\nIn the old way (where there was one extractor per partition per topic), we basically wrote this module: https://github.com/linkedin/gobblin/blob/c71a32875a97386d0214dbece53559ccdf8cd875/gobblin-core/src/main/java/gobblin/publisher/BatchKafkaData.java\r\nwhich can get called from the publisher and basically batches together all kafka data for a given topic. This way, the extractors can still run in parallel, but the data gets batched at the publish step.\r\n\r\nIs there a reason the design decision was made to sequentially pull all partitions in a topic?"
}
, {
  "url": "https://api.github.com/repos/linkedin/gobblin/issues/comments/103679739",
  "html_url": "https://github.com/linkedin/gobblin/pull/135#issuecomment-103679739",
  "issue_url": "https://api.github.com/repos/linkedin/gobblin/issues/135",
  "id": 103679739,
  "user": {
    "login": "zliu41",
    "id": 6342538,
    "avatar_url": "https://avatars.githubusercontent.com/u/6342538?v=3",
    "gravatar_id": "",
    "url": "https://api.github.com/users/zliu41",
    "html_url": "https://github.com/zliu41",
    "followers_url": "https://api.github.com/users/zliu41/followers",
    "following_url": "https://api.github.com/users/zliu41/following{/other_user}",
    "gists_url": "https://api.github.com/users/zliu41/gists{/gist_id}",
    "starred_url": "https://api.github.com/users/zliu41/starred{/owner}{/repo}",
    "subscriptions_url": "https://api.github.com/users/zliu41/subscriptions",
    "organizations_url": "https://api.github.com/users/zliu41/orgs",
    "repos_url": "https://api.github.com/users/zliu41/repos",
    "events_url": "https://api.github.com/users/zliu41/events{/privacy}",
    "received_events_url": "https://api.github.com/users/zliu41/received_events",
    "type": "User",
    "site_admin": false
  },
  "created_at": "2015-05-19T21:58:18Z",
  "updated_at": "2015-05-19T21:58:18Z",
  "body": "@akshayn1107 Not all partitions of a topic go to the same workunit/extractor, it depends on the number of mappers (`mr.job.max.mappers`). If that number is more than a third of the total number of partitions, then most likely each workunit will still have only one partition.\r\n\r\nIf the number of mappers is very small compared to the number of partitions (in our use case we use 200 mappers for 5000+ partitions), then we try to assign partitions of the same topic to the same workunit, so that these partitions can share output files. This helps reduce the number of small files generated.\r\n\r\nThe number of workunits/extractors is no less than 3x number of mappers. We use `workUnitMaxSize = total size of all partitions / num of mappers / 3`\r\nIf the total size of all partitions of a topic is smaller than workUnitMaxSize, all of them go to the same workunit. Otherwise, they go to different workunits via bin packing.\r\n\r\nLet me know if this works for you."
}
, {
  "url": "https://api.github.com/repos/linkedin/gobblin/issues/comments/103680134",
  "html_url": "https://github.com/linkedin/gobblin/pull/135#issuecomment-103680134",
  "issue_url": "https://api.github.com/repos/linkedin/gobblin/issues/135",
  "id": 103680134,
  "user": {
    "login": "akshaynanavati",
    "id": 3410061,
    "avatar_url": "https://avatars.githubusercontent.com/u/3410061?v=3",
    "gravatar_id": "",
    "url": "https://api.github.com/users/akshaynanavati",
    "html_url": "https://github.com/akshaynanavati",
    "followers_url": "https://api.github.com/users/akshaynanavati/followers",
    "following_url": "https://api.github.com/users/akshaynanavati/following{/other_user}",
    "gists_url": "https://api.github.com/users/akshaynanavati/gists{/gist_id}",
    "starred_url": "https://api.github.com/users/akshaynanavati/starred{/owner}{/repo}",
    "subscriptions_url": "https://api.github.com/users/akshaynanavati/subscriptions",
    "organizations_url": "https://api.github.com/users/akshaynanavati/orgs",
    "repos_url": "https://api.github.com/users/akshaynanavati/repos",
    "events_url": "https://api.github.com/users/akshaynanavati/events{/privacy}",
    "received_events_url": "https://api.github.com/users/akshaynanavati/received_events",
    "type": "User",
    "site_admin": false
  },
  "created_at": "2015-05-19T22:00:46Z",
  "updated_at": "2015-05-19T22:00:46Z",
  "body": "@zliu41 Thanks for clarifying, that makes sense."
}
, {
  "url": "https://api.github.com/repos/linkedin/gobblin/issues/comments/103740670",
  "html_url": "https://github.com/linkedin/gobblin/pull/135#issuecomment-103740670",
  "issue_url": "https://api.github.com/repos/linkedin/gobblin/issues/135",
  "id": 103740670,
  "user": {
    "login": "sahilTakiar",
    "id": 1282583,
    "avatar_url": "https://avatars.githubusercontent.com/u/1282583?v=3",
    "gravatar_id": "",
    "url": "https://api.github.com/users/sahilTakiar",
    "html_url": "https://github.com/sahilTakiar",
    "followers_url": "https://api.github.com/users/sahilTakiar/followers",
    "following_url": "https://api.github.com/users/sahilTakiar/following{/other_user}",
    "gists_url": "https://api.github.com/users/sahilTakiar/gists{/gist_id}",
    "starred_url": "https://api.github.com/users/sahilTakiar/starred{/owner}{/repo}",
    "subscriptions_url": "https://api.github.com/users/sahilTakiar/subscriptions",
    "organizations_url": "https://api.github.com/users/sahilTakiar/orgs",
    "repos_url": "https://api.github.com/users/sahilTakiar/repos",
    "events_url": "https://api.github.com/users/sahilTakiar/events{/privacy}",
    "received_events_url": "https://api.github.com/users/sahilTakiar/received_events",
    "type": "User",
    "site_admin": false
  },
  "created_at": "2015-05-20T03:14:30Z",
  "updated_at": "2015-05-20T03:14:30Z",
  "body": "@zliu41 I fixed the bugs you brought up in a new PR, and also added a unit test: https://github.com/linkedin/gobblin/pull/141"
}
, {
  "url": "https://api.github.com/repos/linkedin/gobblin/issues/comments/104003396",
  "html_url": "https://github.com/linkedin/gobblin/pull/135#issuecomment-104003396",
  "issue_url": "https://api.github.com/repos/linkedin/gobblin/issues/135",
  "id": 104003396,
  "user": {
    "login": "zliu41",
    "id": 6342538,
    "avatar_url": "https://avatars.githubusercontent.com/u/6342538?v=3",
    "gravatar_id": "",
    "url": "https://api.github.com/users/zliu41",
    "html_url": "https://github.com/zliu41",
    "followers_url": "https://api.github.com/users/zliu41/followers",
    "following_url": "https://api.github.com/users/zliu41/following{/other_user}",
    "gists_url": "https://api.github.com/users/zliu41/gists{/gist_id}",
    "starred_url": "https://api.github.com/users/zliu41/starred{/owner}{/repo}",
    "subscriptions_url": "https://api.github.com/users/zliu41/subscriptions",
    "organizations_url": "https://api.github.com/users/zliu41/orgs",
    "repos_url": "https://api.github.com/users/zliu41/repos",
    "events_url": "https://api.github.com/users/zliu41/events{/privacy}",
    "received_events_url": "https://api.github.com/users/zliu41/received_events",
    "type": "User",
    "site_admin": false
  },
  "created_at": "2015-05-20T19:20:20Z",
  "updated_at": "2015-05-20T19:20:20Z",
  "body": "Merged with #141 and addressed comments."
}
, {
  "url": "https://api.github.com/repos/linkedin/gobblin/issues/comments/104469540",
  "html_url": "https://github.com/linkedin/gobblin/pull/135#issuecomment-104469540",
  "issue_url": "https://api.github.com/repos/linkedin/gobblin/issues/135",
  "id": 104469540,
  "user": {
    "login": "zliu41",
    "id": 6342538,
    "avatar_url": "https://avatars.githubusercontent.com/u/6342538?v=3",
    "gravatar_id": "",
    "url": "https://api.github.com/users/zliu41",
    "html_url": "https://github.com/zliu41",
    "followers_url": "https://api.github.com/users/zliu41/followers",
    "following_url": "https://api.github.com/users/zliu41/following{/other_user}",
    "gists_url": "https://api.github.com/users/zliu41/gists{/gist_id}",
    "starred_url": "https://api.github.com/users/zliu41/starred{/owner}{/repo}",
    "subscriptions_url": "https://api.github.com/users/zliu41/subscriptions",
    "organizations_url": "https://api.github.com/users/zliu41/orgs",
    "repos_url": "https://api.github.com/users/zliu41/repos",
    "events_url": "https://api.github.com/users/zliu41/events{/privacy}",
    "received_events_url": "https://api.github.com/users/zliu41/received_events",
    "type": "User",
    "site_admin": false
  },
  "created_at": "2015-05-22T01:21:07Z",
  "updated_at": "2015-05-22T01:21:07Z",
  "body": "Updated."
}
, {
  "url": "https://api.github.com/repos/linkedin/gobblin/issues/comments/104700213",
  "html_url": "https://github.com/linkedin/gobblin/pull/135#issuecomment-104700213",
  "issue_url": "https://api.github.com/repos/linkedin/gobblin/issues/135",
  "id": 104700213,
  "user": {
    "login": "ibuenros",
    "id": 1364112,
    "avatar_url": "https://avatars.githubusercontent.com/u/1364112?v=3",
    "gravatar_id": "",
    "url": "https://api.github.com/users/ibuenros",
    "html_url": "https://github.com/ibuenros",
    "followers_url": "https://api.github.com/users/ibuenros/followers",
    "following_url": "https://api.github.com/users/ibuenros/following{/other_user}",
    "gists_url": "https://api.github.com/users/ibuenros/gists{/gist_id}",
    "starred_url": "https://api.github.com/users/ibuenros/starred{/owner}{/repo}",
    "subscriptions_url": "https://api.github.com/users/ibuenros/subscriptions",
    "organizations_url": "https://api.github.com/users/ibuenros/orgs",
    "repos_url": "https://api.github.com/users/ibuenros/repos",
    "events_url": "https://api.github.com/users/ibuenros/events{/privacy}",
    "received_events_url": "https://api.github.com/users/ibuenros/received_events",
    "type": "User",
    "site_admin": false
  },
  "created_at": "2015-05-22T16:08:59Z",
  "updated_at": "2015-05-22T16:08:59Z",
  "body": "LGTM"
}
, {
  "url": "https://api.github.com/repos/linkedin/gobblin/issues/comments/105621929",
  "html_url": "https://github.com/linkedin/gobblin/pull/135#issuecomment-105621929",
  "issue_url": "https://api.github.com/repos/linkedin/gobblin/issues/135",
  "id": 105621929,
  "user": {
    "login": "tuGithub",
    "id": 9965624,
    "avatar_url": "https://avatars.githubusercontent.com/u/9965624?v=3",
    "gravatar_id": "",
    "url": "https://api.github.com/users/tuGithub",
    "html_url": "https://github.com/tuGithub",
    "followers_url": "https://api.github.com/users/tuGithub/followers",
    "following_url": "https://api.github.com/users/tuGithub/following{/other_user}",
    "gists_url": "https://api.github.com/users/tuGithub/gists{/gist_id}",
    "starred_url": "https://api.github.com/users/tuGithub/starred{/owner}{/repo}",
    "subscriptions_url": "https://api.github.com/users/tuGithub/subscriptions",
    "organizations_url": "https://api.github.com/users/tuGithub/orgs",
    "repos_url": "https://api.github.com/users/tuGithub/repos",
    "events_url": "https://api.github.com/users/tuGithub/events{/privacy}",
    "received_events_url": "https://api.github.com/users/tuGithub/received_events",
    "type": "User",
    "site_admin": false
  },
  "created_at": "2015-05-26T18:11:25Z",
  "updated_at": "2015-05-26T18:11:25Z",
  "body": "LGTM"
}
]
