[
{
  "login": "docteurklein",
  "id": 109846,
  "avatar_url": "https://avatars.githubusercontent.com/u/109846?v=3",
  "gravatar_id": "",
  "url": "https://api.github.com/users/docteurklein",
  "html_url": "https://github.com/docteurklein",
  "followers_url": "https://api.github.com/users/docteurklein/followers",
  "following_url": "https://api.github.com/users/docteurklein/following{/other_user}",
  "gists_url": "https://api.github.com/users/docteurklein/gists{/gist_id}",
  "starred_url": "https://api.github.com/users/docteurklein/starred{/owner}{/repo}",
  "subscriptions_url": "https://api.github.com/users/docteurklein/subscriptions",
  "organizations_url": "https://api.github.com/users/docteurklein/orgs",
  "repos_url": "https://api.github.com/users/docteurklein/repos",
  "events_url": "https://api.github.com/users/docteurklein/events{/privacy}",
  "received_events_url": "https://api.github.com/users/docteurklein/received_events",
  "type": "User",
  "site_admin": false,
  "contributions": 1
}
]
