{
  "id": 48398822,
  "name": "universal-search-recommendation",
  "full_name": "mozilla/universal-search-recommendation",
  "owner": {
    "login": "mozilla",
    "id": 131524,
    "avatar_url": "https://avatars.githubusercontent.com/u/131524?v=3",
    "gravatar_id": "",
    "url": "https://api.github.com/users/mozilla",
    "html_url": "https://github.com/mozilla",
    "followers_url": "https://api.github.com/users/mozilla/followers",
    "following_url": "https://api.github.com/users/mozilla/following{/other_user}",
    "gists_url": "https://api.github.com/users/mozilla/gists{/gist_id}",
    "starred_url": "https://api.github.com/users/mozilla/starred{/owner}{/repo}",
    "subscriptions_url": "https://api.github.com/users/mozilla/subscriptions",
    "organizations_url": "https://api.github.com/users/mozilla/orgs",
    "repos_url": "https://api.github.com/users/mozilla/repos",
    "events_url": "https://api.github.com/users/mozilla/events{/privacy}",
    "received_events_url": "https://api.github.com/users/mozilla/received_events",
    "type": "Organization",
    "site_admin": false
  },
  "private": false,
  "html_url": "https://github.com/mozilla/universal-search-recommendation",
  "description": "Recommendation server for Universal Search.",
  "fork": false,
  "url": "https://api.github.com/repos/mozilla/universal-search-recommendation",
  "forks_url": "https://api.github.com/repos/mozilla/universal-search-recommendation/forks",
  "keys_url": "https://api.github.com/repos/mozilla/universal-search-recommendation/keys{/key_id}",
  "collaborators_url": "https://api.github.com/repos/mozilla/universal-search-recommendation/collaborators{/collaborator}",
  "teams_url": "https://api.github.com/repos/mozilla/universal-search-recommendation/teams",
  "hooks_url": "https://api.github.com/repos/mozilla/universal-search-recommendation/hooks",
  "issue_events_url": "https://api.github.com/repos/mozilla/universal-search-recommendation/issues/events{/number}",
  "events_url": "https://api.github.com/repos/mozilla/universal-search-recommendation/events",
  "assignees_url": "https://api.github.com/repos/mozilla/universal-search-recommendation/assignees{/user}",
  "branches_url": "https://api.github.com/repos/mozilla/universal-search-recommendation/branches{/branch}",
  "tags_url": "https://api.github.com/repos/mozilla/universal-search-recommendation/tags",
  "blobs_url": "https://api.github.com/repos/mozilla/universal-search-recommendation/git/blobs{/sha}",
  "git_tags_url": "https://api.github.com/repos/mozilla/universal-search-recommendation/git/tags{/sha}",
  "git_refs_url": "https://api.github.com/repos/mozilla/universal-search-recommendation/git/refs{/sha}",
  "trees_url": "https://api.github.com/repos/mozilla/universal-search-recommendation/git/trees{/sha}",
  "statuses_url": "https://api.github.com/repos/mozilla/universal-search-recommendation/statuses/{sha}",
  "languages_url": "https://api.github.com/repos/mozilla/universal-search-recommendation/languages",
  "stargazers_url": "https://api.github.com/repos/mozilla/universal-search-recommendation/stargazers",
  "contributors_url": "https://api.github.com/repos/mozilla/universal-search-recommendation/contributors",
  "subscribers_url": "https://api.github.com/repos/mozilla/universal-search-recommendation/subscribers",
  "subscription_url": "https://api.github.com/repos/mozilla/universal-search-recommendation/subscription",
  "commits_url": "https://api.github.com/repos/mozilla/universal-search-recommendation/commits{/sha}",
  "git_commits_url": "https://api.github.com/repos/mozilla/universal-search-recommendation/git/commits{/sha}",
  "comments_url": "https://api.github.com/repos/mozilla/universal-search-recommendation/comments{/number}",
  "issue_comment_url": "https://api.github.com/repos/mozilla/universal-search-recommendation/issues/comments{/number}",
  "contents_url": "https://api.github.com/repos/mozilla/universal-search-recommendation/contents/{+path}",
  "compare_url": "https://api.github.com/repos/mozilla/universal-search-recommendation/compare/{base}...{head}",
  "merges_url": "https://api.github.com/repos/mozilla/universal-search-recommendation/merges",
  "archive_url": "https://api.github.com/repos/mozilla/universal-search-recommendation/{archive_format}{/ref}",
  "downloads_url": "https://api.github.com/repos/mozilla/universal-search-recommendation/downloads",
  "issues_url": "https://api.github.com/repos/mozilla/universal-search-recommendation/issues{/number}",
  "pulls_url": "https://api.github.com/repos/mozilla/universal-search-recommendation/pulls{/number}",
  "milestones_url": "https://api.github.com/repos/mozilla/universal-search-recommendation/milestones{/number}",
  "notifications_url": "https://api.github.com/repos/mozilla/universal-search-recommendation/notifications{?since,all,participating}",
  "labels_url": "https://api.github.com/repos/mozilla/universal-search-recommendation/labels{/name}",
  "releases_url": "https://api.github.com/repos/mozilla/universal-search-recommendation/releases{/id}",
  "deployments_url": "https://api.github.com/repos/mozilla/universal-search-recommendation/deployments",
  "created_at": "2015-12-21T23:04:48Z",
  "updated_at": "2016-01-12T18:17:47Z",
  "pushed_at": "2016-01-25T22:20:40Z",
  "git_url": "git://github.com/mozilla/universal-search-recommendation.git",
  "ssh_url": "git@github.com:mozilla/universal-search-recommendation.git",
  "clone_url": "https://github.com/mozilla/universal-search-recommendation.git",
  "svn_url": "https://github.com/mozilla/universal-search-recommendation",
  "homepage": null,
  "size": 59,
  "stargazers_count": 0,
  "watchers_count": 0,
  "language": "Python",
  "has_issues": true,
  "has_downloads": true,
  "has_wiki": true,
  "has_pages": false,
  "forks_count": 3,
  "mirror_url": null,
  "open_issues_count": 7,
  "forks": 3,
  "open_issues": 7,
  "watchers": 0,
  "default_branch": "master",
  "master_branch": "master",
  "permissions": {
    "admin": false,
    "push": false,
    "pull": true
  },
  "license": {
    "key": "mpl-2.0",
    "name": "Mozilla Public License 2.0",
    "url": "https://api.github.com/licenses/mpl-2.0",
    "featured": false
  },
  "organization": {
    "login": "mozilla",
    "id": 131524,
    "avatar_url": "https://avatars.githubusercontent.com/u/131524?v=3",
    "gravatar_id": "",
    "url": "https://api.github.com/users/mozilla",
    "html_url": "https://github.com/mozilla",
    "followers_url": "https://api.github.com/users/mozilla/followers",
    "following_url": "https://api.github.com/users/mozilla/following{/other_user}",
    "gists_url": "https://api.github.com/users/mozilla/gists{/gist_id}",
    "starred_url": "https://api.github.com/users/mozilla/starred{/owner}{/repo}",
    "subscriptions_url": "https://api.github.com/users/mozilla/subscriptions",
    "organizations_url": "https://api.github.com/users/mozilla/orgs",
    "repos_url": "https://api.github.com/users/mozilla/repos",
    "events_url": "https://api.github.com/users/mozilla/events{/privacy}",
    "received_events_url": "https://api.github.com/users/mozilla/received_events",
    "type": "Organization",
    "site_admin": false
  },
  "network_count": 3,
  "subscribers_count": 21
}
