[
{
  "url": "https://api.github.com/repos/airbnb/airflow/issues/comments/156278077",
  "html_url": "https://github.com/airbnb/airflow/issues/625#issuecomment-156278077",
  "issue_url": "https://api.github.com/repos/airbnb/airflow/issues/625",
  "id": 156278077,
  "user": {
    "login": "criccomini",
    "id": 167569,
    "avatar_url": "https://avatars.githubusercontent.com/u/167569?v=3",
    "gravatar_id": "",
    "url": "https://api.github.com/users/criccomini",
    "html_url": "https://github.com/criccomini",
    "followers_url": "https://api.github.com/users/criccomini/followers",
    "following_url": "https://api.github.com/users/criccomini/following{/other_user}",
    "gists_url": "https://api.github.com/users/criccomini/gists{/gist_id}",
    "starred_url": "https://api.github.com/users/criccomini/starred{/owner}{/repo}",
    "subscriptions_url": "https://api.github.com/users/criccomini/subscriptions",
    "organizations_url": "https://api.github.com/users/criccomini/orgs",
    "repos_url": "https://api.github.com/users/criccomini/repos",
    "events_url": "https://api.github.com/users/criccomini/events{/privacy}",
    "received_events_url": "https://api.github.com/users/criccomini/received_events",
    "type": "User",
    "site_admin": false
  },
  "created_at": "2015-11-13T00:18:46Z",
  "updated_at": "2015-11-13T00:18:46Z",
  "body": "Running on OSX with Python 2.7"
}
, {
  "url": "https://api.github.com/repos/airbnb/airflow/issues/comments/156821647",
  "html_url": "https://github.com/airbnb/airflow/issues/625#issuecomment-156821647",
  "issue_url": "https://api.github.com/repos/airbnb/airflow/issues/625",
  "id": 156821647,
  "user": {
    "login": "mistercrunch",
    "id": 487433,
    "avatar_url": "https://avatars.githubusercontent.com/u/487433?v=3",
    "gravatar_id": "",
    "url": "https://api.github.com/users/mistercrunch",
    "html_url": "https://github.com/mistercrunch",
    "followers_url": "https://api.github.com/users/mistercrunch/followers",
    "following_url": "https://api.github.com/users/mistercrunch/following{/other_user}",
    "gists_url": "https://api.github.com/users/mistercrunch/gists{/gist_id}",
    "starred_url": "https://api.github.com/users/mistercrunch/starred{/owner}{/repo}",
    "subscriptions_url": "https://api.github.com/users/mistercrunch/subscriptions",
    "organizations_url": "https://api.github.com/users/mistercrunch/orgs",
    "repos_url": "https://api.github.com/users/mistercrunch/repos",
    "events_url": "https://api.github.com/users/mistercrunch/events{/privacy}",
    "received_events_url": "https://api.github.com/users/mistercrunch/received_events",
    "type": "User",
    "site_admin": false
  },
  "created_at": "2015-11-15T15:44:35Z",
  "updated_at": "2015-11-15T15:44:35Z",
  "body": "Should be fixed in >=1.6.0 . Reopen this issue if you find that is still the case after upgrading."
}
, {
  "url": "https://api.github.com/repos/airbnb/airflow/issues/comments/157287235",
  "html_url": "https://github.com/airbnb/airflow/issues/625#issuecomment-157287235",
  "issue_url": "https://api.github.com/repos/airbnb/airflow/issues/625",
  "id": 157287235,
  "user": {
    "login": "criccomini",
    "id": 167569,
    "avatar_url": "https://avatars.githubusercontent.com/u/167569?v=3",
    "gravatar_id": "",
    "url": "https://api.github.com/users/criccomini",
    "html_url": "https://github.com/criccomini",
    "followers_url": "https://api.github.com/users/criccomini/followers",
    "following_url": "https://api.github.com/users/criccomini/following{/other_user}",
    "gists_url": "https://api.github.com/users/criccomini/gists{/gist_id}",
    "starred_url": "https://api.github.com/users/criccomini/starred{/owner}{/repo}",
    "subscriptions_url": "https://api.github.com/users/criccomini/subscriptions",
    "organizations_url": "https://api.github.com/users/criccomini/orgs",
    "repos_url": "https://api.github.com/users/criccomini/repos",
    "events_url": "https://api.github.com/users/criccomini/events{/privacy}",
    "received_events_url": "https://api.github.com/users/criccomini/received_events",
    "type": "User",
    "site_admin": false
  },
  "created_at": "2015-11-17T06:39:58Z",
  "updated_at": "2015-11-17T06:39:58Z",
  "body": "Confirmed. 1.6.0 upgrade fixed it."
}
]
