[
{
  "url": "https://api.github.com/repos/Reactive-Extensions/rx-node/issues/comments/156807287",
  "html_url": "https://github.com/Reactive-Extensions/rx-node/pull/12#issuecomment-156807287",
  "issue_url": "https://api.github.com/repos/Reactive-Extensions/rx-node/issues/12",
  "id": 156807287,
  "user": {
    "login": "douglasduteil",
    "id": 730511,
    "avatar_url": "https://avatars.githubusercontent.com/u/730511?v=3",
    "gravatar_id": "",
    "url": "https://api.github.com/users/douglasduteil",
    "html_url": "https://github.com/douglasduteil",
    "followers_url": "https://api.github.com/users/douglasduteil/followers",
    "following_url": "https://api.github.com/users/douglasduteil/following{/other_user}",
    "gists_url": "https://api.github.com/users/douglasduteil/gists{/gist_id}",
    "starred_url": "https://api.github.com/users/douglasduteil/starred{/owner}{/repo}",
    "subscriptions_url": "https://api.github.com/users/douglasduteil/subscriptions",
    "organizations_url": "https://api.github.com/users/douglasduteil/orgs",
    "repos_url": "https://api.github.com/users/douglasduteil/repos",
    "events_url": "https://api.github.com/users/douglasduteil/events{/privacy}",
    "received_events_url": "https://api.github.com/users/douglasduteil/received_events",
    "type": "User",
    "site_admin": false
  },
  "created_at": "2015-11-15T12:01:17Z",
  "updated_at": "2015-11-15T12:01:17Z",
  "body": "I might got it wrong !? Is this repo deprecated anyway ?"
}
]
