[
{
  "url": "https://api.github.com/repos/chef/omnibus-software/issues/comments/58834402",
  "html_url": "https://github.com/chef/omnibus-software/issues/311#issuecomment-58834402",
  "issue_url": "https://api.github.com/repos/chef/omnibus-software/issues/311",
  "id": 58834402,
  "user": {
    "login": "sethvargo",
    "id": 408570,
    "avatar_url": "https://avatars.githubusercontent.com/u/408570?v=3",
    "gravatar_id": "",
    "url": "https://api.github.com/users/sethvargo",
    "html_url": "https://github.com/sethvargo",
    "followers_url": "https://api.github.com/users/sethvargo/followers",
    "following_url": "https://api.github.com/users/sethvargo/following{/other_user}",
    "gists_url": "https://api.github.com/users/sethvargo/gists{/gist_id}",
    "starred_url": "https://api.github.com/users/sethvargo/starred{/owner}{/repo}",
    "subscriptions_url": "https://api.github.com/users/sethvargo/subscriptions",
    "organizations_url": "https://api.github.com/users/sethvargo/orgs",
    "repos_url": "https://api.github.com/users/sethvargo/repos",
    "events_url": "https://api.github.com/users/sethvargo/events{/privacy}",
    "received_events_url": "https://api.github.com/users/sethvargo/received_events",
    "type": "User",
    "site_admin": false
  },
  "created_at": "2014-10-13T01:39:33Z",
  "updated_at": "2014-10-13T01:39:33Z",
  "body": "Hey @parkr. Omnibus-software is not an actual gem. It's only packaged as a gem for easy pulling via bundler."
}
, {
  "url": "https://api.github.com/repos/chef/omnibus-software/issues/comments/58834552",
  "html_url": "https://github.com/chef/omnibus-software/issues/311#issuecomment-58834552",
  "issue_url": "https://api.github.com/repos/chef/omnibus-software/issues/311",
  "id": 58834552,
  "user": {
    "login": "parkr",
    "id": 237985,
    "avatar_url": "https://avatars.githubusercontent.com/u/237985?v=3",
    "gravatar_id": "",
    "url": "https://api.github.com/users/parkr",
    "html_url": "https://github.com/parkr",
    "followers_url": "https://api.github.com/users/parkr/followers",
    "following_url": "https://api.github.com/users/parkr/following{/other_user}",
    "gists_url": "https://api.github.com/users/parkr/gists{/gist_id}",
    "starred_url": "https://api.github.com/users/parkr/starred{/owner}{/repo}",
    "subscriptions_url": "https://api.github.com/users/parkr/subscriptions",
    "organizations_url": "https://api.github.com/users/parkr/orgs",
    "repos_url": "https://api.github.com/users/parkr/repos",
    "events_url": "https://api.github.com/users/parkr/events{/privacy}",
    "received_events_url": "https://api.github.com/users/parkr/received_events",
    "type": "User",
    "site_admin": true
  },
  "created_at": "2014-10-13T01:42:25Z",
  "updated_at": "2014-10-13T01:42:25Z",
  "body": "> Omnibus-software is not an actual gem. It's only packaged as a gem for easy pulling via bundler.\r\n\r\n:question: Those two statements seem to conflict. You mean the repo is in gem-like form so we can use bundler to grab it via git? I'm confused."
}
, {
  "url": "https://api.github.com/repos/chef/omnibus-software/issues/comments/58835077",
  "html_url": "https://github.com/chef/omnibus-software/issues/311#issuecomment-58835077",
  "issue_url": "https://api.github.com/repos/chef/omnibus-software/issues/311",
  "id": 58835077,
  "user": {
    "login": "sethvargo",
    "id": 408570,
    "avatar_url": "https://avatars.githubusercontent.com/u/408570?v=3",
    "gravatar_id": "",
    "url": "https://api.github.com/users/sethvargo",
    "html_url": "https://github.com/sethvargo",
    "followers_url": "https://api.github.com/users/sethvargo/followers",
    "following_url": "https://api.github.com/users/sethvargo/following{/other_user}",
    "gists_url": "https://api.github.com/users/sethvargo/gists{/gist_id}",
    "starred_url": "https://api.github.com/users/sethvargo/starred{/owner}{/repo}",
    "subscriptions_url": "https://api.github.com/users/sethvargo/subscriptions",
    "organizations_url": "https://api.github.com/users/sethvargo/orgs",
    "repos_url": "https://api.github.com/users/sethvargo/repos",
    "events_url": "https://api.github.com/users/sethvargo/events{/privacy}",
    "received_events_url": "https://api.github.com/users/sethvargo/received_events",
    "type": "User",
    "site_admin": false
  },
  "created_at": "2014-10-13T01:52:58Z",
  "updated_at": "2014-10-13T01:52:58Z",
  "body": "Hey @parkr. omnibus-software is a software repository. It contains Chef's list of software definitions. You can fork this repo and make your own, or you can create a new repository with the same layout. You can read more about [sharing software definitions in the Omnibus README](https://github.com/opscode/omnibus#sharing-software-definitions).\r\n\r\nBundler allows you to lock to a particular git sha, branch, or tag of the repository."
}
, {
  "url": "https://api.github.com/repos/chef/omnibus-software/issues/comments/58919758",
  "html_url": "https://github.com/chef/omnibus-software/issues/311#issuecomment-58919758",
  "issue_url": "https://api.github.com/repos/chef/omnibus-software/issues/311",
  "id": 58919758,
  "user": {
    "login": "lamont-granquist",
    "id": 454857,
    "avatar_url": "https://avatars.githubusercontent.com/u/454857?v=3",
    "gravatar_id": "",
    "url": "https://api.github.com/users/lamont-granquist",
    "html_url": "https://github.com/lamont-granquist",
    "followers_url": "https://api.github.com/users/lamont-granquist/followers",
    "following_url": "https://api.github.com/users/lamont-granquist/following{/other_user}",
    "gists_url": "https://api.github.com/users/lamont-granquist/gists{/gist_id}",
    "starred_url": "https://api.github.com/users/lamont-granquist/starred{/owner}{/repo}",
    "subscriptions_url": "https://api.github.com/users/lamont-granquist/subscriptions",
    "organizations_url": "https://api.github.com/users/lamont-granquist/orgs",
    "repos_url": "https://api.github.com/users/lamont-granquist/repos",
    "events_url": "https://api.github.com/users/lamont-granquist/events{/privacy}",
    "received_events_url": "https://api.github.com/users/lamont-granquist/received_events",
    "type": "User",
    "site_admin": false
  },
  "created_at": "2014-10-13T16:44:07Z",
  "updated_at": "2014-10-13T16:44:44Z",
  "body": "Also someone wrote a blog post:\r\n\r\n https://www.getchef.com/blog/2014/06/30/omnibus-a-look-forward/\r\n\r\n\r\n>I am also annoucing changes to the management of omnibus-software. Moving forward, Chef Software will only support software definitions that are a required part of our product pipelines. I realize this may come as a shock, so please allow me to explain.\r\n\r\n>We do not have the knowledge or resources to support every possible software definition in the known universe. At some point in the past, there was a dream that omnibus-software would turn into a cross-platform distro service with matching software that developers could create debs, rpms, packages, and more. While that sounds awesome on the surface, it would require an entire team working full time to support those software definitions. We would need to staff experts in the deepest edges of the most obscure software. It would carry with it all the problems of distro bloat, but would be increased by several factors of magnitude.\r\n\r\nThis is a development branch of our internal software definitions that we make public so that people can use them as a template.  They aren't meant directly for public consumption and we can't consider broader concerns outside of what is required to build our software.  Plagiarize at will, but direct consumption is not recommended outside of our projects."
}
, {
  "url": "https://api.github.com/repos/chef/omnibus-software/issues/comments/58928428",
  "html_url": "https://github.com/chef/omnibus-software/issues/311#issuecomment-58928428",
  "issue_url": "https://api.github.com/repos/chef/omnibus-software/issues/311",
  "id": 58928428,
  "user": {
    "login": "parkr",
    "id": 237985,
    "avatar_url": "https://avatars.githubusercontent.com/u/237985?v=3",
    "gravatar_id": "",
    "url": "https://api.github.com/users/parkr",
    "html_url": "https://github.com/parkr",
    "followers_url": "https://api.github.com/users/parkr/followers",
    "following_url": "https://api.github.com/users/parkr/following{/other_user}",
    "gists_url": "https://api.github.com/users/parkr/gists{/gist_id}",
    "starred_url": "https://api.github.com/users/parkr/starred{/owner}{/repo}",
    "subscriptions_url": "https://api.github.com/users/parkr/subscriptions",
    "organizations_url": "https://api.github.com/users/parkr/orgs",
    "repos_url": "https://api.github.com/users/parkr/repos",
    "events_url": "https://api.github.com/users/parkr/events{/privacy}",
    "received_events_url": "https://api.github.com/users/parkr/received_events",
    "type": "User",
    "site_admin": true
  },
  "created_at": "2014-10-13T17:44:06Z",
  "updated_at": "2014-10-13T17:44:06Z",
  "body": "Ok, great. That clears it up for me. Thank you, @lamont-granquist!"
}
]
