[
{
  "url": "https://api.github.com/repos/Automattic/_s/issues/comments/14177312",
  "html_url": "https://github.com/Automattic/_s/pull/164#issuecomment-14177312",
  "issue_url": "https://api.github.com/repos/Automattic/_s/issues/164",
  "id": 14177312,
  "user": {
    "login": "iamtakashi",
    "id": 908665,
    "avatar_url": "https://avatars.githubusercontent.com/u/908665?v=3",
    "gravatar_id": "",
    "url": "https://api.github.com/users/iamtakashi",
    "html_url": "https://github.com/iamtakashi",
    "followers_url": "https://api.github.com/users/iamtakashi/followers",
    "following_url": "https://api.github.com/users/iamtakashi/following{/other_user}",
    "gists_url": "https://api.github.com/users/iamtakashi/gists{/gist_id}",
    "starred_url": "https://api.github.com/users/iamtakashi/starred{/owner}{/repo}",
    "subscriptions_url": "https://api.github.com/users/iamtakashi/subscriptions",
    "organizations_url": "https://api.github.com/users/iamtakashi/orgs",
    "repos_url": "https://api.github.com/users/iamtakashi/repos",
    "events_url": "https://api.github.com/users/iamtakashi/events{/privacy}",
    "received_events_url": "https://api.github.com/users/iamtakashi/received_events",
    "type": "User",
    "site_admin": false
  },
  "created_at": "2013-02-27T14:50:31Z",
  "updated_at": "2013-02-27T14:50:31Z",
  "body": "@tomgreep, actually the classes <code>_s</code> currently has are correct. I know it's a bit confusing first but here is the explanation from Codex: http://codex.wordpress.org/Function_Reference/next_posts_link\r\n\r\n<blockquote>Because post queries are usually sorted in reverse chronological order, next_posts_link() usually points to older entries (toward the end of the set) and previous_posts_link() usually points to newer entries (toward the beginning of the set).</blockquote>"
}
]
