[
{
  "url": "https://api.github.com/repos/mapbox/osm-boundaries/issues/comments/53219431",
  "html_url": "https://github.com/mapbox/osm-boundaries/pull/9#issuecomment-53219431",
  "issue_url": "https://api.github.com/repos/mapbox/osm-boundaries/issues/9",
  "id": 53219431,
  "user": {
    "login": "pnorman",
    "id": 1190866,
    "avatar_url": "https://avatars.githubusercontent.com/u/1190866?v=3",
    "gravatar_id": "",
    "url": "https://api.github.com/users/pnorman",
    "html_url": "https://github.com/pnorman",
    "followers_url": "https://api.github.com/users/pnorman/followers",
    "following_url": "https://api.github.com/users/pnorman/following{/other_user}",
    "gists_url": "https://api.github.com/users/pnorman/gists{/gist_id}",
    "starred_url": "https://api.github.com/users/pnorman/starred{/owner}{/repo}",
    "subscriptions_url": "https://api.github.com/users/pnorman/subscriptions",
    "organizations_url": "https://api.github.com/users/pnorman/orgs",
    "repos_url": "https://api.github.com/users/pnorman/repos",
    "events_url": "https://api.github.com/users/pnorman/events{/privacy}",
    "received_events_url": "https://api.github.com/users/pnorman/received_events",
    "type": "User",
    "site_admin": false
  },
  "created_at": "2014-08-25T01:29:23Z",
  "updated_at": "2014-08-25T01:29:23Z",
  "body": "Also fixes #4"
}
, {
  "url": "https://api.github.com/repos/mapbox/osm-boundaries/issues/comments/53219685",
  "html_url": "https://github.com/mapbox/osm-boundaries/pull/9#issuecomment-53219685",
  "issue_url": "https://api.github.com/repos/mapbox/osm-boundaries/issues/9",
  "id": 53219685,
  "user": {
    "login": "pnorman",
    "id": 1190866,
    "avatar_url": "https://avatars.githubusercontent.com/u/1190866?v=3",
    "gravatar_id": "",
    "url": "https://api.github.com/users/pnorman",
    "html_url": "https://github.com/pnorman",
    "followers_url": "https://api.github.com/users/pnorman/followers",
    "following_url": "https://api.github.com/users/pnorman/following{/other_user}",
    "gists_url": "https://api.github.com/users/pnorman/gists{/gist_id}",
    "starred_url": "https://api.github.com/users/pnorman/starred{/owner}{/repo}",
    "subscriptions_url": "https://api.github.com/users/pnorman/subscriptions",
    "organizations_url": "https://api.github.com/users/pnorman/orgs",
    "repos_url": "https://api.github.com/users/pnorman/repos",
    "events_url": "https://api.github.com/users/pnorman/events{/privacy}",
    "received_events_url": "https://api.github.com/users/pnorman/received_events",
    "type": "User",
    "site_admin": false
  },
  "created_at": "2014-08-25T01:36:55Z",
  "updated_at": "2014-08-25T01:36:55Z",
  "body": "This may not fix the ``osmjs | psql`` invocation at https://github.com/mapbox/osm-boundaries/blob/master/run.py#L83"
}
]
