{
  "id": 2945916,
  "name": "james-mime4j",
  "full_name": "apache/james-mime4j",
  "owner": {
    "login": "apache",
    "id": 47359,
    "avatar_url": "https://avatars.githubusercontent.com/u/47359?v=3",
    "gravatar_id": "",
    "url": "https://api.github.com/users/apache",
    "html_url": "https://github.com/apache",
    "followers_url": "https://api.github.com/users/apache/followers",
    "following_url": "https://api.github.com/users/apache/following{/other_user}",
    "gists_url": "https://api.github.com/users/apache/gists{/gist_id}",
    "starred_url": "https://api.github.com/users/apache/starred{/owner}{/repo}",
    "subscriptions_url": "https://api.github.com/users/apache/subscriptions",
    "organizations_url": "https://api.github.com/users/apache/orgs",
    "repos_url": "https://api.github.com/users/apache/repos",
    "events_url": "https://api.github.com/users/apache/events{/privacy}",
    "received_events_url": "https://api.github.com/users/apache/received_events",
    "type": "Organization",
    "site_admin": false
  },
  "private": false,
  "html_url": "https://github.com/apache/james-mime4j",
  "description": "Mirror of Apache James Mime4j",
  "fork": false,
  "url": "https://api.github.com/repos/apache/james-mime4j",
  "forks_url": "https://api.github.com/repos/apache/james-mime4j/forks",
  "keys_url": "https://api.github.com/repos/apache/james-mime4j/keys{/key_id}",
  "collaborators_url": "https://api.github.com/repos/apache/james-mime4j/collaborators{/collaborator}",
  "teams_url": "https://api.github.com/repos/apache/james-mime4j/teams",
  "hooks_url": "https://api.github.com/repos/apache/james-mime4j/hooks",
  "issue_events_url": "https://api.github.com/repos/apache/james-mime4j/issues/events{/number}",
  "events_url": "https://api.github.com/repos/apache/james-mime4j/events",
  "assignees_url": "https://api.github.com/repos/apache/james-mime4j/assignees{/user}",
  "branches_url": "https://api.github.com/repos/apache/james-mime4j/branches{/branch}",
  "tags_url": "https://api.github.com/repos/apache/james-mime4j/tags",
  "blobs_url": "https://api.github.com/repos/apache/james-mime4j/git/blobs{/sha}",
  "git_tags_url": "https://api.github.com/repos/apache/james-mime4j/git/tags{/sha}",
  "git_refs_url": "https://api.github.com/repos/apache/james-mime4j/git/refs{/sha}",
  "trees_url": "https://api.github.com/repos/apache/james-mime4j/git/trees{/sha}",
  "statuses_url": "https://api.github.com/repos/apache/james-mime4j/statuses/{sha}",
  "languages_url": "https://api.github.com/repos/apache/james-mime4j/languages",
  "stargazers_url": "https://api.github.com/repos/apache/james-mime4j/stargazers",
  "contributors_url": "https://api.github.com/repos/apache/james-mime4j/contributors",
  "subscribers_url": "https://api.github.com/repos/apache/james-mime4j/subscribers",
  "subscription_url": "https://api.github.com/repos/apache/james-mime4j/subscription",
  "commits_url": "https://api.github.com/repos/apache/james-mime4j/commits{/sha}",
  "git_commits_url": "https://api.github.com/repos/apache/james-mime4j/git/commits{/sha}",
  "comments_url": "https://api.github.com/repos/apache/james-mime4j/comments{/number}",
  "issue_comment_url": "https://api.github.com/repos/apache/james-mime4j/issues/comments{/number}",
  "contents_url": "https://api.github.com/repos/apache/james-mime4j/contents/{+path}",
  "compare_url": "https://api.github.com/repos/apache/james-mime4j/compare/{base}...{head}",
  "merges_url": "https://api.github.com/repos/apache/james-mime4j/merges",
  "archive_url": "https://api.github.com/repos/apache/james-mime4j/{archive_format}{/ref}",
  "downloads_url": "https://api.github.com/repos/apache/james-mime4j/downloads",
  "issues_url": "https://api.github.com/repos/apache/james-mime4j/issues{/number}",
  "pulls_url": "https://api.github.com/repos/apache/james-mime4j/pulls{/number}",
  "milestones_url": "https://api.github.com/repos/apache/james-mime4j/milestones{/number}",
  "notifications_url": "https://api.github.com/repos/apache/james-mime4j/notifications{?since,all,participating}",
  "labels_url": "https://api.github.com/repos/apache/james-mime4j/labels{/name}",
  "releases_url": "https://api.github.com/repos/apache/james-mime4j/releases{/id}",
  "deployments_url": "https://api.github.com/repos/apache/james-mime4j/deployments",
  "created_at": "2011-12-09T08:00:19Z",
  "updated_at": "2015-12-26T13:29:51Z",
  "pushed_at": "2016-01-04T22:48:18Z",
  "git_url": "git://github.com/apache/james-mime4j.git",
  "ssh_url": "git@github.com:apache/james-mime4j.git",
  "clone_url": "https://github.com/apache/james-mime4j.git",
  "svn_url": "https://github.com/apache/james-mime4j",
  "homepage": null,
  "size": 6318,
  "stargazers_count": 8,
  "watchers_count": 8,
  "language": "Java",
  "has_issues": false,
  "has_downloads": true,
  "has_wiki": false,
  "has_pages": false,
  "forks_count": 25,
  "mirror_url": "git://git.apache.org/james-mime4j.git",
  "open_issues_count": 3,
  "forks": 25,
  "open_issues": 3,
  "watchers": 8,
  "default_branch": "apache-mime4j-0.6",
  "master_branch": "apache-mime4j-0.6",
  "permissions": {
    "admin": false,
    "push": false,
    "pull": true
  },
  "license": {
    "key": "other",
    "name": "Other",
    "url": null,
    "featured": false
  },
  "organization": {
    "login": "apache",
    "id": 47359,
    "avatar_url": "https://avatars.githubusercontent.com/u/47359?v=3",
    "gravatar_id": "",
    "url": "https://api.github.com/users/apache",
    "html_url": "https://github.com/apache",
    "followers_url": "https://api.github.com/users/apache/followers",
    "following_url": "https://api.github.com/users/apache/following{/other_user}",
    "gists_url": "https://api.github.com/users/apache/gists{/gist_id}",
    "starred_url": "https://api.github.com/users/apache/starred{/owner}{/repo}",
    "subscriptions_url": "https://api.github.com/users/apache/subscriptions",
    "organizations_url": "https://api.github.com/users/apache/orgs",
    "repos_url": "https://api.github.com/users/apache/repos",
    "events_url": "https://api.github.com/users/apache/events{/privacy}",
    "received_events_url": "https://api.github.com/users/apache/received_events",
    "type": "Organization",
    "site_admin": false
  },
  "network_count": 25,
  "subscribers_count": 3
}
