[
{
  "url": "https://api.github.com/repos/KnpLabs/DoctrineBehaviors/issues/comments/61504684",
  "html_url": "https://github.com/KnpLabs/DoctrineBehaviors/pull/162#issuecomment-61504684",
  "issue_url": "https://api.github.com/repos/KnpLabs/DoctrineBehaviors/issues/162",
  "id": 61504684,
  "user": {
    "login": "kuczek",
    "id": 2432505,
    "avatar_url": "https://avatars.githubusercontent.com/u/2432505?v=3",
    "gravatar_id": "",
    "url": "https://api.github.com/users/kuczek",
    "html_url": "https://github.com/kuczek",
    "followers_url": "https://api.github.com/users/kuczek/followers",
    "following_url": "https://api.github.com/users/kuczek/following{/other_user}",
    "gists_url": "https://api.github.com/users/kuczek/gists{/gist_id}",
    "starred_url": "https://api.github.com/users/kuczek/starred{/owner}{/repo}",
    "subscriptions_url": "https://api.github.com/users/kuczek/subscriptions",
    "organizations_url": "https://api.github.com/users/kuczek/orgs",
    "repos_url": "https://api.github.com/users/kuczek/repos",
    "events_url": "https://api.github.com/users/kuczek/events{/privacy}",
    "received_events_url": "https://api.github.com/users/kuczek/received_events",
    "type": "User",
    "site_admin": false
  },
  "created_at": "2014-11-03T16:29:52Z",
  "updated_at": "2014-11-03T16:29:52Z",
  "body": "Maybe slug generator should be separate service, which you will be able to define? Right now it's hard to use this slug function in your project, and it's hard to override it if you need solution not provided by default. Some interface and basic implementations in project, and possiblity of easy extension for special uses.\r\nMoreover, then you will be able to get this Slugger and use it whenever you want."
}
, {
  "url": "https://api.github.com/repos/KnpLabs/DoctrineBehaviors/issues/comments/61505778",
  "html_url": "https://github.com/KnpLabs/DoctrineBehaviors/pull/162#issuecomment-61505778",
  "issue_url": "https://api.github.com/repos/KnpLabs/DoctrineBehaviors/issues/162",
  "id": 61505778,
  "user": {
    "login": "MAXakaWIZARD",
    "id": 1138453,
    "avatar_url": "https://avatars.githubusercontent.com/u/1138453?v=3",
    "gravatar_id": "",
    "url": "https://api.github.com/users/MAXakaWIZARD",
    "html_url": "https://github.com/MAXakaWIZARD",
    "followers_url": "https://api.github.com/users/MAXakaWIZARD/followers",
    "following_url": "https://api.github.com/users/MAXakaWIZARD/following{/other_user}",
    "gists_url": "https://api.github.com/users/MAXakaWIZARD/gists{/gist_id}",
    "starred_url": "https://api.github.com/users/MAXakaWIZARD/starred{/owner}{/repo}",
    "subscriptions_url": "https://api.github.com/users/MAXakaWIZARD/subscriptions",
    "organizations_url": "https://api.github.com/users/MAXakaWIZARD/orgs",
    "repos_url": "https://api.github.com/users/MAXakaWIZARD/repos",
    "events_url": "https://api.github.com/users/MAXakaWIZARD/events{/privacy}",
    "received_events_url": "https://api.github.com/users/MAXakaWIZARD/received_events",
    "type": "User",
    "site_admin": false
  },
  "created_at": "2014-11-03T16:36:28Z",
  "updated_at": "2014-11-03T16:36:37Z",
  "body": "@kuczek I see your point. I'll implement this."
}
, {
  "url": "https://api.github.com/repos/KnpLabs/DoctrineBehaviors/issues/comments/61511323",
  "html_url": "https://github.com/KnpLabs/DoctrineBehaviors/pull/162#issuecomment-61511323",
  "issue_url": "https://api.github.com/repos/KnpLabs/DoctrineBehaviors/issues/162",
  "id": 61511323,
  "user": {
    "login": "MAXakaWIZARD",
    "id": 1138453,
    "avatar_url": "https://avatars.githubusercontent.com/u/1138453?v=3",
    "gravatar_id": "",
    "url": "https://api.github.com/users/MAXakaWIZARD",
    "html_url": "https://github.com/MAXakaWIZARD",
    "followers_url": "https://api.github.com/users/MAXakaWIZARD/followers",
    "following_url": "https://api.github.com/users/MAXakaWIZARD/following{/other_user}",
    "gists_url": "https://api.github.com/users/MAXakaWIZARD/gists{/gist_id}",
    "starred_url": "https://api.github.com/users/MAXakaWIZARD/starred{/owner}{/repo}",
    "subscriptions_url": "https://api.github.com/users/MAXakaWIZARD/subscriptions",
    "organizations_url": "https://api.github.com/users/MAXakaWIZARD/orgs",
    "repos_url": "https://api.github.com/users/MAXakaWIZARD/repos",
    "events_url": "https://api.github.com/users/MAXakaWIZARD/events{/privacy}",
    "received_events_url": "https://api.github.com/users/MAXakaWIZARD/received_events",
    "type": "User",
    "site_admin": false
  },
  "created_at": "2014-11-03T17:07:57Z",
  "updated_at": "2014-11-03T17:07:57Z",
  "body": "Implemented custom slug generators via generateSlugValue method override"
}
, {
  "url": "https://api.github.com/repos/KnpLabs/DoctrineBehaviors/issues/comments/61511600",
  "html_url": "https://github.com/KnpLabs/DoctrineBehaviors/pull/162#issuecomment-61511600",
  "issue_url": "https://api.github.com/repos/KnpLabs/DoctrineBehaviors/issues/162",
  "id": 61511600,
  "user": {
    "login": "MAXakaWIZARD",
    "id": 1138453,
    "avatar_url": "https://avatars.githubusercontent.com/u/1138453?v=3",
    "gravatar_id": "",
    "url": "https://api.github.com/users/MAXakaWIZARD",
    "html_url": "https://github.com/MAXakaWIZARD",
    "followers_url": "https://api.github.com/users/MAXakaWIZARD/followers",
    "following_url": "https://api.github.com/users/MAXakaWIZARD/following{/other_user}",
    "gists_url": "https://api.github.com/users/MAXakaWIZARD/gists{/gist_id}",
    "starred_url": "https://api.github.com/users/MAXakaWIZARD/starred{/owner}{/repo}",
    "subscriptions_url": "https://api.github.com/users/MAXakaWIZARD/subscriptions",
    "organizations_url": "https://api.github.com/users/MAXakaWIZARD/orgs",
    "repos_url": "https://api.github.com/users/MAXakaWIZARD/repos",
    "events_url": "https://api.github.com/users/MAXakaWIZARD/events{/privacy}",
    "received_events_url": "https://api.github.com/users/MAXakaWIZARD/received_events",
    "type": "User",
    "site_admin": false
  },
  "created_at": "2014-11-03T17:09:46Z",
  "updated_at": "2014-11-03T17:09:46Z",
  "body": "@docteurklein Any news on when this could be merged?"
}
, {
  "url": "https://api.github.com/repos/KnpLabs/DoctrineBehaviors/issues/comments/65422197",
  "html_url": "https://github.com/KnpLabs/DoctrineBehaviors/pull/162#issuecomment-65422197",
  "issue_url": "https://api.github.com/repos/KnpLabs/DoctrineBehaviors/issues/162",
  "id": 65422197,
  "user": {
    "login": "giovkanata",
    "id": 4223657,
    "avatar_url": "https://avatars.githubusercontent.com/u/4223657?v=3",
    "gravatar_id": "",
    "url": "https://api.github.com/users/giovkanata",
    "html_url": "https://github.com/giovkanata",
    "followers_url": "https://api.github.com/users/giovkanata/followers",
    "following_url": "https://api.github.com/users/giovkanata/following{/other_user}",
    "gists_url": "https://api.github.com/users/giovkanata/gists{/gist_id}",
    "starred_url": "https://api.github.com/users/giovkanata/starred{/owner}{/repo}",
    "subscriptions_url": "https://api.github.com/users/giovkanata/subscriptions",
    "organizations_url": "https://api.github.com/users/giovkanata/orgs",
    "repos_url": "https://api.github.com/users/giovkanata/repos",
    "events_url": "https://api.github.com/users/giovkanata/events{/privacy}",
    "received_events_url": "https://api.github.com/users/giovkanata/received_events",
    "type": "User",
    "site_admin": false
  },
  "created_at": "2014-12-03T15:07:42Z",
  "updated_at": "2014-12-03T15:07:42Z",
  "body": "In your opinion, the slug from cyrillic, doesn't should be did using the official transliteration chars?\r\n[Passport (2013), ICAO](http://en.wikipedia.org/wiki/Romanization_of_Russian#New_system_2013)"
}
, {
  "url": "https://api.github.com/repos/KnpLabs/DoctrineBehaviors/issues/comments/76408050",
  "html_url": "https://github.com/KnpLabs/DoctrineBehaviors/pull/162#issuecomment-76408050",
  "issue_url": "https://api.github.com/repos/KnpLabs/DoctrineBehaviors/issues/162",
  "id": 76408050,
  "user": {
    "login": "MAXakaWIZARD",
    "id": 1138453,
    "avatar_url": "https://avatars.githubusercontent.com/u/1138453?v=3",
    "gravatar_id": "",
    "url": "https://api.github.com/users/MAXakaWIZARD",
    "html_url": "https://github.com/MAXakaWIZARD",
    "followers_url": "https://api.github.com/users/MAXakaWIZARD/followers",
    "following_url": "https://api.github.com/users/MAXakaWIZARD/following{/other_user}",
    "gists_url": "https://api.github.com/users/MAXakaWIZARD/gists{/gist_id}",
    "starred_url": "https://api.github.com/users/MAXakaWIZARD/starred{/owner}{/repo}",
    "subscriptions_url": "https://api.github.com/users/MAXakaWIZARD/subscriptions",
    "organizations_url": "https://api.github.com/users/MAXakaWIZARD/orgs",
    "repos_url": "https://api.github.com/users/MAXakaWIZARD/repos",
    "events_url": "https://api.github.com/users/MAXakaWIZARD/events{/privacy}",
    "received_events_url": "https://api.github.com/users/MAXakaWIZARD/received_events",
    "type": "User",
    "site_admin": false
  },
  "created_at": "2015-02-27T15:05:18Z",
  "updated_at": "2015-02-27T15:05:18Z",
  "body": "@docteurklein please review this"
}
]
