[
{
  "url": "https://api.github.com/repos/KnpLabs/DoctrineBehaviors/issues/comments/22097064",
  "html_url": "https://github.com/KnpLabs/DoctrineBehaviors/issues/64#issuecomment-22097064",
  "issue_url": "https://api.github.com/repos/KnpLabs/DoctrineBehaviors/issues/64",
  "id": 22097064,
  "user": {
    "login": "cdaguerre",
    "id": 4642448,
    "avatar_url": "https://avatars.githubusercontent.com/u/4642448?v=3",
    "gravatar_id": "",
    "url": "https://api.github.com/users/cdaguerre",
    "html_url": "https://github.com/cdaguerre",
    "followers_url": "https://api.github.com/users/cdaguerre/followers",
    "following_url": "https://api.github.com/users/cdaguerre/following{/other_user}",
    "gists_url": "https://api.github.com/users/cdaguerre/gists{/gist_id}",
    "starred_url": "https://api.github.com/users/cdaguerre/starred{/owner}{/repo}",
    "subscriptions_url": "https://api.github.com/users/cdaguerre/subscriptions",
    "organizations_url": "https://api.github.com/users/cdaguerre/orgs",
    "repos_url": "https://api.github.com/users/cdaguerre/repos",
    "events_url": "https://api.github.com/users/cdaguerre/events{/privacy}",
    "received_events_url": "https://api.github.com/users/cdaguerre/received_events",
    "type": "User",
    "site_admin": false
  },
  "created_at": "2013-08-05T10:06:02Z",
  "updated_at": "2013-08-05T10:06:21Z",
  "body": "Sorry, just figured out that all I had to do was copy the service definition to my ```config.yml``` file, in order to have the callable passed, although I don't really understand why it doesn't work when importing ```orm-services.yml```."
}
]
