[
{
  "url": "https://api.github.com/repos/facebook/fbthrift/issues/comments/142007391",
  "html_url": "https://github.com/facebook/fbthrift/issues/127#issuecomment-142007391",
  "issue_url": "https://api.github.com/repos/facebook/fbthrift/issues/127",
  "id": 142007391,
  "user": {
    "login": "LinusU",
    "id": 189580,
    "avatar_url": "https://avatars.githubusercontent.com/u/189580?v=3",
    "gravatar_id": "",
    "url": "https://api.github.com/users/LinusU",
    "html_url": "https://github.com/LinusU",
    "followers_url": "https://api.github.com/users/LinusU/followers",
    "following_url": "https://api.github.com/users/LinusU/following{/other_user}",
    "gists_url": "https://api.github.com/users/LinusU/gists{/gist_id}",
    "starred_url": "https://api.github.com/users/LinusU/starred{/owner}{/repo}",
    "subscriptions_url": "https://api.github.com/users/LinusU/subscriptions",
    "organizations_url": "https://api.github.com/users/LinusU/orgs",
    "repos_url": "https://api.github.com/users/LinusU/repos",
    "events_url": "https://api.github.com/users/LinusU/events{/privacy}",
    "received_events_url": "https://api.github.com/users/LinusU/received_events",
    "type": "User",
    "site_admin": false
  },
  "created_at": "2015-09-21T14:59:35Z",
  "updated_at": "2015-09-21T14:59:35Z",
  "body": "I'm sorry, reported this to the wrong repo..."
}
]
