[
{
  "url": "https://api.github.com/repos/facebook/fbthrift/issues/comments/67660252",
  "html_url": "https://github.com/facebook/fbthrift/issues/62#issuecomment-67660252",
  "issue_url": "https://api.github.com/repos/facebook/fbthrift/issues/62",
  "id": 67660252,
  "user": {
    "login": "jucor",
    "id": 660037,
    "avatar_url": "https://avatars.githubusercontent.com/u/660037?v=3",
    "gravatar_id": "",
    "url": "https://api.github.com/users/jucor",
    "html_url": "https://github.com/jucor",
    "followers_url": "https://api.github.com/users/jucor/followers",
    "following_url": "https://api.github.com/users/jucor/following{/other_user}",
    "gists_url": "https://api.github.com/users/jucor/gists{/gist_id}",
    "starred_url": "https://api.github.com/users/jucor/starred{/owner}{/repo}",
    "subscriptions_url": "https://api.github.com/users/jucor/subscriptions",
    "organizations_url": "https://api.github.com/users/jucor/orgs",
    "repos_url": "https://api.github.com/users/jucor/repos",
    "events_url": "https://api.github.com/users/jucor/events{/privacy}",
    "received_events_url": "https://api.github.com/users/jucor/received_events",
    "type": "User",
    "site_admin": false
  },
  "created_at": "2014-12-19T16:25:59Z",
  "updated_at": "2014-12-19T16:25:59Z",
  "body": "@soumith , I stumbled upon this when trying to install your fblualib, I thought you'd want to know :)"
}
, {
  "url": "https://api.github.com/repos/facebook/fbthrift/issues/comments/67660503",
  "html_url": "https://github.com/facebook/fbthrift/issues/62#issuecomment-67660503",
  "issue_url": "https://api.github.com/repos/facebook/fbthrift/issues/62",
  "id": 67660503,
  "user": {
    "login": "soumith",
    "id": 1310570,
    "avatar_url": "https://avatars.githubusercontent.com/u/1310570?v=3",
    "gravatar_id": "",
    "url": "https://api.github.com/users/soumith",
    "html_url": "https://github.com/soumith",
    "followers_url": "https://api.github.com/users/soumith/followers",
    "following_url": "https://api.github.com/users/soumith/following{/other_user}",
    "gists_url": "https://api.github.com/users/soumith/gists{/gist_id}",
    "starred_url": "https://api.github.com/users/soumith/starred{/owner}{/repo}",
    "subscriptions_url": "https://api.github.com/users/soumith/subscriptions",
    "organizations_url": "https://api.github.com/users/soumith/orgs",
    "repos_url": "https://api.github.com/users/soumith/repos",
    "events_url": "https://api.github.com/users/soumith/events{/privacy}",
    "received_events_url": "https://api.github.com/users/soumith/received_events",
    "type": "User",
    "site_admin": false
  },
  "created_at": "2014-12-19T16:27:40Z",
  "updated_at": "2014-12-19T16:27:40Z",
  "body": "there's a whole team supporting fbthrift, i will let them handle it :)"
}
, {
  "url": "https://api.github.com/repos/facebook/fbthrift/issues/comments/128092714",
  "html_url": "https://github.com/facebook/fbthrift/issues/62#issuecomment-128092714",
  "issue_url": "https://api.github.com/repos/facebook/fbthrift/issues/62",
  "id": 128092714,
  "user": {
    "login": "facebook-github-bot-8",
    "id": 8398704,
    "avatar_url": "https://avatars.githubusercontent.com/u/8398704?v=3",
    "gravatar_id": "",
    "url": "https://api.github.com/users/facebook-github-bot-8",
    "html_url": "https://github.com/facebook-github-bot-8",
    "followers_url": "https://api.github.com/users/facebook-github-bot-8/followers",
    "following_url": "https://api.github.com/users/facebook-github-bot-8/following{/other_user}",
    "gists_url": "https://api.github.com/users/facebook-github-bot-8/gists{/gist_id}",
    "starred_url": "https://api.github.com/users/facebook-github-bot-8/starred{/owner}{/repo}",
    "subscriptions_url": "https://api.github.com/users/facebook-github-bot-8/subscriptions",
    "organizations_url": "https://api.github.com/users/facebook-github-bot-8/orgs",
    "repos_url": "https://api.github.com/users/facebook-github-bot-8/repos",
    "events_url": "https://api.github.com/users/facebook-github-bot-8/events{/privacy}",
    "received_events_url": "https://api.github.com/users/facebook-github-bot-8/received_events",
    "type": "User",
    "site_admin": false
  },
  "created_at": "2015-08-05T18:02:11Z",
  "updated_at": "2015-08-05T18:02:11Z",
  "body": "Thank you for reporting this issue and appreciate your patience. We've  notified the core team for an update on this issue. We're looking for a response within the next 30 days or the issue may be closed."
}
]
