[
{
  "url": "https://api.github.com/repos/google/souper/issues/comments/56913137",
  "html_url": "https://github.com/google/souper/pull/60#issuecomment-56913137",
  "issue_url": "https://api.github.com/repos/google/souper/issues/60",
  "id": 56913137,
  "user": {
    "login": "buildhive",
    "id": 1584733,
    "avatar_url": "https://avatars.githubusercontent.com/u/1584733?v=3",
    "gravatar_id": "",
    "url": "https://api.github.com/users/buildhive",
    "html_url": "https://github.com/buildhive",
    "followers_url": "https://api.github.com/users/buildhive/followers",
    "following_url": "https://api.github.com/users/buildhive/following{/other_user}",
    "gists_url": "https://api.github.com/users/buildhive/gists{/gist_id}",
    "starred_url": "https://api.github.com/users/buildhive/starred{/owner}{/repo}",
    "subscriptions_url": "https://api.github.com/users/buildhive/subscriptions",
    "organizations_url": "https://api.github.com/users/buildhive/orgs",
    "repos_url": "https://api.github.com/users/buildhive/repos",
    "events_url": "https://api.github.com/users/buildhive/events{/privacy}",
    "received_events_url": "https://api.github.com/users/buildhive/received_events",
    "type": "User",
    "site_admin": false
  },
  "created_at": "2014-09-26T02:42:43Z",
  "updated_at": "2014-09-26T02:42:43Z",
  "body": "[Google » souper #154](https://buildhive.cloudbees.com/job/google/job/souper/154/) SUCCESS\nThis pull request looks good\n[(what's this?)](https://www.cloudbees.com/what-is-buildhive)"
}
, {
  "url": "https://api.github.com/repos/google/souper/issues/comments/56913148",
  "html_url": "https://github.com/google/souper/pull/60#issuecomment-56913148",
  "issue_url": "https://api.github.com/repos/google/souper/issues/60",
  "id": 56913148,
  "user": {
    "login": "pcc",
    "id": 425024,
    "avatar_url": "https://avatars.githubusercontent.com/u/425024?v=3",
    "gravatar_id": "",
    "url": "https://api.github.com/users/pcc",
    "html_url": "https://github.com/pcc",
    "followers_url": "https://api.github.com/users/pcc/followers",
    "following_url": "https://api.github.com/users/pcc/following{/other_user}",
    "gists_url": "https://api.github.com/users/pcc/gists{/gist_id}",
    "starred_url": "https://api.github.com/users/pcc/starred{/owner}{/repo}",
    "subscriptions_url": "https://api.github.com/users/pcc/subscriptions",
    "organizations_url": "https://api.github.com/users/pcc/orgs",
    "repos_url": "https://api.github.com/users/pcc/repos",
    "events_url": "https://api.github.com/users/pcc/events{/privacy}",
    "received_events_url": "https://api.github.com/users/pcc/received_events",
    "type": "User",
    "site_admin": false
  },
  "created_at": "2014-09-26T02:42:56Z",
  "updated_at": "2014-09-26T02:42:56Z",
  "body": "LGTM"
}
]
