[
{
  "url": "https://api.github.com/repos/Microsoft/TypeScript-Sublime-Plugin/issues/comments/118500940",
  "html_url": "https://github.com/Microsoft/TypeScript-Sublime-Plugin/issues/271#issuecomment-118500940",
  "issue_url": "https://api.github.com/repos/Microsoft/TypeScript-Sublime-Plugin/issues/271",
  "id": 118500940,
  "user": {
    "login": "ddotlic",
    "id": 1737586,
    "avatar_url": "https://avatars.githubusercontent.com/u/1737586?v=3",
    "gravatar_id": "",
    "url": "https://api.github.com/users/ddotlic",
    "html_url": "https://github.com/ddotlic",
    "followers_url": "https://api.github.com/users/ddotlic/followers",
    "following_url": "https://api.github.com/users/ddotlic/following{/other_user}",
    "gists_url": "https://api.github.com/users/ddotlic/gists{/gist_id}",
    "starred_url": "https://api.github.com/users/ddotlic/starred{/owner}{/repo}",
    "subscriptions_url": "https://api.github.com/users/ddotlic/subscriptions",
    "organizations_url": "https://api.github.com/users/ddotlic/orgs",
    "repos_url": "https://api.github.com/users/ddotlic/repos",
    "events_url": "https://api.github.com/users/ddotlic/events{/privacy}",
    "received_events_url": "https://api.github.com/users/ddotlic/received_events",
    "type": "User",
    "site_admin": false
  },
  "created_at": "2015-07-04T11:13:33Z",
  "updated_at": "2015-07-04T11:13:33Z",
  "body": "A bit more info, I've now modified one of the two files where I can observe this and the coloring started working... in the second file though it's still not working, so there might be something else at play besides from multiple `else [if]` statements, I'm trying to see what."
}
, {
  "url": "https://api.github.com/repos/Microsoft/TypeScript-Sublime-Plugin/issues/comments/118596913",
  "html_url": "https://github.com/Microsoft/TypeScript-Sublime-Plugin/issues/271#issuecomment-118596913",
  "issue_url": "https://api.github.com/repos/Microsoft/TypeScript-Sublime-Plugin/issues/271",
  "id": 118596913,
  "user": {
    "login": "hoanhtien",
    "id": 1707813,
    "avatar_url": "https://avatars.githubusercontent.com/u/1707813?v=3",
    "gravatar_id": "",
    "url": "https://api.github.com/users/hoanhtien",
    "html_url": "https://github.com/hoanhtien",
    "followers_url": "https://api.github.com/users/hoanhtien/followers",
    "following_url": "https://api.github.com/users/hoanhtien/following{/other_user}",
    "gists_url": "https://api.github.com/users/hoanhtien/gists{/gist_id}",
    "starred_url": "https://api.github.com/users/hoanhtien/starred{/owner}{/repo}",
    "subscriptions_url": "https://api.github.com/users/hoanhtien/subscriptions",
    "organizations_url": "https://api.github.com/users/hoanhtien/orgs",
    "repos_url": "https://api.github.com/users/hoanhtien/repos",
    "events_url": "https://api.github.com/users/hoanhtien/events{/privacy}",
    "received_events_url": "https://api.github.com/users/hoanhtien/received_events",
    "type": "User",
    "site_admin": false
  },
  "created_at": "2015-07-05T09:01:54Z",
  "updated_at": "2015-07-05T09:01:54Z",
  "body": "@ddotlic Is there a less-than sign i.e. `<` in your code? Might be related to https://github.com/Microsoft/TypeScript-Sublime-Plugin/issues/265."
}
, {
  "url": "https://api.github.com/repos/Microsoft/TypeScript-Sublime-Plugin/issues/comments/119030757",
  "html_url": "https://github.com/Microsoft/TypeScript-Sublime-Plugin/issues/271#issuecomment-119030757",
  "issue_url": "https://api.github.com/repos/Microsoft/TypeScript-Sublime-Plugin/issues/271",
  "id": 119030757,
  "user": {
    "login": "hoanhtien",
    "id": 1707813,
    "avatar_url": "https://avatars.githubusercontent.com/u/1707813?v=3",
    "gravatar_id": "",
    "url": "https://api.github.com/users/hoanhtien",
    "html_url": "https://github.com/hoanhtien",
    "followers_url": "https://api.github.com/users/hoanhtien/followers",
    "following_url": "https://api.github.com/users/hoanhtien/following{/other_user}",
    "gists_url": "https://api.github.com/users/hoanhtien/gists{/gist_id}",
    "starred_url": "https://api.github.com/users/hoanhtien/starred{/owner}{/repo}",
    "subscriptions_url": "https://api.github.com/users/hoanhtien/subscriptions",
    "organizations_url": "https://api.github.com/users/hoanhtien/orgs",
    "repos_url": "https://api.github.com/users/hoanhtien/repos",
    "events_url": "https://api.github.com/users/hoanhtien/events{/privacy}",
    "received_events_url": "https://api.github.com/users/hoanhtien/received_events",
    "type": "User",
    "site_admin": false
  },
  "created_at": "2015-07-06T23:58:07Z",
  "updated_at": "2015-07-06T23:58:07Z",
  "body": "@ddotlic We just release v0.1.6 that includes the fix for bug #265. Can you help giving it a try?"
}
, {
  "url": "https://api.github.com/repos/Microsoft/TypeScript-Sublime-Plugin/issues/comments/119082935",
  "html_url": "https://github.com/Microsoft/TypeScript-Sublime-Plugin/issues/271#issuecomment-119082935",
  "issue_url": "https://api.github.com/repos/Microsoft/TypeScript-Sublime-Plugin/issues/271",
  "id": 119082935,
  "user": {
    "login": "ddotlic",
    "id": 1737586,
    "avatar_url": "https://avatars.githubusercontent.com/u/1737586?v=3",
    "gravatar_id": "",
    "url": "https://api.github.com/users/ddotlic",
    "html_url": "https://github.com/ddotlic",
    "followers_url": "https://api.github.com/users/ddotlic/followers",
    "following_url": "https://api.github.com/users/ddotlic/following{/other_user}",
    "gists_url": "https://api.github.com/users/ddotlic/gists{/gist_id}",
    "starred_url": "https://api.github.com/users/ddotlic/starred{/owner}{/repo}",
    "subscriptions_url": "https://api.github.com/users/ddotlic/subscriptions",
    "organizations_url": "https://api.github.com/users/ddotlic/orgs",
    "repos_url": "https://api.github.com/users/ddotlic/repos",
    "events_url": "https://api.github.com/users/ddotlic/events{/privacy}",
    "received_events_url": "https://api.github.com/users/ddotlic/received_events",
    "type": "User",
    "site_admin": false
  },
  "created_at": "2015-07-07T06:10:04Z",
  "updated_at": "2015-07-07T06:10:04Z",
  "body": "0.1.6 fixes this issue, thanks!"
}
]
