[
{
  "url": "https://api.github.com/repos/facebook/codemod/issues/comments/63741635",
  "html_url": "https://github.com/facebook/codemod/issues/9#issuecomment-63741635",
  "issue_url": "https://api.github.com/repos/facebook/codemod/issues/9",
  "id": 63741635,
  "user": {
    "login": "facebook-github-bot",
    "id": 6422482,
    "avatar_url": "https://avatars.githubusercontent.com/u/6422482?v=3",
    "gravatar_id": "",
    "url": "https://api.github.com/users/facebook-github-bot",
    "html_url": "https://github.com/facebook-github-bot",
    "followers_url": "https://api.github.com/users/facebook-github-bot/followers",
    "following_url": "https://api.github.com/users/facebook-github-bot/following{/other_user}",
    "gists_url": "https://api.github.com/users/facebook-github-bot/gists{/gist_id}",
    "starred_url": "https://api.github.com/users/facebook-github-bot/starred{/owner}{/repo}",
    "subscriptions_url": "https://api.github.com/users/facebook-github-bot/subscriptions",
    "organizations_url": "https://api.github.com/users/facebook-github-bot/orgs",
    "repos_url": "https://api.github.com/users/facebook-github-bot/repos",
    "events_url": "https://api.github.com/users/facebook-github-bot/events{/privacy}",
    "received_events_url": "https://api.github.com/users/facebook-github-bot/received_events",
    "type": "User",
    "site_admin": false
  },
  "created_at": "2014-11-20T00:33:13Z",
  "updated_at": "2014-11-20T00:33:13Z",
  "body": "Thank you for reaching out to us and we'd like to first apoligize for not getting back to you sooner. We're closing out older issues since updates to the project may address the issue you opened or they may no longer be relevant. If you're still experiencing the problem, please reopen the issue - thanks!"
}
]
