[
{
  "url": "https://api.github.com/repos/mongodb/docs-ecosystem/issues/comments/148805895",
  "html_url": "https://github.com/mongodb/docs-ecosystem/pull/315#issuecomment-148805895",
  "issue_url": "https://api.github.com/repos/mongodb/docs-ecosystem/issues/315",
  "id": 148805895,
  "user": {
    "login": "kay-kim",
    "id": 2126636,
    "avatar_url": "https://avatars.githubusercontent.com/u/2126636?v=3",
    "gravatar_id": "",
    "url": "https://api.github.com/users/kay-kim",
    "html_url": "https://github.com/kay-kim",
    "followers_url": "https://api.github.com/users/kay-kim/followers",
    "following_url": "https://api.github.com/users/kay-kim/following{/other_user}",
    "gists_url": "https://api.github.com/users/kay-kim/gists{/gist_id}",
    "starred_url": "https://api.github.com/users/kay-kim/starred{/owner}{/repo}",
    "subscriptions_url": "https://api.github.com/users/kay-kim/subscriptions",
    "organizations_url": "https://api.github.com/users/kay-kim/orgs",
    "repos_url": "https://api.github.com/users/kay-kim/repos",
    "events_url": "https://api.github.com/users/kay-kim/events{/privacy}",
    "received_events_url": "https://api.github.com/users/kay-kim/received_events",
    "type": "User",
    "site_admin": false
  },
  "created_at": "2015-10-16T18:53:47Z",
  "updated_at": "2015-10-16T18:53:47Z",
  "body": "merged!"
}
]
