[
{
  "url": "https://api.github.com/repos/google/closure-library/issues/comments/82816913",
  "html_url": "https://github.com/google/closure-library/pull/431#issuecomment-82816913",
  "issue_url": "https://api.github.com/repos/google/closure-library/issues/431",
  "id": 82816913,
  "user": {
    "login": "ama-ch",
    "id": 18660,
    "avatar_url": "https://avatars.githubusercontent.com/u/18660?v=3",
    "gravatar_id": "",
    "url": "https://api.github.com/users/ama-ch",
    "html_url": "https://github.com/ama-ch",
    "followers_url": "https://api.github.com/users/ama-ch/followers",
    "following_url": "https://api.github.com/users/ama-ch/following{/other_user}",
    "gists_url": "https://api.github.com/users/ama-ch/gists{/gist_id}",
    "starred_url": "https://api.github.com/users/ama-ch/starred{/owner}{/repo}",
    "subscriptions_url": "https://api.github.com/users/ama-ch/subscriptions",
    "organizations_url": "https://api.github.com/users/ama-ch/orgs",
    "repos_url": "https://api.github.com/users/ama-ch/repos",
    "events_url": "https://api.github.com/users/ama-ch/events{/privacy}",
    "received_events_url": "https://api.github.com/users/ama-ch/received_events",
    "type": "User",
    "site_admin": false
  },
  "created_at": "2015-03-18T08:29:03Z",
  "updated_at": "2015-03-18T08:29:03Z",
  "body": "I have signed CLA."
}
, {
  "url": "https://api.github.com/repos/google/closure-library/issues/comments/92270413",
  "html_url": "https://github.com/google/closure-library/pull/431#issuecomment-92270413",
  "issue_url": "https://api.github.com/repos/google/closure-library/issues/431",
  "id": 92270413,
  "user": {
    "login": "teppeis",
    "id": 26476,
    "avatar_url": "https://avatars.githubusercontent.com/u/26476?v=3",
    "gravatar_id": "",
    "url": "https://api.github.com/users/teppeis",
    "html_url": "https://github.com/teppeis",
    "followers_url": "https://api.github.com/users/teppeis/followers",
    "following_url": "https://api.github.com/users/teppeis/following{/other_user}",
    "gists_url": "https://api.github.com/users/teppeis/gists{/gist_id}",
    "starred_url": "https://api.github.com/users/teppeis/starred{/owner}{/repo}",
    "subscriptions_url": "https://api.github.com/users/teppeis/subscriptions",
    "organizations_url": "https://api.github.com/users/teppeis/orgs",
    "repos_url": "https://api.github.com/users/teppeis/repos",
    "events_url": "https://api.github.com/users/teppeis/events{/privacy}",
    "received_events_url": "https://api.github.com/users/teppeis/received_events",
    "type": "User",
    "site_admin": false
  },
  "created_at": "2015-04-13T08:30:39Z",
  "updated_at": "2015-04-13T08:30:39Z",
  "body": "anyone could review this tiny PR?"
}
, {
  "url": "https://api.github.com/repos/google/closure-library/issues/comments/92403105",
  "html_url": "https://github.com/google/closure-library/pull/431#issuecomment-92403105",
  "issue_url": "https://api.github.com/repos/google/closure-library/issues/431",
  "id": 92403105,
  "user": {
    "login": "concavelenz",
    "id": 1245994,
    "avatar_url": "https://avatars.githubusercontent.com/u/1245994?v=3",
    "gravatar_id": "",
    "url": "https://api.github.com/users/concavelenz",
    "html_url": "https://github.com/concavelenz",
    "followers_url": "https://api.github.com/users/concavelenz/followers",
    "following_url": "https://api.github.com/users/concavelenz/following{/other_user}",
    "gists_url": "https://api.github.com/users/concavelenz/gists{/gist_id}",
    "starred_url": "https://api.github.com/users/concavelenz/starred{/owner}{/repo}",
    "subscriptions_url": "https://api.github.com/users/concavelenz/subscriptions",
    "organizations_url": "https://api.github.com/users/concavelenz/orgs",
    "repos_url": "https://api.github.com/users/concavelenz/repos",
    "events_url": "https://api.github.com/users/concavelenz/events{/privacy}",
    "received_events_url": "https://api.github.com/users/concavelenz/received_events",
    "type": "User",
    "site_admin": false
  },
  "created_at": "2015-04-13T15:34:11Z",
  "updated_at": "2015-04-13T15:34:11Z",
  "body": "LGTM"
}
]
