[
{
  "url": "https://api.github.com/repos/google/closure-library/issues/comments/133188755",
  "html_url": "https://github.com/google/closure-library/issues/101#issuecomment-133188755",
  "issue_url": "https://api.github.com/repos/google/closure-library/issues/101",
  "id": 133188755,
  "user": {
    "login": "joeltine",
    "id": 13138272,
    "avatar_url": "https://avatars.githubusercontent.com/u/13138272?v=3",
    "gravatar_id": "",
    "url": "https://api.github.com/users/joeltine",
    "html_url": "https://github.com/joeltine",
    "followers_url": "https://api.github.com/users/joeltine/followers",
    "following_url": "https://api.github.com/users/joeltine/following{/other_user}",
    "gists_url": "https://api.github.com/users/joeltine/gists{/gist_id}",
    "starred_url": "https://api.github.com/users/joeltine/starred{/owner}{/repo}",
    "subscriptions_url": "https://api.github.com/users/joeltine/subscriptions",
    "organizations_url": "https://api.github.com/users/joeltine/orgs",
    "repos_url": "https://api.github.com/users/joeltine/repos",
    "events_url": "https://api.github.com/users/joeltine/events{/privacy}",
    "received_events_url": "https://api.github.com/users/joeltine/received_events",
    "type": "User",
    "site_admin": false
  },
  "created_at": "2015-08-20T21:53:05Z",
  "updated_at": "2015-08-20T21:53:05Z",
  "body": "Nothing actionable"
}
]
