[
{
  "url": "https://api.github.com/repos/facebook/augmented-traffic-control/issues/comments/171821330",
  "html_url": "https://github.com/facebook/augmented-traffic-control/pull/233#issuecomment-171821330",
  "issue_url": "https://api.github.com/repos/facebook/augmented-traffic-control/issues/233",
  "id": 171821330,
  "user": {
    "login": "chantra",
    "id": 24572,
    "avatar_url": "https://avatars.githubusercontent.com/u/24572?v=3",
    "gravatar_id": "",
    "url": "https://api.github.com/users/chantra",
    "html_url": "https://github.com/chantra",
    "followers_url": "https://api.github.com/users/chantra/followers",
    "following_url": "https://api.github.com/users/chantra/following{/other_user}",
    "gists_url": "https://api.github.com/users/chantra/gists{/gist_id}",
    "starred_url": "https://api.github.com/users/chantra/starred{/owner}{/repo}",
    "subscriptions_url": "https://api.github.com/users/chantra/subscriptions",
    "organizations_url": "https://api.github.com/users/chantra/orgs",
    "repos_url": "https://api.github.com/users/chantra/repos",
    "events_url": "https://api.github.com/users/chantra/events{/privacy}",
    "received_events_url": "https://api.github.com/users/chantra/received_events",
    "type": "User",
    "site_admin": false
  },
  "created_at": "2016-01-14T23:57:24Z",
  "updated_at": "2016-01-14T23:57:24Z",
  "body": "@zfjagann I assume you tested both with --assets and without and the ui still work as expected.\r\nIf that is the case, please merge it."
}
, {
  "url": "https://api.github.com/repos/facebook/augmented-traffic-control/issues/comments/171821715",
  "html_url": "https://github.com/facebook/augmented-traffic-control/pull/233#issuecomment-171821715",
  "issue_url": "https://api.github.com/repos/facebook/augmented-traffic-control/issues/233",
  "id": 171821715,
  "user": {
    "login": "zfjagann",
    "id": 794008,
    "avatar_url": "https://avatars.githubusercontent.com/u/794008?v=3",
    "gravatar_id": "",
    "url": "https://api.github.com/users/zfjagann",
    "html_url": "https://github.com/zfjagann",
    "followers_url": "https://api.github.com/users/zfjagann/followers",
    "following_url": "https://api.github.com/users/zfjagann/following{/other_user}",
    "gists_url": "https://api.github.com/users/zfjagann/gists{/gist_id}",
    "starred_url": "https://api.github.com/users/zfjagann/starred{/owner}{/repo}",
    "subscriptions_url": "https://api.github.com/users/zfjagann/subscriptions",
    "organizations_url": "https://api.github.com/users/zfjagann/orgs",
    "repos_url": "https://api.github.com/users/zfjagann/repos",
    "events_url": "https://api.github.com/users/zfjagann/events{/privacy}",
    "received_events_url": "https://api.github.com/users/zfjagann/received_events",
    "type": "User",
    "site_admin": false
  },
  "created_at": "2016-01-14T23:59:48Z",
  "updated_at": "2016-01-14T23:59:48Z",
  "body": "Yes. i can post screenshots, but I figured it wasn't that necessary. The only thing I think needs work here is documenting what format the index page needs to be in and what things you can do with it."
}
, {
  "url": "https://api.github.com/repos/facebook/augmented-traffic-control/issues/comments/171821991",
  "html_url": "https://github.com/facebook/augmented-traffic-control/pull/233#issuecomment-171821991",
  "issue_url": "https://api.github.com/repos/facebook/augmented-traffic-control/issues/233",
  "id": 171821991,
  "user": {
    "login": "chantra",
    "id": 24572,
    "avatar_url": "https://avatars.githubusercontent.com/u/24572?v=3",
    "gravatar_id": "",
    "url": "https://api.github.com/users/chantra",
    "html_url": "https://github.com/chantra",
    "followers_url": "https://api.github.com/users/chantra/followers",
    "following_url": "https://api.github.com/users/chantra/following{/other_user}",
    "gists_url": "https://api.github.com/users/chantra/gists{/gist_id}",
    "starred_url": "https://api.github.com/users/chantra/starred{/owner}{/repo}",
    "subscriptions_url": "https://api.github.com/users/chantra/subscriptions",
    "organizations_url": "https://api.github.com/users/chantra/orgs",
    "repos_url": "https://api.github.com/users/chantra/repos",
    "events_url": "https://api.github.com/users/chantra/events{/privacy}",
    "received_events_url": "https://api.github.com/users/chantra/received_events",
    "type": "User",
    "site_admin": false
  },
  "created_at": "2016-01-15T00:01:22Z",
  "updated_at": "2016-01-15T00:01:22Z",
  "body": ":+1: "
}
]
