[
{
  "url": "https://api.github.com/repos/owncloud/chat/issues/comments/119753549",
  "html_url": "https://github.com/owncloud/chat/issues/225#issuecomment-119753549",
  "issue_url": "https://api.github.com/repos/owncloud/chat/issues/225",
  "id": 119753549,
  "user": {
    "login": "Ark74",
    "id": 7444518,
    "avatar_url": "https://avatars.githubusercontent.com/u/7444518?v=3",
    "gravatar_id": "",
    "url": "https://api.github.com/users/Ark74",
    "html_url": "https://github.com/Ark74",
    "followers_url": "https://api.github.com/users/Ark74/followers",
    "following_url": "https://api.github.com/users/Ark74/following{/other_user}",
    "gists_url": "https://api.github.com/users/Ark74/gists{/gist_id}",
    "starred_url": "https://api.github.com/users/Ark74/starred{/owner}{/repo}",
    "subscriptions_url": "https://api.github.com/users/Ark74/subscriptions",
    "organizations_url": "https://api.github.com/users/Ark74/orgs",
    "repos_url": "https://api.github.com/users/Ark74/repos",
    "events_url": "https://api.github.com/users/Ark74/events{/privacy}",
    "received_events_url": "https://api.github.com/users/Ark74/received_events",
    "type": "User",
    "site_admin": false
  },
  "created_at": "2015-07-08T22:54:25Z",
  "updated_at": "2015-07-08T22:54:25Z",
  "body": "Now with the release of 8.1 this is solved.\r\nThanks"
}
]
